"['#Date/Time of Update: 2018-12-10 19:02:57 GMT', '#Game ID', '#Game Date', '#Game Time', '#Away Team ID', '#Away Team Abbr.', '#Away Team City', '#Away Team Name', '#Home Team ID', '#Home Team Abbr.', '#Home Team City', '#Home Team Name', '#Venue ID', '#Venue Name', '#Team ID', '#Team Abbr.', '#Team City', '#Team Name', '#Wins', '#Losses', '#OvertimeWins', '#OvertimeLosses', '#ShootoutWins', '#ShootoutLosses', '#Points', '#FaceoffWins', '#FaceoffLosses', '#FaceoffPercent', '#Powerplays', '#PowerplayGoals', '#PowerplayPercent', '#PenaltyKills', '#PenaltyKillGoalsAllowed', '#PenaltyKillPercent', '#ShorthandedGoalsFor', '#ShorthandedGoalsAgainst', '#GoalsFor', '#GoalsAgainst', '#Shots', '#Penalties', '#PenaltyMinutes', '#Hits']"
"['', '8691', '2009-10-02', '23:30:00 GMT', '9', 'NYR', 'New York', 'Rangers', '10', 'PIT', 'Pittsburgh', 'Penguins', '14', 'Mellon Arena', '9', 'NYR', 'New York', 'Rangers', '0', '1', '0', '0', '0', '0', '0', '28', '28', '50.0', '4', '0', '0.0', '2', '1', '50.0', '0', '0', '2', '3', '25', '3', '9', '31']"
"['', '8699', '2009-10-03', '23:00:00 GMT', '13', 'OTT', 'Ottawa', 'Senators', '9', 'NYR', 'New York', 'Rangers', '12', 'Madison Square Garden', '9', 'NYR', 'New York', 'Rangers', '1', '0', '0', '0', '0', '0', '2', '29', '27', '51.8', '5', '0', '0.0', '3', '0', '100.0', '1', '0', '5', '2', '29', '6', '18', '28']"
"['', '8707', '2009-10-05', '23:00:00 GMT', '9', 'NYR', 'New York', 'Rangers', '7', 'NJD', 'New Jersey', 'Devils', '5', 'Izod Center', '9', 'NYR', 'New York', 'Rangers', '1', '0', '0', '0', '0', '0', '2', '28', '28', '50.0', '6', '2', '33.3', '5', '1', '80.0', '0', '0', '3', '2', '23', '9', '18', '21']"
"['', '8722', '2009-10-08', '23:00:00 GMT', '9', 'NYR', 'New York', 'Rangers', '5', 'WSH', 'Washington', 'Capitals', '13', 'Verizon Center', '9', 'NYR', 'New York', 'Rangers', '1', '0', '0', '0', '0', '0', '2', '25', '36', '41.0', '3', '1', '33.3', '9', '1', '88.9', '0', '0', '4', '3', '25', '9', '18', '16']"
"['', '8745', '2009-10-11', '21:00:00 GMT', '29', 'ANA', 'Anaheim', 'Ducks', '9', 'NYR', 'New York', 'Rangers', '12', 'Madison Square Garden', '9', 'NYR', 'New York', 'Rangers', '1', '0', '0', '0', '0', '0', '2', '31', '23', '57.4', '5', '2', '40.0', '4', '0', '100.0', '1', '0', '3', '0', '35', '4', '8', '40']"
"['', '8749', '2009-10-12', '23:00:00 GMT', '12', 'TOR', 'Toronto', 'Maple Leafs', '9', 'NYR', 'New York', 'Rangers', '12', 'Madison Square Garden', '9', 'NYR', 'New York', 'Rangers', '1', '0', '0', '0', '0', '0', '2', '22', '34', '39.3', '5', '2', '40.0', '3', '1', '66.7', '0', '0', '7', '2', '26', '6', '15', '27']"
"['', '8760', '2009-10-14', '23:00:00 GMT', '28', 'LAK', 'Los Angeles', 'Kings', '9', 'NYR', 'New York', 'Rangers', '12', 'Madison Square Garden', '9', 'NYR', 'New York', 'Rangers', '1', '0', '0', '0', '0', '0', '2', '23', '27', '46.0', '3', '2', '66.7', '7', '1', '85.7', '0', '0', '4', '2', '17', '8', '19', '36']"
"['', '8781', '2009-10-17', '23:00:00 GMT', '9', 'NYR', 'New York', 'Rangers', '12', 'TOR', 'Toronto', 'Maple Leafs', '1', 'Air Canada Center', '9', 'NYR', 'New York', 'Rangers', '1', '0', '0', '0', '0', '0', '2', '37', '24', '60.7', '3', '1', '33.3', '6', '0', '100.0', '0', '0', '4', '1', '24', '6', '12', '30']"
"['', '8789', '2009-10-19', '23:00:00 GMT', '26', 'SJS', 'San Jose', 'Sharks', '9', 'NYR', 'New York', 'Rangers', '12', 'Madison Square Garden', '9', 'NYR', 'New York', 'Rangers', '0', '1', '0', '0', '0', '0', '0', '20', '33', '37.7', '3', '1', '33.3', '6', '2', '66.7', '0', '0', '3', '7', '26', '7', '14', '22']"
"['', '8802', '2009-10-22', '23:00:00 GMT', '7', 'NJD', 'New Jersey', 'Devils', '9', 'NYR', 'New York', 'Rangers', '12', 'Madison Square Garden', '9', 'NYR', 'New York', 'Rangers', '0', '1', '0', '0', '0', '0', '0', '26', '27', '49.1', '3', '1', '33.3', '1', '0', '100.0', '0', '0', '2', '4', '29', '2', '7', '34']"
"['', '8813', '2009-10-24', '23:00:00 GMT', '9', 'NYR', 'New York', 'Rangers', '14', 'MTL', 'Montreal', 'Canadiens', '4', 'Bell Centre', '9', 'NYR', 'New York', 'Rangers', '0', '0', '0', '1', '0', '0', '1', '33', '33', '50.0', '1', '0', '0.0', '4', '1', '75.0', '0', '0', '4', '5', '23', '5', '13', '30']"
"['', '8831', '2009-10-26', '23:00:00 GMT', '30', 'PHX', 'Phoenix', 'Coyotes', '9', 'NYR', 'New York', 'Rangers', '12', 'Madison Square Garden', '9', 'NYR', 'New York', 'Rangers', '1', '0', '0', '0', '0', '0', '2', '29', '21', '58.0', '5', '2', '40.0', '4', '0', '100.0', '0', '1', '5', '2', '19', '6', '12', '28']"
"['', '8840', '2009-10-28', '23:00:00 GMT', '9', 'NYR', 'New York', 'Rangers', '8', 'NYI', 'New York', 'Islanders', '16', 'Nassau Veterans Memorial Coliseum', '9', 'NYR', 'New York', 'Rangers', '0', '1', '0', '0', '0', '0', '0', '20', '36', '35.7', '3', '0', '0.0', '2', '1', '50.0', '0', '0', '1', '3', '34', '4', '8', '24']"
"['', '8858', '2009-10-30', '00:00:00 GMT', '9', 'NYR', 'New York', 'Rangers', '25', 'MIN', 'Minnesota', 'Wild', '30', 'Xcel Energy Center', '9', 'NYR', 'New York', 'Rangers', '0', '1', '0', '0', '0', '0', '0', '27', '27', '50.0', '1', '0', '0.0', '2', '0', '100.0', '0', '0', '2', '3', '18', '3', '6', '29']"
"['', '8874', '2009-11-01', '18:00:00 GMT', '11', 'BOS', 'Boston', 'Bruins', '9', 'NYR', 'New York', 'Rangers', '12', 'Madison Square Garden', '9', 'NYR', 'New York', 'Rangers', '1', '0', '0', '0', '0', '0', '2', '21', '25', '45.7', '1', '0', '0.0', '5', '0', '100.0', '0', '0', '1', '0', '22', '5', '10', '28']"
"['', '8884', '2009-11-03', '03:00:00 GMT', '9', 'NYR', 'New York', 'Rangers', '21', 'VAN', 'Vancouver', 'Canucks', '7', 'General Motors Place', '9', 'NYR', 'New York', 'Rangers', '0', '1', '0', '0', '0', '0', '0', '27', '29', '48.2', '5', '0', '0.0', '6', '1', '83.3', '0', '0', '1', '4', '22', '11', '49', '31']"
"['', '8899', '2009-11-05', '02:30:00 GMT', '9', 'NYR', 'New York', 'Rangers', '24', 'EDM', 'Edmonton', 'Oilers', '22', 'Rogers Place', '9', 'NYR', 'New York', 'Rangers', '1', '0', '0', '0', '0', '0', '2', '23', '28', '45.1', '7', '3', '42.9', '4', '0', '100.0', '0', '0', '4', '2', '35', '4', '8', '19']"
"['', '8918', '2009-11-07', '03:00:00 GMT', '9', 'NYR', 'New York', 'Rangers', '23', 'CGY', 'Calgary', 'Flames', '18', 'Pengrowth Saddledome', '9', 'NYR', 'New York', 'Rangers', '0', '1', '0', '0', '0', '0', '0', '19', '32', '37.3', '3', '0', '0.0', '3', '1', '66.7', '0', '0', '1', '3', '32', '4', '8', '15']"
"['', '8937', '2009-11-12', '00:00:00 GMT', '2', 'ATL', 'Atlanta', 'Thrashers', '9', 'NYR', 'New York', 'Rangers', '12', 'Madison Square Garden', '9', 'NYR', 'New York', 'Rangers', '0', '1', '0', '0', '0', '0', '0', '35', '35', '50.0', '4', '1', '25.0', '5', '2', '60.0', '0', '0', '3', '5', '33', '8', '22', '25']"
"['', '8953', '2009-11-14', '00:00:00 GMT', '9', 'NYR', 'New York', 'Rangers', '13', 'OTT', 'Ottawa', 'Senators', '23', 'Scotiabank Place', '9', 'NYR', 'New York', 'Rangers', '1', '0', '0', '0', '0', '0', '2', '25', '28', '47.2', '4', '0', '0.0', '5', '0', '100.0', '1', '0', '1', '1', '27', '5', '10', '21']"
"['', '8972', '2009-11-17', '00:00:00 GMT', '5', 'WSH', 'Washington', 'Capitals', '9', 'NYR', 'New York', 'Rangers', '12', 'Madison Square Garden', '9', 'NYR', 'New York', 'Rangers', '0', '1', '0', '0', '0', '0', '0', '24', '29', '45.3', '4', '1', '25.0', '4', '2', '50.0', '0', '0', '2', '4', '18', '6', '15', '24']"
"['', '8999', '2009-11-21', '00:00:00 GMT', '4', 'FLO', 'Florida', 'Panthers', '9', 'NYR', 'New York', 'Rangers', '12', 'Madison Square Garden', '9', 'NYR', 'New York', 'Rangers', '0', '1', '0', '0', '0', '0', '0', '26', '23', '53.1', '0', '0', '0.0', '2', '0', '100.0', '0', '0', '2', '3', '32', '2', '4', '37']"
"['', '9011', '2009-11-23', '00:00:00 GMT', '19', 'CBJ', 'Columbus', 'Blue Jackets', '9', 'NYR', 'New York', 'Rangers', '12', 'Madison Square Garden', '9', 'NYR', 'New York', 'Rangers', '1', '0', '0', '0', '0', '0', '2', '26', '29', '47.3', '4', '1', '25.0', '1', '0', '100.0', '0', '0', '7', '4', '26', '3', '12', '33']"
"['', '9028', '2009-11-25', '00:30:00 GMT', '9', 'NYR', 'New York', 'Rangers', '4', 'FLO', 'Florida', 'Panthers', '3', 'BankAtlantic Center', '9', 'NYR', 'New York', 'Rangers', '1', '0', '0', '0', '0', '0', '2', '33', '25', '56.9', '4', '1', '25.0', '5', '0', '100.0', '0', '0', '1', '1', '27', '8', '30', '31']"
"['', '9045', '2009-11-27', '00:30:00 GMT', '9', 'NYR', 'New York', 'Rangers', '1', 'TBL', 'Tampa Bay', 'Lightning', '26', 'St. Pete Times Forum', '9', 'NYR', 'New York', 'Rangers', '0', '1', '0', '0', '0', '0', '0', '27', '38', '41.5', '2', '0', '0.0', '1', '2', '1.0', '0', '0', '1', '5', '26', '9', '32', '15']"
"['', '9056', '2009-11-28', '00:30:00 GMT', '9', 'NYR', 'New York', 'Rangers', '10', 'PIT', 'Pittsburgh', 'Penguins', '14', 'Mellon Arena', '9', 'NYR', 'New York', 'Rangers', '0', '1', '0', '0', '0', '0', '0', '20', '35', '36.4', '3', '0', '0.0', '7', '2', '71.4', '0', '0', '3', '8', '22', '10', '42', '31']"
"['', '9066', '2009-11-30', '00:00:00 GMT', '10', 'PIT', 'Pittsburgh', 'Penguins', '9', 'NYR', 'New York', 'Rangers', '12', 'Madison Square Garden', '9', 'NYR', 'New York', 'Rangers', '0', '1', '0', '0', '0', '0', '0', '26', '29', '47.3', '1', '1', '100.0', '5', '0', '100.0', '0', '0', '2', '5', '29', '5', '10', '30']"
"['', '9100', '2009-12-05', '00:00:00 GMT', '9', 'NYR', 'New York', 'Rangers', '15', 'BUF', 'Buffalo', 'Sabres', '10', 'HSBC Arena', '9', 'NYR', 'New York', 'Rangers', '1', '0', '0', '0', '0', '0', '2', '33', '24', '57.9', '2', '0', '0.0', '3', '0', '100.0', '0', '0', '2', '1', '30', '3', '6', '18']"
"['', '9110', '2009-12-06', '00:00:00 GMT', '16', 'DET', 'Detroit', 'Red Wings', '9', 'NYR', 'New York', 'Rangers', '12', 'Madison Square Garden', '9', 'NYR', 'New York', 'Rangers', '0', '1', '0', '0', '0', '0', '0', '26', '35', '42.6', '4', '0', '0.0', '3', '1', '66.7', '0', '0', '1', '3', '27', '3', '6', '32']"
"['', '9131', '2009-12-09', '01:30:00 GMT', '9', 'NYR', 'New York', 'Rangers', '20', 'CHI', 'Chicago', 'Blackhawks', '28', 'United Center', '9', 'NYR', 'New York', 'Rangers', '0', '0', '0', '1', '0', '0', '1', '24', '28', '46.2', '1', '0', '0.0', '5', '1', '80.0', '0', '0', '1', '2', '17', '6', '12', '23']"
"['', '9151', '2009-12-12', '00:00:00 GMT', '15', 'BUF', 'Buffalo', 'Sabres', '9', 'NYR', 'New York', 'Rangers', '12', 'Madison Square Garden', '9', 'NYR', 'New York', 'Rangers', '0', '1', '0', '0', '0', '0', '0', '37', '27', '57.8', '6', '2', '33.3', '3', '0', '100.0', '0', '1', '2', '3', '36', '4', '8', '25']"
"['', '9165', '2009-12-14', '00:00:00 GMT', '2', 'ATL', 'Atlanta', 'Thrashers', '9', 'NYR', 'New York', 'Rangers', '12', 'Madison Square Garden', '9', 'NYR', 'New York', 'Rangers', '0', '0', '0', '1', '0', '0', '1', '35', '39', '47.3', '5', '2', '40.0', '3', '1', '66.7', '0', '1', '2', '2', '46', '3', '6', '26']"
"['', '9179', '2009-12-16', '00:00:00 GMT', '8', 'NYI', 'New York', 'Islanders', '9', 'NYR', 'New York', 'Rangers', '12', 'Madison Square Garden', '9', 'NYR', 'New York', 'Rangers', '0', '1', '0', '0', '0', '0', '0', '31', '20', '60.8', '2', '0', '0.0', '2', '0', '100.0', '0', '0', '1', '2', '25', '4', '8', '27']"
"['', '9186', '2009-12-17', '00:00:00 GMT', '9', 'NYR', 'New York', 'Rangers', '8', 'NYI', 'New York', 'Islanders', '16', 'Nassau Veterans Memorial Coliseum', '9', 'NYR', 'New York', 'Rangers', '1', '0', '0', '0', '0', '0', '2', '29', '18', '61.7', '5', '3', '60.0', '5', '0', '100.0', '0', '0', '5', '2', '17', '10', '20', '34']"
"['', '9200', '2009-12-19', '18:00:00 GMT', '9', 'NYR', 'New York', 'Rangers', '6', 'PHI', 'Philadelphia', 'Flyers', '29', 'Wachovia Center', '9', 'NYR', 'New York', 'Rangers', '1', '0', '0', '0', '0', '0', '2', '23', '26', '46.9', '2', '0', '0.0', '5', '1', '80.0', '0', '0', '2', '1', '22', '5', '10', '21']"
"['', '9214', '2009-12-21', '00:00:00 GMT', '9', 'NYR', 'New York', 'Rangers', '3', 'CAR', 'Carolina', 'Hurricanes', '21', 'RBC Center', '9', 'NYR', 'New York', 'Rangers', '1', '0', '0', '0', '0', '0', '2', '31', '25', '55.4', '1', '0', '0.0', '3', '0', '100.0', '0', '0', '3', '1', '28', '3', '6', '20']"
"['', '9231', '2009-12-23', '00:00:00 GMT', '4', 'FLO', 'Florida', 'Panthers', '9', 'NYR', 'New York', 'Rangers', '12', 'Madison Square Garden', '9', 'NYR', 'New York', 'Rangers', '1', '0', '0', '0', '0', '0', '2', '26', '33', '44.1', '3', '1', '33.3', '4', '0', '100.0', '1', '0', '4', '1', '28', '6', '12', '24']"
"['', '9243', '2009-12-26', '00:00:00 GMT', '8', 'NYI', 'New York', 'Islanders', '9', 'NYR', 'New York', 'Rangers', '12', 'Madison Square Garden', '9', 'NYR', 'New York', 'Rangers', '0', '0', '0', '1', '0', '0', '1', '33', '23', '58.9', '3', '0', '0.0', '3', '0', '100.0', '0', '1', '2', '3', '36', '5', '13', '36']"
"['', '9275', '2009-12-30', '00:00:00 GMT', '6', 'PHI', 'Philadelphia', 'Flyers', '9', 'NYR', 'New York', 'Rangers', '12', 'Madison Square Garden', '9', 'NYR', 'New York', 'Rangers', '0', '1', '0', '0', '0', '0', '0', '21', '30', '41.2', '4', '0', '0.0', '2', '1', '50.0', '0', '0', '0', '6', '22', '3', '9', '33']"
"['', '9286', '2009-12-31', '01:00:00 GMT', '9', 'NYR', 'New York', 'Rangers', '3', 'CAR', 'Carolina', 'Hurricanes', '21', 'RBC Center', '9', 'NYR', 'New York', 'Rangers', '1', '0', '0', '0', '0', '0', '2', '32', '26', '55.2', '5', '1', '20.0', '2', '1', '50.0', '0', '0', '2', '1', '33', '5', '13', '36']"
"['', '9294', '2010-01-02', '18:00:00 GMT', '3', 'CAR', 'Carolina', 'Hurricanes', '9', 'NYR', 'New York', 'Rangers', '12', 'Madison Square Garden', '9', 'NYR', 'New York', 'Rangers', '0', '0', '0', '1', '0', '0', '1', '26', '30', '46.4', '4', '0', '0.0', '4', '0', '100.0', '0', '0', '1', '2', '27', '4', '8', '33']"
"['', '9310', '2010-01-04', '00:00:00 GMT', '11', 'BOS', 'Boston', 'Bruins', '9', 'NYR', 'New York', 'Rangers', '12', 'Madison Square Garden', '9', 'NYR', 'New York', 'Rangers', '1', '0', '0', '0', '0', '0', '2', '31', '32', '49.2', '5', '1', '20.0', '3', '0', '100.0', '0', '1', '3', '2', '32', '3', '6', '35']"
"['', '9323', '2010-01-06', '00:00:00 GMT', '27', 'DAL', 'Dallas', 'Stars', '9', 'NYR', 'New York', 'Rangers', '12', 'Madison Square Garden', '9', 'NYR', 'New York', 'Rangers', '1', '0', '0', '0', '0', '0', '2', '27', '27', '50.0', '4', '1', '25.0', '6', '0', '100.0', '0', '0', '5', '2', '20', '7', '22', '33']"
"['', '9330', '2010-01-07', '00:00:00 GMT', '9', 'NYR', 'New York', 'Rangers', '2', 'ATL', 'Atlanta', 'Thrashers', '20', 'Philips Arena', '9', 'NYR', 'New York', 'Rangers', '0', '0', '0', '1', '0', '0', '1', '32', '30', '51.6', '3', '0', '0.0', '2', '0', '100.0', '0', '0', '1', '1', '29', '6', '12', '20']"
"['', '9343', '2010-01-09', '18:00:00 GMT', '9', 'NYR', 'New York', 'Rangers', '11', 'BOS', 'Boston', 'Bruins', '27', 'TD Garden', '9', 'NYR', 'New York', 'Rangers', '1', '0', '0', '0', '0', '0', '2', '29', '31', '48.3', '4', '0', '0.0', '2', '0', '100.0', '0', '0', '3', '1', '31', '3', '9', '34']"
"['', '9364', '2010-01-12', '00:00:00 GMT', '7', 'NJD', 'New Jersey', 'Devils', '9', 'NYR', 'New York', 'Rangers', '12', 'Madison Square Garden', '9', 'NYR', 'New York', 'Rangers', '0', '0', '0', '1', '0', '0', '1', '29', '16', '64.4', '2', '0', '0.0', '1', '0', '100.0', '0', '0', '0', '0', '51', '2', '4', '33']"
"['', '9376', '2010-01-14', '00:00:00 GMT', '13', 'OTT', 'Ottawa', 'Senators', '9', 'NYR', 'New York', 'Rangers', '12', 'Madison Square Garden', '9', 'NYR', 'New York', 'Rangers', '0', '1', '0', '0', '0', '0', '0', '44', '19', '69.8', '2', '0', '0.0', '1', '0', '100.0', '0', '0', '0', '2', '32', '4', '14', '36']"
"['', '9399', '2010-01-16', '01:00:00 GMT', '9', 'NYR', 'New York', 'Rangers', '17', 'STL', 'St. Louis', 'Blues', '24', 'Scottrade Center', '9', 'NYR', 'New York', 'Rangers', '0', '1', '0', '0', '0', '0', '0', '23', '29', '44.2', '2', '0', '0.0', '4', '1', '75.0', '0', '0', '1', '4', '21', '4', '8', '27']"
"['', '9404', '2010-01-17', '00:00:00 GMT', '14', 'MTL', 'Montreal', 'Canadiens', '9', 'NYR', 'New York', 'Rangers', '12', 'Madison Square Garden', '9', 'NYR', 'New York', 'Rangers', '1', '0', '0', '0', '0', '0', '2', '31', '20', '60.8', '5', '1', '20.0', '5', '1', '80.0', '1', '0', '6', '2', '28', '12', '38', '27']"
"['', '9416', '2010-01-19', '00:00:00 GMT', '1', 'TBL', 'Tampa Bay', 'Lightning', '9', 'NYR', 'New York', 'Rangers', '12', 'Madison Square Garden', '9', 'NYR', 'New York', 'Rangers', '1', '0', '0', '0', '0', '0', '2', '26', '34', '43.3', '3', '2', '66.7', '3', '1', '66.7', '0', '0', '8', '2', '23', '8', '25', '36']"
"['', '9430', '2010-01-21', '00:00:00 GMT', '9', 'NYR', 'New York', 'Rangers', '6', 'PHI', 'Philadelphia', 'Flyers', '29', 'Wachovia Center', '9', 'NYR', 'New York', 'Rangers', '0', '1', '0', '0', '0', '0', '0', '29', '24', '54.7', '2', '0', '0.0', '3', '1', '66.7', '0', '0', '0', '2', '24', '8', '28', '29']"
"['', '9446', '2010-01-23', '00:00:00 GMT', '9', 'NYR', 'New York', 'Rangers', '14', 'MTL', 'Montreal', 'Canadiens', '4', 'Bell Centre', '9', 'NYR', 'New York', 'Rangers', '0', '1', '0', '0', '0', '0', '0', '22', '22', '50.0', '2', '0', '0.0', '3', '2', '33.3', '0', '0', '0', '6', '32', '8', '19', '24']"
"['', '9458', '2010-01-25', '00:00:00 GMT', '10', 'PIT', 'Pittsburgh', 'Penguins', '9', 'NYR', 'New York', 'Rangers', '12', 'Madison Square Garden', '9', 'NYR', 'New York', 'Rangers', '0', '1', '0', '0', '0', '0', '0', '32', '26', '55.2', '4', '0', '0.0', '2', '1', '50.0', '0', '0', '2', '4', '28', '2', '4', '38']"
"['', '9470', '2010-01-27', '00:00:00 GMT', '3', 'CAR', 'Carolina', 'Hurricanes', '9', 'NYR', 'New York', 'Rangers', '12', 'Madison Square Garden', '9', 'NYR', 'New York', 'Rangers', '0', '1', '0', '0', '0', '0', '0', '22', '28', '44.0', '3', '0', '0.0', '5', '1', '80.0', '0', '0', '1', '5', '37', '4', '8', '28']"
"['', '9496', '2010-01-30', '01:00:00 GMT', '9', 'NYR', 'New York', 'Rangers', '30', 'PHX', 'Phoenix', 'Coyotes', '6', 'Jobing.com Arena', '9', 'NYR', 'New York', 'Rangers', '0', '1', '0', '0', '0', '0', '0', '27', '23', '54.0', '2', '0', '0.0', '7', '0', '100.0', '0', '0', '2', '3', '24', '7', '14', '38']"
"['', '9505', '2010-01-31', '01:00:00 GMT', '9', 'NYR', 'New York', 'Rangers', '22', 'COL', 'Colorado', 'Avalanche', '19', 'Pepsi Center', '9', 'NYR', 'New York', 'Rangers', '1', '0', '0', '0', '0', '0', '2', '26', '27', '49.1', '6', '0', '0.0', '4', '0', '100.0', '0', '0', '3', '1', '31', '7', '17', '22']"
"['', '9517', '2010-02-02', '03:30:00 GMT', '9', 'NYR', 'New York', 'Rangers', '28', 'LAK', 'Los Angeles', 'Kings', '25', 'Staples Center', '9', 'NYR', 'New York', 'Rangers', '0', '1', '0', '0', '0', '0', '0', '20', '17', '54.1', '3', '0', '0.0', '3', '0', '100.0', '0', '1', '1', '2', '20', '6', '23', '35']"
"['', '9525', '2010-02-04', '00:00:00 GMT', '5', 'WSH', 'Washington', 'Capitals', '9', 'NYR', 'New York', 'Rangers', '12', 'Madison Square Garden', '9', 'NYR', 'New York', 'Rangers', '0', '1', '0', '0', '0', '0', '0', '34', '37', '47.9', '7', '4', '57.1', '7', '3', '57.1', '0', '0', '5', '6', '33', '9', '18', '33']"
"['', '9543', '2010-02-06', '00:00:00 GMT', '7', 'NJD', 'New Jersey', 'Devils', '9', 'NYR', 'New York', 'Rangers', '12', 'Madison Square Garden', '9', 'NYR', 'New York', 'Rangers', '1', '0', '0', '0', '0', '0', '2', '29', '29', '50.0', '2', '1', '50.0', '5', '0', '100.0', '0', '0', '3', '1', '22', '9', '24', '40']"
"['', '9567', '2010-02-10', '00:00:00 GMT', '18', 'NSH', 'Nashville', 'Predators', '9', 'NYR', 'New York', 'Rangers', '12', 'Madison Square Garden', '9', 'NYR', 'New York', 'Rangers', '0', '1', '0', '0', '0', '0', '0', '26', '28', '48.1', '5', '1', '20.0', '4', '0', '100.0', '0', '0', '1', '2', '37', '5', '10', '31']"
"['', '9584', '2010-02-12', '00:30:00 GMT', '9', 'NYR', 'New York', 'Rangers', '10', 'PIT', 'Pittsburgh', 'Penguins', '14', 'Mellon Arena', '9', 'NYR', 'New York', 'Rangers', '1', '0', '0', '0', '0', '0', '2', '31', '23', '57.4', '3', '0', '0.0', '2', '1', '50.0', '0', '0', '3', '2', '36', '4', '19', '32']"
"['', '9599', '2010-02-14', '18:00:00 GMT', '1', 'TBL', 'Tampa Bay', 'Lightning', '9', 'NYR', 'New York', 'Rangers', '12', 'Madison Square Garden', '9', 'NYR', 'New York', 'Rangers', '1', '0', '0', '0', '0', '0', '2', '28', '38', '42.4', '4', '0', '0.0', '2', '1', '50.0', '0', '0', '5', '2', '18', '7', '20', '29']"
"['', '9610', '2010-03-02', '00:30:00 GMT', '9', 'NYR', 'New York', 'Rangers', '13', 'OTT', 'Ottawa', 'Senators', '23', 'Scotiabank Place', '9', 'NYR', 'New York', 'Rangers', '1', '0', '0', '0', '0', '0', '2', '21', '31', '40.4', '1', '0', '0.0', '3', '0', '100.0', '0', '0', '4', '1', '21', '4', '16', '26']"
"['', '9625', '2010-03-04', '00:00:00 GMT', '10', 'PIT', 'Pittsburgh', 'Penguins', '9', 'NYR', 'New York', 'Rangers', '12', 'Madison Square Garden', '9', 'NYR', 'New York', 'Rangers', '0', '0', '0', '1', '0', '0', '1', '30', '35', '46.2', '3', '2', '66.7', '3', '2', '33.3', '0', '0', '4', '5', '12', '7', '14', '41']"
"['', '9640', '2010-03-06', '00:00:00 GMT', '9', 'NYR', 'New York', 'Rangers', '5', 'WSH', 'Washington', 'Capitals', '13', 'Verizon Center', '9', 'NYR', 'New York', 'Rangers', '0', '1', '0', '0', '0', '0', '0', '33', '25', '56.9', '2', '0', '0.0', '4', '1', '75.0', '0', '0', '0', '2', '30', '4', '8', '28']"
"['', '9652', '2010-03-07', '00:00:00 GMT', '15', 'BUF', 'Buffalo', 'Sabres', '9', 'NYR', 'New York', 'Rangers', '12', 'Madison Square Garden', '9', 'NYR', 'New York', 'Rangers', '0', '0', '0', '1', '0', '0', '1', '25', '21', '54.3', '2', '1', '50.0', '2', '0', '100.0', '0', '0', '1', '2', '35', '2', '4', '41']"
"['', '9668', '2010-03-10', '00:00:00 GMT', '9', 'NYR', 'New York', 'Rangers', '7', 'NJD', 'New Jersey', 'Devils', '5', 'Izod Center', '9', 'NYR', 'New York', 'Rangers', '0', '1', '0', '0', '0', '0', '0', '25', '29', '46.3', '3', '0', '0.0', '2', '1', '50.0', '0', '0', '3', '6', '16', '4', '19', '23']"
"['', '9685', '2010-03-12', '00:30:00 GMT', '9', 'NYR', 'New York', 'Rangers', '2', 'ATL', 'Atlanta', 'Thrashers', '20', 'Philips Arena', '9', 'NYR', 'New York', 'Rangers', '1', '0', '0', '0', '0', '0', '2', '33', '26', '55.9', '5', '2', '40.0', '4', '1', '75.0', '0', '0', '5', '2', '30', '5', '10', '15']"
"['', '9699', '2010-03-14', '19:00:00 GMT', '6', 'PHI', 'Philadelphia', 'Flyers', '9', 'NYR', 'New York', 'Rangers', '12', 'Madison Square Garden', '9', 'NYR', 'New York', 'Rangers', '1', '0', '0', '0', '0', '0', '2', '25', '26', '49.0', '5', '1', '20.0', '4', '1', '75.0', '0', '0', '3', '1', '18', '6', '15', '34']"
"['', '9711', '2010-03-16', '23:30:00 GMT', '14', 'MTL', 'Montreal', 'Canadiens', '9', 'NYR', 'New York', 'Rangers', '12', 'Madison Square Garden', '9', 'NYR', 'New York', 'Rangers', '0', '1', '0', '0', '0', '0', '0', '18', '24', '42.9', '4', '0', '0.0', '4', '1', '75.0', '0', '1', '1', '3', '19', '7', '25', '27']"
"['', '9726', '2010-03-18', '23:00:00 GMT', '17', 'STL', 'St. Louis', 'Blues', '9', 'NYR', 'New York', 'Rangers', '12', 'Madison Square Garden', '9', 'NYR', 'New York', 'Rangers', '0', '1', '0', '0', '0', '0', '0', '31', '25', '55.4', '5', '1', '20.0', '2', '1', '50.0', '0', '0', '3', '4', '26', '4', '11', '30']"
"['', '9750', '2010-03-21', '16:30:00 GMT', '9', 'NYR', 'New York', 'Rangers', '11', 'BOS', 'Boston', 'Bruins', '27', 'TD Garden', '9', 'NYR', 'New York', 'Rangers', '0', '1', '0', '0', '0', '0', '0', '24', '37', '39.3', '6', '0', '0.0', '1', '0', '100.0', '0', '0', '1', '2', '23', '7', '17', '17']"
"['', '9772', '2010-03-24', '23:00:00 GMT', '8', 'NYI', 'New York', 'Islanders', '9', 'NYR', 'New York', 'Rangers', '12', 'Madison Square Garden', '9', 'NYR', 'New York', 'Rangers', '1', '0', '0', '0', '0', '0', '2', '30', '35', '46.2', '4', '1', '25.0', '3', '0', '100.0', '0', '0', '5', '0', '39', '4', '11', '31']"
"['', '9780', '2010-03-25', '23:00:00 GMT', '9', 'NYR', 'New York', 'Rangers', '7', 'NJD', 'New Jersey', 'Devils', '5', 'Izod Center', '9', 'NYR', 'New York', 'Rangers', '1', '0', '0', '0', '0', '0', '2', '27', '29', '48.2', '3', '1', '33.3', '4', '0', '100.0', '0', '0', '3', '3', '28', '5', '13', '20']"
"['', '9798', '2010-03-27', '23:00:00 GMT', '9', 'NYR', 'New York', 'Rangers', '12', 'TOR', 'Toronto', 'Maple Leafs', '1', 'Air Canada Center', '9', 'NYR', 'New York', 'Rangers', '0', '0', '0', '1', '0', '0', '1', '24', '28', '46.2', '2', '0', '0.0', '2', '0', '100.0', '0', '0', '2', '3', '36', '2', '4', '29']"
"['', '9816', '2010-03-30', '23:00:00 GMT', '9', 'NYR', 'New York', 'Rangers', '8', 'NYI', 'New York', 'Islanders', '16', 'Nassau Veterans Memorial Coliseum', '9', 'NYR', 'New York', 'Rangers', '1', '0', '0', '0', '0', '0', '2', '21', '32', '39.6', '1', '0', '0.0', '4', '1', '75.0', '0', '0', '4', '3', '23', '5', '10', '26']"
"['', '9921', '2010-04-02', '23:30:00 GMT', '9', 'NYR', 'New York', 'Rangers', '1', 'TBL', 'Tampa Bay', 'Lightning', '26', 'St. Pete Times Forum', '9', 'NYR', 'New York', 'Rangers', '1', '0', '0', '0', '0', '0', '2', '19', '37', '33.9', '3', '1', '33.3', '4', '0', '100.0', '0', '0', '5', '0', '17', '4', '8', '12']"
"['', '9852', '2010-04-03', '23:00:00 GMT', '9', 'NYR', 'New York', 'Rangers', '4', 'FLO', 'Florida', 'Panthers', '3', 'BankAtlantic Center', '9', 'NYR', 'New York', 'Rangers', '1', '0', '0', '0', '0', '0', '2', '23', '28', '45.1', '1', '0', '0.0', '4', '0', '100.0', '0', '0', '4', '1', '23', '5', '13', '23']"
"['', '9864', '2010-04-06', '23:00:00 GMT', '9', 'NYR', 'New York', 'Rangers', '15', 'BUF', 'Buffalo', 'Sabres', '10', 'HSBC Arena', '9', 'NYR', 'New York', 'Rangers', '0', '1', '0', '0', '0', '0', '0', '34', '21', '61.8', '2', '1', '50.0', '4', '1', '75.0', '0', '0', '2', '5', '30', '6', '12', '30']"
"['', '9875', '2010-04-07', '23:00:00 GMT', '12', 'TOR', 'Toronto', 'Maple Leafs', '9', 'NYR', 'New York', 'Rangers', '12', 'Madison Square Garden', '9', 'NYR', 'New York', 'Rangers', '1', '0', '0', '0', '0', '0', '2', '20', '25', '44.4', '3', '0', '0.0', '3', '0', '100.0', '0', '0', '5', '1', '27', '7', '17', '33']"
"['', '9889', '2010-04-09', '23:00:00 GMT', '6', 'PHI', 'Philadelphia', 'Flyers', '9', 'NYR', 'New York', 'Rangers', '12', 'Madison Square Garden', '9', 'NYR', 'New York', 'Rangers', '1', '0', '0', '0', '0', '0', '2', '24', '31', '43.6', '4', '1', '25.0', '2', '0', '100.0', '0', '0', '4', '3', '21', '3', '9', '29']"
"['', '9906', '2010-04-11', '19:00:00 GMT', '9', 'NYR', 'New York', 'Rangers', '6', 'PHI', 'Philadelphia', 'Flyers', '29', 'Wachovia Center', '9', 'NYR', 'New York', 'Rangers', '0', '0', '0', '1', '0', '0', '1', '33', '32', '50.8', '1', '0', '0.0', '4', '1', '75.0', '0', '0', '1', '1', '24', '6', '15', '31']"
