"['#Date/Time of Update: 2018-12-10 19:03:17 GMT', '#Game ID', '#Game Date', '#Game Time', '#Away Team ID', '#Away Team Abbr.', '#Away Team City', '#Away Team Name', '#Home Team ID', '#Home Team Abbr.', '#Home Team City', '#Home Team Name', '#Venue ID', '#Venue Name', '#Team ID', '#Team Abbr.', '#Team City', '#Team Name', '#Wins', '#Losses', '#OvertimeWins', '#OvertimeLosses', '#ShootoutWins', '#ShootoutLosses', '#Rows', '#Points', '#FaceoffWins', '#FaceoffLosses', '#FaceoffPercent', '#Powerplays', '#PowerplayGoals', '#PowerplayPercent', '#PenaltyKills', '#PenaltyKillGoalsAllowed', '#PenaltyKillPercent', '#ShorthandedGoalsFor', '#ShorthandedGoalsAgainst', '#GoalsFor', '#GoalsAgainst', '#Shots', '#Penalties', '#PenaltyMinutes', '#Hits']"
"['', '29033', '2015-10-09', '23:30:00 GMT', '20', 'CHI', 'Chicago', 'Blackhawks', '8', 'NYI', 'New York', 'Islanders', '16', 'Nassau Veterans Memorial Coliseum', '8', 'NYI', 'New York', 'Islanders', '0', '0', '0', '1', '0', '0', '0', '1', '40', '27', '59.7', '2', '0', '0.0', '3', '1', '66.7', '0', '1', '2', '3', '36', '3', '6', '42']"
"['', '29044', '2015-10-10', '00:30:00 GMT', '8', 'NYI', 'New York', 'Islanders', '20', 'CHI', 'Chicago', 'Blackhawks', '28', 'United Center', '8', 'NYI', 'New York', 'Islanders', '0', '1', '0', '0', '0', '0', '0', '0', '26', '26', '50.0', '2', '0', '0.0', '4', '1', '75.0', '1', '0', '1', '4', '29', '8', '24', '55']"
"['', '29051', '2015-10-12', '17:00:00 GMT', '2', 'WPJ', 'Winnipeg', 'Jets', '8', 'NYI', 'New York', 'Islanders', '16', 'Nassau Veterans Memorial Coliseum', '8', 'NYI', 'New York', 'Islanders', '1', '0', '0', '0', '0', '0', '1', '2', '41', '26', '61.2', '6', '2', '33.3', '3', '1', '66.7', '0', '0', '4', '2', '43', '5', '10', '30']"
"['', '29068', '2015-10-15', '23:00:00 GMT', '18', 'NSH', 'Nashville', 'Predators', '8', 'NYI', 'New York', 'Islanders', '16', 'Nassau Veterans Memorial Coliseum', '8', 'NYI', 'New York', 'Islanders', '1', '0', '0', '0', '0', '0', '1', '2', '31', '31', '50.0', '2', '0', '0.0', '2', '0', '100.0', '0', '0', '4', '3', '28', '3', '6', '43']"
"['', '29089', '2015-10-17', '23:30:00 GMT', '26', 'SJS', 'San Jose', 'Sharks', '8', 'NYI', 'New York', 'Islanders', '16', 'Nassau Veterans Memorial Coliseum', '8', 'NYI', 'New York', 'Islanders', '1', '0', '0', '0', '0', '0', '1', '2', '37', '28', '56.9', '3', '1', '33.3', '0', '0', '0.0', '0', '0', '6', '3', '33', '2', '4', '30']"
"['', '29102', '2015-10-20', '23:00:00 GMT', '8', 'NYI', 'New York', 'Islanders', '19', 'CBJ', 'Columbus', 'Blue Jackets', '17', 'Nationwide Arena', '8', 'NYI', 'New York', 'Islanders', '1', '0', '0', '0', '0', '0', '1', '2', '20', '32', '38.5', '1', '0', '0.0', '7', '0', '100.0', '0', '0', '4', '0', '29', '9', '21', '26']"
"['', '29119', '2015-10-23', '23:30:00 GMT', '11', 'BOS', 'Boston', 'Bruins', '8', 'NYI', 'New York', 'Islanders', '16', 'Nassau Veterans Memorial Coliseum', '8', 'NYI', 'New York', 'Islanders', '0', '1', '0', '0', '0', '0', '0', '0', '27', '25', '51.9', '2', '1', '50.0', '3', '0', '100.0', '0', '0', '3', '5', '26', '4', '11', '36']"
"['', '29129', '2015-10-24', '00:00:00 GMT', '8', 'NYI', 'New York', 'Islanders', '17', 'STL', 'St. Louis', 'Blues', '24', 'Scottrade Center', '8', 'NYI', 'New York', 'Islanders', '1', '0', '0', '0', '0', '0', '1', '2', '29', '26', '52.7', '3', '1', '33.3', '5', '0', '100.0', '0', '0', '3', '2', '22', '5', '10', '27']"
"['', '29139', '2015-10-26', '23:00:00 GMT', '23', 'CGY', 'Calgary', 'Flames', '8', 'NYI', 'New York', 'Islanders', '16', 'Nassau Veterans Memorial Coliseum', '8', 'NYI', 'New York', 'Islanders', '1', '0', '0', '0', '0', '0', '1', '2', '31', '28', '52.5', '3', '1', '33.3', '3', '0', '100.0', '0', '0', '4', '0', '35', '3', '6', '33']"
"['', '29155', '2015-10-29', '23:00:00 GMT', '3', 'CAR', 'Carolina', 'Hurricanes', '8', 'NYI', 'New York', 'Islanders', '16', 'Nassau Veterans Memorial Coliseum', '8', 'NYI', 'New York', 'Islanders', '0', '0', '0', '1', '0', '0', '0', '1', '30', '24', '55.6', '2', '1', '50.0', '1', '0', '100.0', '0', '0', '2', '3', '19', '2', '4', '30']"
"['', '29172', '2015-10-31', '17:00:00 GMT', '8', 'NYI', 'New York', 'Islanders', '7', 'NJD', 'New Jersey', 'Devils', '37', 'Prudential Center', '8', 'NYI', 'New York', 'Islanders', '0', '0', '0', '1', '0', '0', '0', '1', '22', '27', '44.9', '2', '1', '50.0', '3', '0', '100.0', '1', '0', '2', '2', '26', '4', '8', '15']"
"['', '29185', '2015-11-01', '00:30:00 GMT', '15', 'BUF', 'Buffalo', 'Sabres', '8', 'NYI', 'New York', 'Islanders', '16', 'Nassau Veterans Memorial Coliseum', '8', 'NYI', 'New York', 'Islanders', '0', '1', '0', '0', '0', '0', '0', '0', '21', '25', '45.7', '0', '0', '0.0', '0', '0', '0.0', '0', '0', '1', '2', '30', '0', '0', '44']"
"['', '29191', '2015-11-03', '00:00:00 GMT', '7', 'NJD', 'New Jersey', 'Devils', '8', 'NYI', 'New York', 'Islanders', '16', 'Nassau Veterans Memorial Coliseum', '8', 'NYI', 'New York', 'Islanders', '1', '0', '0', '0', '0', '0', '1', '2', '26', '31', '45.6', '1', '0', '0.0', '4', '1', '75.0', '0', '0', '2', '1', '34', '6', '12', '63']"
"['', '29205', '2015-11-05', '00:30:00 GMT', '8', 'NYI', 'New York', 'Islanders', '14', 'MTL', 'Montreal', 'Canadiens', '4', 'Bell Centre', '8', 'NYI', 'New York', 'Islanders', '0', '1', '0', '0', '0', '0', '0', '0', '26', '24', '52.0', '3', '0', '0.0', '2', '1', '50.0', '0', '0', '1', '4', '18', '3', '6', '42']"
"['', '29231', '2015-11-08', '22:00:00 GMT', '11', 'BOS', 'Boston', 'Bruins', '8', 'NYI', 'New York', 'Islanders', '16', 'Nassau Veterans Memorial Coliseum', '8', 'NYI', 'New York', 'Islanders', '0', '1', '0', '0', '0', '0', '0', '0', '33', '33', '50.0', '7', '1', '14.3', '3', '1', '66.7', '0', '0', '1', '2', '37', '4', '8', '25']"
"['', '29245', '2015-11-10', '03:30:00 GMT', '8', 'NYI', 'New York', 'Islanders', '26', 'SJS', 'San Jose', 'Sharks', '9', 'SAP Center at San Jose', '8', 'NYI', 'New York', 'Islanders', '1', '0', '0', '0', '0', '0', '1', '2', '29', '30', '49.2', '2', '0', '0.0', '2', '0', '100.0', '0', '0', '4', '2', '25', '3', '6', '38']"
"['', '29259', '2015-11-12', '03:30:00 GMT', '8', 'NYI', 'New York', 'Islanders', '28', 'LAK', 'Los Angeles', 'Kings', '25', 'Staples Center', '8', 'NYI', 'New York', 'Islanders', '0', '1', '0', '0', '0', '0', '0', '0', '32', '27', '54.2', '3', '0', '0.0', '3', '1', '66.7', '0', '0', '1', '2', '32', '3', '6', '38']"
"['', '29263', '2015-11-13', '03:00:00 GMT', '8', 'NYI', 'New York', 'Islanders', '29', 'ANA', 'Anaheim', 'Ducks', '8', 'Honda Center', '8', 'NYI', 'New York', 'Islanders', '1', '0', '0', '0', '0', '0', '1', '2', '26', '34', '43.3', '5', '0', '0.0', '3', '1', '66.7', '0', '0', '4', '1', '29', '5', '13', '31']"
"['', '29279', '2015-11-16', '00:00:00 GMT', '30', 'ARI', 'Arizona', 'Coyotes', '8', 'NYI', 'New York', 'Islanders', '16', 'Nassau Veterans Memorial Coliseum', '8', 'NYI', 'New York', 'Islanders', '1', '0', '0', '0', '0', '0', '1', '2', '19', '35', '35.2', '4', '1', '25.0', '3', '1', '66.7', '0', '0', '5', '2', '32', '3', '6', '36']"
"['', '29308', '2015-11-20', '00:30:00 GMT', '14', 'MTL', 'Montreal', 'Canadiens', '8', 'NYI', 'New York', 'Islanders', '16', 'Nassau Veterans Memorial Coliseum', '8', 'NYI', 'New York', 'Islanders', '0', '1', '0', '0', '0', '0', '0', '0', '34', '28', '54.8', '3', '0', '0.0', '1', '0', '100.0', '0', '0', '3', '5', '36', '2', '4', '42']"
"['', '29324', '2015-11-22', '00:00:00 GMT', '8', 'NYI', 'New York', 'Islanders', '14', 'MTL', 'Montreal', 'Canadiens', '4', 'Bell Centre', '8', 'NYI', 'New York', 'Islanders', '0', '1', '0', '0', '0', '0', '0', '0', '30', '29', '50.8', '5', '0', '0.0', '5', '3', '40.0', '0', '1', '2', '4', '23', '6', '20', '37']"
"['', '29337', '2015-11-25', '00:00:00 GMT', '6', 'PHI', 'Philadelphia', 'Flyers', '8', 'NYI', 'New York', 'Islanders', '16', 'Nassau Veterans Memorial Coliseum', '8', 'NYI', 'New York', 'Islanders', '1', '0', '0', '0', '0', '0', '1', '2', '19', '30', '38.8', '1', '0', '0.0', '5', '1', '80.0', '1', '0', '3', '1', '36', '7', '20', '37']"
"['', '29357', '2015-11-27', '00:30:00 GMT', '8', 'NYI', 'New York', 'Islanders', '4', 'FLO', 'Florida', 'Panthers', '3', 'BB&T Center', '8', 'NYI', 'New York', 'Islanders', '0', '0', '0', '1', '0', '0', '0', '1', '26', '24', '52.0', '1', '0', '0.0', '1', '0', '100.0', '0', '0', '2', '2', '25', '3', '6', '34']"
"['', '29363', '2015-11-28', '00:00:00 GMT', '8', 'NYI', 'New York', 'Islanders', '1', 'TBL', 'Tampa Bay', 'Lightning', '26', 'Amalie Arena', '8', 'NYI', 'New York', 'Islanders', '1', '0', '0', '0', '0', '0', '1', '2', '22', '31', '41.5', '5', '2', '40.0', '4', '0', '100.0', '0', '0', '3', '2', '22', '6', '18', '31']"
"['', '29373', '2015-11-30', '00:00:00 GMT', '22', 'COL', 'Colorado', 'Avalanche', '8', 'NYI', 'New York', 'Islanders', '16', 'Nassau Veterans Memorial Coliseum', '8', 'NYI', 'New York', 'Islanders', '1', '0', '0', '0', '0', '0', '1', '2', '34', '20', '63.0', '3', '1', '33.3', '3', '0', '100.0', '0', '0', '5', '3', '28', '3', '6', '49']"
"['', '29388', '2015-12-02', '01:00:00 GMT', '9', 'NYR', 'New York', 'Rangers', '8', 'NYI', 'New York', 'Islanders', '16', 'Nassau Veterans Memorial Coliseum', '8', 'NYI', 'New York', 'Islanders', '1', '0', '0', '0', '0', '0', '0', '2', '25', '27', '48.1', '2', '1', '50.0', '3', '0', '100.0', '0', '0', '1', '1', '37', '4', '8', '52']"
"['', '29402', '2015-12-04', '00:30:00 GMT', '17', 'STL', 'St. Louis', 'Blues', '8', 'NYI', 'New York', 'Islanders', '16', 'Nassau Veterans Memorial Coliseum', '8', 'NYI', 'New York', 'Islanders', '1', '0', '0', '0', '0', '0', '0', '2', '25', '30', '45.5', '2', '0', '0.0', '2', '0', '100.0', '0', '0', '1', '1', '25', '3', '6', '53']"
"['', '29408', '2015-12-05', '00:00:00 GMT', '8', 'NYI', 'New York', 'Islanders', '13', 'OTT', 'Ottawa', 'Senators', '23', 'Canadian Tire Centre', '8', 'NYI', 'New York', 'Islanders', '0', '0', '0', '1', '0', '0', '0', '1', '24', '38', '38.7', '1', '1', '100.0', '3', '0', '100.0', '0', '0', '2', '3', '31', '3', '6', '23']"
"['', '29426', '2015-12-08', '00:00:00 GMT', '8', 'NYI', 'New York', 'Islanders', '6', 'PHI', 'Philadelphia', 'Flyers', '29', 'Wells Fargo Center', '8', 'NYI', 'New York', 'Islanders', '1', '0', '0', '0', '0', '0', '0', '2', '32', '32', '50.0', '1', '1', '100.0', '2', '0', '100.0', '0', '1', '3', '3', '26', '3', '6', '34']"
"['', '29457', '2015-12-12', '00:00:00 GMT', '8', 'NYI', 'New York', 'Islanders', '19', 'CBJ', 'Columbus', 'Blue Jackets', '17', 'Nationwide Arena', '8', 'NYI', 'New York', 'Islanders', '1', '0', '0', '0', '0', '0', '1', '2', '20', '27', '42.6', '3', '1', '33.3', '0', '0', '0.0', '0', '0', '3', '2', '19', '0', '0', '12']"
"['', '29463', '2015-12-13', '22:00:00 GMT', '7', 'NJD', 'New Jersey', 'Devils', '8', 'NYI', 'New York', 'Islanders', '16', 'Nassau Veterans Memorial Coliseum', '8', 'NYI', 'New York', 'Islanders', '1', '0', '0', '0', '0', '0', '1', '2', '34', '17', '66.7', '4', '0', '0.0', '3', '0', '100.0', '0', '0', '4', '0', '30', '5', '13', '19']"
"['', '29472', '2015-12-15', '00:00:00 GMT', '4', 'FLO', 'Florida', 'Panthers', '8', 'NYI', 'New York', 'Islanders', '16', 'Nassau Veterans Memorial Coliseum', '8', 'NYI', 'New York', 'Islanders', '0', '1', '0', '0', '0', '0', '0', '0', '30', '33', '47.6', '6', '0', '0.0', '3', '0', '100.0', '0', '1', '1', '5', '34', '4', '8', '23']"
"['', '29493', '2015-12-17', '02:00:00 GMT', '8', 'NYI', 'New York', 'Islanders', '22', 'COL', 'Colorado', 'Avalanche', '19', 'Pepsi Center', '8', 'NYI', 'New York', 'Islanders', '0', '1', '0', '0', '0', '0', '0', '0', '27', '32', '45.8', '5', '1', '20.0', '2', '0', '100.0', '0', '0', '1', '2', '34', '2', '4', '15']"
"['', '29509', '2015-12-19', '02:00:00 GMT', '8', 'NYI', 'New York', 'Islanders', '30', 'ARI', 'Arizona', 'Coyotes', '6', 'Gila River Arena', '8', 'NYI', 'New York', 'Islanders', '0', '1', '0', '0', '0', '0', '0', '0', '21', '31', '40.4', '3', '0', '0.0', '2', '0', '100.0', '0', '0', '0', '1', '25', '2', '4', '30']"
"['', '29517', '2015-12-21', '00:00:00 GMT', '29', 'ANA', 'Anaheim', 'Ducks', '8', 'NYI', 'New York', 'Islanders', '16', 'Nassau Veterans Memorial Coliseum', '8', 'NYI', 'New York', 'Islanders', '1', '0', '0', '0', '0', '0', '1', '2', '23', '30', '43.4', '3', '0', '0.0', '1', '0', '100.0', '0', '0', '5', '2', '31', '3', '9', '16']"
"['', '29546', '2015-12-27', '23:00:00 GMT', '12', 'TOR', 'Toronto', 'Maple Leafs', '8', 'NYI', 'New York', 'Islanders', '16', 'Nassau Veterans Memorial Coliseum', '8', 'NYI', 'New York', 'Islanders', '0', '1', '0', '0', '0', '0', '0', '0', '32', '17', '65.3', '1', '0', '0.0', '2', '0', '100.0', '0', '0', '1', '3', '26', '2', '4', '27']"
"['', '29560', '2015-12-29', '00:00:00 GMT', '8', 'NYI', 'New York', 'Islanders', '12', 'TOR', 'Toronto', 'Maple Leafs', '1', 'Air Canada Center', '8', 'NYI', 'New York', 'Islanders', '1', '0', '0', '0', '0', '0', '1', '2', '32', '26', '55.2', '4', '0', '0.0', '4', '0', '100.0', '0', '0', '6', '3', '21', '4', '8', '24']"
"['', '29574', '2015-12-31', '23:00:00 GMT', '8', 'NYI', 'New York', 'Islanders', '15', 'BUF', 'Buffalo', 'Sabres', '10', 'First Niagara Center', '8', 'NYI', 'New York', 'Islanders', '1', '0', '0', '0', '0', '0', '1', '2', '28', '30', '48.3', '2', '1', '50.0', '4', '1', '75.0', '0', '0', '2', '1', '33', '4', '8', '10']"
"['', '29592', '2016-01-02', '00:00:00 GMT', '8', 'NYI', 'New York', 'Islanders', '10', 'PIT', 'Pittsburgh', 'Penguins', '40', 'Consol Energy Center', '8', 'NYI', 'New York', 'Islanders', '0', '1', '0', '0', '0', '0', '0', '0', '40', '28', '58.8', '1', '0', '0.0', '4', '2', '50.0', '0', '1', '2', '5', '40', '4', '8', '30']"
"['', '29597', '2016-01-03', '22:00:00 GMT', '27', 'DAL', 'Dallas', 'Stars', '8', 'NYI', 'New York', 'Islanders', '16', 'Nassau Veterans Memorial Coliseum', '8', 'NYI', 'New York', 'Islanders', '1', '0', '0', '0', '0', '0', '1', '2', '31', '34', '47.7', '6', '2', '33.3', '4', '1', '75.0', '1', '0', '6', '5', '44', '4', '8', '19']"
"['', '29619', '2016-01-07', '00:00:00 GMT', '5', 'WSH', 'Washington', 'Capitals', '8', 'NYI', 'New York', 'Islanders', '16', 'Nassau Veterans Memorial Coliseum', '8', 'NYI', 'New York', 'Islanders', '0', '1', '0', '0', '0', '0', '0', '0', '25', '25', '50.0', '2', '0', '0.0', '2', '0', '100.0', '0', '0', '1', '4', '35', '3', '6', '21']"
"['', '29633', '2016-01-09', '18:00:00 GMT', '8', 'NYI', 'New York', 'Islanders', '6', 'PHI', 'Philadelphia', 'Flyers', '29', 'Wells Fargo Center', '8', 'NYI', 'New York', 'Islanders', '0', '1', '0', '0', '0', '0', '0', '0', '22', '34', '39.3', '3', '0', '0.0', '5', '0', '100.0', '0', '0', '0', '4', '20', '6', '15', '42']"
"['', '29652', '2016-01-12', '00:00:00 GMT', '19', 'CBJ', 'Columbus', 'Blue Jackets', '8', 'NYI', 'New York', 'Islanders', '16', 'Nassau Veterans Memorial Coliseum', '8', 'NYI', 'New York', 'Islanders', '1', '0', '0', '0', '0', '0', '1', '2', '27', '24', '52.9', '7', '1', '14.3', '6', '0', '100.0', '0', '0', '5', '2', '33', '8', '16', '20']"
"['', '29664', '2016-01-14', '00:00:00 GMT', '9', 'NYR', 'New York', 'Rangers', '8', 'NYI', 'New York', 'Islanders', '16', 'Nassau Veterans Memorial Coliseum', '8', 'NYI', 'New York', 'Islanders', '1', '0', '0', '0', '0', '0', '1', '2', '19', '32', '37.3', '2', '1', '50.0', '3', '0', '100.0', '0', '0', '3', '1', '32', '5', '10', '21']"
"['', '29689', '2016-01-17', '21:00:00 GMT', '21', 'VAN', 'Vancouver', 'Canucks', '8', 'NYI', 'New York', 'Islanders', '16', 'Nassau Veterans Memorial Coliseum', '8', 'NYI', 'New York', 'Islanders', '0', '0', '0', '1', '0', '0', '0', '1', '36', '33', '52.2', '3', '0', '0.0', '4', '0', '100.0', '0', '0', '1', '1', '48', '6', '23', '29']"
"['', '29724', '2016-01-22', '00:30:00 GMT', '8', 'NYI', 'New York', 'Islanders', '13', 'OTT', 'Ottawa', 'Senators', '23', 'Canadian Tire Centre', '8', 'NYI', 'New York', 'Islanders', '1', '0', '0', '0', '0', '0', '1', '2', '30', '28', '51.7', '4', '1', '25.0', '2', '0', '100.0', '0', '0', '5', '2', '34', '3', '9', '26']"
"['', '29743', '2016-01-25', '00:00:00 GMT', '16', 'DET', 'Detroit', 'Red Wings', '8', 'NYI', 'New York', 'Islanders', '16', 'Nassau Veterans Memorial Coliseum', '8', 'NYI', 'New York', 'Islanders', '0', '1', '0', '0', '0', '0', '0', '0', '29', '17', '63.0', '2', '0', '0.0', '1', '1', '0.0', '0', '0', '2', '4', '29', '1', '2', '15']"
"['', '29764', '2016-02-02', '00:00:00 GMT', '25', 'MIN', 'Minnesota', 'Wild', '8', 'NYI', 'New York', 'Islanders', '16', 'Nassau Veterans Memorial Coliseum', '8', 'NYI', 'New York', 'Islanders', '1', '0', '0', '0', '0', '0', '1', '2', '33', '38', '46.5', '1', '1', '100.0', '4', '1', '75.0', '0', '0', '5', '3', '38', '4', '8', '18']"
"['', '29779', '2016-02-04', '00:30:00 GMT', '8', 'NYI', 'New York', 'Islanders', '5', 'WSH', 'Washington', 'Capitals', '13', 'Verizon Center', '8', 'NYI', 'New York', 'Islanders', '0', '1', '0', '0', '0', '0', '0', '0', '27', '24', '52.9', '2', '0', '0.0', '2', '0', '100.0', '0', '0', '2', '3', '26', '2', '4', '25']"
"['', '29796', '2016-02-06', '19:00:00 GMT', '8', 'NYI', 'New York', 'Islanders', '16', 'DET', 'Detroit', 'Red Wings', '11', 'Joe Louis Arena', '8', 'NYI', 'New York', 'Islanders', '0', '1', '0', '0', '0', '0', '0', '0', '24', '22', '52.2', '5', '1', '20.0', '3', '1', '66.7', '0', '0', '1', '5', '29', '4', '8', '25']"
"['', '29807', '2016-02-07', '19:30:00 GMT', '24', 'EDM', 'Edmonton', 'Oilers', '8', 'NYI', 'New York', 'Islanders', '16', 'Nassau Veterans Memorial Coliseum', '8', 'NYI', 'New York', 'Islanders', '1', '0', '0', '0', '0', '0', '1', '2', '34', '31', '52.3', '5', '2', '40.0', '1', '0', '100.0', '0', '0', '8', '1', '31', '6', '18', '21']"
"['', '29816', '2016-02-09', '00:00:00 GMT', '8', 'NYI', 'New York', 'Islanders', '19', 'CBJ', 'Columbus', 'Blue Jackets', '17', 'Nationwide Arena', '8', 'NYI', 'New York', 'Islanders', '1', '0', '0', '0', '0', '0', '0', '2', '46', '39', '54.1', '2', '1', '50.0', '1', '0', '100.0', '0', '0', '2', '2', '46', '1', '2', '15']"
"['', '29827', '2016-02-11', '00:00:00 GMT', '28', 'LAK', 'Los Angeles', 'Kings', '8', 'NYI', 'New York', 'Islanders', '16', 'Nassau Veterans Memorial Coliseum', '8', 'NYI', 'New York', 'Islanders', '1', '0', '0', '0', '0', '0', '1', '2', '31', '31', '50.0', '4', '1', '25.0', '3', '0', '100.0', '1', '0', '5', '2', '30', '3', '6', '32']"
"['', '29846', '2016-02-13', '00:00:00 GMT', '8', 'NYI', 'New York', 'Islanders', '3', 'CAR', 'Carolina', 'Hurricanes', '21', 'RBC Center', '8', 'NYI', 'New York', 'Islanders', '0', '1', '0', '0', '0', '0', '0', '0', '25', '24', '51.0', '2', '1', '50.0', '2', '1', '50.0', '0', '0', '3', '6', '26', '3', '6', '31']"
"['', '29858', '2016-02-15', '18:00:00 GMT', '16', 'DET', 'Detroit', 'Red Wings', '8', 'NYI', 'New York', 'Islanders', '16', 'Nassau Veterans Memorial Coliseum', '8', 'NYI', 'New York', 'Islanders', '1', '0', '0', '0', '0', '0', '1', '2', '32', '18', '64.0', '5', '1', '20.0', '4', '0', '100.0', '0', '0', '4', '1', '32', '4', '8', '20']"
"['', '29876', '2016-02-18', '00:00:00 GMT', '5', 'WSH', 'Washington', 'Capitals', '8', 'NYI', 'New York', 'Islanders', '16', 'Nassau Veterans Memorial Coliseum', '8', 'NYI', 'New York', 'Islanders', '0', '0', '0', '1', '0', '0', '0', '1', '27', '36', '42.9', '2', '0', '0.0', '5', '1', '80.0', '0', '0', '2', '3', '22', '7', '14', '19']"
"['', '29887', '2016-02-19', '00:00:00 GMT', '8', 'NYI', 'New York', 'Islanders', '7', 'NJD', 'New Jersey', 'Devils', '37', 'Prudential Center', '8', 'NYI', 'New York', 'Islanders', '1', '0', '0', '0', '0', '0', '1', '2', '18', '21', '46.2', '4', '0', '0.0', '1', '0', '100.0', '0', '0', '1', '0', '24', '1', '2', '24']"
"['', '29916', '2016-02-23', '01:00:00 GMT', '8', 'NYI', 'New York', 'Islanders', '25', 'MIN', 'Minnesota', 'Wild', '30', 'Xcel Energy Center', '8', 'NYI', 'New York', 'Islanders', '1', '0', '0', '0', '0', '0', '1', '2', '38', '27', '58.5', '3', '2', '66.7', '5', '0', '100.0', '1', '0', '4', '1', '31', '5', '10', '15']"
"['', '29931', '2016-02-25', '02:00:00 GMT', '8', 'NYI', 'New York', 'Islanders', '23', 'CGY', 'Calgary', 'Flames', '18', 'Scotiabank Saddledome', '8', 'NYI', 'New York', 'Islanders', '1', '0', '0', '0', '0', '0', '1', '2', '27', '32', '45.8', '2', '0', '0.0', '2', '0', '100.0', '0', '0', '2', '1', '34', '5', '19', '15']"
"['', '29954', '2016-02-28', '02:30:00 GMT', '8', 'NYI', 'New York', 'Islanders', '24', 'EDM', 'Edmonton', 'Oilers', '22', 'Rogers Place', '8', 'NYI', 'New York', 'Islanders', '0', '1', '0', '0', '0', '0', '0', '0', '24', '28', '46.2', '4', '0', '0.0', '1', '0', '100.0', '0', '0', '1', '3', '37', '1', '2', '33']"
"['', '29968', '2016-03-01', '03:00:00 GMT', '8', 'NYI', 'New York', 'Islanders', '21', 'VAN', 'Vancouver', 'Canucks', '7', 'Rogers Arena', '8', 'NYI', 'New York', 'Islanders', '1', '0', '0', '0', '0', '0', '1', '2', '32', '25', '56.1', '1', '0', '0.0', '2', '1', '50.0', '0', '0', '3', '2', '24', '4', '14', '29']"
"['', '29979', '2016-03-03', '01:00:00 GMT', '8', 'NYI', 'New York', 'Islanders', '2', 'WPJ', 'Winnipeg', 'Jets', '39', 'MTS Centre', '8', 'NYI', 'New York', 'Islanders', '1', '0', '0', '0', '0', '0', '1', '2', '29', '30', '49.2', '4', '0', '0.0', '4', '1', '75.0', '0', '0', '4', '3', '27', '4', '8', '15']"
"['', '30000', '2016-03-06', '22:00:00 GMT', '8', 'NYI', 'New York', 'Islanders', '9', 'NYR', 'New York', 'Rangers', '12', 'Madison Square Garden', '8', 'NYI', 'New York', 'Islanders', '1', '0', '0', '0', '0', '0', '1', '2', '20', '41', '32.8', '3', '1', '33.3', '3', '1', '66.7', '0', '0', '6', '4', '32', '3', '6', '25']"
"['', '30012', '2016-03-08', '00:00:00 GMT', '10', 'PIT', 'Pittsburgh', 'Penguins', '8', 'NYI', 'New York', 'Islanders', '16', 'Nassau Veterans Memorial Coliseum', '8', 'NYI', 'New York', 'Islanders', '1', '0', '0', '0', '0', '0', '1', '2', '34', '27', '55.7', '4', '2', '50.0', '3', '0', '100.0', '0', '0', '2', '1', '27', '4', '8', '23']"
"['', '30019', '2016-03-09', '00:00:00 GMT', '8', 'NYI', 'New York', 'Islanders', '12', 'TOR', 'Toronto', 'Maple Leafs', '1', 'Air Canada Center', '8', 'NYI', 'New York', 'Islanders', '0', '0', '0', '1', '0', '0', '0', '1', '34', '32', '51.5', '1', '0', '0.0', '4', '2', '50.0', '0', '0', '3', '3', '27', '4', '10', '26']"
"['', '30036', '2016-03-12', '18:00:00 GMT', '8', 'NYI', 'New York', 'Islanders', '11', 'BOS', 'Boston', 'Bruins', '27', 'TD Garden', '8', 'NYI', 'New York', 'Islanders', '0', '1', '0', '0', '0', '0', '0', '0', '30', '30', '50.0', '0', '0', '0.0', '1', '1', '0.0', '0', '0', '1', '3', '26', '2', '4', '38']"
"['', '30051', '2016-03-14', '23:00:00 GMT', '4', 'FLO', 'Florida', 'Panthers', '8', 'NYI', 'New York', 'Islanders', '16', 'Nassau Veterans Memorial Coliseum', '8', 'NYI', 'New York', 'Islanders', '1', '0', '0', '0', '0', '0', '1', '2', '25', '28', '47.2', '3', '0', '0.0', '2', '1', '50.0', '0', '0', '3', '2', '28', '4', '11', '24']"
"['', '30058', '2016-03-15', '23:00:00 GMT', '8', 'NYI', 'New York', 'Islanders', '10', 'PIT', 'Pittsburgh', 'Penguins', '40', 'Consol Energy Center', '8', 'NYI', 'New York', 'Islanders', '0', '0', '0', '1', '0', '0', '0', '1', '25', '34', '42.4', '3', '1', '33.3', '3', '0', '100.0', '0', '0', '1', '1', '26', '4', '8', '46']"
"['', '30075', '2016-03-17', '00:00:00 GMT', '8', 'NYI', 'New York', 'Islanders', '18', 'NSH', 'Nashville', 'Predators', '15', 'Bridgestone Arena', '8', 'NYI', 'New York', 'Islanders', '0', '1', '0', '0', '0', '0', '0', '0', '33', '28', '54.1', '0', '0', '0.0', '1', '1', '0.0', '0', '0', '2', '4', '22', '1', '2', '19']"
"['', '30092', '2016-03-19', '00:00:00 GMT', '8', 'NYI', 'New York', 'Islanders', '27', 'DAL', 'Dallas', 'Stars', '2', 'American Airlines Center', '8', 'NYI', 'New York', 'Islanders', '0', '1', '0', '0', '0', '0', '0', '0', '21', '27', '43.8', '1', '0', '0.0', '3', '0', '100.0', '0', '0', '0', '3', '27', '4', '8', '19']"
"['', '30103', '2016-03-21', '23:30:00 GMT', '6', 'PHI', 'Philadelphia', 'Flyers', '8', 'NYI', 'New York', 'Islanders', '16', 'Nassau Veterans Memorial Coliseum', '8', 'NYI', 'New York', 'Islanders', '0', '1', '0', '0', '0', '0', '0', '0', '23', '27', '46.0', '3', '0', '0.0', '4', '0', '100.0', '0', '0', '1', '4', '24', '4', '8', '27']"
"['', '30117', '2016-03-23', '23:00:00 GMT', '13', 'OTT', 'Ottawa', 'Senators', '8', 'NYI', 'New York', 'Islanders', '16', 'Nassau Veterans Memorial Coliseum', '8', 'NYI', 'New York', 'Islanders', '1', '0', '0', '0', '0', '0', '1', '2', '28', '31', '47.5', '3', '0', '0.0', '1', '0', '100.0', '0', '0', '3', '1', '23', '1', '2', '12']"
"['', '30131', '2016-03-25', '23:30:00 GMT', '8', 'NYI', 'New York', 'Islanders', '1', 'TBL', 'Tampa Bay', 'Lightning', '26', 'Amalie Arena', '8', 'NYI', 'New York', 'Islanders', '0', '1', '0', '0', '0', '0', '0', '0', '34', '40', '45.9', '3', '0', '0.0', '3', '0', '100.0', '0', '0', '4', '7', '31', '4', '16', '26']"
"['', '30142', '2016-03-26', '23:00:00 GMT', '8', 'NYI', 'New York', 'Islanders', '3', 'CAR', 'Carolina', 'Hurricanes', '21', 'RBC Center', '8', 'NYI', 'New York', 'Islanders', '1', '0', '0', '0', '0', '0', '1', '2', '21', '32', '39.6', '2', '0', '0.0', '1', '0', '100.0', '0', '0', '4', '3', '31', '1', '2', '30']"
"['', '30159', '2016-03-29', '23:00:00 GMT', '3', 'CAR', 'Carolina', 'Hurricanes', '8', 'NYI', 'New York', 'Islanders', '16', 'Nassau Veterans Memorial Coliseum', '8', 'NYI', 'New York', 'Islanders', '1', '0', '0', '0', '0', '0', '0', '2', '25', '30', '45.5', '3', '1', '33.3', '1', '0', '100.0', '0', '0', '1', '1', '31', '1', '2', '17']"
"['', '30171', '2016-03-31', '23:00:00 GMT', '19', 'CBJ', 'Columbus', 'Blue Jackets', '8', 'NYI', 'New York', 'Islanders', '16', 'Nassau Veterans Memorial Coliseum', '8', 'NYI', 'New York', 'Islanders', '1', '0', '0', '0', '0', '0', '1', '2', '30', '25', '54.5', '2', '1', '50.0', '3', '1', '66.7', '0', '0', '4', '3', '27', '5', '13', '20']"
"['', '30185', '2016-04-02', '17:00:00 GMT', '10', 'PIT', 'Pittsburgh', 'Penguins', '8', 'NYI', 'New York', 'Islanders', '16', 'Nassau Veterans Memorial Coliseum', '8', 'NYI', 'New York', 'Islanders', '0', '1', '0', '0', '0', '0', '0', '0', '47', '25', '65.3', '5', '0', '0.0', '3', '2', '33.3', '0', '1', '0', '5', '24', '8', '19', '18']"
"['', '30201', '2016-04-04', '23:00:00 GMT', '1', 'TBL', 'Tampa Bay', 'Lightning', '8', 'NYI', 'New York', 'Islanders', '16', 'Nassau Veterans Memorial Coliseum', '8', 'NYI', 'New York', 'Islanders', '1', '0', '0', '0', '0', '0', '1', '2', '22', '25', '46.8', '2', '1', '50.0', '4', '0', '100.0', '0', '0', '5', '2', '36', '6', '15', '38']"
"['', '30209', '2016-04-05', '23:00:00 GMT', '8', 'NYI', 'New York', 'Islanders', '5', 'WSH', 'Washington', 'Capitals', '13', 'Verizon Center', '8', 'NYI', 'New York', 'Islanders', '1', '0', '0', '0', '0', '0', '1', '2', '25', '25', '50.0', '2', '0', '0.0', '1', '0', '100.0', '0', '0', '4', '3', '27', '4', '11', '32']"
"['', '30222', '2016-04-07', '23:00:00 GMT', '8', 'NYI', 'New York', 'Islanders', '9', 'NYR', 'New York', 'Rangers', '12', 'Madison Square Garden', '8', 'NYI', 'New York', 'Islanders', '1', '0', '0', '0', '0', '0', '1', '2', '27', '21', '56.2', '3', '1', '33.3', '4', '0', '100.0', '0', '0', '4', '1', '23', '5', '10', '22']"
"['', '30243', '2016-04-09', '23:30:00 GMT', '15', 'BUF', 'Buffalo', 'Sabres', '8', 'NYI', 'New York', 'Islanders', '16', 'Nassau Veterans Memorial Coliseum', '8', 'NYI', 'New York', 'Islanders', '0', '0', '0', '1', '0', '0', '0', '1', '30', '23', '56.6', '1', '0', '0.0', '2', '0', '100.0', '1', '0', '3', '4', '24', '2', '4', '20']"
"['', '30250', '2016-04-10', '23:00:00 GMT', '6', 'PHI', 'Philadelphia', 'Flyers', '8', 'NYI', 'New York', 'Islanders', '16', 'Nassau Veterans Memorial Coliseum', '8', 'NYI', 'New York', 'Islanders', '0', '1', '0', '0', '0', '0', '0', '0', '27', '20', '57.4', '4', '0', '0.0', '4', '3', '25.0', '0', '0', '2', '5', '17', '4', '8', '17']"
