"['#Date/Time of Update: 2018-12-10 19:03:10 GMT', '#Game ID', '#Game Date', '#Game Time', '#Away Team ID', '#Away Team Abbr.', '#Away Team City', '#Away Team Name', '#Home Team ID', '#Home Team Abbr.', '#Home Team City', '#Home Team Name', '#Venue ID', '#Venue Name', '#Team ID', '#Team Abbr.', '#Team City', '#Team Name', '#Wins', '#Losses', '#OvertimeWins', '#OvertimeLosses', '#ShootoutWins', '#ShootoutLosses', '#Rows', '#Points', '#FaceoffWins', '#FaceoffLosses', '#FaceoffPercent', '#Powerplays', '#PowerplayGoals', '#PowerplayPercent', '#PenaltyKills', '#PenaltyKillGoalsAllowed', '#PenaltyKillPercent', '#ShorthandedGoalsFor', '#ShorthandedGoalsAgainst', '#GoalsFor', '#GoalsAgainst', '#Shots', '#Penalties', '#PenaltyMinutes', '#Hits']"
"['', '26364', '2013-10-03', '00:00:00 GMT', '18', 'NSH', 'Nashville', 'Predators', '17', 'STL', 'St. Louis', 'Blues', '24', 'Scottrade Center', '17', 'STL', 'St. Louis', 'Blues', '1', '0', '0', '0', '0', '0', '1', '2', '26', '27', '49.1', '4', '2', '50.0', '4', '0', '100.0', '0', '0', '4', '2', '24', '5', '10', '19']"
"['', '26381', '2013-10-05', '00:00:00 GMT', '4', 'FLO', 'Florida', 'Panthers', '17', 'STL', 'St. Louis', 'Blues', '24', 'Scottrade Center', '17', 'STL', 'St. Louis', 'Blues', '1', '0', '0', '0', '0', '0', '1', '2', '33', '24', '57.9', '3', '1', '33.3', '7', '0', '100.0', '0', '0', '7', '0', '27', '13', '53', '23']"
"['', '26399', '2013-10-09', '00:00:00 GMT', '20', 'CHI', 'Chicago', 'Blackhawks', '17', 'STL', 'St. Louis', 'Blues', '24', 'Scottrade Center', '17', 'STL', 'St. Louis', 'Blues', '1', '0', '0', '0', '0', '0', '1', '2', '31', '27', '53.4', '2', '1', '50.0', '1', '2', '1.0', '0', '0', '3', '2', '31', '5', '13', '22']"
"['', '26424', '2013-10-12', '00:00:00 GMT', '9', 'NYR', 'New York', 'Rangers', '17', 'STL', 'St. Louis', 'Blues', '24', 'Scottrade Center', '17', 'STL', 'St. Louis', 'Blues', '1', '0', '0', '0', '0', '0', '1', '2', '34', '26', '56.7', '6', '2', '33.3', '4', '2', '50.0', '0', '0', '5', '3', '29', '7', '14', '16']"
"['', '26443', '2013-10-15', '00:00:00 GMT', '26', 'SJS', 'San Jose', 'Sharks', '17', 'STL', 'St. Louis', 'Blues', '24', 'Scottrade Center', '17', 'STL', 'St. Louis', 'Blues', '0', '1', '0', '0', '0', '0', '0', '0', '29', '31', '48.3', '4', '0', '0.0', '4', '3', '25.0', '0', '0', '2', '6', '25', '11', '47', '18']"
"['', '26458', '2013-10-17', '00:00:00 GMT', '17', 'STL', 'St. Louis', 'Blues', '20', 'CHI', 'Chicago', 'Blackhawks', '28', 'United Center', '17', 'STL', 'St. Louis', 'Blues', '1', '0', '0', '0', '0', '0', '0', '2', '30', '33', '47.6', '2', '1', '50.0', '4', '0', '100.0', '0', '0', '2', '2', '26', '6', '15', '24']"
"['', '26462', '2013-10-18', '00:00:00 GMT', '17', 'STL', 'St. Louis', 'Blues', '2', 'WPJ', 'Winnipeg', 'Jets', '39', 'MTS Centre', '17', 'STL', 'St. Louis', 'Blues', '0', '0', '0', '1', '0', '0', '0', '1', '33', '27', '55.0', '3', '0', '0.0', '2', '0', '100.0', '0', '0', '3', '3', '29', '2', '4', '21']"
"['', '26507', '2013-10-25', '00:00:00 GMT', '21', 'VAN', 'Vancouver', 'Canucks', '17', 'STL', 'St. Louis', 'Blues', '24', 'Scottrade Center', '17', 'STL', 'St. Louis', 'Blues', '0', '0', '0', '1', '0', '0', '0', '1', '35', '22', '61.4', '2', '1', '50.0', '3', '1', '66.7', '0', '0', '2', '3', '22', '7', '28', '17']"
"['', '26517', '2013-10-26', '00:00:00 GMT', '17', 'STL', 'St. Louis', 'Blues', '18', 'NSH', 'Nashville', 'Predators', '15', 'Bridgestone Arena', '17', 'STL', 'St. Louis', 'Blues', '1', '0', '0', '0', '0', '0', '1', '2', '23', '32', '41.8', '5', '2', '40.0', '3', '0', '100.0', '0', '1', '6', '1', '24', '7', '25', '17']"
"['', '26535', '2013-10-29', '00:00:00 GMT', '2', 'WPJ', 'Winnipeg', 'Jets', '17', 'STL', 'St. Louis', 'Blues', '24', 'Scottrade Center', '17', 'STL', 'St. Louis', 'Blues', '1', '0', '0', '0', '0', '0', '1', '2', '32', '23', '58.2', '6', '1', '16.7', '4', '1', '75.0', '0', '1', '3', '2', '30', '5', '10', '16']"
"['', '26549', '2013-11-01', '23:30:00 GMT', '17', 'STL', 'St. Louis', 'Blues', '4', 'FLO', 'Florida', 'Panthers', '3', 'BB&T Center', '17', 'STL', 'St. Louis', 'Blues', '1', '0', '0', '0', '0', '0', '1', '2', '26', '28', '48.1', '4', '1', '25.0', '2', '0', '100.0', '0', '0', '4', '0', '19', '2', '4', '25']"
"['', '26555', '2013-11-02', '23:00:00 GMT', '17', 'STL', 'St. Louis', 'Blues', '1', 'TBL', 'Tampa Bay', 'Lightning', '26', 'Tampa Bay Times Forum', '17', 'STL', 'St. Louis', 'Blues', '0', '1', '0', '0', '0', '0', '0', '0', '30', '30', '50.0', '4', '0', '0.0', '3', '0', '100.0', '0', '0', '2', '4', '28', '3', '6', '16']"
"['', '26574', '2013-11-05', '00:30:00 GMT', '17', 'STL', 'St. Louis', 'Blues', '14', 'MTL', 'Montreal', 'Canadiens', '4', 'Bell Centre', '17', 'STL', 'St. Louis', 'Blues', '1', '0', '0', '0', '0', '0', '0', '2', '48', '27', '64.0', '4', '0', '0.0', '1', '0', '100.0', '0', '0', '2', '2', '30', '3', '17', '29']"
"['', '26592', '2013-11-07', '01:00:00 GMT', '23', 'CGY', 'Calgary', 'Flames', '17', 'STL', 'St. Louis', 'Blues', '24', 'Scottrade Center', '17', 'STL', 'St. Louis', 'Blues', '1', '0', '0', '0', '0', '0', '1', '2', '22', '28', '44.0', '3', '1', '33.3', '6', '0', '100.0', '0', '0', '3', '2', '24', '8', '19', '9']"
"['', '26605', '2013-11-09', '01:00:00 GMT', '10', 'PIT', 'Pittsburgh', 'Penguins', '17', 'STL', 'St. Louis', 'Blues', '24', 'Scottrade Center', '17', 'STL', 'St. Louis', 'Blues', '1', '0', '0', '0', '0', '0', '1', '2', '34', '29', '54.0', '2', '0', '0.0', '2', '1', '50.0', '0', '0', '2', '1', '30', '4', '19', '20']"
"['', '26626', '2013-11-12', '01:00:00 GMT', '30', 'PHX', 'Phoenix', 'Coyotes', '17', 'STL', 'St. Louis', 'Blues', '24', 'Scottrade Center', '17', 'STL', 'St. Louis', 'Blues', '0', '0', '0', '1', '0', '0', '0', '1', '25', '30', '45.5', '1', '0', '0.0', '1', '0', '100.0', '0', '0', '2', '3', '37', '1', '2', '24']"
"['', '26635', '2013-11-14', '01:00:00 GMT', '22', 'COL', 'Colorado', 'Avalanche', '17', 'STL', 'St. Louis', 'Blues', '24', 'Scottrade Center', '17', 'STL', 'St. Louis', 'Blues', '1', '0', '0', '0', '0', '0', '1', '2', '34', '30', '53.1', '4', '3', '75.0', '5', '1', '80.0', '0', '0', '7', '3', '22', '8', '25', '17']"
"['', '26652', '2013-11-16', '01:00:00 GMT', '3', 'CAR', 'Carolina', 'Hurricanes', '17', 'STL', 'St. Louis', 'Blues', '24', 'Scottrade Center', '17', 'STL', 'St. Louis', 'Blues', '1', '0', '0', '0', '0', '0', '1', '2', '35', '38', '47.9', '4', '1', '25.0', '4', '0', '100.0', '0', '2', '4', '2', '28', '4', '8', '22']"
"['', '26658', '2013-11-17', '23:00:00 GMT', '17', 'STL', 'St. Louis', 'Blues', '5', 'WSH', 'Washington', 'Capitals', '13', 'Verizon Center', '17', 'STL', 'St. Louis', 'Blues', '0', '1', '0', '0', '0', '0', '0', '0', '33', '31', '51.6', '6', '1', '16.7', '3', '1', '66.7', '0', '0', '1', '4', '46', '5', '13', '27']"
"['', '26666', '2013-11-19', '00:00:00 GMT', '17', 'STL', 'St. Louis', 'Blues', '15', 'BUF', 'Buffalo', 'Sabres', '10', 'First Niagara Center', '17', 'STL', 'St. Louis', 'Blues', '1', '0', '0', '0', '0', '0', '1', '2', '27', '30', '47.4', '3', '1', '33.3', '2', '0', '100.0', '0', '0', '4', '1', '27', '2', '4', '17']"
"['', '26680', '2013-11-21', '00:00:00 GMT', '17', 'STL', 'St. Louis', 'Blues', '11', 'BOS', 'Boston', 'Bruins', '27', 'TD Garden', '17', 'STL', 'St. Louis', 'Blues', '1', '0', '0', '0', '0', '0', '0', '2', '29', '34', '46.0', '1', '0', '0.0', '1', '0', '100.0', '0', '0', '2', '2', '24', '1', '2', '31']"
"['', '26701', '2013-11-23', '01:00:00 GMT', '27', 'DAL', 'Dallas', 'Stars', '17', 'STL', 'St. Louis', 'Blues', '24', 'Scottrade Center', '17', 'STL', 'St. Louis', 'Blues', '1', '0', '0', '0', '0', '0', '1', '2', '35', '32', '52.2', '3', '1', '33.3', '2', '0', '100.0', '0', '0', '6', '1', '19', '5', '16', '19']"
"['', '26714', '2013-11-25', '01:00:00 GMT', '25', 'MIN', 'Minnesota', 'Wild', '17', 'STL', 'St. Louis', 'Blues', '24', 'Scottrade Center', '17', 'STL', 'St. Louis', 'Blues', '1', '0', '0', '0', '0', '0', '1', '2', '38', '19', '66.7', '3', '0', '0.0', '3', '0', '100.0', '0', '0', '3', '0', '18', '3', '6', '19']"
"['', '26729', '2013-11-27', '02:00:00 GMT', '17', 'STL', 'St. Louis', 'Blues', '22', 'COL', 'Colorado', 'Avalanche', '19', 'Pepsi Center', '17', 'STL', 'St. Louis', 'Blues', '1', '0', '0', '0', '0', '0', '1', '2', '24', '26', '48.0', '1', '1', '100.0', '4', '0', '100.0', '1', '0', '4', '1', '31', '5', '10', '23']"
"['', '26739', '2013-11-29', '21:00:00 GMT', '17', 'STL', 'St. Louis', 'Blues', '26', 'SJS', 'San Jose', 'Sharks', '9', 'SAP Center at San Jose', '17', 'STL', 'St. Louis', 'Blues', '0', '1', '0', '0', '0', '0', '0', '0', '33', '26', '55.9', '5', '1', '20.0', '5', '2', '60.0', '0', '0', '3', '6', '21', '8', '24', '25']"
"['', '26763', '2013-12-02', '03:30:00 GMT', '17', 'STL', 'St. Louis', 'Blues', '28', 'LAK', 'Los Angeles', 'Kings', '25', 'Staples Center', '17', 'STL', 'St. Louis', 'Blues', '0', '1', '0', '0', '0', '0', '0', '0', '25', '37', '40.3', '3', '0', '0.0', '2', '0', '100.0', '0', '0', '2', '3', '25', '3', '6', '31']"
"['', '26782', '2013-12-05', '01:00:00 GMT', '8', 'NYI', 'New York', 'Islanders', '17', 'STL', 'St. Louis', 'Blues', '24', 'Scottrade Center', '17', 'STL', 'St. Louis', 'Blues', '1', '0', '0', '0', '0', '0', '1', '2', '24', '26', '48.0', '5', '3', '60.0', '3', '1', '66.7', '0', '0', '5', '1', '21', '6', '15', '25']"
"['', '26800', '2013-12-07', '01:00:00 GMT', '29', 'ANA', 'Anaheim', 'Ducks', '17', 'STL', 'St. Louis', 'Blues', '24', 'Scottrade Center', '17', 'STL', 'St. Louis', 'Blues', '0', '1', '0', '0', '0', '0', '0', '0', '37', '30', '55.2', '5', '0', '0.0', '2', '1', '50.0', '0', '0', '2', '5', '26', '3', '6', '21']"
"['', '26818', '2013-12-10', '01:00:00 GMT', '17', 'STL', 'St. Louis', 'Blues', '2', 'WPJ', 'Winnipeg', 'Jets', '39', 'MTS Centre', '17', 'STL', 'St. Louis', 'Blues', '1', '0', '0', '0', '0', '0', '1', '2', '37', '28', '56.9', '3', '1', '33.3', '4', '1', '75.0', '0', '0', '2', '1', '18', '5', '10', '27']"
"['', '26831', '2013-12-12', '01:00:00 GMT', '12', 'TOR', 'Toronto', 'Maple Leafs', '17', 'STL', 'St. Louis', 'Blues', '24', 'Scottrade Center', '17', 'STL', 'St. Louis', 'Blues', '1', '0', '0', '0', '0', '0', '1', '2', '37', '26', '58.7', '2', '0', '0.0', '3', '0', '100.0', '0', '0', '6', '3', '30', '4', '11', '13']"
"['', '26848', '2013-12-14', '00:00:00 GMT', '17', 'STL', 'St. Louis', 'Blues', '19', 'CBJ', 'Columbus', 'Blue Jackets', '17', 'Nationwide Arena', '17', 'STL', 'St. Louis', 'Blues', '1', '0', '0', '0', '0', '0', '1', '2', '26', '37', '41.3', '3', '1', '33.3', '6', '1', '83.3', '0', '0', '4', '3', '27', '10', '26', '23']"
"['', '26861', '2013-12-16', '00:30:00 GMT', '17', 'STL', 'St. Louis', 'Blues', '13', 'OTT', 'Ottawa', 'Senators', '23', 'Canadian Tire Centre', '17', 'STL', 'St. Louis', 'Blues', '0', '0', '0', '1', '0', '0', '0', '1', '24', '37', '39.3', '2', '0', '0.0', '3', '0', '100.0', '0', '0', '2', '3', '30', '5', '13', '31']"
"['', '26870', '2013-12-17', '01:00:00 GMT', '26', 'SJS', 'San Jose', 'Sharks', '17', 'STL', 'St. Louis', 'Blues', '24', 'Scottrade Center', '17', 'STL', 'St. Louis', 'Blues', '0', '1', '0', '0', '0', '0', '0', '0', '29', '25', '53.7', '3', '0', '0.0', '2', '0', '100.0', '0', '0', '2', '4', '20', '4', '8', '21']"
"['', '26884', '2013-12-19', '01:00:00 GMT', '14', 'MTL', 'Montreal', 'Canadiens', '17', 'STL', 'St. Louis', 'Blues', '24', 'Scottrade Center', '17', 'STL', 'St. Louis', 'Blues', '1', '0', '0', '0', '0', '0', '1', '2', '31', '29', '51.7', '5', '0', '0.0', '4', '0', '100.0', '1', '0', '5', '1', '24', '5', '10', '15']"
"['', '26903', '2013-12-21', '03:00:00 GMT', '17', 'STL', 'St. Louis', 'Blues', '24', 'EDM', 'Edmonton', 'Oilers', '22', 'Rogers Place', '17', 'STL', 'St. Louis', 'Blues', '1', '0', '0', '0', '0', '0', '1', '2', '27', '30', '47.4', '5', '1', '20.0', '2', '0', '100.0', '0', '0', '6', '0', '27', '6', '12', '18']"
"['', '26917', '2013-12-23', '02:00:00 GMT', '17', 'STL', 'St. Louis', 'Blues', '23', 'CGY', 'Calgary', 'Flames', '18', 'Scotiabank Saddledome', '17', 'STL', 'St. Louis', 'Blues', '0', '0', '0', '1', '0', '0', '0', '1', '33', '35', '48.5', '4', '1', '25.0', '5', '2', '60.0', '0', '0', '3', '3', '32', '5', '10', '11']"
"['', '26935', '2013-12-28', '01:00:00 GMT', '20', 'CHI', 'Chicago', 'Blackhawks', '17', 'STL', 'St. Louis', 'Blues', '24', 'Scottrade Center', '17', 'STL', 'St. Louis', 'Blues', '1', '0', '0', '0', '0', '0', '0', '2', '26', '34', '43.3', '4', '1', '25.0', '1', '1', '0.0', '0', '0', '5', '5', '20', '1', '2', '30']"
"['', '26942', '2013-12-29', '23:00:00 GMT', '17', 'STL', 'St. Louis', 'Blues', '27', 'DAL', 'Dallas', 'Stars', '2', 'American Airlines Center', '17', 'STL', 'St. Louis', 'Blues', '1', '0', '0', '0', '0', '0', '1', '2', '30', '37', '44.8', '2', '2', '100.0', '5', '1', '80.0', '0', '0', '3', '2', '19', '5', '10', '22']"
"['', '26955', '2013-12-31', '23:00:00 GMT', '17', 'STL', 'St. Louis', 'Blues', '25', 'MIN', 'Minnesota', 'Wild', '30', 'Xcel Energy Center', '17', 'STL', 'St. Louis', 'Blues', '1', '0', '0', '0', '0', '0', '1', '2', '26', '20', '56.5', '1', '0', '0.0', '3', '0', '100.0', '0', '0', '2', '1', '21', '3', '6', '19']"
"['', '26970', '2014-01-02', '01:00:00 GMT', '28', 'LAK', 'Los Angeles', 'Kings', '17', 'STL', 'St. Louis', 'Blues', '24', 'Scottrade Center', '17', 'STL', 'St. Louis', 'Blues', '1', '0', '0', '0', '0', '0', '1', '2', '32', '24', '57.1', '5', '2', '40.0', '6', '0', '100.0', '0', '0', '5', '0', '21', '6', '12', '19']"
"['', '26987', '2014-01-04', '01:00:00 GMT', '19', 'CBJ', 'Columbus', 'Blue Jackets', '17', 'STL', 'St. Louis', 'Blues', '24', 'Scottrade Center', '17', 'STL', 'St. Louis', 'Blues', '1', '0', '0', '0', '0', '0', '1', '2', '32', '23', '58.2', '1', '0', '0.0', '1', '0', '100.0', '0', '0', '6', '2', '31', '2', '4', '21']"
"['', '27007', '2014-01-07', '02:30:00 GMT', '17', 'STL', 'St. Louis', 'Blues', '24', 'EDM', 'Edmonton', 'Oilers', '22', 'Rogers Place', '17', 'STL', 'St. Louis', 'Blues', '1', '0', '0', '0', '0', '0', '1', '2', '32', '29', '52.5', '3', '2', '66.7', '0', '0', '0.0', '0', '0', '5', '2', '25', '0', '0', '19']"
"['', '27019', '2014-01-09', '02:00:00 GMT', '17', 'STL', 'St. Louis', 'Blues', '23', 'CGY', 'Calgary', 'Flames', '18', 'Scotiabank Saddledome', '17', 'STL', 'St. Louis', 'Blues', '1', '0', '0', '0', '0', '0', '1', '2', '33', '25', '56.9', '6', '2', '33.3', '5', '0', '100.0', '0', '0', '5', '0', '24', '7', '14', '9']"
"['', '27028', '2014-01-10', '03:00:00 GMT', '17', 'STL', 'St. Louis', 'Blues', '21', 'VAN', 'Vancouver', 'Canucks', '7', 'Rogers Arena', '17', 'STL', 'St. Louis', 'Blues', '0', '1', '0', '0', '0', '0', '0', '0', '25', '37', '40.3', '1', '0', '0.0', '2', '0', '100.0', '0', '0', '1', '2', '30', '2', '4', '19']"
"['', '27057', '2014-01-14', '01:00:00 GMT', '30', 'PHX', 'Phoenix', 'Coyotes', '17', 'STL', 'St. Louis', 'Blues', '24', 'Scottrade Center', '17', 'STL', 'St. Louis', 'Blues', '1', '0', '0', '0', '0', '0', '1', '2', '30', '33', '47.6', '3', '1', '33.3', '2', '1', '50.0', '0', '0', '2', '1', '16', '3', '6', '18']"
"['', '27069', '2014-01-16', '01:00:00 GMT', '28', 'LAK', 'Los Angeles', 'Kings', '17', 'STL', 'St. Louis', 'Blues', '24', 'Scottrade Center', '17', 'STL', 'St. Louis', 'Blues', '0', '1', '0', '0', '0', '0', '0', '0', '30', '26', '53.6', '4', '0', '0.0', '5', '0', '100.0', '0', '1', '1', '4', '28', '11', '33', '33']"
"['', '27085', '2014-01-18', '01:00:00 GMT', '29', 'ANA', 'Anaheim', 'Ducks', '17', 'STL', 'St. Louis', 'Blues', '24', 'Scottrade Center', '17', 'STL', 'St. Louis', 'Blues', '0', '1', '0', '0', '0', '0', '0', '0', '41', '34', '54.7', '2', '1', '50.0', '3', '1', '66.7', '0', '0', '2', '3', '34', '4', '8', '24']"
"['', '27096', '2014-01-20', '00:30:00 GMT', '17', 'STL', 'St. Louis', 'Blues', '16', 'DET', 'Detroit', 'Red Wings', '11', 'Joe Louis Arena', '17', 'STL', 'St. Louis', 'Blues', '1', '0', '0', '0', '0', '0', '1', '2', '25', '39', '39.1', '4', '0', '0.0', '6', '1', '83.3', '0', '0', '4', '1', '35', '6', '12', '18']"
"['', '27101', '2014-01-21', '00:00:00 GMT', '17', 'STL', 'St. Louis', 'Blues', '7', 'NJD', 'New Jersey', 'Devils', '37', 'Prudential Center', '17', 'STL', 'St. Louis', 'Blues', '0', '1', '0', '0', '0', '0', '0', '0', '33', '20', '62.3', '3', '0', '0.0', '4', '3', '25.0', '0', '0', '1', '7', '26', '4', '8', '21']"
"['', '27114', '2014-01-23', '00:00:00 GMT', '17', 'STL', 'St. Louis', 'Blues', '9', 'NYR', 'New York', 'Rangers', '12', 'Madison Square Garden', '17', 'STL', 'St. Louis', 'Blues', '1', '0', '0', '0', '0', '0', '1', '2', '30', '28', '51.7', '2', '1', '50.0', '3', '0', '100.0', '0', '0', '2', '1', '23', '4', '8', '24']"
"['', '27129', '2014-01-25', '18:00:00 GMT', '17', 'STL', 'St. Louis', 'Blues', '8', 'NYI', 'New York', 'Islanders', '16', 'Nassau Veterans Memorial Coliseum', '17', 'STL', 'St. Louis', 'Blues', '1', '0', '0', '0', '0', '0', '0', '2', '31', '38', '44.9', '2', '0', '0.0', '4', '0', '100.0', '0', '0', '3', '3', '32', '7', '14', '19']"
"['', '27154', '2014-01-28', '01:00:00 GMT', '7', 'NJD', 'New Jersey', 'Devils', '17', 'STL', 'St. Louis', 'Blues', '24', 'Scottrade Center', '17', 'STL', 'St. Louis', 'Blues', '1', '0', '0', '0', '0', '0', '1', '2', '29', '32', '47.5', '4', '1', '25.0', '3', '0', '100.0', '0', '0', '3', '0', '22', '8', '35', '15']"
"['', '27173', '2014-01-31', '00:00:00 GMT', '17', 'STL', 'St. Louis', 'Blues', '3', 'CAR', 'Carolina', 'Hurricanes', '21', 'RBC Center', '17', 'STL', 'St. Louis', 'Blues', '0', '1', '0', '0', '0', '0', '0', '0', '31', '32', '49.2', '4', '1', '25.0', '4', '1', '75.0', '0', '0', '1', '3', '27', '4', '8', '21']"
"['', '27183', '2014-02-01', '01:00:00 GMT', '18', 'NSH', 'Nashville', 'Predators', '17', 'STL', 'St. Louis', 'Blues', '24', 'Scottrade Center', '17', 'STL', 'St. Louis', 'Blues', '1', '0', '0', '0', '0', '0', '0', '2', '24', '36', '40.0', '3', '1', '33.3', '1', '0', '100.0', '0', '0', '3', '3', '31', '1', '2', '16']"
"['', '27202', '2014-02-04', '01:00:00 GMT', '13', 'OTT', 'Ottawa', 'Senators', '17', 'STL', 'St. Louis', 'Blues', '24', 'Scottrade Center', '17', 'STL', 'St. Louis', 'Blues', '0', '0', '0', '1', '0', '0', '0', '1', '38', '32', '54.3', '7', '0', '0.0', '0', '0', '0.0', '0', '0', '4', '4', '46', '3', '6', '19']"
"['', '27216', '2014-02-06', '01:00:00 GMT', '11', 'BOS', 'Boston', 'Bruins', '17', 'STL', 'St. Louis', 'Blues', '24', 'Scottrade Center', '17', 'STL', 'St. Louis', 'Blues', '1', '0', '0', '0', '0', '0', '1', '2', '34', '28', '54.8', '3', '0', '0.0', '4', '0', '100.0', '0', '0', '3', '2', '24', '6', '12', '26']"
"['', '27225', '2014-02-08', '19:00:00 GMT', '2', 'WPJ', 'Winnipeg', 'Jets', '17', 'STL', 'St. Louis', 'Blues', '24', 'Scottrade Center', '17', 'STL', 'St. Louis', 'Blues', '1', '0', '0', '0', '0', '0', '0', '2', '33', '28', '54.1', '8', '0', '0.0', '4', '1', '75.0', '0', '0', '3', '3', '23', '7', '20', '18']"
"['', '27237', '2014-02-26', '03:30:00 GMT', '17', 'STL', 'St. Louis', 'Blues', '21', 'VAN', 'Vancouver', 'Canucks', '7', 'Rogers Arena', '17', 'STL', 'St. Louis', 'Blues', '0', '1', '0', '0', '0', '0', '0', '0', '26', '30', '46.4', '3', '0', '0.0', '4', '0', '100.0', '0', '0', '0', '1', '20', '4', '8', '31']"
"['', '27253', '2014-02-28', '03:00:00 GMT', '17', 'STL', 'St. Louis', 'Blues', '29', 'ANA', 'Anaheim', 'Ducks', '8', 'Honda Center', '17', 'STL', 'St. Louis', 'Blues', '0', '1', '0', '0', '0', '0', '0', '0', '21', '28', '42.9', '3', '0', '0.0', '2', '0', '100.0', '0', '0', '0', '1', '18', '5', '13', '25']"
"['', '27269', '2014-03-02', '01:00:00 GMT', '17', 'STL', 'St. Louis', 'Blues', '30', 'PHX', 'Phoenix', 'Coyotes', '6', 'Jobing.com Arena', '17', 'STL', 'St. Louis', 'Blues', '1', '0', '0', '0', '0', '0', '1', '2', '30', '33', '47.6', '3', '1', '33.3', '3', '0', '100.0', '0', '0', '4', '2', '26', '3', '6', '36']"
"['', '27279', '2014-03-04', '01:00:00 GMT', '1', 'TBL', 'Tampa Bay', 'Lightning', '17', 'STL', 'St. Louis', 'Blues', '24', 'Scottrade Center', '17', 'STL', 'St. Louis', 'Blues', '1', '0', '0', '0', '0', '0', '1', '2', '27', '27', '50.0', '2', '0', '0.0', '4', '1', '75.0', '1', '0', '4', '2', '25', '4', '8', '24']"
"['', '27294', '2014-03-06', '01:00:00 GMT', '17', 'STL', 'St. Louis', 'Blues', '18', 'NSH', 'Nashville', 'Predators', '15', 'Bridgestone Arena', '17', 'STL', 'St. Louis', 'Blues', '1', '0', '0', '0', '0', '0', '1', '2', '28', '32', '46.7', '2', '0', '0.0', '3', '0', '100.0', '0', '0', '2', '1', '19', '5', '10', '19']"
"['', '27305', '2014-03-08', '20:00:00 GMT', '17', 'STL', 'St. Louis', 'Blues', '22', 'COL', 'Colorado', 'Avalanche', '19', 'Pepsi Center', '17', 'STL', 'St. Louis', 'Blues', '1', '0', '0', '0', '0', '0', '1', '2', '33', '30', '52.4', '1', '0', '0.0', '3', '0', '100.0', '0', '0', '2', '1', '23', '3', '6', '20']"
"['', '27317', '2014-03-09', '00:00:00 GMT', '17', 'STL', 'St. Louis', 'Blues', '25', 'MIN', 'Minnesota', 'Wild', '30', 'Xcel Energy Center', '17', 'STL', 'St. Louis', 'Blues', '1', '0', '0', '0', '0', '0', '0', '2', '35', '28', '55.6', '2', '1', '50.0', '2', '0', '100.0', '0', '0', '2', '2', '20', '4', '11', '19']"
"['', '27333', '2014-03-11', '00:00:00 GMT', '27', 'DAL', 'Dallas', 'Stars', '17', 'STL', 'St. Louis', 'Blues', '24', 'Scottrade Center', '17', 'STL', 'St. Louis', 'Blues', '0', '0', '0', '1', '0', '0', '0', '1', '31', '35', '47.0', '3', '0', '0.0', '2', '1', '50.0', '0', '0', '2', '3', '28', '3', '6', '25']"
"['', '27344', '2014-03-13', '00:00:00 GMT', '24', 'EDM', 'Edmonton', 'Oilers', '17', 'STL', 'St. Louis', 'Blues', '24', 'Scottrade Center', '17', 'STL', 'St. Louis', 'Blues', '1', '0', '0', '0', '0', '0', '1', '2', '39', '22', '63.9', '5', '1', '20.0', '3', '0', '100.0', '0', '0', '6', '2', '31', '9', '42', '22']"
"['', '27360', '2014-03-15', '00:00:00 GMT', '17', 'STL', 'St. Louis', 'Blues', '18', 'NSH', 'Nashville', 'Predators', '15', 'Bridgestone Arena', '17', 'STL', 'St. Louis', 'Blues', '1', '0', '0', '0', '0', '0', '1', '2', '34', '27', '55.7', '1', '0', '0.0', '3', '0', '100.0', '0', '0', '4', '1', '22', '6', '15', '20']"
"['', '27375', '2014-03-17', '00:00:00 GMT', '2', 'WPJ', 'Winnipeg', 'Jets', '17', 'STL', 'St. Louis', 'Blues', '24', 'Scottrade Center', '17', 'STL', 'St. Louis', 'Blues', '1', '0', '0', '0', '0', '0', '1', '2', '35', '24', '59.3', '3', '1', '33.3', '1', '0', '100.0', '0', '0', '3', '1', '23', '10', '55', '29']"
"['', '27390', '2014-03-19', '00:00:00 GMT', '17', 'STL', 'St. Louis', 'Blues', '20', 'CHI', 'Chicago', 'Blackhawks', '28', 'United Center', '17', 'STL', 'St. Louis', 'Blues', '0', '1', '0', '0', '0', '0', '0', '0', '27', '34', '44.3', '3', '0', '0.0', '3', '2', '33.3', '0', '0', '0', '4', '23', '3', '6', '36']"
"['', '27406', '2014-03-22', '17:00:00 GMT', '17', 'STL', 'St. Louis', 'Blues', '6', 'PHI', 'Philadelphia', 'Flyers', '29', 'Wells Fargo Center', '17', 'STL', 'St. Louis', 'Blues', '0', '1', '0', '0', '0', '0', '0', '0', '33', '26', '55.9', '6', '0', '0.0', '4', '1', '75.0', '1', '0', '1', '4', '32', '8', '16', '29']"
"['', '27418', '2014-03-23', '17:00:00 GMT', '17', 'STL', 'St. Louis', 'Blues', '10', 'PIT', 'Pittsburgh', 'Penguins', '40', 'Consol Energy Center', '17', 'STL', 'St. Louis', 'Blues', '1', '0', '0', '0', '0', '0', '1', '2', '27', '27', '50.0', '2', '0', '0.0', '5', '0', '100.0', '0', '0', '1', '0', '26', '7', '14', '29']"
"['', '27430', '2014-03-25', '23:00:00 GMT', '17', 'STL', 'St. Louis', 'Blues', '12', 'TOR', 'Toronto', 'Maple Leafs', '1', 'Air Canada Center', '17', 'STL', 'St. Louis', 'Blues', '1', '0', '0', '0', '0', '0', '1', '2', '37', '26', '58.7', '2', '1', '50.0', '3', '1', '66.7', '0', '0', '5', '3', '44', '4', '11', '31']"
"['', '27449', '2014-03-27', '00:00:00 GMT', '25', 'MIN', 'Minnesota', 'Wild', '17', 'STL', 'St. Louis', 'Blues', '24', 'Scottrade Center', '17', 'STL', 'St. Louis', 'Blues', '1', '0', '0', '0', '0', '0', '1', '2', '21', '29', '42.0', '5', '2', '40.0', '5', '0', '100.0', '1', '0', '5', '1', '19', '7', '14', '19']"
"['', '27465', '2014-03-29', '00:00:00 GMT', '27', 'DAL', 'Dallas', 'Stars', '17', 'STL', 'St. Louis', 'Blues', '24', 'Scottrade Center', '17', 'STL', 'St. Louis', 'Blues', '0', '1', '0', '0', '0', '0', '0', '0', '37', '26', '58.7', '3', '2', '66.7', '3', '0', '100.0', '0', '0', '2', '4', '33', '5', '10', '29']"
"['', '27486', '2014-04-01', '00:00:00 GMT', '6', 'PHI', 'Philadelphia', 'Flyers', '17', 'STL', 'St. Louis', 'Blues', '24', 'Scottrade Center', '17', 'STL', 'St. Louis', 'Blues', '1', '0', '0', '0', '0', '0', '0', '2', '34', '21', '61.8', '3', '0', '0.0', '2', '0', '100.0', '0', '0', '0', '0', '28', '3', '6', '26']"
"['', '27499', '2014-04-03', '00:00:00 GMT', '15', 'BUF', 'Buffalo', 'Sabres', '17', 'STL', 'St. Louis', 'Blues', '24', 'Scottrade Center', '17', 'STL', 'St. Louis', 'Blues', '1', '0', '0', '0', '0', '0', '1', '2', '33', '20', '62.3', '2', '0', '0.0', '3', '1', '66.7', '0', '0', '2', '1', '26', '3', '6', '20']"
"['', '27511', '2014-04-05', '18:00:00 GMT', '22', 'COL', 'Colorado', 'Avalanche', '17', 'STL', 'St. Louis', 'Blues', '24', 'Scottrade Center', '17', 'STL', 'St. Louis', 'Blues', '0', '1', '0', '0', '0', '0', '0', '0', '34', '29', '54.0', '4', '0', '0.0', '6', '2', '66.7', '0', '0', '0', '4', '31', '20', '99', '24']"
"['', '27524', '2014-04-06', '23:30:00 GMT', '17', 'STL', 'St. Louis', 'Blues', '20', 'CHI', 'Chicago', 'Blackhawks', '28', 'United Center', '17', 'STL', 'St. Louis', 'Blues', '0', '1', '0', '0', '0', '0', '0', '0', '31', '26', '54.4', '2', '1', '50.0', '3', '0', '100.0', '0', '0', '2', '4', '21', '6', '15', '40']"
"['', '27536', '2014-04-08', '00:00:00 GMT', '5', 'WSH', 'Washington', 'Capitals', '17', 'STL', 'St. Louis', 'Blues', '24', 'Scottrade Center', '17', 'STL', 'St. Louis', 'Blues', '0', '1', '0', '0', '0', '0', '0', '0', '42', '16', '72.4', '4', '0', '0.0', '4', '2', '50.0', '0', '1', '1', '4', '28', '5', '10', '23']"
"['', '27551', '2014-04-10', '00:00:00 GMT', '17', 'STL', 'St. Louis', 'Blues', '25', 'MIN', 'Minnesota', 'Wild', '30', 'Xcel Energy Center', '17', 'STL', 'St. Louis', 'Blues', '0', '1', '0', '0', '0', '0', '0', '0', '25', '20', '55.6', '3', '1', '33.3', '4', '0', '100.0', '1', '0', '2', '4', '43', '5', '18', '16']"
"['', '27559', '2014-04-11', '00:30:00 GMT', '17', 'STL', 'St. Louis', 'Blues', '27', 'DAL', 'Dallas', 'Stars', '2', 'American Airlines Center', '17', 'STL', 'St. Louis', 'Blues', '0', '1', '0', '0', '0', '0', '0', '0', '31', '29', '51.7', '2', '0', '0.0', '5', '1', '80.0', '0', '0', '0', '3', '22', '7', '14', '39']"
"['', '27573', '2014-04-13', '19:00:00 GMT', '16', 'DET', 'Detroit', 'Red Wings', '17', 'STL', 'St. Louis', 'Blues', '24', 'Scottrade Center', '17', 'STL', 'St. Louis', 'Blues', '0', '1', '0', '0', '0', '0', '0', '0', '31', '24', '56.4', '2', '0', '0.0', '3', '0', '100.0', '0', '0', '0', '3', '23', '4', '8', '26']"
