"['#Date/Time of Update: 2018-12-10 19:02:53 GMT', '#Game ID', '#Game Date', '#Game Time', '#Away Team ID', '#Away Team Abbr.', '#Away Team City', '#Away Team Name', '#Home Team ID', '#Home Team Abbr.', '#Home Team City', '#Home Team Name', '#Venue ID', '#Venue Name', '#Team ID', '#Team Abbr.', '#Team City', '#Team Name', '#Wins', '#Losses', '#OvertimeWins', '#OvertimeLosses', '#ShootoutWins', '#ShootoutLosses', '#Points', '#FaceoffWins', '#FaceoffLosses', '#FaceoffPercent', '#Powerplays', '#PowerplayGoals', '#PowerplayPercent', '#PenaltyKills', '#PenaltyKillGoalsAllowed', '#PenaltyKillPercent', '#ShorthandedGoalsFor', '#ShorthandedGoalsAgainst', '#GoalsFor', '#GoalsAgainst', '#Shots', '#Penalties', '#PenaltyMinutes', '#Hits']"
"['', '3818', '2008-10-09', '00:00:00 GMT', '12', 'TOR', 'Toronto', 'Maple Leafs', '16', 'DET', 'Detroit', 'Red Wings', '11', 'Joe Louis Arena', '16', 'DET', 'Detroit', 'Red Wings', '0', '1', '0', '0', '0', '0', '0', '38', '21', '64.4', '3', '1', '33.3', '2', '1', '50.0', '0', '0', '2', '3', '35', '2', '4', '19']"
"['', '3830', '2008-10-11', '23:00:00 GMT', '16', 'DET', 'Detroit', 'Red Wings', '13', 'OTT', 'Ottawa', 'Senators', '23', 'Scotiabank Place', '16', 'DET', 'Detroit', 'Red Wings', '1', '0', '0', '0', '0', '0', '2', '34', '26', '56.7', '3', '0', '0.0', '6', '1', '83.3', '0', '0', '3', '2', '38', '6', '12', '18']"
"['', '3847', '2008-10-13', '23:00:00 GMT', '16', 'DET', 'Detroit', 'Red Wings', '3', 'CAR', 'Carolina', 'Hurricanes', '21', 'RBC Center', '16', 'DET', 'Detroit', 'Red Wings', '1', '0', '0', '0', '0', '0', '2', '31', '26', '54.4', '5', '2', '40.0', '4', '0', '100.0', '0', '0', '3', '1', '33', '4', '8', '23']"
"['', '3863', '2008-10-16', '23:30:00 GMT', '21', 'VAN', 'Vancouver', 'Canucks', '16', 'DET', 'Detroit', 'Red Wings', '11', 'Joe Louis Arena', '16', 'DET', 'Detroit', 'Red Wings', '0', '0', '0', '1', '0', '0', '1', '34', '24', '58.6', '5', '2', '40.0', '2', '0', '100.0', '0', '0', '3', '4', '32', '5', '10', '22']"
"['', '3877', '2008-10-18', '23:00:00 GMT', '9', 'NYR', 'New York', 'Rangers', '16', 'DET', 'Detroit', 'Red Wings', '11', 'Joe Louis Arena', '16', 'DET', 'Detroit', 'Red Wings', '1', '0', '0', '0', '0', '0', '2', '27', '29', '48.2', '3', '1', '33.3', '2', '0', '100.0', '0', '0', '5', '4', '40', '2', '4', '19']"
"['', '3903', '2008-10-22', '00:30:00 GMT', '16', 'DET', 'Detroit', 'Red Wings', '17', 'STL', 'St. Louis', 'Blues', '24', 'Scottrade Center', '16', 'DET', 'Detroit', 'Red Wings', '1', '0', '0', '0', '0', '0', '2', '34', '32', '51.5', '2', '2', '100.0', '4', '2', '50.0', '0', '0', '4', '3', '30', '7', '14', '19']"
"['', '3915', '2008-10-24', '23:30:00 GMT', '2', 'ATL', 'Atlanta', 'Thrashers', '16', 'DET', 'Detroit', 'Red Wings', '11', 'Joe Louis Arena', '16', 'DET', 'Detroit', 'Red Wings', '1', '0', '0', '0', '0', '0', '2', '38', '23', '62.3', '4', '1', '25.0', '6', '1', '83.3', '0', '0', '5', '3', '41', '7', '14', '6']"
"['', '3928', '2008-10-25', '00:30:00 GMT', '16', 'DET', 'Detroit', 'Red Wings', '20', 'CHI', 'Chicago', 'Blackhawks', '28', 'United Center', '16', 'DET', 'Detroit', 'Red Wings', '1', '0', '0', '0', '0', '0', '2', '43', '39', '52.4', '3', '2', '66.7', '8', '2', '75.0', '0', '0', '5', '5', '39', '8', '16', '15']"
"['', '3938', '2008-10-27', '02:30:00 GMT', '16', 'DET', 'Detroit', 'Red Wings', '28', 'LAK', 'Los Angeles', 'Kings', '25', 'Staples Center', '16', 'DET', 'Detroit', 'Red Wings', '1', '0', '0', '0', '0', '0', '2', '37', '37', '50.0', '4', '1', '25.0', '6', '1', '83.3', '0', '0', '3', '3', '34', '7', '14', '24']"
"['', '3948', '2008-10-29', '02:00:00 GMT', '16', 'DET', 'Detroit', 'Red Wings', '29', 'ANA', 'Anaheim', 'Ducks', '8', 'Honda Center', '16', 'DET', 'Detroit', 'Red Wings', '0', '0', '0', '1', '0', '0', '1', '36', '36', '50.0', '9', '2', '22.2', '7', '3', '57.1', '0', '0', '4', '5', '34', '10', '23', '15']"
"['', '3960', '2008-10-30', '02:30:00 GMT', '16', 'DET', 'Detroit', 'Red Wings', '26', 'SJS', 'San Jose', 'Sharks', '9', 'HP Pavilion at San Jose', '16', 'DET', 'Detroit', 'Red Wings', '0', '1', '0', '0', '0', '0', '0', '33', '28', '54.1', '3', '0', '0.0', '3', '1', '66.7', '0', '0', '2', '4', '25', '4', '8', '16']"
"['', '3980', '2008-11-02', '03:00:00 GMT', '16', 'DET', 'Detroit', 'Red Wings', '21', 'VAN', 'Vancouver', 'Canucks', '7', 'General Motors Place', '16', 'DET', 'Detroit', 'Red Wings', '1', '0', '0', '0', '0', '0', '2', '29', '30', '49.2', '5', '3', '60.0', '7', '0', '100.0', '0', '0', '3', '2', '20', '8', '19', '10']"
"['', '4010', '2008-11-08', '00:00:00 GMT', '7', 'NJD', 'New Jersey', 'Devils', '16', 'DET', 'Detroit', 'Red Wings', '11', 'Joe Louis Arena', '16', 'DET', 'Detroit', 'Red Wings', '1', '0', '0', '0', '0', '0', '2', '27', '21', '56.2', '4', '0', '0.0', '3', '0', '100.0', '0', '0', '3', '1', '28', '4', '11', '17']"
"['', '4029', '2008-11-11', '00:00:00 GMT', '10', 'PIT', 'Pittsburgh', 'Penguins', '16', 'DET', 'Detroit', 'Red Wings', '11', 'Joe Louis Arena', '16', 'DET', 'Detroit', 'Red Wings', '0', '0', '0', '1', '0', '0', '1', '37', '30', '55.2', '5', '3', '60.0', '5', '1', '80.0', '0', '0', '6', '7', '28', '5', '10', '22']"
"['', '4044', '2008-11-13', '00:30:00 GMT', '16', 'DET', 'Detroit', 'Red Wings', '1', 'TBL', 'Tampa Bay', 'Lightning', '26', 'St. Pete Times Forum', '16', 'DET', 'Detroit', 'Red Wings', '1', '0', '0', '0', '0', '0', '2', '34', '21', '61.8', '4', '1', '25.0', '4', '1', '75.0', '0', '0', '4', '3', '35', '4', '8', '10']"
"['', '4051', '2008-11-14', '00:30:00 GMT', '16', 'DET', 'Detroit', 'Red Wings', '4', 'FLO', 'Florida', 'Panthers', '3', 'BankAtlantic Center', '16', 'DET', 'Detroit', 'Red Wings', '1', '0', '0', '0', '0', '0', '2', '35', '35', '50.0', '4', '1', '25.0', '3', '0', '100.0', '0', '0', '3', '2', '29', '3', '6', '15']"
"['', '4072', '2008-11-17', '00:30:00 GMT', '24', 'EDM', 'Edmonton', 'Oilers', '16', 'DET', 'Detroit', 'Red Wings', '11', 'Joe Louis Arena', '16', 'DET', 'Detroit', 'Red Wings', '1', '0', '0', '0', '0', '0', '2', '31', '18', '63.3', '5', '1', '20.0', '5', '0', '100.0', '0', '0', '4', '0', '37', '6', '15', '18']"
"['', '4089', '2008-11-20', '02:00:00 GMT', '16', 'DET', 'Detroit', 'Red Wings', '24', 'EDM', 'Edmonton', 'Oilers', '22', 'Rogers Place', '16', 'DET', 'Detroit', 'Red Wings', '1', '0', '0', '0', '0', '0', '2', '32', '34', '48.5', '5', '3', '60.0', '6', '0', '100.0', '0', '0', '4', '3', '31', '8', '19', '10']"
"['', '4107', '2008-11-22', '03:00:00 GMT', '16', 'DET', 'Detroit', 'Red Wings', '23', 'CGY', 'Calgary', 'Flames', '18', 'Pengrowth Saddledome', '16', 'DET', 'Detroit', 'Red Wings', '1', '0', '0', '0', '0', '0', '2', '29', '29', '50.0', '3', '0', '0.0', '4', '1', '75.0', '0', '0', '5', '2', '32', '5', '10', '18']"
"['', '4117', '2008-11-24', '03:00:00 GMT', '16', 'DET', 'Detroit', 'Red Wings', '21', 'VAN', 'Vancouver', 'Canucks', '7', 'General Motors Place', '16', 'DET', 'Detroit', 'Red Wings', '0', '0', '0', '1', '0', '0', '1', '27', '32', '45.8', '3', '1', '33.3', '3', '1', '66.7', '0', '0', '2', '3', '32', '4', '11', '19']"
"['', '4127', '2008-11-26', '00:30:00 GMT', '14', 'MTL', 'Montreal', 'Canadiens', '16', 'DET', 'Detroit', 'Red Wings', '11', 'Joe Louis Arena', '16', 'DET', 'Detroit', 'Red Wings', '0', '1', '0', '0', '0', '0', '0', '34', '19', '64.2', '3', '0', '0.0', '2', '1', '50.0', '0', '0', '1', '3', '32', '3', '6', '22']"
"['', '4143', '2008-11-28', '00:30:00 GMT', '19', 'CBJ', 'Columbus', 'Blue Jackets', '16', 'DET', 'Detroit', 'Red Wings', '11', 'Joe Louis Arena', '16', 'DET', 'Detroit', 'Red Wings', '1', '0', '0', '0', '0', '0', '2', '34', '21', '61.8', '6', '2', '33.3', '6', '0', '100.0', '1', '0', '5', '3', '30', '9', '21', '17']"
"['', '4149', '2008-11-29', '00:00:00 GMT', '16', 'DET', 'Detroit', 'Red Wings', '11', 'BOS', 'Boston', 'Bruins', '27', 'TD Banknorth Garden', '16', 'DET', 'Detroit', 'Red Wings', '0', '1', '0', '0', '0', '0', '0', '23', '24', '48.9', '3', '1', '33.3', '1', '0', '100.0', '0', '0', '1', '4', '29', '2', '4', '20']"
"['', '4165', '2008-12-01', '00:30:00 GMT', '29', 'ANA', 'Anaheim', 'Ducks', '16', 'DET', 'Detroit', 'Red Wings', '11', 'Joe Louis Arena', '16', 'DET', 'Detroit', 'Red Wings', '1', '0', '0', '0', '0', '0', '2', '34', '21', '61.8', '3', '0', '0.0', '2', '0', '100.0', '0', '0', '2', '1', '45', '2', '4', '30']"
"['', '4183', '2008-12-04', '00:30:00 GMT', '21', 'VAN', 'Vancouver', 'Canucks', '16', 'DET', 'Detroit', 'Red Wings', '11', 'Joe Louis Arena', '16', 'DET', 'Detroit', 'Red Wings', '1', '0', '0', '0', '0', '0', '2', '33', '30', '52.4', '6', '1', '16.7', '3', '1', '66.7', '0', '0', '6', '5', '32', '4', '8', '19']"
"['', '4193', '2008-12-06', '00:00:00 GMT', '20', 'CHI', 'Chicago', 'Blackhawks', '16', 'DET', 'Detroit', 'Red Wings', '11', 'Joe Louis Arena', '16', 'DET', 'Detroit', 'Red Wings', '1', '0', '0', '0', '0', '0', '2', '34', '19', '64.2', '2', '1', '50.0', '3', '2', '33.3', '0', '0', '4', '4', '26', '3', '6', '23']"
"['', '4223', '2008-12-10', '00:30:00 GMT', '23', 'CGY', 'Calgary', 'Flames', '16', 'DET', 'Detroit', 'Red Wings', '11', 'Joe Louis Arena', '16', 'DET', 'Detroit', 'Red Wings', '1', '0', '0', '0', '0', '0', '2', '42', '30', '58.3', '4', '0', '0.0', '4', '1', '75.0', '0', '0', '4', '3', '35', '5', '10', '23']"
"['', '4239', '2008-12-12', '01:30:00 GMT', '16', 'DET', 'Detroit', 'Red Wings', '27', 'DAL', 'Dallas', 'Stars', '2', 'American Airlines Center', '16', 'DET', 'Detroit', 'Red Wings', '0', '1', '0', '0', '0', '0', '0', '30', '22', '57.7', '3', '0', '0.0', '3', '0', '100.0', '0', '0', '1', '3', '37', '4', '8', '16']"
"['', '4251', '2008-12-13', '02:00:00 GMT', '16', 'DET', 'Detroit', 'Red Wings', '30', 'PHX', 'Phoenix', 'Coyotes', '6', 'Jobing.com Arena', '16', 'DET', 'Detroit', 'Red Wings', '1', '0', '0', '0', '0', '0', '2', '44', '17', '72.1', '3', '2', '66.7', '5', '2', '60.0', '1', '0', '4', '4', '34', '6', '12', '21']"
"['', '4257', '2008-12-15', '00:00:00 GMT', '22', 'COL', 'Colorado', 'Avalanche', '16', 'DET', 'Detroit', 'Red Wings', '11', 'Joe Louis Arena', '16', 'DET', 'Detroit', 'Red Wings', '0', '1', '0', '0', '0', '0', '0', '34', '27', '55.7', '4', '0', '0.0', '4', '1', '75.0', '0', '0', '2', '3', '34', '5', '10', '17']"
"['', '4277', '2008-12-18', '00:30:00 GMT', '26', 'SJS', 'San Jose', 'Sharks', '16', 'DET', 'Detroit', 'Red Wings', '11', 'Joe Louis Arena', '16', 'DET', 'Detroit', 'Red Wings', '1', '0', '0', '0', '0', '0', '2', '31', '23', '57.4', '3', '0', '0.0', '2', '0', '100.0', '0', '0', '6', '0', '22', '3', '6', '15']"
"['', '4289', '2008-12-20', '00:00:00 GMT', '28', 'LAK', 'Los Angeles', 'Kings', '16', 'DET', 'Detroit', 'Red Wings', '11', 'Joe Louis Arena', '16', 'DET', 'Detroit', 'Red Wings', '1', '0', '0', '0', '0', '0', '2', '31', '23', '57.4', '3', '0', '0.0', '1', '0', '100.0', '0', '0', '6', '4', '30', '3', '6', '16']"
"['', '4312', '2008-12-23', '00:30:00 GMT', '17', 'STL', 'St. Louis', 'Blues', '16', 'DET', 'Detroit', 'Red Wings', '11', 'Joe Louis Arena', '16', 'DET', 'Detroit', 'Red Wings', '1', '0', '0', '0', '0', '0', '2', '33', '27', '55.0', '7', '2', '28.6', '5', '0', '100.0', '1', '0', '4', '1', '37', '7', '14', '22']"
"['', '4325', '2008-12-26', '01:00:00 GMT', '16', 'DET', 'Detroit', 'Red Wings', '18', 'NSH', 'Nashville', 'Predators', '15', 'Sommet Center', '16', 'DET', 'Detroit', 'Red Wings', '0', '1', '0', '0', '0', '0', '0', '23', '34', '40.4', '3', '0', '0.0', '3', '1', '66.7', '0', '0', '2', '3', '38', '3', '6', '18']"
"['', '4337', '2008-12-27', '02:00:00 GMT', '16', 'DET', 'Detroit', 'Red Wings', '22', 'COL', 'Colorado', 'Avalanche', '19', 'Pepsi Center', '16', 'DET', 'Detroit', 'Red Wings', '0', '0', '0', '1', '0', '0', '1', '46', '27', '63.0', '3', '2', '66.7', '6', '3', '50.0', '0', '0', '3', '3', '41', '6', '12', '17']"
"['', '4353', '2008-12-30', '00:30:00 GMT', '20', 'CHI', 'Chicago', 'Blackhawks', '16', 'DET', 'Detroit', 'Red Wings', '11', 'Joe Louis Arena', '16', 'DET', 'Detroit', 'Red Wings', '1', '0', '0', '0', '0', '0', '2', '38', '17', '69.1', '6', '2', '33.3', '6', '0', '100.0', '0', '0', '4', '0', '35', '6', '12', '33']"
"['', '4367', '2009-01-01', '19:00:00 GMT', '16', 'DET', 'Detroit', 'Red Wings', '20', 'CHI', 'Chicago', 'Blackhawks', '28', 'United Center', '16', 'DET', 'Detroit', 'Red Wings', '1', '0', '0', '0', '0', '0', '2', '21', '30', '41.2', '4', '2', '50.0', '6', '3', '50.0', '0', '0', '6', '4', '37', '6', '12', '11']"
"['', '4384', '2009-01-03', '01:00:00 GMT', '16', 'DET', 'Detroit', 'Red Wings', '25', 'MIN', 'Minnesota', 'Wild', '30', 'Xcel Energy Center', '16', 'DET', 'Detroit', 'Red Wings', '1', '0', '0', '0', '0', '0', '2', '27', '27', '50.0', '2', '1', '50.0', '4', '1', '75.0', '0', '0', '2', '2', '35', '4', '8', '17']"
"['', '4402', '2009-01-06', '00:30:00 GMT', '19', 'CBJ', 'Columbus', 'Blue Jackets', '16', 'DET', 'Detroit', 'Red Wings', '11', 'Joe Louis Arena', '16', 'DET', 'Detroit', 'Red Wings', '1', '0', '0', '0', '0', '0', '2', '27', '26', '50.9', '4', '2', '50.0', '2', '0', '100.0', '0', '0', '3', '0', '37', '6', '12', '18']"
"['', '4414', '2009-01-08', '00:30:00 GMT', '27', 'DAL', 'Dallas', 'Stars', '16', 'DET', 'Detroit', 'Red Wings', '11', 'Joe Louis Arena', '16', 'DET', 'Detroit', 'Red Wings', '1', '0', '0', '0', '0', '0', '2', '34', '20', '63.0', '8', '2', '25.0', '2', '0', '100.0', '0', '0', '6', '1', '27', '4', '8', '11']"
"['', '4430', '2009-01-10', '00:00:00 GMT', '15', 'BUF', 'Buffalo', 'Sabres', '16', 'DET', 'Detroit', 'Red Wings', '11', 'Joe Louis Arena', '16', 'DET', 'Detroit', 'Red Wings', '1', '0', '0', '0', '0', '0', '2', '28', '15', '65.1', '3', '0', '0.0', '1', '0', '100.0', '0', '0', '3', '1', '45', '1', '2', '24']"
"['', '4442', '2009-01-12', '01:00:00 GMT', '16', 'DET', 'Detroit', 'Red Wings', '27', 'DAL', 'Dallas', 'Stars', '2', 'American Airlines Center', '16', 'DET', 'Detroit', 'Red Wings', '0', '0', '0', '1', '0', '0', '1', '32', '24', '57.1', '4', '1', '25.0', '6', '1', '83.3', '0', '0', '4', '5', '26', '7', '14', '24']"
"['', '4458', '2009-01-14', '03:00:00 GMT', '16', 'DET', 'Detroit', 'Red Wings', '29', 'ANA', 'Anaheim', 'Ducks', '8', 'Honda Center', '16', 'DET', 'Detroit', 'Red Wings', '1', '0', '0', '0', '0', '0', '2', '27', '27', '50.0', '4', '1', '25.0', '4', '1', '75.0', '0', '0', '4', '3', '29', '4', '8', '20']"
"['', '4467', '2009-01-15', '03:30:00 GMT', '16', 'DET', 'Detroit', 'Red Wings', '28', 'LAK', 'Los Angeles', 'Kings', '25', 'Staples Center', '16', 'DET', 'Detroit', 'Red Wings', '1', '0', '0', '0', '0', '0', '2', '25', '21', '54.3', '7', '1', '14.3', '3', '0', '100.0', '0', '0', '4', '0', '27', '5', '10', '21']"
"['', '4485', '2009-01-17', '03:30:00 GMT', '16', 'DET', 'Detroit', 'Red Wings', '26', 'SJS', 'San Jose', 'Sharks', '9', 'HP Pavilion at San Jose', '16', 'DET', 'Detroit', 'Red Wings', '0', '1', '0', '0', '0', '0', '0', '27', '34', '44.3', '3', '1', '33.3', '3', '2', '33.3', '0', '0', '5', '6', '29', '6', '12', '33']"
"['', '4503', '2009-01-20', '02:00:00 GMT', '16', 'DET', 'Detroit', 'Red Wings', '30', 'PHX', 'Phoenix', 'Coyotes', '6', 'Jobing.com Arena', '16', 'DET', 'Detroit', 'Red Wings', '0', '1', '0', '0', '0', '0', '0', '46', '21', '68.7', '5', '3', '60.0', '5', '2', '60.0', '0', '0', '3', '6', '34', '6', '12', '19']"
"['', '4516', '2009-01-27', '00:00:00 GMT', '16', 'DET', 'Detroit', 'Red Wings', '19', 'CBJ', 'Columbus', 'Blue Jackets', '17', 'Nationwide Arena', '16', 'DET', 'Detroit', 'Red Wings', '0', '0', '0', '1', '0', '0', '1', '24', '20', '54.5', '2', '1', '50.0', '3', '1', '66.7', '0', '1', '2', '3', '21', '4', '8', '17']"
"['', '4532', '2009-01-29', '00:30:00 GMT', '27', 'DAL', 'Dallas', 'Stars', '16', 'DET', 'Detroit', 'Red Wings', '11', 'Joe Louis Arena', '16', 'DET', 'Detroit', 'Red Wings', '0', '1', '0', '0', '0', '0', '0', '26', '21', '55.3', '5', '1', '20.0', '5', '3', '40.0', '0', '0', '2', '4', '22', '8', '16', '31']"
"['', '4543', '2009-01-31', '17:30:00 GMT', '16', 'DET', 'Detroit', 'Red Wings', '5', 'WSH', 'Washington', 'Capitals', '13', 'Verizon Center', '16', 'DET', 'Detroit', 'Red Wings', '0', '1', '0', '0', '0', '0', '0', '27', '20', '57.4', '7', '1', '14.3', '3', '1', '66.7', '0', '0', '2', '4', '27', '3', '6', '19']"
"['', '4558', '2009-02-02', '00:00:00 GMT', '17', 'STL', 'St. Louis', 'Blues', '16', 'DET', 'Detroit', 'Red Wings', '11', 'Joe Louis Arena', '16', 'DET', 'Detroit', 'Red Wings', '1', '0', '0', '0', '0', '0', '2', '36', '29', '55.4', '3', '0', '0.0', '6', '3', '50.0', '0', '0', '3', '3', '18', '7', '25', '14']"
"['', '4574', '2009-02-04', '00:30:00 GMT', '30', 'PHX', 'Phoenix', 'Coyotes', '16', 'DET', 'Detroit', 'Red Wings', '11', 'Joe Louis Arena', '16', 'DET', 'Detroit', 'Red Wings', '1', '0', '0', '0', '0', '0', '2', '38', '27', '58.5', '4', '2', '50.0', '4', '2', '50.0', '0', '0', '5', '4', '28', '4', '8', '15']"
"['', '4592', '2009-02-07', '20:00:00 GMT', '24', 'EDM', 'Edmonton', 'Oilers', '16', 'DET', 'Detroit', 'Red Wings', '11', 'Joe Louis Arena', '16', 'DET', 'Detroit', 'Red Wings', '1', '0', '0', '0', '0', '0', '2', '32', '27', '54.2', '5', '2', '40.0', '3', '0', '100.0', '0', '0', '8', '3', '27', '3', '6', '16']"
"['', '4602', '2009-02-08', '20:00:00 GMT', '16', 'DET', 'Detroit', 'Red Wings', '10', 'PIT', 'Pittsburgh', 'Penguins', '14', 'Mellon Arena', '16', 'DET', 'Detroit', 'Red Wings', '1', '0', '0', '0', '0', '0', '2', '29', '24', '54.7', '3', '1', '33.3', '4', '0', '100.0', '0', '0', '3', '0', '26', '5', '10', '14']"
"['', '4613', '2009-02-10', '01:00:00 GMT', '16', 'DET', 'Detroit', 'Red Wings', '18', 'NSH', 'Nashville', 'Predators', '15', 'Sommet Center', '16', 'DET', 'Detroit', 'Red Wings', '1', '0', '0', '0', '0', '0', '2', '32', '34', '48.5', '7', '2', '28.6', '2', '1', '50.0', '0', '0', '5', '3', '46', '3', '6', '15']"
"['', '4626', '2009-02-12', '00:30:00 GMT', '25', 'MIN', 'Minnesota', 'Wild', '16', 'DET', 'Detroit', 'Red Wings', '11', 'Joe Louis Arena', '16', 'DET', 'Detroit', 'Red Wings', '1', '0', '0', '0', '0', '0', '2', '37', '16', '69.8', '5', '0', '0.0', '2', '1', '50.0', '0', '1', '4', '2', '39', '3', '6', '17']"
"['', '4632', '2009-02-13', '00:00:00 GMT', '16', 'DET', 'Detroit', 'Red Wings', '19', 'CBJ', 'Columbus', 'Blue Jackets', '17', 'Nationwide Arena', '16', 'DET', 'Detroit', 'Red Wings', '0', '1', '0', '0', '0', '0', '0', '30', '32', '48.4', '4', '0', '0.0', '2', '0', '100.0', '0', '0', '2', '3', '32', '5', '10', '19']"
"['', '4649', '2009-02-15', '22:00:00 GMT', '22', 'COL', 'Colorado', 'Avalanche', '16', 'DET', 'Detroit', 'Red Wings', '11', 'Joe Louis Arena', '16', 'DET', 'Detroit', 'Red Wings', '0', '0', '0', '1', '0', '0', '1', '48', '23', '67.6', '5', '2', '40.0', '2', '1', '50.0', '0', '0', '5', '5', '40', '2', '4', '19']"
"['', '4669', '2009-02-18', '00:30:00 GMT', '18', 'NSH', 'Nashville', 'Predators', '16', 'DET', 'Detroit', 'Red Wings', '11', 'Joe Louis Arena', '16', 'DET', 'Detroit', 'Red Wings', '1', '0', '0', '0', '0', '0', '2', '29', '31', '48.3', '6', '5', '83.3', '5', '1', '80.0', '0', '0', '6', '2', '35', '8', '27', '8']"
"['', '4686', '2009-02-20', '00:30:00 GMT', '29', 'ANA', 'Anaheim', 'Ducks', '16', 'DET', 'Detroit', 'Red Wings', '11', 'Joe Louis Arena', '16', 'DET', 'Detroit', 'Red Wings', '1', '0', '0', '0', '0', '0', '2', '30', '27', '52.6', '5', '2', '40.0', '4', '1', '75.0', '0', '0', '5', '2', '29', '4', '8', '30']"
"['', '4697', '2009-02-21', '01:00:00 GMT', '16', 'DET', 'Detroit', 'Red Wings', '25', 'MIN', 'Minnesota', 'Wild', '30', 'Xcel Energy Center', '16', 'DET', 'Detroit', 'Red Wings', '0', '1', '0', '0', '0', '0', '0', '27', '17', '61.4', '5', '0', '0.0', '2', '1', '50.0', '0', '0', '2', '5', '35', '3', '6', '7']"
"['', '4718', '2009-02-25', '00:30:00 GMT', '26', 'SJS', 'San Jose', 'Sharks', '16', 'DET', 'Detroit', 'Red Wings', '11', 'Joe Louis Arena', '16', 'DET', 'Detroit', 'Red Wings', '1', '0', '0', '0', '0', '0', '2', '31', '24', '56.4', '6', '2', '33.3', '6', '1', '83.3', '1', '0', '4', '1', '29', '8', '16', '21']"
"['', '4732', '2009-02-27', '00:30:00 GMT', '28', 'LAK', 'Los Angeles', 'Kings', '16', 'DET', 'Detroit', 'Red Wings', '11', 'Joe Louis Arena', '16', 'DET', 'Detroit', 'Red Wings', '1', '0', '0', '0', '0', '0', '2', '29', '28', '50.9', '2', '0', '0.0', '2', '1', '50.0', '0', '0', '2', '1', '39', '2', '4', '15']"
"['', '4744', '2009-02-28', '01:00:00 GMT', '16', 'DET', 'Detroit', 'Red Wings', '18', 'NSH', 'Nashville', 'Predators', '15', 'Sommet Center', '16', 'DET', 'Detroit', 'Red Wings', '0', '1', '0', '0', '0', '0', '0', '35', '23', '60.3', '2', '0', '0.0', '3', '1', '66.7', '0', '0', '0', '8', '30', '4', '11', '14']"
"['', '4763', '2009-03-03', '01:30:00 GMT', '16', 'DET', 'Detroit', 'Red Wings', '17', 'STL', 'St. Louis', 'Blues', '24', 'Scottrade Center', '16', 'DET', 'Detroit', 'Red Wings', '1', '0', '0', '0', '0', '0', '2', '22', '22', '50.0', '6', '2', '33.3', '3', '0', '100.0', '1', '0', '5', '0', '31', '5', '13', '10']"
"['', '4767', '2009-03-04', '02:00:00 GMT', '16', 'DET', 'Detroit', 'Red Wings', '22', 'COL', 'Colorado', 'Avalanche', '19', 'Pepsi Center', '16', 'DET', 'Detroit', 'Red Wings', '1', '0', '0', '0', '0', '0', '2', '33', '24', '57.9', '2', '0', '0.0', '1', '0', '100.0', '0', '0', '3', '2', '27', '1', '2', '17']"
"['', '4785', '2009-03-07', '00:00:00 GMT', '19', 'CBJ', 'Columbus', 'Blue Jackets', '16', 'DET', 'Detroit', 'Red Wings', '11', 'Joe Louis Arena', '16', 'DET', 'Detroit', 'Red Wings', '0', '1', '0', '0', '0', '0', '0', '31', '33', '48.4', '6', '0', '0.0', '2', '1', '50.0', '0', '1', '2', '8', '44', '3', '6', '25']"
"['', '4805', '2009-03-10', '23:30:00 GMT', '30', 'PHX', 'Phoenix', 'Coyotes', '16', 'DET', 'Detroit', 'Red Wings', '11', 'Joe Louis Arena', '16', 'DET', 'Detroit', 'Red Wings', '1', '0', '0', '0', '0', '0', '2', '38', '23', '62.3', '1', '1', '100.0', '2', '1', '50.0', '0', '0', '3', '2', '40', '3', '6', '16']"
"['', '4821', '2009-03-12', '23:30:00 GMT', '23', 'CGY', 'Calgary', 'Flames', '16', 'DET', 'Detroit', 'Red Wings', '11', 'Joe Louis Arena', '16', 'DET', 'Detroit', 'Red Wings', '0', '0', '0', '1', '0', '0', '1', '32', '38', '45.7', '7', '2', '28.6', '3', '2', '33.3', '0', '0', '5', '5', '40', '7', '14', '18']"
"['', '4833', '2009-03-14', '18:00:00 GMT', '16', 'DET', 'Detroit', 'Red Wings', '17', 'STL', 'St. Louis', 'Blues', '24', 'Scottrade Center', '16', 'DET', 'Detroit', 'Red Wings', '1', '0', '0', '0', '0', '0', '2', '33', '25', '56.9', '4', '0', '0.0', '4', '0', '100.0', '0', '0', '5', '2', '22', '4', '8', '14']"
"['', '4847', '2009-03-15', '21:00:00 GMT', '16', 'DET', 'Detroit', 'Red Wings', '19', 'CBJ', 'Columbus', 'Blue Jackets', '17', 'Nationwide Arena', '16', 'DET', 'Detroit', 'Red Wings', '1', '0', '0', '0', '0', '0', '2', '24', '35', '40.7', '4', '1', '25.0', '4', '0', '100.0', '0', '0', '4', '0', '26', '4', '8', '26']"
"['', '4854', '2009-03-17', '23:30:00 GMT', '6', 'PHI', 'Philadelphia', 'Flyers', '16', 'DET', 'Detroit', 'Red Wings', '11', 'Joe Louis Arena', '16', 'DET', 'Detroit', 'Red Wings', '1', '0', '0', '0', '0', '0', '2', '36', '29', '55.4', '5', '0', '0.0', '1', '0', '100.0', '0', '0', '3', '2', '45', '3', '6', '9']"
"['', '4880', '2009-03-20', '23:30:00 GMT', '16', 'DET', 'Detroit', 'Red Wings', '2', 'ATL', 'Atlanta', 'Thrashers', '20', 'Philips Arena', '16', 'DET', 'Detroit', 'Red Wings', '1', '0', '0', '0', '0', '0', '2', '44', '26', '62.9', '4', '1', '25.0', '5', '2', '60.0', '0', '0', '6', '3', '32', '9', '18', '9']"
"['', '4900', '2009-03-23', '01:00:00 GMT', '16', 'DET', 'Detroit', 'Red Wings', '23', 'CGY', 'Calgary', 'Flames', '18', 'Pengrowth Saddledome', '16', 'DET', 'Detroit', 'Red Wings', '0', '1', '0', '0', '0', '0', '0', '24', '31', '43.6', '1', '0', '0.0', '4', '1', '75.0', '0', '0', '3', '5', '30', '4', '8', '24']"
"['', '4908', '2009-03-24', '01:30:00 GMT', '16', 'DET', 'Detroit', 'Red Wings', '24', 'EDM', 'Edmonton', 'Oilers', '22', 'Rogers Place', '16', 'DET', 'Detroit', 'Red Wings', '1', '0', '0', '0', '0', '0', '2', '31', '24', '56.4', '4', '0', '0.0', '3', '1', '66.7', '0', '0', '3', '2', '41', '6', '12', '13']"
"['', '4925', '2009-03-27', '23:30:00 GMT', '8', 'NYI', 'New York', 'Islanders', '16', 'DET', 'Detroit', 'Red Wings', '11', 'Joe Louis Arena', '16', 'DET', 'Detroit', 'Red Wings', '0', '1', '0', '0', '0', '0', '0', '34', '23', '59.6', '5', '0', '0.0', '3', '0', '100.0', '0', '1', '0', '2', '42', '3', '6', '15']"
"['', '4940', '2009-03-29', '21:00:00 GMT', '18', 'NSH', 'Nashville', 'Predators', '16', 'DET', 'Detroit', 'Red Wings', '11', 'Joe Louis Arena', '16', 'DET', 'Detroit', 'Red Wings', '0', '1', '0', '0', '0', '0', '0', '39', '32', '54.9', '4', '1', '25.0', '3', '2', '33.3', '1', '0', '3', '4', '33', '3', '6', '18']"
"['', '4966', '2009-04-02', '23:30:00 GMT', '17', 'STL', 'St. Louis', 'Blues', '16', 'DET', 'Detroit', 'Red Wings', '11', 'Joe Louis Arena', '16', 'DET', 'Detroit', 'Red Wings', '0', '1', '0', '0', '0', '0', '0', '36', '28', '56.2', '5', '1', '20.0', '4', '1', '75.0', '0', '0', '4', '5', '34', '4', '8', '24']"
"['', '4989', '2009-04-05', '21:00:00 GMT', '25', 'MIN', 'Minnesota', 'Wild', '16', 'DET', 'Detroit', 'Red Wings', '11', 'Joe Louis Arena', '16', 'DET', 'Detroit', 'Red Wings', '1', '0', '0', '0', '0', '0', '2', '37', '24', '60.7', '2', '0', '0.0', '2', '0', '100.0', '0', '0', '3', '2', '41', '2', '4', '21']"
"['', '4994', '2009-04-06', '23:00:00 GMT', '16', 'DET', 'Detroit', 'Red Wings', '15', 'BUF', 'Buffalo', 'Sabres', '10', 'HSBC Arena', '16', 'DET', 'Detroit', 'Red Wings', '1', '0', '0', '0', '0', '0', '2', '25', '29', '46.3', '1', '1', '100.0', '4', '0', '100.0', '0', '0', '4', '1', '28', '7', '17', '13']"
"['', '5016', '2009-04-09', '23:30:00 GMT', '18', 'NSH', 'Nashville', 'Predators', '16', 'DET', 'Detroit', 'Red Wings', '11', 'Joe Louis Arena', '16', 'DET', 'Detroit', 'Red Wings', '0', '0', '0', '1', '0', '0', '1', '24', '30', '44.4', '4', '2', '50.0', '5', '1', '80.0', '0', '0', '3', '3', '23', '6', '12', '19']"
"['', '5029', '2009-04-11', '19:00:00 GMT', '20', 'CHI', 'Chicago', 'Blackhawks', '16', 'DET', 'Detroit', 'Red Wings', '11', 'Joe Louis Arena', '16', 'DET', 'Detroit', 'Red Wings', '0', '1', '0', '0', '0', '0', '0', '21', '28', '42.9', '2', '1', '50.0', '4', '0', '100.0', '0', '0', '2', '4', '21', '5', '18', '24']"
"['', '5041', '2009-04-12', '21:00:00 GMT', '16', 'DET', 'Detroit', 'Red Wings', '20', 'CHI', 'Chicago', 'Blackhawks', '28', 'United Center', '16', 'DET', 'Detroit', 'Red Wings', '0', '1', '0', '0', '0', '0', '0', '27', '26', '50.9', '5', '0', '0.0', '3', '1', '66.7', '0', '0', '0', '3', '37', '3', '6', '12']"
