"['#Date/Time of Update: 2018-12-10 19:02:57 GMT', '#Game ID', '#Game Date', '#Game Time', '#Away Team ID', '#Away Team Abbr.', '#Away Team City', '#Away Team Name', '#Home Team ID', '#Home Team Abbr.', '#Home Team City', '#Home Team Name', '#Venue ID', '#Venue Name', '#Team ID', '#Team Abbr.', '#Team City', '#Team Name', '#Wins', '#Losses', '#OvertimeWins', '#OvertimeLosses', '#ShootoutWins', '#ShootoutLosses', '#Points', '#FaceoffWins', '#FaceoffLosses', '#FaceoffPercent', '#Powerplays', '#PowerplayGoals', '#PowerplayPercent', '#PenaltyKills', '#PenaltyKillGoalsAllowed', '#PenaltyKillPercent', '#ShorthandedGoalsFor', '#ShorthandedGoalsAgainst', '#GoalsFor', '#GoalsAgainst', '#Shots', '#Penalties', '#PenaltyMinutes', '#Hits']"
"['', '8706', '2009-10-03', '02:30:00 GMT', '30', 'PHX', 'Phoenix', 'Coyotes', '28', 'LAK', 'Los Angeles', 'Kings', '25', 'Staples Center', '28', 'LAK', 'Los Angeles', 'Kings', '0', '1', '0', '0', '0', '0', '0', '23', '33', '41.1', '4', '3', '75.0', '3', '1', '66.7', '0', '0', '3', '6', '30', '4', '8', '30']"
"['', '8715', '2009-10-06', '02:30:00 GMT', '26', 'SJS', 'San Jose', 'Sharks', '28', 'LAK', 'Los Angeles', 'Kings', '25', 'Staples Center', '28', 'LAK', 'Los Angeles', 'Kings', '1', '0', '0', '0', '0', '0', '2', '26', '35', '42.6', '4', '1', '25.0', '2', '3', '1.0', '0', '0', '6', '4', '24', '7', '20', '21']"
"['', '8728', '2009-10-08', '02:30:00 GMT', '25', 'MIN', 'Minnesota', 'Wild', '28', 'LAK', 'Los Angeles', 'Kings', '25', 'Staples Center', '28', 'LAK', 'Los Angeles', 'Kings', '1', '0', '0', '0', '0', '0', '2', '23', '37', '38.3', '4', '1', '25.0', '3', '2', '33.3', '0', '0', '6', '3', '17', '4', '8', '19']"
"['', '8739', '2009-10-10', '00:00:00 GMT', '28', 'LAK', 'Los Angeles', 'Kings', '17', 'STL', 'St. Louis', 'Blues', '24', 'Scottrade Center', '28', 'LAK', 'Los Angeles', 'Kings', '1', '0', '0', '0', '0', '0', '2', '23', '35', '39.7', '5', '1', '20.0', '5', '0', '100.0', '0', '1', '2', '1', '24', '5', '10', '24']"
"['', '8748', '2009-10-12', '18:00:00 GMT', '28', 'LAK', 'Los Angeles', 'Kings', '8', 'NYI', 'New York', 'Islanders', '16', 'Nassau Veterans Memorial Coliseum', '28', 'LAK', 'Los Angeles', 'Kings', '1', '0', '0', '0', '0', '0', '2', '23', '29', '44.2', '3', '1', '33.3', '2', '0', '100.0', '0', '0', '2', '1', '20', '4', '11', '22']"
"['', '8760', '2009-10-14', '23:00:00 GMT', '28', 'LAK', 'Los Angeles', 'Kings', '9', 'NYR', 'New York', 'Rangers', '12', 'Madison Square Garden', '28', 'LAK', 'Los Angeles', 'Kings', '0', '1', '0', '0', '0', '0', '0', '27', '23', '54.0', '7', '1', '14.3', '3', '2', '33.3', '0', '0', '2', '4', '34', '4', '11', '23']"
"['', '8765', '2009-10-15', '23:30:00 GMT', '28', 'LAK', 'Los Angeles', 'Kings', '16', 'DET', 'Detroit', 'Red Wings', '11', 'Joe Louis Arena', '28', 'LAK', 'Los Angeles', 'Kings', '0', '1', '0', '0', '0', '0', '0', '32', '29', '52.5', '4', '0', '0.0', '5', '1', '80.0', '0', '0', '2', '5', '24', '7', '14', '19']"
"['', '8783', '2009-10-17', '23:00:00 GMT', '28', 'LAK', 'Los Angeles', 'Kings', '19', 'CBJ', 'Columbus', 'Blue Jackets', '17', 'Nationwide Arena', '28', 'LAK', 'Los Angeles', 'Kings', '0', '1', '0', '0', '0', '0', '0', '19', '29', '39.6', '5', '0', '0.0', '5', '2', '60.0', '0', '1', '1', '4', '27', '7', '14', '25']"
"['', '8790', '2009-10-19', '00:30:00 GMT', '28', 'LAK', 'Los Angeles', 'Kings', '27', 'DAL', 'Dallas', 'Stars', '2', 'American Airlines Center', '28', 'LAK', 'Los Angeles', 'Kings', '1', '0', '0', '0', '0', '0', '2', '25', '21', '54.3', '5', '1', '20.0', '4', '0', '100.0', '0', '0', '4', '1', '28', '4', '8', '28']"
"['', '8809', '2009-10-22', '02:30:00 GMT', '27', 'DAL', 'Dallas', 'Stars', '28', 'LAK', 'Los Angeles', 'Kings', '25', 'Staples Center', '28', 'LAK', 'Los Angeles', 'Kings', '1', '0', '0', '0', '0', '0', '2', '30', '22', '57.7', '4', '1', '25.0', '4', '0', '100.0', '0', '0', '5', '4', '26', '5', '10', '29']"
"['', '8825', '2009-10-24', '01:00:00 GMT', '28', 'LAK', 'Los Angeles', 'Kings', '30', 'PHX', 'Phoenix', 'Coyotes', '6', 'Jobing.com Arena', '28', 'LAK', 'Los Angeles', 'Kings', '1', '0', '0', '0', '0', '0', '2', '29', '21', '58.0', '7', '3', '42.9', '4', '1', '75.0', '0', '0', '5', '3', '16', '4', '8', '20']"
"['', '8829', '2009-10-25', '01:00:00 GMT', '19', 'CBJ', 'Columbus', 'Blue Jackets', '28', 'LAK', 'Los Angeles', 'Kings', '25', 'Staples Center', '28', 'LAK', 'Los Angeles', 'Kings', '1', '0', '0', '0', '0', '0', '2', '30', '21', '58.8', '4', '2', '50.0', '4', '1', '75.0', '0', '0', '6', '2', '19', '4', '8', '25']"
"['', '8847', '2009-10-28', '02:30:00 GMT', '28', 'LAK', 'Los Angeles', 'Kings', '26', 'SJS', 'San Jose', 'Sharks', '9', 'HP Pavilion at San Jose', '28', 'LAK', 'Los Angeles', 'Kings', '0', '0', '0', '1', '0', '0', '1', '26', '36', '41.9', '2', '0', '0.0', '1', '0', '100.0', '0', '0', '1', '1', '28', '2', '4', '12']"
"['', '8854', '2009-10-29', '02:30:00 GMT', '21', 'VAN', 'Vancouver', 'Canucks', '28', 'LAK', 'Los Angeles', 'Kings', '25', 'Staples Center', '28', 'LAK', 'Los Angeles', 'Kings', '0', '0', '0', '1', '0', '0', '1', '30', '26', '53.6', '3', '0', '0.0', '2', '0', '100.0', '0', '0', '1', '1', '30', '3', '6', '26']"
"['', '8880', '2009-11-02', '02:00:00 GMT', '28', 'LAK', 'Los Angeles', 'Kings', '30', 'PHX', 'Phoenix', 'Coyotes', '6', 'Jobing.com Arena', '28', 'LAK', 'Los Angeles', 'Kings', '1', '0', '0', '0', '0', '0', '2', '14', '21', '40.0', '1', '0', '0.0', '4', '1', '75.0', '0', '0', '5', '3', '22', '5', '13', '32']"
"['', '8901', '2009-11-05', '03:30:00 GMT', '10', 'PIT', 'Pittsburgh', 'Penguins', '28', 'LAK', 'Los Angeles', 'Kings', '25', 'Staples Center', '28', 'LAK', 'Los Angeles', 'Kings', '1', '0', '0', '0', '0', '0', '2', '35', '23', '60.3', '3', '0', '0.0', '3', '0', '100.0', '0', '0', '5', '2', '27', '4', '8', '23']"
"['', '8908', '2009-11-07', '21:00:00 GMT', '18', 'NSH', 'Nashville', 'Predators', '28', 'LAK', 'Los Angeles', 'Kings', '25', 'Staples Center', '28', 'LAK', 'Los Angeles', 'Kings', '0', '1', '0', '0', '0', '0', '0', '18', '29', '38.3', '4', '1', '25.0', '4', '1', '75.0', '0', '0', '1', '3', '27', '5', '10', '21']"
"['', '8923', '2009-11-09', '01:00:00 GMT', '28', 'LAK', 'Los Angeles', 'Kings', '20', 'CHI', 'Chicago', 'Blackhawks', '28', 'United Center', '28', 'LAK', 'Los Angeles', 'Kings', '0', '1', '0', '0', '0', '0', '0', '32', '30', '51.6', '1', '0', '0.0', '3', '2', '33.3', '0', '0', '1', '4', '17', '4', '8', '22']"
"['', '8931', '2009-11-11', '00:00:00 GMT', '28', 'LAK', 'Los Angeles', 'Kings', '3', 'CAR', 'Carolina', 'Hurricanes', '21', 'RBC Center', '28', 'LAK', 'Los Angeles', 'Kings', '1', '0', '0', '0', '0', '0', '2', '21', '28', '42.9', '5', '2', '40.0', '2', '0', '100.0', '0', '0', '5', '2', '26', '2', '4', '23']"
"['', '8949', '2009-11-13', '00:30:00 GMT', '28', 'LAK', 'Los Angeles', 'Kings', '2', 'ATL', 'Atlanta', 'Thrashers', '20', 'Philips Arena', '28', 'LAK', 'Los Angeles', 'Kings', '0', '1', '0', '0', '0', '0', '0', '33', '34', '49.3', '4', '0', '0.0', '3', '1', '66.7', '0', '1', '0', '7', '38', '9', '43', '9']"
"['', '8958', '2009-11-14', '00:30:00 GMT', '28', 'LAK', 'Los Angeles', 'Kings', '1', 'TBL', 'Tampa Bay', 'Lightning', '26', 'St. Pete Times Forum', '28', 'LAK', 'Los Angeles', 'Kings', '1', '0', '0', '0', '0', '0', '2', '29', '28', '50.9', '3', '1', '33.3', '5', '0', '100.0', '0', '0', '1', '1', '29', '9', '29', '22']"
"['', '8970', '2009-11-16', '00:30:00 GMT', '28', 'LAK', 'Los Angeles', 'Kings', '4', 'FLO', 'Florida', 'Panthers', '3', 'BankAtlantic Center', '28', 'LAK', 'Los Angeles', 'Kings', '1', '0', '0', '0', '0', '0', '2', '29', '29', '50.0', '6', '2', '33.3', '3', '1', '66.7', '1', '0', '3', '3', '31', '5', '13', '25']"
"['', '8981', '2009-11-18', '03:30:00 GMT', '6', 'PHI', 'Philadelphia', 'Flyers', '28', 'LAK', 'Los Angeles', 'Kings', '25', 'Staples Center', '28', 'LAK', 'Los Angeles', 'Kings', '0', '1', '0', '0', '0', '0', '0', '29', '26', '52.7', '3', '1', '33.3', '1', '1', '0.0', '0', '0', '2', '3', '37', '3', '6', '29']"
"['', '8996', '2009-11-21', '21:00:00 GMT', '23', 'CGY', 'Calgary', 'Flames', '28', 'LAK', 'Los Angeles', 'Kings', '25', 'Staples Center', '28', 'LAK', 'Los Angeles', 'Kings', '0', '1', '0', '0', '0', '0', '0', '33', '28', '54.1', '3', '0', '0.0', '7', '2', '71.4', '0', '1', '2', '5', '23', '8', '16', '26']"
"['', '9033', '2009-11-25', '02:30:00 GMT', '28', 'LAK', 'Los Angeles', 'Kings', '24', 'EDM', 'Edmonton', 'Oilers', '22', 'Rogers Place', '28', 'LAK', 'Los Angeles', 'Kings', '1', '0', '0', '0', '0', '0', '2', '22', '31', '41.5', '3', '0', '0.0', '3', '0', '100.0', '0', '0', '3', '1', '32', '7', '17', '20']"
"['', '9037', '2009-11-26', '03:00:00 GMT', '28', 'LAK', 'Los Angeles', 'Kings', '21', 'VAN', 'Vancouver', 'Canucks', '7', 'General Motors Place', '28', 'LAK', 'Los Angeles', 'Kings', '0', '1', '0', '0', '0', '0', '0', '25', '41', '37.9', '3', '0', '0.0', '4', '0', '100.0', '0', '0', '1', '4', '31', '6', '12', '22']"
"['', '9062', '2009-11-28', '03:30:00 GMT', '20', 'CHI', 'Chicago', 'Blackhawks', '28', 'LAK', 'Los Angeles', 'Kings', '25', 'Staples Center', '28', 'LAK', 'Los Angeles', 'Kings', '1', '0', '0', '0', '0', '0', '2', '34', '24', '58.6', '3', '0', '0.0', '4', '1', '75.0', '0', '0', '1', '1', '21', '4', '8', '41']"
"['', '9076', '2009-12-01', '03:30:00 GMT', '28', 'LAK', 'Los Angeles', 'Kings', '29', 'ANA', 'Anaheim', 'Ducks', '8', 'Honda Center', '28', 'LAK', 'Los Angeles', 'Kings', '1', '0', '0', '0', '0', '0', '2', '29', '22', '56.9', '5', '1', '20.0', '4', '1', '75.0', '0', '0', '4', '3', '38', '5', '13', '24']"
"['', '9090', '2009-12-03', '03:30:00 GMT', '13', 'OTT', 'Ottawa', 'Senators', '28', 'LAK', 'Los Angeles', 'Kings', '25', 'Staples Center', '28', 'LAK', 'Los Angeles', 'Kings', '1', '0', '0', '0', '0', '0', '2', '32', '19', '62.7', '4', '1', '25.0', '3', '1', '66.7', '0', '0', '6', '3', '18', '5', '10', '37']"
"['', '9098', '2009-12-05', '21:00:00 GMT', '17', 'STL', 'St. Louis', 'Blues', '28', 'LAK', 'Los Angeles', 'Kings', '25', 'Staples Center', '28', 'LAK', 'Los Angeles', 'Kings', '0', '0', '0', '1', '0', '0', '1', '30', '43', '41.1', '2', '0', '0.0', '5', '1', '80.0', '1', '0', '4', '4', '36', '5', '10', '29']"
"['', '9120', '2009-12-07', '03:30:00 GMT', '23', 'CGY', 'Calgary', 'Flames', '28', 'LAK', 'Los Angeles', 'Kings', '25', 'Staples Center', '28', 'LAK', 'Los Angeles', 'Kings', '1', '0', '0', '0', '0', '0', '2', '22', '15', '59.5', '3', '1', '33.3', '4', '0', '100.0', '0', '0', '2', '1', '14', '6', '15', '32']"
"['', '9134', '2009-12-09', '03:30:00 GMT', '28', 'LAK', 'Los Angeles', 'Kings', '26', 'SJS', 'San Jose', 'Sharks', '9', 'HP Pavilion at San Jose', '28', 'LAK', 'Los Angeles', 'Kings', '1', '0', '0', '0', '0', '0', '2', '30', '28', '51.7', '5', '2', '40.0', '6', '1', '83.3', '0', '0', '5', '4', '23', '7', '14', '33']"
"['', '9140', '2009-12-10', '03:30:00 GMT', '30', 'PHX', 'Phoenix', 'Coyotes', '28', 'LAK', 'Los Angeles', 'Kings', '25', 'Staples Center', '28', 'LAK', 'Los Angeles', 'Kings', '1', '0', '0', '0', '0', '0', '2', '25', '22', '53.2', '2', '0', '0.0', '2', '1', '50.0', '0', '0', '2', '2', '26', '2', '4', '27']"
"['', '9160', '2009-12-12', '03:30:00 GMT', '27', 'DAL', 'Dallas', 'Stars', '28', 'LAK', 'Los Angeles', 'Kings', '25', 'Staples Center', '28', 'LAK', 'Los Angeles', 'Kings', '1', '0', '0', '0', '0', '0', '2', '26', '31', '45.6', '1', '0', '0.0', '4', '0', '100.0', '0', '0', '2', '2', '25', '5', '10', '37']"
"['', '9170', '2009-12-14', '03:00:00 GMT', '28', 'LAK', 'Los Angeles', 'Kings', '21', 'VAN', 'Vancouver', 'Canucks', '7', 'General Motors Place', '28', 'LAK', 'Los Angeles', 'Kings', '0', '1', '0', '0', '0', '0', '0', '27', '26', '50.9', '5', '0', '0.0', '4', '1', '75.0', '0', '0', '1', '3', '24', '6', '12', '18']"
"['', '9175', '2009-12-15', '02:30:00 GMT', '28', 'LAK', 'Los Angeles', 'Kings', '24', 'EDM', 'Edmonton', 'Oilers', '22', 'Rogers Place', '28', 'LAK', 'Los Angeles', 'Kings', '1', '0', '0', '0', '0', '0', '2', '21', '25', '45.7', '0', '0', '0.0', '3', '0', '100.0', '0', '0', '3', '2', '23', '5', '21', '23']"
"['', '9191', '2009-12-17', '02:30:00 GMT', '28', 'LAK', 'Los Angeles', 'Kings', '23', 'CGY', 'Calgary', 'Flames', '18', 'Pengrowth Saddledome', '28', 'LAK', 'Los Angeles', 'Kings', '0', '1', '0', '0', '0', '0', '0', '29', '26', '52.7', '3', '0', '0.0', '5', '1', '80.0', '0', '0', '1', '2', '34', '5', '10', '10']"
"['', '9247', '2009-12-26', '01:00:00 GMT', '28', 'LAK', 'Los Angeles', 'Kings', '30', 'PHX', 'Phoenix', 'Coyotes', '6', 'Jobing.com Arena', '28', 'LAK', 'Los Angeles', 'Kings', '0', '1', '0', '0', '0', '0', '0', '30', '32', '48.4', '5', '1', '20.0', '3', '0', '100.0', '0', '0', '2', '3', '23', '4', '11', '34']"
"['', '9265', '2009-12-28', '03:30:00 GMT', '25', 'MIN', 'Minnesota', 'Wild', '28', 'LAK', 'Los Angeles', 'Kings', '25', 'Staples Center', '28', 'LAK', 'Los Angeles', 'Kings', '0', '1', '0', '0', '0', '0', '0', '22', '26', '45.8', '1', '1', '100.0', '2', '1', '50.0', '0', '0', '3', '4', '29', '2', '4', '36']"
"['', '9278', '2009-12-30', '02:30:00 GMT', '28', 'LAK', 'Los Angeles', 'Kings', '23', 'CGY', 'Calgary', 'Flames', '18', 'Pengrowth Saddledome', '28', 'LAK', 'Los Angeles', 'Kings', '0', '1', '0', '0', '0', '0', '0', '22', '25', '46.8', '2', '0', '0.0', '5', '1', '80.0', '0', '0', '1', '2', '23', '12', '43', '20']"
"['', '9289', '2009-12-31', '01:00:00 GMT', '28', 'LAK', 'Los Angeles', 'Kings', '25', 'MIN', 'Minnesota', 'Wild', '30', 'Xcel Energy Center', '28', 'LAK', 'Los Angeles', 'Kings', '1', '0', '0', '0', '0', '0', '2', '23', '31', '42.6', '3', '1', '33.3', '4', '0', '100.0', '0', '0', '5', '2', '24', '7', '17', '22']"
"['', '9297', '2010-01-02', '21:00:00 GMT', '5', 'WSH', 'Washington', 'Capitals', '28', 'LAK', 'Los Angeles', 'Kings', '25', 'Staples Center', '28', 'LAK', 'Los Angeles', 'Kings', '1', '0', '0', '0', '0', '0', '2', '25', '35', '41.7', '4', '1', '25.0', '5', '1', '80.0', '1', '0', '2', '1', '17', '5', '10', '34']"
"['', '9311', '2010-01-04', '03:30:00 GMT', '28', 'LAK', 'Los Angeles', 'Kings', '26', 'SJS', 'San Jose', 'Sharks', '9', 'HP Pavilion at San Jose', '28', 'LAK', 'Los Angeles', 'Kings', '1', '0', '0', '0', '0', '0', '2', '23', '26', '46.9', '5', '3', '60.0', '5', '1', '80.0', '0', '0', '6', '2', '14', '5', '10', '13']"
"['', '9337', '2010-01-07', '03:30:00 GMT', '16', 'DET', 'Detroit', 'Red Wings', '28', 'LAK', 'Los Angeles', 'Kings', '25', 'Staples Center', '28', 'LAK', 'Los Angeles', 'Kings', '0', '1', '0', '0', '0', '0', '0', '23', '26', '46.9', '3', '1', '33.3', '2', '0', '100.0', '0', '0', '1', '2', '51', '3', '6', '39']"
"['', '9354', '2010-01-09', '03:30:00 GMT', '17', 'STL', 'St. Louis', 'Blues', '28', 'LAK', 'Los Angeles', 'Kings', '25', 'Staples Center', '28', 'LAK', 'Los Angeles', 'Kings', '0', '1', '0', '0', '0', '0', '0', '35', '20', '63.6', '5', '1', '20.0', '3', '0', '100.0', '0', '0', '3', '4', '21', '6', '21', '36']"
"['', '9361', '2010-01-11', '03:30:00 GMT', '26', 'SJS', 'San Jose', 'Sharks', '28', 'LAK', 'Los Angeles', 'Kings', '25', 'Staples Center', '28', 'LAK', 'Los Angeles', 'Kings', '0', '1', '0', '0', '0', '0', '0', '30', '29', '50.8', '5', '0', '0.0', '3', '1', '66.7', '0', '0', '1', '2', '33', '3', '6', '44']"
"['', '9386', '2010-01-14', '03:30:00 GMT', '29', 'ANA', 'Anaheim', 'Ducks', '28', 'LAK', 'Los Angeles', 'Kings', '25', 'Staples Center', '28', 'LAK', 'Los Angeles', 'Kings', '1', '0', '0', '0', '0', '0', '2', '22', '22', '50.0', '8', '0', '0.0', '3', '0', '100.0', '0', '0', '4', '0', '23', '11', '31', '35']"
"['', '9393', '2010-01-16', '21:00:00 GMT', '11', 'BOS', 'Boston', 'Bruins', '28', 'LAK', 'Los Angeles', 'Kings', '25', 'Staples Center', '28', 'LAK', 'Los Angeles', 'Kings', '1', '0', '0', '0', '0', '0', '2', '35', '28', '55.6', '5', '0', '0.0', '1', '0', '100.0', '0', '0', '3', '3', '31', '3', '12', '40']"
"['', '9423', '2010-01-19', '03:30:00 GMT', '26', 'SJS', 'San Jose', 'Sharks', '28', 'LAK', 'Los Angeles', 'Kings', '25', 'Staples Center', '28', 'LAK', 'Los Angeles', 'Kings', '0', '1', '0', '0', '0', '0', '0', '27', '28', '49.1', '5', '0', '0.0', '3', '3', '0.0', '0', '0', '1', '5', '36', '7', '14', '28']"
"['', '9438', '2010-01-21', '03:30:00 GMT', '15', 'BUF', 'Buffalo', 'Sabres', '28', 'LAK', 'Los Angeles', 'Kings', '25', 'Staples Center', '28', 'LAK', 'Los Angeles', 'Kings', '1', '0', '0', '0', '0', '0', '2', '32', '23', '58.2', '2', '0', '0.0', '3', '1', '66.7', '0', '0', '3', '3', '26', '3', '6', '33']"
"['', '9445', '2010-01-23', '00:00:00 GMT', '28', 'LAK', 'Los Angeles', 'Kings', '16', 'DET', 'Detroit', 'Red Wings', '11', 'Joe Louis Arena', '28', 'LAK', 'Los Angeles', 'Kings', '1', '0', '0', '0', '0', '0', '2', '24', '29', '45.3', '3', '0', '0.0', '3', '1', '66.7', '0', '0', '3', '2', '30', '3', '6', '37']"
"['', '9463', '2010-01-26', '00:00:00 GMT', '28', 'LAK', 'Los Angeles', 'Kings', '12', 'TOR', 'Toronto', 'Maple Leafs', '1', 'Air Canada Center', '28', 'LAK', 'Los Angeles', 'Kings', '1', '0', '0', '0', '0', '0', '2', '26', '34', '43.3', '2', '1', '50.0', '1', '0', '100.0', '0', '0', '5', '3', '28', '1', '2', '34']"
"['', '9479', '2010-01-28', '00:00:00 GMT', '28', 'LAK', 'Los Angeles', 'Kings', '19', 'CBJ', 'Columbus', 'Blue Jackets', '17', 'Nationwide Arena', '28', 'LAK', 'Los Angeles', 'Kings', '1', '0', '0', '0', '0', '0', '2', '25', '26', '49.0', '3', '1', '33.3', '3', '0', '100.0', '0', '0', '4', '1', '14', '3', '6', '18']"
"['', '9491', '2010-01-30', '00:00:00 GMT', '28', 'LAK', 'Los Angeles', 'Kings', '11', 'BOS', 'Boston', 'Bruins', '27', 'TD Garden', '28', 'LAK', 'Los Angeles', 'Kings', '1', '0', '0', '0', '0', '0', '2', '32', '28', '53.3', '3', '2', '66.7', '7', '2', '71.4', '0', '0', '2', '2', '27', '9', '29', '19']"
"['', '9502', '2010-01-31', '22:00:00 GMT', '28', 'LAK', 'Los Angeles', 'Kings', '7', 'NJD', 'New Jersey', 'Devils', '5', 'Izod Center', '28', 'LAK', 'Los Angeles', 'Kings', '1', '0', '0', '0', '0', '0', '2', '32', '28', '53.3', '4', '1', '25.0', '3', '0', '100.0', '0', '0', '3', '2', '19', '3', '6', '22']"
"['', '9517', '2010-02-02', '03:30:00 GMT', '9', 'NYR', 'New York', 'Rangers', '28', 'LAK', 'Los Angeles', 'Kings', '25', 'Staples Center', '28', 'LAK', 'Los Angeles', 'Kings', '1', '0', '0', '0', '0', '0', '2', '17', '20', '45.9', '3', '0', '0.0', '3', '0', '100.0', '1', '0', '2', '1', '19', '5', '13', '31']"
"['', '9532', '2010-02-04', '03:30:00 GMT', '29', 'ANA', 'Anaheim', 'Ducks', '28', 'LAK', 'Los Angeles', 'Kings', '25', 'Staples Center', '28', 'LAK', 'Los Angeles', 'Kings', '1', '0', '0', '0', '0', '0', '2', '29', '33', '46.8', '2', '2', '100.0', '1', '0', '100.0', '0', '0', '6', '4', '25', '2', '7', '39']"
"['', '9540', '2010-02-06', '21:00:00 GMT', '16', 'DET', 'Detroit', 'Red Wings', '28', 'LAK', 'Los Angeles', 'Kings', '25', 'Staples Center', '28', 'LAK', 'Los Angeles', 'Kings', '1', '0', '0', '0', '0', '0', '2', '24', '24', '50.0', '2', '0', '0.0', '4', '0', '100.0', '0', '0', '4', '3', '23', '4', '8', '30']"
"['', '9558', '2010-02-08', '03:00:00 GMT', '28', 'LAK', 'Los Angeles', 'Kings', '29', 'ANA', 'Anaheim', 'Ducks', '8', 'Honda Center', '28', 'LAK', 'Los Angeles', 'Kings', '0', '1', '0', '0', '0', '0', '0', '28', '24', '53.8', '4', '0', '0.0', '4', '2', '50.0', '0', '0', '2', '4', '35', '5', '10', '31']"
"['', '9580', '2010-02-11', '03:30:00 GMT', '24', 'EDM', 'Edmonton', 'Oilers', '28', 'LAK', 'Los Angeles', 'Kings', '25', 'Staples Center', '28', 'LAK', 'Los Angeles', 'Kings', '0', '0', '0', '1', '0', '0', '1', '29', '33', '46.8', '5', '0', '0.0', '3', '1', '66.7', '0', '0', '2', '2', '41', '5', '10', '21']"
"['', '9598', '2010-02-13', '03:30:00 GMT', '22', 'COL', 'Colorado', 'Avalanche', '28', 'LAK', 'Los Angeles', 'Kings', '25', 'Staples Center', '28', 'LAK', 'Los Angeles', 'Kings', '1', '0', '0', '0', '0', '0', '2', '22', '18', '55.0', '4', '1', '25.0', '3', '0', '100.0', '0', '0', '3', '0', '20', '5', '16', '26']"
"['', '9614', '2010-03-02', '01:30:00 GMT', '28', 'LAK', 'Los Angeles', 'Kings', '27', 'DAL', 'Dallas', 'Stars', '2', 'American Airlines Center', '28', 'LAK', 'Los Angeles', 'Kings', '1', '0', '0', '0', '0', '0', '2', '26', '28', '48.1', '2', '2', '100.0', '4', '1', '75.0', '0', '0', '5', '1', '17', '7', '17', '24']"
"['', '9628', '2010-03-04', '01:00:00 GMT', '28', 'LAK', 'Los Angeles', 'Kings', '18', 'NSH', 'Nashville', 'Predators', '15', 'Sommet Center', '28', 'LAK', 'Los Angeles', 'Kings', '0', '1', '0', '0', '0', '0', '0', '25', '32', '43.9', '3', '1', '33.3', '5', '1', '80.0', '0', '0', '2', '4', '20', '7', '14', '14']"
"['', '9645', '2010-03-06', '03:00:00 GMT', '14', 'MTL', 'Montreal', 'Canadiens', '28', 'LAK', 'Los Angeles', 'Kings', '25', 'Staples Center', '28', 'LAK', 'Los Angeles', 'Kings', '0', '1', '0', '0', '0', '0', '0', '33', '22', '60.0', '4', '0', '0.0', '1', '0', '100.0', '0', '1', '2', '4', '23', '2', '7', '35']"
"['', '9657', '2010-03-08', '03:30:00 GMT', '19', 'CBJ', 'Columbus', 'Blue Jackets', '28', 'LAK', 'Los Angeles', 'Kings', '25', 'Staples Center', '28', 'LAK', 'Los Angeles', 'Kings', '1', '0', '0', '0', '0', '0', '2', '34', '19', '64.2', '6', '3', '50.0', '4', '0', '100.0', '0', '0', '6', '0', '29', '5', '10', '19']"
"['', '9670', '2010-03-10', '01:30:00 GMT', '28', 'LAK', 'Los Angeles', 'Kings', '20', 'CHI', 'Chicago', 'Blackhawks', '28', 'United Center', '28', 'LAK', 'Los Angeles', 'Kings', '0', '0', '0', '1', '0', '0', '1', '30', '34', '46.9', '2', '1', '50.0', '4', '0', '100.0', '0', '0', '2', '3', '28', '6', '18', '23']"
"['', '9686', '2010-03-12', '01:30:00 GMT', '28', 'LAK', 'Los Angeles', 'Kings', '27', 'DAL', 'Dallas', 'Stars', '2', 'American Airlines Center', '28', 'LAK', 'Los Angeles', 'Kings', '1', '0', '0', '0', '0', '0', '2', '30', '23', '56.6', '3', '1', '33.3', '4', '0', '100.0', '0', '0', '1', '1', '27', '5', '10', '33']"
"['', '9697', '2010-03-14', '19:00:00 GMT', '18', 'NSH', 'Nashville', 'Predators', '28', 'LAK', 'Los Angeles', 'Kings', '25', 'Staples Center', '28', 'LAK', 'Los Angeles', 'Kings', '0', '1', '0', '0', '0', '0', '0', '28', '31', '47.5', '1', '1', '100.0', '1', '0', '100.0', '0', '0', '2', '3', '18', '2', '7', '20']"
"['', '9734', '2010-03-18', '02:30:00 GMT', '20', 'CHI', 'Chicago', 'Blackhawks', '28', 'LAK', 'Los Angeles', 'Kings', '25', 'Staples Center', '28', 'LAK', 'Los Angeles', 'Kings', '0', '1', '0', '0', '0', '0', '0', '37', '24', '60.7', '0', '0', '0.0', '5', '0', '100.0', '0', '0', '0', '3', '17', '6', '15', '35']"
"['', '9749', '2010-03-20', '02:30:00 GMT', '8', 'NYI', 'New York', 'Islanders', '28', 'LAK', 'Los Angeles', 'Kings', '25', 'Staples Center', '28', 'LAK', 'Los Angeles', 'Kings', '1', '0', '0', '0', '0', '0', '2', '27', '30', '47.4', '4', '0', '0.0', '4', '0', '100.0', '0', '0', '1', '0', '25', '4', '8', '33']"
"['', '9761', '2010-03-22', '02:30:00 GMT', '22', 'COL', 'Colorado', 'Avalanche', '28', 'LAK', 'Los Angeles', 'Kings', '25', 'Staples Center', '28', 'LAK', 'Los Angeles', 'Kings', '1', '0', '0', '0', '0', '0', '2', '27', '27', '50.0', '3', '2', '66.7', '5', '0', '100.0', '0', '0', '4', '3', '19', '6', '12', '33']"
"['', '9776', '2010-03-24', '01:00:00 GMT', '28', 'LAK', 'Los Angeles', 'Kings', '22', 'COL', 'Colorado', 'Avalanche', '19', 'Pepsi Center', '28', 'LAK', 'Los Angeles', 'Kings', '0', '0', '0', '1', '0', '0', '1', '28', '27', '50.9', '3', '2', '66.7', '6', '2', '66.7', '0', '0', '3', '3', '27', '6', '12', '21']"
"['', '9786', '2010-03-25', '00:00:00 GMT', '28', 'LAK', 'Los Angeles', 'Kings', '17', 'STL', 'St. Louis', 'Blues', '24', 'Scottrade Center', '28', 'LAK', 'Los Angeles', 'Kings', '0', '1', '0', '0', '0', '0', '0', '30', '25', '54.5', '6', '1', '16.7', '2', '0', '100.0', '0', '0', '1', '3', '30', '3', '6', '10']"
"['', '9803', '2010-03-27', '02:30:00 GMT', '27', 'DAL', 'Dallas', 'Stars', '28', 'LAK', 'Los Angeles', 'Kings', '25', 'Staples Center', '28', 'LAK', 'Los Angeles', 'Kings', '0', '1', '0', '0', '0', '0', '0', '37', '24', '60.7', '6', '1', '16.7', '6', '4', '33.3', '0', '0', '1', '4', '29', '8', '16', '24']"
"['', '9813', '2010-03-29', '01:00:00 GMT', '28', 'LAK', 'Los Angeles', 'Kings', '25', 'MIN', 'Minnesota', 'Wild', '30', 'Xcel Energy Center', '28', 'LAK', 'Los Angeles', 'Kings', '0', '1', '0', '0', '0', '0', '0', '29', '31', '48.3', '3', '0', '0.0', '3', '2', '33.3', '0', '0', '2', '3', '29', '3', '6', '9']"
"['', '9822', '2010-03-30', '00:00:00 GMT', '28', 'LAK', 'Los Angeles', 'Kings', '18', 'NSH', 'Nashville', 'Predators', '15', 'Sommet Center', '28', 'LAK', 'Los Angeles', 'Kings', '1', '0', '0', '0', '0', '0', '2', '35', '26', '57.4', '1', '0', '0.0', '2', '0', '100.0', '0', '0', '2', '0', '29', '3', '6', '20']"
"['', '9838', '2010-04-01', '02:30:00 GMT', '21', 'VAN', 'Vancouver', 'Canucks', '28', 'LAK', 'Los Angeles', 'Kings', '25', 'Staples Center', '28', 'LAK', 'Los Angeles', 'Kings', '1', '0', '0', '0', '0', '0', '2', '30', '34', '46.9', '5', '2', '40.0', '3', '1', '66.7', '0', '0', '8', '3', '21', '4', '11', '15']"
"['', '9856', '2010-04-03', '02:30:00 GMT', '29', 'ANA', 'Anaheim', 'Ducks', '28', 'LAK', 'Los Angeles', 'Kings', '25', 'Staples Center', '28', 'LAK', 'Los Angeles', 'Kings', '0', '0', '0', '1', '0', '0', '1', '28', '28', '50.0', '4', '1', '25.0', '2', '1', '50.0', '0', '0', '1', '1', '28', '4', '11', '29']"
"['', '9874', '2010-04-06', '02:00:00 GMT', '28', 'LAK', 'Los Angeles', 'Kings', '29', 'ANA', 'Anaheim', 'Ducks', '8', 'Honda Center', '28', 'LAK', 'Los Angeles', 'Kings', '1', '0', '0', '0', '0', '0', '2', '29', '25', '53.7', '3', '1', '33.3', '3', '2', '33.3', '0', '0', '4', '4', '36', '3', '6', '23']"
"['', '9887', '2010-04-08', '02:30:00 GMT', '30', 'PHX', 'Phoenix', 'Coyotes', '28', 'LAK', 'Los Angeles', 'Kings', '25', 'Staples Center', '28', 'LAK', 'Los Angeles', 'Kings', '0', '0', '0', '1', '0', '0', '1', '34', '23', '59.6', '1', '0', '0.0', '5', '0', '100.0', '0', '0', '2', '2', '22', '8', '19', '37']"
"['', '9895', '2010-04-10', '20:00:00 GMT', '24', 'EDM', 'Edmonton', 'Oilers', '28', 'LAK', 'Los Angeles', 'Kings', '25', 'Staples Center', '28', 'LAK', 'Los Angeles', 'Kings', '0', '0', '0', '1', '0', '0', '1', '42', '19', '68.9', '4', '1', '25.0', '5', '1', '80.0', '0', '1', '3', '3', '52', '5', '10', '29']"
"['', '9907', '2010-04-11', '19:00:00 GMT', '28', 'LAK', 'Los Angeles', 'Kings', '22', 'COL', 'Colorado', 'Avalanche', '19', 'Pepsi Center', '28', 'LAK', 'Los Angeles', 'Kings', '1', '0', '0', '0', '0', '0', '2', '32', '18', '64.0', '2', '0', '0.0', '3', '0', '100.0', '0', '0', '2', '1', '31', '4', '8', '6']"
