"['#Date/Time of Update: 2018-12-10 19:03:10 GMT', '#Game ID', '#Game Date', '#Game Time', '#Away Team ID', '#Away Team Abbr.', '#Away Team City', '#Away Team Name', '#Home Team ID', '#Home Team Abbr.', '#Home Team City', '#Home Team Name', '#Venue ID', '#Venue Name', '#Team ID', '#Team Abbr.', '#Team City', '#Team Name', '#Wins', '#Losses', '#OvertimeWins', '#OvertimeLosses', '#ShootoutWins', '#ShootoutLosses', '#Rows', '#Points', '#FaceoffWins', '#FaceoffLosses', '#FaceoffPercent', '#Powerplays', '#PowerplayGoals', '#PowerplayPercent', '#PenaltyKills', '#PenaltyKillGoalsAllowed', '#PenaltyKillPercent', '#ShorthandedGoalsFor', '#ShorthandedGoalsAgainst', '#GoalsFor', '#GoalsAgainst', '#Shots', '#Penalties', '#PenaltyMinutes', '#Hits']"
"['', '26366', '2013-10-03', '00:30:00 GMT', '4', 'FLO', 'Florida', 'Panthers', '27', 'DAL', 'Dallas', 'Stars', '2', 'American Airlines Center', '27', 'DAL', 'Dallas', 'Stars', '0', '1', '0', '0', '0', '0', '0', '0', '38', '33', '53.5', '3', '0', '0.0', '3', '0', '100.0', '1', '0', '2', '4', '25', '8', '38', '26']"
"['', '26382', '2013-10-05', '00:00:00 GMT', '5', 'WSH', 'Washington', 'Capitals', '27', 'DAL', 'Dallas', 'Stars', '2', 'American Airlines Center', '27', 'DAL', 'Dallas', 'Stars', '1', '0', '0', '0', '0', '0', '1', '2', '25', '27', '48.1', '2', '0', '0.0', '3', '1', '66.7', '0', '0', '2', '1', '19', '3', '6', '26']"
"['', '26416', '2013-10-11', '00:00:00 GMT', '27', 'DAL', 'Dallas', 'Stars', '2', 'WPJ', 'Winnipeg', 'Jets', '39', 'MTS Centre', '27', 'DAL', 'Dallas', 'Stars', '1', '0', '0', '0', '0', '0', '1', '2', '24', '40', '37.5', '2', '2', '100.0', '5', '1', '80.0', '0', '0', '4', '1', '27', '6', '12', '21']"
"['', '26426', '2013-10-12', '00:00:00 GMT', '27', 'DAL', 'Dallas', 'Stars', '25', 'MIN', 'Minnesota', 'Wild', '30', 'Xcel Energy Center', '27', 'DAL', 'Dallas', 'Stars', '0', '1', '0', '0', '0', '0', '0', '0', '30', '28', '51.7', '3', '1', '33.3', '4', '2', '50.0', '0', '0', '1', '5', '18', '4', '8', '10']"
"['', '26446', '2013-10-15', '01:00:00 GMT', '27', 'DAL', 'Dallas', 'Stars', '22', 'COL', 'Colorado', 'Avalanche', '19', 'Pepsi Center', '27', 'DAL', 'Dallas', 'Stars', '0', '1', '0', '0', '0', '0', '0', '0', '33', '32', '50.8', '4', '1', '25.0', '2', '0', '100.0', '0', '0', '2', '3', '39', '3', '6', '12']"
"['', '26460', '2013-10-17', '00:30:00 GMT', '26', 'SJS', 'San Jose', 'Sharks', '27', 'DAL', 'Dallas', 'Stars', '2', 'American Airlines Center', '27', 'DAL', 'Dallas', 'Stars', '1', '0', '0', '0', '0', '0', '0', '2', '34', '33', '50.7', '2', '0', '0.0', '5', '0', '100.0', '0', '0', '3', '3', '28', '6', '15', '19']"
"['', '26476', '2013-10-19', '02:30:00 GMT', '27', 'DAL', 'Dallas', 'Stars', '28', 'LAK', 'Los Angeles', 'Kings', '25', 'Staples Center', '27', 'DAL', 'Dallas', 'Stars', '0', '1', '0', '0', '0', '0', '0', '0', '32', '35', '47.8', '5', '0', '0.0', '2', '1', '50.0', '0', '0', '2', '5', '27', '5', '13', '29']"
"['', '26479', '2013-10-20', '00:00:00 GMT', '27', 'DAL', 'Dallas', 'Stars', '29', 'ANA', 'Anaheim', 'Ducks', '8', 'Honda Center', '27', 'DAL', 'Dallas', 'Stars', '0', '1', '0', '0', '0', '0', '0', '0', '42', '32', '56.8', '4', '1', '25.0', '5', '2', '60.0', '0', '1', '3', '6', '33', '10', '31', '31']"
"['', '26500', '2013-10-24', '00:30:00 GMT', '23', 'CGY', 'Calgary', 'Flames', '27', 'DAL', 'Dallas', 'Stars', '2', 'American Airlines Center', '27', 'DAL', 'Dallas', 'Stars', '1', '0', '0', '0', '0', '0', '1', '2', '33', '31', '51.6', '3', '0', '0.0', '2', '0', '100.0', '0', '0', '5', '1', '29', '3', '9', '20']"
"['', '26515', '2013-10-26', '23:00:00 GMT', '2', 'WPJ', 'Winnipeg', 'Jets', '27', 'DAL', 'Dallas', 'Stars', '2', 'American Airlines Center', '27', 'DAL', 'Dallas', 'Stars', '0', '0', '0', '1', '0', '0', '0', '1', '41', '23', '64.1', '4', '0', '0.0', '2', '0', '100.0', '0', '0', '1', '1', '35', '2', '4', '29']"
"['', '26525', '2013-10-28', '23:00:00 GMT', '27', 'DAL', 'Dallas', 'Stars', '15', 'BUF', 'Buffalo', 'Sabres', '10', 'First Niagara Center', '27', 'DAL', 'Dallas', 'Stars', '1', '0', '0', '0', '0', '0', '1', '2', '39', '19', '67.2', '2', '0', '0.0', '3', '1', '66.7', '0', '0', '4', '3', '25', '5', '13', '20']"
"['', '26532', '2013-10-29', '23:30:00 GMT', '27', 'DAL', 'Dallas', 'Stars', '14', 'MTL', 'Montreal', 'Canadiens', '4', 'Bell Centre', '27', 'DAL', 'Dallas', 'Stars', '0', '1', '0', '0', '0', '0', '0', '0', '33', '34', '49.3', '1', '0', '0.0', '3', '0', '100.0', '0', '0', '1', '2', '26', '5', '13', '17']"
"['', '26551', '2013-11-01', '00:30:00 GMT', '22', 'COL', 'Colorado', 'Avalanche', '27', 'DAL', 'Dallas', 'Stars', '2', 'American Airlines Center', '27', 'DAL', 'Dallas', 'Stars', '0', '0', '0', '1', '0', '0', '0', '1', '27', '38', '41.5', '2', '0', '0.0', '4', '0', '100.0', '0', '0', '2', '3', '27', '5', '13', '21']"
"['', '26566', '2013-11-03', '18:00:00 GMT', '27', 'DAL', 'Dallas', 'Stars', '13', 'OTT', 'Ottawa', 'Senators', '23', 'Canadian Tire Centre', '27', 'DAL', 'Dallas', 'Stars', '1', '0', '0', '0', '0', '0', '0', '2', '24', '39', '38.1', '5', '0', '0.0', '3', '1', '66.7', '0', '0', '3', '3', '36', '4', '8', '15']"
"['', '26571', '2013-11-05', '00:00:00 GMT', '27', 'DAL', 'Dallas', 'Stars', '11', 'BOS', 'Boston', 'Bruins', '27', 'TD Garden', '27', 'DAL', 'Dallas', 'Stars', '1', '0', '0', '0', '0', '0', '0', '2', '31', '30', '50.8', '3', '0', '0.0', '4', '0', '100.0', '0', '0', '2', '2', '34', '6', '12', '21']"
"['', '26590', '2013-11-07', '00:30:00 GMT', '27', 'DAL', 'Dallas', 'Stars', '16', 'DET', 'Detroit', 'Red Wings', '11', 'Joe Louis Arena', '27', 'DAL', 'Dallas', 'Stars', '1', '0', '0', '0', '0', '0', '1', '2', '28', '40', '41.2', '2', '1', '50.0', '0', '0', '0.0', '0', '0', '4', '3', '24', '0', '0', '12']"
"['', '26606', '2013-11-09', '01:00:00 GMT', '20', 'CHI', 'Chicago', 'Blackhawks', '27', 'DAL', 'Dallas', 'Stars', '2', 'American Airlines Center', '27', 'DAL', 'Dallas', 'Stars', '0', '1', '0', '0', '0', '0', '0', '0', '26', '26', '50.0', '6', '0', '0.0', '1', '1', '0.0', '0', '1', '2', '5', '31', '2', '4', '22']"
"['', '26630', '2013-11-13', '03:00:00 GMT', '27', 'DAL', 'Dallas', 'Stars', '24', 'EDM', 'Edmonton', 'Oilers', '22', 'Rogers Place', '27', 'DAL', 'Dallas', 'Stars', '1', '0', '0', '0', '0', '0', '1', '2', '32', '27', '54.2', '5', '0', '0.0', '5', '0', '100.0', '0', '0', '3', '0', '23', '5', '10', '12']"
"['', '26636', '2013-11-14', '02:00:00 GMT', '27', 'DAL', 'Dallas', 'Stars', '23', 'CGY', 'Calgary', 'Flames', '18', 'Scotiabank Saddledome', '27', 'DAL', 'Dallas', 'Stars', '1', '0', '0', '0', '0', '0', '1', '2', '29', '31', '48.3', '3', '1', '33.3', '3', '1', '66.7', '0', '1', '7', '3', '25', '5', '16', '18']"
"['', '26662', '2013-11-17', '01:00:00 GMT', '27', 'DAL', 'Dallas', 'Stars', '21', 'VAN', 'Vancouver', 'Canucks', '7', 'Rogers Arena', '27', 'DAL', 'Dallas', 'Stars', '1', '0', '0', '0', '0', '0', '1', '2', '34', '28', '54.8', '2', '0', '0.0', '5', '1', '80.0', '0', '0', '2', '1', '21', '5', '10', '12']"
"['', '26685', '2013-11-21', '01:30:00 GMT', '9', 'NYR', 'New York', 'Rangers', '27', 'DAL', 'Dallas', 'Stars', '2', 'American Airlines Center', '27', 'DAL', 'Dallas', 'Stars', '0', '1', '0', '0', '0', '0', '0', '0', '35', '28', '55.6', '4', '1', '25.0', '1', '1', '0.0', '0', '0', '2', '3', '41', '3', '14', '18']"
"['', '26701', '2013-11-23', '01:00:00 GMT', '27', 'DAL', 'Dallas', 'Stars', '17', 'STL', 'St. Louis', 'Blues', '24', 'Scottrade Center', '27', 'DAL', 'Dallas', 'Stars', '0', '1', '0', '0', '0', '0', '0', '0', '32', '35', '47.8', '2', '0', '0.0', '3', '1', '66.7', '0', '0', '1', '6', '34', '5', '16', '16']"
"['', '26718', '2013-11-26', '01:00:00 GMT', '29', 'ANA', 'Anaheim', 'Ducks', '27', 'DAL', 'Dallas', 'Stars', '2', 'American Airlines Center', '27', 'DAL', 'Dallas', 'Stars', '1', '0', '0', '0', '0', '0', '1', '2', '41', '26', '61.2', '3', '0', '0.0', '2', '1', '50.0', '0', '0', '6', '3', '27', '2', '4', '21']"
"['', '26745', '2013-11-29', '01:30:00 GMT', '20', 'CHI', 'Chicago', 'Blackhawks', '27', 'DAL', 'Dallas', 'Stars', '2', 'American Airlines Center', '27', 'DAL', 'Dallas', 'Stars', '0', '0', '0', '1', '0', '0', '0', '1', '29', '25', '53.7', '1', '0', '0.0', '1', '0', '100.0', '0', '0', '1', '1', '28', '2', '4', '27']"
"['', '26759', '2013-12-01', '23:00:00 GMT', '24', 'EDM', 'Edmonton', 'Oilers', '27', 'DAL', 'Dallas', 'Stars', '2', 'American Airlines Center', '27', 'DAL', 'Dallas', 'Stars', '0', '0', '0', '1', '0', '0', '0', '1', '35', '22', '61.4', '4', '0', '0.0', '6', '0', '100.0', '1', '0', '2', '2', '43', '6', '12', '22']"
"['', '26769', '2013-12-03', '01:00:00 GMT', '27', 'DAL', 'Dallas', 'Stars', '20', 'CHI', 'Chicago', 'Blackhawks', '28', 'United Center', '27', 'DAL', 'Dallas', 'Stars', '1', '0', '0', '0', '0', '0', '1', '2', '35', '37', '48.6', '1', '1', '100.0', '5', '1', '80.0', '0', '0', '4', '3', '14', '6', '15', '33']"
"['', '26777', '2013-12-05', '00:00:00 GMT', '27', 'DAL', 'Dallas', 'Stars', '12', 'TOR', 'Toronto', 'Maple Leafs', '1', 'Air Canada Center', '27', 'DAL', 'Dallas', 'Stars', '0', '0', '0', '1', '0', '0', '0', '1', '46', '27', '63.0', '3', '1', '33.3', '2', '1', '50.0', '0', '0', '2', '3', '48', '3', '6', '41']"
"['', '26792', '2013-12-07', '19:00:00 GMT', '6', 'PHI', 'Philadelphia', 'Flyers', '27', 'DAL', 'Dallas', 'Stars', '2', 'American Airlines Center', '27', 'DAL', 'Dallas', 'Stars', '1', '0', '0', '0', '0', '0', '1', '2', '33', '34', '49.3', '3', '0', '0.0', '4', '0', '100.0', '1', '0', '5', '1', '29', '6', '20', '18']"
"['', '26819', '2013-12-10', '01:30:00 GMT', '20', 'CHI', 'Chicago', 'Blackhawks', '27', 'DAL', 'Dallas', 'Stars', '2', 'American Airlines Center', '27', 'DAL', 'Dallas', 'Stars', '0', '1', '0', '0', '0', '0', '0', '0', '29', '25', '53.7', '5', '0', '0.0', '5', '1', '80.0', '0', '0', '2', '6', '27', '8', '24', '37']"
"['', '26832', '2013-12-12', '01:00:00 GMT', '27', 'DAL', 'Dallas', 'Stars', '18', 'NSH', 'Nashville', 'Predators', '15', 'Bridgestone Arena', '27', 'DAL', 'Dallas', 'Stars', '0', '1', '0', '0', '0', '0', '0', '0', '30', '34', '46.9', '3', '0', '0.0', '3', '2', '33.3', '0', '0', '1', '3', '33', '3', '6', '13']"
"['', '26843', '2013-12-14', '20:00:00 GMT', '27', 'DAL', 'Dallas', 'Stars', '2', 'WPJ', 'Winnipeg', 'Jets', '39', 'MTS Centre', '27', 'DAL', 'Dallas', 'Stars', '1', '0', '0', '0', '0', '0', '1', '2', '30', '32', '48.4', '3', '2', '66.7', '3', '1', '66.7', '0', '0', '6', '4', '26', '6', '12', '16']"
"['', '26862', '2013-12-16', '02:00:00 GMT', '27', 'DAL', 'Dallas', 'Stars', '22', 'COL', 'Colorado', 'Avalanche', '19', 'Pepsi Center', '27', 'DAL', 'Dallas', 'Stars', '0', '1', '0', '0', '0', '0', '0', '0', '24', '28', '46.2', '4', '0', '0.0', '5', '0', '100.0', '0', '0', '2', '6', '31', '5', '10', '21']"
"['', '26873', '2013-12-17', '01:30:00 GMT', '22', 'COL', 'Colorado', 'Avalanche', '27', 'DAL', 'Dallas', 'Stars', '2', 'American Airlines Center', '27', 'DAL', 'Dallas', 'Stars', '1', '0', '0', '0', '0', '0', '1', '2', '30', '30', '50.0', '4', '1', '25.0', '5', '1', '80.0', '0', '1', '3', '2', '25', '8', '19', '27']"
"['', '26885', '2013-12-19', '01:30:00 GMT', '21', 'VAN', 'Vancouver', 'Canucks', '27', 'DAL', 'Dallas', 'Stars', '2', 'American Airlines Center', '27', 'DAL', 'Dallas', 'Stars', '1', '0', '0', '0', '0', '0', '1', '2', '23', '28', '45.1', '4', '0', '0.0', '3', '0', '100.0', '0', '0', '4', '1', '22', '3', '6', '20']"
"['', '26904', '2013-12-21', '03:30:00 GMT', '27', 'DAL', 'Dallas', 'Stars', '26', 'SJS', 'San Jose', 'Sharks', '9', 'SAP Center at San Jose', '27', 'DAL', 'Dallas', 'Stars', '0', '0', '0', '1', '0', '0', '0', '1', '33', '26', '55.9', '2', '0', '0.0', '3', '0', '100.0', '0', '0', '2', '2', '44', '3', '6', '13']"
"['', '26919', '2013-12-23', '03:30:00 GMT', '27', 'DAL', 'Dallas', 'Stars', '28', 'LAK', 'Los Angeles', 'Kings', '25', 'Staples Center', '27', 'DAL', 'Dallas', 'Stars', '1', '0', '0', '0', '0', '0', '1', '2', '24', '27', '47.1', '3', '1', '33.3', '2', '0', '100.0', '0', '0', '5', '2', '19', '3', '9', '18']"
"['', '26928', '2013-12-27', '01:30:00 GMT', '18', 'NSH', 'Nashville', 'Predators', '27', 'DAL', 'Dallas', 'Stars', '2', 'American Airlines Center', '27', 'DAL', 'Dallas', 'Stars', '1', '0', '0', '0', '0', '0', '1', '2', '46', '40', '53.5', '3', '0', '0.0', '3', '0', '100.0', '0', '0', '4', '1', '30', '6', '12', '14']"
"['', '26942', '2013-12-29', '23:00:00 GMT', '17', 'STL', 'St. Louis', 'Blues', '27', 'DAL', 'Dallas', 'Stars', '2', 'American Airlines Center', '27', 'DAL', 'Dallas', 'Stars', '0', '0', '0', '1', '0', '0', '0', '1', '37', '30', '55.2', '5', '1', '20.0', '2', '2', '0.0', '0', '0', '2', '3', '28', '2', '4', '27']"
"['', '26959', '2013-12-31', '01:00:00 GMT', '28', 'LAK', 'Los Angeles', 'Kings', '27', 'DAL', 'Dallas', 'Stars', '2', 'American Airlines Center', '27', 'DAL', 'Dallas', 'Stars', '1', '0', '0', '0', '0', '0', '1', '2', '33', '26', '55.9', '5', '2', '40.0', '2', '1', '50.0', '0', '0', '3', '2', '29', '3', '6', '28']"
"['', '26972', '2014-01-02', '01:30:00 GMT', '14', 'MTL', 'Montreal', 'Canadiens', '27', 'DAL', 'Dallas', 'Stars', '2', 'American Airlines Center', '27', 'DAL', 'Dallas', 'Stars', '0', '1', '0', '0', '0', '0', '0', '0', '42', '21', '66.7', '3', '1', '33.3', '4', '1', '75.0', '0', '0', '4', '6', '28', '7', '20', '24']"
"['', '26988', '2014-01-04', '01:00:00 GMT', '16', 'DET', 'Detroit', 'Red Wings', '27', 'DAL', 'Dallas', 'Stars', '2', 'American Airlines Center', '27', 'DAL', 'Dallas', 'Stars', '0', '1', '0', '0', '0', '0', '0', '0', '37', '22', '62.7', '5', '0', '0.0', '3', '0', '100.0', '1', '0', '1', '5', '44', '5', '18', '16']"
"['', '26997', '2014-01-06', '00:00:00 GMT', '27', 'DAL', 'Dallas', 'Stars', '8', 'NYI', 'New York', 'Islanders', '16', 'Nassau Veterans Memorial Coliseum', '27', 'DAL', 'Dallas', 'Stars', '0', '1', '0', '0', '0', '0', '0', '0', '27', '45', '37.5', '3', '1', '33.3', '5', '3', '40.0', '0', '0', '3', '7', '20', '6', '12', '15']"
"['', '27015', '2014-01-09', '00:00:00 GMT', '27', 'DAL', 'Dallas', 'Stars', '7', 'NJD', 'New Jersey', 'Devils', '37', 'Prudential Center', '27', 'DAL', 'Dallas', 'Stars', '0', '1', '0', '0', '0', '0', '0', '0', '33', '33', '50.0', '3', '0', '0.0', '2', '0', '100.0', '0', '0', '0', '1', '26', '2', '4', '15']"
"['', '27023', '2014-01-10', '00:00:00 GMT', '27', 'DAL', 'Dallas', 'Stars', '9', 'NYR', 'New York', 'Rangers', '12', 'Madison Square Garden', '27', 'DAL', 'Dallas', 'Stars', '0', '1', '0', '0', '0', '0', '0', '0', '28', '45', '38.4', '1', '0', '0.0', '3', '1', '66.7', '0', '0', '2', '3', '24', '3', '6', '21']"
"['', '27040', '2014-01-12', '23:00:00 GMT', '8', 'NYI', 'New York', 'Islanders', '27', 'DAL', 'Dallas', 'Stars', '2', 'American Airlines Center', '27', 'DAL', 'Dallas', 'Stars', '0', '1', '0', '0', '0', '0', '0', '0', '32', '26', '55.2', '2', '0', '0.0', '2', '0', '100.0', '0', '0', '2', '4', '29', '2', '4', '17']"
"['', '27060', '2014-01-14', '01:30:00 GMT', '24', 'EDM', 'Edmonton', 'Oilers', '27', 'DAL', 'Dallas', 'Stars', '2', 'American Airlines Center', '27', 'DAL', 'Dallas', 'Stars', '1', '0', '0', '0', '0', '0', '1', '2', '28', '24', '53.8', '1', '1', '100.0', '2', '1', '50.0', '0', '0', '5', '2', '25', '3', '9', '19']"
"['', '27071', '2014-01-16', '01:30:00 GMT', '11', 'BOS', 'Boston', 'Bruins', '27', 'DAL', 'Dallas', 'Stars', '2', 'American Airlines Center', '27', 'DAL', 'Dallas', 'Stars', '0', '1', '0', '0', '0', '0', '0', '0', '33', '40', '45.2', '6', '1', '16.7', '4', '1', '75.0', '0', '0', '2', '4', '32', '6', '12', '21']"
"['', '27088', '2014-01-18', '02:00:00 GMT', '27', 'DAL', 'Dallas', 'Stars', '25', 'MIN', 'Minnesota', 'Wild', '30', 'Xcel Energy Center', '27', 'DAL', 'Dallas', 'Stars', '0', '0', '0', '1', '0', '0', '0', '1', '33', '31', '51.6', '3', '1', '33.3', '2', '0', '100.0', '0', '0', '2', '3', '33', '4', '8', '7']"
"['', '27097', '2014-01-20', '01:00:00 GMT', '27', 'DAL', 'Dallas', 'Stars', '18', 'NSH', 'Nashville', 'Predators', '15', 'Bridgestone Arena', '27', 'DAL', 'Dallas', 'Stars', '0', '1', '0', '0', '0', '0', '0', '0', '29', '35', '45.3', '2', '1', '50.0', '2', '0', '100.0', '0', '0', '1', '4', '35', '3', '9', '13']"
"['', '27106', '2014-01-21', '01:00:00 GMT', '25', 'MIN', 'Minnesota', 'Wild', '27', 'DAL', 'Dallas', 'Stars', '2', 'American Airlines Center', '27', 'DAL', 'Dallas', 'Stars', '1', '0', '0', '0', '0', '0', '1', '2', '36', '22', '62.1', '7', '2', '28.6', '3', '0', '100.0', '0', '0', '4', '0', '32', '6', '15', '22']"
"['', '27119', '2014-01-23', '01:30:00 GMT', '12', 'TOR', 'Toronto', 'Maple Leafs', '27', 'DAL', 'Dallas', 'Stars', '2', 'American Airlines Center', '27', 'DAL', 'Dallas', 'Stars', '1', '0', '0', '0', '0', '0', '1', '2', '34', '25', '57.6', '2', '1', '50.0', '3', '0', '100.0', '1', '0', '7', '1', '21', '7', '22', '17']"
"['', '27135', '2014-01-25', '01:00:00 GMT', '10', 'PIT', 'Pittsburgh', 'Penguins', '27', 'DAL', 'Dallas', 'Stars', '2', 'American Airlines Center', '27', 'DAL', 'Dallas', 'Stars', '1', '0', '0', '0', '0', '0', '1', '2', '34', '29', '54.0', '3', '2', '66.7', '4', '0', '100.0', '0', '0', '3', '0', '25', '5', '10', '26']"
"['', '27145', '2014-01-27', '01:30:00 GMT', '22', 'COL', 'Colorado', 'Avalanche', '27', 'DAL', 'Dallas', 'Stars', '2', 'American Airlines Center', '27', 'DAL', 'Dallas', 'Stars', '0', '1', '0', '0', '0', '0', '0', '0', '29', '26', '52.7', '4', '1', '25.0', '2', '1', '50.0', '0', '0', '3', '4', '41', '3', '6', '26']"
"['', '27166', '2014-01-30', '01:30:00 GMT', '7', 'NJD', 'New Jersey', 'Devils', '27', 'DAL', 'Dallas', 'Stars', '2', 'American Airlines Center', '27', 'DAL', 'Dallas', 'Stars', '0', '0', '0', '1', '0', '0', '0', '1', '27', '31', '46.6', '3', '0', '0.0', '3', '2', '33.3', '0', '0', '2', '3', '14', '5', '10', '24']"
"['', '27186', '2014-02-01', '03:00:00 GMT', '27', 'DAL', 'Dallas', 'Stars', '29', 'ANA', 'Anaheim', 'Ducks', '8', 'Honda Center', '27', 'DAL', 'Dallas', 'Stars', '1', '0', '0', '0', '0', '0', '1', '2', '28', '25', '52.8', '3', '0', '0.0', '3', '0', '100.0', '0', '0', '2', '0', '25', '4', '8', '26']"
"['', '27204', '2014-02-04', '02:00:00 GMT', '27', 'DAL', 'Dallas', 'Stars', '30', 'PHX', 'Phoenix', 'Coyotes', '6', 'Jobing.com Arena', '27', 'DAL', 'Dallas', 'Stars', '1', '0', '0', '0', '0', '0', '1', '2', '29', '28', '50.9', '3', '1', '33.3', '2', '0', '100.0', '0', '0', '3', '1', '37', '2', '4', '23']"
"['', '27207', '2014-02-05', '03:30:00 GMT', '27', 'DAL', 'Dallas', 'Stars', '26', 'SJS', 'San Jose', 'Sharks', '9', 'SAP Center at San Jose', '27', 'DAL', 'Dallas', 'Stars', '0', '0', '0', '1', '0', '0', '0', '1', '38', '36', '51.4', '1', '0', '0.0', '3', '0', '100.0', '0', '0', '1', '2', '19', '3', '6', '20']"
"['', '27233', '2014-02-08', '01:00:00 GMT', '30', 'PHX', 'Phoenix', 'Coyotes', '27', 'DAL', 'Dallas', 'Stars', '2', 'American Airlines Center', '27', 'DAL', 'Dallas', 'Stars', '1', '0', '0', '0', '0', '0', '1', '2', '33', '26', '55.9', '4', '0', '0.0', '3', '1', '66.7', '0', '0', '2', '1', '31', '4', '8', '14']"
"['', '27247', '2014-02-27', '01:30:00 GMT', '3', 'CAR', 'Carolina', 'Hurricanes', '27', 'DAL', 'Dallas', 'Stars', '2', 'American Airlines Center', '27', 'DAL', 'Dallas', 'Stars', '1', '0', '0', '0', '0', '0', '1', '2', '28', '27', '50.9', '7', '0', '0.0', '4', '0', '100.0', '2', '0', '4', '1', '30', '8', '30', '21']"
"['', '27259', '2014-03-01', '20:00:00 GMT', '1', 'TBL', 'Tampa Bay', 'Lightning', '27', 'DAL', 'Dallas', 'Stars', '2', 'American Airlines Center', '27', 'DAL', 'Dallas', 'Stars', '0', '1', '0', '0', '0', '0', '0', '0', '36', '33', '52.2', '3', '0', '0.0', '1', '0', '100.0', '0', '0', '2', '4', '39', '3', '6', '19']"
"['', '27272', '2014-03-03', '01:00:00 GMT', '15', 'BUF', 'Buffalo', 'Sabres', '27', 'DAL', 'Dallas', 'Stars', '2', 'American Airlines Center', '27', 'DAL', 'Dallas', 'Stars', '1', '0', '0', '0', '0', '0', '1', '2', '31', '28', '52.5', '6', '1', '16.7', '1', '0', '100.0', '0', '0', '3', '2', '36', '1', '2', '16']"
"['', '27277', '2014-03-04', '00:00:00 GMT', '27', 'DAL', 'Dallas', 'Stars', '19', 'CBJ', 'Columbus', 'Blue Jackets', '17', 'Nationwide Arena', '27', 'DAL', 'Dallas', 'Stars', '0', '1', '0', '0', '0', '0', '0', '0', '27', '39', '40.9', '3', '1', '33.3', '2', '1', '50.0', '0', '0', '2', '4', '31', '3', '6', '24']"
"['', '27295', '2014-03-06', '01:30:00 GMT', '21', 'VAN', 'Vancouver', 'Canucks', '27', 'DAL', 'Dallas', 'Stars', '2', 'American Airlines Center', '27', 'DAL', 'Dallas', 'Stars', '1', '0', '0', '0', '0', '0', '1', '2', '30', '37', '44.8', '4', '2', '50.0', '4', '1', '75.0', '0', '0', '6', '1', '16', '6', '12', '16']"
"['', '27311', '2014-03-08', '01:30:00 GMT', '25', 'MIN', 'Minnesota', 'Wild', '27', 'DAL', 'Dallas', 'Stars', '2', 'American Airlines Center', '27', 'DAL', 'Dallas', 'Stars', '1', '0', '0', '0', '0', '0', '1', '2', '33', '34', '49.3', '4', '2', '50.0', '3', '1', '66.7', '0', '1', '4', '3', '34', '4', '8', '29']"
"['', '27333', '2014-03-11', '00:00:00 GMT', '27', 'DAL', 'Dallas', 'Stars', '17', 'STL', 'St. Louis', 'Blues', '24', 'Scottrade Center', '27', 'DAL', 'Dallas', 'Stars', '1', '0', '0', '0', '0', '0', '1', '2', '35', '31', '53.0', '2', '1', '50.0', '3', '0', '100.0', '0', '0', '3', '2', '27', '4', '8', '13']"
"['', '27353', '2014-03-14', '00:30:00 GMT', '23', 'CGY', 'Calgary', 'Flames', '27', 'DAL', 'Dallas', 'Stars', '2', 'American Airlines Center', '27', 'DAL', 'Dallas', 'Stars', '0', '0', '0', '1', '0', '0', '0', '1', '35', '29', '54.7', '0', '0', '0.0', '1', '1', '0.0', '0', '0', '3', '3', '22', '2', '4', '18']"
"['', '27372', '2014-03-16', '00:00:00 GMT', '27', 'DAL', 'Dallas', 'Stars', '2', 'WPJ', 'Winnipeg', 'Jets', '39', 'MTS Centre', '27', 'DAL', 'Dallas', 'Stars', '0', '1', '0', '0', '0', '0', '0', '0', '35', '36', '49.3', '2', '0', '0.0', '6', '1', '83.3', '0', '0', '2', '7', '25', '8', '24', '26']"
"['', '27379', '2014-03-18', '23:00:00 GMT', '27', 'DAL', 'Dallas', 'Stars', '10', 'PIT', 'Pittsburgh', 'Penguins', '40', 'Consol Energy Center', '27', 'DAL', 'Dallas', 'Stars', '0', '1', '0', '0', '0', '0', '0', '0', '24', '31', '43.6', '3', '0', '0.0', '3', '0', '100.0', '0', '1', '1', '5', '32', '6', '20', '15']"
"['', '27394', '2014-03-20', '23:00:00 GMT', '27', 'DAL', 'Dallas', 'Stars', '6', 'PHI', 'Philadelphia', 'Flyers', '29', 'Wells Fargo Center', '27', 'DAL', 'Dallas', 'Stars', '0', '1', '0', '0', '0', '0', '0', '0', '27', '35', '43.5', '3', '1', '33.3', '2', '1', '50.0', '0', '0', '2', '4', '33', '2', '4', '25']"
"['', '27409', '2014-03-22', '19:00:00 GMT', '13', 'OTT', 'Ottawa', 'Senators', '27', 'DAL', 'Dallas', 'Stars', '2', 'American Airlines Center', '27', 'DAL', 'Dallas', 'Stars', '1', '0', '0', '0', '0', '0', '1', '2', '29', '30', '49.2', '4', '0', '0.0', '5', '0', '100.0', '0', '0', '3', '1', '41', '11', '28', '22']"
"['', '27428', '2014-03-24', '00:30:00 GMT', '2', 'WPJ', 'Winnipeg', 'Jets', '27', 'DAL', 'Dallas', 'Stars', '2', 'American Airlines Center', '27', 'DAL', 'Dallas', 'Stars', '1', '0', '0', '0', '0', '0', '1', '2', '31', '41', '43.1', '4', '2', '50.0', '2', '1', '50.0', '0', '0', '2', '1', '25', '4', '8', '17']"
"['', '27437', '2014-03-25', '00:00:00 GMT', '27', 'DAL', 'Dallas', 'Stars', '20', 'CHI', 'Chicago', 'Blackhawks', '28', 'United Center', '27', 'DAL', 'Dallas', 'Stars', '0', '1', '0', '0', '0', '0', '0', '0', '22', '49', '31.0', '2', '0', '0.0', '3', '1', '66.7', '0', '0', '2', '4', '25', '4', '11', '23']"
"['', '27456', '2014-03-28', '00:30:00 GMT', '18', 'NSH', 'Nashville', 'Predators', '27', 'DAL', 'Dallas', 'Stars', '2', 'American Airlines Center', '27', 'DAL', 'Dallas', 'Stars', '1', '0', '0', '0', '0', '0', '1', '2', '31', '33', '48.4', '1', '1', '100.0', '1', '0', '100.0', '0', '0', '7', '3', '22', '1', '2', '14']"
"['', '27465', '2014-03-29', '00:00:00 GMT', '27', 'DAL', 'Dallas', 'Stars', '17', 'STL', 'St. Louis', 'Blues', '24', 'Scottrade Center', '27', 'DAL', 'Dallas', 'Stars', '1', '0', '0', '0', '0', '0', '1', '2', '26', '37', '41.3', '3', '0', '0.0', '3', '2', '33.3', '0', '0', '4', '2', '23', '7', '22', '19']"
"['', '27483', '2014-04-01', '23:00:00 GMT', '27', 'DAL', 'Dallas', 'Stars', '5', 'WSH', 'Washington', 'Capitals', '13', 'Verizon Center', '27', 'DAL', 'Dallas', 'Stars', '1', '0', '0', '0', '0', '0', '1', '2', '27', '33', '45.0', '2', '0', '0.0', '5', '0', '100.0', '1', '0', '5', '0', '31', '5', '10', '22']"
"['', '27496', '2014-04-03', '23:00:00 GMT', '27', 'DAL', 'Dallas', 'Stars', '3', 'CAR', 'Carolina', 'Hurricanes', '21', 'RBC Center', '27', 'DAL', 'Dallas', 'Stars', '0', '1', '0', '0', '0', '0', '0', '0', '27', '32', '45.8', '3', '0', '0.0', '5', '2', '60.0', '0', '0', '1', '4', '33', '7', '30', '17']"
"['', '27515', '2014-04-05', '23:00:00 GMT', '27', 'DAL', 'Dallas', 'Stars', '1', 'TBL', 'Tampa Bay', 'Lightning', '26', 'Tampa Bay Times Forum', '27', 'DAL', 'Dallas', 'Stars', '1', '0', '0', '0', '0', '0', '1', '2', '26', '33', '44.1', '4', '0', '0.0', '4', '0', '100.0', '0', '0', '5', '2', '23', '4', '8', '14']"
"['', '27521', '2014-04-06', '21:00:00 GMT', '27', 'DAL', 'Dallas', 'Stars', '4', 'FLO', 'Florida', 'Panthers', '3', 'BB&T Center', '27', 'DAL', 'Dallas', 'Stars', '0', '1', '0', '0', '0', '0', '0', '0', '30', '37', '44.8', '6', '1', '16.7', '1', '0', '100.0', '0', '0', '2', '3', '35', '1', '2', '13']"
"['', '27538', '2014-04-08', '00:30:00 GMT', '18', 'NSH', 'Nashville', 'Predators', '27', 'DAL', 'Dallas', 'Stars', '2', 'American Airlines Center', '27', 'DAL', 'Dallas', 'Stars', '1', '0', '0', '0', '0', '0', '0', '2', '27', '29', '48.2', '2', '0', '0.0', '1', '0', '100.0', '0', '0', '2', '2', '28', '1', '2', '19']"
"['', '27591', '2014-04-09', '23:30:00 GMT', '19', 'CBJ', 'Columbus', 'Blue Jackets', '27', 'DAL', 'Dallas', 'Stars', '2', 'American Airlines Center', '27', 'DAL', 'Dallas', 'Stars', '0', '1', '0', '0', '0', '0', '0', '0', '30', '26', '53.6', '4', '1', '25.0', '2', '0', '100.0', '0', '0', '1', '3', '33', '3', '6', '18']"
"['', '27559', '2014-04-11', '00:30:00 GMT', '17', 'STL', 'St. Louis', 'Blues', '27', 'DAL', 'Dallas', 'Stars', '2', 'American Airlines Center', '27', 'DAL', 'Dallas', 'Stars', '1', '0', '0', '0', '0', '0', '1', '2', '29', '31', '48.3', '5', '1', '20.0', '2', '0', '100.0', '0', '0', '3', '0', '37', '4', '8', '25']"
"['', '27579', '2014-04-13', '01:00:00 GMT', '27', 'DAL', 'Dallas', 'Stars', '30', 'PHX', 'Phoenix', 'Coyotes', '6', 'Jobing.com Arena', '27', 'DAL', 'Dallas', 'Stars', '0', '1', '0', '0', '0', '0', '0', '0', '22', '32', '40.7', '1', '1', '100.0', '5', '0', '100.0', '0', '0', '1', '2', '16', '7', '22', '10']"
