"['#Date/Time of Update: 2018-12-10 19:03:04 GMT', '#Game ID', '#Game Date', '#Game Time', '#Away Team ID', '#Away Team Abbr.', '#Away Team City', '#Away Team Name', '#Home Team ID', '#Home Team Abbr.', '#Home Team City', '#Home Team Name', '#Venue ID', '#Venue Name', '#Team ID', '#Team Abbr.', '#Team City', '#Team Name', '#Wins', '#Losses', '#OvertimeWins', '#OvertimeLosses', '#ShootoutWins', '#ShootoutLosses', '#Rows', '#Points', '#FaceoffWins', '#FaceoffLosses', '#FaceoffPercent', '#Powerplays', '#PowerplayGoals', '#PowerplayPercent', '#PenaltyKills', '#PenaltyKillGoalsAllowed', '#PenaltyKillPercent', '#ShorthandedGoalsFor', '#ShorthandedGoalsAgainst', '#GoalsFor', '#GoalsAgainst', '#Shots', '#Penalties', '#PenaltyMinutes', '#Hits']"
"['', '14909', '2011-10-09', '01:00:00 GMT', '10', 'PIT', 'Pittsburgh', 'Penguins', '24', 'EDM', 'Edmonton', 'Oilers', '22', 'Rogers Place', '24', 'EDM', 'Edmonton', 'Oilers', '1', '0', '0', '0', '0', '0', '0', '2', '38', '39', '49.4', '4', '0', '0.0', '8', '1', '87.5', '0', '0', '1', '1', '34', '10', '31', '17']"
"['', '14929', '2011-10-13', '00:00:00 GMT', '24', 'EDM', 'Edmonton', 'Oilers', '25', 'MIN', 'Minnesota', 'Wild', '30', 'Xcel Energy Center', '24', 'EDM', 'Edmonton', 'Oilers', '0', '0', '0', '1', '0', '0', '0', '1', '25', '25', '50.0', '2', '0', '0.0', '3', '0', '100.0', '0', '0', '1', '1', '21', '6', '12', '22']"
"['', '14946', '2011-10-15', '02:00:00 GMT', '21', 'VAN', 'Vancouver', 'Canucks', '24', 'EDM', 'Edmonton', 'Oilers', '22', 'Rogers Place', '24', 'EDM', 'Edmonton', 'Oilers', '0', '1', '0', '0', '0', '0', '0', '0', '37', '31', '54.4', '6', '2', '33.3', '3', '2', '33.3', '0', '0', '3', '4', '27', '5', '16', '14']"
"['', '14952', '2011-10-17', '01:30:00 GMT', '18', 'NSH', 'Nashville', 'Predators', '24', 'EDM', 'Edmonton', 'Oilers', '22', 'Rogers Place', '24', 'EDM', 'Edmonton', 'Oilers', '1', '0', '0', '0', '0', '0', '1', '2', '30', '29', '50.8', '5', '1', '20.0', '4', '0', '100.0', '0', '0', '3', '1', '22', '5', '10', '13']"
"['', '14960', '2011-10-18', '01:00:00 GMT', '24', 'EDM', 'Edmonton', 'Oilers', '23', 'CGY', 'Calgary', 'Flames', '18', 'Scotiabank Saddledome', '24', 'EDM', 'Edmonton', 'Oilers', '0', '1', '0', '0', '0', '0', '0', '0', '18', '28', '39.1', '5', '1', '20.0', '3', '0', '100.0', '0', '0', '1', '2', '24', '4', '16', '17']"
"['', '14973', '2011-10-20', '01:30:00 GMT', '25', 'MIN', 'Minnesota', 'Wild', '24', 'EDM', 'Edmonton', 'Oilers', '22', 'Rogers Place', '24', 'EDM', 'Edmonton', 'Oilers', '0', '0', '0', '1', '0', '0', '0', '1', '31', '27', '53.4', '2', '0', '0.0', '3', '0', '100.0', '0', '0', '1', '1', '30', '5', '13', '20']"
"['', '14992', '2011-10-22', '02:00:00 GMT', '9', 'NYR', 'New York', 'Rangers', '24', 'EDM', 'Edmonton', 'Oilers', '22', 'Rogers Place', '24', 'EDM', 'Edmonton', 'Oilers', '1', '0', '0', '0', '0', '0', '1', '2', '26', '19', '57.8', '3', '1', '33.3', '4', '0', '100.0', '0', '0', '2', '0', '25', '6', '15', '16']"
"['', '15004', '2011-10-25', '01:30:00 GMT', '21', 'VAN', 'Vancouver', 'Canucks', '24', 'EDM', 'Edmonton', 'Oilers', '22', 'Rogers Place', '24', 'EDM', 'Edmonton', 'Oilers', '1', '0', '0', '0', '0', '0', '1', '2', '22', '27', '44.9', '3', '0', '0.0', '4', '0', '100.0', '0', '0', '3', '2', '19', '4', '8', '20']"
"['', '15019', '2011-10-27', '01:30:00 GMT', '5', 'WSH', 'Washington', 'Capitals', '24', 'EDM', 'Edmonton', 'Oilers', '22', 'Rogers Place', '24', 'EDM', 'Edmonton', 'Oilers', '1', '0', '0', '0', '0', '0', '1', '2', '24', '29', '45.3', '8', '2', '25.0', '4', '0', '100.0', '0', '0', '2', '1', '17', '6', '12', '12']"
"['', '15023', '2011-10-28', '01:00:00 GMT', '24', 'EDM', 'Edmonton', 'Oilers', '22', 'COL', 'Colorado', 'Avalanche', '19', 'Pepsi Center', '24', 'EDM', 'Edmonton', 'Oilers', '1', '0', '0', '0', '0', '0', '1', '2', '20', '35', '36.4', '3', '1', '33.3', '4', '1', '75.0', '0', '0', '3', '1', '16', '6', '15', '13']"
"['', '15041', '2011-10-30', '00:00:00 GMT', '17', 'STL', 'St. Louis', 'Blues', '24', 'EDM', 'Edmonton', 'Oilers', '22', 'Rogers Place', '24', 'EDM', 'Edmonton', 'Oilers', '1', '0', '0', '0', '0', '0', '1', '2', '29', '27', '51.8', '4', '2', '50.0', '1', '1', '0.0', '0', '0', '4', '2', '26', '3', '6', '11']"
"['', '15061', '2011-11-03', '02:30:00 GMT', '24', 'EDM', 'Edmonton', 'Oilers', '28', 'LAK', 'Los Angeles', 'Kings', '25', 'Staples Center', '24', 'EDM', 'Edmonton', 'Oilers', '1', '0', '0', '0', '0', '0', '1', '2', '21', '30', '41.2', '4', '0', '0.0', '2', '0', '100.0', '0', '0', '3', '0', '24', '3', '6', '20']"
"['', '15077', '2011-11-05', '02:00:00 GMT', '24', 'EDM', 'Edmonton', 'Oilers', '30', 'PHX', 'Phoenix', 'Coyotes', '6', 'Jobing.com Arena', '24', 'EDM', 'Edmonton', 'Oilers', '0', '1', '0', '0', '0', '0', '0', '0', '22', '26', '45.8', '2', '0', '0.0', '2', '1', '50.0', '0', '0', '2', '4', '24', '2', '4', '27']"
"['', '15091', '2011-11-08', '00:30:00 GMT', '24', 'EDM', 'Edmonton', 'Oilers', '14', 'MTL', 'Montreal', 'Canadiens', '4', 'Bell Centre', '24', 'EDM', 'Edmonton', 'Oilers', '1', '0', '0', '0', '0', '0', '1', '2', '23', '29', '44.2', '2', '0', '0.0', '5', '0', '100.0', '1', '0', '3', '1', '11', '6', '12', '21']"
"['', '15099', '2011-11-10', '00:00:00 GMT', '24', 'EDM', 'Edmonton', 'Oilers', '11', 'BOS', 'Boston', 'Bruins', '27', 'TD Garden', '24', 'EDM', 'Edmonton', 'Oilers', '0', '1', '0', '0', '0', '0', '0', '0', '25', '34', '42.4', '3', '1', '33.3', '5', '2', '60.0', '0', '0', '3', '6', '27', '5', '10', '17']"
"['', '15111', '2011-11-11', '00:30:00 GMT', '24', 'EDM', 'Edmonton', 'Oilers', '16', 'DET', 'Detroit', 'Red Wings', '11', 'Joe Louis Arena', '24', 'EDM', 'Edmonton', 'Oilers', '0', '1', '0', '0', '0', '0', '0', '0', '19', '21', '47.5', '3', '0', '0.0', '5', '0', '100.0', '0', '0', '0', '3', '24', '8', '27', '17']"
"['', '15126', '2011-11-13', '00:00:00 GMT', '24', 'EDM', 'Edmonton', 'Oilers', '20', 'CHI', 'Chicago', 'Blackhawks', '28', 'United Center', '24', 'EDM', 'Edmonton', 'Oilers', '0', '1', '0', '0', '0', '0', '0', '0', '24', '22', '52.2', '3', '1', '33.3', '3', '1', '66.7', '0', '0', '3', '6', '20', '4', '8', '29']"
"['', '15153', '2011-11-17', '02:30:00 GMT', '13', 'OTT', 'Ottawa', 'Senators', '24', 'EDM', 'Edmonton', 'Oilers', '22', 'Rogers Place', '24', 'EDM', 'Edmonton', 'Oilers', '0', '1', '0', '0', '0', '0', '0', '0', '36', '21', '63.2', '2', '1', '50.0', '3', '0', '100.0', '1', '0', '2', '5', '22', '4', '8', '19']"
"['', '15170', '2011-11-19', '03:00:00 GMT', '20', 'CHI', 'Chicago', 'Blackhawks', '24', 'EDM', 'Edmonton', 'Oilers', '22', 'Rogers Place', '24', 'EDM', 'Edmonton', 'Oilers', '1', '0', '0', '0', '0', '0', '1', '2', '28', '35', '44.4', '7', '4', '57.1', '5', '2', '60.0', '0', '0', '9', '2', '25', '8', '27', '13']"
"['', '15181', '2011-11-21', '01:30:00 GMT', '24', 'EDM', 'Edmonton', 'Oilers', '27', 'DAL', 'Dallas', 'Stars', '2', 'American Airlines Center', '24', 'EDM', 'Edmonton', 'Oilers', '0', '1', '0', '0', '0', '0', '0', '0', '25', '24', '51.0', '5', '0', '0.0', '3', '0', '100.0', '0', '1', '1', '4', '17', '3', '6', '33']"
"['', '15184', '2011-11-22', '01:00:00 GMT', '24', 'EDM', 'Edmonton', 'Oilers', '18', 'NSH', 'Nashville', 'Predators', '15', 'Bridgestone Arena', '24', 'EDM', 'Edmonton', 'Oilers', '1', '0', '0', '0', '0', '0', '1', '2', '28', '36', '43.8', '2', '2', '100.0', '6', '1', '83.3', '0', '0', '6', '2', '26', '7', '17', '14']"
"['', '15201', '2011-11-25', '19:00:00 GMT', '24', 'EDM', 'Edmonton', 'Oilers', '25', 'MIN', 'Minnesota', 'Wild', '30', 'Xcel Energy Center', '24', 'EDM', 'Edmonton', 'Oilers', '1', '0', '0', '0', '0', '0', '1', '2', '15', '37', '28.8', '2', '1', '50.0', '4', '1', '75.0', '0', '0', '5', '2', '24', '4', '8', '18']"
"['', '15213', '2011-11-26', '20:00:00 GMT', '24', 'EDM', 'Edmonton', 'Oilers', '22', 'COL', 'Colorado', 'Avalanche', '19', 'Pepsi Center', '24', 'EDM', 'Edmonton', 'Oilers', '0', '1', '0', '0', '0', '0', '0', '0', '29', '29', '50.0', '3', '0', '0.0', '3', '1', '66.7', '0', '0', '2', '5', '31', '3', '6', '12']"
"['', '15228', '2011-11-28', '02:30:00 GMT', '18', 'NSH', 'Nashville', 'Predators', '24', 'EDM', 'Edmonton', 'Oilers', '22', 'Rogers Place', '24', 'EDM', 'Edmonton', 'Oilers', '0', '1', '0', '0', '0', '0', '0', '0', '28', '26', '51.9', '3', '0', '0.0', '2', '1', '50.0', '0', '0', '1', '2', '17', '3', '9', '13']"
"['', '15241', '2011-11-30', '02:30:00 GMT', '25', 'MIN', 'Minnesota', 'Wild', '24', 'EDM', 'Edmonton', 'Oilers', '22', 'Rogers Place', '24', 'EDM', 'Edmonton', 'Oilers', '0', '0', '0', '1', '0', '0', '0', '1', '25', '38', '39.7', '3', '1', '33.3', '5', '1', '80.0', '0', '0', '2', '2', '28', '7', '17', '23']"
"['', '15255', '2011-12-02', '02:30:00 GMT', '19', 'CBJ', 'Columbus', 'Blue Jackets', '24', 'EDM', 'Edmonton', 'Oilers', '22', 'Rogers Place', '24', 'EDM', 'Edmonton', 'Oilers', '1', '0', '0', '0', '0', '0', '1', '2', '35', '31', '53.0', '2', '1', '50.0', '5', '1', '80.0', '0', '1', '6', '3', '28', '6', '15', '16']"
"['', '15267', '2011-12-03', '03:00:00 GMT', '23', 'CGY', 'Calgary', 'Flames', '24', 'EDM', 'Edmonton', 'Oilers', '22', 'Rogers Place', '24', 'EDM', 'Edmonton', 'Oilers', '0', '1', '0', '0', '0', '0', '0', '0', '29', '35', '45.3', '6', '0', '0.0', '3', '2', '33.3', '0', '0', '3', '5', '26', '3', '6', '17']"
"['', '15289', '2011-12-07', '02:30:00 GMT', '3', 'CAR', 'Carolina', 'Hurricanes', '24', 'EDM', 'Edmonton', 'Oilers', '22', 'Rogers Place', '24', 'EDM', 'Edmonton', 'Oilers', '0', '1', '0', '0', '0', '0', '0', '0', '32', '27', '54.2', '4', '0', '0.0', '5', '2', '60.0', '0', '1', '3', '5', '22', '9', '29', '11']"
"['', '15305', '2011-12-09', '02:30:00 GMT', '22', 'COL', 'Colorado', 'Avalanche', '24', 'EDM', 'Edmonton', 'Oilers', '22', 'Rogers Place', '24', 'EDM', 'Edmonton', 'Oilers', '1', '0', '0', '0', '0', '0', '1', '2', '32', '26', '55.2', '4', '2', '50.0', '3', '0', '100.0', '0', '0', '4', '1', '31', '3', '6', '19']"
"['', '15316', '2011-12-10', '03:00:00 GMT', '24', 'EDM', 'Edmonton', 'Oilers', '23', 'CGY', 'Calgary', 'Flames', '18', 'Scotiabank Saddledome', '24', 'EDM', 'Edmonton', 'Oilers', '0', '1', '0', '0', '0', '0', '0', '0', '27', '28', '49.1', '3', '0', '0.0', '5', '1', '80.0', '0', '0', '0', '3', '21', '7', '14', '22']"
"['', '15344', '2011-12-15', '02:30:00 GMT', '24', 'EDM', 'Edmonton', 'Oilers', '30', 'PHX', 'Phoenix', 'Coyotes', '6', 'Jobing.com Arena', '24', 'EDM', 'Edmonton', 'Oilers', '0', '1', '0', '0', '0', '0', '0', '0', '32', '26', '55.2', '3', '2', '66.7', '3', '0', '100.0', '0', '0', '2', '4', '18', '3', '6', '39']"
"['', '15362', '2011-12-17', '03:00:00 GMT', '24', 'EDM', 'Edmonton', 'Oilers', '26', 'SJS', 'San Jose', 'Sharks', '9', 'HP Pavilion at San Jose', '24', 'EDM', 'Edmonton', 'Oilers', '0', '1', '0', '0', '0', '0', '0', '0', '24', '34', '41.4', '1', '0', '0.0', '4', '1', '75.0', '1', '0', '2', '3', '23', '5', '10', '15']"
"['', '15370', '2011-12-19', '02:30:00 GMT', '16', 'DET', 'Detroit', 'Red Wings', '24', 'EDM', 'Edmonton', 'Oilers', '22', 'Rogers Place', '24', 'EDM', 'Edmonton', 'Oilers', '0', '1', '0', '0', '0', '0', '0', '0', '26', '28', '48.1', '5', '1', '20.0', '2', '0', '100.0', '0', '0', '2', '3', '21', '2', '4', '18']"
"['', '15391', '2011-12-22', '02:30:00 GMT', '25', 'MIN', 'Minnesota', 'Wild', '24', 'EDM', 'Edmonton', 'Oilers', '22', 'Rogers Place', '24', 'EDM', 'Edmonton', 'Oilers', '1', '0', '0', '0', '0', '0', '1', '2', '20', '32', '38.5', '4', '1', '25.0', '5', '0', '100.0', '1', '0', '4', '1', '26', '6', '23', '17']"
"['', '15411', '2011-12-26', '03:00:00 GMT', '24', 'EDM', 'Edmonton', 'Oilers', '21', 'VAN', 'Vancouver', 'Canucks', '7', 'Rogers Arena', '24', 'EDM', 'Edmonton', 'Oilers', '0', '1', '0', '0', '0', '0', '0', '0', '22', '32', '40.7', '5', '2', '40.0', '3', '0', '100.0', '0', '1', '3', '5', '18', '7', '14', '15']"
"['', '15431', '2011-12-29', '01:00:00 GMT', '24', 'EDM', 'Edmonton', 'Oilers', '25', 'MIN', 'Minnesota', 'Wild', '30', 'Xcel Energy Center', '24', 'EDM', 'Edmonton', 'Oilers', '0', '1', '0', '0', '0', '0', '0', '0', '30', '32', '48.4', '3', '0', '0.0', '0', '0', '0.0', '0', '0', '3', '4', '27', '10', '34', '10']"
"['', '15442', '2011-12-31', '18:00:00 GMT', '24', 'EDM', 'Edmonton', 'Oilers', '8', 'NYI', 'New York', 'Islanders', '16', 'Nassau Veterans Memorial Coliseum', '24', 'EDM', 'Edmonton', 'Oilers', '0', '1', '0', '0', '0', '0', '0', '0', '25', '25', '50.0', '4', '0', '0.0', '3', '2', '33.3', '0', '0', '1', '4', '28', '4', '16', '20']"
"['', '15456', '2012-01-02', '01:30:00 GMT', '24', 'EDM', 'Edmonton', 'Oilers', '20', 'CHI', 'Chicago', 'Blackhawks', '28', 'United Center', '24', 'EDM', 'Edmonton', 'Oilers', '1', '0', '0', '0', '0', '0', '1', '2', '32', '27', '54.2', '3', '2', '66.7', '5', '0', '100.0', '0', '0', '4', '3', '26', '5', '10', '16']"
"['', '15459', '2012-01-03', '00:00:00 GMT', '24', 'EDM', 'Edmonton', 'Oilers', '15', 'BUF', 'Buffalo', 'Sabres', '10', 'First Niagara Center', '24', 'EDM', 'Edmonton', 'Oilers', '0', '1', '0', '0', '0', '0', '0', '0', '25', '20', '55.6', '3', '1', '33.3', '2', '0', '100.0', '0', '0', '3', '4', '23', '2', '4', '23']"
"['', '15474', '2012-01-05', '01:00:00 GMT', '24', 'EDM', 'Edmonton', 'Oilers', '17', 'STL', 'St. Louis', 'Blues', '24', 'Scottrade Center', '24', 'EDM', 'Edmonton', 'Oilers', '0', '1', '0', '0', '0', '0', '0', '0', '33', '32', '50.8', '4', '2', '50.0', '6', '2', '66.7', '0', '0', '3', '4', '29', '8', '16', '12']"
"['', '15485', '2012-01-07', '19:00:00 GMT', '24', 'EDM', 'Edmonton', 'Oilers', '27', 'DAL', 'Dallas', 'Stars', '2', 'American Airlines Center', '24', 'EDM', 'Edmonton', 'Oilers', '0', '1', '0', '0', '0', '0', '0', '0', '21', '30', '41.2', '2', '0', '0.0', '2', '0', '100.0', '0', '0', '1', '4', '25', '3', '9', '30']"
"['', '15515', '2012-01-11', '02:00:00 GMT', '7', 'NJD', 'New Jersey', 'Devils', '24', 'EDM', 'Edmonton', 'Oilers', '22', 'Rogers Place', '24', 'EDM', 'Edmonton', 'Oilers', '0', '0', '0', '1', '0', '0', '0', '1', '25', '24', '51.0', '5', '1', '20.0', '1', '1', '0.0', '0', '1', '1', '2', '22', '2', '4', '12']"
"['', '15531', '2012-01-13', '02:30:00 GMT', '29', 'ANA', 'Anaheim', 'Ducks', '24', 'EDM', 'Edmonton', 'Oilers', '22', 'Rogers Place', '24', 'EDM', 'Edmonton', 'Oilers', '0', '1', '0', '0', '0', '0', '0', '0', '36', '20', '64.3', '2', '0', '0.0', '2', '2', '0.0', '0', '0', '0', '5', '33', '4', '11', '21']"
"['', '15547', '2012-01-15', '01:00:00 GMT', '28', 'LAK', 'Los Angeles', 'Kings', '24', 'EDM', 'Edmonton', 'Oilers', '22', 'Rogers Place', '24', 'EDM', 'Edmonton', 'Oilers', '1', '0', '0', '0', '0', '0', '1', '2', '21', '26', '44.7', '3', '2', '66.7', '3', '0', '100.0', '0', '0', '2', '1', '31', '3', '6', '28']"
"['', '15560', '2012-01-17', '00:00:00 GMT', '24', 'EDM', 'Edmonton', 'Oilers', '19', 'CBJ', 'Columbus', 'Blue Jackets', '17', 'Nationwide Arena', '24', 'EDM', 'Edmonton', 'Oilers', '0', '1', '0', '0', '0', '0', '0', '0', '24', '28', '46.2', '3', '0', '0.0', '2', '2', '0.0', '0', '0', '2', '4', '21', '2', '4', '23']"
"['', '15575', '2012-01-19', '01:00:00 GMT', '24', 'EDM', 'Edmonton', 'Oilers', '17', 'STL', 'St. Louis', 'Blues', '24', 'Scottrade Center', '24', 'EDM', 'Edmonton', 'Oilers', '0', '1', '0', '0', '0', '0', '0', '0', '23', '33', '41.1', '2', '0', '0.0', '5', '0', '100.0', '0', '0', '0', '1', '15', '7', '17', '16']"
"['', '15596', '2012-01-21', '03:00:00 GMT', '23', 'CGY', 'Calgary', 'Flames', '24', 'EDM', 'Edmonton', 'Oilers', '22', 'Rogers Place', '24', 'EDM', 'Edmonton', 'Oilers', '0', '1', '0', '0', '0', '0', '0', '0', '23', '18', '56.1', '2', '0', '0.0', '5', '1', '80.0', '0', '0', '2', '6', '21', '5', '10', '24']"
"['', '15605', '2012-01-23', '02:30:00 GMT', '26', 'SJS', 'San Jose', 'Sharks', '24', 'EDM', 'Edmonton', 'Oilers', '22', 'Rogers Place', '24', 'EDM', 'Edmonton', 'Oilers', '1', '0', '0', '0', '0', '0', '0', '2', '35', '38', '47.9', '1', '0', '0.0', '1', '1', '0.0', '0', '0', '1', '1', '17', '2', '15', '14']"
"['', '15619', '2012-01-24', '03:00:00 GMT', '24', 'EDM', 'Edmonton', 'Oilers', '21', 'VAN', 'Vancouver', 'Canucks', '7', 'Rogers Arena', '24', 'EDM', 'Edmonton', 'Oilers', '0', '0', '0', '1', '0', '0', '0', '1', '34', '17', '66.7', '1', '1', '100.0', '2', '0', '100.0', '0', '0', '2', '2', '30', '2', '4', '24']"
"['', '15631', '2012-01-31', '02:30:00 GMT', '22', 'COL', 'Colorado', 'Avalanche', '24', 'EDM', 'Edmonton', 'Oilers', '22', 'Rogers Place', '24', 'EDM', 'Edmonton', 'Oilers', '1', '0', '0', '0', '0', '0', '1', '2', '29', '21', '58.0', '2', '1', '50.0', '2', '0', '100.0', '0', '0', '3', '2', '20', '2', '4', '19']"
"['', '15644', '2012-02-02', '02:30:00 GMT', '20', 'CHI', 'Chicago', 'Blackhawks', '24', 'EDM', 'Edmonton', 'Oilers', '22', 'Rogers Place', '24', 'EDM', 'Edmonton', 'Oilers', '1', '0', '0', '0', '0', '0', '1', '2', '30', '34', '46.9', '7', '1', '14.3', '3', '0', '100.0', '0', '1', '8', '4', '33', '3', '6', '13']"
"['', '15663', '2012-02-04', '03:00:00 GMT', '16', 'DET', 'Detroit', 'Red Wings', '24', 'EDM', 'Edmonton', 'Oilers', '22', 'Rogers Place', '24', 'EDM', 'Edmonton', 'Oilers', '1', '0', '0', '0', '0', '0', '0', '2', '34', '40', '45.9', '3', '2', '66.7', '3', '0', '100.0', '0', '1', '4', '4', '28', '6', '15', '14']"
"['', '15668', '2012-02-06', '00:00:00 GMT', '24', 'EDM', 'Edmonton', 'Oilers', '12', 'TOR', 'Toronto', 'Maple Leafs', '1', 'Air Canada Center', '24', 'EDM', 'Edmonton', 'Oilers', '0', '1', '0', '0', '0', '0', '0', '0', '30', '34', '46.9', '0', '0', '0.0', '0', '0', '0.0', '0', '0', '3', '6', '27', '0', '0', '30']"
"['', '15683', '2012-02-08', '00:30:00 GMT', '24', 'EDM', 'Edmonton', 'Oilers', '16', 'DET', 'Detroit', 'Red Wings', '11', 'Joe Louis Arena', '24', 'EDM', 'Edmonton', 'Oilers', '0', '1', '0', '0', '0', '0', '0', '0', '26', '31', '45.6', '6', '1', '16.7', '4', '1', '75.0', '0', '0', '2', '4', '15', '5', '13', '22']"
"['', '15705', '2012-02-11', '19:00:00 GMT', '24', 'EDM', 'Edmonton', 'Oilers', '13', 'OTT', 'Ottawa', 'Senators', '23', 'Scotiabank Place', '24', 'EDM', 'Edmonton', 'Oilers', '1', '0', '0', '0', '0', '0', '1', '2', '28', '33', '45.9', '2', '0', '0.0', '2', '0', '100.0', '0', '0', '4', '3', '36', '2', '4', '24']"
"['', '15734', '2012-02-15', '03:00:00 GMT', '12', 'TOR', 'Toronto', 'Maple Leafs', '24', 'EDM', 'Edmonton', 'Oilers', '22', 'Rogers Place', '24', 'EDM', 'Edmonton', 'Oilers', '0', '0', '0', '1', '0', '0', '0', '1', '26', '26', '50.0', '1', '0', '0.0', '3', '1', '66.7', '0', '0', '3', '4', '29', '4', '11', '20']"
"['', '15749', '2012-02-17', '02:30:00 GMT', '22', 'COL', 'Colorado', 'Avalanche', '24', 'EDM', 'Edmonton', 'Oilers', '22', 'Rogers Place', '24', 'EDM', 'Edmonton', 'Oilers', '0', '1', '0', '0', '0', '0', '0', '0', '27', '27', '50.0', '3', '0', '0.0', '4', '1', '75.0', '0', '0', '1', '3', '26', '4', '8', '15']"
"['', '15766', '2012-02-19', '01:00:00 GMT', '21', 'VAN', 'Vancouver', 'Canucks', '24', 'EDM', 'Edmonton', 'Oilers', '22', 'Rogers Place', '24', 'EDM', 'Edmonton', 'Oilers', '0', '1', '0', '0', '0', '0', '0', '0', '21', '26', '44.7', '1', '0', '0.0', '5', '1', '80.0', '0', '0', '2', '5', '26', '5', '10', '22']"
"['', '15779', '2012-02-21', '02:00:00 GMT', '24', 'EDM', 'Edmonton', 'Oilers', '23', 'CGY', 'Calgary', 'Flames', '18', 'Scotiabank Saddledome', '24', 'EDM', 'Edmonton', 'Oilers', '1', '0', '0', '0', '0', '0', '1', '2', '29', '29', '50.0', '3', '1', '33.3', '1', '0', '100.0', '0', '0', '6', '1', '36', '1', '2', '17']"
"['', '15792', '2012-02-23', '02:30:00 GMT', '6', 'PHI', 'Philadelphia', 'Flyers', '24', 'EDM', 'Edmonton', 'Oilers', '22', 'Rogers Place', '24', 'EDM', 'Edmonton', 'Oilers', '1', '0', '0', '0', '0', '0', '1', '2', '38', '19', '66.7', '2', '1', '50.0', '3', '0', '100.0', '0', '0', '2', '0', '27', '5', '13', '17']"
"['', '15801', '2012-02-25', '21:00:00 GMT', '30', 'PHX', 'Phoenix', 'Coyotes', '24', 'EDM', 'Edmonton', 'Oilers', '22', 'Rogers Place', '24', 'EDM', 'Edmonton', 'Oilers', '0', '1', '0', '0', '0', '0', '0', '0', '24', '29', '45.3', '1', '0', '0.0', '1', '0', '100.0', '0', '0', '1', '3', '21', '2', '7', '19']"
"['', '15819', '2012-02-27', '01:30:00 GMT', '24', 'EDM', 'Edmonton', 'Oilers', '2', 'WPJ', 'Winnipeg', 'Jets', '39', 'MTS Centre', '24', 'EDM', 'Edmonton', 'Oilers', '1', '0', '0', '0', '0', '0', '1', '2', '27', '36', '42.9', '3', '2', '66.7', '3', '2', '33.3', '0', '0', '5', '3', '20', '4', '8', '32']"
"['', '15833', '2012-02-29', '03:00:00 GMT', '17', 'STL', 'St. Louis', 'Blues', '24', 'EDM', 'Edmonton', 'Oilers', '22', 'Rogers Place', '24', 'EDM', 'Edmonton', 'Oilers', '0', '1', '0', '0', '0', '0', '0', '0', '22', '26', '45.8', '1', '0', '0.0', '4', '1', '75.0', '0', '0', '2', '5', '22', '8', '38', '15']"
"['', '15848', '2012-03-02', '02:30:00 GMT', '27', 'DAL', 'Dallas', 'Stars', '24', 'EDM', 'Edmonton', 'Oilers', '22', 'Rogers Place', '24', 'EDM', 'Edmonton', 'Oilers', '0', '1', '0', '0', '0', '0', '0', '0', '0', '0', '0.0', '0', '0', '0.0', '2', '0', '100.0', '0', '0', '1', '3', '0', '2', '4', '0']"
"['', '15868', '2012-03-05', '03:00:00 GMT', '24', 'EDM', 'Edmonton', 'Oilers', '29', 'ANA', 'Anaheim', 'Ducks', '8', 'Honda Center', '24', 'EDM', 'Edmonton', 'Oilers', '0', '1', '0', '0', '0', '0', '0', '0', '25', '28', '47.2', '1', '1', '100.0', '3', '1', '66.7', '0', '0', '2', '4', '34', '4', '8', '41']"
"['', '15880', '2012-03-06', '03:30:00 GMT', '24', 'EDM', 'Edmonton', 'Oilers', '26', 'SJS', 'San Jose', 'Sharks', '9', 'HP Pavilion at San Jose', '24', 'EDM', 'Edmonton', 'Oilers', '1', '0', '0', '0', '0', '0', '0', '2', '22', '38', '36.7', '1', '0', '0.0', '1', '0', '100.0', '0', '0', '2', '2', '24', '2', '4', '24']"
"['', '15893', '2012-03-08', '02:30:00 GMT', '14', 'MTL', 'Montreal', 'Canadiens', '24', 'EDM', 'Edmonton', 'Oilers', '22', 'Rogers Place', '24', 'EDM', 'Edmonton', 'Oilers', '0', '1', '0', '0', '0', '0', '0', '0', '32', '29', '52.5', '4', '1', '25.0', '4', '2', '50.0', '0', '0', '3', '5', '24', '4', '8', '16']"
"['', '15900', '2012-03-10', '20:00:00 GMT', '24', 'EDM', 'Edmonton', 'Oilers', '22', 'COL', 'Colorado', 'Avalanche', '19', 'Pepsi Center', '24', 'EDM', 'Edmonton', 'Oilers', '0', '0', '0', '1', '0', '0', '0', '1', '21', '34', '38.2', '2', '0', '0.0', '2', '0', '100.0', '0', '0', '2', '2', '28', '2', '4', '17']"
"['', '15920', '2012-03-12', '01:30:00 GMT', '26', 'SJS', 'San Jose', 'Sharks', '24', 'EDM', 'Edmonton', 'Oilers', '22', 'Rogers Place', '24', 'EDM', 'Edmonton', 'Oilers', '0', '1', '0', '0', '0', '0', '0', '0', '22', '34', '39.3', '1', '0', '0.0', '2', '2', '0.0', '0', '0', '2', '3', '20', '4', '16', '19']"
"['', '15934', '2012-03-14', '02:00:00 GMT', '19', 'CBJ', 'Columbus', 'Blue Jackets', '24', 'EDM', 'Edmonton', 'Oilers', '22', 'Rogers Place', '24', 'EDM', 'Edmonton', 'Oilers', '1', '0', '0', '0', '0', '0', '1', '2', '26', '27', '49.1', '5', '1', '20.0', '3', '0', '100.0', '0', '0', '3', '0', '24', '4', '8', '15']"
"['', '15948', '2012-03-16', '01:30:00 GMT', '23', 'CGY', 'Calgary', 'Flames', '24', 'EDM', 'Edmonton', 'Oilers', '22', 'Rogers Place', '24', 'EDM', 'Edmonton', 'Oilers', '1', '0', '0', '0', '0', '0', '1', '2', '28', '27', '50.9', '6', '0', '0.0', '1', '0', '100.0', '0', '0', '3', '1', '22', '4', '8', '33']"
"['', '15964', '2012-03-18', '00:00:00 GMT', '30', 'PHX', 'Phoenix', 'Coyotes', '24', 'EDM', 'Edmonton', 'Oilers', '22', 'Rogers Place', '24', 'EDM', 'Edmonton', 'Oilers', '0', '0', '0', '1', '0', '0', '0', '1', '29', '34', '46.0', '1', '0', '0.0', '2', '0', '100.0', '0', '0', '2', '2', '36', '4', '19', '21']"
"['', '15977', '2012-03-20', '00:00:00 GMT', '24', 'EDM', 'Edmonton', 'Oilers', '18', 'NSH', 'Nashville', 'Predators', '15', 'Bridgestone Arena', '24', 'EDM', 'Edmonton', 'Oilers', '1', '0', '0', '0', '0', '0', '1', '2', '35', '30', '53.8', '1', '1', '100.0', '4', '1', '75.0', '0', '0', '6', '3', '14', '5', '10', '19']"
"['', '15988', '2012-03-22', '23:30:00 GMT', '24', 'EDM', 'Edmonton', 'Oilers', '1', 'TBL', 'Tampa Bay', 'Lightning', '26', 'St. Pete Times Forum', '24', 'EDM', 'Edmonton', 'Oilers', '0', '0', '0', '1', '0', '0', '0', '1', '21', '27', '43.8', '1', '0', '0.0', '4', '1', '75.0', '0', '0', '2', '2', '34', '4', '8', '27']"
"['', '15999', '2012-03-23', '23:30:00 GMT', '24', 'EDM', 'Edmonton', 'Oilers', '4', 'FLO', 'Florida', 'Panthers', '3', 'BankAtlantic Center', '24', 'EDM', 'Edmonton', 'Oilers', '1', '0', '0', '0', '0', '0', '0', '2', '24', '28', '46.2', '1', '0', '0.0', '4', '0', '100.0', '0', '0', '1', '1', '20', '4', '8', '19']"
"['', '16011', '2012-03-25', '19:00:00 GMT', '24', 'EDM', 'Edmonton', 'Oilers', '19', 'CBJ', 'Columbus', 'Blue Jackets', '17', 'Nationwide Arena', '24', 'EDM', 'Edmonton', 'Oilers', '1', '0', '0', '0', '0', '0', '1', '2', '27', '37', '42.2', '3', '1', '33.3', '6', '1', '83.3', '1', '0', '6', '3', '32', '9', '26', '19']"
"['', '16035', '2012-03-28', '01:30:00 GMT', '27', 'DAL', 'Dallas', 'Stars', '24', 'EDM', 'Edmonton', 'Oilers', '22', 'Rogers Place', '24', 'EDM', 'Edmonton', 'Oilers', '0', '1', '0', '0', '0', '0', '0', '0', '27', '31', '46.6', '4', '0', '0.0', '4', '0', '100.0', '0', '0', '1', '3', '31', '5', '10', '22']"
"['', '16051', '2012-03-30', '01:30:00 GMT', '28', 'LAK', 'Los Angeles', 'Kings', '24', 'EDM', 'Edmonton', 'Oilers', '22', 'Rogers Place', '24', 'EDM', 'Edmonton', 'Oilers', '0', '1', '0', '0', '0', '0', '0', '0', '17', '30', '36.2', '3', '1', '33.3', '6', '1', '83.3', '0', '1', '1', '4', '13', '9', '26', '23']"
"['', '16070', '2012-04-01', '00:00:00 GMT', '24', 'EDM', 'Edmonton', 'Oilers', '29', 'ANA', 'Anaheim', 'Ducks', '8', 'Honda Center', '24', 'EDM', 'Edmonton', 'Oilers', '1', '0', '0', '0', '0', '0', '1', '2', '26', '28', '48.1', '1', '0', '0.0', '5', '0', '100.0', '0', '0', '2', '1', '13', '9', '24', '35']"
"['', '16072', '2012-04-02', '02:30:00 GMT', '24', 'EDM', 'Edmonton', 'Oilers', '28', 'LAK', 'Los Angeles', 'Kings', '25', 'Staples Center', '24', 'EDM', 'Edmonton', 'Oilers', '0', '1', '0', '0', '0', '0', '0', '0', '18', '35', '34.0', '2', '0', '0.0', '3', '0', '100.0', '0', '0', '0', '2', '19', '5', '13', '27']"
"['', '16097', '2012-04-05', '01:30:00 GMT', '29', 'ANA', 'Anaheim', 'Ducks', '24', 'EDM', 'Edmonton', 'Oilers', '22', 'Rogers Place', '24', 'EDM', 'Edmonton', 'Oilers', '0', '0', '0', '1', '0', '0', '0', '1', '23', '37', '38.3', '1', '0', '0.0', '1', '0', '100.0', '0', '0', '2', '3', '24', '2', '7', '17']"
"['', '16113', '2012-04-07', '02:00:00 GMT', '24', 'EDM', 'Edmonton', 'Oilers', '21', 'VAN', 'Vancouver', 'Canucks', '7', 'Rogers Arena', '24', 'EDM', 'Edmonton', 'Oilers', '0', '1', '0', '0', '0', '0', '0', '0', '27', '26', '50.9', '2', '0', '0.0', '5', '2', '60.0', '0', '0', '0', '3', '17', '8', '16', '29']"
