"['#Date/Time of Update: 2018-12-10 19:03:24 GMT', '#Game ID', '#Game Date', '#Game Time', '#Away Team ID', '#Away Team Abbr.', '#Away Team City', '#Away Team Name', '#Home Team ID', '#Home Team Abbr.', '#Home Team City', '#Home Team Name', '#Venue ID', '#Venue Name', '#Team ID', '#Team Abbr.', '#Team City', '#Team Name', '#Wins', '#Losses', '#OvertimeWins', '#OvertimeLosses', '#Points', '#FaceoffWins', '#FaceoffLosses', '#FaceoffPercent', '#Powerplays', '#PowerplayGoals', '#PowerplayPercent', '#PenaltyKills', '#PenaltyKillGoalsAllowed', '#PenaltyKillPercent', '#ShorthandedGoalsFor', '#ShorthandedGoalsAgainst', '#GoalsFor', '#GoalsAgainst', '#Shots', '#BlockedShots', '#Penalties', '#PenaltyMinutes', '#Hits']"
"['', '43338', '2017-10-06', '00:30:00 GMT', '142', 'VGK', 'Vegas', 'Golden Knights', '27', 'DAL', 'Dallas', 'Stars', '2', 'American Airlines Center', '142', 'VGK', 'Vegas', 'Golden Knights', '1', '0', '0', '0', '2', '28', '38', '42.4', '7', '0', '0.0', '4', '1', '75.0', '0', '0', '2', '1', '30', '18', '5', '10', '15']"
"['', '40799', '2017-10-07', '01:00:00 GMT', '142', 'VGK', 'Vegas', 'Golden Knights', '30', 'ARI', 'Arizona', 'Coyotes', '6', 'Gila River Arena', '142', 'VGK', 'Vegas', 'Golden Knights', '1', '0', '0', '0', '2', '37', '24', '60.7', '4', '0', '0.0', '3', '0', '100.0', '0', '0', '2', '1', '42', '16', '3', '6', '27']"
"['', '40817', '2017-10-10', '02:00:00 GMT', '30', 'ARI', 'Arizona', 'Coyotes', '142', 'VGK', 'Vegas', 'Golden Knights', '139', 'T-Mobile Arena', '142', 'VGK', 'Vegas', 'Golden Knights', '1', '0', '0', '0', '2', '47', '22', '68.1', '3', '1', '33.3', '3', '0', '100.0', '0', '0', '5', '2', '28', '14', '3', '6', '21']"
"['', '40835', '2017-10-13', '02:30:00 GMT', '16', 'DET', 'Detroit', 'Red Wings', '142', 'VGK', 'Vegas', 'Golden Knights', '139', 'T-Mobile Arena', '142', 'VGK', 'Vegas', 'Golden Knights', '0', '1', '0', '0', '0', '22', '31', '41.5', '3', '0', '0.0', '1', '0', '100.0', '0', '0', '3', '6', '27', '10', '3', '9', '18']"
"['', '40850', '2017-10-15', '23:00:00 GMT', '11', 'BOS', 'Boston', 'Bruins', '142', 'VGK', 'Vegas', 'Golden Knights', '139', 'T-Mobile Arena', '142', 'VGK', 'Vegas', 'Golden Knights', '1', '0', '0', '0', '2', '38', '19', '66.7', '4', '0', '0.0', '2', '0', '100.0', '0', '0', '3', '1', '26', '10', '3', '6', '19']"
"['', '40863', '2017-10-17', '02:00:00 GMT', '15', 'BUF', 'Buffalo', 'Sabres', '142', 'VGK', 'Vegas', 'Golden Knights', '139', 'T-Mobile Arena', '142', 'VGK', 'Vegas', 'Golden Knights', '1', '0', '0', '0', '2', '31', '33', '48.4', '5', '1', '20.0', '5', '3', '40.0', '0', '0', '5', '4', '31', '17', '5', '10', '15']"
"['', '40894', '2017-10-21', '02:30:00 GMT', '17', 'STL', 'St. Louis', 'Blues', '142', 'VGK', 'Vegas', 'Golden Knights', '139', 'T-Mobile Arena', '142', 'VGK', 'Vegas', 'Golden Knights', '1', '0', '0', '0', '2', '33', '38', '46.5', '3', '2', '66.7', '4', '0', '100.0', '0', '0', '3', '2', '22', '18', '5', '10', '18']"
"['', '40908', '2017-10-24', '02:00:00 GMT', '20', 'CHI', 'Chicago', 'Blackhawks', '142', 'VGK', 'Vegas', 'Golden Knights', '139', 'T-Mobile Arena', '142', 'VGK', 'Vegas', 'Golden Knights', '1', '0', '0', '0', '2', '31', '32', '49.2', '4', '1', '25.0', '3', '0', '100.0', '0', '1', '4', '2', '33', '17', '3', '6', '18']"
"['', '40922', '2017-10-27', '22:00:00 GMT', '22', 'COL', 'Colorado', 'Avalanche', '142', 'VGK', 'Vegas', 'Golden Knights', '139', 'T-Mobile Arena', '142', 'VGK', 'Vegas', 'Golden Knights', '1', '0', '0', '0', '2', '35', '25', '58.3', '6', '1', '16.7', '3', '0', '100.0', '0', '0', '7', '0', '21', '14', '5', '13', '11']"
"['', '40943', '2017-10-30', '23:00:00 GMT', '142', 'VGK', 'Vegas', 'Golden Knights', '8', 'NYI', 'New York', 'Islanders', '16', 'Nassau Veterans Memorial Coliseum', '142', 'VGK', 'Vegas', 'Golden Knights', '0', '1', '0', '0', '0', '27', '31', '46.6', '5', '2', '40.0', '5', '2', '60.0', '1', '0', '3', '6', '34', '14', '5', '10', '11']"
"['', '40951', '2017-10-31', '23:00:00 GMT', '142', 'VGK', 'Vegas', 'Golden Knights', '9', 'NYR', 'New York', 'Rangers', '12', 'Madison Square Garden', '142', 'VGK', 'Vegas', 'Golden Knights', '0', '1', '0', '0', '0', '27', '38', '41.5', '3', '0', '0.0', '4', '2', '50.0', '0', '0', '4', '6', '34', '14', '4', '8', '13']"
"['', '40960', '2017-11-02', '23:00:00 GMT', '142', 'VGK', 'Vegas', 'Golden Knights', '11', 'BOS', 'Boston', 'Bruins', '27', 'TD Garden', '142', 'VGK', 'Vegas', 'Golden Knights', '0', '1', '0', '0', '0', '31', '32', '49.2', '3', '0', '0.0', '1', '0', '100.0', '0', '0', '1', '2', '29', '20', '1', '2', '30']"
"['', '40973', '2017-11-04', '18:00:00 GMT', '142', 'VGK', 'Vegas', 'Golden Knights', '13', 'OTT', 'Ottawa', 'Senators', '23', 'Canadian Tire Centre', '142', 'VGK', 'Vegas', 'Golden Knights', '1', '0', '0', '0', '2', '31', '37', '45.6', '5', '3', '60.0', '2', '0', '100.0', '0', '0', '5', '4', '34', '18', '3', '6', '21']"
"['', '40992', '2017-11-06', '00:00:00 GMT', '142', 'VGK', 'Vegas', 'Golden Knights', '12', 'TOR', 'Toronto', 'Maple Leafs', '1', 'Air Canada Center', '142', 'VGK', 'Vegas', 'Golden Knights', '0', '0', '0', '1', '1', '30', '29', '50.8', '3', '1', '33.3', '4', '1', '75.0', '0', '0', '3', '3', '28', '19', '4', '8', '31']"
"['', '41002', '2017-11-07', '00:30:00 GMT', '142', 'VGK', 'Vegas', 'Golden Knights', '14', 'MTL', 'Montreal', 'Canadiens', '4', 'Bell Centre', '142', 'VGK', 'Vegas', 'Golden Knights', '0', '1', '0', '0', '0', '31', '30', '50.8', '2', '0', '0.0', '2', '0', '100.0', '0', '0', '2', '3', '31', '10', '2', '4', '27']"
"['', '41021', '2017-11-10', '03:30:00 GMT', '2', 'WPJ', 'Winnipeg', 'Jets', '142', 'VGK', 'Vegas', 'Golden Knights', '139', 'T-Mobile Arena', '142', 'VGK', 'Vegas', 'Golden Knights', '1', '0', '0', '0', '2', '22', '44', '33.3', '4', '1', '25.0', '5', '1', '80.0', '1', '0', '5', '2', '27', '18', '6', '12', '18']"
"['', '41046', '2017-11-14', '02:00:00 GMT', '142', 'VGK', 'Vegas', 'Golden Knights', '24', 'EDM', 'Edmonton', 'Oilers', '22', 'Rogers Place', '142', 'VGK', 'Vegas', 'Golden Knights', '0', '1', '0', '0', '0', '40', '23', '63.5', '4', '0', '0.0', '3', '3', '0.0', '0', '1', '2', '8', '24', '10', '4', '8', '24']"
"['', '41060', '2017-11-16', '03:00:00 GMT', '142', 'VGK', 'Vegas', 'Golden Knights', '21', 'VAN', 'Vancouver', 'Canucks', '7', 'Rogers Arena', '142', 'VGK', 'Vegas', 'Golden Knights', '1', '0', '0', '0', '2', '34', '35', '49.3', '0', '0', '0.0', '2', '0', '100.0', '0', '0', '5', '2', '30', '18', '2', '4', '17']"
"['', '43377', '2017-11-19', '01:00:00 GMT', '28', 'LAK', 'Los Angeles', 'Kings', '142', 'VGK', 'Vegas', 'Golden Knights', '139', 'T-Mobile Arena', '142', 'VGK', 'Vegas', 'Golden Knights', '1', '0', '0', '0', '2', '30', '32', '48.4', '1', '0', '0.0', '1', '0', '100.0', '0', '0', '4', '2', '40', '18', '1', '2', '38']"
"['', '41105', '2017-11-22', '03:30:00 GMT', '142', 'VGK', 'Vegas', 'Golden Knights', '29', 'ANA', 'Anaheim', 'Ducks', '8', 'Honda Center', '142', 'VGK', 'Vegas', 'Golden Knights', '1', '0', '0', '0', '2', '28', '43', '39.4', '3', '1', '33.3', '4', '1', '75.0', '0', '0', '4', '2', '49', '9', '5', '13', '21']"
"['', '41120', '2017-11-24', '23:00:00 GMT', '26', 'SJS', 'San Jose', 'Sharks', '142', 'VGK', 'Vegas', 'Golden Knights', '139', 'T-Mobile Arena', '142', 'VGK', 'Vegas', 'Golden Knights', '1', '0', '0', '0', '2', '36', '26', '58.1', '4', '2', '50.0', '2', '1', '50.0', '0', '0', '5', '4', '33', '22', '2', '4', '30']"
"['', '43384', '2017-11-25', '01:00:00 GMT', '142', 'VGK', 'Vegas', 'Golden Knights', '30', 'ARI', 'Arizona', 'Coyotes', '6', 'Gila River Arena', '142', 'VGK', 'Vegas', 'Golden Knights', '1', '0', '0', '0', '2', '32', '27', '54.2', '5', '1', '20.0', '5', '0', '100.0', '1', '0', '4', '2', '28', '23', '5', '10', '11']"
"['', '41149', '2017-11-28', '03:00:00 GMT', '27', 'DAL', 'Dallas', 'Stars', '142', 'VGK', 'Vegas', 'Golden Knights', '139', 'T-Mobile Arena', '142', 'VGK', 'Vegas', 'Golden Knights', '0', '1', '0', '0', '0', '33', '32', '50.8', '2', '0', '0.0', '3', '0', '100.0', '0', '0', '0', '3', '34', '11', '4', '8', '15']"
"['', '41157', '2017-11-30', '01:00:00 GMT', '142', 'VGK', 'Vegas', 'Golden Knights', '25', 'MIN', 'Minnesota', 'Wild', '30', 'Xcel Energy Center', '142', 'VGK', 'Vegas', 'Golden Knights', '0', '1', '0', '0', '0', '23', '29', '44.2', '3', '0', '0.0', '2', '0', '100.0', '0', '0', '2', '4', '31', '12', '2', '4', '6']"
"['', '41167', '2017-12-01', '01:00:00 GMT', '142', 'VGK', 'Vegas', 'Golden Knights', '2', 'WPJ', 'Winnipeg', 'Jets', '39', 'Bell MTS Place', '142', 'VGK', 'Vegas', 'Golden Knights', '0', '1', '0', '0', '0', '29', '42', '40.8', '5', '0', '0.0', '5', '3', '40.0', '0', '0', '4', '7', '31', '11', '5', '10', '11']"
"['', '41184', '2017-12-03', '01:00:00 GMT', '30', 'ARI', 'Arizona', 'Coyotes', '142', 'VGK', 'Vegas', 'Golden Knights', '139', 'T-Mobile Arena', '142', 'VGK', 'Vegas', 'Golden Knights', '1', '0', '0', '0', '2', '43', '28', '60.6', '0', '0', '0.0', '1', '1', '0.0', '0', '0', '3', '2', '45', '13', '2', '4', '11']"
"['', '41197', '2017-12-05', '03:00:00 GMT', '29', 'ANA', 'Anaheim', 'Ducks', '142', 'VGK', 'Vegas', 'Golden Knights', '139', 'T-Mobile Arena', '142', 'VGK', 'Vegas', 'Golden Knights', '1', '0', '0', '0', '2', '39', '28', '58.2', '5', '0', '0.0', '2', '1', '50.0', '0', '0', '3', '3', '43', '17', '2', '4', '14']"
"['', '41214', '2017-12-08', '01:00:00 GMT', '142', 'VGK', 'Vegas', 'Golden Knights', '18', 'NSH', 'Nashville', 'Predators', '15', 'Bridgestone Arena', '142', 'VGK', 'Vegas', 'Golden Knights', '1', '0', '0', '0', '2', '33', '40', '45.2', '4', '1', '25.0', '4', '0', '100.0', '0', '0', '3', '3', '39', '14', '5', '10', '17']"
"['', '41225', '2017-12-09', '01:00:00 GMT', '142', 'VGK', 'Vegas', 'Golden Knights', '27', 'DAL', 'Dallas', 'Stars', '2', 'American Airlines Center', '142', 'VGK', 'Vegas', 'Golden Knights', '1', '0', '0', '0', '2', '33', '31', '51.6', '2', '1', '50.0', '3', '0', '100.0', '0', '0', '5', '3', '39', '25', '3', '6', '29']"
"['', '41247', '2017-12-12', '03:00:00 GMT', '3', 'CAR', 'Carolina', 'Hurricanes', '142', 'VGK', 'Vegas', 'Golden Knights', '139', 'T-Mobile Arena', '142', 'VGK', 'Vegas', 'Golden Knights', '0', '0', '0', '1', '1', '31', '34', '47.7', '2', '0', '0.0', '3', '0', '100.0', '0', '0', '2', '2', '24', '15', '4', '8', '11']"
"['', '41263', '2017-12-14', '03:00:00 GMT', '10', 'PIT', 'Pittsburgh', 'Penguins', '142', 'VGK', 'Vegas', 'Golden Knights', '139', 'T-Mobile Arena', '142', 'VGK', 'Vegas', 'Golden Knights', '1', '0', '0', '0', '2', '18', '34', '34.6', '2', '0', '0.0', '3', '0', '100.0', '0', '0', '2', '1', '26', '22', '3', '6', '28']"
"['', '43394', '2017-12-17', '01:00:00 GMT', '4', 'FLO', 'Florida', 'Panthers', '142', 'VGK', 'Vegas', 'Golden Knights', '139', 'T-Mobile Arena', '142', 'VGK', 'Vegas', 'Golden Knights', '1', '0', '0', '0', '2', '39', '30', '56.5', '4', '0', '0.0', '3', '1', '66.7', '0', '0', '5', '2', '40', '13', '3', '6', '12']"
"['', '41298', '2017-12-19', '03:00:00 GMT', '1', 'TBL', 'Tampa Bay', 'Lightning', '142', 'VGK', 'Vegas', 'Golden Knights', '139', 'T-Mobile Arena', '142', 'VGK', 'Vegas', 'Golden Knights', '1', '0', '0', '0', '2', '33', '30', '52.4', '5', '4', '80.0', '4', '2', '50.0', '0', '0', '4', '3', '36', '17', '4', '8', '20']"
"['', '41328', '2017-12-23', '01:00:00 GMT', '5', 'WSH', 'Washington', 'Capitals', '142', 'VGK', 'Vegas', 'Golden Knights', '139', 'T-Mobile Arena', '142', 'VGK', 'Vegas', 'Golden Knights', '1', '0', '0', '0', '2', '27', '26', '50.9', '2', '0', '0.0', '4', '0', '100.0', '0', '0', '3', '0', '28', '25', '4', '8', '20']"
"['', '43405', '2017-12-27', '02:00:00 GMT', '142', 'VGK', 'Vegas', 'Golden Knights', '29', 'ANA', 'Anaheim', 'Ducks', '8', 'Honda Center', '142', 'VGK', 'Vegas', 'Golden Knights', '1', '0', '0', '0', '2', '26', '27', '49.1', '2', '0', '0.0', '2', '0', '100.0', '0', '0', '4', '1', '28', '18', '2', '4', '21']"
"['', '41348', '2017-12-28', '03:00:00 GMT', '142', 'VGK', 'Vegas', 'Golden Knights', '28', 'LAK', 'Los Angeles', 'Kings', '25', 'Staples Center', '142', 'VGK', 'Vegas', 'Golden Knights', '1', '0', '0', '0', '2', '25', '26', '49.0', '5', '0', '0.0', '1', '0', '100.0', '0', '0', '3', '2', '39', '20', '2', '4', '20']"
"['', '41366', '2017-12-31', '20:30:00 GMT', '12', 'TOR', 'Toronto', 'Maple Leafs', '142', 'VGK', 'Vegas', 'Golden Knights', '139', 'T-Mobile Arena', '142', 'VGK', 'Vegas', 'Golden Knights', '1', '0', '0', '0', '2', '25', '29', '46.3', '3', '0', '0.0', '3', '0', '100.0', '0', '0', '6', '3', '31', '18', '3', '6', '20']"
"['', '41385', '2018-01-02', '03:00:00 GMT', '18', 'NSH', 'Nashville', 'Predators', '142', 'VGK', 'Vegas', 'Golden Knights', '139', 'T-Mobile Arena', '142', 'VGK', 'Vegas', 'Golden Knights', '1', '0', '0', '0', '2', '29', '36', '44.6', '1', '1', '100.0', '2', '0', '100.0', '0', '0', '3', '0', '31', '16', '2', '4', '18']"
"['', '41394', '2018-01-04', '01:00:00 GMT', '142', 'VGK', 'Vegas', 'Golden Knights', '17', 'STL', 'St. Louis', 'Blues', '24', 'Scottrade Center', '142', 'VGK', 'Vegas', 'Golden Knights', '0', '1', '0', '0', '0', '20', '31', '39.2', '1', '0', '0.0', '2', '0', '100.0', '0', '0', '1', '2', '33', '16', '2', '4', '12']"
"['', '41405', '2018-01-05', '01:30:00 GMT', '142', 'VGK', 'Vegas', 'Golden Knights', '20', 'CHI', 'Chicago', 'Blackhawks', '28', 'United Center', '142', 'VGK', 'Vegas', 'Golden Knights', '1', '0', '0', '0', '2', '25', '31', '44.6', '2', '0', '0.0', '2', '0', '100.0', '0', '0', '5', '4', '43', '13', '3', '9', '33']"
"['', '41424', '2018-01-07', '02:30:00 GMT', '9', 'NYR', 'New York', 'Rangers', '142', 'VGK', 'Vegas', 'Golden Knights', '139', 'T-Mobile Arena', '142', 'VGK', 'Vegas', 'Golden Knights', '1', '0', '0', '0', '2', '29', '34', '46.0', '1', '0', '0.0', '2', '0', '100.0', '0', '0', '2', '1', '34', '9', '2', '4', '23']"
"['', '41449', '2018-01-13', '03:00:00 GMT', '24', 'EDM', 'Edmonton', 'Oilers', '142', 'VGK', 'Vegas', 'Golden Knights', '139', 'T-Mobile Arena', '142', 'VGK', 'Vegas', 'Golden Knights', '0', '0', '0', '1', '1', '36', '21', '63.2', '6', '0', '0.0', '3', '0', '100.0', '0', '0', '2', '3', '36', '3', '4', '11', '19']"
"['', '41464', '2018-01-16', '01:00:00 GMT', '142', 'VGK', 'Vegas', 'Golden Knights', '18', 'NSH', 'Nashville', 'Predators', '15', 'Bridgestone Arena', '142', 'VGK', 'Vegas', 'Golden Knights', '0', '1', '0', '0', '0', '34', '28', '54.8', '4', '0', '0.0', '2', '0', '100.0', '0', '0', '0', '1', '43', '17', '2', '4', '17']"
"['', '41473', '2018-01-18', '00:30:00 GMT', '142', 'VGK', 'Vegas', 'Golden Knights', '1', 'TBL', 'Tampa Bay', 'Lightning', '26', 'Amalie Arena', '142', 'VGK', 'Vegas', 'Golden Knights', '1', '0', '0', '0', '2', '28', '39', '41.8', '2', '0', '0.0', '3', '1', '66.7', '0', '0', '4', '1', '30', '9', '5', '10', '18']"
"['', '41479', '2018-01-19', '00:30:00 GMT', '142', 'VGK', 'Vegas', 'Golden Knights', '4', 'FLO', 'Florida', 'Panthers', '3', 'BB&T Center', '142', 'VGK', 'Vegas', 'Golden Knights', '0', '0', '0', '1', '1', '28', '30', '48.3', '3', '0', '0.0', '1', '0', '100.0', '0', '1', '3', '4', '36', '8', '1', '2', '19']"
"['', '41495', '2018-01-21', '23:00:00 GMT', '142', 'VGK', 'Vegas', 'Golden Knights', '3', 'CAR', 'Carolina', 'Hurricanes', '21', 'PNC Arena', '142', 'VGK', 'Vegas', 'Golden Knights', '1', '0', '0', '0', '2', '20', '34', '37.0', '4', '2', '50.0', '4', '1', '75.0', '0', '0', '5', '1', '33', '14', '5', '10', '21']"
"['', '41513', '2018-01-23', '03:00:00 GMT', '19', 'CBJ', 'Columbus', 'Blue Jackets', '142', 'VGK', 'Vegas', 'Golden Knights', '139', 'T-Mobile Arena', '142', 'VGK', 'Vegas', 'Golden Knights', '1', '0', '0', '0', '2', '29', '39', '42.6', '3', '2', '66.7', '3', '0', '100.0', '0', '0', '6', '3', '38', '13', '4', '8', '20']"
"['', '41531', '2018-01-25', '03:00:00 GMT', '8', 'NYI', 'New York', 'Islanders', '142', 'VGK', 'Vegas', 'Golden Knights', '139', 'T-Mobile Arena', '142', 'VGK', 'Vegas', 'Golden Knights', '0', '1', '0', '0', '0', '31', '30', '50.8', '2', '1', '50.0', '1', '0', '100.0', '0', '0', '1', '2', '39', '7', '1', '2', '17']"
"['', '41544', '2018-01-30', '02:00:00 GMT', '142', 'VGK', 'Vegas', 'Golden Knights', '23', 'CGY', 'Calgary', 'Flames', '18', 'Scotiabank Saddledome', '142', 'VGK', 'Vegas', 'Golden Knights', '1', '0', '0', '0', '2', '29', '30', '49.2', '2', '1', '50.0', '3', '0', '100.0', '0', '0', '4', '2', '35', '22', '3', '6', '13']"
"['', '41556', '2018-02-01', '01:00:00 GMT', '142', 'VGK', 'Vegas', 'Golden Knights', '2', 'WPJ', 'Winnipeg', 'Jets', '39', 'Bell MTS Place', '142', 'VGK', 'Vegas', 'Golden Knights', '1', '0', '0', '0', '2', '32', '32', '50.0', '2', '1', '50.0', '3', '0', '100.0', '1', '0', '3', '2', '31', '14', '3', '6', '21']"
"['', '41564', '2018-02-02', '01:00:00 GMT', '142', 'VGK', 'Vegas', 'Golden Knights', '25', 'MIN', 'Minnesota', 'Wild', '30', 'Xcel Energy Center', '142', 'VGK', 'Vegas', 'Golden Knights', '0', '1', '0', '0', '0', '25', '27', '48.1', '3', '2', '66.7', '4', '2', '50.0', '0', '0', '2', '5', '24', '15', '5', '13', '18']"
"['', '41578', '2018-02-04', '17:30:00 GMT', '142', 'VGK', 'Vegas', 'Golden Knights', '5', 'WSH', 'Washington', 'Capitals', '13', 'Capital One Arena', '142', 'VGK', 'Vegas', 'Golden Knights', '1', '0', '0', '0', '2', '26', '19', '57.8', '1', '1', '100.0', '2', '0', '100.0', '0', '0', '4', '3', '31', '12', '2', '4', '16']"
"['', '41585', '2018-02-06', '00:00:00 GMT', '142', 'VGK', 'Vegas', 'Golden Knights', '10', 'PIT', 'Pittsburgh', 'Penguins', '40', 'PPG Paints Arena', '142', 'VGK', 'Vegas', 'Golden Knights', '0', '1', '0', '0', '0', '26', '32', '44.8', '3', '1', '33.3', '5', '0', '100.0', '0', '0', '4', '5', '25', '10', '5', '10', '29']"
"['', '41607', '2018-02-08', '03:30:00 GMT', '142', 'VGK', 'Vegas', 'Golden Knights', '26', 'SJS', 'San Jose', 'Sharks', '9', 'SAP Center at San Jose', '142', 'VGK', 'Vegas', 'Golden Knights', '1', '0', '0', '0', '2', '33', '40', '45.2', '5', '1', '20.0', '4', '2', '50.0', '0', '0', '5', '3', '33', '11', '4', '8', '18']"
"['', '41632', '2018-02-11', '01:00:00 GMT', '6', 'PHI', 'Philadelphia', 'Flyers', '142', 'VGK', 'Vegas', 'Golden Knights', '139', 'T-Mobile Arena', '142', 'VGK', 'Vegas', 'Golden Knights', '0', '1', '0', '0', '0', '26', '38', '40.6', '1', '0', '0.0', '0', '0', '0.0', '0', '0', '1', '4', '39', '8', '0', '0', '15']"
"['', '41647', '2018-02-13', '03:00:00 GMT', '20', 'CHI', 'Chicago', 'Blackhawks', '142', 'VGK', 'Vegas', 'Golden Knights', '139', 'T-Mobile Arena', '142', 'VGK', 'Vegas', 'Golden Knights', '1', '0', '0', '0', '2', '29', '28', '50.9', '6', '1', '16.7', '3', '1', '66.7', '0', '0', '5', '2', '37', '18', '70', '676', '18']"
"['', '41661', '2018-02-15', '03:00:00 GMT', '24', 'EDM', 'Edmonton', 'Oilers', '142', 'VGK', 'Vegas', 'Golden Knights', '139', 'T-Mobile Arena', '142', 'VGK', 'Vegas', 'Golden Knights', '1', '0', '0', '0', '2', '22', '37', '37.3', '2', '1', '50.0', '1', '0', '100.0', '0', '0', '4', '1', '28', '15', '2', '7', '11']"
"['', '41673', '2018-02-17', '00:00:00 GMT', '14', 'MTL', 'Montreal', 'Canadiens', '142', 'VGK', 'Vegas', 'Golden Knights', '139', 'T-Mobile Arena', '142', 'VGK', 'Vegas', 'Golden Knights', '1', '0', '0', '0', '2', '28', '33', '45.9', '2', '1', '50.0', '2', '1', '50.0', '0', '0', '6', '3', '34', '18', '2', '4', '13']"
"['', '41689', '2018-02-19', '03:00:00 GMT', '29', 'ANA', 'Anaheim', 'Ducks', '142', 'VGK', 'Vegas', 'Golden Knights', '139', 'T-Mobile Arena', '142', 'VGK', 'Vegas', 'Golden Knights', '0', '1', '0', '0', '0', '32', '32', '50.0', '2', '0', '0.0', '0', '0', '0.0', '0', '0', '0', '2', '33', '8', '1', '2', '25']"
"['', '41701', '2018-02-21', '03:30:00 GMT', '23', 'CGY', 'Calgary', 'Flames', '142', 'VGK', 'Vegas', 'Golden Knights', '139', 'T-Mobile Arena', '142', 'VGK', 'Vegas', 'Golden Knights', '1', '0', '0', '0', '2', '38', '35', '52.1', '2', '1', '50.0', '1', '1', '0.0', '0', '0', '7', '3', '26', '19', '4', '11', '26']"
"['', '41717', '2018-02-23', '03:30:00 GMT', '21', 'VAN', 'Vancouver', 'Canucks', '142', 'VGK', 'Vegas', 'Golden Knights', '139', 'T-Mobile Arena', '142', 'VGK', 'Vegas', 'Golden Knights', '1', '0', '0', '0', '2', '32', '25', '56.1', '2', '1', '50.0', '3', '1', '66.7', '0', '0', '6', '3', '34', '14', '3', '6', '20']"
"['', '41740', '2018-02-26', '03:30:00 GMT', '142', 'VGK', 'Vegas', 'Golden Knights', '28', 'LAK', 'Los Angeles', 'Kings', '25', 'Staples Center', '142', 'VGK', 'Vegas', 'Golden Knights', '0', '0', '0', '1', '1', '31', '30', '50.8', '3', '0', '0.0', '4', '2', '50.0', '0', '0', '2', '3', '39', '10', '5', '10', '28']"
"['', '41748', '2018-02-27', '03:30:00 GMT', '28', 'LAK', 'Los Angeles', 'Kings', '142', 'VGK', 'Vegas', 'Golden Knights', '139', 'T-Mobile Arena', '142', 'VGK', 'Vegas', 'Golden Knights', '0', '1', '0', '0', '0', '41', '28', '59.4', '4', '0', '0.0', '5', '1', '80.0', '0', '0', '1', '4', '42', '10', '6', '12', '42']"
"['', '41769', '2018-03-02', '03:00:00 GMT', '13', 'OTT', 'Ottawa', 'Senators', '142', 'VGK', 'Vegas', 'Golden Knights', '139', 'T-Mobile Arena', '142', 'VGK', 'Vegas', 'Golden Knights', '0', '1', '0', '0', '0', '28', '35', '44.4', '2', '1', '50.0', '5', '1', '80.0', '1', '0', '4', '5', '29', '13', '5', '10', '24']"
"['', '41783', '2018-03-04', '22:00:00 GMT', '142', 'VGK', 'Vegas', 'Golden Knights', '7', 'NJD', 'New Jersey', 'Devils', '37', 'Prudential Center', '142', 'VGK', 'Vegas', 'Golden Knights', '1', '0', '0', '0', '2', '32', '27', '54.2', '2', '1', '50.0', '3', '1', '66.7', '0', '0', '3', '2', '27', '9', '3', '6', '31']"
"['', '41794', '2018-03-06', '00:00:00 GMT', '142', 'VGK', 'Vegas', 'Golden Knights', '19', 'CBJ', 'Columbus', 'Blue Jackets', '17', 'Nationwide Arena', '142', 'VGK', 'Vegas', 'Golden Knights', '0', '1', '0', '0', '0', '31', '34', '47.7', '2', '0', '0.0', '2', '0', '100.0', '0', '0', '1', '4', '38', '8', '6', '12', '21']"
"['', '41807', '2018-03-08', '00:30:00 GMT', '142', 'VGK', 'Vegas', 'Golden Knights', '16', 'DET', 'Detroit', 'Red Wings', '145', 'Little Caesars Arena', '142', 'VGK', 'Vegas', 'Golden Knights', '1', '0', '0', '0', '2', '27', '21', '56.2', '4', '0', '0.0', '3', '0', '100.0', '1', '0', '4', '0', '32', '8', '3', '6', '15']"
"['', '41822', '2018-03-10', '18:00:00 GMT', '142', 'VGK', 'Vegas', 'Golden Knights', '15', 'BUF', 'Buffalo', 'Sabres', '10', 'KeyBank Center', '142', 'VGK', 'Vegas', 'Golden Knights', '1', '0', '0', '0', '2', '19', '40', '32.2', '2', '0', '0.0', '2', '0', '100.0', '0', '0', '1', '1', '34', '7', '2', '4', '19']"
"['', '41837', '2018-03-12', '23:00:00 GMT', '142', 'VGK', 'Vegas', 'Golden Knights', '6', 'PHI', 'Philadelphia', 'Flyers', '29', 'Wells Fargo Center', '142', 'VGK', 'Vegas', 'Golden Knights', '1', '0', '0', '0', '2', '24', '36', '40.0', '2', '2', '100.0', '4', '1', '75.0', '0', '0', '3', '2', '29', '16', '4', '8', '26']"
"['', '41854', '2018-03-14', '02:00:00 GMT', '7', 'NJD', 'New Jersey', 'Devils', '142', 'VGK', 'Vegas', 'Golden Knights', '139', 'T-Mobile Arena', '142', 'VGK', 'Vegas', 'Golden Knights', '0', '1', '0', '0', '0', '32', '34', '48.5', '5', '2', '40.0', '2', '1', '50.0', '0', '1', '3', '8', '42', '9', '2', '4', '28']"
"['', '41869', '2018-03-16', '02:30:00 GMT', '25', 'MIN', 'Minnesota', 'Wild', '142', 'VGK', 'Vegas', 'Golden Knights', '139', 'T-Mobile Arena', '142', 'VGK', 'Vegas', 'Golden Knights', '0', '1', '0', '0', '0', '31', '21', '59.6', '3', '0', '0.0', '3', '0', '100.0', '0', '0', '2', '4', '28', '15', '3', '6', '41']"
"['', '41881', '2018-03-18', '20:00:00 GMT', '23', 'CGY', 'Calgary', 'Flames', '142', 'VGK', 'Vegas', 'Golden Knights', '139', 'T-Mobile Arena', '142', 'VGK', 'Vegas', 'Golden Knights', '1', '0', '0', '0', '2', '31', '24', '56.4', '3', '1', '33.3', '2', '0', '100.0', '0', '0', '4', '0', '31', '11', '4', '8', '39']"
"['', '41902', '2018-03-20', '02:00:00 GMT', '21', 'VAN', 'Vancouver', 'Canucks', '142', 'VGK', 'Vegas', 'Golden Knights', '139', 'T-Mobile Arena', '142', 'VGK', 'Vegas', 'Golden Knights', '1', '0', '0', '0', '2', '18', '31', '36.7', '3', '0', '0.0', '1', '0', '100.0', '0', '0', '4', '1', '28', '17', '1', '2', '27']"
"['', '41917', '2018-03-22', '02:00:00 GMT', '142', 'VGK', 'Vegas', 'Golden Knights', '26', 'SJS', 'San Jose', 'Sharks', '9', 'SAP Center at San Jose', '142', 'VGK', 'Vegas', 'Golden Knights', '0', '0', '0', '1', '1', '29', '29', '50.0', '2', '0', '0.0', '6', '0', '100.0', '0', '0', '1', '2', '25', '21', '5', '12', '25']"
"['', '41923', '2018-03-24', '19:00:00 GMT', '142', 'VGK', 'Vegas', 'Golden Knights', '22', 'COL', 'Colorado', 'Avalanche', '19', 'Pepsi Center', '142', 'VGK', 'Vegas', 'Golden Knights', '0', '0', '0', '1', '1', '27', '24', '52.9', '1', '0', '0.0', '4', '1', '75.0', '0', '0', '1', '1', '40', '18', '4', '8', '28']"
"['', '41947', '2018-03-26', '02:00:00 GMT', '22', 'COL', 'Colorado', 'Avalanche', '142', 'VGK', 'Vegas', 'Golden Knights', '139', 'T-Mobile Arena', '142', 'VGK', 'Vegas', 'Golden Knights', '1', '0', '0', '0', '2', '30', '22', '57.7', '4', '2', '50.0', '3', '0', '100.0', '0', '0', '4', '1', '30', '13', '3', '6', '27']"
"['', '41961', '2018-03-28', '02:00:00 GMT', '30', 'ARI', 'Arizona', 'Coyotes', '142', 'VGK', 'Vegas', 'Golden Knights', '139', 'T-Mobile Arena', '142', 'VGK', 'Vegas', 'Golden Knights', '0', '1', '0', '0', '0', '25', '37', '40.3', '5', '2', '40.0', '3', '0', '100.0', '0', '0', '2', '3', '29', '16', '3', '6', '40']"
"['', '41977', '2018-03-30', '02:30:00 GMT', '17', 'STL', 'St. Louis', 'Blues', '142', 'VGK', 'Vegas', 'Golden Knights', '139', 'T-Mobile Arena', '142', 'VGK', 'Vegas', 'Golden Knights', '1', '0', '0', '0', '2', '21', '31', '40.4', '1', '0', '0.0', '2', '0', '100.0', '1', '0', '4', '3', '26', '19', '2', '4', '44']"
"['', '41989', '2018-03-31', '02:30:00 GMT', '26', 'SJS', 'San Jose', 'Sharks', '142', 'VGK', 'Vegas', 'Golden Knights', '139', 'T-Mobile Arena', '142', 'VGK', 'Vegas', 'Golden Knights', '1', '0', '0', '0', '2', '38', '30', '55.9', '4', '0', '0.0', '2', '0', '100.0', '1', '0', '3', '2', '38', '15', '2', '4', '44']"
"['', '42008', '2018-04-03', '02:00:00 GMT', '142', 'VGK', 'Vegas', 'Golden Knights', '21', 'VAN', 'Vancouver', 'Canucks', '7', 'Rogers Arena', '142', 'VGK', 'Vegas', 'Golden Knights', '1', '0', '0', '0', '2', '23', '39', '37.1', '4', '1', '25.0', '2', '1', '50.0', '0', '0', '4', '4', '39', '15', '2', '4', '18']"
"['', '42021', '2018-04-05', '01:00:00 GMT', '142', 'VGK', 'Vegas', 'Golden Knights', '24', 'EDM', 'Edmonton', 'Oilers', '22', 'Rogers Place', '142', 'VGK', 'Vegas', 'Golden Knights', '0', '1', '0', '0', '0', '28', '25', '52.8', '2', '0', '0.0', '3', '1', '66.7', '0', '0', '3', '4', '33', '7', '3', '6', '15']"
"['', '42041', '2018-04-07', '02:00:00 GMT', '142', 'VGK', 'Vegas', 'Golden Knights', '23', 'CGY', 'Calgary', 'Flames', '18', 'Scotiabank Saddledome', '142', 'VGK', 'Vegas', 'Golden Knights', '0', '1', '0', '0', '0', '28', '34', '45.2', '3', '0', '0.0', '5', '1', '80.0', '0', '1', '1', '7', '27', '15', '5', '10', '16']"
