"['#Date/Time of Update: 2018-12-10 19:03:07 GMT', '#Game ID', '#Game Date', '#Game Time', '#Away Team ID', '#Away Team Abbr.', '#Away Team City', '#Away Team Name', '#Home Team ID', '#Home Team Abbr.', '#Home Team City', '#Home Team Name', '#Venue ID', '#Venue Name', '#Team ID', '#Team Abbr.', '#Team City', '#Team Name', '#Wins', '#Losses', '#OvertimeWins', '#OvertimeLosses', '#ShootoutWins', '#ShootoutLosses', '#Rows', '#Points', '#FaceoffWins', '#FaceoffLosses', '#FaceoffPercent', '#Powerplays', '#PowerplayGoals', '#PowerplayPercent', '#PenaltyKills', '#PenaltyKillGoalsAllowed', '#PenaltyKillPercent', '#ShorthandedGoalsFor', '#ShorthandedGoalsAgainst', '#GoalsFor', '#GoalsAgainst', '#Shots', '#Penalties', '#PenaltyMinutes', '#Hits']"
"['', '19730', '2013-01-19', '01:00:00 GMT', '16', 'DET', 'Detroit', 'Red Wings', '17', 'STL', 'St. Louis', 'Blues', '24', 'Scottrade Center', '16', 'DET', 'Detroit', 'Red Wings', '0', '1', '0', '0', '0', '0', '0', '0', '30', '26', '53.6', '4', '0', '0.0', '5', '4', '20.0', '0', '1', '0', '6', '14', '7', '30', '12']"
"['', '19746', '2013-01-21', '00:30:00 GMT', '16', 'DET', 'Detroit', 'Red Wings', '19', 'CBJ', 'Columbus', 'Blue Jackets', '17', 'Nationwide Arena', '16', 'DET', 'Detroit', 'Red Wings', '1', '0', '0', '0', '0', '0', '0', '2', '32', '35', '47.8', '6', '0', '0.0', '5', '2', '60.0', '0', '0', '3', '3', '39', '10', '23', '15']"
"['', '19752', '2013-01-22', '00:30:00 GMT', '27', 'DAL', 'Dallas', 'Stars', '16', 'DET', 'Detroit', 'Red Wings', '11', 'Joe Louis Arena', '16', 'DET', 'Detroit', 'Red Wings', '0', '1', '0', '0', '0', '0', '0', '0', '35', '25', '58.3', '4', '0', '0.0', '2', '0', '100.0', '0', '0', '1', '2', '39', '3', '6', '9']"
"['', '19775', '2013-01-25', '00:30:00 GMT', '25', 'MIN', 'Minnesota', 'Wild', '16', 'DET', 'Detroit', 'Red Wings', '11', 'Joe Louis Arena', '16', 'DET', 'Detroit', 'Red Wings', '1', '0', '0', '0', '0', '0', '1', '2', '35', '33', '51.5', '5', '2', '40.0', '7', '1', '85.7', '0', '0', '5', '3', '22', '9', '21', '21']"
"['', '19791', '2013-01-27', '00:00:00 GMT', '16', 'DET', 'Detroit', 'Red Wings', '20', 'CHI', 'Chicago', 'Blackhawks', '28', 'United Center', '16', 'DET', 'Detroit', 'Red Wings', '0', '0', '0', '1', '0', '0', '0', '1', '33', '31', '51.6', '6', '0', '0.0', '3', '1', '66.7', '0', '0', '1', '2', '29', '3', '6', '19']"
"['', '19806', '2013-01-29', '00:30:00 GMT', '27', 'DAL', 'Dallas', 'Stars', '16', 'DET', 'Detroit', 'Red Wings', '11', 'Joe Louis Arena', '16', 'DET', 'Detroit', 'Red Wings', '1', '0', '0', '0', '0', '0', '1', '2', '36', '24', '60.0', '6', '1', '16.7', '5', '0', '100.0', '0', '0', '4', '1', '23', '8', '22', '18']"
"['', '19825', '2013-02-01', '00:30:00 GMT', '17', 'STL', 'St. Louis', 'Blues', '16', 'DET', 'Detroit', 'Red Wings', '11', 'Joe Louis Arena', '16', 'DET', 'Detroit', 'Red Wings', '1', '0', '0', '0', '0', '0', '1', '2', '35', '27', '56.5', '3', '1', '33.3', '5', '2', '60.0', '1', '0', '5', '3', '26', '5', '10', '25']"
"['', '19835', '2013-02-02', '00:00:00 GMT', '16', 'DET', 'Detroit', 'Red Wings', '19', 'CBJ', 'Columbus', 'Blue Jackets', '17', 'Nationwide Arena', '16', 'DET', 'Detroit', 'Red Wings', '0', '1', '0', '0', '0', '0', '0', '0', '33', '24', '57.9', '5', '0', '0.0', '3', '1', '66.7', '0', '1', '2', '4', '32', '3', '6', '11']"
"['', '19855', '2013-02-05', '00:30:00 GMT', '23', 'CGY', 'Calgary', 'Flames', '16', 'DET', 'Detroit', 'Red Wings', '11', 'Joe Louis Arena', '16', 'DET', 'Detroit', 'Red Wings', '0', '1', '0', '0', '0', '0', '0', '0', '37', '33', '52.9', '4', '1', '25.0', '5', '2', '60.0', '0', '0', '1', '4', '25', '7', '25', '19']"
"['', '19870', '2013-02-07', '01:00:00 GMT', '16', 'DET', 'Detroit', 'Red Wings', '17', 'STL', 'St. Louis', 'Blues', '24', 'Scottrade Center', '16', 'DET', 'Detroit', 'Red Wings', '1', '0', '0', '0', '0', '0', '1', '2', '31', '33', '48.4', '1', '0', '0.0', '2', '1', '50.0', '0', '0', '5', '1', '24', '4', '19', '9']"
"['', '19879', '2013-02-09', '19:00:00 GMT', '24', 'EDM', 'Edmonton', 'Oilers', '16', 'DET', 'Detroit', 'Red Wings', '11', 'Joe Louis Arena', '16', 'DET', 'Detroit', 'Red Wings', '1', '0', '0', '0', '0', '0', '1', '2', '33', '17', '66.0', '5', '2', '40.0', '8', '1', '87.5', '0', '0', '2', '1', '28', '8', '16', '24']"
"['', '19887', '2013-02-10', '17:30:00 GMT', '28', 'LAK', 'Los Angeles', 'Kings', '16', 'DET', 'Detroit', 'Red Wings', '11', 'Joe Louis Arena', '16', 'DET', 'Detroit', 'Red Wings', '1', '0', '0', '0', '0', '0', '1', '2', '27', '37', '42.2', '3', '1', '33.3', '3', '0', '100.0', '0', '0', '3', '2', '28', '3', '6', '24']"
"['', '19910', '2013-02-13', '00:30:00 GMT', '17', 'STL', 'St. Louis', 'Blues', '16', 'DET', 'Detroit', 'Red Wings', '11', 'Joe Louis Arena', '16', 'DET', 'Detroit', 'Red Wings', '0', '0', '0', '1', '0', '0', '0', '1', '31', '23', '57.4', '4', '0', '0.0', '3', '1', '66.7', '0', '1', '3', '4', '15', '4', '8', '18']"
"['', '19921', '2013-02-15', '00:30:00 GMT', '29', 'ANA', 'Anaheim', 'Ducks', '16', 'DET', 'Detroit', 'Red Wings', '11', 'Joe Louis Arena', '16', 'DET', 'Detroit', 'Red Wings', '0', '1', '0', '0', '0', '0', '0', '0', '30', '22', '57.7', '4', '1', '25.0', '2', '0', '100.0', '0', '0', '2', '5', '26', '3', '6', '18']"
"['', '19937', '2013-02-17', '23:00:00 GMT', '16', 'DET', 'Detroit', 'Red Wings', '25', 'MIN', 'Minnesota', 'Wild', '30', 'Xcel Energy Center', '16', 'DET', 'Detroit', 'Red Wings', '0', '1', '0', '0', '0', '0', '0', '0', '20', '29', '40.8', '3', '0', '0.0', '2', '0', '100.0', '0', '0', '2', '3', '29', '2', '4', '17']"
"['', '19952', '2013-02-19', '01:00:00 GMT', '16', 'DET', 'Detroit', 'Red Wings', '18', 'NSH', 'Nashville', 'Predators', '15', 'Bridgestone Arena', '16', 'DET', 'Detroit', 'Red Wings', '0', '0', '0', '1', '0', '0', '0', '1', '31', '21', '59.6', '1', '0', '0.0', '6', '1', '83.3', '1', '0', '3', '4', '26', '6', '12', '14']"
"['', '19965', '2013-02-21', '00:30:00 GMT', '19', 'CBJ', 'Columbus', 'Blue Jackets', '16', 'DET', 'Detroit', 'Red Wings', '11', 'Joe Louis Arena', '16', 'DET', 'Detroit', 'Red Wings', '0', '1', '0', '0', '0', '0', '0', '0', '27', '22', '55.1', '4', '0', '0.0', '2', '1', '50.0', '0', '0', '2', '3', '28', '6', '23', '21']"
"['', '19979', '2013-02-23', '00:00:00 GMT', '18', 'NSH', 'Nashville', 'Predators', '16', 'DET', 'Detroit', 'Red Wings', '11', 'Joe Louis Arena', '16', 'DET', 'Detroit', 'Red Wings', '1', '0', '0', '0', '0', '0', '1', '2', '24', '24', '50.0', '2', '1', '50.0', '2', '0', '100.0', '0', '0', '4', '0', '23', '2', '4', '17']"
"['', '19985', '2013-02-24', '22:00:00 GMT', '21', 'VAN', 'Vancouver', 'Canucks', '16', 'DET', 'Detroit', 'Red Wings', '11', 'Joe Louis Arena', '16', 'DET', 'Detroit', 'Red Wings', '1', '0', '0', '0', '0', '0', '1', '2', '27', '24', '52.9', '5', '3', '60.0', '0', '0', '0.0', '0', '0', '8', '3', '20', '3', '6', '21']"
"['', '20008', '2013-02-27', '03:30:00 GMT', '16', 'DET', 'Detroit', 'Red Wings', '28', 'LAK', 'Los Angeles', 'Kings', '25', 'Staples Center', '16', 'DET', 'Detroit', 'Red Wings', '0', '1', '0', '0', '0', '0', '0', '0', '31', '33', '48.4', '3', '0', '0.0', '5', '1', '80.0', '0', '0', '1', '2', '32', '5', '10', '17']"
"['', '20019', '2013-02-28', '03:30:00 GMT', '16', 'DET', 'Detroit', 'Red Wings', '26', 'SJS', 'San Jose', 'Sharks', '9', 'SAP Center at San Jose', '16', 'DET', 'Detroit', 'Red Wings', '1', '0', '0', '0', '0', '0', '0', '2', '26', '30', '46.4', '1', '0', '0.0', '1', '0', '100.0', '0', '0', '1', '1', '33', '1', '2', '20']"
"['', '20032', '2013-03-03', '17:30:00 GMT', '20', 'CHI', 'Chicago', 'Blackhawks', '16', 'DET', 'Detroit', 'Red Wings', '11', 'Joe Louis Arena', '16', 'DET', 'Detroit', 'Red Wings', '0', '0', '0', '1', '0', '0', '0', '1', '28', '27', '50.9', '2', '0', '0.0', '4', '1', '75.0', '0', '0', '1', '1', '32', '4', '8', '23']"
"['', '20052', '2013-03-05', '00:30:00 GMT', '22', 'COL', 'Colorado', 'Avalanche', '16', 'DET', 'Detroit', 'Red Wings', '11', 'Joe Louis Arena', '16', 'DET', 'Detroit', 'Red Wings', '1', '0', '0', '0', '0', '0', '1', '2', '21', '25', '45.7', '2', '0', '0.0', '1', '0', '100.0', '0', '0', '2', '1', '31', '1', '2', '19']"
"['', '20068', '2013-03-07', '00:30:00 GMT', '24', 'EDM', 'Edmonton', 'Oilers', '16', 'DET', 'Detroit', 'Red Wings', '11', 'Joe Louis Arena', '16', 'DET', 'Detroit', 'Red Wings', '1', '0', '0', '0', '0', '0', '1', '2', '36', '25', '59.0', '1', '0', '0.0', '0', '0', '0.0', '0', '0', '3', '0', '25', '1', '5', '15']"
"['', '20078', '2013-03-09', '19:00:00 GMT', '16', 'DET', 'Detroit', 'Red Wings', '19', 'CBJ', 'Columbus', 'Blue Jackets', '17', 'Nationwide Arena', '16', 'DET', 'Detroit', 'Red Wings', '0', '1', '0', '0', '0', '0', '0', '0', '17', '34', '33.3', '3', '0', '0.0', '6', '1', '83.3', '0', '0', '0', '3', '30', '7', '14', '14']"
"['', '20087', '2013-03-10', '21:00:00 GMT', '19', 'CBJ', 'Columbus', 'Blue Jackets', '16', 'DET', 'Detroit', 'Red Wings', '11', 'Joe Louis Arena', '16', 'DET', 'Detroit', 'Red Wings', '0', '0', '0', '1', '0', '0', '0', '1', '28', '33', '45.9', '5', '1', '20.0', '5', '0', '100.0', '0', '0', '2', '2', '21', '6', '15', '26']"
"['', '20111', '2013-03-13', '01:30:00 GMT', '16', 'DET', 'Detroit', 'Red Wings', '23', 'CGY', 'Calgary', 'Flames', '18', 'Scotiabank Saddledome', '16', 'DET', 'Detroit', 'Red Wings', '0', '1', '0', '0', '0', '0', '0', '0', '25', '24', '51.0', '2', '1', '50.0', '2', '1', '50.0', '0', '0', '2', '5', '36', '2', '4', '13']"
"['', '20125', '2013-03-15', '01:30:00 GMT', '16', 'DET', 'Detroit', 'Red Wings', '24', 'EDM', 'Edmonton', 'Oilers', '22', 'Rogers Place', '16', 'DET', 'Detroit', 'Red Wings', '1', '0', '0', '0', '0', '0', '1', '2', '34', '23', '59.6', '4', '1', '25.0', '3', '0', '100.0', '0', '0', '3', '2', '26', '4', '11', '11']"
"['', '20137', '2013-03-16', '02:00:00 GMT', '16', 'DET', 'Detroit', 'Red Wings', '21', 'VAN', 'Vancouver', 'Canucks', '7', 'Rogers Arena', '16', 'DET', 'Detroit', 'Red Wings', '1', '0', '0', '0', '0', '0', '1', '2', '36', '24', '60.0', '2', '1', '50.0', '6', '0', '100.0', '0', '0', '5', '2', '21', '7', '22', '8']"
"['', '20160', '2013-03-20', '23:30:00 GMT', '25', 'MIN', 'Minnesota', 'Wild', '16', 'DET', 'Detroit', 'Red Wings', '11', 'Joe Louis Arena', '16', 'DET', 'Detroit', 'Red Wings', '0', '1', '0', '0', '0', '0', '0', '0', '28', '33', '45.9', '5', '1', '20.0', '3', '2', '33.3', '0', '0', '2', '4', '36', '4', '8', '18']"
"['', '20176', '2013-03-22', '02:00:00 GMT', '16', 'DET', 'Detroit', 'Red Wings', '29', 'ANA', 'Anaheim', 'Ducks', '8', 'Honda Center', '16', 'DET', 'Detroit', 'Red Wings', '1', '0', '0', '0', '0', '0', '1', '2', '27', '25', '51.9', '2', '1', '50.0', '3', '0', '100.0', '0', '0', '5', '1', '18', '6', '21', '18']"
"['', '20192', '2013-03-24', '00:00:00 GMT', '16', 'DET', 'Detroit', 'Red Wings', '29', 'ANA', 'Anaheim', 'Ducks', '8', 'Honda Center', '16', 'DET', 'Detroit', 'Red Wings', '1', '0', '0', '0', '0', '0', '1', '2', '29', '32', '47.5', '5', '1', '20.0', '2', '1', '50.0', '0', '0', '2', '1', '19', '4', '11', '13']"
"['', '20198', '2013-03-25', '02:00:00 GMT', '16', 'DET', 'Detroit', 'Red Wings', '30', 'PHX', 'Phoenix', 'Coyotes', '6', 'Jobing.com Arena', '16', 'DET', 'Detroit', 'Red Wings', '1', '0', '0', '0', '0', '0', '1', '2', '23', '37', '38.3', '5', '2', '40.0', '3', '1', '66.7', '0', '0', '3', '2', '32', '3', '6', '20']"
"['', '20222', '2013-03-28', '02:30:00 GMT', '16', 'DET', 'Detroit', 'Red Wings', '26', 'SJS', 'San Jose', 'Sharks', '9', 'SAP Center at San Jose', '16', 'DET', 'Detroit', 'Red Wings', '0', '1', '0', '0', '0', '0', '0', '0', '23', '31', '42.6', '1', '0', '0.0', '0', '0', '0.0', '0', '0', '0', '2', '27', '0', '0', '14']"
"['', '20238', '2013-03-31', '16:30:00 GMT', '20', 'CHI', 'Chicago', 'Blackhawks', '16', 'DET', 'Detroit', 'Red Wings', '11', 'Joe Louis Arena', '16', 'DET', 'Detroit', 'Red Wings', '0', '1', '0', '0', '0', '0', '0', '0', '34', '26', '56.7', '2', '0', '0.0', '0', '0', '0.0', '0', '0', '1', '7', '33', '0', '0', '29']"
"['', '20246', '2013-04-01', '23:30:00 GMT', '22', 'COL', 'Colorado', 'Avalanche', '16', 'DET', 'Detroit', 'Red Wings', '11', 'Joe Louis Arena', '16', 'DET', 'Detroit', 'Red Wings', '1', '0', '0', '0', '0', '0', '1', '2', '25', '29', '46.3', '2', '1', '50.0', '3', '1', '66.7', '0', '0', '3', '2', '17', '3', '6', '20']"
"['', '20272', '2013-04-04', '02:00:00 GMT', '16', 'DET', 'Detroit', 'Red Wings', '30', 'PHX', 'Phoenix', 'Coyotes', '6', 'Jobing.com Arena', '16', 'DET', 'Detroit', 'Red Wings', '0', '1', '0', '0', '0', '0', '0', '0', '29', '35', '45.3', '6', '2', '33.3', '4', '0', '100.0', '0', '0', '2', '4', '34', '5', '10', '17']"
"['', '20277', '2013-04-05', '01:00:00 GMT', '16', 'DET', 'Detroit', 'Red Wings', '22', 'COL', 'Colorado', 'Avalanche', '19', 'Pepsi Center', '16', 'DET', 'Detroit', 'Red Wings', '1', '0', '0', '0', '0', '0', '1', '2', '28', '26', '51.9', '4', '1', '25.0', '2', '0', '100.0', '0', '0', '3', '2', '28', '3', '6', '23']"
"['', '20290', '2013-04-07', '16:30:00 GMT', '17', 'STL', 'St. Louis', 'Blues', '16', 'DET', 'Detroit', 'Red Wings', '11', 'Joe Louis Arena', '16', 'DET', 'Detroit', 'Red Wings', '0', '1', '0', '0', '0', '0', '0', '0', '25', '31', '44.6', '3', '0', '0.0', '2', '0', '100.0', '0', '0', '0', '1', '28', '3', '6', '23']"
"['', '20322', '2013-04-11', '23:30:00 GMT', '26', 'SJS', 'San Jose', 'Sharks', '16', 'DET', 'Detroit', 'Red Wings', '11', 'Joe Louis Arena', '16', 'DET', 'Detroit', 'Red Wings', '0', '0', '0', '1', '0', '0', '0', '1', '28', '38', '42.4', '4', '1', '25.0', '4', '1', '75.0', '0', '1', '2', '2', '27', '4', '8', '31']"
"['', '20329', '2013-04-12', '00:30:00 GMT', '16', 'DET', 'Detroit', 'Red Wings', '20', 'CHI', 'Chicago', 'Blackhawks', '28', 'United Center', '16', 'DET', 'Detroit', 'Red Wings', '0', '0', '0', '1', '0', '0', '0', '1', '22', '37', '37.3', '4', '1', '25.0', '3', '0', '100.0', '0', '0', '2', '2', '27', '3', '6', '31']"
"['', '20344', '2013-04-14', '23:30:00 GMT', '16', 'DET', 'Detroit', 'Red Wings', '18', 'NSH', 'Nashville', 'Predators', '15', 'Bridgestone Arena', '16', 'DET', 'Detroit', 'Red Wings', '1', '0', '0', '0', '0', '0', '1', '2', '27', '26', '50.9', '2', '0', '0.0', '2', '0', '100.0', '0', '0', '3', '0', '29', '2', '4', '16']"
"['', '20363', '2013-04-17', '01:30:00 GMT', '16', 'DET', 'Detroit', 'Red Wings', '23', 'CGY', 'Calgary', 'Flames', '18', 'Scotiabank Saddledome', '16', 'DET', 'Detroit', 'Red Wings', '0', '1', '0', '0', '0', '0', '0', '0', '27', '27', '50.0', '4', '0', '0.0', '1', '0', '100.0', '0', '1', '2', '3', '36', '1', '2', '7']"
"['', '20388', '2013-04-20', '02:00:00 GMT', '16', 'DET', 'Detroit', 'Red Wings', '21', 'VAN', 'Vancouver', 'Canucks', '7', 'Rogers Arena', '16', 'DET', 'Detroit', 'Red Wings', '0', '0', '0', '1', '0', '0', '0', '1', '24', '22', '52.2', '3', '0', '0.0', '4', '1', '75.0', '0', '0', '1', '1', '33', '6', '15', '13']"
"['', '20398', '2013-04-22', '23:30:00 GMT', '30', 'PHX', 'Phoenix', 'Coyotes', '16', 'DET', 'Detroit', 'Red Wings', '11', 'Joe Louis Arena', '16', 'DET', 'Detroit', 'Red Wings', '1', '0', '0', '0', '0', '0', '1', '2', '27', '28', '49.1', '5', '3', '60.0', '4', '0', '100.0', '0', '0', '4', '0', '19', '5', '10', '21']"
"['', '20411', '2013-04-24', '23:30:00 GMT', '28', 'LAK', 'Los Angeles', 'Kings', '16', 'DET', 'Detroit', 'Red Wings', '11', 'Joe Louis Arena', '16', 'DET', 'Detroit', 'Red Wings', '1', '0', '0', '0', '0', '0', '1', '2', '33', '21', '61.1', '4', '1', '25.0', '2', '0', '100.0', '0', '0', '3', '1', '33', '3', '6', '22']"
"['', '20419', '2013-04-25', '23:30:00 GMT', '18', 'NSH', 'Nashville', 'Predators', '16', 'DET', 'Detroit', 'Red Wings', '11', 'Joe Louis Arena', '16', 'DET', 'Detroit', 'Red Wings', '1', '0', '0', '0', '0', '0', '1', '2', '32', '25', '56.1', '3', '1', '33.3', '4', '1', '75.0', '0', '0', '5', '2', '33', '5', '10', '17']"
"['', '20436', '2013-04-27', '00:00:00 GMT', '16', 'DET', 'Detroit', 'Red Wings', '27', 'DAL', 'Dallas', 'Stars', '2', 'American Airlines Center', '16', 'DET', 'Detroit', 'Red Wings', '1', '0', '0', '0', '0', '0', '1', '2', '27', '26', '50.9', '3', '0', '0.0', '3', '0', '100.0', '1', '0', '3', '0', '34', '4', '8', '14']"
