"['#Date/Time of Update: 2018-12-10 19:03:07 GMT', '#Game ID', '#Game Date', '#Game Time', '#Away Team ID', '#Away Team Abbr.', '#Away Team City', '#Away Team Name', '#Home Team ID', '#Home Team Abbr.', '#Home Team City', '#Home Team Name', '#Venue ID', '#Venue Name', '#Team ID', '#Team Abbr.', '#Team City', '#Team Name', '#Wins', '#Losses', '#OvertimeWins', '#OvertimeLosses', '#ShootoutWins', '#ShootoutLosses', '#Rows', '#Points', '#FaceoffWins', '#FaceoffLosses', '#FaceoffPercent', '#Powerplays', '#PowerplayGoals', '#PowerplayPercent', '#PenaltyKills', '#PenaltyKillGoalsAllowed', '#PenaltyKillPercent', '#ShorthandedGoalsFor', '#ShorthandedGoalsAgainst', '#GoalsFor', '#GoalsAgainst', '#Shots', '#Penalties', '#PenaltyMinutes', '#Hits']"
"['', '19733', '2013-01-19', '02:00:00 GMT', '22', 'COL', 'Colorado', 'Avalanche', '25', 'MIN', 'Minnesota', 'Wild', '30', 'Xcel Energy Center', '25', 'MIN', 'Minnesota', 'Wild', '1', '0', '0', '0', '0', '0', '1', '2', '32', '27', '54.2', '6', '2', '33.3', '3', '0', '100.0', '0', '0', '4', '2', '31', '4', '11', '19']"
"['', '19738', '2013-01-20', '01:00:00 GMT', '27', 'DAL', 'Dallas', 'Stars', '25', 'MIN', 'Minnesota', 'Wild', '30', 'Xcel Energy Center', '25', 'MIN', 'Minnesota', 'Wild', '1', '0', '0', '0', '0', '0', '1', '2', '26', '24', '52.0', '3', '0', '0.0', '3', '0', '100.0', '0', '0', '1', '0', '31', '5', '10', '25']"
"['', '19753', '2013-01-22', '01:00:00 GMT', '18', 'NSH', 'Nashville', 'Predators', '25', 'MIN', 'Minnesota', 'Wild', '30', 'Xcel Energy Center', '25', 'MIN', 'Minnesota', 'Wild', '0', '1', '0', '0', '0', '0', '0', '0', '33', '25', '56.9', '2', '0', '0.0', '3', '1', '66.7', '0', '0', '1', '3', '29', '6', '15', '20']"
"['', '19775', '2013-01-25', '00:30:00 GMT', '25', 'MIN', 'Minnesota', 'Wild', '16', 'DET', 'Detroit', 'Red Wings', '11', 'Joe Louis Arena', '25', 'MIN', 'Minnesota', 'Wild', '0', '1', '0', '0', '0', '0', '0', '0', '33', '35', '48.5', '7', '1', '14.3', '5', '2', '60.0', '0', '0', '3', '5', '23', '6', '15', '5']"
"['', '19790', '2013-01-27', '23:00:00 GMT', '25', 'MIN', 'Minnesota', 'Wild', '17', 'STL', 'St. Louis', 'Blues', '24', 'Scottrade Center', '25', 'MIN', 'Minnesota', 'Wild', '0', '0', '0', '1', '0', '0', '0', '1', '31', '38', '44.9', '3', '2', '66.7', '5', '0', '100.0', '0', '0', '4', '5', '12', '6', '12', '19']"
"['', '19807', '2013-01-29', '01:00:00 GMT', '19', 'CBJ', 'Columbus', 'Blue Jackets', '25', 'MIN', 'Minnesota', 'Wild', '30', 'Xcel Energy Center', '25', 'MIN', 'Minnesota', 'Wild', '1', '0', '0', '0', '0', '0', '1', '2', '28', '23', '54.9', '2', '0', '0.0', '4', '1', '75.0', '0', '0', '3', '2', '22', '6', '18', '16']"
"['', '19810', '2013-01-30', '01:00:00 GMT', '20', 'CHI', 'Chicago', 'Blackhawks', '25', 'MIN', 'Minnesota', 'Wild', '30', 'Xcel Energy Center', '25', 'MIN', 'Minnesota', 'Wild', '1', '0', '0', '0', '0', '0', '0', '2', '34', '32', '51.5', '3', '0', '0.0', '2', '0', '100.0', '0', '0', '2', '2', '23', '2', '4', '13']"
"['', '19828', '2013-02-01', '03:00:00 GMT', '25', 'MIN', 'Minnesota', 'Wild', '29', 'ANA', 'Anaheim', 'Ducks', '8', 'Honda Center', '25', 'MIN', 'Minnesota', 'Wild', '0', '1', '0', '0', '0', '0', '0', '0', '30', '25', '54.5', '1', '0', '0.0', '2', '1', '50.0', '0', '0', '1', '3', '26', '2', '4', '22']"
"['', '19846', '2013-02-04', '02:00:00 GMT', '25', 'MIN', 'Minnesota', 'Wild', '30', 'PHX', 'Phoenix', 'Coyotes', '6', 'Jobing.com Arena', '25', 'MIN', 'Minnesota', 'Wild', '0', '1', '0', '0', '0', '0', '0', '0', '25', '27', '48.1', '2', '0', '0.0', '1', '0', '100.0', '0', '0', '1', '2', '21', '1', '2', '24']"
"['', '19872', '2013-02-07', '01:00:00 GMT', '21', 'VAN', 'Vancouver', 'Canucks', '25', 'MIN', 'Minnesota', 'Wild', '30', 'Xcel Energy Center', '25', 'MIN', 'Minnesota', 'Wild', '0', '1', '0', '0', '0', '0', '0', '0', '27', '35', '43.5', '4', '1', '25.0', '5', '1', '80.0', '0', '0', '1', '4', '22', '12', '46', '23']"
"['', '19885', '2013-02-09', '01:00:00 GMT', '18', 'NSH', 'Nashville', 'Predators', '25', 'MIN', 'Minnesota', 'Wild', '30', 'Xcel Energy Center', '25', 'MIN', 'Minnesota', 'Wild', '1', '0', '0', '0', '0', '0', '1', '2', '37', '29', '56.1', '4', '1', '25.0', '6', '0', '100.0', '0', '0', '2', '1', '30', '8', '16', '22']"
"['', '19898', '2013-02-11', '02:00:00 GMT', '25', 'MIN', 'Minnesota', 'Wild', '23', 'CGY', 'Calgary', 'Flames', '18', 'Scotiabank Saddledome', '25', 'MIN', 'Minnesota', 'Wild', '1', '0', '0', '0', '0', '0', '0', '2', '30', '33', '47.6', '4', '0', '0.0', '2', '0', '100.0', '0', '0', '1', '1', '23', '2', '4', '15']"
"['', '19908', '2013-02-12', '03:00:00 GMT', '25', 'MIN', 'Minnesota', 'Wild', '21', 'VAN', 'Vancouver', 'Canucks', '7', 'Rogers Arena', '25', 'MIN', 'Minnesota', 'Wild', '0', '1', '0', '0', '0', '0', '0', '0', '43', '29', '59.7', '5', '1', '20.0', '2', '1', '50.0', '0', '0', '1', '2', '25', '3', '6', '17']"
"['', '19917', '2013-02-14', '01:00:00 GMT', '22', 'COL', 'Colorado', 'Avalanche', '25', 'MIN', 'Minnesota', 'Wild', '30', 'Xcel Energy Center', '25', 'MIN', 'Minnesota', 'Wild', '0', '0', '0', '1', '0', '0', '0', '1', '39', '29', '57.4', '1', '0', '0.0', '2', '1', '50.0', '0', '0', '3', '3', '26', '2', '4', '24']"
"['', '19937', '2013-02-17', '23:00:00 GMT', '16', 'DET', 'Detroit', 'Red Wings', '25', 'MIN', 'Minnesota', 'Wild', '30', 'Xcel Energy Center', '25', 'MIN', 'Minnesota', 'Wild', '1', '0', '0', '0', '0', '0', '1', '2', '29', '20', '59.2', '2', '0', '0.0', '3', '0', '100.0', '0', '0', '3', '2', '21', '3', '6', '26']"
"['', '19967', '2013-02-21', '02:30:00 GMT', '25', 'MIN', 'Minnesota', 'Wild', '24', 'EDM', 'Edmonton', 'Oilers', '22', 'Rogers Place', '25', 'MIN', 'Minnesota', 'Wild', '1', '0', '0', '0', '0', '0', '1', '2', '31', '29', '51.7', '3', '0', '0.0', '0', '0', '0.0', '0', '0', '3', '1', '25', '1', '2', '19']"
"['', '19982', '2013-02-23', '03:00:00 GMT', '25', 'MIN', 'Minnesota', 'Wild', '23', 'CGY', 'Calgary', 'Flames', '18', 'Scotiabank Saddledome', '25', 'MIN', 'Minnesota', 'Wild', '0', '1', '0', '0', '0', '0', '0', '0', '42', '29', '59.2', '1', '0', '0.0', '2', '0', '100.0', '0', '0', '1', '3', '30', '3', '14', '11']"
"['', '20002', '2013-02-26', '01:00:00 GMT', '23', 'CGY', 'Calgary', 'Flames', '25', 'MIN', 'Minnesota', 'Wild', '30', 'Xcel Energy Center', '25', 'MIN', 'Minnesota', 'Wild', '1', '0', '0', '0', '0', '0', '1', '2', '40', '23', '63.5', '5', '1', '20.0', '6', '1', '83.3', '0', '0', '2', '1', '28', '8', '19', '19']"
"['', '20018', '2013-02-28', '02:00:00 GMT', '25', 'MIN', 'Minnesota', 'Wild', '30', 'PHX', 'Phoenix', 'Coyotes', '6', 'Jobing.com Arena', '25', 'MIN', 'Minnesota', 'Wild', '1', '0', '0', '0', '0', '0', '1', '2', '23', '35', '39.7', '5', '1', '20.0', '3', '0', '100.0', '0', '0', '4', '3', '19', '6', '15', '15']"
"['', '20022', '2013-03-01', '03:00:00 GMT', '25', 'MIN', 'Minnesota', 'Wild', '29', 'ANA', 'Anaheim', 'Ducks', '8', 'Honda Center', '25', 'MIN', 'Minnesota', 'Wild', '0', '1', '0', '0', '0', '0', '0', '0', '32', '24', '57.1', '3', '0', '0.0', '1', '0', '100.0', '0', '0', '2', '3', '31', '3', '12', '16']"
"['', '20039', '2013-03-03', '01:00:00 GMT', '24', 'EDM', 'Edmonton', 'Oilers', '25', 'MIN', 'Minnesota', 'Wild', '30', 'Xcel Energy Center', '25', 'MIN', 'Minnesota', 'Wild', '1', '0', '0', '0', '0', '0', '1', '2', '30', '22', '57.7', '3', '1', '33.3', '1', '0', '100.0', '0', '0', '4', '2', '39', '1', '2', '15']"
"['', '20053', '2013-03-05', '01:30:00 GMT', '25', 'MIN', 'Minnesota', 'Wild', '20', 'CHI', 'Chicago', 'Blackhawks', '28', 'United Center', '25', 'MIN', 'Minnesota', 'Wild', '0', '1', '0', '0', '0', '0', '0', '0', '29', '32', '47.5', '2', '1', '50.0', '3', '0', '100.0', '0', '0', '3', '5', '20', '3', '6', '39']"
"['', '20083', '2013-03-09', '01:00:00 GMT', '25', 'MIN', 'Minnesota', 'Wild', '18', 'NSH', 'Nashville', 'Predators', '15', 'Bridgestone Arena', '25', 'MIN', 'Minnesota', 'Wild', '1', '0', '0', '0', '0', '0', '0', '2', '31', '27', '53.4', '5', '1', '20.0', '2', '1', '50.0', '0', '0', '1', '1', '28', '3', '6', '23']"
"['', '20093', '2013-03-10', '00:00:00 GMT', '21', 'VAN', 'Vancouver', 'Canucks', '25', 'MIN', 'Minnesota', 'Wild', '30', 'Xcel Energy Center', '25', 'MIN', 'Minnesota', 'Wild', '1', '0', '0', '0', '0', '0', '1', '2', '29', '25', '53.7', '3', '1', '33.3', '3', '0', '100.0', '0', '0', '4', '2', '28', '8', '19', '23']"
"['', '20105', '2013-03-12', '00:00:00 GMT', '29', 'ANA', 'Anaheim', 'Ducks', '25', 'MIN', 'Minnesota', 'Wild', '30', 'Xcel Energy Center', '25', 'MIN', 'Minnesota', 'Wild', '0', '1', '0', '0', '0', '0', '0', '0', '36', '23', '61.0', '5', '1', '20.0', '3', '0', '100.0', '0', '0', '1', '2', '30', '5', '13', '20']"
"['', '20119', '2013-03-14', '00:00:00 GMT', '22', 'COL', 'Colorado', 'Avalanche', '25', 'MIN', 'Minnesota', 'Wild', '30', 'Xcel Energy Center', '25', 'MIN', 'Minnesota', 'Wild', '1', '0', '0', '0', '0', '0', '1', '2', '24', '37', '39.3', '4', '0', '0.0', '2', '1', '50.0', '0', '0', '5', '3', '35', '5', '16', '17']"
"['', '20129', '2013-03-16', '19:00:00 GMT', '25', 'MIN', 'Minnesota', 'Wild', '22', 'COL', 'Colorado', 'Avalanche', '19', 'Pepsi Center', '25', 'MIN', 'Minnesota', 'Wild', '1', '0', '0', '0', '0', '0', '1', '2', '34', '31', '52.3', '3', '1', '33.3', '2', '0', '100.0', '0', '0', '6', '4', '22', '5', '16', '19']"
"['', '20147', '2013-03-18', '02:00:00 GMT', '25', 'MIN', 'Minnesota', 'Wild', '21', 'VAN', 'Vancouver', 'Canucks', '7', 'Rogers Arena', '25', 'MIN', 'Minnesota', 'Wild', '1', '0', '0', '0', '0', '0', '1', '2', '44', '21', '67.7', '1', '1', '100.0', '4', '1', '75.0', '0', '0', '3', '1', '22', '5', '10', '16']"
"['', '20160', '2013-03-20', '23:30:00 GMT', '25', 'MIN', 'Minnesota', 'Wild', '16', 'DET', 'Detroit', 'Red Wings', '11', 'Joe Louis Arena', '25', 'MIN', 'Minnesota', 'Wild', '1', '0', '0', '0', '0', '0', '1', '2', '33', '28', '54.1', '3', '2', '66.7', '5', '1', '80.0', '0', '0', '4', '2', '15', '6', '12', '15']"
"['', '20178', '2013-03-23', '18:00:00 GMT', '26', 'SJS', 'San Jose', 'Sharks', '25', 'MIN', 'Minnesota', 'Wild', '30', 'Xcel Energy Center', '25', 'MIN', 'Minnesota', 'Wild', '1', '0', '0', '0', '0', '0', '1', '2', '24', '36', '40.0', '3', '1', '33.3', '5', '0', '100.0', '0', '0', '2', '0', '22', '5', '13', '18']"
"['', '20197', '2013-03-25', '00:30:00 GMT', '25', 'MIN', 'Minnesota', 'Wild', '27', 'DAL', 'Dallas', 'Stars', '2', 'American Airlines Center', '25', 'MIN', 'Minnesota', 'Wild', '1', '0', '0', '0', '0', '0', '1', '2', '28', '29', '49.1', '2', '0', '0.0', '2', '1', '50.0', '1', '0', '7', '4', '35', '5', '18', '26']"
"['', '20210', '2013-03-27', '01:00:00 GMT', '30', 'PHX', 'Phoenix', 'Coyotes', '25', 'MIN', 'Minnesota', 'Wild', '30', 'Xcel Energy Center', '25', 'MIN', 'Minnesota', 'Wild', '1', '0', '0', '0', '0', '0', '1', '2', '36', '27', '57.1', '3', '0', '0.0', '2', '0', '100.0', '0', '0', '4', '3', '33', '4', '14', '10']"
"['', '20225', '2013-03-29', '00:30:00 GMT', '25', 'MIN', 'Minnesota', 'Wild', '27', 'DAL', 'Dallas', 'Stars', '2', 'American Airlines Center', '25', 'MIN', 'Minnesota', 'Wild', '0', '1', '0', '0', '0', '0', '0', '0', '27', '35', '43.5', '3', '1', '33.3', '5', '3', '40.0', '0', '0', '3', '5', '30', '10', '39', '27']"
"['', '20235', '2013-03-30', '00:00:00 GMT', '28', 'LAK', 'Los Angeles', 'Kings', '25', 'MIN', 'Minnesota', 'Wild', '30', 'Xcel Energy Center', '25', 'MIN', 'Minnesota', 'Wild', '1', '0', '0', '0', '0', '0', '0', '2', '29', '25', '53.7', '4', '1', '25.0', '2', '2', '0.0', '0', '0', '3', '3', '25', '2', '4', '23']"
"['', '20247', '2013-04-01', '00:00:00 GMT', '17', 'STL', 'St. Louis', 'Blues', '25', 'MIN', 'Minnesota', 'Wild', '30', 'Xcel Energy Center', '25', 'MIN', 'Minnesota', 'Wild', '0', '1', '0', '0', '0', '0', '0', '0', '30', '32', '48.4', '5', '0', '0.0', '1', '0', '100.0', '0', '0', '1', '4', '24', '1', '2', '14']"
"['', '20263', '2013-04-03', '02:30:00 GMT', '25', 'MIN', 'Minnesota', 'Wild', '26', 'SJS', 'San Jose', 'Sharks', '9', 'SAP Center at San Jose', '25', 'MIN', 'Minnesota', 'Wild', '0', '1', '0', '0', '0', '0', '0', '0', '28', '36', '43.8', '2', '0', '0.0', '5', '2', '60.0', '0', '0', '2', '4', '31', '7', '14', '38']"
"['', '20273', '2013-04-04', '02:30:00 GMT', '25', 'MIN', 'Minnesota', 'Wild', '28', 'LAK', 'Los Angeles', 'Kings', '25', 'Staples Center', '25', 'MIN', 'Minnesota', 'Wild', '0', '1', '0', '0', '0', '0', '0', '0', '25', '23', '52.1', '1', '0', '0.0', '2', '0', '100.0', '0', '0', '0', '3', '23', '2', '4', '32']"
"['', '20293', '2013-04-07', '22:00:00 GMT', '25', 'MIN', 'Minnesota', 'Wild', '19', 'CBJ', 'Columbus', 'Blue Jackets', '17', 'Nationwide Arena', '25', 'MIN', 'Minnesota', 'Wild', '1', '0', '0', '0', '0', '0', '1', '2', '27', '25', '51.9', '3', '2', '66.7', '4', '0', '100.0', '0', '0', '3', '0', '21', '4', '8', '14']"
"['', '20310', '2013-04-09', '00:00:00 GMT', '20', 'CHI', 'Chicago', 'Blackhawks', '25', 'MIN', 'Minnesota', 'Wild', '30', 'Xcel Energy Center', '25', 'MIN', 'Minnesota', 'Wild', '0', '1', '0', '0', '0', '0', '0', '0', '26', '28', '48.1', '1', '0', '0.0', '2', '0', '100.0', '0', '0', '0', '1', '20', '3', '6', '24']"
"['', '20324', '2013-04-11', '00:00:00 GMT', '17', 'STL', 'St. Louis', 'Blues', '25', 'MIN', 'Minnesota', 'Wild', '30', 'Xcel Energy Center', '25', 'MIN', 'Minnesota', 'Wild', '0', '1', '0', '0', '0', '0', '0', '0', '24', '21', '53.3', '3', '0', '0.0', '1', '0', '100.0', '0', '0', '0', '2', '23', '1', '2', '21']"
"['', '20338', '2013-04-13', '00:00:00 GMT', '19', 'CBJ', 'Columbus', 'Blue Jackets', '25', 'MIN', 'Minnesota', 'Wild', '30', 'Xcel Energy Center', '25', 'MIN', 'Minnesota', 'Wild', '0', '0', '0', '1', '0', '0', '0', '1', '30', '23', '56.6', '5', '1', '20.0', '1', '0', '100.0', '0', '0', '2', '2', '39', '4', '22', '18']"
"['', '20351', '2013-04-15', '01:00:00 GMT', '25', 'MIN', 'Minnesota', 'Wild', '23', 'CGY', 'Calgary', 'Flames', '18', 'Scotiabank Saddledome', '25', 'MIN', 'Minnesota', 'Wild', '1', '0', '0', '0', '0', '0', '1', '2', '37', '28', '56.9', '2', '0', '0.0', '2', '0', '100.0', '0', '0', '4', '3', '23', '2', '4', '14']"
"['', '20359', '2013-04-16', '01:30:00 GMT', '25', 'MIN', 'Minnesota', 'Wild', '24', 'EDM', 'Edmonton', 'Oilers', '22', 'Rogers Place', '25', 'MIN', 'Minnesota', 'Wild', '1', '0', '0', '0', '0', '0', '1', '2', '33', '24', '57.9', '2', '1', '50.0', '1', '1', '0.0', '0', '0', '5', '3', '25', '1', '2', '13']"
"['', '20374', '2013-04-18', '02:30:00 GMT', '25', 'MIN', 'Minnesota', 'Wild', '26', 'SJS', 'San Jose', 'Sharks', '9', 'SAP Center at San Jose', '25', 'MIN', 'Minnesota', 'Wild', '0', '1', '0', '0', '0', '0', '0', '0', '32', '41', '43.8', '0', '0', '0.0', '1', '1', '0.0', '0', '0', '1', '6', '27', '3', '14', '27']"
"['', '20392', '2013-04-21', '22:00:00 GMT', '23', 'CGY', 'Calgary', 'Flames', '25', 'MIN', 'Minnesota', 'Wild', '30', 'Xcel Energy Center', '25', 'MIN', 'Minnesota', 'Wild', '0', '1', '0', '0', '0', '0', '0', '0', '36', '25', '59.0', '3', '0', '0.0', '2', '3', '1.0', '0', '0', '1', '4', '34', '4', '11', '18']"
"['', '20408', '2013-04-23', '00:00:00 GMT', '28', 'LAK', 'Los Angeles', 'Kings', '25', 'MIN', 'Minnesota', 'Wild', '30', 'Xcel Energy Center', '25', 'MIN', 'Minnesota', 'Wild', '1', '0', '0', '0', '0', '0', '1', '2', '23', '24', '48.9', '1', '0', '0.0', '1', '0', '100.0', '0', '0', '2', '1', '23', '1', '2', '24']"
"['', '20425', '2013-04-26', '00:00:00 GMT', '24', 'EDM', 'Edmonton', 'Oilers', '25', 'MIN', 'Minnesota', 'Wild', '30', 'Xcel Energy Center', '25', 'MIN', 'Minnesota', 'Wild', '0', '1', '0', '0', '0', '0', '0', '0', '33', '23', '58.9', '2', '0', '0.0', '1', '0', '100.0', '0', '0', '1', '6', '38', '5', '29', '25']"
"['', '20434', '2013-04-27', '23:30:00 GMT', '25', 'MIN', 'Minnesota', 'Wild', '22', 'COL', 'Colorado', 'Avalanche', '19', 'Pepsi Center', '25', 'MIN', 'Minnesota', 'Wild', '1', '0', '0', '0', '0', '0', '1', '2', '24', '26', '48.0', '3', '1', '33.3', '1', '0', '100.0', '0', '0', '3', '1', '30', '1', '2', '13']"
