"['#Date/Time of Update: 2018-12-10 19:02:53 GMT', '#Game ID', '#Game Date', '#Game Time', '#Away Team ID', '#Away Team Abbr.', '#Away Team City', '#Away Team Name', '#Home Team ID', '#Home Team Abbr.', '#Home Team City', '#Home Team Name', '#Venue ID', '#Venue Name', '#Team ID', '#Team Abbr.', '#Team City', '#Team Name', '#Wins', '#Losses', '#OvertimeWins', '#OvertimeLosses', '#ShootoutWins', '#ShootoutLosses', '#Points', '#FaceoffWins', '#FaceoffLosses', '#FaceoffPercent', '#Powerplays', '#PowerplayGoals', '#PowerplayPercent', '#PenaltyKills', '#PenaltyKillGoalsAllowed', '#PenaltyKillPercent', '#ShorthandedGoalsFor', '#ShorthandedGoalsAgainst', '#GoalsFor', '#GoalsAgainst', '#Shots', '#Penalties', '#PenaltyMinutes', '#Hits']"
"['', '3821', '2008-10-09', '02:30:00 GMT', '23', 'CGY', 'Calgary', 'Flames', '21', 'VAN', 'Vancouver', 'Canucks', '7', 'General Motors Place', '23', 'CGY', 'Calgary', 'Flames', '0', '1', '0', '0', '0', '0', '0', '33', '30', '52.4', '5', '0', '0.0', '9', '1', '88.9', '0', '1', '0', '6', '25', '11', '25', '12']"
"['', '3839', '2008-10-11', '02:00:00 GMT', '21', 'VAN', 'Vancouver', 'Canucks', '23', 'CGY', 'Calgary', 'Flames', '18', 'Pengrowth Saddledome', '23', 'CGY', 'Calgary', 'Flames', '0', '0', '0', '1', '0', '0', '1', '38', '36', '51.4', '6', '0', '0.0', '4', '0', '100.0', '0', '0', '4', '5', '25', '10', '29', '30']"
"['', '3854', '2008-10-14', '01:00:00 GMT', '22', 'COL', 'Colorado', 'Avalanche', '23', 'CGY', 'Calgary', 'Flames', '18', 'Pengrowth Saddledome', '23', 'CGY', 'Calgary', 'Flames', '1', '0', '0', '0', '0', '0', '2', '36', '27', '57.1', '5', '3', '60.0', '6', '2', '66.7', '0', '0', '5', '4', '30', '7', '17', '19']"
"['', '3873', '2008-10-17', '01:00:00 GMT', '24', 'EDM', 'Edmonton', 'Oilers', '23', 'CGY', 'Calgary', 'Flames', '18', 'Pengrowth Saddledome', '23', 'CGY', 'Calgary', 'Flames', '0', '1', '0', '0', '0', '0', '0', '23', '29', '44.2', '3', '1', '33.3', '6', '3', '50.0', '0', '0', '3', '4', '26', '8', '24', '22']"
"['', '3887', '2008-10-18', '02:00:00 GMT', '23', 'CGY', 'Calgary', 'Flames', '24', 'EDM', 'Edmonton', 'Oilers', '22', 'Rogers Place', '23', 'CGY', 'Calgary', 'Flames', '0', '1', '0', '0', '0', '0', '0', '23', '34', '40.4', '6', '2', '33.3', '4', '0', '100.0', '0', '0', '2', '3', '31', '7', '25', '8']"
"['', '3899', '2008-10-21', '01:30:00 GMT', '5', 'WSH', 'Washington', 'Capitals', '23', 'CGY', 'Calgary', 'Flames', '18', 'Pengrowth Saddledome', '23', 'CGY', 'Calgary', 'Flames', '1', '0', '0', '0', '0', '0', '2', '27', '20', '57.4', '9', '1', '11.1', '3', '0', '100.0', '0', '0', '2', '1', '26', '6', '23', '24']"
"['', '3908', '2008-10-23', '00:00:00 GMT', '23', 'CGY', 'Calgary', 'Flames', '18', 'NSH', 'Nashville', 'Predators', '15', 'Sommet Center', '23', 'CGY', 'Calgary', 'Flames', '1', '0', '0', '0', '0', '0', '2', '37', '29', '56.1', '4', '1', '25.0', '8', '1', '87.5', '0', '0', '5', '3', '22', '10', '23', '12']"
"['', '3932', '2008-10-25', '02:00:00 GMT', '23', 'CGY', 'Calgary', 'Flames', '30', 'PHX', 'Phoenix', 'Coyotes', '6', 'Jobing.com Arena', '23', 'CGY', 'Calgary', 'Flames', '1', '0', '0', '0', '0', '0', '2', '29', '21', '58.0', '3', '2', '66.7', '3', '0', '100.0', '0', '0', '4', '1', '32', '5', '13', '19']"
"['', '3943', '2008-10-28', '01:00:00 GMT', '22', 'COL', 'Colorado', 'Avalanche', '23', 'CGY', 'Calgary', 'Flames', '18', 'Pengrowth Saddledome', '23', 'CGY', 'Calgary', 'Flames', '1', '0', '0', '0', '0', '0', '2', '35', '23', '60.3', '2', '0', '0.0', '3', '0', '100.0', '0', '0', '3', '0', '27', '4', '11', '16']"
"['', '3956', '2008-10-30', '01:00:00 GMT', '11', 'BOS', 'Boston', 'Bruins', '23', 'CGY', 'Calgary', 'Flames', '18', 'Pengrowth Saddledome', '23', 'CGY', 'Calgary', 'Flames', '1', '0', '0', '0', '0', '0', '2', '29', '29', '50.0', '4', '2', '50.0', '1', '0', '100.0', '0', '0', '3', '2', '35', '3', '6', '18']"
"['', '3973', '2008-11-01', '02:00:00 GMT', '23', 'CGY', 'Calgary', 'Flames', '28', 'LAK', 'Los Angeles', 'Kings', '25', 'Staples Center', '23', 'CGY', 'Calgary', 'Flames', '1', '0', '0', '0', '0', '0', '2', '26', '42', '38.2', '4', '1', '25.0', '6', '1', '83.3', '0', '0', '3', '2', '18', '8', '24', '21']"
"['', '3979', '2008-11-02', '01:00:00 GMT', '23', 'CGY', 'Calgary', 'Flames', '29', 'ANA', 'Anaheim', 'Ducks', '8', 'Honda Center', '23', 'CGY', 'Calgary', 'Flames', '0', '1', '0', '0', '0', '0', '0', '30', '36', '45.5', '5', '0', '0.0', '1', '0', '100.0', '0', '0', '2', '3', '34', '3', '12', '16']"
"['', '3987', '2008-11-04', '02:00:00 GMT', '30', 'PHX', 'Phoenix', 'Coyotes', '23', 'CGY', 'Calgary', 'Flames', '18', 'Pengrowth Saddledome', '23', 'CGY', 'Calgary', 'Flames', '0', '1', '0', '0', '0', '0', '0', '26', '32', '44.8', '3', '0', '0.0', '3', '1', '66.7', '0', '1', '2', '4', '27', '4', '11', '19']"
"['', '4001', '2008-11-06', '02:30:00 GMT', '18', 'NSH', 'Nashville', 'Predators', '23', 'CGY', 'Calgary', 'Flames', '18', 'Pengrowth Saddledome', '23', 'CGY', 'Calgary', 'Flames', '1', '0', '0', '0', '0', '0', '2', '31', '39', '44.3', '6', '2', '33.3', '5', '2', '60.0', '1', '1', '7', '6', '22', '11', '36', '9']"
"['', '4015', '2008-11-08', '00:00:00 GMT', '23', 'CGY', 'Calgary', 'Flames', '19', 'CBJ', 'Columbus', 'Blue Jackets', '17', 'Nationwide Arena', '23', 'CGY', 'Calgary', 'Flames', '0', '1', '0', '0', '0', '0', '0', '35', '36', '49.3', '4', '1', '25.0', '7', '0', '100.0', '0', '0', '1', '3', '22', '12', '30', '48']"
"['', '4022', '2008-11-09', '00:00:00 GMT', '23', 'CGY', 'Calgary', 'Flames', '20', 'CHI', 'Chicago', 'Blackhawks', '28', 'United Center', '23', 'CGY', 'Calgary', 'Flames', '0', '1', '0', '0', '0', '0', '0', '24', '34', '41.4', '6', '0', '0.0', '7', '2', '71.4', '0', '0', '1', '6', '22', '11', '36', '22']"
"['', '4031', '2008-11-11', '02:00:00 GMT', '12', 'TOR', 'Toronto', 'Maple Leafs', '23', 'CGY', 'Calgary', 'Flames', '18', 'Pengrowth Saddledome', '23', 'CGY', 'Calgary', 'Flames', '1', '0', '0', '0', '0', '0', '2', '41', '21', '66.1', '1', '1', '100.0', '4', '1', '75.0', '0', '0', '4', '3', '28', '4', '8', '25']"
"['', '4048', '2008-11-13', '03:30:00 GMT', '23', 'CGY', 'Calgary', 'Flames', '26', 'SJS', 'San Jose', 'Sharks', '9', 'HP Pavilion at San Jose', '23', 'CGY', 'Calgary', 'Flames', '0', '1', '0', '0', '0', '0', '0', '27', '29', '48.2', '3', '1', '33.3', '8', '3', '62.5', '0', '0', '1', '6', '23', '11', '22', '32']"
"['', '4080', '2008-11-18', '02:30:00 GMT', '22', 'COL', 'Colorado', 'Avalanche', '23', 'CGY', 'Calgary', 'Flames', '18', 'Pengrowth Saddledome', '23', 'CGY', 'Calgary', 'Flames', '1', '0', '0', '0', '0', '0', '2', '41', '22', '65.1', '8', '1', '12.5', '1', '0', '100.0', '0', '0', '4', '1', '47', '3', '9', '15']"
"['', '4090', '2008-11-20', '02:00:00 GMT', '23', 'CGY', 'Calgary', 'Flames', '22', 'COL', 'Colorado', 'Avalanche', '19', 'Pepsi Center', '23', 'CGY', 'Calgary', 'Flames', '1', '0', '0', '0', '0', '0', '2', '33', '15', '68.8', '6', '0', '0.0', '1', '0', '100.0', '0', '0', '1', '0', '32', '3', '6', '11']"
"['', '4107', '2008-11-22', '03:00:00 GMT', '16', 'DET', 'Detroit', 'Red Wings', '23', 'CGY', 'Calgary', 'Flames', '18', 'Pengrowth Saddledome', '23', 'CGY', 'Calgary', 'Flames', '0', '1', '0', '0', '0', '0', '0', '29', '29', '50.0', '4', '1', '25.0', '3', '0', '100.0', '0', '0', '2', '5', '31', '4', '8', '15']"
"['', '4121', '2008-11-25', '02:00:00 GMT', '28', 'LAK', 'Los Angeles', 'Kings', '23', 'CGY', 'Calgary', 'Flames', '18', 'Pengrowth Saddledome', '23', 'CGY', 'Calgary', 'Flames', '1', '0', '0', '0', '0', '0', '2', '30', '23', '56.6', '9', '2', '22.2', '2', '0', '100.0', '0', '1', '6', '2', '29', '6', '15', '8']"
"['', '4135', '2008-11-27', '03:00:00 GMT', '23', 'CGY', 'Calgary', 'Flames', '21', 'VAN', 'Vancouver', 'Canucks', '7', 'General Motors Place', '23', 'CGY', 'Calgary', 'Flames', '1', '0', '0', '0', '0', '0', '2', '27', '26', '50.9', '2', '1', '50.0', '4', '0', '100.0', '0', '0', '4', '3', '29', '5', '13', '21']"
"['', '4158', '2008-11-29', '03:00:00 GMT', '21', 'VAN', 'Vancouver', 'Canucks', '23', 'CGY', 'Calgary', 'Flames', '18', 'Pengrowth Saddledome', '23', 'CGY', 'Calgary', 'Flames', '1', '0', '0', '0', '0', '0', '2', '27', '28', '49.1', '5', '1', '20.0', '3', '0', '100.0', '0', '0', '3', '1', '28', '4', '11', '12']"
"['', '4171', '2008-12-02', '02:00:00 GMT', '27', 'DAL', 'Dallas', 'Stars', '23', 'CGY', 'Calgary', 'Flames', '18', 'Pengrowth Saddledome', '23', 'CGY', 'Calgary', 'Flames', '0', '1', '0', '0', '0', '0', '0', '24', '25', '49.0', '1', '0', '0.0', '4', '0', '100.0', '0', '0', '1', '3', '36', '4', '8', '17']"
"['', '4191', '2008-12-05', '01:30:00 GMT', '23', 'CGY', 'Calgary', 'Flames', '17', 'STL', 'St. Louis', 'Blues', '24', 'Scottrade Center', '23', 'CGY', 'Calgary', 'Flames', '1', '0', '0', '0', '0', '0', '2', '26', '40', '39.4', '5', '2', '40.0', '5', '2', '60.0', '0', '0', '4', '3', '26', '6', '15', '21']"
"['', '4207', '2008-12-07', '00:00:00 GMT', '23', 'CGY', 'Calgary', 'Flames', '9', 'NYR', 'New York', 'Rangers', '12', 'Madison Square Garden', '23', 'CGY', 'Calgary', 'Flames', '1', '0', '0', '0', '0', '0', '2', '17', '19', '47.2', '2', '0', '0.0', '4', '0', '100.0', '1', '0', '3', '0', '17', '4', '8', '29']"
"['', '4216', '2008-12-09', '00:30:00 GMT', '23', 'CGY', 'Calgary', 'Flames', '14', 'MTL', 'Montreal', 'Canadiens', '4', 'Bell Centre', '23', 'CGY', 'Calgary', 'Flames', '0', '1', '0', '0', '0', '0', '0', '28', '26', '51.9', '4', '0', '0.0', '3', '0', '100.0', '0', '0', '1', '4', '32', '5', '10', '26']"
"['', '4223', '2008-12-10', '00:30:00 GMT', '23', 'CGY', 'Calgary', 'Flames', '16', 'DET', 'Detroit', 'Red Wings', '11', 'Joe Louis Arena', '23', 'CGY', 'Calgary', 'Flames', '0', '0', '0', '1', '0', '0', '1', '30', '42', '41.7', '4', '1', '25.0', '4', '0', '100.0', '0', '0', '3', '4', '29', '5', '10', '21']"
"['', '4240', '2008-12-12', '02:00:00 GMT', '4', 'FLO', 'Florida', 'Panthers', '23', 'CGY', 'Calgary', 'Flames', '18', 'Pengrowth Saddledome', '23', 'CGY', 'Calgary', 'Flames', '0', '0', '0', '1', '0', '0', '1', '34', '27', '55.7', '5', '0', '0.0', '4', '0', '100.0', '0', '1', '2', '2', '35', '4', '8', '15']"
"['', '4265', '2008-12-16', '01:30:00 GMT', '23', 'CGY', 'Calgary', 'Flames', '17', 'STL', 'St. Louis', 'Blues', '24', 'Scottrade Center', '23', 'CGY', 'Calgary', 'Flames', '1', '0', '0', '0', '0', '0', '2', '31', '25', '55.4', '4', '1', '25.0', '6', '1', '83.3', '0', '0', '6', '3', '25', '12', '41', '15']"
"['', '4270', '2008-12-17', '01:00:00 GMT', '23', 'CGY', 'Calgary', 'Flames', '25', 'MIN', 'Minnesota', 'Wild', '30', 'Xcel Energy Center', '23', 'CGY', 'Calgary', 'Flames', '1', '0', '0', '0', '0', '0', '2', '29', '36', '44.6', '3', '0', '0.0', '3', '0', '100.0', '0', '0', '3', '2', '27', '5', '16', '13']"
"['', '4285', '2008-12-19', '02:00:00 GMT', '20', 'CHI', 'Chicago', 'Blackhawks', '23', 'CGY', 'Calgary', 'Flames', '18', 'Pengrowth Saddledome', '23', 'CGY', 'Calgary', 'Flames', '0', '0', '0', '1', '0', '0', '1', '27', '27', '50.0', '4', '0', '0.0', '3', '1', '66.7', '0', '0', '2', '3', '32', '3', '6', '17']"
"['', '4317', '2008-12-23', '02:00:00 GMT', '29', 'ANA', 'Anaheim', 'Ducks', '23', 'CGY', 'Calgary', 'Flames', '18', 'Pengrowth Saddledome', '23', 'CGY', 'Calgary', 'Flames', '1', '0', '0', '0', '0', '0', '2', '26', '27', '49.1', '4', '1', '25.0', '1', '0', '100.0', '0', '0', '4', '3', '28', '2', '7', '14']"
"['', '4339', '2008-12-27', '03:00:00 GMT', '13', 'OTT', 'Ottawa', 'Senators', '23', 'CGY', 'Calgary', 'Flames', '18', 'Pengrowth Saddledome', '23', 'CGY', 'Calgary', 'Flames', '1', '0', '0', '0', '0', '0', '2', '34', '28', '54.8', '4', '0', '0.0', '3', '1', '66.7', '0', '0', '6', '3', '36', '7', '17', '13']"
"['', '4349', '2008-12-29', '02:00:00 GMT', '25', 'MIN', 'Minnesota', 'Wild', '23', 'CGY', 'Calgary', 'Flames', '18', 'Pengrowth Saddledome', '23', 'CGY', 'Calgary', 'Flames', '1', '0', '0', '0', '0', '0', '2', '30', '25', '54.5', '2', '0', '0.0', '4', '0', '100.0', '1', '0', '2', '1', '27', '4', '8', '15']"
"['', '4366', '2008-12-31', '03:00:00 GMT', '24', 'EDM', 'Edmonton', 'Oilers', '23', 'CGY', 'Calgary', 'Flames', '18', 'Pengrowth Saddledome', '23', 'CGY', 'Calgary', 'Flames', '1', '0', '0', '0', '0', '0', '2', '40', '25', '61.5', '5', '3', '60.0', '5', '1', '80.0', '0', '0', '6', '4', '31', '5', '10', '18']"
"['', '4380', '2009-01-03', '20:00:00 GMT', '23', 'CGY', 'Calgary', 'Flames', '18', 'NSH', 'Nashville', 'Predators', '15', 'Sommet Center', '23', 'CGY', 'Calgary', 'Flames', '1', '0', '0', '0', '0', '0', '2', '30', '25', '54.5', '5', '0', '0.0', '4', '0', '100.0', '0', '0', '3', '2', '23', '5', '10', '15']"
"['', '4391', '2009-01-04', '00:00:00 GMT', '23', 'CGY', 'Calgary', 'Flames', '20', 'CHI', 'Chicago', 'Blackhawks', '28', 'United Center', '23', 'CGY', 'Calgary', 'Flames', '0', '1', '0', '0', '0', '0', '0', '39', '24', '61.9', '3', '1', '33.3', '5', '1', '80.0', '0', '1', '2', '5', '34', '9', '27', '9']"
"['', '4406', '2009-01-06', '02:00:00 GMT', '26', 'SJS', 'San Jose', 'Sharks', '23', 'CGY', 'Calgary', 'Flames', '18', 'Pengrowth Saddledome', '23', 'CGY', 'Calgary', 'Flames', '1', '0', '0', '0', '0', '0', '2', '24', '36', '40.0', '3', '1', '33.3', '3', '1', '66.7', '0', '1', '5', '2', '23', '6', '12', '13']"
"['', '4418', '2009-01-08', '02:00:00 GMT', '8', 'NYI', 'New York', 'Islanders', '23', 'CGY', 'Calgary', 'Flames', '18', 'Pengrowth Saddledome', '23', 'CGY', 'Calgary', 'Flames', '1', '0', '0', '0', '0', '0', '2', '31', '32', '49.2', '5', '1', '20.0', '6', '0', '100.0', '0', '0', '5', '2', '36', '6', '12', '11']"
"['', '4452', '2009-01-13', '02:30:00 GMT', '17', 'STL', 'St. Louis', 'Blues', '23', 'CGY', 'Calgary', 'Flames', '18', 'Pengrowth Saddledome', '23', 'CGY', 'Calgary', 'Flames', '1', '0', '0', '0', '0', '0', '2', '34', '27', '55.7', '5', '2', '40.0', '3', '0', '100.0', '0', '0', '3', '1', '31', '9', '35', '22']"
"['', '4468', '2009-01-15', '03:30:00 GMT', '23', 'CGY', 'Calgary', 'Flames', '26', 'SJS', 'San Jose', 'Sharks', '9', 'HP Pavilion at San Jose', '23', 'CGY', 'Calgary', 'Flames', '1', '0', '0', '0', '0', '0', '2', '25', '32', '43.9', '5', '1', '20.0', '4', '0', '100.0', '0', '0', '3', '2', '28', '6', '12', '31']"
"['', '4484', '2009-01-17', '03:00:00 GMT', '30', 'PHX', 'Phoenix', 'Coyotes', '23', 'CGY', 'Calgary', 'Flames', '18', 'Pengrowth Saddledome', '23', 'CGY', 'Calgary', 'Flames', '0', '1', '0', '0', '0', '0', '0', '42', '22', '65.6', '3', '0', '0.0', '2', '0', '100.0', '0', '0', '3', '4', '29', '3', '9', '15']"
"['', '4488', '2009-01-18', '01:00:00 GMT', '23', 'CGY', 'Calgary', 'Flames', '22', 'COL', 'Colorado', 'Avalanche', '19', 'Pepsi Center', '23', 'CGY', 'Calgary', 'Flames', '0', '1', '0', '0', '0', '0', '0', '38', '31', '55.1', '5', '1', '20.0', '6', '2', '66.7', '0', '1', '2', '6', '39', '6', '12', '19']"
"['', '4513', '2009-01-21', '03:00:00 GMT', '19', 'CBJ', 'Columbus', 'Blue Jackets', '23', 'CGY', 'Calgary', 'Flames', '18', 'Pengrowth Saddledome', '23', 'CGY', 'Calgary', 'Flames', '1', '0', '0', '0', '0', '0', '2', '30', '30', '50.0', '5', '1', '20.0', '4', '1', '75.0', '1', '1', '4', '4', '27', '9', '32', '14']"
"['', '4526', '2009-01-28', '01:00:00 GMT', '15', 'BUF', 'Buffalo', 'Sabres', '23', 'CGY', 'Calgary', 'Flames', '18', 'Pengrowth Saddledome', '23', 'CGY', 'Calgary', 'Flames', '1', '0', '0', '0', '0', '0', '2', '31', '27', '53.4', '5', '2', '40.0', '4', '1', '75.0', '0', '0', '5', '2', '38', '5', '10', '6']"
"['', '4541', '2009-01-30', '02:00:00 GMT', '18', 'NSH', 'Nashville', 'Predators', '23', 'CGY', 'Calgary', 'Flames', '18', 'Pengrowth Saddledome', '23', 'CGY', 'Calgary', 'Flames', '1', '0', '0', '0', '0', '0', '2', '30', '33', '47.6', '7', '1', '14.3', '3', '0', '100.0', '0', '0', '3', '1', '29', '6', '15', '11']"
"['', '4559', '2009-02-02', '02:00:00 GMT', '23', 'CGY', 'Calgary', 'Flames', '22', 'COL', 'Colorado', 'Avalanche', '19', 'Pepsi Center', '23', 'CGY', 'Calgary', 'Flames', '0', '1', '0', '0', '0', '0', '0', '29', '24', '54.7', '2', '0', '0.0', '3', '1', '66.7', '0', '0', '3', '4', '36', '5', '13', '22']"
"['', '4569', '2009-02-03', '01:30:00 GMT', '23', 'CGY', 'Calgary', 'Flames', '27', 'DAL', 'Dallas', 'Stars', '2', 'American Airlines Center', '23', 'CGY', 'Calgary', 'Flames', '0', '1', '0', '0', '0', '0', '0', '24', '34', '41.4', '3', '1', '33.3', '5', '2', '60.0', '0', '0', '1', '3', '24', '5', '10', '36']"
"['', '4582', '2009-02-05', '02:00:00 GMT', '20', 'CHI', 'Chicago', 'Blackhawks', '23', 'CGY', 'Calgary', 'Flames', '18', 'Pengrowth Saddledome', '23', 'CGY', 'Calgary', 'Flames', '0', '1', '0', '0', '0', '0', '0', '33', '25', '56.9', '5', '0', '0.0', '5', '0', '100.0', '0', '1', '2', '5', '29', '7', '14', '12']"
"['', '4591', '2009-02-07', '20:00:00 GMT', '29', 'ANA', 'Anaheim', 'Ducks', '23', 'CGY', 'Calgary', 'Flames', '18', 'Pengrowth Saddledome', '23', 'CGY', 'Calgary', 'Flames', '0', '1', '0', '0', '0', '0', '0', '26', '26', '50.0', '4', '0', '0.0', '2', '0', '100.0', '0', '0', '1', '2', '26', '4', '14', '16']"
"['', '4607', '2009-02-09', '02:00:00 GMT', '14', 'MTL', 'Montreal', 'Canadiens', '23', 'CGY', 'Calgary', 'Flames', '18', 'Pengrowth Saddledome', '23', 'CGY', 'Calgary', 'Flames', '1', '0', '0', '0', '0', '0', '2', '36', '32', '52.9', '5', '1', '20.0', '4', '0', '100.0', '2', '0', '6', '2', '35', '7', '17', '9']"
"['', '4623', '2009-02-11', '03:00:00 GMT', '23', 'CGY', 'Calgary', 'Flames', '29', 'ANA', 'Anaheim', 'Ducks', '8', 'Honda Center', '23', 'CGY', 'Calgary', 'Flames', '0', '0', '0', '1', '0', '0', '1', '24', '30', '44.4', '3', '0', '0.0', '4', '1', '75.0', '0', '0', '2', '3', '21', '8', '22', '14']"
"['', '4630', '2009-02-12', '03:30:00 GMT', '23', 'CGY', 'Calgary', 'Flames', '28', 'LAK', 'Los Angeles', 'Kings', '25', 'Staples Center', '23', 'CGY', 'Calgary', 'Flames', '1', '0', '0', '0', '0', '0', '2', '23', '27', '46.0', '4', '1', '25.0', '6', '0', '100.0', '0', '0', '2', '0', '18', '7', '14', '33']"
"['', '4646', '2009-02-14', '03:00:00 GMT', '23', 'CGY', 'Calgary', 'Flames', '30', 'PHX', 'Phoenix', 'Coyotes', '6', 'Jobing.com Arena', '23', 'CGY', 'Calgary', 'Flames', '1', '0', '0', '0', '0', '0', '2', '35', '24', '59.3', '0', '0', '0.0', '4', '1', '75.0', '1', '0', '7', '5', '38', '6', '12', '25']"
"['', '4664', '2009-02-17', '02:00:00 GMT', '21', 'VAN', 'Vancouver', 'Canucks', '23', 'CGY', 'Calgary', 'Flames', '18', 'Pengrowth Saddledome', '23', 'CGY', 'Calgary', 'Flames', '0', '0', '0', '1', '0', '0', '1', '36', '43', '45.6', '4', '0', '0.0', '3', '1', '66.7', '0', '1', '3', '3', '38', '7', '14', '14']"
"['', '4680', '2009-02-19', '01:00:00 GMT', '23', 'CGY', 'Calgary', 'Flames', '25', 'MIN', 'Minnesota', 'Wild', '30', 'Xcel Energy Center', '23', 'CGY', 'Calgary', 'Flames', '1', '0', '0', '0', '0', '0', '2', '28', '26', '51.9', '2', '0', '0.0', '1', '0', '100.0', '0', '1', '3', '2', '19', '1', '2', '13']"
"['', '4699', '2009-02-21', '03:00:00 GMT', '23', 'CGY', 'Calgary', 'Flames', '24', 'EDM', 'Edmonton', 'Oilers', '22', 'Rogers Place', '23', 'CGY', 'Calgary', 'Flames', '1', '0', '0', '0', '0', '0', '2', '21', '31', '40.4', '4', '0', '0.0', '6', '0', '100.0', '0', '0', '2', '2', '30', '6', '12', '24']"
"['', '4715', '2009-02-24', '02:00:00 GMT', '19', 'CBJ', 'Columbus', 'Blue Jackets', '23', 'CGY', 'Calgary', 'Flames', '18', 'Pengrowth Saddledome', '23', 'CGY', 'Calgary', 'Flames', '1', '0', '0', '0', '0', '0', '2', '24', '21', '53.3', '1', '1', '100.0', '4', '0', '100.0', '0', '0', '4', '1', '24', '5', '10', '12']"
"['', '4734', '2009-02-27', '02:00:00 GMT', '25', 'MIN', 'Minnesota', 'Wild', '23', 'CGY', 'Calgary', 'Flames', '18', 'Pengrowth Saddledome', '23', 'CGY', 'Calgary', 'Flames', '1', '0', '0', '0', '0', '0', '2', '36', '19', '65.5', '5', '1', '20.0', '4', '0', '100.0', '0', '0', '4', '1', '25', '7', '17', '8']"
"['', '4751', '2009-03-01', '01:00:00 GMT', '1', 'TBL', 'Tampa Bay', 'Lightning', '23', 'CGY', 'Calgary', 'Flames', '18', 'Pengrowth Saddledome', '23', 'CGY', 'Calgary', 'Flames', '0', '1', '0', '0', '0', '0', '0', '29', '22', '56.9', '3', '3', '100.0', '5', '3', '40.0', '0', '0', '6', '8', '33', '6', '15', '14']"
"['', '4758', '2009-03-03', '00:30:00 GMT', '23', 'CGY', 'Calgary', 'Flames', '13', 'OTT', 'Ottawa', 'Senators', '23', 'Scotiabank Place', '23', 'CGY', 'Calgary', 'Flames', '1', '0', '0', '0', '0', '0', '2', '26', '37', '41.3', '3', '1', '33.3', '5', '2', '60.0', '0', '0', '6', '3', '17', '7', '17', '27']"
"['', '4770', '2009-03-05', '00:00:00 GMT', '23', 'CGY', 'Calgary', 'Flames', '6', 'PHI', 'Philadelphia', 'Flyers', '29', 'Wachovia Center', '23', 'CGY', 'Calgary', 'Flames', '1', '0', '0', '0', '0', '0', '2', '35', '30', '53.8', '1', '1', '100.0', '5', '0', '100.0', '0', '0', '5', '1', '36', '6', '12', '19']"
"['', '4777', '2009-03-06', '00:00:00 GMT', '23', 'CGY', 'Calgary', 'Flames', '3', 'CAR', 'Carolina', 'Hurricanes', '21', 'RBC Center', '23', 'CGY', 'Calgary', 'Flames', '0', '1', '0', '0', '0', '0', '0', '31', '24', '56.4', '3', '0', '0.0', '6', '3', '50.0', '0', '0', '1', '6', '21', '12', '46', '31']"
"['', '4796', '2009-03-08', '19:00:00 GMT', '23', 'CGY', 'Calgary', 'Flames', '2', 'ATL', 'Atlanta', 'Thrashers', '20', 'Philips Arena', '23', 'CGY', 'Calgary', 'Flames', '0', '1', '0', '0', '0', '0', '0', '25', '31', '44.6', '3', '0', '0.0', '6', '1', '83.3', '0', '0', '2', '5', '27', '13', '40', '14']"
"['', '4802', '2009-03-10', '23:00:00 GMT', '23', 'CGY', 'Calgary', 'Flames', '7', 'NJD', 'New Jersey', 'Devils', '5', 'Izod Center', '23', 'CGY', 'Calgary', 'Flames', '0', '1', '0', '0', '0', '0', '0', '34', '30', '53.1', '7', '1', '14.3', '4', '1', '75.0', '0', '1', '2', '3', '35', '5', '13', '14']"
"['', '4821', '2009-03-12', '23:30:00 GMT', '23', 'CGY', 'Calgary', 'Flames', '16', 'DET', 'Detroit', 'Red Wings', '11', 'Joe Louis Arena', '23', 'CGY', 'Calgary', 'Flames', '1', '0', '0', '0', '0', '0', '2', '38', '32', '54.3', '3', '2', '66.7', '7', '2', '71.4', '0', '0', '5', '5', '28', '11', '33', '18']"
"['', '4837', '2009-03-14', '23:00:00 GMT', '23', 'CGY', 'Calgary', 'Flames', '12', 'TOR', 'Toronto', 'Maple Leafs', '1', 'Air Canada Center', '23', 'CGY', 'Calgary', 'Flames', '0', '1', '0', '0', '0', '0', '0', '27', '26', '50.9', '3', '3', '100.0', '6', '2', '66.7', '0', '0', '6', '8', '29', '9', '24', '31']"
"['', '4866', '2009-03-18', '01:30:00 GMT', '27', 'DAL', 'Dallas', 'Stars', '23', 'CGY', 'Calgary', 'Flames', '18', 'Pengrowth Saddledome', '23', 'CGY', 'Calgary', 'Flames', '1', '0', '0', '0', '0', '0', '2', '37', '19', '66.1', '5', '0', '0.0', '2', '0', '100.0', '0', '0', '2', '1', '29', '4', '11', '26']"
"['', '4882', '2009-03-20', '01:00:00 GMT', '17', 'STL', 'St. Louis', 'Blues', '23', 'CGY', 'Calgary', 'Flames', '18', 'Pengrowth Saddledome', '23', 'CGY', 'Calgary', 'Flames', '0', '1', '0', '0', '0', '0', '0', '28', '25', '52.8', '4', '1', '25.0', '2', '0', '100.0', '0', '1', '2', '3', '33', '3', '6', '23']"
"['', '4900', '2009-03-23', '01:00:00 GMT', '16', 'DET', 'Detroit', 'Red Wings', '23', 'CGY', 'Calgary', 'Flames', '18', 'Pengrowth Saddledome', '23', 'CGY', 'Calgary', 'Flames', '1', '0', '0', '0', '0', '0', '2', '31', '24', '56.4', '4', '1', '25.0', '1', '0', '100.0', '0', '0', '5', '3', '22', '1', '2', '27']"
"['', '4912', '2009-03-25', '23:30:00 GMT', '23', 'CGY', 'Calgary', 'Flames', '10', 'PIT', 'Pittsburgh', 'Penguins', '14', 'Mellon Arena', '23', 'CGY', 'Calgary', 'Flames', '0', '1', '0', '0', '0', '0', '0', '21', '29', '42.0', '5', '0', '0.0', '2', '1', '50.0', '0', '0', '0', '2', '31', '3', '6', '25']"
"['', '4917', '2009-03-26', '23:00:00 GMT', '23', 'CGY', 'Calgary', 'Flames', '19', 'CBJ', 'Columbus', 'Blue Jackets', '17', 'Nationwide Arena', '23', 'CGY', 'Calgary', 'Flames', '0', '1', '0', '0', '0', '0', '0', '24', '44', '35.3', '6', '0', '0.0', '5', '2', '60.0', '0', '0', '0', '5', '33', '15', '60', '33']"
"['', '4938', '2009-03-28', '02:00:00 GMT', '25', 'MIN', 'Minnesota', 'Wild', '23', 'CGY', 'Calgary', 'Flames', '18', 'Pengrowth Saddledome', '23', 'CGY', 'Calgary', 'Flames', '1', '0', '0', '0', '0', '0', '2', '27', '28', '49.1', '3', '0', '0.0', '1', '0', '100.0', '0', '0', '3', '2', '37', '2', '4', '14']"
"['', '4948', '2009-03-30', '01:00:00 GMT', '26', 'SJS', 'San Jose', 'Sharks', '23', 'CGY', 'Calgary', 'Flames', '18', 'Pengrowth Saddledome', '23', 'CGY', 'Calgary', 'Flames', '0', '1', '0', '0', '0', '0', '0', '23', '31', '42.6', '2', '0', '0.0', '2', '1', '50.0', '0', '0', '1', '2', '28', '3', '6', '34']"
"['', '4967', '2009-04-02', '00:30:00 GMT', '23', 'CGY', 'Calgary', 'Flames', '27', 'DAL', 'Dallas', 'Stars', '2', 'American Airlines Center', '23', 'CGY', 'Calgary', 'Flames', '1', '0', '0', '0', '0', '0', '2', '21', '26', '44.7', '2', '0', '0.0', '3', '0', '100.0', '0', '0', '2', '1', '22', '3', '6', '41']"
"['', '4975', '2009-04-03', '00:00:00 GMT', '23', 'CGY', 'Calgary', 'Flames', '25', 'MIN', 'Minnesota', 'Wild', '30', 'Xcel Energy Center', '23', 'CGY', 'Calgary', 'Flames', '0', '1', '0', '0', '0', '0', '0', '34', '24', '58.6', '5', '0', '0.0', '4', '1', '75.0', '0', '0', '0', '4', '27', '4', '8', '13']"
"['', '4996', '2009-04-06', '01:00:00 GMT', '28', 'LAK', 'Los Angeles', 'Kings', '23', 'CGY', 'Calgary', 'Flames', '18', 'Pengrowth Saddledome', '23', 'CGY', 'Calgary', 'Flames', '1', '0', '0', '0', '0', '0', '2', '32', '23', '58.2', '6', '0', '0.0', '3', '0', '100.0', '0', '0', '4', '1', '34', '7', '20', '17']"
"['', '5007', '2009-04-07', '02:00:00 GMT', '23', 'CGY', 'Calgary', 'Flames', '21', 'VAN', 'Vancouver', 'Canucks', '7', 'General Motors Place', '23', 'CGY', 'Calgary', 'Flames', '0', '1', '0', '0', '0', '0', '0', '24', '40', '37.5', '5', '0', '0.0', '5', '1', '80.0', '0', '0', '1', '4', '46', '6', '12', '13']"
"['', '5025', '2009-04-10', '01:00:00 GMT', '23', 'CGY', 'Calgary', 'Flames', '24', 'EDM', 'Edmonton', 'Oilers', '22', 'Rogers Place', '23', 'CGY', 'Calgary', 'Flames', '0', '1', '0', '0', '0', '0', '0', '27', '25', '51.9', '4', '0', '0.0', '3', '1', '66.7', '0', '0', '1', '5', '31', '4', '8', '13']"
"['', '5039', '2009-04-11', '02:00:00 GMT', '24', 'EDM', 'Edmonton', 'Oilers', '23', 'CGY', 'Calgary', 'Flames', '18', 'Pengrowth Saddledome', '23', 'CGY', 'Calgary', 'Flames', '1', '0', '0', '0', '0', '0', '2', '38', '20', '65.5', '2', '0', '0.0', '1', '0', '100.0', '0', '0', '4', '1', '41', '1', '2', '13']"
