"['#Date/Time of Update: 2018-12-10 19:03:00 GMT', '#Game ID', '#Game Date', '#Game Time', '#Away Team ID', '#Away Team Abbr.', '#Away Team City', '#Away Team Name', '#Home Team ID', '#Home Team Abbr.', '#Home Team City', '#Home Team Name', '#Venue ID', '#Venue Name', '#Team ID', '#Team Abbr.', '#Team City', '#Team Name', '#Wins', '#Losses', '#OvertimeWins', '#OvertimeLosses', '#ShootoutWins', '#ShootoutLosses', '#Rows', '#Points', '#FaceoffWins', '#FaceoffLosses', '#FaceoffPercent', '#Powerplays', '#PowerplayGoals', '#PowerplayPercent', '#PenaltyKills', '#PenaltyKillGoalsAllowed', '#PenaltyKillPercent', '#ShorthandedGoalsFor', '#ShorthandedGoalsAgainst', '#GoalsFor', '#GoalsAgainst', '#Shots', '#Penalties', '#PenaltyMinutes', '#Hits']"
"['', '12471', '2010-10-07', '02:00:00 GMT', '23', 'CGY', 'Calgary', 'Flames', '24', 'EDM', 'Edmonton', 'Oilers', '22', 'Rogers Place', '23', 'CGY', 'Calgary', 'Flames', '0', '1', '0', '0', '0', '0', '0', '0', '29', '31', '48.3', '3', '0', '0.0', '6', '2', '66.7', '0', '1', '0', '4', '37', '10', '32', '22']"
"['', '11267', '2010-10-10', '00:00:00 GMT', '28', 'LAK', 'Los Angeles', 'Kings', '23', 'CGY', 'Calgary', 'Flames', '18', 'Scotiabank Saddledome', '23', 'CGY', 'Calgary', 'Flames', '1', '0', '0', '0', '0', '0', '1', '2', '22', '29', '43.1', '5', '1', '20.0', '2', '0', '100.0', '1', '0', '3', '1', '29', '3', '6', '14']"
"['', '11289', '2010-10-14', '01:00:00 GMT', '4', 'FLO', 'Florida', 'Panthers', '23', 'CGY', 'Calgary', 'Flames', '18', 'Scotiabank Saddledome', '23', 'CGY', 'Calgary', 'Flames', '0', '1', '0', '0', '0', '0', '0', '0', '24', '32', '42.9', '4', '0', '0.0', '3', '0', '100.0', '0', '0', '0', '3', '27', '3', '6', '19']"
"['', '11307', '2010-10-16', '02:00:00 GMT', '24', 'EDM', 'Edmonton', 'Oilers', '23', 'CGY', 'Calgary', 'Flames', '18', 'Scotiabank Saddledome', '23', 'CGY', 'Calgary', 'Flames', '1', '0', '0', '0', '0', '0', '1', '2', '45', '18', '71.4', '3', '1', '33.3', '4', '0', '100.0', '0', '0', '5', '3', '41', '5', '10', '12']"
"['', '11317', '2010-10-19', '00:00:00 GMT', '23', 'CGY', 'Calgary', 'Flames', '18', 'NSH', 'Nashville', 'Predators', '15', 'Sommet Center', '23', 'CGY', 'Calgary', 'Flames', '1', '0', '0', '0', '0', '0', '1', '2', '29', '33', '46.8', '1', '0', '0.0', '5', '0', '100.0', '0', '0', '1', '0', '34', '5', '10', '23']"
"['', '11325', '2010-10-21', '23:00:00 GMT', '23', 'CGY', 'Calgary', 'Flames', '16', 'DET', 'Detroit', 'Red Wings', '11', 'Joe Louis Arena', '23', 'CGY', 'Calgary', 'Flames', '0', '1', '0', '0', '0', '0', '0', '0', '21', '39', '35.0', '4', '0', '0.0', '5', '1', '80.0', '0', '0', '2', '4', '34', '5', '10', '32']"
"['', '11335', '2010-10-22', '23:00:00 GMT', '23', 'CGY', 'Calgary', 'Flames', '19', 'CBJ', 'Columbus', 'Blue Jackets', '17', 'Nationwide Arena', '23', 'CGY', 'Calgary', 'Flames', '1', '0', '0', '0', '0', '0', '1', '2', '25', '39', '39.1', '6', '0', '0.0', '3', '0', '100.0', '1', '0', '6', '2', '17', '5', '13', '30']"
"['', '11355', '2010-10-24', '00:00:00 GMT', '26', 'SJS', 'San Jose', 'Sharks', '23', 'CGY', 'Calgary', 'Flames', '18', 'Scotiabank Saddledome', '23', 'CGY', 'Calgary', 'Flames', '1', '0', '0', '0', '0', '0', '1', '2', '25', '32', '43.9', '6', '1', '16.7', '2', '0', '100.0', '0', '0', '4', '0', '26', '3', '9', '13']"
"['', '11362', '2010-10-26', '01:00:00 GMT', '24', 'EDM', 'Edmonton', 'Oilers', '23', 'CGY', 'Calgary', 'Flames', '18', 'Scotiabank Saddledome', '23', 'CGY', 'Calgary', 'Flames', '1', '0', '0', '0', '0', '0', '0', '2', '32', '25', '56.1', '6', '2', '33.3', '3', '1', '66.7', '1', '0', '4', '4', '35', '7', '23', '19']"
"['', '11378', '2010-10-28', '01:00:00 GMT', '22', 'COL', 'Colorado', 'Avalanche', '23', 'CGY', 'Calgary', 'Flames', '18', 'Scotiabank Saddledome', '23', 'CGY', 'Calgary', 'Flames', '0', '1', '0', '0', '0', '0', '0', '0', '26', '30', '46.4', '3', '1', '33.3', '6', '1', '83.3', '0', '0', '5', '6', '14', '8', '22', '19']"
"['', '11396', '2010-10-30', '02:00:00 GMT', '5', 'WSH', 'Washington', 'Capitals', '23', 'CGY', 'Calgary', 'Flames', '18', 'Scotiabank Saddledome', '23', 'CGY', 'Calgary', 'Flames', '0', '1', '0', '0', '0', '0', '0', '0', '40', '32', '55.6', '6', '0', '0.0', '4', '2', '50.0', '0', '1', '2', '7', '27', '6', '23', '21']"
"['', '11412', '2010-11-03', '01:30:00 GMT', '16', 'DET', 'Detroit', 'Red Wings', '23', 'CGY', 'Calgary', 'Flames', '18', 'Scotiabank Saddledome', '23', 'CGY', 'Calgary', 'Flames', '0', '1', '0', '0', '0', '0', '0', '0', '36', '28', '56.2', '6', '1', '16.7', '5', '0', '100.0', '0', '0', '1', '2', '16', '8', '16', '19']"
"['', '11425', '2010-11-05', '00:00:00 GMT', '23', 'CGY', 'Calgary', 'Flames', '25', 'MIN', 'Minnesota', 'Wild', '30', 'Xcel Energy Center', '23', 'CGY', 'Calgary', 'Flames', '0', '1', '0', '0', '0', '0', '0', '0', '31', '23', '57.4', '4', '1', '25.0', '3', '0', '100.0', '0', '0', '1', '2', '33', '4', '11', '25']"
"['', '11451', '2010-11-09', '02:30:00 GMT', '23', 'CGY', 'Calgary', 'Flames', '22', 'COL', 'Colorado', 'Avalanche', '19', 'Pepsi Center', '23', 'CGY', 'Calgary', 'Flames', '1', '0', '0', '0', '0', '0', '1', '2', '30', '25', '54.5', '4', '1', '25.0', '5', '2', '60.0', '0', '0', '4', '2', '21', '9', '21', '25']"
"['', '11473', '2010-11-12', '02:00:00 GMT', '23', 'CGY', 'Calgary', 'Flames', '30', 'PHX', 'Phoenix', 'Coyotes', '6', 'Jobing.com Arena', '23', 'CGY', 'Calgary', 'Flames', '0', '1', '0', '0', '0', '0', '0', '0', '26', '37', '41.3', '4', '1', '25.0', '0', '0', '0.0', '0', '0', '4', '5', '31', '0', '0', '26']"
"['', '11484', '2010-11-13', '03:00:00 GMT', '23', 'CGY', 'Calgary', 'Flames', '26', 'SJS', 'San Jose', 'Sharks', '9', 'HP Pavilion at San Jose', '23', 'CGY', 'Calgary', 'Flames', '0', '1', '0', '0', '0', '0', '0', '0', '37', '35', '51.4', '6', '1', '16.7', '5', '1', '80.0', '0', '0', '3', '4', '28', '6', '15', '21']"
"['', '11508', '2010-11-17', '02:30:00 GMT', '30', 'PHX', 'Phoenix', 'Coyotes', '23', 'CGY', 'Calgary', 'Flames', '18', 'Scotiabank Saddledome', '23', 'CGY', 'Calgary', 'Flames', '0', '1', '0', '0', '0', '0', '0', '0', '26', '37', '41.3', '2', '0', '0.0', '6', '1', '83.3', '0', '0', '1', '3', '39', '11', '36', '17']"
"['', '11521', '2010-11-19', '02:00:00 GMT', '20', 'CHI', 'Chicago', 'Blackhawks', '23', 'CGY', 'Calgary', 'Flames', '18', 'Scotiabank Saddledome', '23', 'CGY', 'Calgary', 'Flames', '1', '0', '0', '0', '0', '0', '1', '2', '29', '39', '42.6', '4', '2', '50.0', '2', '0', '100.0', '0', '0', '7', '2', '29', '3', '9', '22']"
"['', '11536', '2010-11-21', '22:00:00 GMT', '23', 'CGY', 'Calgary', 'Flames', '16', 'DET', 'Detroit', 'Red Wings', '11', 'Joe Louis Arena', '23', 'CGY', 'Calgary', 'Flames', '0', '0', '0', '1', '0', '0', '0', '1', '25', '41', '37.9', '3', '1', '33.3', '7', '4', '42.9', '0', '0', '4', '5', '23', '10', '20', '29']"
"['', '11541', '2010-11-22', '00:00:00 GMT', '23', 'CGY', 'Calgary', 'Flames', '9', 'NYR', 'New York', 'Rangers', '12', 'Madison Square Garden', '23', 'CGY', 'Calgary', 'Flames', '0', '1', '0', '0', '0', '0', '0', '0', '25', '30', '45.4', '4', '0', '0.0', '3', '1', '66.7', '0', '0', '1', '2', '31', '5', '16', '31']"
"['', '11554', '2010-11-24', '00:30:00 GMT', '23', 'CGY', 'Calgary', 'Flames', '7', 'NJD', 'New Jersey', 'Devils', '37', 'Prudential Center', '23', 'CGY', 'Calgary', 'Flames', '0', '0', '0', '1', '0', '0', '0', '1', '31', '34', '47.7', '3', '0', '0.0', '3', '0', '100.0', '0', '0', '1', '1', '25', '3', '6', '13']"
"['', '11565', '2010-11-26', '18:00:00 GMT', '23', 'CGY', 'Calgary', 'Flames', '6', 'PHI', 'Philadelphia', 'Flyers', '29', 'Wells Fargo Center', '23', 'CGY', 'Calgary', 'Flames', '1', '0', '0', '0', '0', '0', '0', '2', '34', '36', '48.6', '2', '0', '0.0', '6', '0', '100.0', '1', '0', '2', '2', '28', '6', '12', '29']"
"['', '11577', '2010-11-27', '18:00:00 GMT', '23', 'CGY', 'Calgary', 'Flames', '10', 'PIT', 'Pittsburgh', 'Penguins', '14', 'Civic Arena', '23', 'CGY', 'Calgary', 'Flames', '0', '1', '0', '0', '0', '0', '0', '0', '36', '30', '54.5', '4', '0', '0.0', '3', '1', '66.7', '0', '1', '1', '4', '30', '6', '23', '27']"
"['', '11593', '2010-11-29', '02:00:00 GMT', '25', 'MIN', 'Minnesota', 'Wild', '23', 'CGY', 'Calgary', 'Flames', '18', 'Scotiabank Saddledome', '23', 'CGY', 'Calgary', 'Flames', '1', '0', '0', '0', '0', '0', '1', '2', '33', '24', '57.9', '3', '1', '33.3', '3', '0', '100.0', '0', '0', '3', '0', '28', '3', '6', '16']"
"['', '11605', '2010-12-01', '02:30:00 GMT', '21', 'VAN', 'Vancouver', 'Canucks', '23', 'CGY', 'Calgary', 'Flames', '18', 'Scotiabank Saddledome', '23', 'CGY', 'Calgary', 'Flames', '0', '1', '0', '0', '0', '0', '0', '0', '27', '30', '47.4', '3', '0', '0.0', '7', '3', '57.1', '0', '1', '2', '7', '18', '11', '36', '13']"
"['', '11618', '2010-12-03', '01:00:00 GMT', '23', 'CGY', 'Calgary', 'Flames', '25', 'MIN', 'Minnesota', 'Wild', '30', 'Xcel Energy Center', '23', 'CGY', 'Calgary', 'Flames', '1', '0', '0', '0', '0', '0', '0', '2', '30', '26', '53.6', '4', '0', '0.0', '3', '0', '100.0', '0', '0', '2', '2', '30', '4', '8', '11']"
"['', '11635', '2010-12-05', '00:00:00 GMT', '23', 'CGY', 'Calgary', 'Flames', '20', 'CHI', 'Chicago', 'Blackhawks', '28', 'United Center', '23', 'CGY', 'Calgary', 'Flames', '0', '1', '0', '0', '0', '0', '0', '0', '28', '45', '38.4', '7', '2', '28.6', '8', '4', '50.0', '0', '0', '2', '4', '24', '11', '25', '29']"
"['', '11646', '2010-12-07', '02:00:00 GMT', '1', 'TBL', 'Tampa Bay', 'Lightning', '23', 'CGY', 'Calgary', 'Flames', '18', 'Scotiabank Saddledome', '23', 'CGY', 'Calgary', 'Flames', '1', '0', '0', '0', '0', '0', '1', '2', '24', '35', '40.7', '4', '1', '25.0', '2', '0', '100.0', '0', '0', '4', '2', '15', '2', '4', '13']"
"['', '11660', '2010-12-09', '03:30:00 GMT', '23', 'CGY', 'Calgary', 'Flames', '28', 'LAK', 'Los Angeles', 'Kings', '25', 'Staples Center', '23', 'CGY', 'Calgary', 'Flames', '0', '1', '0', '0', '0', '0', '0', '0', '24', '32', '42.9', '2', '1', '50.0', '6', '1', '83.3', '0', '0', '1', '2', '26', '7', '17', '41']"
"['', '11666', '2010-12-10', '03:00:00 GMT', '23', 'CGY', 'Calgary', 'Flames', '29', 'ANA', 'Anaheim', 'Ducks', '8', 'Honda Center', '23', 'CGY', 'Calgary', 'Flames', '0', '0', '0', '1', '0', '0', '0', '1', '30', '40', '42.9', '4', '1', '25.0', '5', '0', '100.0', '0', '0', '2', '2', '37', '5', '10', '12']"
"['', '11686', '2010-12-13', '02:00:00 GMT', '19', 'CBJ', 'Columbus', 'Blue Jackets', '23', 'CGY', 'Calgary', 'Flames', '18', 'Scotiabank Saddledome', '23', 'CGY', 'Calgary', 'Flames', '1', '0', '0', '0', '0', '0', '1', '2', '23', '24', '48.9', '3', '0', '0.0', '1', '1', '0.0', '0', '1', '3', '2', '22', '1', '2', '13']"
"['', '11709', '2010-12-16', '02:00:00 GMT', '12', 'TOR', 'Toronto', 'Maple Leafs', '23', 'CGY', 'Calgary', 'Flames', '18', 'Scotiabank Saddledome', '23', 'CGY', 'Calgary', 'Flames', '1', '0', '0', '0', '0', '0', '1', '2', '23', '16', '59.0', '3', '2', '66.7', '1', '0', '100.0', '0', '0', '5', '2', '27', '2', '4', '23']"
"['', '11724', '2010-12-18', '03:00:00 GMT', '25', 'MIN', 'Minnesota', 'Wild', '23', 'CGY', 'Calgary', 'Flames', '18', 'Scotiabank Saddledome', '23', 'CGY', 'Calgary', 'Flames', '0', '1', '0', '0', '0', '0', '0', '0', '34', '29', '54.0', '1', '0', '0.0', '2', '1', '50.0', '0', '0', '1', '3', '28', '2', '4', '15']"
"['', '11736', '2010-12-20', '01:00:00 GMT', '23', 'CGY', 'Calgary', 'Flames', '25', 'MIN', 'Minnesota', 'Wild', '30', 'Xcel Energy Center', '23', 'CGY', 'Calgary', 'Flames', '0', '1', '0', '0', '0', '0', '0', '0', '24', '23', '51.1', '4', '0', '0.0', '3', '2', '33.3', '0', '0', '1', '4', '34', '3', '6', '9']"
"['', '11740', '2010-12-21', '00:00:00 GMT', '23', 'CGY', 'Calgary', 'Flames', '19', 'CBJ', 'Columbus', 'Blue Jackets', '17', 'Nationwide Arena', '23', 'CGY', 'Calgary', 'Flames', '0', '1', '0', '0', '0', '0', '0', '0', '34', '32', '51.5', '4', '1', '25.0', '2', '0', '100.0', '0', '0', '1', '3', '29', '5', '16', '25']"
"['', '11757', '2010-12-23', '01:30:00 GMT', '23', 'CGY', 'Calgary', 'Flames', '27', 'DAL', 'Dallas', 'Stars', '2', 'American Airlines Center', '23', 'CGY', 'Calgary', 'Flames', '1', '0', '0', '0', '0', '0', '0', '2', '29', '28', '50.9', '4', '1', '25.0', '2', '1', '50.0', '0', '0', '2', '2', '31', '5', '16', '20']"
"['', '11775', '2010-12-27', '02:00:00 GMT', '15', 'BUF', 'Buffalo', 'Sabres', '23', 'CGY', 'Calgary', 'Flames', '18', 'Scotiabank Saddledome', '23', 'CGY', 'Calgary', 'Flames', '1', '0', '0', '0', '0', '0', '1', '2', '33', '22', '60.0', '5', '1', '20.0', '4', '0', '100.0', '0', '0', '5', '2', '28', '6', '12', '17']"
"['', '11807', '2010-12-31', '02:00:00 GMT', '22', 'COL', 'Colorado', 'Avalanche', '23', 'CGY', 'Calgary', 'Flames', '18', 'Scotiabank Saddledome', '23', 'CGY', 'Calgary', 'Flames', '1', '0', '0', '0', '0', '0', '1', '2', '22', '21', '51.2', '3', '0', '0.0', '2', '0', '100.0', '0', '1', '3', '2', '20', '2', '4', '10']"
"['', '11814', '2011-01-01', '03:00:00 GMT', '23', 'CGY', 'Calgary', 'Flames', '24', 'EDM', 'Edmonton', 'Oilers', '22', 'Rogers Place', '23', 'CGY', 'Calgary', 'Flames', '1', '0', '0', '0', '0', '0', '1', '2', '26', '29', '47.3', '2', '0', '0.0', '1', '0', '100.0', '0', '0', '2', '1', '28', '2', '4', '20']"
"['', '11825', '2011-01-03', '02:00:00 GMT', '8', 'NYI', 'New York', 'Islanders', '23', 'CGY', 'Calgary', 'Flames', '18', 'Scotiabank Saddledome', '23', 'CGY', 'Calgary', 'Flames', '0', '1', '0', '0', '0', '0', '0', '0', '34', '31', '52.3', '2', '0', '0.0', '2', '2', '0.0', '0', '0', '2', '5', '41', '3', '9', '13']"
"['', '11837', '2011-01-05', '03:00:00 GMT', '23', 'CGY', 'Calgary', 'Flames', '21', 'VAN', 'Vancouver', 'Canucks', '7', 'Canada Hockey Place', '23', 'CGY', 'Calgary', 'Flames', '0', '1', '0', '0', '0', '0', '0', '0', '27', '29', '48.2', '2', '0', '0.0', '2', '0', '100.0', '0', '0', '1', '3', '43', '2', '4', '22']"
"['', '11851', '2011-01-07', '02:00:00 GMT', '16', 'DET', 'Detroit', 'Red Wings', '23', 'CGY', 'Calgary', 'Flames', '18', 'Scotiabank Saddledome', '23', 'CGY', 'Calgary', 'Flames', '0', '0', '0', '1', '0', '0', '0', '1', '38', '34', '52.8', '5', '1', '20.0', '6', '1', '83.3', '0', '0', '4', '4', '35', '6', '12', '20']"
"['', '11876', '2011-01-11', '00:00:00 GMT', '23', 'CGY', 'Calgary', 'Flames', '3', 'CAR', 'Carolina', 'Hurricanes', '21', 'RBC Center', '23', 'CGY', 'Calgary', 'Flames', '0', '0', '0', '1', '0', '0', '0', '1', '36', '34', '51.4', '2', '0', '0.0', '5', '0', '100.0', '0', '0', '5', '5', '27', '6', '12', '34']"
"['', '11898', '2011-01-14', '00:30:00 GMT', '23', 'CGY', 'Calgary', 'Flames', '13', 'OTT', 'Ottawa', 'Senators', '23', 'Scotiabank Place', '23', 'CGY', 'Calgary', 'Flames', '1', '0', '0', '0', '0', '0', '1', '2', '29', '34', '46.0', '5', '1', '20.0', '5', '0', '100.0', '0', '0', '3', '2', '23', '7', '14', '26']"
"['', '11907', '2011-01-15', '00:00:00 GMT', '23', 'CGY', 'Calgary', 'Flames', '12', 'TOR', 'Toronto', 'Maple Leafs', '1', 'Air Canada Center', '23', 'CGY', 'Calgary', 'Flames', '1', '0', '0', '0', '0', '0', '0', '2', '28', '36', '43.8', '3', '0', '0.0', '3', '1', '66.7', '0', '0', '1', '1', '32', '3', '6', '21']"
"['', '11922', '2011-01-17', '00:30:00 GMT', '23', 'CGY', 'Calgary', 'Flames', '14', 'MTL', 'Montreal', 'Canadiens', '4', 'Bell Centre', '23', 'CGY', 'Calgary', 'Flames', '0', '0', '0', '1', '0', '0', '0', '1', '21', '30', '41.2', '3', '0', '0.0', '2', '0', '100.0', '0', '0', '4', '5', '24', '3', '6', '17']"
"['', '11937', '2011-01-19', '02:30:00 GMT', '25', 'MIN', 'Minnesota', 'Wild', '23', 'CGY', 'Calgary', 'Flames', '18', 'Scotiabank Saddledome', '23', 'CGY', 'Calgary', 'Flames', '0', '1', '0', '0', '0', '0', '0', '0', '38', '34', '52.8', '2', '0', '0.0', '3', '1', '66.7', '0', '0', '0', '6', '37', '3', '9', '12']"
"['', '11953', '2011-01-21', '02:00:00 GMT', '27', 'DAL', 'Dallas', 'Stars', '23', 'CGY', 'Calgary', 'Flames', '18', 'Scotiabank Saddledome', '23', 'CGY', 'Calgary', 'Flames', '1', '0', '0', '0', '0', '0', '1', '2', '28', '35', '44.4', '3', '1', '33.3', '2', '0', '100.0', '0', '0', '7', '4', '12', '4', '11', '23']"
"['', '11963', '2011-01-22', '03:00:00 GMT', '23', 'CGY', 'Calgary', 'Flames', '21', 'VAN', 'Vancouver', 'Canucks', '7', 'Canada Hockey Place', '23', 'CGY', 'Calgary', 'Flames', '1', '0', '0', '0', '0', '0', '0', '2', '30', '48', '38.5', '6', '1', '16.7', '4', '0', '100.0', '0', '1', '3', '3', '30', '6', '15', '24']"
"['', '11972', '2011-01-24', '02:30:00 GMT', '18', 'NSH', 'Nashville', 'Predators', '23', 'CGY', 'Calgary', 'Flames', '18', 'Scotiabank Saddledome', '23', 'CGY', 'Calgary', 'Flames', '1', '0', '0', '0', '0', '0', '1', '2', '25', '28', '47.2', '5', '2', '40.0', '5', '0', '100.0', '0', '0', '3', '1', '24', '5', '10', '9']"
"['', '11990', '2011-01-26', '03:00:00 GMT', '17', 'STL', 'St. Louis', 'Blues', '23', 'CGY', 'Calgary', 'Flames', '18', 'Scotiabank Saddledome', '23', 'CGY', 'Calgary', 'Flames', '1', '0', '0', '0', '0', '0', '1', '2', '25', '33', '43.1', '3', '2', '66.7', '2', '0', '100.0', '0', '0', '4', '1', '17', '2', '4', '21']"
"['', '12002', '2011-02-01', '01:00:00 GMT', '23', 'CGY', 'Calgary', 'Flames', '18', 'NSH', 'Nashville', 'Predators', '15', 'Sommet Center', '23', 'CGY', 'Calgary', 'Flames', '1', '0', '0', '0', '0', '0', '0', '2', '19', '27', '41.3', '5', '0', '0.0', '4', '1', '75.0', '0', '0', '2', '2', '26', '4', '8', '17']"
"['', '12016', '2011-02-03', '00:00:00 GMT', '23', 'CGY', 'Calgary', 'Flames', '2', 'ATL', 'Atlanta', 'Thrashers', '20', 'Philips Arena', '23', 'CGY', 'Calgary', 'Flames', '1', '0', '0', '0', '0', '0', '1', '2', '16', '23', '41.0', '3', '1', '33.3', '2', '0', '100.0', '0', '0', '4', '2', '20', '2', '4', '16']"
"['', '12034', '2011-02-05', '03:00:00 GMT', '28', 'LAK', 'Los Angeles', 'Kings', '23', 'CGY', 'Calgary', 'Flames', '18', 'Scotiabank Saddledome', '23', 'CGY', 'Calgary', 'Flames', '0', '0', '0', '1', '0', '0', '0', '1', '36', '34', '51.4', '4', '1', '25.0', '3', '1', '66.7', '0', '0', '3', '3', '32', '4', '8', '19']"
"['', '12041', '2011-02-07', '02:30:00 GMT', '20', 'CHI', 'Chicago', 'Blackhawks', '23', 'CGY', 'Calgary', 'Flames', '18', 'Scotiabank Saddledome', '23', 'CGY', 'Calgary', 'Flames', '1', '0', '0', '0', '0', '0', '1', '2', '29', '22', '56.9', '4', '1', '25.0', '4', '0', '100.0', '0', '0', '3', '1', '25', '4', '8', '12']"
"['', '12055', '2011-02-09', '02:30:00 GMT', '13', 'OTT', 'Ottawa', 'Senators', '23', 'CGY', 'Calgary', 'Flames', '18', 'Scotiabank Saddledome', '23', 'CGY', 'Calgary', 'Flames', '1', '0', '0', '0', '0', '0', '1', '2', '29', '20', '59.2', '5', '3', '60.0', '3', '0', '100.0', '0', '0', '5', '2', '30', '4', '8', '21']"
"['', '12070', '2011-02-11', '02:00:00 GMT', '29', 'ANA', 'Anaheim', 'Ducks', '23', 'CGY', 'Calgary', 'Flames', '18', 'Scotiabank Saddledome', '23', 'CGY', 'Calgary', 'Flames', '0', '0', '0', '1', '0', '0', '0', '1', '23', '25', '47.9', '3', '0', '0.0', '1', '1', '0.0', '0', '1', '4', '5', '21', '1', '2', '20']"
"['', '12078', '2011-02-12', '03:00:00 GMT', '23', 'CGY', 'Calgary', 'Flames', '21', 'VAN', 'Vancouver', 'Canucks', '7', 'Canada Hockey Place', '23', 'CGY', 'Calgary', 'Flames', '0', '1', '0', '0', '0', '0', '0', '0', '26', '30', '46.4', '3', '0', '0.0', '3', '2', '33.3', '0', '0', '2', '4', '24', '3', '6', '29']"
"['', '12087', '2011-02-14', '03:00:00 GMT', '23', 'CGY', 'Calgary', 'Flames', '22', 'COL', 'Colorado', 'Avalanche', '19', 'Pepsi Center', '23', 'CGY', 'Calgary', 'Flames', '1', '0', '0', '0', '0', '0', '1', '2', '35', '32', '52.2', '4', '1', '25.0', '3', '1', '66.7', '1', '0', '9', '1', '24', '3', '6', '8']"
"['', '12102', '2011-02-16', '02:30:00 GMT', '27', 'DAL', 'Dallas', 'Stars', '23', 'CGY', 'Calgary', 'Flames', '18', 'Scotiabank Saddledome', '23', 'CGY', 'Calgary', 'Flames', '1', '0', '0', '0', '0', '0', '1', '2', '23', '32', '41.8', '3', '1', '33.3', '2', '0', '100.0', '1', '0', '4', '2', '27', '2', '4', '19']"
"['', '12129', '2011-02-20', '23:00:00 GMT', '14', 'MTL', 'Montreal', 'Canadiens', '23', 'CGY', 'Calgary', 'Flames', '18', 'Scotiabank Saddledome', '23', 'CGY', 'Calgary', 'Flames', '1', '0', '0', '0', '0', '0', '1', '2', '33', '34', '49.3', '4', '2', '50.0', '1', '0', '100.0', '1', '0', '4', '0', '33', '1', '2', '9']"
"['', '12146', '2011-02-22', '02:00:00 GMT', '11', 'BOS', 'Boston', 'Bruins', '23', 'CGY', 'Calgary', 'Flames', '18', 'Scotiabank Saddledome', '23', 'CGY', 'Calgary', 'Flames', '0', '1', '0', '0', '0', '0', '0', '0', '23', '29', '44.2', '2', '1', '50.0', '2', '0', '100.0', '0', '0', '1', '3', '28', '2', '4', '14']"
"['', '12161', '2011-02-25', '02:00:00 GMT', '26', 'SJS', 'San Jose', 'Sharks', '23', 'CGY', 'Calgary', 'Flames', '18', 'Scotiabank Saddledome', '23', 'CGY', 'Calgary', 'Flames', '0', '0', '0', '1', '0', '0', '0', '1', '29', '34', '46.0', '2', '0', '0.0', '2', '0', '100.0', '0', '0', '3', '3', '21', '4', '14', '34']"
"['', '12177', '2011-02-27', '01:00:00 GMT', '17', 'STL', 'St. Louis', 'Blues', '23', 'CGY', 'Calgary', 'Flames', '18', 'Scotiabank Saddledome', '23', 'CGY', 'Calgary', 'Flames', '1', '0', '0', '0', '0', '0', '1', '2', '28', '21', '57.1', '4', '0', '0.0', '2', '0', '100.0', '0', '0', '1', '0', '19', '3', '6', '22']"
"['', '12187', '2011-03-01', '01:00:00 GMT', '23', 'CGY', 'Calgary', 'Flames', '17', 'STL', 'St. Louis', 'Blues', '24', 'Scottrade Center', '23', 'CGY', 'Calgary', 'Flames', '1', '0', '0', '0', '0', '0', '1', '2', '25', '27', '48.1', '5', '2', '40.0', '2', '0', '100.0', '0', '0', '6', '0', '23', '3', '9', '14']"
"['', '12195', '2011-03-02', '02:00:00 GMT', '23', 'CGY', 'Calgary', 'Flames', '20', 'CHI', 'Chicago', 'Blackhawks', '28', 'United Center', '23', 'CGY', 'Calgary', 'Flames', '0', '1', '0', '0', '0', '0', '0', '0', '23', '35', '39.7', '3', '1', '33.3', '3', '1', '66.7', '0', '0', '4', '6', '21', '5', '13', '23']"
"['', '12211', '2011-03-04', '02:00:00 GMT', '19', 'CBJ', 'Columbus', 'Blue Jackets', '23', 'CGY', 'Calgary', 'Flames', '18', 'Scotiabank Saddledome', '23', 'CGY', 'Calgary', 'Flames', '1', '0', '0', '0', '0', '0', '1', '2', '35', '30', '53.8', '6', '2', '33.3', '3', '0', '100.0', '0', '0', '4', '3', '24', '5', '26', '16']"
"['', '12226', '2011-03-06', '01:00:00 GMT', '18', 'NSH', 'Nashville', 'Predators', '23', 'CGY', 'Calgary', 'Flames', '18', 'Scotiabank Saddledome', '23', 'CGY', 'Calgary', 'Flames', '1', '0', '0', '0', '0', '0', '1', '2', '28', '25', '52.8', '1', '1', '100.0', '3', '0', '100.0', '0', '0', '3', '2', '33', '3', '6', '21']"
"['', '12245', '2011-03-09', '02:00:00 GMT', '23', 'CGY', 'Calgary', 'Flames', '27', 'DAL', 'Dallas', 'Stars', '2', 'American Airlines Center', '23', 'CGY', 'Calgary', 'Flames', '1', '0', '0', '0', '0', '0', '0', '2', '33', '37', '47.1', '1', '0', '0.0', '3', '1', '66.7', '0', '0', '3', '3', '31', '3', '6', '28']"
"['', '12252', '2011-03-10', '02:00:00 GMT', '23', 'CGY', 'Calgary', 'Flames', '30', 'PHX', 'Phoenix', 'Coyotes', '6', 'Jobing.com Arena', '23', 'CGY', 'Calgary', 'Flames', '0', '1', '0', '0', '0', '0', '0', '0', '27', '31', '46.6', '3', '0', '0.0', '2', '0', '100.0', '0', '0', '0', '3', '39', '2', '4', '21']"
"['', '12270', '2011-03-12', '03:00:00 GMT', '21', 'VAN', 'Vancouver', 'Canucks', '23', 'CGY', 'Calgary', 'Flames', '18', 'Scotiabank Saddledome', '23', 'CGY', 'Calgary', 'Flames', '0', '1', '0', '0', '0', '0', '0', '0', '25', '30', '45.5', '2', '0', '0.0', '2', '2', '0.0', '0', '0', '3', '4', '20', '2', '4', '27']"
"['', '12289', '2011-03-15', '01:30:00 GMT', '30', 'PHX', 'Phoenix', 'Coyotes', '23', 'CGY', 'Calgary', 'Flames', '18', 'Scotiabank Saddledome', '23', 'CGY', 'Calgary', 'Flames', '0', '1', '0', '0', '0', '0', '0', '0', '21', '28', '42.9', '2', '1', '50.0', '1', '0', '100.0', '0', '0', '3', '4', '24', '2', '4', '23']"
"['', '12301', '2011-03-17', '01:00:00 GMT', '22', 'COL', 'Colorado', 'Avalanche', '23', 'CGY', 'Calgary', 'Flames', '18', 'Scotiabank Saddledome', '23', 'CGY', 'Calgary', 'Flames', '1', '0', '0', '0', '0', '0', '1', '2', '17', '34', '33.3', '3', '2', '66.7', '5', '1', '80.0', '0', '0', '5', '2', '23', '6', '12', '27']"
"['', '12324', '2011-03-20', '00:00:00 GMT', '23', 'CGY', 'Calgary', 'Flames', '29', 'ANA', 'Anaheim', 'Ducks', '8', 'Honda Center', '23', 'CGY', 'Calgary', 'Flames', '0', '0', '0', '1', '0', '0', '0', '1', '41', '38', '51.9', '4', '1', '25.0', '3', '2', '33.3', '0', '0', '4', '5', '37', '4', '16', '23']"
"['', '12326', '2011-03-21', '02:30:00 GMT', '23', 'CGY', 'Calgary', 'Flames', '28', 'LAK', 'Los Angeles', 'Kings', '25', 'Staples Center', '23', 'CGY', 'Calgary', 'Flames', '0', '0', '0', '1', '0', '0', '0', '1', '32', '35', '47.8', '6', '0', '0.0', '4', '0', '100.0', '0', '0', '1', '1', '27', '5', '10', '30']"
"['', '12340', '2011-03-23', '02:00:00 GMT', '23', 'CGY', 'Calgary', 'Flames', '26', 'SJS', 'San Jose', 'Sharks', '9', 'HP Pavilion at San Jose', '23', 'CGY', 'Calgary', 'Flames', '0', '1', '0', '0', '0', '0', '0', '0', '28', '48', '36.8', '1', '1', '100.0', '2', '1', '50.0', '0', '0', '3', '6', '22', '3', '9', '34']"
"['', '12366', '2011-03-26', '02:00:00 GMT', '23', 'CGY', 'Calgary', 'Flames', '24', 'EDM', 'Edmonton', 'Oilers', '22', 'Rogers Place', '23', 'CGY', 'Calgary', 'Flames', '1', '0', '0', '0', '0', '0', '0', '2', '31', '36', '46.3', '4', '2', '50.0', '2', '0', '100.0', '0', '1', '4', '4', '27', '2', '4', '19']"
"['', '12388', '2011-03-30', '01:30:00 GMT', '29', 'ANA', 'Anaheim', 'Ducks', '23', 'CGY', 'Calgary', 'Flames', '18', 'Scotiabank Saddledome', '23', 'CGY', 'Calgary', 'Flames', '0', '1', '0', '0', '0', '0', '0', '0', '28', '29', '49.1', '6', '1', '16.7', '6', '2', '66.7', '0', '0', '2', '4', '23', '6', '12', '19']"
"['', '12401', '2011-04-01', '00:00:00 GMT', '23', 'CGY', 'Calgary', 'Flames', '17', 'STL', 'St. Louis', 'Blues', '24', 'Scottrade Center', '23', 'CGY', 'Calgary', 'Flames', '1', '0', '0', '0', '0', '0', '1', '2', '26', '23', '53.1', '5', '0', '0.0', '2', '1', '50.0', '0', '0', '3', '2', '22', '5', '10', '17']"
"['', '12419', '2011-04-03', '00:00:00 GMT', '23', 'CGY', 'Calgary', 'Flames', '22', 'COL', 'Colorado', 'Avalanche', '19', 'Pepsi Center', '23', 'CGY', 'Calgary', 'Flames', '1', '0', '0', '0', '0', '0', '1', '2', '27', '35', '43.5', '1', '0', '0.0', '3', '0', '100.0', '0', '0', '2', '1', '34', '3', '6', '14']"
"['', '12437', '2011-04-06', '01:30:00 GMT', '24', 'EDM', 'Edmonton', 'Oilers', '23', 'CGY', 'Calgary', 'Flames', '18', 'Scotiabank Saddledome', '23', 'CGY', 'Calgary', 'Flames', '1', '0', '0', '0', '0', '0', '1', '2', '34', '23', '59.6', '4', '3', '75.0', '1', '0', '100.0', '0', '0', '6', '1', '40', '4', '8', '16']"
"['', '12462', '2011-04-09', '02:00:00 GMT', '21', 'VAN', 'Vancouver', 'Canucks', '23', 'CGY', 'Calgary', 'Flames', '18', 'Scotiabank Saddledome', '23', 'CGY', 'Calgary', 'Flames', '0', '0', '0', '1', '0', '0', '0', '1', '33', '27', '55.0', '6', '2', '33.3', '3', '1', '66.7', '0', '0', '2', '3', '34', '6', '12', '15']"
