"['#Date/Time of Update: 2018-12-10 19:03:10 GMT', '#Game ID', '#Game Date', '#Game Time', '#Away Team ID', '#Away Team Abbr.', '#Away Team City', '#Away Team Name', '#Home Team ID', '#Home Team Abbr.', '#Home Team City', '#Home Team Name', '#Venue ID', '#Venue Name', '#Team ID', '#Team Abbr.', '#Team City', '#Team Name', '#Wins', '#Losses', '#OvertimeWins', '#OvertimeLosses', '#ShootoutWins', '#ShootoutLosses', '#Rows', '#Points', '#FaceoffWins', '#FaceoffLosses', '#FaceoffPercent', '#Powerplays', '#PowerplayGoals', '#PowerplayPercent', '#PenaltyKills', '#PenaltyKillGoalsAllowed', '#PenaltyKillPercent', '#ShorthandedGoalsFor', '#ShorthandedGoalsAgainst', '#GoalsFor', '#GoalsAgainst', '#Shots', '#Penalties', '#PenaltyMinutes', '#Hits']"
"['', '26362', '2013-10-03', '23:00:00 GMT', '7', 'NJD', 'New Jersey', 'Devils', '10', 'PIT', 'Pittsburgh', 'Penguins', '40', 'Consol Energy Center', '7', 'NJD', 'New Jersey', 'Devils', '0', '1', '0', '0', '0', '0', '0', '0', '22', '32', '40.7', '2', '0', '0.0', '1', '0', '100.0', '0', '0', '0', '3', '26', '2', '7', '29']"
"['', '26370', '2013-10-04', '23:00:00 GMT', '8', 'NYI', 'New York', 'Islanders', '7', 'NJD', 'New Jersey', 'Devils', '37', 'Prudential Center', '7', 'NJD', 'New Jersey', 'Devils', '0', '0', '0', '1', '0', '0', '0', '1', '24', '28', '46.2', '2', '0', '0.0', '2', '0', '100.0', '0', '0', '3', '3', '26', '2', '4', '13']"
"['', '26389', '2013-10-07', '01:30:00 GMT', '7', 'NJD', 'New Jersey', 'Devils', '24', 'EDM', 'Edmonton', 'Oilers', '22', 'Rogers Place', '7', 'NJD', 'New Jersey', 'Devils', '0', '0', '0', '1', '0', '0', '0', '1', '25', '43', '36.8', '3', '1', '33.3', '4', '1', '75.0', '1', '0', '4', '4', '21', '5', '13', '25']"
"['', '26397', '2013-10-08', '02:00:00 GMT', '7', 'NJD', 'New Jersey', 'Devils', '21', 'VAN', 'Vancouver', 'Canucks', '7', 'Rogers Arena', '7', 'NJD', 'New Jersey', 'Devils', '0', '0', '0', '1', '0', '0', '0', '1', '34', '33', '50.7', '1', '0', '0.0', '2', '0', '100.0', '0', '0', '2', '3', '21', '2', '4', '25']"
"['', '26417', '2013-10-11', '01:00:00 GMT', '7', 'NJD', 'New Jersey', 'Devils', '23', 'CGY', 'Calgary', 'Flames', '18', 'Scotiabank Saddledome', '7', 'NJD', 'New Jersey', 'Devils', '0', '1', '0', '0', '0', '0', '0', '0', '23', '30', '43.4', '1', '0', '0.0', '4', '2', '50.0', '0', '0', '2', '3', '19', '4', '8', '10']"
"['', '26431', '2013-10-13', '00:00:00 GMT', '7', 'NJD', 'New Jersey', 'Devils', '2', 'WPJ', 'Winnipeg', 'Jets', '39', 'MTS Centre', '7', 'NJD', 'New Jersey', 'Devils', '0', '1', '0', '0', '0', '0', '0', '0', '29', '34', '46.0', '5', '0', '0.0', '3', '0', '100.0', '0', '0', '0', '3', '24', '4', '8', '18']"
"['', '26455', '2013-10-17', '23:30:00 GMT', '7', 'NJD', 'New Jersey', 'Devils', '13', 'OTT', 'Ottawa', 'Senators', '23', 'Canadian Tire Centre', '7', 'NJD', 'New Jersey', 'Devils', '0', '1', '0', '0', '0', '0', '0', '0', '28', '36', '43.8', '7', '1', '14.3', '4', '0', '100.0', '0', '0', '2', '5', '40', '5', '10', '18']"
"['', '26470', '2013-10-19', '23:00:00 GMT', '9', 'NYR', 'New York', 'Rangers', '7', 'NJD', 'New Jersey', 'Devils', '37', 'Prudential Center', '7', 'NJD', 'New Jersey', 'Devils', '1', '0', '0', '0', '0', '0', '1', '2', '30', '29', '50.8', '4', '1', '25.0', '2', '0', '100.0', '0', '0', '4', '0', '15', '3', '6', '25']"
"['', '26485', '2013-10-22', '23:00:00 GMT', '7', 'NJD', 'New Jersey', 'Devils', '19', 'CBJ', 'Columbus', 'Blue Jackets', '17', 'Nationwide Arena', '7', 'NJD', 'New Jersey', 'Devils', '0', '1', '0', '0', '0', '0', '0', '0', '26', '35', '42.6', '4', '1', '25.0', '3', '1', '66.7', '0', '0', '1', '4', '24', '3', '6', '17']"
"['', '26494', '2013-10-24', '23:00:00 GMT', '21', 'VAN', 'Vancouver', 'Canucks', '7', 'NJD', 'New Jersey', 'Devils', '37', 'Prudential Center', '7', 'NJD', 'New Jersey', 'Devils', '0', '0', '0', '1', '0', '0', '0', '1', '25', '33', '43.1', '3', '1', '33.3', '2', '0', '100.0', '0', '0', '2', '2', '28', '2', '4', '27']"
"['', '26509', '2013-10-26', '23:00:00 GMT', '7', 'NJD', 'New Jersey', 'Devils', '11', 'BOS', 'Boston', 'Bruins', '27', 'TD Garden', '7', 'NJD', 'New Jersey', 'Devils', '1', '0', '0', '0', '0', '0', '1', '2', '30', '35', '46.2', '7', '3', '42.9', '1', '1', '0.0', '0', '0', '4', '3', '28', '2', '4', '16']"
"['', '26533', '2013-10-29', '23:30:00 GMT', '1', 'TBL', 'Tampa Bay', 'Lightning', '7', 'NJD', 'New Jersey', 'Devils', '37', 'Prudential Center', '7', 'NJD', 'New Jersey', 'Devils', '1', '0', '0', '0', '0', '0', '1', '2', '30', '23', '56.6', '2', '0', '0.0', '4', '1', '75.0', '1', '0', '2', '1', '20', '5', '10', '21']"
"['', '26556', '2013-11-02', '23:00:00 GMT', '6', 'PHI', 'Philadelphia', 'Flyers', '7', 'NJD', 'New Jersey', 'Devils', '37', 'Prudential Center', '7', 'NJD', 'New Jersey', 'Devils', '0', '1', '0', '0', '0', '0', '0', '0', '24', '37', '39.3', '4', '0', '0.0', '5', '0', '100.0', '0', '0', '0', '1', '14', '5', '10', '14']"
"['', '26568', '2013-11-03', '01:00:00 GMT', '7', 'NJD', 'New Jersey', 'Devils', '25', 'MIN', 'Minnesota', 'Wild', '30', 'Xcel Energy Center', '7', 'NJD', 'New Jersey', 'Devils', '0', '1', '0', '0', '0', '0', '0', '0', '15', '39', '27.8', '3', '0', '0.0', '3', '1', '66.7', '0', '0', '0', '4', '19', '4', '8', '8']"
"['', '26586', '2013-11-07', '00:00:00 GMT', '7', 'NJD', 'New Jersey', 'Devils', '6', 'PHI', 'Philadelphia', 'Flyers', '29', 'Wells Fargo Center', '7', 'NJD', 'New Jersey', 'Devils', '1', '0', '0', '0', '0', '0', '1', '2', '24', '29', '45.3', '3', '0', '0.0', '3', '0', '100.0', '0', '0', '3', '0', '22', '3', '6', '22']"
"['', '26595', '2013-11-08', '00:00:00 GMT', '7', 'NJD', 'New Jersey', 'Devils', '12', 'TOR', 'Toronto', 'Maple Leafs', '1', 'Air Canada Center', '7', 'NJD', 'New Jersey', 'Devils', '0', '0', '0', '1', '0', '0', '0', '1', '25', '31', '44.6', '3', '1', '33.3', '6', '1', '83.3', '0', '0', '1', '1', '34', '6', '12', '35']"
"['', '26610', '2013-11-10', '00:00:00 GMT', '18', 'NSH', 'Nashville', 'Predators', '7', 'NJD', 'New Jersey', 'Devils', '37', 'Prudential Center', '7', 'NJD', 'New Jersey', 'Devils', '1', '0', '0', '0', '0', '0', '1', '2', '34', '27', '55.7', '4', '1', '25.0', '6', '0', '100.0', '0', '0', '5', '0', '18', '6', '12', '12']"
"['', '26619', '2013-11-12', '00:00:00 GMT', '7', 'NJD', 'New Jersey', 'Devils', '9', 'NYR', 'New York', 'Rangers', '12', 'Madison Square Garden', '7', 'NJD', 'New Jersey', 'Devils', '1', '0', '0', '0', '0', '0', '1', '2', '37', '31', '54.4', '3', '0', '0.0', '4', '0', '100.0', '0', '0', '3', '2', '25', '6', '12', '17']"
"['', '26639', '2013-11-15', '00:00:00 GMT', '28', 'LAK', 'Los Angeles', 'Kings', '7', 'NJD', 'New Jersey', 'Devils', '37', 'Prudential Center', '7', 'NJD', 'New Jersey', 'Devils', '0', '1', '0', '0', '0', '0', '0', '0', '28', '28', '50.0', '2', '0', '0.0', '1', '1', '0.0', '0', '0', '0', '2', '26', '3', '6', '17']"
"['', '26650', '2013-11-16', '00:00:00 GMT', '10', 'PIT', 'Pittsburgh', 'Penguins', '7', 'NJD', 'New Jersey', 'Devils', '37', 'Prudential Center', '7', 'NJD', 'New Jersey', 'Devils', '1', '0', '0', '0', '0', '0', '1', '2', '19', '26', '42.2', '3', '0', '0.0', '4', '0', '100.0', '0', '0', '4', '1', '18', '4', '8', '14']"
"['', '26679', '2013-11-20', '03:00:00 GMT', '7', 'NJD', 'New Jersey', 'Devils', '29', 'ANA', 'Anaheim', 'Ducks', '8', 'Honda Center', '7', 'NJD', 'New Jersey', 'Devils', '1', '0', '0', '0', '0', '0', '1', '2', '24', '39', '38.1', '4', '2', '50.0', '5', '2', '60.0', '0', '0', '4', '3', '22', '5', '10', '24']"
"['', '26688', '2013-11-21', '03:30:00 GMT', '7', 'NJD', 'New Jersey', 'Devils', '28', 'LAK', 'Los Angeles', 'Kings', '25', 'Staples Center', '7', 'NJD', 'New Jersey', 'Devils', '1', '0', '0', '0', '0', '0', '1', '2', '25', '34', '42.4', '2', '0', '0.0', '4', '0', '100.0', '0', '0', '2', '1', '13', '6', '15', '34']"
"['', '26706', '2013-11-23', '03:30:00 GMT', '7', 'NJD', 'New Jersey', 'Devils', '26', 'SJS', 'San Jose', 'Sharks', '9', 'SAP Center at San Jose', '7', 'NJD', 'New Jersey', 'Devils', '0', '1', '0', '0', '0', '0', '0', '0', '27', '25', '51.9', '1', '1', '100.0', '3', '0', '100.0', '0', '0', '1', '2', '18', '3', '6', '22']"
"['', '26711', '2013-11-25', '00:00:00 GMT', '2', 'WPJ', 'Winnipeg', 'Jets', '7', 'NJD', 'New Jersey', 'Devils', '37', 'Prudential Center', '7', 'NJD', 'New Jersey', 'Devils', '0', '1', '0', '0', '0', '0', '0', '0', '21', '29', '42.0', '2', '0', '0.0', '2', '0', '100.0', '0', '0', '1', '3', '25', '2', '4', '9']"
"['', '26720', '2013-11-27', '00:00:00 GMT', '3', 'CAR', 'Carolina', 'Hurricanes', '7', 'NJD', 'New Jersey', 'Devils', '37', 'Prudential Center', '7', 'NJD', 'New Jersey', 'Devils', '0', '1', '0', '0', '0', '0', '0', '0', '27', '25', '51.9', '1', '0', '0.0', '1', '0', '100.0', '0', '1', '3', '4', '19', '1', '2', '17']"
"['', '26742', '2013-11-29', '00:00:00 GMT', '7', 'NJD', 'New Jersey', 'Devils', '3', 'CAR', 'Carolina', 'Hurricanes', '21', 'RBC Center', '7', 'NJD', 'New Jersey', 'Devils', '1', '0', '0', '0', '0', '0', '1', '2', '28', '27', '50.9', '3', '1', '33.3', '3', '0', '100.0', '0', '0', '5', '2', '26', '4', '8', '19']"
"['', '26750', '2013-11-30', '00:00:00 GMT', '15', 'BUF', 'Buffalo', 'Sabres', '7', 'NJD', 'New Jersey', 'Devils', '37', 'Prudential Center', '7', 'NJD', 'New Jersey', 'Devils', '1', '0', '0', '0', '0', '0', '1', '2', '20', '27', '42.6', '2', '0', '0.0', '3', '0', '100.0', '0', '0', '1', '0', '23', '5', '13', '14']"
"['', '26761', '2013-12-02', '00:30:00 GMT', '7', 'NJD', 'New Jersey', 'Devils', '14', 'MTL', 'Montreal', 'Canadiens', '4', 'Bell Centre', '7', 'NJD', 'New Jersey', 'Devils', '0', '1', '0', '0', '0', '0', '0', '0', '24', '30', '44.4', '3', '0', '0.0', '2', '1', '50.0', '0', '0', '2', '3', '28', '2', '4', '22']"
"['', '26773', '2013-12-04', '00:00:00 GMT', '14', 'MTL', 'Montreal', 'Canadiens', '7', 'NJD', 'New Jersey', 'Devils', '37', 'Prudential Center', '7', 'NJD', 'New Jersey', 'Devils', '0', '0', '0', '1', '0', '0', '0', '1', '24', '28', '46.2', '2', '0', '0.0', '3', '0', '100.0', '0', '0', '3', '3', '31', '4', '11', '17']"
"['', '26786', '2013-12-06', '00:00:00 GMT', '16', 'DET', 'Detroit', 'Red Wings', '7', 'NJD', 'New Jersey', 'Devils', '37', 'Prudential Center', '7', 'NJD', 'New Jersey', 'Devils', '0', '1', '0', '0', '0', '0', '0', '0', '30', '25', '54.5', '4', '1', '25.0', '5', '1', '80.0', '0', '0', '1', '3', '10', '5', '10', '10']"
"['', '26799', '2013-12-07', '00:30:00 GMT', '7', 'NJD', 'New Jersey', 'Devils', '9', 'NYR', 'New York', 'Rangers', '12', 'Madison Square Garden', '7', 'NJD', 'New Jersey', 'Devils', '1', '0', '0', '0', '0', '0', '1', '2', '25', '29', '46.3', '2', '1', '50.0', '4', '1', '75.0', '0', '0', '4', '3', '20', '4', '8', '26']"
"['', '26814', '2013-12-10', '00:00:00 GMT', '7', 'NJD', 'New Jersey', 'Devils', '19', 'CBJ', 'Columbus', 'Blue Jackets', '17', 'Nationwide Arena', '7', 'NJD', 'New Jersey', 'Devils', '0', '1', '0', '0', '0', '0', '0', '0', '29', '29', '50.0', '2', '0', '0.0', '1', '0', '100.0', '0', '0', '4', '5', '30', '1', '2', '21']"
"['', '26838', '2013-12-13', '00:00:00 GMT', '7', 'NJD', 'New Jersey', 'Devils', '10', 'PIT', 'Pittsburgh', 'Penguins', '40', 'Consol Energy Center', '7', 'NJD', 'New Jersey', 'Devils', '0', '1', '0', '0', '0', '0', '0', '0', '26', '20', '56.5', '2', '0', '0.0', '1', '0', '100.0', '0', '0', '2', '3', '37', '1', '2', '31']"
"['', '26846', '2013-12-14', '00:00:00 GMT', '1', 'TBL', 'Tampa Bay', 'Lightning', '7', 'NJD', 'New Jersey', 'Devils', '37', 'Prudential Center', '7', 'NJD', 'New Jersey', 'Devils', '1', '0', '0', '0', '0', '0', '1', '2', '27', '19', '58.7', '2', '0', '0.0', '3', '0', '100.0', '0', '0', '3', '0', '16', '3', '6', '10']"
"['', '26875', '2013-12-18', '00:30:00 GMT', '13', 'OTT', 'Ottawa', 'Senators', '7', 'NJD', 'New Jersey', 'Devils', '37', 'Prudential Center', '7', 'NJD', 'New Jersey', 'Devils', '1', '0', '0', '0', '0', '0', '1', '2', '22', '33', '40.0', '3', '1', '33.3', '3', '2', '33.3', '1', '0', '5', '2', '28', '5', '18', '12']"
"['', '26888', '2013-12-20', '00:00:00 GMT', '29', 'ANA', 'Anaheim', 'Ducks', '7', 'NJD', 'New Jersey', 'Devils', '37', 'Prudential Center', '7', 'NJD', 'New Jersey', 'Devils', '0', '0', '0', '1', '0', '0', '0', '1', '25', '38', '39.7', '3', '1', '33.3', '4', '0', '100.0', '0', '0', '2', '3', '19', '4', '8', '17']"
"['', '26900', '2013-12-21', '00:00:00 GMT', '7', 'NJD', 'New Jersey', 'Devils', '5', 'WSH', 'Washington', 'Capitals', '13', 'Verizon Center', '7', 'NJD', 'New Jersey', 'Devils', '1', '0', '0', '0', '0', '0', '1', '2', '18', '29', '38.3', '2', '2', '100.0', '1', '0', '100.0', '0', '0', '5', '4', '32', '1', '2', '29']"
"['', '26915', '2013-12-23', '01:00:00 GMT', '7', 'NJD', 'New Jersey', 'Devils', '20', 'CHI', 'Chicago', 'Blackhawks', '28', 'United Center', '7', 'NJD', 'New Jersey', 'Devils', '0', '1', '0', '0', '0', '0', '0', '0', '18', '38', '32.1', '1', '0', '0.0', '4', '1', '75.0', '0', '0', '2', '5', '10', '4', '8', '28']"
"['', '26923', '2013-12-27', '00:00:00 GMT', '19', 'CBJ', 'Columbus', 'Blue Jackets', '7', 'NJD', 'New Jersey', 'Devils', '37', 'Prudential Center', '7', 'NJD', 'New Jersey', 'Devils', '0', '0', '0', '1', '0', '0', '0', '1', '25', '32', '43.9', '2', '0', '0.0', '5', '0', '100.0', '0', '0', '1', '1', '16', '6', '12', '20']"
"['', '26934', '2013-12-28', '00:00:00 GMT', '7', 'NJD', 'New Jersey', 'Devils', '8', 'NYI', 'New York', 'Islanders', '16', 'Nassau Veterans Memorial Coliseum', '7', 'NJD', 'New Jersey', 'Devils', '1', '0', '0', '0', '0', '0', '1', '2', '20', '21', '48.8', '1', '0', '0.0', '3', '0', '100.0', '0', '0', '2', '1', '23', '4', '11', '32']"
"['', '26953', '2013-12-31', '18:00:00 GMT', '10', 'PIT', 'Pittsburgh', 'Penguins', '7', 'NJD', 'New Jersey', 'Devils', '37', 'Prudential Center', '7', 'NJD', 'New Jersey', 'Devils', '1', '0', '0', '0', '0', '0', '1', '2', '25', '25', '50.0', '4', '0', '0.0', '1', '0', '100.0', '0', '0', '2', '1', '28', '1', '2', '18']"
"['', '26976', '2014-01-03', '00:00:00 GMT', '20', 'CHI', 'Chicago', 'Blackhawks', '7', 'NJD', 'New Jersey', 'Devils', '37', 'Prudential Center', '7', 'NJD', 'New Jersey', 'Devils', '0', '1', '0', '0', '0', '0', '0', '0', '29', '26', '52.7', '4', '1', '25.0', '2', '0', '100.0', '0', '0', '3', '5', '24', '3', '6', '18']"
"['', '26982', '2014-01-04', '00:00:00 GMT', '7', 'NJD', 'New Jersey', 'Devils', '15', 'BUF', 'Buffalo', 'Sabres', '10', 'First Niagara Center', '7', 'NJD', 'New Jersey', 'Devils', '0', '1', '0', '0', '0', '0', '0', '0', '37', '32', '53.6', '4', '1', '25.0', '5', '2', '60.0', '0', '0', '1', '2', '21', '6', '15', '15']"
"['', '27003', '2014-01-07', '00:30:00 GMT', '6', 'PHI', 'Philadelphia', 'Flyers', '7', 'NJD', 'New Jersey', 'Devils', '37', 'Prudential Center', '7', 'NJD', 'New Jersey', 'Devils', '0', '0', '0', '1', '0', '0', '0', '1', '26', '35', '42.6', '2', '0', '0.0', '5', '1', '80.0', '1', '0', '2', '3', '31', '5', '10', '15']"
"['', '27015', '2014-01-09', '00:00:00 GMT', '27', 'DAL', 'Dallas', 'Stars', '7', 'NJD', 'New Jersey', 'Devils', '37', 'Prudential Center', '7', 'NJD', 'New Jersey', 'Devils', '1', '0', '0', '0', '0', '0', '1', '2', '33', '33', '50.0', '2', '0', '0.0', '3', '0', '100.0', '0', '0', '1', '0', '33', '3', '6', '8']"
"['', '27031', '2014-01-11', '00:00:00 GMT', '4', 'FLO', 'Florida', 'Panthers', '7', 'NJD', 'New Jersey', 'Devils', '37', 'Prudential Center', '7', 'NJD', 'New Jersey', 'Devils', '1', '0', '0', '0', '0', '0', '1', '2', '33', '21', '61.1', '2', '0', '0.0', '2', '0', '100.0', '0', '0', '2', '1', '34', '2', '4', '15']"
"['', '27041', '2014-01-12', '00:00:00 GMT', '7', 'NJD', 'New Jersey', 'Devils', '12', 'TOR', 'Toronto', 'Maple Leafs', '1', 'Air Canada Center', '7', 'NJD', 'New Jersey', 'Devils', '0', '0', '0', '1', '0', '0', '0', '1', '24', '39', '38.1', '4', '1', '25.0', '4', '1', '75.0', '0', '0', '2', '2', '36', '4', '8', '30']"
"['', '27054', '2014-01-14', '00:30:00 GMT', '7', 'NJD', 'New Jersey', 'Devils', '14', 'MTL', 'Montreal', 'Canadiens', '4', 'Bell Centre', '7', 'NJD', 'New Jersey', 'Devils', '1', '0', '0', '0', '0', '0', '1', '2', '25', '22', '53.2', '3', '1', '33.3', '3', '0', '100.0', '0', '0', '4', '1', '15', '3', '6', '21']"
"['', '27072', '2014-01-16', '02:00:00 GMT', '7', 'NJD', 'New Jersey', 'Devils', '22', 'COL', 'Colorado', 'Avalanche', '19', 'Pepsi Center', '7', 'NJD', 'New Jersey', 'Devils', '0', '0', '0', '1', '0', '0', '0', '1', '24', '41', '36.9', '2', '0', '0.0', '2', '0', '100.0', '0', '0', '1', '1', '33', '3', '6', '19']"
"['', '27087', '2014-01-18', '01:00:00 GMT', '7', 'NJD', 'New Jersey', 'Devils', '30', 'PHX', 'Phoenix', 'Coyotes', '6', 'Jobing.com Arena', '7', 'NJD', 'New Jersey', 'Devils', '0', '1', '0', '0', '0', '0', '0', '0', '31', '28', '52.5', '2', '1', '50.0', '3', '1', '66.7', '0', '0', '2', '3', '33', '3', '6', '26']"
"['', '27101', '2014-01-21', '00:00:00 GMT', '17', 'STL', 'St. Louis', 'Blues', '7', 'NJD', 'New Jersey', 'Devils', '37', 'Prudential Center', '7', 'NJD', 'New Jersey', 'Devils', '1', '0', '0', '0', '0', '0', '1', '2', '20', '33', '37.7', '4', '3', '75.0', '3', '0', '100.0', '0', '0', '7', '1', '16', '3', '6', '13']"
"['', '27123', '2014-01-24', '00:00:00 GMT', '5', 'WSH', 'Washington', 'Capitals', '7', 'NJD', 'New Jersey', 'Devils', '37', 'Prudential Center', '7', 'NJD', 'New Jersey', 'Devils', '1', '0', '0', '0', '0', '0', '1', '2', '25', '31', '44.6', '5', '1', '20.0', '3', '0', '100.0', '0', '0', '2', '1', '28', '3', '6', '19']"
"['', '27583', '2014-01-27', '05:30:00 GMT', '9', 'NYR', 'New York', 'Rangers', '7', 'NJD', 'New Jersey', 'Devils', '37', 'Prudential Center', '7', 'NJD', 'New Jersey', 'Devils', '0', '1', '0', '0', '0', '0', '0', '0', '29', '37', '43.9', '2', '1', '50.0', '2', '0', '100.0', '0', '0', '3', '7', '19', '4', '16', '21']"
"['', '27154', '2014-01-28', '01:00:00 GMT', '7', 'NJD', 'New Jersey', 'Devils', '17', 'STL', 'St. Louis', 'Blues', '24', 'Scottrade Center', '7', 'NJD', 'New Jersey', 'Devils', '0', '1', '0', '0', '0', '0', '0', '0', '32', '29', '52.5', '3', '0', '0.0', '4', '1', '75.0', '0', '0', '0', '3', '23', '7', '25', '13']"
"['', '27166', '2014-01-30', '01:30:00 GMT', '7', 'NJD', 'New Jersey', 'Devils', '27', 'DAL', 'Dallas', 'Stars', '2', 'American Airlines Center', '7', 'NJD', 'New Jersey', 'Devils', '1', '0', '0', '0', '0', '0', '1', '2', '31', '27', '53.4', '3', '2', '66.7', '3', '0', '100.0', '0', '0', '3', '2', '21', '5', '10', '25']"
"['', '27175', '2014-01-31', '01:00:00 GMT', '7', 'NJD', 'New Jersey', 'Devils', '18', 'NSH', 'Nashville', 'Predators', '15', 'Bridgestone Arena', '7', 'NJD', 'New Jersey', 'Devils', '0', '0', '0', '1', '0', '0', '0', '1', '27', '21', '56.2', '2', '0', '0.0', '2', '0', '100.0', '0', '0', '2', '3', '24', '3', '6', '18']"
"['', '27192', '2014-02-03', '00:30:00 GMT', '22', 'COL', 'Colorado', 'Avalanche', '7', 'NJD', 'New Jersey', 'Devils', '37', 'Prudential Center', '7', 'NJD', 'New Jersey', 'Devils', '0', '0', '0', '1', '0', '0', '0', '1', '26', '24', '52.0', '3', '0', '0.0', '5', '1', '80.0', '0', '0', '1', '2', '27', '5', '10', '9']"
"['', '27219', '2014-02-07', '00:00:00 GMT', '24', 'EDM', 'Edmonton', 'Oilers', '7', 'NJD', 'New Jersey', 'Devils', '37', 'Prudential Center', '7', 'NJD', 'New Jersey', 'Devils', '1', '0', '0', '0', '0', '0', '1', '2', '12', '27', '30.8', '2', '0', '0.0', '2', '0', '100.0', '0', '0', '2', '1', '22', '3', '6', '11']"
"['', '27231', '2014-02-08', '00:00:00 GMT', '7', 'NJD', 'New Jersey', 'Devils', '5', 'WSH', 'Washington', 'Capitals', '13', 'Verizon Center', '7', 'NJD', 'New Jersey', 'Devils', '0', '1', '0', '0', '0', '0', '0', '0', '26', '28', '48.1', '3', '0', '0.0', '4', '0', '100.0', '0', '0', '0', '3', '25', '4', '8', '10']"
"['', '27238', '2014-02-27', '00:00:00 GMT', '19', 'CBJ', 'Columbus', 'Blue Jackets', '7', 'NJD', 'New Jersey', 'Devils', '37', 'Prudential Center', '7', 'NJD', 'New Jersey', 'Devils', '1', '0', '0', '0', '0', '0', '1', '2', '22', '26', '45.8', '4', '2', '50.0', '2', '0', '100.0', '1', '0', '5', '2', '30', '5', '10', '16']"
"['', '27255', '2014-03-01', '18:00:00 GMT', '7', 'NJD', 'New Jersey', 'Devils', '8', 'NYI', 'New York', 'Islanders', '16', 'Nassau Veterans Memorial Coliseum', '7', 'NJD', 'New Jersey', 'Devils', '1', '0', '0', '0', '0', '0', '1', '2', '37', '35', '51.4', '7', '4', '57.1', '2', '0', '100.0', '0', '0', '6', '1', '29', '4', '11', '20']"
"['', '27264', '2014-03-02', '20:00:00 GMT', '26', 'SJS', 'San Jose', 'Sharks', '7', 'NJD', 'New Jersey', 'Devils', '37', 'Prudential Center', '7', 'NJD', 'New Jersey', 'Devils', '0', '1', '0', '0', '0', '0', '0', '0', '24', '24', '50.0', '4', '0', '0.0', '1', '0', '100.0', '0', '0', '2', '4', '21', '1', '2', '19']"
"['', '27276', '2014-03-04', '00:00:00 GMT', '16', 'DET', 'Detroit', 'Red Wings', '7', 'NJD', 'New Jersey', 'Devils', '37', 'Prudential Center', '7', 'NJD', 'New Jersey', 'Devils', '1', '0', '0', '0', '0', '0', '1', '2', '22', '27', '44.9', '3', '1', '33.3', '4', '2', '50.0', '0', '0', '4', '3', '25', '5', '10', '18']"
"['', '27300', '2014-03-07', '00:30:00 GMT', '7', 'NJD', 'New Jersey', 'Devils', '16', 'DET', 'Detroit', 'Red Wings', '11', 'Joe Louis Arena', '7', 'NJD', 'New Jersey', 'Devils', '0', '1', '0', '0', '0', '0', '0', '0', '23', '44', '34.3', '2', '0', '0.0', '3', '1', '66.7', '1', '0', '4', '7', '21', '3', '6', '15']"
"['', '27308', '2014-03-08', '00:00:00 GMT', '3', 'CAR', 'Carolina', 'Hurricanes', '7', 'NJD', 'New Jersey', 'Devils', '37', 'Prudential Center', '7', 'NJD', 'New Jersey', 'Devils', '1', '0', '0', '0', '0', '0', '1', '2', '31', '33', '48.4', '2', '1', '50.0', '2', '1', '50.0', '1', '1', '5', '4', '26', '2', '4', '23']"
"['', '27328', '2014-03-11', '23:00:00 GMT', '7', 'NJD', 'New Jersey', 'Devils', '6', 'PHI', 'Philadelphia', 'Flyers', '29', 'Wells Fargo Center', '7', 'NJD', 'New Jersey', 'Devils', '1', '0', '0', '0', '0', '0', '1', '2', '20', '38', '34.5', '3', '0', '0.0', '6', '0', '100.0', '0', '0', '2', '1', '24', '6', '12', '21']"
"['', '27350', '2014-03-14', '23:30:00 GMT', '7', 'NJD', 'New Jersey', 'Devils', '4', 'FLO', 'Florida', 'Panthers', '3', 'BB&T Center', '7', 'NJD', 'New Jersey', 'Devils', '0', '1', '0', '0', '0', '0', '0', '0', '30', '29', '50.8', '1', '1', '100.0', '3', '0', '100.0', '0', '0', '3', '5', '28', '5', '18', '23']"
"['', '27358', '2014-03-15', '23:00:00 GMT', '7', 'NJD', 'New Jersey', 'Devils', '1', 'TBL', 'Tampa Bay', 'Lightning', '26', 'Tampa Bay Times Forum', '7', 'NJD', 'New Jersey', 'Devils', '0', '1', '0', '0', '0', '0', '0', '0', '25', '31', '44.6', '2', '0', '0.0', '1', '0', '100.0', '0', '0', '0', '3', '23', '4', '16', '19']"
"['', '27377', '2014-03-18', '23:00:00 GMT', '11', 'BOS', 'Boston', 'Bruins', '7', 'NJD', 'New Jersey', 'Devils', '37', 'Prudential Center', '7', 'NJD', 'New Jersey', 'Devils', '0', '1', '0', '0', '0', '0', '0', '0', '34', '28', '54.8', '4', '1', '25.0', '1', '0', '100.0', '0', '1', '2', '4', '22', '3', '9', '22']"
"['', '27393', '2014-03-20', '23:00:00 GMT', '25', 'MIN', 'Minnesota', 'Wild', '7', 'NJD', 'New Jersey', 'Devils', '37', 'Prudential Center', '7', 'NJD', 'New Jersey', 'Devils', '1', '0', '0', '0', '0', '0', '1', '2', '36', '22', '62.1', '4', '1', '25.0', '6', '1', '83.3', '1', '0', '4', '3', '25', '6', '12', '14']"
"['', '27412', '2014-03-22', '23:00:00 GMT', '9', 'NYR', 'New York', 'Rangers', '7', 'NJD', 'New Jersey', 'Devils', '37', 'Prudential Center', '7', 'NJD', 'New Jersey', 'Devils', '0', '1', '0', '0', '0', '0', '0', '0', '27', '29', '48.2', '1', '0', '0.0', '3', '1', '66.7', '0', '0', '0', '2', '21', '4', '8', '20']"
"['', '27419', '2014-03-23', '23:00:00 GMT', '12', 'TOR', 'Toronto', 'Maple Leafs', '7', 'NJD', 'New Jersey', 'Devils', '37', 'Prudential Center', '7', 'NJD', 'New Jersey', 'Devils', '1', '0', '0', '0', '0', '0', '1', '2', '28', '31', '47.5', '1', '0', '0.0', '4', '1', '75.0', '0', '0', '3', '2', '21', '4', '8', '23']"
"['', '27444', '2014-03-27', '23:00:00 GMT', '30', 'PHX', 'Phoenix', 'Coyotes', '7', 'NJD', 'New Jersey', 'Devils', '37', 'Prudential Center', '7', 'NJD', 'New Jersey', 'Devils', '0', '0', '0', '1', '0', '0', '0', '1', '29', '30', '49.2', '4', '0', '0.0', '3', '0', '100.0', '0', '0', '2', '2', '26', '3', '6', '17']"
"['', '27463', '2014-03-29', '23:00:00 GMT', '7', 'NJD', 'New Jersey', 'Devils', '8', 'NYI', 'New York', 'Islanders', '16', 'Nassau Veterans Memorial Coliseum', '7', 'NJD', 'New Jersey', 'Devils', '0', '0', '0', '1', '0', '0', '0', '1', '28', '25', '52.8', '3', '0', '0.0', '1', '0', '100.0', '0', '0', '1', '1', '23', '2', '4', '16']"
"['', '27476', '2014-03-31', '23:30:00 GMT', '4', 'FLO', 'Florida', 'Panthers', '7', 'NJD', 'New Jersey', 'Devils', '37', 'Prudential Center', '7', 'NJD', 'New Jersey', 'Devils', '1', '0', '0', '0', '0', '0', '1', '2', '26', '29', '47.3', '3', '1', '33.3', '5', '0', '100.0', '1', '1', '6', '3', '26', '5', '10', '14']"
"['', '27479', '2014-04-01', '23:00:00 GMT', '7', 'NJD', 'New Jersey', 'Devils', '15', 'BUF', 'Buffalo', 'Sabres', '10', 'First Niagara Center', '7', 'NJD', 'New Jersey', 'Devils', '0', '0', '0', '1', '0', '0', '0', '1', '40', '31', '56.3', '2', '1', '50.0', '3', '1', '66.7', '0', '0', '2', '2', '33', '3', '6', '20']"
"['', '27505', '2014-04-04', '23:00:00 GMT', '5', 'WSH', 'Washington', 'Capitals', '7', 'NJD', 'New Jersey', 'Devils', '37', 'Prudential Center', '7', 'NJD', 'New Jersey', 'Devils', '1', '0', '0', '0', '0', '0', '1', '2', '29', '20', '59.2', '4', '0', '0.0', '3', '0', '100.0', '0', '0', '2', '1', '29', '4', '8', '21']"
"['', '27517', '2014-04-05', '23:00:00 GMT', '7', 'NJD', 'New Jersey', 'Devils', '3', 'CAR', 'Carolina', 'Hurricanes', '21', 'RBC Center', '7', 'NJD', 'New Jersey', 'Devils', '1', '0', '0', '0', '0', '0', '1', '2', '22', '34', '39.3', '1', '0', '0.0', '4', '0', '100.0', '0', '0', '3', '1', '20', '4', '8', '26']"
"['', '27527', '2014-04-07', '23:00:00 GMT', '23', 'CGY', 'Calgary', 'Flames', '7', 'NJD', 'New Jersey', 'Devils', '37', 'Prudential Center', '7', 'NJD', 'New Jersey', 'Devils', '0', '1', '0', '0', '0', '0', '0', '0', '31', '24', '56.4', '3', '0', '0.0', '4', '1', '75.0', '0', '0', '0', '1', '31', '5', '10', '13']"
"['', '27547', '2014-04-10', '23:30:00 GMT', '7', 'NJD', 'New Jersey', 'Devils', '13', 'OTT', 'Ottawa', 'Senators', '23', 'Canadian Tire Centre', '7', 'NJD', 'New Jersey', 'Devils', '0', '0', '0', '1', '0', '0', '0', '1', '20', '27', '42.6', '2', '0', '0.0', '3', '0', '100.0', '0', '0', '1', '1', '38', '4', '16', '37']"
"['', '27558', '2014-04-11', '23:30:00 GMT', '8', 'NYI', 'New York', 'Islanders', '7', 'NJD', 'New Jersey', 'Devils', '37', 'Prudential Center', '7', 'NJD', 'New Jersey', 'Devils', '0', '0', '0', '1', '0', '0', '0', '1', '29', '38', '43.3', '1', '0', '0.0', '3', '1', '66.7', '0', '0', '2', '2', '25', '3', '6', '20']"
"['', '27570', '2014-04-13', '19:00:00 GMT', '11', 'BOS', 'Boston', 'Bruins', '7', 'NJD', 'New Jersey', 'Devils', '37', 'Prudential Center', '7', 'NJD', 'New Jersey', 'Devils', '1', '0', '0', '0', '0', '0', '1', '2', '29', '20', '59.2', '2', '1', '50.0', '2', '2', '0.0', '0', '0', '3', '2', '28', '3', '6', '10']"
