"['#Date/Time of Update: 2018-12-10 19:03:26 GMT', '#Game ID', '#Game Date', '#Game Time', '#Away Team ID', '#Away Team Abbr.', '#Away Team City', '#Away Team Name', '#Home Team ID', '#Home Team Abbr.', '#Home Team City', '#Home Team Name', '#Venue ID', '#Venue Name', '#Team ID', '#Team Abbr.', '#Team City', '#Team Name', '#Wins', '#Losses', '#OvertimeWins', '#OvertimeLosses', '#Points', '#FaceoffWins', '#FaceoffLosses', '#FaceoffPercent', '#Powerplays', '#PowerplayGoals', '#PowerplayPercent', '#PenaltyKills', '#PenaltyKillGoalsAllowed', '#PenaltyKillPercent', '#ShorthandedGoalsFor', '#ShorthandedGoalsAgainst', '#GoalsFor', '#GoalsAgainst', '#Shots', '#Penalties', '#PenaltyMinutes', '#Hits']"
"['', '46312', '2018-10-04', '02:00:00 GMT', '6', 'PHI', 'Philadelphia', 'Flyers', '142', 'VGK', 'Vegas', 'Golden Knights', '139', 'T-Mobile Arena', '142', 'VGK', 'Vegas', 'Golden Knights', '0', '1', '0', '0', '0', '27', '29', '48.2', '3', '0', '0.0', '4', '1', '75.0', '1', '0', '2', '5', '25', '5', '10', '31']"
"['', '46323', '2018-10-06', '00:00:00 GMT', '142', 'VGK', 'Vegas', 'Golden Knights', '25', 'MIN', 'Minnesota', 'Wild', '30', 'Xcel Energy Center', '142', 'VGK', 'Vegas', 'Golden Knights', '1', '0', '0', '0', '2', '35', '35', '50.0', '3', '0', '0.0', '2', '0', '100.0', '0', '0', '1', '1', '42', '3', '9', '19']"
"['', '46332', '2018-10-08', '19:00:00 GMT', '142', 'VGK', 'Vegas', 'Golden Knights', '15', 'BUF', 'Buffalo', 'Sabres', '10', 'KeyBank Center', '142', 'VGK', 'Vegas', 'Golden Knights', '0', '1', '0', '0', '0', '31', '17', '64.6', '2', '0', '0.0', '2', '1', '50.0', '0', '0', '2', '4', '37', '2', '4', '29']"
"['', '46341', '2018-10-10', '00:00:00 GMT', '142', 'VGK', 'Vegas', 'Golden Knights', '5', 'WSH', 'Washington', 'Capitals', '13', 'Capital One Arena', '142', 'VGK', 'Vegas', 'Golden Knights', '0', '1', '0', '0', '0', '38', '36', '51.4', '3', '0', '0.0', '4', '2', '50.0', '0', '0', '2', '5', '31', '4', '8', '19']"
"['', '46348', '2018-10-11', '23:00:00 GMT', '142', 'VGK', 'Vegas', 'Golden Knights', '10', 'PIT', 'Pittsburgh', 'Penguins', '40', 'PPG Paints Arena', '142', 'VGK', 'Vegas', 'Golden Knights', '0', '1', '0', '0', '0', '28', '32', '46.7', '2', '0', '0.0', '1', '0', '100.0', '0', '0', '2', '4', '37', '1', '2', '26']"
"['', '46356', '2018-10-13', '17:00:00 GMT', '142', 'VGK', 'Vegas', 'Golden Knights', '6', 'PHI', 'Philadelphia', 'Flyers', '29', 'Wells Fargo Center', '142', 'VGK', 'Vegas', 'Golden Knights', '1', '0', '0', '0', '2', '14', '24', '36.8', '3', '0', '0.0', '2', '0', '100.0', '0', '0', '1', '0', '21', '2', '4', '23']"
"['', '46383', '2018-10-16', '02:00:00 GMT', '15', 'BUF', 'Buffalo', 'Sabres', '142', 'VGK', 'Vegas', 'Golden Knights', '139', 'T-Mobile Arena', '142', 'VGK', 'Vegas', 'Golden Knights', '1', '0', '0', '0', '2', '34', '31', '52.3', '3', '1', '33.3', '6', '0', '100.0', '1', '0', '4', '1', '29', '6', '12', '33']"
"['', '46411', '2018-10-20', '02:00:00 GMT', '29', 'ANA', 'Anaheim', 'Ducks', '142', 'VGK', 'Vegas', 'Golden Knights', '139', 'T-Mobile Arena', '142', 'VGK', 'Vegas', 'Golden Knights', '1', '0', '0', '0', '2', '27', '38', '41.5', '5', '1', '20.0', '2', '0', '100.0', '0', '0', '3', '1', '45', '2', '4', '31']"
"['', '46431', '2018-10-24', '02:00:00 GMT', '21', 'VAN', 'Vancouver', 'Canucks', '142', 'VGK', 'Vegas', 'Golden Knights', '139', 'T-Mobile Arena', '142', 'VGK', 'Vegas', 'Golden Knights', '0', '0', '0', '1', '1', '31', '30', '50.8', '4', '0', '0.0', '2', '0', '100.0', '0', '0', '2', '2', '35', '2', '4', '31']"
"['', '46442', '2018-10-26', '22:00:00 GMT', '1', 'TBL', 'Tampa Bay', 'Lightning', '142', 'VGK', 'Vegas', 'Golden Knights', '139', 'T-Mobile Arena', '142', 'VGK', 'Vegas', 'Golden Knights', '0', '1', '0', '0', '0', '32', '33', '49.2', '4', '1', '25.0', '2', '1', '50.0', '0', '0', '2', '3', '31', '2', '4', '41']"
"['', '46461', '2018-10-28', '00:00:00 GMT', '13', 'OTT', 'Ottawa', 'Senators', '142', 'VGK', 'Vegas', 'Golden Knights', '139', 'T-Mobile Arena', '142', 'VGK', 'Vegas', 'Golden Knights', '1', '0', '0', '0', '2', '37', '34', '52.1', '5', '1', '20.0', '3', '1', '66.7', '0', '0', '4', '3', '53', '5', '21', '36']"
"['', '46471', '2018-10-30', '00:00:00 GMT', '142', 'VGK', 'Vegas', 'Golden Knights', '18', 'NSH', 'Nashville', 'Predators', '15', 'Bridgestone Arena', '142', 'VGK', 'Vegas', 'Golden Knights', '0', '1', '0', '0', '0', '27', '38', '41.5', '4', '1', '25.0', '4', '0', '100.0', '0', '0', '1', '4', '24', '4', '8', '12']"
"['', '46484', '2018-11-01', '00:00:00 GMT', '142', 'VGK', 'Vegas', 'Golden Knights', '17', 'STL', 'St. Louis', 'Blues', '24', 'Enterprise Center', '142', 'VGK', 'Vegas', 'Golden Knights', '0', '1', '0', '0', '0', '28', '38', '42.4', '3', '1', '33.3', '3', '1', '66.7', '0', '0', '3', '5', '34', '4', '8', '21']"
"['', '46502', '2018-11-03', '02:00:00 GMT', '3', 'CAR', 'Carolina', 'Hurricanes', '142', 'VGK', 'Vegas', 'Golden Knights', '139', 'T-Mobile Arena', '142', 'VGK', 'Vegas', 'Golden Knights', '1', '0', '0', '0', '2', '27', '33', '45.0', '4', '0', '0.0', '3', '0', '100.0', '0', '0', '3', '0', '25', '3', '6', '25']"
"['', '46513', '2018-11-06', '00:00:00 GMT', '142', 'VGK', 'Vegas', 'Golden Knights', '12', 'TOR', 'Toronto', 'Maple Leafs', '1', 'Scotiabank Arena', '142', 'VGK', 'Vegas', 'Golden Knights', '0', '1', '0', '0', '0', '23', '36', '39.0', '3', '0', '0.0', '1', '0', '100.0', '0', '0', '1', '3', '37', '1', '2', '23']"
"['', '46529', '2018-11-08', '00:30:00 GMT', '142', 'VGK', 'Vegas', 'Golden Knights', '13', 'OTT', 'Ottawa', 'Senators', '23', 'Canadian Tire Centre', '142', 'VGK', 'Vegas', 'Golden Knights', '1', '0', '0', '0', '2', '35', '35', '50.0', '2', '2', '100.0', '2', '0', '100.0', '0', '0', '5', '3', '42', '3', '9', '28']"
"['', '46544', '2018-11-10', '00:00:00 GMT', '142', 'VGK', 'Vegas', 'Golden Knights', '14', 'MTL', 'Montreal', 'Canadiens', '4', 'Bell Centre', '142', 'VGK', 'Vegas', 'Golden Knights', '0', '1', '0', '0', '0', '39', '25', '60.9', '3', '2', '66.7', '2', '0', '100.0', '0', '0', '4', '5', '38', '2', '4', '31']"
"['', '46554', '2018-11-11', '00:00:00 GMT', '142', 'VGK', 'Vegas', 'Golden Knights', '11', 'BOS', 'Boston', 'Bruins', '27', 'TD Garden', '142', 'VGK', 'Vegas', 'Golden Knights', '0', '1', '0', '0', '0', '28', '38', '42.4', '4', '0', '0.0', '6', '1', '83.3', '0', '0', '1', '4', '38', '7', '14', '25']"
"['', '46574', '2018-11-14', '03:30:00 GMT', '29', 'ANA', 'Anaheim', 'Ducks', '142', 'VGK', 'Vegas', 'Golden Knights', '139', 'T-Mobile Arena', '142', 'VGK', 'Vegas', 'Golden Knights', '1', '0', '0', '0', '2', '22', '32', '40.7', '6', '1', '16.7', '4', '0', '100.0', '1', '0', '5', '0', '26', '4', '8', '29']"
"['', '46588', '2018-11-16', '03:00:00 GMT', '17', 'STL', 'St. Louis', 'Blues', '142', 'VGK', 'Vegas', 'Golden Knights', '139', 'T-Mobile Arena', '142', 'VGK', 'Vegas', 'Golden Knights', '0', '1', '0', '0', '0', '26', '27', '49.1', '3', '0', '0.0', '4', '0', '100.0', '0', '0', '1', '4', '33', '5', '10', '28']"
"['', '46604', '2018-11-18', '01:00:00 GMT', '142', 'VGK', 'Vegas', 'Golden Knights', '24', 'EDM', 'Edmonton', 'Oilers', '22', 'Rogers Place', '142', 'VGK', 'Vegas', 'Golden Knights', '1', '0', '0', '0', '2', '33', '37', '47.1', '2', '1', '50.0', '2', '1', '50.0', '1', '0', '6', '3', '31', '3', '6', '17']"
"['', '46613', '2018-11-19', '02:00:00 GMT', '142', 'VGK', 'Vegas', 'Golden Knights', '23', 'CGY', 'Calgary', 'Flames', '18', 'Scotiabank Saddledome', '142', 'VGK', 'Vegas', 'Golden Knights', '0', '1', '0', '0', '0', '27', '27', '50.0', '2', '1', '50.0', '6', '3', '50.0', '0', '0', '2', '7', '22', '6', '12', '33']"
"['', '46626', '2018-11-21', '02:00:00 GMT', '142', 'VGK', 'Vegas', 'Golden Knights', '30', 'ARI', 'Arizona', 'Coyotes', '6', 'Gila River Arena', '142', 'VGK', 'Vegas', 'Golden Knights', '1', '0', '0', '0', '2', '27', '31', '46.6', '2', '0', '0.0', '3', '1', '66.7', '0', '0', '3', '2', '25', '3', '6', '39']"
"['', '46636', '2018-11-23', '23:00:00 GMT', '23', 'CGY', 'Calgary', 'Flames', '142', 'VGK', 'Vegas', 'Golden Knights', '139', 'T-Mobile Arena', '142', 'VGK', 'Vegas', 'Golden Knights', '1', '0', '0', '0', '2', '23', '28', '45.1', '3', '1', '33.3', '1', '0', '100.0', '0', '0', '2', '0', '28', '2', '4', '36']"
"['', '46654', '2018-11-24', '03:00:00 GMT', '26', 'SJS', 'San Jose', 'Sharks', '142', 'VGK', 'Vegas', 'Golden Knights', '139', 'T-Mobile Arena', '142', 'VGK', 'Vegas', 'Golden Knights', '1', '0', '0', '0', '2', '26', '34', '43.3', '5', '1', '20.0', '4', '0', '100.0', '0', '0', '6', '0', '36', '6', '20', '25']"
"['', '46672', '2018-11-27', '01:00:00 GMT', '142', 'VGK', 'Vegas', 'Golden Knights', '20', 'CHI', 'Chicago', 'Blackhawks', '28', 'United Center', '142', 'VGK', 'Vegas', 'Golden Knights', '1', '0', '0', '0', '2', '33', '25', '56.9', '3', '1', '33.3', '2', '0', '100.0', '0', '0', '8', '3', '43', '2', '4', '25']"
"['', '46687', '2018-11-29', '03:00:00 GMT', '142', 'VGK', 'Vegas', 'Golden Knights', '21', 'VAN', 'Vancouver', 'Canucks', '7', 'Rogers Arena', '142', 'VGK', 'Vegas', 'Golden Knights', '1', '0', '0', '0', '2', '32', '28', '53.3', '2', '1', '50.0', '3', '0', '100.0', '1', '0', '4', '3', '31', '3', '6', '25']"
"['', '46704', '2018-12-01', '03:00:00 GMT', '142', 'VGK', 'Vegas', 'Golden Knights', '24', 'EDM', 'Edmonton', 'Oilers', '22', 'Rogers Place', '142', 'VGK', 'Vegas', 'Golden Knights', '0', '1', '0', '0', '0', '25', '24', '51.0', '3', '0', '0.0', '3', '0', '100.0', '0', '0', '1', '2', '32', '3', '6', '34']"
"['', '46722', '2018-12-04', '03:00:00 GMT', '5', 'WSH', 'Washington', 'Capitals', '142', 'VGK', 'Vegas', 'Golden Knights', '139', 'T-Mobile Arena', '142', 'VGK', 'Vegas', 'Golden Knights', '1', '0', '0', '0', '2', '37', '26', '58.7', '6', '2', '33.3', '4', '0', '100.0', '0', '0', '5', '3', '28', '5', '21', '41']"
"['', '46736', '2018-12-06', '03:00:00 GMT', '20', 'CHI', 'Chicago', 'Blackhawks', '142', 'VGK', 'Vegas', 'Golden Knights', '139', 'T-Mobile Arena', '142', 'VGK', 'Vegas', 'Golden Knights', '1', '0', '0', '0', '2', '23', '36', '39.0', '2', '1', '50.0', '4', '0', '100.0', '0', '0', '4', '3', '36', '4', '8', '20']"
"['', '46743', '2018-12-08', '21:00:00 GMT', '142', 'VGK', 'Vegas', 'Golden Knights', '28', 'LAK', 'Los Angeles', 'Kings', '25', 'Staples Center', '142', 'VGK', 'Vegas', 'Golden Knights', '0', '1', '0', '0', '0', '26', '26', '50.0', '3', '0', '0.0', '1', '1', '0.0', '0', '0', '1', '5', '30', '1', '2', '28']"
"['', '46758', '2018-12-09', '02:00:00 GMT', '27', 'DAL', 'Dallas', 'Stars', '142', 'VGK', 'Vegas', 'Golden Knights', '139', 'T-Mobile Arena', '142', 'VGK', 'Vegas', 'Golden Knights', '1', '0', '0', '0', '2', '30', '30', '50.0', '5', '1', '20.0', '4', '2', '50.0', '0', '0', '4', '2', '28', '3', '8', '23']"
