"['#Date/Time of Update: 2018-12-10 19:03:20 GMT', '#Game ID', '#Game Date', '#Game Time', '#Away Team ID', '#Away Team Abbr.', '#Away Team City', '#Away Team Name', '#Home Team ID', '#Home Team Abbr.', '#Home Team City', '#Home Team Name', '#Venue ID', '#Venue Name', '#Team ID', '#Team Abbr.', '#Team City', '#Team Name', '#Wins', '#Losses', '#OvertimeWins', '#OvertimeLosses', '#Points', '#FaceoffWins', '#FaceoffLosses', '#FaceoffPercent', '#Powerplays', '#PowerplayGoals', '#PowerplayPercent', '#PenaltyKills', '#PenaltyKillGoalsAllowed', '#PenaltyKillPercent', '#ShorthandedGoalsFor', '#ShorthandedGoalsAgainst', '#GoalsFor', '#GoalsAgainst', '#Shots', '#Penalties', '#PenaltyMinutes', '#Hits']"
"['', '32631', '2016-10-12', '02:00:00 GMT', '23', 'CGY', 'Calgary', 'Flames', '24', 'EDM', 'Edmonton', 'Oilers', '22', 'Rogers Place', '23', 'CGY', 'Calgary', 'Flames', '0', '1', '0', '0', '0', '38', '25', '60.3', '3', '1', '33.3', '6', '1', '83.3', '2', '0', '4', '7', '41', '8', '19', '24']"
"['', '32643', '2016-10-14', '01:00:00 GMT', '24', 'EDM', 'Edmonton', 'Oilers', '23', 'CGY', 'Calgary', 'Flames', '18', 'Scotiabank Saddledome', '23', 'CGY', 'Calgary', 'Flames', '0', '1', '0', '0', '0', '34', '28', '54.8', '5', '0', '0.0', '4', '2', '50.0', '0', '1', '3', '5', '35', '6', '12', '10']"
"['', '32657', '2016-10-15', '02:00:00 GMT', '23', 'CGY', 'Calgary', 'Flames', '21', 'VAN', 'Vancouver', 'Canucks', '7', 'Rogers Arena', '23', 'CGY', 'Calgary', 'Flames', '0', '0', '0', '1', '1', '30', '31', '49.2', '2', '0', '0.0', '4', '0', '100.0', '0', '0', '1', '1', '25', '5', '10', '15']"
"['', '32673', '2016-10-18', '01:00:00 GMT', '15', 'BUF', 'Buffalo', 'Sabres', '23', 'CGY', 'Calgary', 'Flames', '18', 'Scotiabank Saddledome', '23', 'CGY', 'Calgary', 'Flames', '1', '0', '0', '0', '2', '30', '36', '45.5', '5', '0', '0.0', '5', '1', '80.0', '0', '0', '4', '3', '34', '6', '12', '16']"
"['', '32686', '2016-10-20', '01:00:00 GMT', '3', 'CAR', 'Carolina', 'Hurricanes', '23', 'CGY', 'Calgary', 'Flames', '18', 'Scotiabank Saddledome', '23', 'CGY', 'Calgary', 'Flames', '0', '1', '0', '0', '0', '27', '32', '45.8', '6', '0', '0.0', '8', '2', '75.0', '0', '0', '2', '4', '26', '8', '16', '17']"
"['', '32702', '2016-10-22', '02:00:00 GMT', '17', 'STL', 'St. Louis', 'Blues', '23', 'CGY', 'Calgary', 'Flames', '18', 'Scotiabank Saddledome', '23', 'CGY', 'Calgary', 'Flames', '0', '1', '0', '0', '0', '33', '32', '50.8', '3', '0', '0.0', '3', '2', '33.3', '0', '0', '4', '6', '27', '5', '10', '16']"
"['', '32709', '2016-10-24', '00:30:00 GMT', '23', 'CGY', 'Calgary', 'Flames', '20', 'CHI', 'Chicago', 'Blackhawks', '28', 'United Center', '23', 'CGY', 'Calgary', 'Flames', '1', '0', '0', '0', '2', '41', '34', '54.7', '5', '2', '40.0', '2', '0', '100.0', '0', '0', '2', '2', '31', '2', '4', '35']"
"['', '32716', '2016-10-25', '00:00:00 GMT', '23', 'CGY', 'Calgary', 'Flames', '17', 'STL', 'St. Louis', 'Blues', '24', 'Scottrade Center', '23', 'CGY', 'Calgary', 'Flames', '1', '0', '0', '0', '2', '27', '31', '46.6', '3', '1', '33.3', '4', '1', '75.0', '0', '0', '4', '1', '30', '6', '12', '19']"
"['', '32737', '2016-10-28', '01:00:00 GMT', '13', 'OTT', 'Ottawa', 'Senators', '23', 'CGY', 'Calgary', 'Flames', '18', 'Scotiabank Saddledome', '23', 'CGY', 'Calgary', 'Flames', '1', '0', '0', '0', '2', '42', '33', '56.0', '2', '0', '0.0', '4', '2', '50.0', '0', '0', '5', '2', '19', '4', '8', '15']"
"['', '32757', '2016-10-30', '01:30:00 GMT', '5', 'WSH', 'Washington', 'Capitals', '23', 'CGY', 'Calgary', 'Flames', '18', 'Scotiabank Saddledome', '23', 'CGY', 'Calgary', 'Flames', '0', '1', '0', '0', '0', '31', '28', '52.5', '2', '0', '0.0', '2', '1', '50.0', '0', '0', '1', '3', '22', '2', '4', '21']"
"['', '32766', '2016-11-01', '00:30:00 GMT', '23', 'CGY', 'Calgary', 'Flames', '20', 'CHI', 'Chicago', 'Blackhawks', '28', 'United Center', '23', 'CGY', 'Calgary', 'Flames', '0', '1', '0', '0', '0', '22', '30', '42.3', '4', '0', '0.0', '4', '1', '75.0', '1', '0', '1', '5', '34', '5', '10', '35']"
"['', '32784', '2016-11-03', '02:30:00 GMT', '23', 'CGY', 'Calgary', 'Flames', '26', 'SJS', 'San Jose', 'Sharks', '9', 'SAP Center at San Jose', '23', 'CGY', 'Calgary', 'Flames', '1', '0', '0', '0', '2', '23', '33', '41.1', '2', '0', '0.0', '5', '1', '80.0', '0', '0', '3', '2', '22', '7', '14', '32']"
"['', '32799', '2016-11-05', '02:00:00 GMT', '23', 'CGY', 'Calgary', 'Flames', '28', 'LAK', 'Los Angeles', 'Kings', '25', 'Staples Center', '23', 'CGY', 'Calgary', 'Flames', '0', '1', '0', '0', '0', '33', '26', '55.9', '3', '0', '0.0', '3', '0', '100.0', '0', '0', '0', '5', '24', '3', '6', '27']"
"['', '32806', '2016-11-06', '02:30:00 GMT', '23', 'CGY', 'Calgary', 'Flames', '29', 'ANA', 'Anaheim', 'Ducks', '8', 'Honda Center', '23', 'CGY', 'Calgary', 'Flames', '0', '1', '0', '0', '0', '25', '29', '46.3', '2', '0', '0.0', '3', '2', '33.3', '0', '0', '1', '4', '26', '8', '22', '25']"
"['', '32830', '2016-11-10', '02:00:00 GMT', '27', 'DAL', 'Dallas', 'Stars', '23', 'CGY', 'Calgary', 'Flames', '18', 'Scotiabank Saddledome', '23', 'CGY', 'Calgary', 'Flames', '0', '1', '0', '0', '0', '33', '33', '50.0', '2', '0', '0.0', '3', '1', '66.7', '0', '0', '2', '4', '31', '5', '13', '18']"
"['', '32848', '2016-11-12', '03:00:00 GMT', '9', 'NYR', 'New York', 'Rangers', '23', 'CGY', 'Calgary', 'Flames', '18', 'Scotiabank Saddledome', '23', 'CGY', 'Calgary', 'Flames', '0', '1', '0', '0', '0', '23', '27', '46.0', '3', '1', '33.3', '2', '0', '100.0', '0', '0', '1', '4', '36', '2', '4', '13']"
"['', '32863', '2016-11-15', '01:00:00 GMT', '23', 'CGY', 'Calgary', 'Flames', '25', 'MIN', 'Minnesota', 'Wild', '30', 'Xcel Energy Center', '23', 'CGY', 'Calgary', 'Flames', '1', '0', '0', '0', '2', '29', '33', '46.8', '7', '1', '14.3', '2', '0', '100.0', '0', '0', '1', '0', '27', '5', '13', '15']"
"['', '32870', '2016-11-16', '03:00:00 GMT', '30', 'ARI', 'Arizona', 'Coyotes', '23', 'CGY', 'Calgary', 'Flames', '18', 'Scotiabank Saddledome', '23', 'CGY', 'Calgary', 'Flames', '1', '0', '0', '0', '2', '38', '29', '56.7', '3', '0', '0.0', '3', '0', '100.0', '0', '0', '2', '1', '24', '4', '8', '24']"
"['', '32885', '2016-11-18', '02:00:00 GMT', '20', 'CHI', 'Chicago', 'Blackhawks', '23', 'CGY', 'Calgary', 'Flames', '18', 'Scotiabank Saddledome', '23', 'CGY', 'Calgary', 'Flames', '0', '1', '0', '0', '0', '36', '26', '58.1', '5', '0', '0.0', '1', '1', '0.0', '0', '0', '2', '3', '30', '1', '2', '12']"
"['', '32900', '2016-11-20', '00:30:00 GMT', '23', 'CGY', 'Calgary', 'Flames', '16', 'DET', 'Detroit', 'Red Wings', '11', 'Joe Louis Arena', '23', 'CGY', 'Calgary', 'Flames', '1', '0', '0', '0', '2', '28', '21', '57.1', '2', '0', '0.0', '2', '0', '100.0', '0', '0', '3', '2', '26', '2', '4', '24']"
"['', '32902', '2016-11-21', '00:00:00 GMT', '23', 'CGY', 'Calgary', 'Flames', '15', 'BUF', 'Buffalo', 'Sabres', '10', 'KeyBank Center', '23', 'CGY', 'Calgary', 'Flames', '0', '1', '0', '0', '0', '34', '24', '58.6', '2', '0', '0.0', '5', '3', '40.0', '0', '0', '2', '4', '31', '7', '14', '28']"
"['', '32918', '2016-11-23', '00:00:00 GMT', '23', 'CGY', 'Calgary', 'Flames', '19', 'CBJ', 'Columbus', 'Blue Jackets', '17', 'Nationwide Arena', '23', 'CGY', 'Calgary', 'Flames', '1', '0', '0', '0', '2', '23', '25', '47.9', '3', '1', '33.3', '4', '0', '100.0', '0', '0', '2', '0', '20', '3', '8', '13']"
"['', '32934', '2016-11-25', '00:30:00 GMT', '23', 'CGY', 'Calgary', 'Flames', '11', 'BOS', 'Boston', 'Bruins', '27', 'TD Garden', '23', 'CGY', 'Calgary', 'Flames', '1', '0', '0', '0', '2', '32', '38', '45.7', '1', '0', '0.0', '4', '0', '100.0', '0', '0', '2', '1', '29', '8', '19', '23']"
"['', '32953', '2016-11-27', '00:00:00 GMT', '23', 'CGY', 'Calgary', 'Flames', '6', 'PHI', 'Philadelphia', 'Flyers', '29', 'Wells Fargo Center', '23', 'CGY', 'Calgary', 'Flames', '0', '1', '0', '0', '0', '34', '38', '47.2', '1', '1', '100.0', '5', '1', '80.0', '2', '0', '3', '5', '32', '9', '34', '33']"
"['', '32954', '2016-11-28', '00:00:00 GMT', '23', 'CGY', 'Calgary', 'Flames', '8', 'NYI', 'New York', 'Islanders', '35', 'Ericsson Globe', '23', 'CGY', 'Calgary', 'Flames', '0', '0', '0', '1', '1', '21', '38', '35.6', '1', '0', '0.0', '4', '0', '100.0', '0', '0', '1', '2', '26', '4', '8', '18']"
"['', '32969', '2016-11-30', '01:30:00 GMT', '12', 'TOR', 'Toronto', 'Maple Leafs', '23', 'CGY', 'Calgary', 'Flames', '18', 'Scotiabank Saddledome', '23', 'CGY', 'Calgary', 'Flames', '1', '0', '0', '0', '2', '29', '21', '58.0', '2', '0', '0.0', '2', '0', '100.0', '0', '0', '3', '0', '29', '2', '4', '11']"
"['', '32983', '2016-12-02', '02:00:00 GMT', '25', 'MIN', 'Minnesota', 'Wild', '23', 'CGY', 'Calgary', 'Flames', '18', 'Scotiabank Saddledome', '23', 'CGY', 'Calgary', 'Flames', '1', '0', '0', '0', '2', '28', '36', '43.8', '5', '1', '20.0', '3', '0', '100.0', '0', '0', '2', '2', '31', '5', '10', '15']"
"['', '33001', '2016-12-04', '02:30:00 GMT', '29', 'ANA', 'Anaheim', 'Ducks', '23', 'CGY', 'Calgary', 'Flames', '18', 'Scotiabank Saddledome', '23', 'CGY', 'Calgary', 'Flames', '1', '0', '0', '0', '2', '30', '36', '45.5', '3', '2', '66.7', '5', '1', '80.0', '1', '0', '8', '3', '25', '8', '33', '13']"
"['', '33016', '2016-12-06', '01:30:00 GMT', '23', 'CGY', 'Calgary', 'Flames', '27', 'DAL', 'Dallas', 'Stars', '2', 'American Airlines Center', '23', 'CGY', 'Calgary', 'Flames', '1', '0', '0', '0', '2', '28', '33', '45.9', '2', '1', '50.0', '2', '0', '100.0', '0', '0', '2', '1', '20', '2', '4', '18']"
"['', '33029', '2016-12-08', '02:00:00 GMT', '23', 'CGY', 'Calgary', 'Flames', '30', 'ARI', 'Arizona', 'Coyotes', '6', 'Gila River Arena', '23', 'CGY', 'Calgary', 'Flames', '1', '0', '0', '0', '2', '30', '31', '49.2', '5', '1', '20.0', '3', '0', '100.0', '0', '0', '2', '1', '35', '7', '23', '15']"
"['', '33045', '2016-12-10', '03:00:00 GMT', '2', 'WPJ', 'Winnipeg', 'Jets', '23', 'CGY', 'Calgary', 'Flames', '18', 'Scotiabank Saddledome', '23', 'CGY', 'Calgary', 'Flames', '1', '0', '0', '0', '2', '35', '37', '48.6', '4', '2', '50.0', '4', '1', '75.0', '0', '0', '6', '2', '35', '6', '18', '15']"
"['', '33069', '2016-12-14', '02:30:00 GMT', '1', 'TBL', 'Tampa Bay', 'Lightning', '23', 'CGY', 'Calgary', 'Flames', '18', 'Scotiabank Saddledome', '23', 'CGY', 'Calgary', 'Flames', '0', '1', '0', '0', '0', '30', '40', '42.9', '4', '2', '50.0', '5', '1', '80.0', '0', '1', '3', '6', '22', '7', '17', '17']"
"['', '33084', '2016-12-16', '02:00:00 GMT', '19', 'CBJ', 'Columbus', 'Blue Jackets', '23', 'CGY', 'Calgary', 'Flames', '18', 'Scotiabank Saddledome', '23', 'CGY', 'Calgary', 'Flames', '0', '1', '0', '0', '0', '22', '29', '43.1', '5', '1', '20.0', '3', '1', '66.7', '0', '1', '1', '4', '23', '5', '13', '13']"
"['', '33106', '2016-12-19', '02:00:00 GMT', '23', 'CGY', 'Calgary', 'Flames', '30', 'ARI', 'Arizona', 'Coyotes', '6', 'Gila River Arena', '23', 'CGY', 'Calgary', 'Flames', '1', '0', '0', '0', '2', '38', '38', '50.0', '6', '3', '50.0', '5', '0', '100.0', '0', '0', '4', '2', '28', '7', '17', '25']"
"['', '33118', '2016-12-20', '03:30:00 GMT', '23', 'CGY', 'Calgary', 'Flames', '26', 'SJS', 'San Jose', 'Sharks', '9', 'SAP Center at San Jose', '23', 'CGY', 'Calgary', 'Flames', '0', '1', '0', '0', '0', '26', '28', '48.1', '1', '0', '0.0', '5', '0', '100.0', '0', '0', '1', '4', '21', '5', '10', '27']"
"['', '33140', '2016-12-23', '02:00:00 GMT', '21', 'VAN', 'Vancouver', 'Canucks', '23', 'CGY', 'Calgary', 'Flames', '18', 'Scotiabank Saddledome', '23', 'CGY', 'Calgary', 'Flames', '1', '0', '0', '0', '2', '29', '31', '48.3', '4', '1', '25.0', '2', '0', '100.0', '1', '0', '4', '1', '37', '2', '4', '9']"
"['', '33150', '2016-12-27', '02:00:00 GMT', '23', 'CGY', 'Calgary', 'Flames', '22', 'COL', 'Colorado', 'Avalanche', '19', 'Pepsi Center', '23', 'CGY', 'Calgary', 'Flames', '1', '0', '0', '0', '2', '21', '35', '37.5', '3', '1', '33.3', '6', '0', '100.0', '0', '0', '6', '3', '31', '6', '12', '16']"
"['', '33167', '2016-12-29', '02:00:00 GMT', '29', 'ANA', 'Anaheim', 'Ducks', '23', 'CGY', 'Calgary', 'Flames', '18', 'Scotiabank Saddledome', '23', 'CGY', 'Calgary', 'Flames', '0', '1', '0', '0', '0', '30', '32', '48.4', '4', '0', '0.0', '6', '2', '66.7', '0', '0', '1', '3', '32', '7', '14', '18']"
"['', '33182', '2016-12-31', '03:00:00 GMT', '30', 'ARI', 'Arizona', 'Coyotes', '23', 'CGY', 'Calgary', 'Flames', '18', 'Scotiabank Saddledome', '23', 'CGY', 'Calgary', 'Flames', '1', '0', '0', '0', '2', '35', '29', '54.7', '6', '2', '33.3', '4', '0', '100.0', '0', '0', '4', '2', '24', '5', '10', '10']"
"['', '33201', '2017-01-04', '03:00:00 GMT', '22', 'COL', 'Colorado', 'Avalanche', '23', 'CGY', 'Calgary', 'Flames', '18', 'Scotiabank Saddledome', '23', 'CGY', 'Calgary', 'Flames', '1', '0', '0', '0', '2', '41', '27', '60.3', '7', '3', '42.9', '3', '0', '100.0', '0', '0', '4', '1', '37', '3', '6', '14']"
"['', '33215', '2017-01-06', '03:00:00 GMT', '23', 'CGY', 'Calgary', 'Flames', '21', 'VAN', 'Vancouver', 'Canucks', '7', 'Rogers Arena', '23', 'CGY', 'Calgary', 'Flames', '0', '1', '0', '0', '0', '29', '34', '46.0', '4', '1', '25.0', '3', '1', '66.7', '0', '0', '2', '4', '46', '3', '6', '20']"
"['', '33227', '2017-01-07', '03:00:00 GMT', '21', 'VAN', 'Vancouver', 'Canucks', '23', 'CGY', 'Calgary', 'Flames', '18', 'Scotiabank Saddledome', '23', 'CGY', 'Calgary', 'Flames', '1', '0', '0', '0', '2', '24', '28', '46.2', '1', '0', '0.0', '3', '0', '100.0', '0', '0', '3', '1', '31', '3', '6', '23']"
"['', '33237', '2017-01-09', '01:00:00 GMT', '23', 'CGY', 'Calgary', 'Flames', '2', 'WPJ', 'Winnipeg', 'Jets', '39', 'MTS Centre', '23', 'CGY', 'Calgary', 'Flames', '0', '1', '0', '0', '0', '25', '26', '49.0', '3', '0', '0.0', '3', '0', '100.0', '0', '0', '0', '2', '28', '5', '10', '16']"
"['', '33249', '2017-01-11', '02:30:00 GMT', '26', 'SJS', 'San Jose', 'Sharks', '23', 'CGY', 'Calgary', 'Flames', '18', 'Scotiabank Saddledome', '23', 'CGY', 'Calgary', 'Flames', '1', '0', '0', '0', '2', '31', '21', '59.6', '2', '1', '50.0', '2', '1', '50.0', '0', '0', '3', '2', '28', '3', '6', '16']"
"['', '33264', '2017-01-13', '02:00:00 GMT', '7', 'NJD', 'New Jersey', 'Devils', '23', 'CGY', 'Calgary', 'Flames', '18', 'Scotiabank Saddledome', '23', 'CGY', 'Calgary', 'Flames', '0', '1', '0', '0', '0', '31', '27', '53.4', '2', '0', '0.0', '4', '1', '75.0', '0', '0', '1', '2', '32', '5', '13', '17']"
"['', '33275', '2017-01-14', '03:00:00 GMT', '23', 'CGY', 'Calgary', 'Flames', '24', 'EDM', 'Edmonton', 'Oilers', '22', 'Rogers Place', '23', 'CGY', 'Calgary', 'Flames', '0', '0', '0', '1', '1', '25', '29', '46.3', '1', '0', '0.0', '3', '1', '66.7', '0', '0', '1', '1', '25', '4', '8', '34']"
"['', '33295', '2017-01-17', '02:00:00 GMT', '4', 'FLO', 'Florida', 'Panthers', '23', 'CGY', 'Calgary', 'Flames', '18', 'Scotiabank Saddledome', '23', 'CGY', 'Calgary', 'Flames', '1', '0', '0', '0', '2', '26', '24', '52.0', '4', '2', '50.0', '4', '0', '100.0', '0', '0', '5', '2', '29', '4', '8', '7']"
"['', '33308', '2017-01-19', '02:00:00 GMT', '18', 'NSH', 'Nashville', 'Predators', '23', 'CGY', 'Calgary', 'Flames', '18', 'Scotiabank Saddledome', '23', 'CGY', 'Calgary', 'Flames', '0', '1', '0', '0', '0', '26', '35', '42.6', '5', '1', '20.0', '4', '1', '75.0', '0', '0', '3', '4', '35', '6', '15', '15']"
"['', '33326', '2017-01-21', '03:00:00 GMT', '24', 'EDM', 'Edmonton', 'Oilers', '23', 'CGY', 'Calgary', 'Flames', '18', 'Scotiabank Saddledome', '23', 'CGY', 'Calgary', 'Flames', '0', '1', '0', '0', '0', '39', '31', '55.7', '3', '1', '33.3', '5', '1', '80.0', '1', '0', '3', '7', '41', '9', '29', '19']"
"['', '33336', '2017-01-23', '00:30:00 GMT', '23', 'CGY', 'Calgary', 'Flames', '12', 'TOR', 'Toronto', 'Maple Leafs', '1', 'Air Canada Center', '23', 'CGY', 'Calgary', 'Flames', '0', '1', '0', '0', '0', '27', '35', '43.5', '5', '0', '0.0', '6', '1', '83.3', '0', '1', '0', '4', '26', '9', '21', '37']"
"['', '33344', '2017-01-24', '00:30:00 GMT', '23', 'CGY', 'Calgary', 'Flames', '14', 'MTL', 'Montreal', 'Canadiens', '4', 'Bell Centre', '23', 'CGY', 'Calgary', 'Flames', '0', '1', '0', '0', '0', '23', '30', '43.4', '5', '1', '20.0', '3', '2', '33.3', '0', '1', '1', '5', '31', '4', '8', '32']"
"['', '33359', '2017-01-26', '00:30:00 GMT', '23', 'CGY', 'Calgary', 'Flames', '13', 'OTT', 'Ottawa', 'Senators', '23', 'Canadian Tire Centre', '23', 'CGY', 'Calgary', 'Flames', '1', '0', '0', '0', '2', '35', '35', '50.0', '2', '0', '0.0', '4', '0', '100.0', '0', '0', '3', '2', '26', '4', '10', '25']"
"['', '33382', '2017-02-01', '03:00:00 GMT', '25', 'MIN', 'Minnesota', 'Wild', '23', 'CGY', 'Calgary', 'Flames', '18', 'Scotiabank Saddledome', '23', 'CGY', 'Calgary', 'Flames', '1', '0', '0', '0', '2', '25', '37', '40.3', '4', '2', '50.0', '3', '0', '100.0', '0', '0', '5', '1', '36', '4', '8', '12']"
"['', '33395', '2017-02-03', '00:30:00 GMT', '23', 'CGY', 'Calgary', 'Flames', '7', 'NJD', 'New Jersey', 'Devils', '37', 'Prudential Center', '23', 'CGY', 'Calgary', 'Flames', '1', '0', '0', '0', '2', '41', '29', '58.6', '2', '1', '50.0', '3', '2', '33.3', '0', '0', '4', '3', '38', '4', '8', '20']"
"['', '33412', '2017-02-05', '19:00:00 GMT', '23', 'CGY', 'Calgary', 'Flames', '9', 'NYR', 'New York', 'Rangers', '12', 'Madison Square Garden', '23', 'CGY', 'Calgary', 'Flames', '0', '1', '0', '0', '0', '25', '24', '51.0', '1', '1', '100.0', '1', '1', '0.0', '0', '0', '3', '4', '32', '4', '22', '20']"
"['', '33418', '2017-02-07', '00:00:00 GMT', '23', 'CGY', 'Calgary', 'Flames', '10', 'PIT', 'Pittsburgh', 'Penguins', '40', 'PPG Paints Arena', '23', 'CGY', 'Calgary', 'Flames', '1', '0', '0', '0', '2', '23', '34', '40.4', '4', '0', '0.0', '2', '0', '100.0', '0', '0', '2', '2', '30', '3', '6', '29']"
"['', '33461', '2017-02-13', '02:00:00 GMT', '30', 'ARI', 'Arizona', 'Coyotes', '23', 'CGY', 'Calgary', 'Flames', '18', 'Scotiabank Saddledome', '23', 'CGY', 'Calgary', 'Flames', '0', '1', '0', '0', '0', '28', '32', '46.7', '5', '0', '0.0', '1', '0', '100.0', '0', '0', '0', '5', '36', '1', '2', '15']"
"['', '33471', '2017-02-15', '02:30:00 GMT', '6', 'PHI', 'Philadelphia', 'Flyers', '23', 'CGY', 'Calgary', 'Flames', '18', 'Scotiabank Saddledome', '23', 'CGY', 'Calgary', 'Flames', '1', '0', '0', '0', '2', '33', '41', '44.6', '2', '0', '0.0', '4', '0', '100.0', '0', '0', '3', '1', '23', '6', '26', '21']"
"['', '33493', '2017-02-18', '03:00:00 GMT', '23', 'CGY', 'Calgary', 'Flames', '21', 'VAN', 'Vancouver', 'Canucks', '7', 'Rogers Arena', '23', 'CGY', 'Calgary', 'Flames', '0', '0', '0', '1', '1', '32', '30', '51.6', '4', '0', '0.0', '4', '0', '100.0', '0', '0', '1', '2', '36', '5', '10', '20']"
"['', '33514', '2017-02-21', '01:00:00 GMT', '23', 'CGY', 'Calgary', 'Flames', '18', 'NSH', 'Nashville', 'Predators', '15', 'Bridgestone Arena', '23', 'CGY', 'Calgary', 'Flames', '1', '0', '0', '0', '2', '30', '37', '44.8', '2', '0', '0.0', '4', '1', '75.0', '0', '0', '6', '5', '30', '6', '18', '16']"
"['', '33522', '2017-02-23', '00:30:00 GMT', '23', 'CGY', 'Calgary', 'Flames', '1', 'TBL', 'Tampa Bay', 'Lightning', '26', 'Amalie Arena', '23', 'CGY', 'Calgary', 'Flames', '1', '0', '0', '0', '2', '35', '28', '55.6', '4', '1', '25.0', '3', '1', '66.7', '0', '0', '3', '2', '25', '4', '11', '14']"
"['', '33527', '2017-02-24', '00:30:00 GMT', '23', 'CGY', 'Calgary', 'Flames', '4', 'FLO', 'Florida', 'Panthers', '3', 'BB&T Center', '23', 'CGY', 'Calgary', 'Flames', '1', '0', '0', '0', '2', '31', '24', '56.4', '1', '0', '0.0', '3', '1', '66.7', '0', '0', '4', '2', '28', '4', '8', '15']"
"['', '33539', '2017-02-26', '20:00:00 GMT', '23', 'CGY', 'Calgary', 'Flames', '3', 'CAR', 'Carolina', 'Hurricanes', '21', 'RBC Center', '23', 'CGY', 'Calgary', 'Flames', '1', '0', '0', '0', '2', '25', '25', '50.0', '0', '0', '0.0', '2', '1', '50.0', '0', '0', '3', '1', '24', '2', '4', '11']"
"['', '33557', '2017-02-28', '02:00:00 GMT', '28', 'LAK', 'Los Angeles', 'Kings', '23', 'CGY', 'Calgary', 'Flames', '18', 'Scotiabank Saddledome', '23', 'CGY', 'Calgary', 'Flames', '1', '0', '0', '0', '2', '37', '33', '52.9', '2', '0', '0.0', '1', '1', '0.0', '0', '0', '2', '1', '30', '2', '7', '23']"
"['', '33576', '2017-03-03', '02:00:00 GMT', '16', 'DET', 'Detroit', 'Red Wings', '23', 'CGY', 'Calgary', 'Flames', '18', 'Scotiabank Saddledome', '23', 'CGY', 'Calgary', 'Flames', '1', '0', '0', '0', '2', '28', '37', '43.1', '3', '1', '33.3', '2', '0', '100.0', '0', '0', '3', '2', '31', '2', '4', '16']"
"['', '33588', '2017-03-05', '21:00:00 GMT', '8', 'NYI', 'New York', 'Islanders', '23', 'CGY', 'Calgary', 'Flames', '18', 'Scotiabank Saddledome', '23', 'CGY', 'Calgary', 'Flames', '1', '0', '0', '0', '2', '37', '23', '61.7', '2', '0', '0.0', '3', '0', '100.0', '0', '0', '5', '2', '37', '4', '8', '5']"
"['', '33616', '2017-03-09', '02:00:00 GMT', '14', 'MTL', 'Montreal', 'Canadiens', '23', 'CGY', 'Calgary', 'Flames', '18', 'Scotiabank Saddledome', '23', 'CGY', 'Calgary', 'Flames', '1', '0', '0', '0', '2', '31', '34', '47.7', '1', '0', '0.0', '2', '0', '100.0', '0', '0', '5', '0', '38', '4', '14', '19']"
"['', '33631', '2017-03-11', '00:00:00 GMT', '23', 'CGY', 'Calgary', 'Flames', '2', 'WPJ', 'Winnipeg', 'Jets', '39', 'MTS Centre', '23', 'CGY', 'Calgary', 'Flames', '1', '0', '0', '0', '2', '27', '34', '44.3', '5', '2', '40.0', '3', '0', '100.0', '0', '0', '3', '0', '29', '5', '13', '14']"
"['', '33646', '2017-03-13', '01:00:00 GMT', '10', 'PIT', 'Pittsburgh', 'Penguins', '23', 'CGY', 'Calgary', 'Flames', '18', 'Scotiabank Saddledome', '23', 'CGY', 'Calgary', 'Flames', '1', '0', '0', '0', '2', '33', '34', '49.3', '3', '1', '33.3', '5', '1', '80.0', '0', '0', '3', '3', '30', '5', '10', '14']"
"['', '33660', '2017-03-15', '01:00:00 GMT', '11', 'BOS', 'Boston', 'Bruins', '23', 'CGY', 'Calgary', 'Flames', '18', 'Scotiabank Saddledome', '23', 'CGY', 'Calgary', 'Flames', '0', '1', '0', '0', '0', '20', '39', '33.9', '3', '0', '0.0', '2', '0', '100.0', '0', '0', '2', '5', '23', '2', '4', '16']"
"['', '33677', '2017-03-17', '01:00:00 GMT', '27', 'DAL', 'Dallas', 'Stars', '23', 'CGY', 'Calgary', 'Flames', '18', 'Scotiabank Saddledome', '23', 'CGY', 'Calgary', 'Flames', '1', '0', '0', '0', '2', '20', '31', '39.2', '0', '0', '0.0', '2', '0', '100.0', '0', '0', '3', '1', '24', '2', '4', '18']"
"['', '33695', '2017-03-19', '01:30:00 GMT', '28', 'LAK', 'Los Angeles', 'Kings', '23', 'CGY', 'Calgary', 'Flames', '18', 'Scotiabank Saddledome', '23', 'CGY', 'Calgary', 'Flames', '1', '0', '0', '0', '2', '31', '23', '57.4', '3', '0', '0.0', '3', '0', '100.0', '0', '0', '5', '2', '24', '4', '8', '20']"
"['', '33704', '2017-03-21', '23:00:00 GMT', '23', 'CGY', 'Calgary', 'Flames', '5', 'WSH', 'Washington', 'Capitals', '13', 'Verizon Center', '23', 'CGY', 'Calgary', 'Flames', '0', '1', '0', '0', '0', '27', '25', '51.9', '1', '0', '0.0', '3', '2', '33.3', '0', '0', '2', '4', '31', '4', '8', '17']"
"['', '33722', '2017-03-23', '00:00:00 GMT', '23', 'CGY', 'Calgary', 'Flames', '18', 'NSH', 'Nashville', 'Predators', '15', 'Bridgestone Arena', '23', 'CGY', 'Calgary', 'Flames', '0', '1', '0', '0', '0', '29', '24', '54.7', '5', '0', '0.0', '2', '0', '100.0', '0', '0', '1', '3', '25', '2', '4', '22']"
"['', '33739', '2017-03-25', '23:00:00 GMT', '23', 'CGY', 'Calgary', 'Flames', '17', 'STL', 'St. Louis', 'Blues', '24', 'Scottrade Center', '23', 'CGY', 'Calgary', 'Flames', '1', '0', '0', '0', '2', '28', '32', '46.7', '3', '1', '33.3', '1', '0', '100.0', '0', '0', '3', '2', '31', '2', '4', '31']"
"['', '33752', '2017-03-27', '01:00:00 GMT', '22', 'COL', 'Colorado', 'Avalanche', '23', 'CGY', 'Calgary', 'Flames', '18', 'Scotiabank Saddledome', '23', 'CGY', 'Calgary', 'Flames', '1', '0', '0', '0', '2', '25', '30', '45.5', '3', '3', '100.0', '3', '1', '66.7', '0', '0', '4', '2', '27', '3', '6', '11']"
"['', '33764', '2017-03-29', '01:00:00 GMT', '28', 'LAK', 'Los Angeles', 'Kings', '23', 'CGY', 'Calgary', 'Flames', '18', 'Scotiabank Saddledome', '23', 'CGY', 'Calgary', 'Flames', '0', '1', '0', '0', '0', '37', '42', '46.8', '8', '0', '0.0', '4', '0', '100.0', '0', '0', '1', '4', '26', '8', '22', '20']"
"['', '33780', '2017-03-31', '01:00:00 GMT', '26', 'SJS', 'San Jose', 'Sharks', '23', 'CGY', 'Calgary', 'Flames', '18', 'Scotiabank Saddledome', '23', 'CGY', 'Calgary', 'Flames', '1', '0', '0', '0', '2', '33', '33', '50.0', '2', '1', '50.0', '4', '0', '100.0', '0', '0', '5', '2', '35', '6', '15', '8']"
"['', '33800', '2017-04-02', '01:30:00 GMT', '29', 'ANA', 'Anaheim', 'Ducks', '23', 'CGY', 'Calgary', 'Flames', '18', 'Scotiabank Saddledome', '23', 'CGY', 'Calgary', 'Flames', '0', '1', '0', '0', '0', '25', '31', '44.6', '4', '2', '50.0', '3', '1', '66.7', '0', '0', '3', '4', '21', '4', '11', '13']"
"['', '33815', '2017-04-04', '02:00:00 GMT', '23', 'CGY', 'Calgary', 'Flames', '29', 'ANA', 'Anaheim', 'Ducks', '8', 'Honda Center', '23', 'CGY', 'Calgary', 'Flames', '0', '1', '0', '0', '0', '25', '34', '42.4', '3', '0', '0.0', '6', '0', '100.0', '0', '0', '1', '3', '27', '17', '86', '33']"
"['', '33830', '2017-04-06', '02:30:00 GMT', '23', 'CGY', 'Calgary', 'Flames', '28', 'LAK', 'Los Angeles', 'Kings', '25', 'Staples Center', '23', 'CGY', 'Calgary', 'Flames', '1', '0', '0', '0', '2', '25', '35', '41.7', '2', '1', '50.0', '3', '0', '100.0', '0', '0', '4', '1', '24', '3', '6', '12']"
"['', '33845', '2017-04-08', '02:00:00 GMT', '23', 'CGY', 'Calgary', 'Flames', '26', 'SJS', 'San Jose', 'Sharks', '9', 'SAP Center at San Jose', '23', 'CGY', 'Calgary', 'Flames', '0', '1', '0', '0', '0', '24', '24', '50.0', '3', '0', '0.0', '2', '1', '50.0', '0', '0', '1', '3', '21', '2', '4', '20']"
