"['#Date/Time of Update: 2018-12-10 19:03:04 GMT', '#Game ID', '#Game Date', '#Game Time', '#Away Team ID', '#Away Team Abbr.', '#Away Team City', '#Away Team Name', '#Home Team ID', '#Home Team Abbr.', '#Home Team City', '#Home Team Name', '#Venue ID', '#Venue Name', '#Team ID', '#Team Abbr.', '#Team City', '#Team Name', '#Wins', '#Losses', '#OvertimeWins', '#OvertimeLosses', '#ShootoutWins', '#ShootoutLosses', '#Rows', '#Points', '#FaceoffWins', '#FaceoffLosses', '#FaceoffPercent', '#Powerplays', '#PowerplayGoals', '#PowerplayPercent', '#PenaltyKills', '#PenaltyKillGoalsAllowed', '#PenaltyKillPercent', '#ShorthandedGoalsFor', '#ShorthandedGoalsAgainst', '#GoalsFor', '#GoalsAgainst', '#Shots', '#Penalties', '#PenaltyMinutes', '#Hits']"
"['', '14894', '2011-10-07', '00:30:00 GMT', '20', 'CHI', 'Chicago', 'Blackhawks', '27', 'DAL', 'Dallas', 'Stars', '2', 'American Airlines Center', '27', 'DAL', 'Dallas', 'Stars', '1', '0', '0', '0', '0', '0', '1', '2', '31', '34', '47.7', '1', '0', '0.0', '4', '0', '100.0', '0', '0', '2', '1', '31', '4', '8', '37']"
"['', '14904', '2011-10-08', '00:30:00 GMT', '27', 'DAL', 'Dallas', 'Stars', '20', 'CHI', 'Chicago', 'Blackhawks', '28', 'United Center', '27', 'DAL', 'Dallas', 'Stars', '0', '1', '0', '0', '0', '0', '0', '0', '21', '29', '42.0', '5', '1', '20.0', '6', '1', '83.3', '0', '0', '2', '5', '19', '9', '29', '32']"
"['', '14914', '2011-10-10', '22:00:00 GMT', '30', 'PHX', 'Phoenix', 'Coyotes', '27', 'DAL', 'Dallas', 'Stars', '2', 'American Airlines Center', '27', 'DAL', 'Dallas', 'Stars', '1', '0', '0', '0', '0', '0', '0', '2', '30', '33', '47.6', '5', '0', '0.0', '6', '1', '83.3', '0', '0', '1', '1', '24', '8', '19', '25']"
"['', '14931', '2011-10-13', '00:30:00 GMT', '17', 'STL', 'St. Louis', 'Blues', '27', 'DAL', 'Dallas', 'Stars', '2', 'American Airlines Center', '27', 'DAL', 'Dallas', 'Stars', '1', '0', '0', '0', '0', '0', '1', '2', '27', '34', '44.3', '4', '1', '25.0', '6', '0', '100.0', '1', '0', '3', '2', '21', '9', '29', '35']"
"['', '14944', '2011-10-15', '00:00:00 GMT', '19', 'CBJ', 'Columbus', 'Blue Jackets', '27', 'DAL', 'Dallas', 'Stars', '2', 'American Airlines Center', '27', 'DAL', 'Dallas', 'Stars', '1', '0', '0', '0', '0', '0', '1', '2', '29', '26', '52.7', '3', '1', '33.3', '5', '1', '80.0', '0', '0', '4', '2', '29', '6', '12', '26']"
"['', '14956', '2011-10-18', '23:00:00 GMT', '27', 'DAL', 'Dallas', 'Stars', '19', 'CBJ', 'Columbus', 'Blue Jackets', '17', 'Nationwide Arena', '27', 'DAL', 'Dallas', 'Stars', '1', '0', '0', '0', '0', '0', '1', '2', '30', '28', '51.7', '2', '0', '0.0', '4', '1', '75.0', '0', '0', '3', '2', '15', '6', '15', '20']"
"['', '14979', '2011-10-21', '02:00:00 GMT', '27', 'DAL', 'Dallas', 'Stars', '29', 'ANA', 'Anaheim', 'Ducks', '8', 'Honda Center', '27', 'DAL', 'Dallas', 'Stars', '1', '0', '0', '0', '0', '0', '1', '2', '29', '24', '54.7', '1', '0', '0.0', '5', '1', '80.0', '0', '0', '3', '1', '16', '5', '10', '24']"
"['', '14993', '2011-10-22', '02:30:00 GMT', '27', 'DAL', 'Dallas', 'Stars', '28', 'LAK', 'Los Angeles', 'Kings', '25', 'Staples Center', '27', 'DAL', 'Dallas', 'Stars', '0', '1', '0', '0', '0', '0', '0', '0', '27', '19', '58.7', '2', '0', '0.0', '1', '0', '100.0', '0', '0', '0', '1', '28', '4', '11', '31']"
"['', '15005', '2011-10-25', '02:00:00 GMT', '27', 'DAL', 'Dallas', 'Stars', '30', 'PHX', 'Phoenix', 'Coyotes', '6', 'Jobing.com Arena', '27', 'DAL', 'Dallas', 'Stars', '1', '0', '0', '0', '0', '0', '0', '2', '36', '23', '61.0', '3', '1', '33.3', '2', '1', '50.0', '0', '0', '2', '2', '34', '4', '8', '26']"
"['', '15018', '2011-10-27', '00:30:00 GMT', '28', 'LAK', 'Los Angeles', 'Kings', '27', 'DAL', 'Dallas', 'Stars', '2', 'American Airlines Center', '27', 'DAL', 'Dallas', 'Stars', '0', '1', '0', '0', '0', '0', '0', '0', '35', '33', '51.5', '5', '1', '20.0', '6', '1', '83.3', '0', '0', '3', '5', '30', '7', '14', '32']"
"['', '15034', '2011-10-29', '00:00:00 GMT', '7', 'NJD', 'New Jersey', 'Devils', '27', 'DAL', 'Dallas', 'Stars', '2', 'American Airlines Center', '27', 'DAL', 'Dallas', 'Stars', '1', '0', '0', '0', '0', '0', '1', '2', '21', '27', '43.8', '2', '0', '0.0', '3', '0', '100.0', '1', '0', '3', '1', '20', '4', '8', '36']"
"['', '15068', '2011-11-04', '00:30:00 GMT', '22', 'COL', 'Colorado', 'Avalanche', '27', 'DAL', 'Dallas', 'Stars', '2', 'American Airlines Center', '27', 'DAL', 'Dallas', 'Stars', '1', '0', '0', '0', '0', '0', '1', '2', '37', '35', '51.4', '6', '3', '50.0', '4', '2', '50.0', '0', '0', '7', '6', '22', '6', '12', '30']"
"['', '15080', '2011-11-06', '18:30:00 GMT', '27', 'DAL', 'Dallas', 'Stars', '3', 'CAR', 'Carolina', 'Hurricanes', '21', 'RBC Center', '27', 'DAL', 'Dallas', 'Stars', '1', '0', '0', '0', '0', '0', '1', '2', '31', '30', '50.8', '3', '1', '33.3', '6', '2', '66.7', '1', '0', '5', '2', '22', '10', '28', '26']"
"['', '15090', '2011-11-08', '00:00:00 GMT', '27', 'DAL', 'Dallas', 'Stars', '5', 'WSH', 'Washington', 'Capitals', '13', 'Verizon Center', '27', 'DAL', 'Dallas', 'Stars', '1', '0', '0', '0', '0', '0', '1', '2', '26', '41', '38.8', '4', '1', '25.0', '3', '1', '66.7', '0', '0', '5', '2', '31', '6', '15', '20']"
"['', '15109', '2011-11-11', '00:00:00 GMT', '27', 'DAL', 'Dallas', 'Stars', '10', 'PIT', 'Pittsburgh', 'Penguins', '14', 'Civic Arena', '27', 'DAL', 'Dallas', 'Stars', '0', '1', '0', '0', '0', '0', '0', '0', '32', '35', '47.8', '2', '0', '0.0', '5', '2', '60.0', '0', '0', '1', '3', '19', '7', '22', '12']"
"['', '15118', '2011-11-12', '00:00:00 GMT', '27', 'DAL', 'Dallas', 'Stars', '16', 'DET', 'Detroit', 'Red Wings', '11', 'Joe Louis Arena', '27', 'DAL', 'Dallas', 'Stars', '0', '1', '0', '0', '0', '0', '0', '0', '27', '37', '42.2', '2', '1', '50.0', '4', '0', '100.0', '0', '0', '2', '5', '25', '5', '13', '28']"
"['', '15139', '2011-11-15', '01:30:00 GMT', '4', 'FLO', 'Florida', 'Panthers', '27', 'DAL', 'Dallas', 'Stars', '2', 'American Airlines Center', '27', 'DAL', 'Dallas', 'Stars', '0', '1', '0', '0', '0', '0', '0', '0', '30', '23', '56.6', '2', '0', '0.0', '4', '0', '100.0', '0', '0', '0', '6', '25', '5', '10', '36']"
"['', '15157', '2011-11-18', '02:00:00 GMT', '27', 'DAL', 'Dallas', 'Stars', '22', 'COL', 'Colorado', 'Avalanche', '19', 'Pepsi Center', '27', 'DAL', 'Dallas', 'Stars', '0', '1', '0', '0', '0', '0', '0', '0', '21', '34', '38.2', '1', '0', '0.0', '5', '2', '60.0', '0', '0', '0', '3', '24', '5', '10', '23']"
"['', '15169', '2011-11-19', '01:00:00 GMT', '26', 'SJS', 'San Jose', 'Sharks', '27', 'DAL', 'Dallas', 'Stars', '2', 'American Airlines Center', '27', 'DAL', 'Dallas', 'Stars', '0', '1', '0', '0', '0', '0', '0', '0', '32', '35', '47.8', '1', '0', '0.0', '6', '2', '66.7', '0', '0', '1', '4', '30', '14', '53', '53']"
"['', '15181', '2011-11-21', '01:30:00 GMT', '24', 'EDM', 'Edmonton', 'Oilers', '27', 'DAL', 'Dallas', 'Stars', '2', 'American Airlines Center', '27', 'DAL', 'Dallas', 'Stars', '1', '0', '0', '0', '0', '0', '1', '2', '24', '25', '49.0', '3', '0', '0.0', '5', '0', '100.0', '1', '0', '4', '1', '31', '6', '12', '47']"
"['', '15194', '2011-11-23', '01:30:00 GMT', '28', 'LAK', 'Los Angeles', 'Kings', '27', 'DAL', 'Dallas', 'Stars', '2', 'American Airlines Center', '27', 'DAL', 'Dallas', 'Stars', '1', '0', '0', '0', '0', '0', '1', '2', '23', '29', '44.2', '3', '0', '0.0', '3', '0', '100.0', '0', '0', '3', '2', '35', '3', '6', '31']"
"['', '15209', '2011-11-25', '01:30:00 GMT', '12', 'TOR', 'Toronto', 'Maple Leafs', '27', 'DAL', 'Dallas', 'Stars', '2', 'American Airlines Center', '27', 'DAL', 'Dallas', 'Stars', '0', '0', '0', '1', '0', '0', '0', '1', '36', '32', '52.9', '4', '0', '0.0', '2', '1', '50.0', '0', '0', '3', '3', '26', '4', '8', '42']"
"['', '15219', '2011-11-26', '01:00:00 GMT', '27', 'DAL', 'Dallas', 'Stars', '30', 'PHX', 'Phoenix', 'Coyotes', '6', 'Jobing.com Arena', '27', 'DAL', 'Dallas', 'Stars', '0', '1', '0', '0', '0', '0', '0', '0', '26', '28', '48.1', '1', '0', '0.0', '1', '0', '100.0', '0', '0', '0', '3', '26', '2', '4', '27']"
"['', '15227', '2011-11-28', '02:00:00 GMT', '27', 'DAL', 'Dallas', 'Stars', '22', 'COL', 'Colorado', 'Avalanche', '19', 'Pepsi Center', '27', 'DAL', 'Dallas', 'Stars', '1', '0', '0', '0', '0', '0', '1', '2', '29', '32', '47.5', '3', '0', '0.0', '2', '0', '100.0', '0', '0', '3', '1', '32', '4', '11', '14']"
"['', '15246', '2011-12-01', '01:30:00 GMT', '13', 'OTT', 'Ottawa', 'Senators', '27', 'DAL', 'Dallas', 'Stars', '2', 'American Airlines Center', '27', 'DAL', 'Dallas', 'Stars', '1', '0', '0', '0', '0', '0', '1', '2', '30', '21', '58.8', '3', '1', '33.3', '1', '0', '100.0', '0', '0', '3', '2', '29', '1', '2', '25']"
"['', '15266', '2011-12-03', '01:30:00 GMT', '8', 'NYI', 'New York', 'Islanders', '27', 'DAL', 'Dallas', 'Stars', '2', 'American Airlines Center', '27', 'DAL', 'Dallas', 'Stars', '0', '1', '0', '0', '0', '0', '0', '0', '27', '31', '46.6', '2', '0', '0.0', '2', '1', '50.0', '0', '0', '4', '5', '30', '5', '10', '27']"
"['', '15301', '2011-12-08', '03:30:00 GMT', '27', 'DAL', 'Dallas', 'Stars', '26', 'SJS', 'San Jose', 'Sharks', '9', 'HP Pavilion at San Jose', '27', 'DAL', 'Dallas', 'Stars', '0', '1', '0', '0', '0', '0', '0', '0', '23', '31', '42.6', '3', '1', '33.3', '3', '0', '100.0', '0', '0', '2', '5', '18', '7', '22', '25']"
"['', '15317', '2011-12-10', '03:30:00 GMT', '27', 'DAL', 'Dallas', 'Stars', '28', 'LAK', 'Los Angeles', 'Kings', '25', 'Staples Center', '27', 'DAL', 'Dallas', 'Stars', '1', '0', '0', '0', '0', '0', '1', '2', '28', '31', '47.5', '6', '1', '16.7', '3', '0', '100.0', '0', '1', '2', '1', '26', '6', '15', '26']"
"['', '15324', '2011-12-13', '00:00:00 GMT', '27', 'DAL', 'Dallas', 'Stars', '9', 'NYR', 'New York', 'Rangers', '12', 'Madison Square Garden', '27', 'DAL', 'Dallas', 'Stars', '1', '0', '0', '0', '0', '0', '1', '2', '27', '25', '51.9', '2', '0', '0.0', '4', '0', '100.0', '0', '0', '1', '0', '27', '6', '15', '22']"
"['', '15336', '2011-12-15', '00:00:00 GMT', '27', 'DAL', 'Dallas', 'Stars', '8', 'NYI', 'New York', 'Islanders', '16', 'Nassau Veterans Memorial Coliseum', '27', 'DAL', 'Dallas', 'Stars', '1', '0', '0', '0', '0', '0', '1', '2', '32', '26', '55.2', '6', '1', '16.7', '3', '0', '100.0', '0', '0', '3', '2', '26', '5', '10', '26']"
"['', '15346', '2011-12-16', '01:00:00 GMT', '27', 'DAL', 'Dallas', 'Stars', '7', 'NJD', 'New Jersey', 'Devils', '5', 'Izod Center', '27', 'DAL', 'Dallas', 'Stars', '0', '1', '0', '0', '0', '0', '0', '0', '35', '28', '55.6', '4', '0', '0.0', '2', '0', '100.0', '0', '1', '3', '6', '33', '2', '4', '20']"
"['', '15368', '2011-12-19', '01:00:00 GMT', '29', 'ANA', 'Anaheim', 'Ducks', '27', 'DAL', 'Dallas', 'Stars', '2', 'American Airlines Center', '27', 'DAL', 'Dallas', 'Stars', '1', '0', '0', '0', '0', '0', '1', '2', '32', '25', '56.1', '5', '1', '20.0', '2', '2', '0.0', '0', '0', '5', '3', '28', '4', '16', '25']"
"['', '15381', '2011-12-21', '00:30:00 GMT', '6', 'PHI', 'Philadelphia', 'Flyers', '27', 'DAL', 'Dallas', 'Stars', '2', 'American Airlines Center', '27', 'DAL', 'Dallas', 'Stars', '0', '1', '0', '0', '0', '0', '0', '0', '36', '25', '59.0', '3', '0', '0.0', '5', '2', '60.0', '0', '0', '1', '4', '30', '8', '32', '30']"
"['', '15399', '2011-12-23', '01:30:00 GMT', '18', 'NSH', 'Nashville', 'Predators', '27', 'DAL', 'Dallas', 'Stars', '2', 'American Airlines Center', '27', 'DAL', 'Dallas', 'Stars', '1', '0', '0', '0', '0', '0', '1', '2', '28', '29', '49.1', '3', '0', '0.0', '5', '2', '60.0', '0', '0', '6', '3', '23', '5', '10', '22']"
"['', '15408', '2011-12-26', '01:00:00 GMT', '27', 'DAL', 'Dallas', 'Stars', '17', 'STL', 'St. Louis', 'Blues', '24', 'Scottrade Center', '27', 'DAL', 'Dallas', 'Stars', '0', '1', '0', '0', '0', '0', '0', '0', '25', '26', '49.0', '2', '0', '0.0', '2', '2', '0.0', '0', '0', '3', '5', '20', '4', '11', '13']"
"['', '15433', '2011-12-29', '01:30:00 GMT', '19', 'CBJ', 'Columbus', 'Blue Jackets', '27', 'DAL', 'Dallas', 'Stars', '2', 'American Airlines Center', '27', 'DAL', 'Dallas', 'Stars', '0', '1', '0', '0', '0', '0', '0', '0', '25', '32', '43.9', '3', '0', '0.0', '2', '0', '100.0', '0', '0', '1', '4', '36', '3', '6', '19']"
"['', '15450', '2011-12-31', '01:00:00 GMT', '11', 'BOS', 'Boston', 'Bruins', '27', 'DAL', 'Dallas', 'Stars', '2', 'American Airlines Center', '27', 'DAL', 'Dallas', 'Stars', '1', '0', '0', '0', '0', '0', '1', '2', '30', '27', '52.6', '6', '2', '33.3', '1', '0', '100.0', '0', '0', '4', '2', '23', '4', '11', '36']"
"['', '15464', '2012-01-03', '01:00:00 GMT', '16', 'DET', 'Detroit', 'Red Wings', '27', 'DAL', 'Dallas', 'Stars', '2', 'American Airlines Center', '27', 'DAL', 'Dallas', 'Stars', '0', '1', '0', '0', '0', '0', '0', '0', '34', '23', '59.6', '1', '0', '0.0', '0', '0', '0.0', '0', '0', '4', '5', '25', '0', '0', '29']"
"['', '15475', '2012-01-05', '01:00:00 GMT', '27', 'DAL', 'Dallas', 'Stars', '18', 'NSH', 'Nashville', 'Predators', '15', 'Bridgestone Arena', '27', 'DAL', 'Dallas', 'Stars', '1', '0', '0', '0', '0', '0', '1', '2', '22', '35', '38.6', '4', '0', '0.0', '3', '0', '100.0', '0', '0', '4', '1', '26', '5', '13', '12']"
"['', '15485', '2012-01-07', '19:00:00 GMT', '24', 'EDM', 'Edmonton', 'Oilers', '27', 'DAL', 'Dallas', 'Stars', '2', 'American Airlines Center', '27', 'DAL', 'Dallas', 'Stars', '1', '0', '0', '0', '0', '0', '1', '2', '30', '21', '58.8', '2', '0', '0.0', '2', '0', '100.0', '0', '0', '4', '1', '30', '3', '9', '20']"
"['', '15513', '2012-01-10', '03:00:00 GMT', '27', 'DAL', 'Dallas', 'Stars', '29', 'ANA', 'Anaheim', 'Ducks', '8', 'Honda Center', '27', 'DAL', 'Dallas', 'Stars', '0', '1', '0', '0', '0', '0', '0', '0', '29', '23', '55.8', '3', '0', '0.0', '2', '0', '100.0', '0', '0', '2', '5', '26', '3', '6', '27']"
"['', '15526', '2012-01-12', '03:30:00 GMT', '27', 'DAL', 'Dallas', 'Stars', '28', 'LAK', 'Los Angeles', 'Kings', '25', 'Staples Center', '27', 'DAL', 'Dallas', 'Stars', '1', '0', '0', '0', '0', '0', '0', '2', '33', '28', '54.1', '4', '0', '0.0', '6', '3', '50.0', '0', '0', '4', '4', '34', '10', '23', '37']"
"['', '15533', '2012-01-14', '20:00:00 GMT', '22', 'COL', 'Colorado', 'Avalanche', '27', 'DAL', 'Dallas', 'Stars', '2', 'American Airlines Center', '27', 'DAL', 'Dallas', 'Stars', '0', '1', '0', '0', '0', '0', '0', '0', '27', '32', '45.8', '3', '0', '0.0', '3', '1', '66.7', '0', '0', '1', '2', '21', '4', '8', '34']"
"['', '15554', '2012-01-16', '00:30:00 GMT', '27', 'DAL', 'Dallas', 'Stars', '17', 'STL', 'St. Louis', 'Blues', '24', 'Scottrade Center', '27', 'DAL', 'Dallas', 'Stars', '0', '1', '0', '0', '0', '0', '0', '0', '22', '36', '37.9', '2', '0', '0.0', '4', '0', '100.0', '0', '0', '0', '1', '22', '6', '15', '19']"
"['', '15563', '2012-01-17', '01:30:00 GMT', '16', 'DET', 'Detroit', 'Red Wings', '27', 'DAL', 'Dallas', 'Stars', '2', 'American Airlines Center', '27', 'DAL', 'Dallas', 'Stars', '0', '0', '0', '1', '0', '0', '0', '1', '34', '27', '55.7', '2', '1', '50.0', '3', '0', '100.0', '0', '0', '2', '2', '25', '4', '8', '29']"
"['', '15583', '2012-01-20', '01:30:00 GMT', '1', 'TBL', 'Tampa Bay', 'Lightning', '27', 'DAL', 'Dallas', 'Stars', '2', 'American Airlines Center', '27', 'DAL', 'Dallas', 'Stars', '0', '1', '0', '0', '0', '0', '0', '0', '35', '31', '53.0', '4', '0', '0.0', '2', '0', '100.0', '0', '0', '1', '2', '27', '4', '11', '23']"
"['', '15595', '2012-01-21', '02:00:00 GMT', '27', 'DAL', 'Dallas', 'Stars', '25', 'MIN', 'Minnesota', 'Wild', '30', 'Xcel Energy Center', '27', 'DAL', 'Dallas', 'Stars', '0', '1', '0', '0', '0', '0', '0', '0', '27', '33', '45.0', '1', '0', '0.0', '3', '1', '66.7', '0', '0', '2', '5', '23', '5', '13', '19']"
"['', '15615', '2012-01-24', '01:30:00 GMT', '29', 'ANA', 'Anaheim', 'Ducks', '27', 'DAL', 'Dallas', 'Stars', '2', 'American Airlines Center', '27', 'DAL', 'Dallas', 'Stars', '1', '0', '0', '0', '0', '0', '1', '2', '26', '27', '49.1', '0', '0', '0.0', '2', '0', '100.0', '0', '0', '1', '0', '15', '4', '11', '21']"
"['', '15637', '2012-02-01', '03:30:00 GMT', '27', 'DAL', 'Dallas', 'Stars', '29', 'ANA', 'Anaheim', 'Ducks', '8', 'Honda Center', '27', 'DAL', 'Dallas', 'Stars', '1', '0', '0', '0', '0', '0', '1', '2', '28', '29', '49.1', '3', '1', '33.3', '4', '0', '100.0', '0', '0', '6', '2', '20', '4', '8', '33']"
"['', '15646', '2012-02-02', '03:30:00 GMT', '27', 'DAL', 'Dallas', 'Stars', '26', 'SJS', 'San Jose', 'Sharks', '9', 'HP Pavilion at San Jose', '27', 'DAL', 'Dallas', 'Stars', '0', '1', '0', '0', '0', '0', '0', '0', '12', '40', '23.1', '2', '1', '50.0', '5', '2', '60.0', '0', '0', '2', '5', '19', '6', '12', '33']"
"['', '15661', '2012-02-04', '01:00:00 GMT', '25', 'MIN', 'Minnesota', 'Wild', '27', 'DAL', 'Dallas', 'Stars', '2', 'American Airlines Center', '27', 'DAL', 'Dallas', 'Stars', '1', '0', '0', '0', '0', '0', '0', '2', '32', '27', '54.2', '2', '1', '50.0', '4', '0', '100.0', '0', '0', '1', '1', '25', '4', '8', '30']"
"['', '15680', '2012-02-07', '01:30:00 GMT', '30', 'PHX', 'Phoenix', 'Coyotes', '27', 'DAL', 'Dallas', 'Stars', '2', 'American Airlines Center', '27', 'DAL', 'Dallas', 'Stars', '0', '1', '0', '0', '0', '0', '0', '0', '24', '24', '50.0', '4', '0', '0.0', '1', '0', '100.0', '0', '0', '1', '4', '28', '1', '2', '26']"
"['', '15691', '2012-02-09', '00:00:00 GMT', '27', 'DAL', 'Dallas', 'Stars', '19', 'CBJ', 'Columbus', 'Blue Jackets', '17', 'Nationwide Arena', '27', 'DAL', 'Dallas', 'Stars', '1', '0', '0', '0', '0', '0', '1', '2', '24', '29', '45.3', '3', '0', '0.0', '3', '2', '33.3', '0', '0', '4', '2', '31', '3', '6', '12']"
"['', '15697', '2012-02-10', '00:30:00 GMT', '27', 'DAL', 'Dallas', 'Stars', '15', 'BUF', 'Buffalo', 'Sabres', '10', 'First Niagara Center', '27', 'DAL', 'Dallas', 'Stars', '0', '0', '0', '1', '0', '0', '0', '1', '27', '38', '41.5', '4', '1', '25.0', '2', '1', '50.0', '0', '0', '2', '2', '24', '2', '4', '25']"
"['', '15716', '2012-02-12', '23:00:00 GMT', '28', 'LAK', 'Los Angeles', 'Kings', '27', 'DAL', 'Dallas', 'Stars', '2', 'American Airlines Center', '27', 'DAL', 'Dallas', 'Stars', '0', '1', '0', '0', '0', '0', '0', '0', '22', '25', '46.8', '3', '0', '0.0', '2', '1', '50.0', '0', '0', '2', '4', '26', '4', '8', '32']"
"['', '15726', '2012-02-14', '00:30:00 GMT', '27', 'DAL', 'Dallas', 'Stars', '16', 'DET', 'Detroit', 'Red Wings', '11', 'Joe Louis Arena', '27', 'DAL', 'Dallas', 'Stars', '0', '1', '0', '0', '0', '0', '0', '0', '27', '22', '55.1', '2', '0', '0.0', '5', '1', '80.0', '0', '0', '1', '3', '20', '7', '22', '22']"
"['', '15741', '2012-02-16', '01:30:00 GMT', '23', 'CGY', 'Calgary', 'Flames', '27', 'DAL', 'Dallas', 'Stars', '2', 'American Airlines Center', '27', 'DAL', 'Dallas', 'Stars', '1', '0', '0', '0', '0', '0', '1', '2', '34', '28', '54.8', '0', '1', '0.0', '3', '0', '100.0', '0', '0', '3', '2', '29', '5', '10', '29']"
"['', '15756', '2012-02-18', '01:00:00 GMT', '27', 'DAL', 'Dallas', 'Stars', '30', 'PHX', 'Phoenix', 'Coyotes', '6', 'Jobing.com Arena', '27', 'DAL', 'Dallas', 'Stars', '0', '0', '0', '1', '0', '0', '0', '1', '27', '23', '54.0', '4', '1', '25.0', '5', '0', '100.0', '0', '0', '1', '2', '30', '5', '10', '28']"
"['', '15765', '2012-02-19', '00:00:00 GMT', '18', 'NSH', 'Nashville', 'Predators', '27', 'DAL', 'Dallas', 'Stars', '2', 'American Airlines Center', '27', 'DAL', 'Dallas', 'Stars', '0', '1', '0', '0', '0', '0', '0', '0', '25', '27', '48.1', '1', '0', '0.0', '2', '1', '50.0', '0', '0', '2', '3', '22', '2', '4', '38']"
"['', '15774', '2012-02-21', '00:30:00 GMT', '27', 'DAL', 'Dallas', 'Stars', '14', 'MTL', 'Montreal', 'Canadiens', '4', 'Bell Centre', '27', 'DAL', 'Dallas', 'Stars', '1', '0', '0', '0', '0', '0', '1', '2', '23', '26', '46.9', '1', '0', '0.0', '4', '0', '100.0', '0', '0', '3', '0', '33', '4', '8', '21']"
"['', '15790', '2012-02-23', '01:30:00 GMT', '27', 'DAL', 'Dallas', 'Stars', '20', 'CHI', 'Chicago', 'Blackhawks', '28', 'United Center', '27', 'DAL', 'Dallas', 'Stars', '1', '0', '0', '0', '0', '0', '1', '2', '27', '29', '48.2', '0', '0', '0.0', '1', '0', '100.0', '0', '0', '3', '1', '22', '1', '2', '41']"
"['', '15798', '2012-02-24', '01:30:00 GMT', '25', 'MIN', 'Minnesota', 'Wild', '27', 'DAL', 'Dallas', 'Stars', '2', 'American Airlines Center', '27', 'DAL', 'Dallas', 'Stars', '1', '0', '0', '0', '0', '0', '1', '2', '27', '36', '42.9', '2', '0', '0.0', '5', '1', '80.0', '0', '0', '4', '1', '21', '6', '12', '20']"
"['', '15812', '2012-02-26', '20:00:00 GMT', '21', 'VAN', 'Vancouver', 'Canucks', '27', 'DAL', 'Dallas', 'Stars', '2', 'American Airlines Center', '27', 'DAL', 'Dallas', 'Stars', '1', '0', '0', '0', '0', '0', '1', '2', '24', '31', '43.6', '2', '1', '50.0', '2', '0', '100.0', '0', '0', '3', '2', '25', '2', '4', '29']"
"['', '15831', '2012-02-29', '00:30:00 GMT', '10', 'PIT', 'Pittsburgh', 'Penguins', '27', 'DAL', 'Dallas', 'Stars', '2', 'American Airlines Center', '27', 'DAL', 'Dallas', 'Stars', '0', '0', '0', '1', '0', '0', '0', '1', '37', '36', '50.7', '3', '0', '0.0', '5', '0', '100.0', '0', '0', '3', '3', '30', '6', '12', '39']"
"['', '15848', '2012-03-02', '02:30:00 GMT', '27', 'DAL', 'Dallas', 'Stars', '24', 'EDM', 'Edmonton', 'Oilers', '22', 'Rogers Place', '27', 'DAL', 'Dallas', 'Stars', '1', '0', '0', '0', '0', '0', '1', '2', '0', '0', '0.0', '2', '0', '0.0', '0', '0', '0.0', '0', '0', '3', '1', '0', '0', '0', '0']"
"['', '15863', '2012-03-04', '23:00:00 GMT', '27', 'DAL', 'Dallas', 'Stars', '23', 'CGY', 'Calgary', 'Flames', '18', 'Scotiabank Saddledome', '27', 'DAL', 'Dallas', 'Stars', '1', '0', '0', '0', '0', '0', '0', '2', '40', '42', '48.8', '3', '1', '33.3', '4', '0', '100.0', '1', '0', '2', '2', '38', '5', '13', '18']"
"['', '15879', '2012-03-06', '03:00:00 GMT', '27', 'DAL', 'Dallas', 'Stars', '21', 'VAN', 'Vancouver', 'Canucks', '7', 'Rogers Arena', '27', 'DAL', 'Dallas', 'Stars', '1', '0', '0', '0', '0', '0', '1', '2', '23', '39', '37.1', '4', '1', '25.0', '2', '0', '100.0', '0', '0', '5', '2', '24', '5', '18', '32']"
"['', '15891', '2012-03-08', '01:30:00 GMT', '26', 'SJS', 'San Jose', 'Sharks', '27', 'DAL', 'Dallas', 'Stars', '2', 'American Airlines Center', '27', 'DAL', 'Dallas', 'Stars', '1', '0', '0', '0', '0', '0', '0', '2', '28', '36', '43.8', '2', '0', '0.0', '3', '0', '100.0', '0', '0', '3', '3', '32', '3', '6', '32']"
"['', '15907', '2012-03-10', '01:00:00 GMT', '29', 'ANA', 'Anaheim', 'Ducks', '27', 'DAL', 'Dallas', 'Stars', '2', 'American Airlines Center', '27', 'DAL', 'Dallas', 'Stars', '1', '0', '0', '0', '0', '0', '1', '2', '23', '26', '46.9', '4', '1', '25.0', '4', '0', '100.0', '0', '0', '2', '0', '21', '5', '10', '21']"
"['', '15927', '2012-03-13', '00:00:00 GMT', '27', 'DAL', 'Dallas', 'Stars', '25', 'MIN', 'Minnesota', 'Wild', '30', 'Xcel Energy Center', '27', 'DAL', 'Dallas', 'Stars', '1', '0', '0', '0', '0', '0', '1', '2', '24', '19', '55.8', '1', '0', '0.0', '3', '0', '100.0', '0', '0', '1', '0', '24', '5', '10', '21']"
"['', '15933', '2012-03-14', '00:30:00 GMT', '27', 'DAL', 'Dallas', 'Stars', '2', 'WPJ', 'Winnipeg', 'Jets', '39', 'MTS Centre', '27', 'DAL', 'Dallas', 'Stars', '0', '1', '0', '0', '0', '0', '0', '0', '34', '37', '47.9', '0', '0', '0.0', '3', '1', '66.7', '0', '0', '2', '5', '28', '7', '30', '36']"
"['', '15947', '2012-03-16', '00:30:00 GMT', '20', 'CHI', 'Chicago', 'Blackhawks', '27', 'DAL', 'Dallas', 'Stars', '2', 'American Airlines Center', '27', 'DAL', 'Dallas', 'Stars', '0', '1', '0', '0', '0', '0', '0', '0', '25', '33', '43.1', '0', '0', '0.0', '3', '0', '100.0', '0', '0', '1', '4', '21', '4', '8', '41']"
"['', '15978', '2012-03-20', '00:00:00 GMT', '30', 'PHX', 'Phoenix', 'Coyotes', '27', 'DAL', 'Dallas', 'Stars', '2', 'American Airlines Center', '27', 'DAL', 'Dallas', 'Stars', '1', '0', '0', '0', '0', '0', '0', '2', '35', '24', '59.3', '4', '1', '25.0', '3', '1', '66.7', '0', '1', '3', '3', '30', '10', '39', '31']"
"['', '15990', '2012-03-22', '00:30:00 GMT', '21', 'VAN', 'Vancouver', 'Canucks', '27', 'DAL', 'Dallas', 'Stars', '2', 'American Airlines Center', '27', 'DAL', 'Dallas', 'Stars', '0', '1', '0', '0', '0', '0', '0', '0', '36', '25', '59.0', '2', '0', '0.0', '5', '0', '100.0', '0', '0', '1', '2', '24', '9', '21', '33']"
"['', '16000', '2012-03-24', '18:00:00 GMT', '23', 'CGY', 'Calgary', 'Flames', '27', 'DAL', 'Dallas', 'Stars', '2', 'American Airlines Center', '27', 'DAL', 'Dallas', 'Stars', '1', '0', '0', '0', '0', '0', '1', '2', '33', '19', '63.5', '3', '0', '0.0', '4', '0', '100.0', '0', '0', '4', '1', '16', '7', '14', '30']"
"['', '16021', '2012-03-26', '01:00:00 GMT', '27', 'DAL', 'Dallas', 'Stars', '23', 'CGY', 'Calgary', 'Flames', '18', 'Scotiabank Saddledome', '27', 'DAL', 'Dallas', 'Stars', '0', '1', '0', '0', '0', '0', '0', '0', '30', '34', '46.9', '3', '1', '33.3', '5', '3', '40.0', '0', '0', '4', '5', '35', '8', '16', '17']"
"['', '16035', '2012-03-28', '01:30:00 GMT', '27', 'DAL', 'Dallas', 'Stars', '24', 'EDM', 'Edmonton', 'Oilers', '22', 'Rogers Place', '27', 'DAL', 'Dallas', 'Stars', '1', '0', '0', '0', '0', '0', '1', '2', '31', '27', '53.4', '4', '0', '0.0', '4', '0', '100.0', '0', '0', '3', '1', '22', '4', '8', '11']"
"['', '16052', '2012-03-30', '02:00:00 GMT', '27', 'DAL', 'Dallas', 'Stars', '21', 'VAN', 'Vancouver', 'Canucks', '7', 'Rogers Arena', '27', 'DAL', 'Dallas', 'Stars', '0', '1', '0', '0', '0', '0', '0', '0', '23', '31', '42.6', '1', '0', '0.0', '2', '1', '50.0', '0', '0', '2', '5', '28', '3', '6', '23']"
"['', '16064', '2012-03-31', '02:30:00 GMT', '27', 'DAL', 'Dallas', 'Stars', '26', 'SJS', 'San Jose', 'Sharks', '9', 'HP Pavilion at San Jose', '27', 'DAL', 'Dallas', 'Stars', '0', '1', '0', '0', '0', '0', '0', '0', '23', '30', '43.4', '2', '0', '0.0', '6', '1', '83.3', '0', '0', '0', '3', '22', '9', '32', '42']"
"['', '16080', '2012-04-03', '00:30:00 GMT', '26', 'SJS', 'San Jose', 'Sharks', '27', 'DAL', 'Dallas', 'Stars', '2', 'American Airlines Center', '27', 'DAL', 'Dallas', 'Stars', '0', '1', '0', '0', '0', '0', '0', '0', '32', '34', '48.5', '2', '0', '0.0', '4', '1', '75.0', '0', '0', '2', '5', '29', '5', '18', '35']"
"['', '16093', '2012-04-05', '00:00:00 GMT', '27', 'DAL', 'Dallas', 'Stars', '18', 'NSH', 'Nashville', 'Predators', '15', 'Bridgestone Arena', '27', 'DAL', 'Dallas', 'Stars', '0', '1', '0', '0', '0', '0', '0', '0', '27', '32', '45.8', '4', '0', '0.0', '2', '0', '100.0', '0', '0', '0', '2', '28', '2', '4', '13']"
"['', '16111', '2012-04-07', '00:00:00 GMT', '17', 'STL', 'St. Louis', 'Blues', '27', 'DAL', 'Dallas', 'Stars', '2', 'American Airlines Center', '27', 'DAL', 'Dallas', 'Stars', '0', '1', '0', '0', '0', '0', '0', '0', '28', '29', '49.1', '3', '0', '0.0', '5', '2', '60.0', '0', '0', '2', '3', '33', '8', '19', '23']"
