"['#Date/Time of Update: 2018-12-10 19:03:17 GMT', '#Game ID', '#Game Date', '#Game Time', '#Away Team ID', '#Away Team Abbr.', '#Away Team City', '#Away Team Name', '#Home Team ID', '#Home Team Abbr.', '#Home Team City', '#Home Team Name', '#Venue ID', '#Venue Name', '#Team ID', '#Team Abbr.', '#Team City', '#Team Name', '#Wins', '#Losses', '#OvertimeWins', '#OvertimeLosses', '#ShootoutWins', '#ShootoutLosses', '#Rows', '#Points', '#FaceoffWins', '#FaceoffLosses', '#FaceoffPercent', '#Powerplays', '#PowerplayGoals', '#PowerplayPercent', '#PenaltyKills', '#PenaltyKillGoalsAllowed', '#PenaltyKillPercent', '#ShorthandedGoalsFor', '#ShorthandedGoalsAgainst', '#GoalsFor', '#GoalsAgainst', '#Shots', '#Penalties', '#PenaltyMinutes', '#Hits']"
"['', '29048', '2015-10-10', '02:30:00 GMT', '29', 'ANA', 'Anaheim', 'Ducks', '26', 'SJS', 'San Jose', 'Sharks', '9', 'SAP Center at San Jose', '29', 'ANA', 'Anaheim', 'Ducks', '0', '1', '0', '0', '0', '0', '0', '0', '32', '26', '55.2', '1', '0', '0.0', '1', '0', '100.0', '0', '0', '0', '2', '27', '1', '2', '22']"
"['', '29054', '2015-10-12', '02:00:00 GMT', '21', 'VAN', 'Vancouver', 'Canucks', '29', 'ANA', 'Anaheim', 'Ducks', '8', 'Honda Center', '29', 'ANA', 'Anaheim', 'Ducks', '0', '0', '0', '1', '0', '0', '0', '1', '19', '22', '46.3', '2', '0', '0.0', '1', '0', '100.0', '0', '0', '1', '1', '29', '3', '9', '26']"
"['', '29067', '2015-10-14', '02:30:00 GMT', '30', 'ARI', 'Arizona', 'Coyotes', '29', 'ANA', 'Anaheim', 'Ducks', '8', 'Honda Center', '29', 'ANA', 'Anaheim', 'Ducks', '0', '1', '0', '0', '0', '0', '0', '0', '35', '27', '56.5', '2', '0', '0.0', '6', '1', '83.3', '0', '0', '0', '4', '37', '7', '17', '23']"
"['', '29081', '2015-10-16', '02:00:00 GMT', '22', 'COL', 'Colorado', 'Avalanche', '29', 'ANA', 'Anaheim', 'Ducks', '8', 'Honda Center', '29', 'ANA', 'Anaheim', 'Ducks', '0', '1', '0', '0', '0', '0', '0', '0', '32', '31', '50.8', '4', '0', '0.0', '2', '0', '100.0', '0', '0', '0', '3', '35', '4', '8', '20']"
"['', '29095', '2015-10-18', '00:00:00 GMT', '25', 'MIN', 'Minnesota', 'Wild', '29', 'ANA', 'Anaheim', 'Ducks', '8', 'Honda Center', '29', 'ANA', 'Anaheim', 'Ducks', '1', '0', '0', '0', '0', '0', '1', '2', '33', '37', '47.1', '2', '0', '0.0', '1', '0', '100.0', '0', '0', '4', '1', '22', '1', '2', '20']"
"['', '29113', '2015-10-22', '00:00:00 GMT', '29', 'ANA', 'Anaheim', 'Ducks', '18', 'NSH', 'Nashville', 'Predators', '15', 'Bridgestone Arena', '29', 'ANA', 'Anaheim', 'Ducks', '0', '1', '0', '0', '0', '0', '0', '0', '35', '26', '57.4', '5', '1', '20.0', '3', '1', '66.7', '0', '0', '1', '5', '28', '5', '10', '20']"
"['', '29124', '2015-10-24', '22:00:00 GMT', '29', 'ANA', 'Anaheim', 'Ducks', '25', 'MIN', 'Minnesota', 'Wild', '30', 'Xcel Energy Center', '29', 'ANA', 'Anaheim', 'Ducks', '0', '1', '0', '0', '0', '0', '0', '0', '26', '37', '41.3', '1', '0', '0.0', '5', '0', '100.0', '0', '1', '0', '3', '15', '5', '10', '22']"
"['', '29141', '2015-10-26', '00:30:00 GMT', '29', 'ANA', 'Anaheim', 'Ducks', '20', 'CHI', 'Chicago', 'Blackhawks', '28', 'United Center', '29', 'ANA', 'Anaheim', 'Ducks', '0', '0', '0', '1', '0', '0', '0', '1', '34', '24', '58.6', '2', '0', '0.0', '3', '0', '100.0', '0', '0', '0', '1', '39', '7', '25', '26']"
"['', '29150', '2015-10-27', '00:30:00 GMT', '29', 'ANA', 'Anaheim', 'Ducks', '27', 'DAL', 'Dallas', 'Stars', '2', 'American Airlines Center', '29', 'ANA', 'Anaheim', 'Ducks', '0', '1', '0', '0', '0', '0', '0', '0', '32', '32', '50.0', '4', '1', '25.0', '3', '1', '66.7', '0', '1', '3', '4', '20', '4', '11', '25']"
"['', '29159', '2015-10-29', '00:00:00 GMT', '29', 'ANA', 'Anaheim', 'Ducks', '17', 'STL', 'St. Louis', 'Blues', '24', 'Scottrade Center', '29', 'ANA', 'Anaheim', 'Ducks', '0', '1', '0', '0', '0', '0', '0', '0', '26', '38', '40.6', '3', '1', '33.3', '4', '0', '100.0', '0', '0', '1', '2', '23', '7', '17', '25']"
"['', '29186', '2015-11-01', '01:00:00 GMT', '18', 'NSH', 'Nashville', 'Predators', '29', 'ANA', 'Anaheim', 'Ducks', '8', 'Honda Center', '29', 'ANA', 'Anaheim', 'Ducks', '1', '0', '0', '0', '0', '0', '1', '2', '32', '29', '52.5', '2', '0', '0.0', '5', '1', '80.0', '0', '0', '4', '2', '28', '7', '14', '19']"
"['', '29202', '2015-11-04', '03:30:00 GMT', '4', 'FLO', 'Florida', 'Panthers', '29', 'ANA', 'Anaheim', 'Ducks', '8', 'Honda Center', '29', 'ANA', 'Anaheim', 'Ducks', '1', '0', '0', '0', '0', '0', '0', '2', '39', '32', '54.9', '5', '1', '20.0', '3', '0', '100.0', '0', '0', '2', '2', '39', '3', '6', '29']"
"['', '29217', '2015-11-06', '03:00:00 GMT', '19', 'CBJ', 'Columbus', 'Blue Jackets', '29', 'ANA', 'Anaheim', 'Ducks', '8', 'Honda Center', '29', 'ANA', 'Anaheim', 'Ducks', '1', '0', '0', '0', '0', '0', '1', '2', '35', '21', '62.5', '3', '1', '33.3', '2', '0', '100.0', '0', '0', '4', '2', '34', '4', '8', '28']"
"['', '29228', '2015-11-07', '03:30:00 GMT', '29', 'ANA', 'Anaheim', 'Ducks', '26', 'SJS', 'San Jose', 'Sharks', '9', 'SAP Center at San Jose', '29', 'ANA', 'Anaheim', 'Ducks', '1', '0', '0', '0', '0', '0', '1', '2', '27', '38', '41.5', '1', '0', '0.0', '4', '0', '100.0', '0', '0', '1', '0', '17', '7', '28', '28']"
"['', '29233', '2015-11-09', '03:00:00 GMT', '30', 'ARI', 'Arizona', 'Coyotes', '29', 'ANA', 'Anaheim', 'Ducks', '8', 'Honda Center', '29', 'ANA', 'Anaheim', 'Ducks', '0', '0', '0', '1', '0', '0', '0', '1', '21', '33', '38.9', '4', '1', '25.0', '5', '1', '80.0', '0', '0', '3', '4', '36', '5', '10', '40']"
"['', '29247', '2015-11-11', '03:00:00 GMT', '24', 'EDM', 'Edmonton', 'Oilers', '29', 'ANA', 'Anaheim', 'Ducks', '8', 'Honda Center', '29', 'ANA', 'Anaheim', 'Ducks', '0', '0', '0', '1', '0', '0', '0', '1', '33', '29', '53.2', '2', '1', '50.0', '2', '1', '50.0', '0', '0', '3', '4', '37', '3', '9', '31']"
"['', '29263', '2015-11-13', '03:00:00 GMT', '8', 'NYI', 'New York', 'Islanders', '29', 'ANA', 'Anaheim', 'Ducks', '8', 'Honda Center', '29', 'ANA', 'Anaheim', 'Ducks', '0', '1', '0', '0', '0', '0', '0', '0', '34', '26', '56.7', '3', '1', '33.3', '5', '0', '100.0', '0', '0', '1', '4', '25', '7', '17', '36']"
"['', '29280', '2015-11-16', '00:00:00 GMT', '29', 'ANA', 'Anaheim', 'Ducks', '3', 'CAR', 'Carolina', 'Hurricanes', '21', 'RBC Center', '29', 'ANA', 'Anaheim', 'Ducks', '1', '0', '0', '0', '0', '0', '1', '2', '23', '30', '43.4', '0', '0', '0.0', '3', '0', '100.0', '0', '0', '4', '1', '20', '3', '6', '34']"
"['', '29291', '2015-11-17', '01:00:00 GMT', '29', 'ANA', 'Anaheim', 'Ducks', '18', 'NSH', 'Nashville', 'Predators', '15', 'Bridgestone Arena', '29', 'ANA', 'Anaheim', 'Ducks', '0', '1', '0', '0', '0', '0', '0', '0', '27', '26', '50.9', '5', '0', '0.0', '6', '1', '83.3', '0', '0', '2', '3', '40', '8', '19', '14']"
"['', '29303', '2015-11-19', '00:30:00 GMT', '29', 'ANA', 'Anaheim', 'Ducks', '4', 'FLO', 'Florida', 'Panthers', '3', 'BB&T Center', '29', 'ANA', 'Anaheim', 'Ducks', '1', '0', '0', '0', '0', '0', '1', '2', '27', '27', '50.0', '3', '1', '33.3', '3', '0', '100.0', '1', '0', '3', '1', '41', '4', '11', '39']"
"['', '29313', '2015-11-21', '00:00:00 GMT', '29', 'ANA', 'Anaheim', 'Ducks', '1', 'TBL', 'Tampa Bay', 'Lightning', '26', 'Amalie Arena', '29', 'ANA', 'Anaheim', 'Ducks', '0', '1', '0', '0', '0', '0', '0', '0', '34', '25', '57.6', '1', '0', '0.0', '4', '2', '50.0', '0', '0', '0', '5', '30', '7', '14', '33']"
"['', '29334', '2015-11-24', '03:00:00 GMT', '23', 'CGY', 'Calgary', 'Flames', '29', 'ANA', 'Anaheim', 'Ducks', '8', 'Honda Center', '29', 'ANA', 'Anaheim', 'Ducks', '1', '0', '0', '0', '0', '0', '1', '2', '34', '23', '59.6', '2', '2', '100.0', '2', '0', '100.0', '0', '0', '5', '3', '32', '3', '9', '29']"
"['', '29345', '2015-11-25', '02:00:00 GMT', '29', 'ANA', 'Anaheim', 'Ducks', '30', 'ARI', 'Arizona', 'Coyotes', '6', 'Gila River Arena', '29', 'ANA', 'Anaheim', 'Ducks', '0', '1', '0', '0', '0', '0', '0', '0', '27', '39', '40.9', '3', '2', '66.7', '3', '1', '66.7', '0', '0', '2', '4', '31', '4', '8', '45']"
"['', '29351', '2015-11-27', '22:00:00 GMT', '20', 'CHI', 'Chicago', 'Blackhawks', '29', 'ANA', 'Anaheim', 'Ducks', '8', 'Honda Center', '29', 'ANA', 'Anaheim', 'Ducks', '0', '0', '0', '1', '0', '0', '0', '1', '43', '31', '58.1', '3', '0', '0.0', '4', '1', '75.0', '0', '0', '2', '3', '25', '5', '10', '28']"
"['', '29376', '2015-11-30', '03:00:00 GMT', '21', 'VAN', 'Vancouver', 'Canucks', '29', 'ANA', 'Anaheim', 'Ducks', '8', 'Honda Center', '29', 'ANA', 'Anaheim', 'Ducks', '1', '0', '0', '0', '0', '0', '1', '2', '37', '23', '61.7', '3', '1', '33.3', '3', '0', '100.0', '0', '0', '4', '0', '30', '3', '8', '36']"
"['', '29390', '2015-12-02', '03:30:00 GMT', '1', 'TBL', 'Tampa Bay', 'Lightning', '29', 'ANA', 'Anaheim', 'Ducks', '8', 'Honda Center', '29', 'ANA', 'Anaheim', 'Ducks', '0', '1', '0', '0', '0', '0', '0', '0', '33', '30', '52.4', '4', '0', '0.0', '4', '1', '75.0', '0', '0', '1', '2', '33', '4', '8', '30']"
"['', '29405', '2015-12-04', '03:00:00 GMT', '26', 'SJS', 'San Jose', 'Sharks', '29', 'ANA', 'Anaheim', 'Ducks', '8', 'Honda Center', '29', 'ANA', 'Anaheim', 'Ducks', '1', '0', '0', '0', '0', '0', '1', '2', '25', '27', '48.1', '4', '0', '0.0', '4', '0', '100.0', '0', '0', '1', '0', '26', '5', '13', '30']"
"['', '29421', '2015-12-06', '01:00:00 GMT', '10', 'PIT', 'Pittsburgh', 'Penguins', '29', 'ANA', 'Anaheim', 'Ducks', '8', 'Honda Center', '29', 'ANA', 'Anaheim', 'Ducks', '1', '0', '0', '0', '0', '0', '1', '2', '34', '22', '60.7', '1', '0', '0.0', '2', '0', '100.0', '0', '0', '2', '1', '25', '3', '6', '25']"
"['', '29452', '2015-12-11', '03:00:00 GMT', '3', 'CAR', 'Carolina', 'Hurricanes', '29', 'ANA', 'Anaheim', 'Ducks', '8', 'Honda Center', '29', 'ANA', 'Anaheim', 'Ducks', '0', '1', '0', '0', '0', '0', '0', '0', '27', '29', '48.2', '1', '0', '0.0', '3', '1', '66.7', '0', '0', '1', '5', '32', '4', '22', '18']"
"['', '29484', '2015-12-17', '00:00:00 GMT', '29', 'ANA', 'Anaheim', 'Ducks', '15', 'BUF', 'Buffalo', 'Sabres', '10', 'First Niagara Center', '29', 'ANA', 'Anaheim', 'Ducks', '0', '1', '0', '0', '0', '0', '0', '0', '30', '36', '45.5', '3', '0', '0.0', '3', '0', '100.0', '0', '0', '0', '3', '44', '4', '8', '16']"
"['', '29504', '2015-12-19', '00:00:00 GMT', '29', 'ANA', 'Anaheim', 'Ducks', '7', 'NJD', 'New Jersey', 'Devils', '37', 'Prudential Center', '29', 'ANA', 'Anaheim', 'Ducks', '1', '0', '0', '0', '0', '0', '1', '2', '20', '27', '42.6', '0', '0', '0.0', '2', '0', '100.0', '0', '0', '2', '1', '18', '2', '4', '22']"
"['', '29517', '2015-12-21', '00:00:00 GMT', '29', 'ANA', 'Anaheim', 'Ducks', '8', 'NYI', 'New York', 'Islanders', '16', 'Nassau Veterans Memorial Coliseum', '29', 'ANA', 'Anaheim', 'Ducks', '0', '1', '0', '0', '0', '0', '0', '0', '30', '23', '56.6', '1', '0', '0.0', '3', '0', '100.0', '0', '0', '2', '5', '29', '5', '13', '29']"
"['', '29526', '2015-12-22', '00:00:00 GMT', '29', 'ANA', 'Anaheim', 'Ducks', '9', 'NYR', 'New York', 'Rangers', '12', 'Madison Square Garden', '29', 'ANA', 'Anaheim', 'Ducks', '0', '0', '0', '1', '0', '0', '0', '1', '35', '28', '55.6', '4', '0', '0.0', '5', '1', '80.0', '0', '0', '2', '3', '19', '7', '20', '18']"
"['', '29551', '2015-12-27', '01:00:00 GMT', '6', 'PHI', 'Philadelphia', 'Flyers', '29', 'ANA', 'Anaheim', 'Ducks', '8', 'Honda Center', '29', 'ANA', 'Anaheim', 'Ducks', '1', '0', '0', '0', '0', '0', '1', '2', '37', '19', '66.1', '3', '2', '66.7', '5', '1', '80.0', '1', '0', '4', '2', '37', '8', '27', '27']"
"['', '29566', '2015-12-29', '02:00:00 GMT', '29', 'ANA', 'Anaheim', 'Ducks', '23', 'CGY', 'Calgary', 'Flames', '18', 'Scotiabank Saddledome', '29', 'ANA', 'Anaheim', 'Ducks', '1', '0', '0', '0', '0', '0', '1', '2', '18', '26', '40.9', '2', '0', '0.0', '3', '0', '100.0', '0', '0', '1', '0', '21', '7', '25', '13']"
"['', '29581', '2015-12-31', '02:00:00 GMT', '29', 'ANA', 'Anaheim', 'Ducks', '24', 'EDM', 'Edmonton', 'Oilers', '22', 'Rogers Place', '29', 'ANA', 'Anaheim', 'Ducks', '1', '0', '0', '0', '0', '0', '1', '2', '25', '32', '43.9', '2', '1', '50.0', '3', '0', '100.0', '0', '0', '1', '0', '35', '5', '13', '25']"
"['', '29584', '2016-01-01', '03:00:00 GMT', '29', 'ANA', 'Anaheim', 'Ducks', '21', 'VAN', 'Vancouver', 'Canucks', '7', 'Rogers Arena', '29', 'ANA', 'Anaheim', 'Ducks', '0', '0', '0', '1', '0', '0', '0', '1', '32', '19', '62.7', '2', '1', '50.0', '3', '0', '100.0', '0', '0', '1', '1', '28', '3', '6', '16']"
"['', '29600', '2016-01-03', '02:00:00 GMT', '2', 'WPJ', 'Winnipeg', 'Jets', '29', 'ANA', 'Anaheim', 'Ducks', '8', 'Honda Center', '29', 'ANA', 'Anaheim', 'Ducks', '1', '0', '0', '0', '0', '0', '1', '2', '36', '25', '59.0', '2', '2', '100.0', '4', '0', '100.0', '0', '0', '4', '1', '35', '7', '17', '22']"
"['', '29618', '2016-01-06', '03:00:00 GMT', '12', 'TOR', 'Toronto', 'Maple Leafs', '29', 'ANA', 'Anaheim', 'Ducks', '8', 'Honda Center', '29', 'ANA', 'Anaheim', 'Ducks', '0', '1', '0', '0', '0', '0', '0', '0', '34', '30', '53.1', '1', '0', '0.0', '6', '0', '100.0', '0', '0', '0', '4', '39', '10', '31', '14']"
"['', '29631', '2016-01-08', '03:00:00 GMT', '17', 'STL', 'St. Louis', 'Blues', '29', 'ANA', 'Anaheim', 'Ducks', '8', 'Honda Center', '29', 'ANA', 'Anaheim', 'Ducks', '1', '0', '0', '0', '0', '0', '0', '2', '35', '40', '46.7', '5', '1', '20.0', '4', '0', '100.0', '0', '0', '3', '3', '39', '5', '13', '29']"
"['', '29646', '2016-01-10', '01:00:00 GMT', '16', 'DET', 'Detroit', 'Red Wings', '29', 'ANA', 'Anaheim', 'Ducks', '8', 'Honda Center', '29', 'ANA', 'Anaheim', 'Ducks', '0', '1', '0', '0', '0', '0', '0', '0', '22', '26', '45.8', '2', '0', '0.0', '3', '0', '100.0', '0', '0', '1', '2', '31', '3', '6', '24']"
"['', '29663', '2016-01-13', '03:00:00 GMT', '13', 'OTT', 'Ottawa', 'Senators', '29', 'ANA', 'Anaheim', 'Ducks', '8', 'Honda Center', '29', 'ANA', 'Anaheim', 'Ducks', '1', '0', '0', '0', '0', '0', '1', '2', '38', '19', '66.7', '3', '1', '33.3', '2', '0', '100.0', '0', '0', '4', '1', '38', '4', '14', '25']"
"['', '29677', '2016-01-15', '03:00:00 GMT', '27', 'DAL', 'Dallas', 'Stars', '29', 'ANA', 'Anaheim', 'Ducks', '8', 'Honda Center', '29', 'ANA', 'Anaheim', 'Ducks', '1', '0', '0', '0', '0', '0', '1', '2', '33', '36', '47.8', '3', '1', '33.3', '4', '1', '75.0', '0', '1', '4', '2', '35', '4', '8', '32']"
"['', '29694', '2016-01-17', '02:00:00 GMT', '28', 'LAK', 'Los Angeles', 'Kings', '29', 'ANA', 'Anaheim', 'Ducks', '8', 'Honda Center', '29', 'ANA', 'Anaheim', 'Ducks', '0', '1', '0', '0', '0', '0', '0', '0', '36', '36', '50.0', '3', '0', '0.0', '2', '1', '50.0', '0', '0', '2', '3', '32', '4', '14', '39']"
"['', '29710', '2016-01-20', '03:30:00 GMT', '25', 'MIN', 'Minnesota', 'Wild', '29', 'ANA', 'Anaheim', 'Ducks', '8', 'Honda Center', '29', 'ANA', 'Anaheim', 'Ducks', '1', '0', '0', '0', '0', '0', '1', '2', '26', '30', '46.4', '1', '0', '0.0', '3', '0', '100.0', '0', '0', '3', '1', '27', '3', '6', '28']"
"['', '29731', '2016-01-23', '00:00:00 GMT', '29', 'ANA', 'Anaheim', 'Ducks', '16', 'DET', 'Detroit', 'Red Wings', '11', 'Joe Louis Arena', '29', 'ANA', 'Anaheim', 'Ducks', '1', '0', '0', '0', '0', '0', '1', '2', '28', '36', '43.8', '4', '0', '0.0', '4', '0', '100.0', '0', '0', '4', '3', '35', '4', '8', '19']"
"['', '29749', '2016-01-26', '00:00:00 GMT', '29', 'ANA', 'Anaheim', 'Ducks', '11', 'BOS', 'Boston', 'Bruins', '27', 'TD Garden', '29', 'ANA', 'Anaheim', 'Ducks', '1', '0', '0', '0', '0', '0', '1', '2', '31', '34', '47.7', '4', '1', '25.0', '4', '0', '100.0', '0', '0', '6', '2', '39', '6', '15', '15']"
"['', '29773', '2016-02-02', '03:00:00 GMT', '26', 'SJS', 'San Jose', 'Sharks', '29', 'ANA', 'Anaheim', 'Ducks', '8', 'Honda Center', '29', 'ANA', 'Anaheim', 'Ducks', '1', '0', '0', '0', '0', '0', '1', '2', '30', '27', '52.6', '4', '0', '0.0', '3', '0', '100.0', '1', '0', '3', '2', '25', '3', '6', '25']"
"['', '29788', '2016-02-04', '03:30:00 GMT', '29', 'ANA', 'Anaheim', 'Ducks', '28', 'LAK', 'Los Angeles', 'Kings', '25', 'Staples Center', '29', 'ANA', 'Anaheim', 'Ducks', '1', '0', '0', '0', '0', '0', '1', '2', '31', '26', '54.4', '5', '1', '20.0', '2', '1', '50.0', '0', '0', '4', '2', '24', '3', '6', '27']"
"['', '29792', '2016-02-05', '03:00:00 GMT', '30', 'ARI', 'Arizona', 'Coyotes', '29', 'ANA', 'Anaheim', 'Ducks', '8', 'Honda Center', '29', 'ANA', 'Anaheim', 'Ducks', '1', '0', '0', '0', '0', '0', '1', '2', '34', '32', '51.5', '7', '1', '14.3', '5', '1', '80.0', '0', '0', '5', '2', '41', '5', '10', '31']"
"['', '29809', '2016-02-08', '00:00:00 GMT', '29', 'ANA', 'Anaheim', 'Ducks', '10', 'PIT', 'Pittsburgh', 'Penguins', '40', 'Consol Energy Center', '29', 'ANA', 'Anaheim', 'Ducks', '0', '1', '0', '0', '0', '0', '0', '0', '28', '45', '38.4', '1', '0', '0.0', '3', '0', '100.0', '0', '0', '2', '6', '38', '2', '12', '40']"
"['', '29815', '2016-02-09', '00:00:00 GMT', '29', 'ANA', 'Anaheim', 'Ducks', '6', 'PHI', 'Philadelphia', 'Flyers', '29', 'Wells Fargo Center', '29', 'ANA', 'Anaheim', 'Ducks', '1', '0', '0', '0', '0', '0', '1', '2', '24', '28', '46.2', '4', '1', '25.0', '7', '1', '85.7', '0', '0', '4', '1', '26', '9', '23', '26']"
"['', '29829', '2016-02-11', '00:00:00 GMT', '29', 'ANA', 'Anaheim', 'Ducks', '19', 'CBJ', 'Columbus', 'Blue Jackets', '17', 'Nationwide Arena', '29', 'ANA', 'Anaheim', 'Ducks', '0', '0', '0', '1', '0', '0', '0', '1', '30', '19', '61.2', '2', '0', '0.0', '4', '1', '75.0', '0', '0', '3', '3', '27', '5', '13', '20']"
"['', '29850', '2016-02-13', '01:30:00 GMT', '29', 'ANA', 'Anaheim', 'Ducks', '20', 'CHI', 'Chicago', 'Blackhawks', '28', 'United Center', '29', 'ANA', 'Anaheim', 'Ducks', '1', '0', '0', '0', '0', '0', '1', '2', '36', '26', '58.1', '3', '1', '33.3', '2', '1', '50.0', '0', '0', '3', '2', '44', '3', '6', '52']"
"['', '29859', '2016-02-15', '21:00:00 GMT', '29', 'ANA', 'Anaheim', 'Ducks', '23', 'CGY', 'Calgary', 'Flames', '18', 'Scotiabank Saddledome', '29', 'ANA', 'Anaheim', 'Ducks', '1', '0', '0', '0', '0', '0', '1', '2', '30', '27', '52.6', '3', '3', '100.0', '5', '2', '60.0', '0', '0', '6', '4', '28', '6', '12', '17']"
"['', '29872', '2016-02-16', '02:00:00 GMT', '29', 'ANA', 'Anaheim', 'Ducks', '24', 'EDM', 'Edmonton', 'Oilers', '22', 'Rogers Place', '29', 'ANA', 'Anaheim', 'Ducks', '1', '0', '0', '0', '0', '0', '1', '2', '28', '30', '48.3', '4', '1', '25.0', '4', '2', '50.0', '1', '0', '5', '3', '31', '4', '8', '31']"
"['', '29886', '2016-02-18', '03:00:00 GMT', '29', 'ANA', 'Anaheim', 'Ducks', '21', 'VAN', 'Vancouver', 'Canucks', '7', 'Rogers Arena', '29', 'ANA', 'Anaheim', 'Ducks', '1', '0', '0', '0', '0', '0', '1', '2', '36', '29', '55.4', '3', '1', '33.3', '4', '1', '75.0', '0', '0', '5', '2', '33', '5', '10', '22']"
"['', '29905', '2016-02-21', '00:00:00 GMT', '23', 'CGY', 'Calgary', 'Flames', '29', 'ANA', 'Anaheim', 'Ducks', '8', 'Honda Center', '29', 'ANA', 'Anaheim', 'Ducks', '1', '0', '0', '0', '0', '0', '1', '2', '29', '28', '50.9', '4', '2', '50.0', '5', '1', '80.0', '0', '0', '5', '2', '33', '7', '14', '23']"
"['', '29923', '2016-02-24', '03:30:00 GMT', '15', 'BUF', 'Buffalo', 'Sabres', '29', 'ANA', 'Anaheim', 'Ducks', '8', 'Honda Center', '29', 'ANA', 'Anaheim', 'Ducks', '1', '0', '0', '0', '0', '0', '1', '2', '36', '25', '59.0', '3', '1', '33.3', '4', '0', '100.0', '0', '0', '1', '0', '29', '4', '8', '32']"
"['', '29937', '2016-02-26', '03:00:00 GMT', '24', 'EDM', 'Edmonton', 'Oilers', '29', 'ANA', 'Anaheim', 'Ducks', '8', 'Honda Center', '29', 'ANA', 'Anaheim', 'Ducks', '1', '0', '0', '0', '0', '0', '1', '2', '16', '24', '40.0', '3', '1', '33.3', '3', '0', '100.0', '0', '0', '2', '1', '34', '3', '6', '33']"
"['', '29953', '2016-02-28', '02:00:00 GMT', '28', 'LAK', 'Los Angeles', 'Kings', '29', 'ANA', 'Anaheim', 'Ducks', '8', 'Honda Center', '29', 'ANA', 'Anaheim', 'Ducks', '1', '0', '0', '0', '0', '0', '1', '2', '33', '23', '58.9', '5', '3', '60.0', '4', '1', '75.0', '0', '0', '4', '2', '29', '6', '12', '41']"
"['', '29971', '2016-03-02', '03:00:00 GMT', '14', 'MTL', 'Montreal', 'Canadiens', '29', 'ANA', 'Anaheim', 'Ducks', '8', 'Honda Center', '29', 'ANA', 'Anaheim', 'Ducks', '1', '0', '0', '0', '0', '0', '0', '2', '27', '35', '43.5', '4', '1', '25.0', '3', '0', '100.0', '0', '0', '2', '2', '35', '5', '13', '39']"
"['', '29981', '2016-03-03', '02:00:00 GMT', '29', 'ANA', 'Anaheim', 'Ducks', '30', 'ARI', 'Arizona', 'Coyotes', '6', 'Gila River Arena', '29', 'ANA', 'Anaheim', 'Ducks', '1', '0', '0', '0', '0', '0', '1', '2', '28', '27', '50.9', '8', '3', '37.5', '6', '1', '83.3', '0', '0', '5', '1', '21', '12', '38', '30']"
"['', '29990', '2016-03-05', '21:00:00 GMT', '29', 'ANA', 'Anaheim', 'Ducks', '28', 'LAK', 'Los Angeles', 'Kings', '25', 'Staples Center', '29', 'ANA', 'Anaheim', 'Ducks', '1', '0', '0', '0', '0', '0', '1', '2', '30', '29', '50.8', '2', '2', '100.0', '6', '2', '66.7', '0', '0', '3', '2', '22', '11', '44', '31']"
"['', '30009', '2016-03-07', '03:00:00 GMT', '5', 'WSH', 'Washington', 'Capitals', '29', 'ANA', 'Anaheim', 'Ducks', '8', 'Honda Center', '29', 'ANA', 'Anaheim', 'Ducks', '0', '0', '0', '1', '0', '0', '0', '1', '29', '22', '56.9', '4', '0', '0.0', '4', '0', '100.0', '0', '0', '1', '1', '28', '4', '8', '43']"
"['', '30022', '2016-03-09', '03:00:00 GMT', '29', 'ANA', 'Anaheim', 'Ducks', '22', 'COL', 'Colorado', 'Avalanche', '19', 'Pepsi Center', '29', 'ANA', 'Anaheim', 'Ducks', '0', '1', '0', '0', '0', '0', '0', '0', '30', '23', '56.6', '3', '0', '0.0', '2', '0', '100.0', '0', '0', '0', '3', '37', '4', '8', '20']"
"['', '30033', '2016-03-11', '01:00:00 GMT', '29', 'ANA', 'Anaheim', 'Ducks', '17', 'STL', 'St. Louis', 'Blues', '24', 'Scottrade Center', '29', 'ANA', 'Anaheim', 'Ducks', '0', '1', '0', '0', '0', '0', '0', '0', '17', '35', '32.7', '3', '1', '33.3', '3', '0', '100.0', '0', '0', '2', '5', '28', '4', '8', '16']"
"['', '30056', '2016-03-14', '02:00:00 GMT', '7', 'NJD', 'New Jersey', 'Devils', '29', 'ANA', 'Anaheim', 'Ducks', '8', 'Honda Center', '29', 'ANA', 'Anaheim', 'Ducks', '1', '0', '0', '0', '0', '0', '1', '2', '42', '17', '71.2', '3', '1', '33.3', '4', '0', '100.0', '0', '0', '7', '1', '27', '4', '8', '24']"
"['', '30070', '2016-03-16', '02:30:00 GMT', '9', 'NYR', 'New York', 'Rangers', '29', 'ANA', 'Anaheim', 'Ducks', '8', 'Honda Center', '29', 'ANA', 'Anaheim', 'Ducks', '0', '1', '0', '0', '0', '0', '0', '0', '25', '30', '45.5', '0', '0', '0.0', '3', '0', '100.0', '0', '0', '1', '2', '23', '3', '6', '21']"
"['', '30084', '2016-03-18', '02:00:00 GMT', '11', 'BOS', 'Boston', 'Bruins', '29', 'ANA', 'Anaheim', 'Ducks', '8', 'Honda Center', '29', 'ANA', 'Anaheim', 'Ducks', '1', '0', '0', '0', '0', '0', '1', '2', '25', '22', '53.2', '2', '0', '0.0', '2', '0', '100.0', '0', '0', '4', '0', '26', '4', '11', '29']"
"['', '30096', '2016-03-20', '19:00:00 GMT', '29', 'ANA', 'Anaheim', 'Ducks', '2', 'WPJ', 'Winnipeg', 'Jets', '39', 'MTS Centre', '29', 'ANA', 'Anaheim', 'Ducks', '1', '0', '0', '0', '0', '0', '1', '2', '37', '26', '58.7', '2', '1', '50.0', '3', '0', '100.0', '0', '0', '3', '2', '33', '4', '11', '22']"
"['', '30109', '2016-03-22', '23:30:00 GMT', '29', 'ANA', 'Anaheim', 'Ducks', '14', 'MTL', 'Montreal', 'Canadiens', '4', 'Bell Centre', '29', 'ANA', 'Anaheim', 'Ducks', '0', '1', '0', '0', '0', '0', '0', '0', '36', '22', '62.1', '2', '0', '0.0', '1', '0', '100.0', '0', '0', '3', '4', '35', '2', '7', '38']"
"['', '30122', '2016-03-24', '23:30:00 GMT', '29', 'ANA', 'Anaheim', 'Ducks', '12', 'TOR', 'Toronto', 'Maple Leafs', '1', 'Air Canada Center', '29', 'ANA', 'Anaheim', 'Ducks', '0', '0', '0', '1', '0', '0', '0', '1', '29', '31', '48.3', '4', '2', '50.0', '5', '3', '40.0', '1', '0', '5', '6', '38', '6', '20', '43']"
"['', '30853', '2016-03-26', '23:00:00 GMT', '29', 'ANA', 'Anaheim', 'Ducks', '13', 'OTT', 'Ottawa', 'Senators', '23', 'Canadian Tire Centre', '29', 'ANA', 'Anaheim', 'Ducks', '1', '0', '0', '0', '0', '0', '1', '2', '25', '31', '44.6', '4', '1', '25.0', '4', '0', '100.0', '0', '0', '4', '3', '39', '6', '18', '35']"
"['', '30155', '2016-03-28', '01:00:00 GMT', '29', 'ANA', 'Anaheim', 'Ducks', '24', 'EDM', 'Edmonton', 'Oilers', '22', 'Rogers Place', '29', 'ANA', 'Anaheim', 'Ducks', '1', '0', '0', '0', '0', '0', '1', '2', '25', '33', '43.1', '4', '0', '0.0', '3', '0', '100.0', '0', '0', '2', '1', '25', '3', '6', '32']"
"['', '30169', '2016-03-30', '02:00:00 GMT', '23', 'CGY', 'Calgary', 'Flames', '29', 'ANA', 'Anaheim', 'Ducks', '8', 'Honda Center', '29', 'ANA', 'Anaheim', 'Ducks', '1', '0', '0', '0', '0', '0', '1', '2', '38', '25', '60.3', '3', '1', '33.3', '3', '1', '66.7', '0', '0', '8', '3', '27', '5', '18', '15']"
"['', '30184', '2016-04-01', '02:00:00 GMT', '21', 'VAN', 'Vancouver', 'Canucks', '29', 'ANA', 'Anaheim', 'Ducks', '8', 'Honda Center', '29', 'ANA', 'Anaheim', 'Ducks', '0', '1', '0', '0', '0', '0', '0', '0', '31', '28', '52.5', '1', '0', '0.0', '2', '0', '100.0', '0', '0', '2', '3', '36', '3', '6', '30']"
"['', '30200', '2016-04-03', '01:00:00 GMT', '27', 'DAL', 'Dallas', 'Stars', '29', 'ANA', 'Anaheim', 'Ducks', '8', 'Honda Center', '29', 'ANA', 'Anaheim', 'Ducks', '1', '0', '0', '0', '0', '0', '1', '2', '29', '20', '59.2', '2', '0', '0.0', '4', '0', '100.0', '2', '0', '3', '1', '24', '5', '10', '34']"
"['', '30216', '2016-04-05', '02:00:00 GMT', '2', 'WPJ', 'Winnipeg', 'Jets', '29', 'ANA', 'Anaheim', 'Ducks', '8', 'Honda Center', '29', 'ANA', 'Anaheim', 'Ducks', '0', '0', '0', '1', '0', '0', '0', '1', '35', '22', '61.4', '4', '1', '25.0', '3', '0', '100.0', '0', '0', '1', '2', '28', '3', '6', '30']"
"['', '30231', '2016-04-07', '02:30:00 GMT', '29', 'ANA', 'Anaheim', 'Ducks', '28', 'LAK', 'Los Angeles', 'Kings', '25', 'Staples Center', '29', 'ANA', 'Anaheim', 'Ducks', '0', '1', '0', '0', '0', '0', '0', '0', '34', '33', '50.7', '3', '0', '0.0', '3', '0', '100.0', '0', '0', '1', '2', '20', '7', '17', '34']"
"['', '30237', '2016-04-09', '21:30:00 GMT', '29', 'ANA', 'Anaheim', 'Ducks', '22', 'COL', 'Colorado', 'Avalanche', '19', 'Pepsi Center', '29', 'ANA', 'Anaheim', 'Ducks', '1', '0', '0', '0', '0', '0', '1', '2', '31', '30', '50.8', '3', '2', '66.7', '6', '1', '83.3', '0', '0', '5', '3', '31', '7', '16', '19']"
"['', '30249', '2016-04-10', '23:30:00 GMT', '29', 'ANA', 'Anaheim', 'Ducks', '5', 'WSH', 'Washington', 'Capitals', '13', 'Verizon Center', '29', 'ANA', 'Anaheim', 'Ducks', '1', '0', '0', '0', '0', '0', '1', '2', '31', '18', '63.3', '3', '0', '0.0', '3', '0', '100.0', '0', '0', '2', '0', '21', '5', '13', '15']"
