"['#Date/Time of Update: 2018-12-10 19:02:53 GMT', '#Game ID', '#Game Date', '#Game Time', '#Away Team ID', '#Away Team Abbr.', '#Away Team City', '#Away Team Name', '#Home Team ID', '#Home Team Abbr.', '#Home Team City', '#Home Team Name', '#Venue ID', '#Venue Name', '#Team ID', '#Team Abbr.', '#Team City', '#Team Name', '#Wins', '#Losses', '#OvertimeWins', '#OvertimeLosses', '#ShootoutWins', '#ShootoutLosses', '#Points', '#FaceoffWins', '#FaceoffLosses', '#FaceoffPercent', '#Powerplays', '#PowerplayGoals', '#PowerplayPercent', '#PenaltyKills', '#PenaltyKillGoalsAllowed', '#PenaltyKillPercent', '#ShorthandedGoalsFor', '#ShorthandedGoalsAgainst', '#GoalsFor', '#GoalsAgainst', '#Shots', '#Penalties', '#PenaltyMinutes', '#Hits']"
"['', '3821', '2008-10-09', '02:30:00 GMT', '23', 'CGY', 'Calgary', 'Flames', '21', 'VAN', 'Vancouver', 'Canucks', '7', 'General Motors Place', '21', 'VAN', 'Vancouver', 'Canucks', '1', '0', '0', '0', '0', '0', '2', '30', '33', '47.6', '9', '1', '11.1', '5', '0', '100.0', '1', '0', '6', '0', '17', '8', '19', '18']"
"['', '3839', '2008-10-11', '02:00:00 GMT', '21', 'VAN', 'Vancouver', 'Canucks', '23', 'CGY', 'Calgary', 'Flames', '18', 'Pengrowth Saddledome', '21', 'VAN', 'Vancouver', 'Canucks', '1', '0', '0', '0', '0', '0', '2', '36', '38', '48.6', '4', '0', '0.0', '6', '0', '100.0', '0', '0', '5', '4', '29', '11', '31', '20']"
"['', '3850', '2008-10-13', '23:00:00 GMT', '21', 'VAN', 'Vancouver', 'Canucks', '5', 'WSH', 'Washington', 'Capitals', '13', 'Verizon Center', '21', 'VAN', 'Vancouver', 'Canucks', '0', '1', '0', '0', '0', '0', '0', '30', '29', '50.8', '3', '1', '33.3', '4', '1', '75.0', '0', '0', '1', '5', '9', '4', '8', '26']"
"['', '3863', '2008-10-16', '23:30:00 GMT', '21', 'VAN', 'Vancouver', 'Canucks', '16', 'DET', 'Detroit', 'Red Wings', '11', 'Joe Louis Arena', '21', 'VAN', 'Vancouver', 'Canucks', '1', '0', '0', '0', '0', '0', '2', '24', '34', '41.4', '2', '0', '0.0', '5', '2', '60.0', '0', '0', '4', '3', '25', '6', '12', '14']"
"['', '3872', '2008-10-17', '23:30:00 GMT', '21', 'VAN', 'Vancouver', 'Canucks', '15', 'BUF', 'Buffalo', 'Sabres', '10', 'HSBC Arena', '21', 'VAN', 'Vancouver', 'Canucks', '0', '1', '0', '0', '0', '0', '0', '24', '24', '50.0', '3', '0', '0.0', '6', '2', '66.7', '0', '0', '2', '5', '23', '8', '27', '17']"
"['', '3889', '2008-10-19', '23:00:00 GMT', '21', 'VAN', 'Vancouver', 'Canucks', '20', 'CHI', 'Chicago', 'Blackhawks', '28', 'United Center', '21', 'VAN', 'Vancouver', 'Canucks', '0', '1', '0', '0', '0', '0', '0', '22', '24', '47.8', '4', '0', '0.0', '4', '2', '50.0', '0', '0', '2', '4', '28', '10', '26', '14']"
"['', '3897', '2008-10-21', '23:00:00 GMT', '21', 'VAN', 'Vancouver', 'Canucks', '19', 'CBJ', 'Columbus', 'Blue Jackets', '17', 'Nationwide Arena', '21', 'VAN', 'Vancouver', 'Canucks', '0', '1', '0', '0', '0', '0', '0', '28', '22', '56.0', '3', '1', '33.3', '3', '1', '66.7', '0', '0', '2', '4', '23', '6', '18', '28']"
"['', '3931', '2008-10-25', '02:00:00 GMT', '24', 'EDM', 'Edmonton', 'Oilers', '21', 'VAN', 'Vancouver', 'Canucks', '7', 'General Motors Place', '21', 'VAN', 'Vancouver', 'Canucks', '1', '0', '0', '0', '0', '0', '2', '38', '26', '59.4', '9', '4', '44.4', '3', '0', '100.0', '0', '0', '6', '3', '24', '7', '20', '8']"
"['', '3944', '2008-10-28', '02:00:00 GMT', '11', 'BOS', 'Boston', 'Bruins', '21', 'VAN', 'Vancouver', 'Canucks', '7', 'General Motors Place', '21', 'VAN', 'Vancouver', 'Canucks', '0', '1', '0', '0', '0', '0', '0', '30', '27', '52.6', '3', '0', '0.0', '2', '0', '100.0', '0', '0', '0', '1', '31', '2', '4', '10']"
"['', '3959', '2008-10-30', '02:30:00 GMT', '21', 'VAN', 'Vancouver', 'Canucks', '28', 'LAK', 'Los Angeles', 'Kings', '25', 'Staples Center', '21', 'VAN', 'Vancouver', 'Canucks', '1', '0', '0', '0', '0', '0', '2', '26', '23', '53.1', '5', '2', '40.0', '7', '0', '100.0', '0', '0', '4', '0', '14', '9', '18', '17']"
"['', '3962', '2008-10-31', '02:00:00 GMT', '21', 'VAN', 'Vancouver', 'Canucks', '29', 'ANA', 'Anaheim', 'Ducks', '8', 'Honda Center', '21', 'VAN', 'Vancouver', 'Canucks', '1', '0', '0', '0', '0', '0', '2', '32', '36', '47.1', '5', '2', '40.0', '7', '3', '57.1', '1', '0', '6', '6', '23', '13', '29', '18']"
"['', '3980', '2008-11-02', '03:00:00 GMT', '16', 'DET', 'Detroit', 'Red Wings', '21', 'VAN', 'Vancouver', 'Canucks', '7', 'General Motors Place', '21', 'VAN', 'Vancouver', 'Canucks', '0', '1', '0', '0', '0', '0', '0', '30', '29', '50.8', '7', '0', '0.0', '5', '3', '40.0', '0', '0', '2', '3', '25', '6', '15', '16']"
"['', '3988', '2008-11-04', '03:00:00 GMT', '18', 'NSH', 'Nashville', 'Predators', '21', 'VAN', 'Vancouver', 'Canucks', '7', 'General Motors Place', '21', 'VAN', 'Vancouver', 'Canucks', '1', '0', '0', '0', '0', '0', '2', '32', '29', '52.5', '6', '2', '33.3', '5', '0', '100.0', '0', '0', '4', '0', '35', '7', '17', '16']"
"['', '4002', '2008-11-06', '03:00:00 GMT', '30', 'PHX', 'Phoenix', 'Coyotes', '21', 'VAN', 'Vancouver', 'Canucks', '7', 'General Motors Place', '21', 'VAN', 'Vancouver', 'Canucks', '1', '0', '0', '0', '0', '0', '2', '33', '30', '52.4', '7', '0', '0.0', '2', '0', '100.0', '0', '0', '1', '0', '31', '5', '13', '10']"
"['', '4019', '2008-11-08', '03:00:00 GMT', '25', 'MIN', 'Minnesota', 'Wild', '21', 'VAN', 'Vancouver', 'Canucks', '7', 'General Motors Place', '21', 'VAN', 'Vancouver', 'Canucks', '1', '0', '0', '0', '0', '0', '2', '26', '25', '51.0', '6', '1', '16.7', '3', '0', '100.0', '0', '0', '2', '0', '27', '5', '13', '16']"
"['', '4040', '2008-11-12', '03:00:00 GMT', '22', 'COL', 'Colorado', 'Avalanche', '21', 'VAN', 'Vancouver', 'Canucks', '7', 'General Motors Place', '21', 'VAN', 'Vancouver', 'Canucks', '0', '0', '0', '1', '0', '0', '1', '36', '26', '58.1', '4', '0', '0.0', '5', '1', '80.0', '0', '0', '1', '1', '31', '5', '10', '14']"
"['', '4059', '2008-11-15', '00:00:00 GMT', '12', 'TOR', 'Toronto', 'Maple Leafs', '21', 'VAN', 'Vancouver', 'Canucks', '7', 'General Motors Place', '21', 'VAN', 'Vancouver', 'Canucks', '1', '0', '0', '0', '0', '0', '2', '29', '33', '46.8', '6', '1', '16.7', '6', '1', '83.3', '0', '0', '4', '2', '11', '12', '33', '16']"
"['', '4070', '2008-11-17', '00:00:00 GMT', '21', 'VAN', 'Vancouver', 'Canucks', '8', 'NYI', 'New York', 'Islanders', '16', 'Nassau Veterans Memorial Coliseum', '21', 'VAN', 'Vancouver', 'Canucks', '0', '0', '0', '1', '0', '0', '1', '34', '25', '57.6', '4', '0', '0.0', '4', '1', '75.0', '0', '0', '1', '1', '31', '6', '15', '17']"
"['', '4082', '2008-11-19', '00:30:00 GMT', '21', 'VAN', 'Vancouver', 'Canucks', '9', 'NYR', 'New York', 'Rangers', '12', 'Madison Square Garden', '21', 'VAN', 'Vancouver', 'Canucks', '1', '0', '0', '0', '0', '0', '2', '34', '30', '53.1', '3', '1', '33.3', '5', '2', '60.0', '1', '0', '6', '3', '27', '6', '12', '22']"
"['', '4087', '2008-11-20', '01:00:00 GMT', '21', 'VAN', 'Vancouver', 'Canucks', '25', 'MIN', 'Minnesota', 'Wild', '30', 'Xcel Energy Center', '21', 'VAN', 'Vancouver', 'Canucks', '1', '0', '0', '0', '0', '0', '2', '22', '27', '44.9', '4', '1', '25.0', '3', '0', '100.0', '0', '1', '3', '2', '24', '4', '11', '17']"
"['', '4098', '2008-11-22', '18:00:00 GMT', '21', 'VAN', 'Vancouver', 'Canucks', '10', 'PIT', 'Pittsburgh', 'Penguins', '14', 'Mellon Arena', '21', 'VAN', 'Vancouver', 'Canucks', '1', '0', '0', '0', '0', '0', '2', '24', '28', '46.2', '2', '0', '0.0', '4', '0', '100.0', '0', '0', '3', '1', '16', '13', '51', '24']"
"['', '4117', '2008-11-24', '03:00:00 GMT', '16', 'DET', 'Detroit', 'Red Wings', '21', 'VAN', 'Vancouver', 'Canucks', '7', 'General Motors Place', '21', 'VAN', 'Vancouver', 'Canucks', '1', '0', '0', '0', '0', '0', '2', '32', '27', '54.2', '3', '1', '33.3', '3', '1', '66.7', '0', '0', '3', '2', '21', '4', '11', '14']"
"['', '4135', '2008-11-27', '03:00:00 GMT', '23', 'CGY', 'Calgary', 'Flames', '21', 'VAN', 'Vancouver', 'Canucks', '7', 'General Motors Place', '21', 'VAN', 'Vancouver', 'Canucks', '0', '1', '0', '0', '0', '0', '0', '26', '27', '49.1', '4', '0', '0.0', '2', '1', '50.0', '0', '0', '3', '4', '27', '3', '9', '19']"
"['', '4158', '2008-11-29', '03:00:00 GMT', '21', 'VAN', 'Vancouver', 'Canucks', '23', 'CGY', 'Calgary', 'Flames', '18', 'Pengrowth Saddledome', '21', 'VAN', 'Vancouver', 'Canucks', '0', '1', '0', '0', '0', '0', '0', '28', '27', '50.9', '3', '0', '0.0', '5', '1', '80.0', '0', '0', '1', '3', '17', '6', '15', '9']"
"['', '4164', '2008-12-01', '00:00:00 GMT', '21', 'VAN', 'Vancouver', 'Canucks', '19', 'CBJ', 'Columbus', 'Blue Jackets', '17', 'Nationwide Arena', '21', 'VAN', 'Vancouver', 'Canucks', '0', '1', '0', '0', '0', '0', '0', '28', '26', '51.9', '4', '2', '50.0', '8', '1', '87.5', '0', '0', '2', '3', '30', '9', '21', '28']"
"['', '4183', '2008-12-04', '00:30:00 GMT', '21', 'VAN', 'Vancouver', 'Canucks', '16', 'DET', 'Detroit', 'Red Wings', '11', 'Joe Louis Arena', '21', 'VAN', 'Vancouver', 'Canucks', '0', '1', '0', '0', '0', '0', '0', '30', '33', '47.6', '3', '1', '33.3', '6', '1', '83.3', '0', '0', '5', '6', '20', '7', '14', '17']"
"['', '4189', '2008-12-05', '01:00:00 GMT', '21', 'VAN', 'Vancouver', 'Canucks', '25', 'MIN', 'Minnesota', 'Wild', '30', 'Xcel Energy Center', '21', 'VAN', 'Vancouver', 'Canucks', '1', '0', '0', '0', '0', '0', '2', '29', '25', '53.7', '1', '1', '100.0', '2', '0', '100.0', '0', '0', '2', '1', '29', '7', '28', '25']"
"['', '4208', '2008-12-07', '01:00:00 GMT', '21', 'VAN', 'Vancouver', 'Canucks', '22', 'COL', 'Colorado', 'Avalanche', '19', 'Pepsi Center', '21', 'VAN', 'Vancouver', 'Canucks', '0', '0', '0', '1', '0', '0', '1', '48', '22', '68.6', '3', '1', '33.3', '2', '0', '100.0', '0', '0', '4', '4', '34', '5', '13', '16']"
"['', '4217', '2008-12-09', '01:00:00 GMT', '21', 'VAN', 'Vancouver', 'Canucks', '18', 'NSH', 'Nashville', 'Predators', '15', 'Sommet Center', '21', 'VAN', 'Vancouver', 'Canucks', '1', '0', '0', '0', '0', '0', '2', '24', '31', '43.6', '5', '0', '0.0', '6', '1', '83.3', '0', '0', '3', '1', '25', '10', '34', '17']"
"['', '4252', '2008-12-13', '03:00:00 GMT', '21', 'VAN', 'Vancouver', 'Canucks', '24', 'EDM', 'Edmonton', 'Oilers', '22', 'Rogers Place', '21', 'VAN', 'Vancouver', 'Canucks', '0', '1', '0', '0', '0', '0', '0', '33', '25', '56.9', '3', '0', '0.0', '7', '0', '100.0', '0', '0', '0', '3', '23', '14', '45', '11']"
"['', '4256', '2008-12-14', '03:00:00 GMT', '4', 'FLO', 'Florida', 'Panthers', '21', 'VAN', 'Vancouver', 'Canucks', '7', 'General Motors Place', '21', 'VAN', 'Vancouver', 'Canucks', '1', '0', '0', '0', '0', '0', '2', '29', '24', '54.7', '5', '2', '40.0', '3', '0', '100.0', '1', '0', '5', '3', '25', '7', '20', '22']"
"['', '4271', '2008-12-17', '03:00:00 GMT', '24', 'EDM', 'Edmonton', 'Oilers', '21', 'VAN', 'Vancouver', 'Canucks', '7', 'General Motors Place', '21', 'VAN', 'Vancouver', 'Canucks', '1', '0', '0', '0', '0', '0', '2', '30', '26', '53.6', '6', '1', '16.7', '5', '1', '80.0', '0', '0', '4', '2', '24', '9', '29', '13']"
"['', '4297', '2008-12-20', '03:00:00 GMT', '20', 'CHI', 'Chicago', 'Blackhawks', '21', 'VAN', 'Vancouver', 'Canucks', '7', 'General Motors Place', '21', 'VAN', 'Vancouver', 'Canucks', '0', '1', '0', '0', '0', '0', '0', '29', '26', '52.7', '5', '0', '0.0', '4', '0', '100.0', '0', '0', '1', '3', '30', '5', '10', '14']"
"['', '4306', '2008-12-22', '03:00:00 GMT', '29', 'ANA', 'Anaheim', 'Ducks', '21', 'VAN', 'Vancouver', 'Canucks', '7', 'General Motors Place', '21', 'VAN', 'Vancouver', 'Canucks', '1', '0', '0', '0', '0', '0', '2', '22', '32', '40.7', '7', '2', '28.6', '6', '2', '66.7', '0', '0', '4', '3', '22', '11', '36', '13']"
"['', '4319', '2008-12-23', '03:00:00 GMT', '21', 'VAN', 'Vancouver', 'Canucks', '26', 'SJS', 'San Jose', 'Sharks', '9', 'HP Pavilion at San Jose', '21', 'VAN', 'Vancouver', 'Canucks', '0', '1', '0', '0', '0', '0', '0', '22', '32', '40.7', '2', '0', '0.0', '8', '2', '75.0', '0', '0', '0', '5', '33', '8', '16', '17']"
"['', '4327', '2008-12-26', '03:00:00 GMT', '24', 'EDM', 'Edmonton', 'Oilers', '21', 'VAN', 'Vancouver', 'Canucks', '7', 'General Motors Place', '21', 'VAN', 'Vancouver', 'Canucks', '0', '1', '0', '0', '0', '0', '0', '30', '30', '50.0', '5', '1', '20.0', '5', '2', '60.0', '0', '0', '2', '3', '26', '6', '15', '21']"
"['', '4345', '2008-12-28', '03:00:00 GMT', '13', 'OTT', 'Ottawa', 'Senators', '21', 'VAN', 'Vancouver', 'Canucks', '7', 'General Motors Place', '21', 'VAN', 'Vancouver', 'Canucks', '1', '0', '0', '0', '0', '0', '2', '26', '25', '51.0', '4', '0', '0.0', '4', '0', '100.0', '0', '0', '3', '0', '29', '10', '23', '15']"
"['', '4359', '2008-12-30', '03:00:00 GMT', '6', 'PHI', 'Philadelphia', 'Flyers', '21', 'VAN', 'Vancouver', 'Canucks', '7', 'General Motors Place', '21', 'VAN', 'Vancouver', 'Canucks', '0', '1', '0', '0', '0', '0', '0', '21', '23', '47.7', '3', '1', '33.3', '1', '0', '100.0', '0', '0', '2', '3', '29', '2', '7', '14']"
"['', '4371', '2009-01-01', '01:00:00 GMT', '21', 'VAN', 'Vancouver', 'Canucks', '18', 'NSH', 'Nashville', 'Predators', '15', 'Sommet Center', '21', 'VAN', 'Vancouver', 'Canucks', '1', '0', '0', '0', '0', '0', '2', '29', '29', '50.0', '4', '0', '0.0', '3', '0', '100.0', '0', '0', '2', '1', '30', '5', '16', '20']"
"['', '4374', '2009-01-02', '00:30:00 GMT', '21', 'VAN', 'Vancouver', 'Canucks', '2', 'ATL', 'Atlanta', 'Thrashers', '20', 'Philips Arena', '21', 'VAN', 'Vancouver', 'Canucks', '0', '0', '0', '1', '0', '0', '1', '31', '38', '44.9', '3', '1', '33.3', '4', '1', '75.0', '0', '1', '3', '3', '35', '7', '17', '4']"
"['', '4395', '2009-01-04', '03:00:00 GMT', '27', 'DAL', 'Dallas', 'Stars', '21', 'VAN', 'Vancouver', 'Canucks', '7', 'General Motors Place', '21', 'VAN', 'Vancouver', 'Canucks', '0', '0', '0', '1', '0', '0', '1', '36', '20', '64.3', '2', '0', '0.0', '2', '1', '50.0', '0', '0', '2', '2', '33', '3', '6', '12']"
"['', '4410', '2009-01-07', '02:00:00 GMT', '21', 'VAN', 'Vancouver', 'Canucks', '24', 'EDM', 'Edmonton', 'Oilers', '22', 'Rogers Place', '21', 'VAN', 'Vancouver', 'Canucks', '1', '0', '0', '0', '0', '0', '2', '27', '28', '49.1', '4', '0', '0.0', '4', '1', '75.0', '0', '0', '4', '2', '18', '5', '13', '14']"
"['', '4425', '2009-01-09', '03:00:00 GMT', '17', 'STL', 'St. Louis', 'Blues', '21', 'VAN', 'Vancouver', 'Canucks', '7', 'General Motors Place', '21', 'VAN', 'Vancouver', 'Canucks', '0', '1', '0', '0', '0', '0', '0', '23', '34', '40.4', '2', '1', '50.0', '5', '1', '80.0', '0', '0', '4', '6', '18', '5', '10', '15']"
"['', '4437', '2009-01-10', '03:00:00 GMT', '26', 'SJS', 'San Jose', 'Sharks', '21', 'VAN', 'Vancouver', 'Canucks', '7', 'General Motors Place', '21', 'VAN', 'Vancouver', 'Canucks', '0', '1', '0', '0', '0', '0', '0', '27', '30', '47.4', '5', '1', '20.0', '4', '2', '50.0', '0', '0', '2', '4', '24', '6', '12', '7']"
"['', '4453', '2009-01-13', '03:00:00 GMT', '7', 'NJD', 'New Jersey', 'Devils', '21', 'VAN', 'Vancouver', 'Canucks', '7', 'General Motors Place', '21', 'VAN', 'Vancouver', 'Canucks', '0', '1', '0', '0', '0', '0', '0', '26', '24', '52.0', '2', '0', '0.0', '1', '0', '100.0', '0', '0', '3', '5', '26', '2', '4', '13']"
"['', '4466', '2009-01-15', '03:00:00 GMT', '30', 'PHX', 'Phoenix', 'Coyotes', '21', 'VAN', 'Vancouver', 'Canucks', '7', 'General Motors Place', '21', 'VAN', 'Vancouver', 'Canucks', '0', '1', '0', '0', '0', '0', '0', '34', '20', '63.0', '1', '0', '0.0', '4', '2', '50.0', '0', '0', '1', '4', '31', '5', '13', '16']"
"['', '4489', '2009-01-18', '03:00:00 GMT', '19', 'CBJ', 'Columbus', 'Blue Jackets', '21', 'VAN', 'Vancouver', 'Canucks', '7', 'General Motors Place', '21', 'VAN', 'Vancouver', 'Canucks', '0', '0', '0', '1', '0', '0', '1', '32', '30', '51.6', '4', '1', '25.0', '2', '1', '50.0', '0', '0', '5', '5', '25', '8', '30', '14']"
"['', '4504', '2009-01-20', '03:30:00 GMT', '21', 'VAN', 'Vancouver', 'Canucks', '26', 'SJS', 'San Jose', 'Sharks', '9', 'HP Pavilion at San Jose', '21', 'VAN', 'Vancouver', 'Canucks', '0', '0', '0', '1', '0', '0', '1', '29', '17', '63.0', '1', '0', '0.0', '4', '1', '75.0', '0', '0', '1', '2', '13', '5', '10', '13']"
"['', '4528', '2009-01-28', '03:30:00 GMT', '18', 'NSH', 'Nashville', 'Predators', '21', 'VAN', 'Vancouver', 'Canucks', '7', 'General Motors Place', '21', 'VAN', 'Vancouver', 'Canucks', '0', '1', '0', '0', '0', '0', '0', '39', '32', '54.9', '4', '1', '25.0', '7', '3', '57.1', '0', '0', '3', '5', '24', '8', '16', '12']"
"['', '4553', '2009-01-31', '03:00:00 GMT', '25', 'MIN', 'Minnesota', 'Wild', '21', 'VAN', 'Vancouver', 'Canucks', '7', 'General Motors Place', '21', 'VAN', 'Vancouver', 'Canucks', '0', '0', '0', '1', '0', '0', '1', '26', '27', '49.1', '3', '2', '66.7', '5', '2', '60.0', '0', '0', '3', '4', '37', '5', '10', '17']"
"['', '4571', '2009-02-03', '03:00:00 GMT', '3', 'CAR', 'Carolina', 'Hurricanes', '21', 'VAN', 'Vancouver', 'Canucks', '7', 'General Motors Place', '21', 'VAN', 'Vancouver', 'Canucks', '1', '0', '0', '0', '0', '0', '2', '42', '17', '71.2', '5', '1', '20.0', '4', '2', '50.0', '1', '0', '4', '3', '20', '4', '8', '10']"
"['', '4601', '2009-02-07', '03:00:00 GMT', '20', 'CHI', 'Chicago', 'Blackhawks', '21', 'VAN', 'Vancouver', 'Canucks', '7', 'General Motors Place', '21', 'VAN', 'Vancouver', 'Canucks', '1', '0', '0', '0', '0', '0', '2', '32', '28', '53.3', '7', '4', '57.1', '5', '1', '80.0', '0', '1', '7', '3', '19', '5', '10', '16']"
"['', '4614', '2009-02-10', '01:30:00 GMT', '21', 'VAN', 'Vancouver', 'Canucks', '17', 'STL', 'St. Louis', 'Blues', '24', 'Scottrade Center', '21', 'VAN', 'Vancouver', 'Canucks', '1', '0', '0', '0', '0', '0', '2', '42', '32', '56.8', '4', '2', '50.0', '3', '2', '33.3', '0', '0', '6', '4', '24', '6', '15', '18']"
"['', '4629', '2009-02-12', '02:00:00 GMT', '21', 'VAN', 'Vancouver', 'Canucks', '30', 'PHX', 'Phoenix', 'Coyotes', '6', 'Jobing.com Arena', '21', 'VAN', 'Vancouver', 'Canucks', '1', '0', '0', '0', '0', '0', '2', '31', '32', '49.2', '3', '1', '33.3', '3', '1', '66.7', '0', '0', '4', '3', '28', '5', '10', '23']"
"['', '4635', '2009-02-13', '01:30:00 GMT', '21', 'VAN', 'Vancouver', 'Canucks', '27', 'DAL', 'Dallas', 'Stars', '2', 'American Airlines Center', '21', 'VAN', 'Vancouver', 'Canucks', '0', '1', '0', '0', '0', '0', '0', '34', '27', '55.7', '4', '0', '0.0', '4', '1', '75.0', '0', '0', '1', '2', '32', '4', '8', '34']"
"['', '4653', '2009-02-15', '03:00:00 GMT', '14', 'MTL', 'Montreal', 'Canadiens', '21', 'VAN', 'Vancouver', 'Canucks', '7', 'General Motors Place', '21', 'VAN', 'Vancouver', 'Canucks', '1', '0', '0', '0', '0', '0', '2', '28', '28', '50.0', '2', '0', '0.0', '0', '0', '0.0', '0', '0', '4', '2', '30', '0', '0', '12']"
"['', '4664', '2009-02-17', '02:00:00 GMT', '21', 'VAN', 'Vancouver', 'Canucks', '23', 'CGY', 'Calgary', 'Flames', '18', 'Pengrowth Saddledome', '21', 'VAN', 'Vancouver', 'Canucks', '1', '0', '0', '0', '0', '0', '2', '43', '36', '54.4', '3', '1', '33.3', '4', '0', '100.0', '1', '0', '3', '3', '40', '8', '16', '9']"
"['', '4675', '2009-02-19', '00:30:00 GMT', '21', 'VAN', 'Vancouver', 'Canucks', '13', 'OTT', 'Ottawa', 'Senators', '23', 'Scotiabank Place', '21', 'VAN', 'Vancouver', 'Canucks', '1', '0', '0', '0', '0', '0', '2', '22', '32', '40.7', '2', '1', '50.0', '5', '1', '80.0', '0', '0', '5', '2', '19', '7', '17', '13']"
"['', '4694', '2009-02-21', '00:00:00 GMT', '21', 'VAN', 'Vancouver', 'Canucks', '12', 'TOR', 'Toronto', 'Maple Leafs', '1', 'Air Canada Center', '21', 'VAN', 'Vancouver', 'Canucks', '1', '0', '0', '0', '0', '0', '2', '25', '33', '43.1', '4', '1', '25.0', '5', '1', '80.0', '0', '1', '2', '2', '35', '8', '16', '18']"
"['', '4710', '2009-02-24', '00:30:00 GMT', '21', 'VAN', 'Vancouver', 'Canucks', '14', 'MTL', 'Montreal', 'Canadiens', '4', 'Bell Centre', '21', 'VAN', 'Vancouver', 'Canucks', '0', '1', '0', '0', '0', '0', '0', '18', '31', '36.7', '6', '0', '0.0', '6', '1', '83.3', '0', '0', '0', '3', '34', '11', '44', '14']"
"['', '4735', '2009-02-27', '03:00:00 GMT', '1', 'TBL', 'Tampa Bay', 'Lightning', '21', 'VAN', 'Vancouver', 'Canucks', '7', 'General Motors Place', '21', 'VAN', 'Vancouver', 'Canucks', '1', '0', '0', '0', '0', '0', '2', '27', '25', '51.9', '5', '1', '20.0', '2', '0', '100.0', '0', '0', '2', '1', '23', '2', '4', '8']"
"['', '4752', '2009-03-01', '03:00:00 GMT', '19', 'CBJ', 'Columbus', 'Blue Jackets', '21', 'VAN', 'Vancouver', 'Canucks', '7', 'General Motors Place', '21', 'VAN', 'Vancouver', 'Canucks', '1', '0', '0', '0', '0', '0', '2', '31', '22', '58.5', '5', '1', '20.0', '3', '0', '100.0', '0', '0', '3', '1', '27', '6', '15', '20']"
"['', '4764', '2009-03-03', '03:00:00 GMT', '25', 'MIN', 'Minnesota', 'Wild', '21', 'VAN', 'Vancouver', 'Canucks', '7', 'General Motors Place', '21', 'VAN', 'Vancouver', 'Canucks', '1', '0', '0', '0', '0', '0', '2', '28', '36', '43.8', '1', '0', '0.0', '2', '1', '50.0', '0', '0', '4', '2', '28', '2', '4', '21']"
"['', '4791', '2009-03-07', '03:00:00 GMT', '26', 'SJS', 'San Jose', 'Sharks', '21', 'VAN', 'Vancouver', 'Canucks', '7', 'General Motors Place', '21', 'VAN', 'Vancouver', 'Canucks', '1', '0', '0', '0', '0', '0', '2', '26', '31', '45.6', '6', '1', '16.7', '3', '1', '66.7', '0', '0', '3', '1', '26', '5', '10', '11']"
"['', '4801', '2009-03-09', '02:30:00 GMT', '21', 'VAN', 'Vancouver', 'Canucks', '28', 'LAK', 'Los Angeles', 'Kings', '25', 'Staples Center', '21', 'VAN', 'Vancouver', 'Canucks', '0', '1', '0', '0', '0', '0', '0', '23', '33', '41.1', '4', '0', '0.0', '5', '2', '60.0', '0', '0', '2', '3', '20', '7', '17', '27']"
"['', '4815', '2009-03-11', '02:00:00 GMT', '21', 'VAN', 'Vancouver', 'Canucks', '29', 'ANA', 'Anaheim', 'Ducks', '8', 'Honda Center', '21', 'VAN', 'Vancouver', 'Canucks', '0', '0', '0', '1', '0', '0', '1', '36', '36', '50.0', '5', '0', '0.0', '6', '0', '100.0', '0', '0', '3', '4', '32', '7', '14', '20']"
"['', '4830', '2009-03-13', '02:00:00 GMT', '28', 'LAK', 'Los Angeles', 'Kings', '21', 'VAN', 'Vancouver', 'Canucks', '7', 'General Motors Place', '21', 'VAN', 'Vancouver', 'Canucks', '1', '0', '0', '0', '0', '0', '2', '27', '35', '43.5', '6', '1', '16.7', '4', '0', '100.0', '0', '0', '4', '2', '28', '5', '10', '9']"
"['', '4850', '2009-03-15', '02:00:00 GMT', '22', 'COL', 'Colorado', 'Avalanche', '21', 'VAN', 'Vancouver', 'Canucks', '7', 'General Motors Place', '21', 'VAN', 'Vancouver', 'Canucks', '1', '0', '0', '0', '0', '0', '2', '40', '31', '56.3', '4', '2', '50.0', '5', '1', '80.0', '1', '0', '4', '2', '19', '8', '16', '10']"
"['', '4862', '2009-03-17', '02:00:00 GMT', '27', 'DAL', 'Dallas', 'Stars', '21', 'VAN', 'Vancouver', 'Canucks', '7', 'General Motors Place', '21', 'VAN', 'Vancouver', 'Canucks', '1', '0', '0', '0', '0', '0', '2', '31', '15', '67.4', '2', '2', '100.0', '7', '1', '85.7', '0', '0', '4', '2', '21', '8', '16', '19']"
"['', '4873', '2009-03-19', '02:00:00 GMT', '17', 'STL', 'St. Louis', 'Blues', '21', 'VAN', 'Vancouver', 'Canucks', '7', 'General Motors Place', '21', 'VAN', 'Vancouver', 'Canucks', '1', '0', '0', '0', '0', '0', '2', '30', '28', '51.7', '2', '0', '0.0', '4', '0', '100.0', '0', '0', '3', '0', '18', '6', '12', '14']"
"['', '4890', '2009-03-21', '02:00:00 GMT', '21', 'VAN', 'Vancouver', 'Canucks', '30', 'PHX', 'Phoenix', 'Coyotes', '6', 'Jobing.com Arena', '21', 'VAN', 'Vancouver', 'Canucks', '0', '1', '0', '0', '0', '0', '0', '39', '21', '65.0', '3', '0', '0.0', '8', '1', '87.5', '0', '1', '1', '5', '35', '8', '16', '21']"
"['', '4906', '2009-03-24', '00:30:00 GMT', '21', 'VAN', 'Vancouver', 'Canucks', '27', 'DAL', 'Dallas', 'Stars', '2', 'American Airlines Center', '21', 'VAN', 'Vancouver', 'Canucks', '1', '0', '0', '0', '0', '0', '2', '30', '28', '51.7', '6', '3', '50.0', '3', '0', '100.0', '0', '0', '5', '2', '17', '8', '19', '19']"
"['', '4921', '2009-03-26', '00:30:00 GMT', '21', 'VAN', 'Vancouver', 'Canucks', '17', 'STL', 'St. Louis', 'Blues', '24', 'Scottrade Center', '21', 'VAN', 'Vancouver', 'Canucks', '0', '1', '0', '0', '0', '0', '0', '29', '22', '56.9', '5', '0', '0.0', '6', '2', '66.7', '0', '1', '2', '4', '21', '7', '14', '17']"
"['', '4927', '2009-03-27', '01:00:00 GMT', '21', 'VAN', 'Vancouver', 'Canucks', '22', 'COL', 'Colorado', 'Avalanche', '19', 'Pepsi Center', '21', 'VAN', 'Vancouver', 'Canucks', '1', '0', '0', '0', '0', '0', '2', '32', '33', '49.2', '5', '1', '20.0', '4', '0', '100.0', '0', '0', '4', '1', '29', '4', '8', '12']"
"['', '4943', '2009-03-29', '23:00:00 GMT', '21', 'VAN', 'Vancouver', 'Canucks', '20', 'CHI', 'Chicago', 'Blackhawks', '28', 'United Center', '21', 'VAN', 'Vancouver', 'Canucks', '1', '0', '0', '0', '0', '0', '2', '17', '24', '41.5', '5', '1', '20.0', '3', '0', '100.0', '0', '0', '4', '0', '19', '8', '35', '12']"
"['', '4954', '2009-03-31', '00:00:00 GMT', '21', 'VAN', 'Vancouver', 'Canucks', '25', 'MIN', 'Minnesota', 'Wild', '30', 'Xcel Energy Center', '21', 'VAN', 'Vancouver', 'Canucks', '1', '0', '0', '0', '0', '0', '2', '24', '24', '50.0', '1', '1', '100.0', '4', '0', '100.0', '0', '0', '2', '1', '17', '5', '10', '16']"
"['', '4969', '2009-04-02', '02:00:00 GMT', '29', 'ANA', 'Anaheim', 'Ducks', '21', 'VAN', 'Vancouver', 'Canucks', '7', 'General Motors Place', '21', 'VAN', 'Vancouver', 'Canucks', '0', '0', '0', '1', '0', '0', '1', '34', '27', '55.7', '4', '1', '25.0', '1', '1', '0.0', '0', '0', '5', '5', '25', '4', '17', '14']"
"['', '4985', '2009-04-04', '02:00:00 GMT', '21', 'VAN', 'Vancouver', 'Canucks', '24', 'EDM', 'Edmonton', 'Oilers', '22', 'Rogers Place', '21', 'VAN', 'Vancouver', 'Canucks', '0', '1', '0', '0', '0', '0', '0', '33', '31', '51.6', '5', '1', '20.0', '5', '1', '80.0', '0', '0', '3', '5', '43', '7', '25', '14']"
"['', '4993', '2009-04-05', '02:00:00 GMT', '22', 'COL', 'Colorado', 'Avalanche', '21', 'VAN', 'Vancouver', 'Canucks', '7', 'General Motors Place', '21', 'VAN', 'Vancouver', 'Canucks', '0', '1', '0', '0', '0', '0', '0', '36', '20', '64.3', '3', '0', '0.0', '2', '0', '100.0', '0', '0', '1', '4', '20', '3', '9', '7']"
"['', '5007', '2009-04-07', '02:00:00 GMT', '23', 'CGY', 'Calgary', 'Flames', '21', 'VAN', 'Vancouver', 'Canucks', '7', 'General Motors Place', '21', 'VAN', 'Vancouver', 'Canucks', '1', '0', '0', '0', '0', '0', '2', '40', '24', '62.5', '5', '1', '20.0', '5', '0', '100.0', '0', '0', '4', '1', '21', '7', '14', '20']"
"['', '5021', '2009-04-09', '02:00:00 GMT', '28', 'LAK', 'Los Angeles', 'Kings', '21', 'VAN', 'Vancouver', 'Canucks', '7', 'General Motors Place', '21', 'VAN', 'Vancouver', 'Canucks', '1', '0', '0', '0', '0', '0', '2', '27', '23', '54.0', '5', '1', '20.0', '3', '0', '100.0', '0', '0', '1', '0', '27', '4', '11', '19']"
"['', '5030', '2009-04-11', '19:00:00 GMT', '21', 'VAN', 'Vancouver', 'Canucks', '22', 'COL', 'Colorado', 'Avalanche', '19', 'Pepsi Center', '21', 'VAN', 'Vancouver', 'Canucks', '1', '0', '0', '0', '0', '0', '2', '27', '22', '55.1', '2', '0', '0.0', '2', '0', '100.0', '0', '0', '1', '0', '32', '3', '6', '18']"
