"['#Date/Time of Update: 2018-12-10 19:03:10 GMT', '#Game ID', '#Game Date', '#Game Time', '#Away Team ID', '#Away Team Abbr.', '#Away Team City', '#Away Team Name', '#Home Team ID', '#Home Team Abbr.', '#Home Team City', '#Home Team Name', '#Venue ID', '#Venue Name', '#Team ID', '#Team Abbr.', '#Team City', '#Team Name', '#Wins', '#Losses', '#OvertimeWins', '#OvertimeLosses', '#ShootoutWins', '#ShootoutLosses', '#Rows', '#Points', '#FaceoffWins', '#FaceoffLosses', '#FaceoffPercent', '#Powerplays', '#PowerplayGoals', '#PowerplayPercent', '#PenaltyKills', '#PenaltyKillGoalsAllowed', '#PenaltyKillPercent', '#ShorthandedGoalsFor', '#ShorthandedGoalsAgainst', '#GoalsFor', '#GoalsAgainst', '#Shots', '#Penalties', '#PenaltyMinutes', '#Hits']"
"['', '26364', '2013-10-03', '00:00:00 GMT', '18', 'NSH', 'Nashville', 'Predators', '17', 'STL', 'St. Louis', 'Blues', '24', 'Scottrade Center', '18', 'NSH', 'Nashville', 'Predators', '0', '1', '0', '0', '0', '0', '0', '0', '27', '26', '50.9', '4', '0', '0.0', '4', '2', '50.0', '0', '0', '2', '4', '28', '6', '20', '13']"
"['', '26374', '2013-10-04', '01:00:00 GMT', '18', 'NSH', 'Nashville', 'Predators', '22', 'COL', 'Colorado', 'Avalanche', '19', 'Pepsi Center', '18', 'NSH', 'Nashville', 'Predators', '0', '1', '0', '0', '0', '0', '0', '0', '31', '23', '57.4', '3', '0', '0.0', '5', '0', '100.0', '0', '0', '1', '3', '26', '8', '16', '14']"
"['', '26396', '2013-10-08', '00:00:00 GMT', '25', 'MIN', 'Minnesota', 'Wild', '18', 'NSH', 'Nashville', 'Predators', '15', 'Bridgestone Arena', '18', 'NSH', 'Nashville', 'Predators', '1', '0', '0', '0', '0', '0', '1', '2', '41', '33', '55.4', '3', '2', '66.7', '4', '2', '50.0', '0', '0', '3', '2', '22', '7', '17', '25']"
"['', '26407', '2013-10-10', '00:00:00 GMT', '12', 'TOR', 'Toronto', 'Maple Leafs', '18', 'NSH', 'Nashville', 'Predators', '15', 'Bridgestone Arena', '18', 'NSH', 'Nashville', 'Predators', '0', '1', '0', '0', '0', '0', '0', '0', '40', '26', '60.6', '3', '0', '0.0', '2', '2', '0.0', '0', '0', '0', '4', '36', '4', '22', '15']"
"['', '26425', '2013-10-12', '00:00:00 GMT', '8', 'NYI', 'New York', 'Islanders', '18', 'NSH', 'Nashville', 'Predators', '15', 'Bridgestone Arena', '18', 'NSH', 'Nashville', 'Predators', '1', '0', '0', '0', '0', '0', '1', '2', '31', '21', '59.6', '2', '1', '50.0', '3', '0', '100.0', '0', '0', '3', '2', '28', '3', '6', '14']"
"['', '26444', '2013-10-15', '00:00:00 GMT', '4', 'FLO', 'Florida', 'Panthers', '18', 'NSH', 'Nashville', 'Predators', '15', 'Bridgestone Arena', '18', 'NSH', 'Nashville', 'Predators', '1', '0', '0', '0', '0', '0', '1', '2', '31', '28', '52.5', '2', '1', '50.0', '1', '0', '100.0', '0', '0', '4', '3', '26', '1', '2', '19']"
"['', '26459', '2013-10-17', '00:00:00 GMT', '28', 'LAK', 'Los Angeles', 'Kings', '18', 'NSH', 'Nashville', 'Predators', '15', 'Bridgestone Arena', '18', 'NSH', 'Nashville', 'Predators', '0', '0', '0', '1', '0', '0', '0', '1', '34', '26', '56.7', '4', '0', '0.0', '4', '0', '100.0', '0', '0', '1', '1', '34', '4', '8', '20']"
"['', '26467', '2013-10-19', '23:00:00 GMT', '18', 'NSH', 'Nashville', 'Predators', '14', 'MTL', 'Montreal', 'Canadiens', '4', 'Bell Centre', '18', 'NSH', 'Nashville', 'Predators', '1', '0', '0', '0', '0', '0', '1', '2', '35', '30', '53.8', '5', '1', '20.0', '5', '0', '100.0', '0', '0', '2', '1', '35', '6', '12', '10']"
"['', '26478', '2013-10-20', '00:00:00 GMT', '18', 'NSH', 'Nashville', 'Predators', '2', 'WPJ', 'Winnipeg', 'Jets', '39', 'MTS Centre', '18', 'NSH', 'Nashville', 'Predators', '1', '0', '0', '0', '0', '0', '1', '2', '32', '26', '55.2', '2', '0', '0.0', '2', '0', '100.0', '1', '0', '3', '1', '23', '3', '6', '13']"
"['', '26488', '2013-10-22', '00:00:00 GMT', '18', 'NSH', 'Nashville', 'Predators', '25', 'MIN', 'Minnesota', 'Wild', '30', 'Xcel Energy Center', '18', 'NSH', 'Nashville', 'Predators', '0', '1', '0', '0', '0', '0', '0', '0', '31', '25', '55.4', '2', '0', '0.0', '2', '0', '100.0', '0', '0', '0', '2', '16', '4', '14', '15']"
"['', '26498', '2013-10-24', '00:00:00 GMT', '2', 'WPJ', 'Winnipeg', 'Jets', '18', 'NSH', 'Nashville', 'Predators', '15', 'Bridgestone Arena', '18', 'NSH', 'Nashville', 'Predators', '1', '0', '0', '0', '0', '0', '1', '2', '39', '20', '66.1', '1', '1', '100.0', '4', '0', '100.0', '0', '0', '3', '2', '30', '4', '8', '23']"
"['', '26517', '2013-10-26', '00:00:00 GMT', '17', 'STL', 'St. Louis', 'Blues', '18', 'NSH', 'Nashville', 'Predators', '15', 'Bridgestone Arena', '18', 'NSH', 'Nashville', 'Predators', '0', '1', '0', '0', '0', '0', '0', '0', '32', '23', '58.2', '3', '0', '0.0', '5', '2', '60.0', '1', '0', '1', '6', '22', '8', '19', '19']"
"['', '26544', '2013-10-31', '02:00:00 GMT', '18', 'NSH', 'Nashville', 'Predators', '30', 'PHX', 'Phoenix', 'Coyotes', '6', 'Jobing.com Arena', '18', 'NSH', 'Nashville', 'Predators', '0', '0', '0', '1', '0', '0', '0', '1', '29', '38', '43.3', '2', '1', '50.0', '2', '1', '50.0', '0', '0', '4', '4', '36', '2', '4', '25']"
"['', '26564', '2013-11-02', '02:30:00 GMT', '18', 'NSH', 'Nashville', 'Predators', '28', 'LAK', 'Los Angeles', 'Kings', '25', 'Staples Center', '18', 'NSH', 'Nashville', 'Predators', '1', '0', '0', '0', '0', '0', '1', '2', '30', '35', '46.2', '3', '2', '66.7', '3', '1', '66.7', '0', '0', '4', '3', '13', '6', '23', '28']"
"['', '26582', '2013-11-06', '02:30:00 GMT', '18', 'NSH', 'Nashville', 'Predators', '22', 'COL', 'Colorado', 'Avalanche', '19', 'Pepsi Center', '18', 'NSH', 'Nashville', 'Predators', '1', '0', '0', '0', '0', '0', '1', '2', '34', '23', '59.6', '2', '2', '100.0', '2', '0', '100.0', '0', '0', '6', '4', '22', '3', '6', '11']"
"['', '26596', '2013-11-08', '01:00:00 GMT', '18', 'NSH', 'Nashville', 'Predators', '2', 'WPJ', 'Winnipeg', 'Jets', '39', 'MTS Centre', '18', 'NSH', 'Nashville', 'Predators', '0', '1', '0', '0', '0', '0', '0', '0', '35', '26', '57.4', '4', '0', '0.0', '2', '0', '100.0', '0', '0', '0', '5', '41', '6', '15', '26']"
"['', '26610', '2013-11-10', '00:00:00 GMT', '18', 'NSH', 'Nashville', 'Predators', '7', 'NJD', 'New Jersey', 'Devils', '37', 'Prudential Center', '18', 'NSH', 'Nashville', 'Predators', '0', '1', '0', '0', '0', '0', '0', '0', '27', '34', '44.3', '6', '0', '0.0', '4', '1', '75.0', '0', '0', '0', '5', '15', '4', '8', '20']"
"['', '26618', '2013-11-12', '00:00:00 GMT', '18', 'NSH', 'Nashville', 'Predators', '8', 'NYI', 'New York', 'Islanders', '16', 'Nassau Veterans Memorial Coliseum', '18', 'NSH', 'Nashville', 'Predators', '0', '1', '0', '0', '0', '0', '0', '0', '38', '22', '63.3', '2', '0', '0.0', '5', '1', '80.0', '0', '0', '1', '3', '32', '6', '15', '20']"
"['', '26640', '2013-11-15', '00:00:00 GMT', '18', 'NSH', 'Nashville', 'Predators', '10', 'PIT', 'Pittsburgh', 'Penguins', '40', 'Consol Energy Center', '18', 'NSH', 'Nashville', 'Predators', '0', '1', '0', '0', '0', '0', '0', '0', '19', '28', '40.4', '2', '0', '0.0', '4', '1', '75.0', '0', '0', '1', '4', '17', '5', '13', '18']"
"['', '26653', '2013-11-16', '01:00:00 GMT', '20', 'CHI', 'Chicago', 'Blackhawks', '18', 'NSH', 'Nashville', 'Predators', '15', 'Bridgestone Arena', '18', 'NSH', 'Nashville', 'Predators', '1', '0', '0', '0', '0', '0', '1', '2', '43', '24', '64.2', '4', '2', '50.0', '4', '0', '100.0', '0', '0', '7', '2', '23', '5', '13', '20']"
"['', '26670', '2013-11-19', '00:30:00 GMT', '18', 'NSH', 'Nashville', 'Predators', '16', 'DET', 'Detroit', 'Red Wings', '11', 'Joe Louis Arena', '18', 'NSH', 'Nashville', 'Predators', '1', '0', '0', '0', '0', '0', '1', '2', '34', '32', '51.5', '6', '1', '16.7', '1', '0', '100.0', '0', '0', '2', '0', '23', '3', '6', '16']"
"['', '26681', '2013-11-21', '00:00:00 GMT', '18', 'NSH', 'Nashville', 'Predators', '12', 'TOR', 'Toronto', 'Maple Leafs', '1', 'Air Canada Center', '18', 'NSH', 'Nashville', 'Predators', '1', '0', '0', '0', '0', '0', '1', '2', '30', '23', '56.6', '4', '2', '50.0', '2', '0', '100.0', '0', '0', '4', '2', '24', '2', '4', '32']"
"['', '26702', '2013-11-23', '01:00:00 GMT', '9', 'NYR', 'New York', 'Rangers', '18', 'NSH', 'Nashville', 'Predators', '15', 'Bridgestone Arena', '18', 'NSH', 'Nashville', 'Predators', '0', '1', '0', '0', '0', '0', '0', '0', '27', '20', '57.4', '2', '0', '0.0', '3', '0', '100.0', '0', '0', '0', '2', '17', '4', '11', '19']"
"['', '26715', '2013-11-25', '01:00:00 GMT', '30', 'PHX', 'Phoenix', 'Coyotes', '18', 'NSH', 'Nashville', 'Predators', '15', 'Bridgestone Arena', '18', 'NSH', 'Nashville', 'Predators', '1', '0', '0', '0', '0', '0', '1', '2', '30', '23', '56.6', '0', '0', '0.0', '1', '0', '100.0', '0', '0', '4', '2', '25', '2', '7', '28']"
"['', '26723', '2013-11-27', '00:00:00 GMT', '18', 'NSH', 'Nashville', 'Predators', '19', 'CBJ', 'Columbus', 'Blue Jackets', '17', 'Nationwide Arena', '18', 'NSH', 'Nashville', 'Predators', '1', '0', '0', '0', '0', '0', '1', '2', '26', '21', '55.3', '3', '1', '33.3', '2', '0', '100.0', '0', '0', '4', '0', '25', '2', '4', '24']"
"['', '26733', '2013-11-28', '01:00:00 GMT', '24', 'EDM', 'Edmonton', 'Oilers', '18', 'NSH', 'Nashville', 'Predators', '15', 'Bridgestone Arena', '18', 'NSH', 'Nashville', 'Predators', '0', '1', '0', '0', '0', '0', '0', '0', '29', '24', '54.7', '2', '0', '0.0', '2', '0', '100.0', '0', '0', '0', '3', '33', '5', '10', '30']"
"['', '26752', '2013-11-30', '01:00:00 GMT', '6', 'PHI', 'Philadelphia', 'Flyers', '18', 'NSH', 'Nashville', 'Predators', '15', 'Bridgestone Arena', '18', 'NSH', 'Nashville', 'Predators', '0', '0', '0', '1', '0', '0', '0', '1', '31', '30', '50.8', '5', '0', '0.0', '3', '0', '100.0', '0', '0', '2', '2', '34', '3', '6', '16']"
"['', '26770', '2013-12-03', '01:00:00 GMT', '21', 'VAN', 'Vancouver', 'Canucks', '18', 'NSH', 'Nashville', 'Predators', '15', 'Bridgestone Arena', '18', 'NSH', 'Nashville', 'Predators', '0', '1', '0', '0', '0', '0', '0', '0', '23', '33', '41.1', '2', '0', '0.0', '4', '1', '75.0', '0', '0', '1', '3', '30', '5', '10', '22']"
"['', '26783', '2013-12-05', '01:00:00 GMT', '3', 'CAR', 'Carolina', 'Hurricanes', '18', 'NSH', 'Nashville', 'Predators', '15', 'Bridgestone Arena', '18', 'NSH', 'Nashville', 'Predators', '0', '1', '0', '0', '0', '0', '0', '0', '27', '23', '54.0', '3', '0', '0.0', '5', '1', '80.0', '0', '0', '2', '5', '20', '6', '12', '13']"
"['', '26798', '2013-12-07', '00:00:00 GMT', '18', 'NSH', 'Nashville', 'Predators', '5', 'WSH', 'Washington', 'Capitals', '13', 'Verizon Center', '18', 'NSH', 'Nashville', 'Predators', '0', '1', '0', '0', '0', '0', '0', '0', '30', '34', '46.9', '1', '0', '0.0', '4', '1', '75.0', '0', '0', '2', '5', '34', '5', '13', '27']"
"['', '26817', '2013-12-10', '00:30:00 GMT', '18', 'NSH', 'Nashville', 'Predators', '9', 'NYR', 'New York', 'Rangers', '12', 'Madison Square Garden', '18', 'NSH', 'Nashville', 'Predators', '1', '0', '0', '0', '0', '0', '1', '2', '31', '24', '56.4', '2', '0', '0.0', '2', '0', '100.0', '0', '0', '4', '1', '22', '2', '4', '24']"
"['', '26832', '2013-12-12', '01:00:00 GMT', '27', 'DAL', 'Dallas', 'Stars', '18', 'NSH', 'Nashville', 'Predators', '15', 'Bridgestone Arena', '18', 'NSH', 'Nashville', 'Predators', '1', '0', '0', '0', '0', '0', '1', '2', '34', '30', '53.1', '3', '2', '66.7', '3', '0', '100.0', '0', '0', '3', '1', '27', '3', '6', '24']"
"['', '26849', '2013-12-14', '01:00:00 GMT', '26', 'SJS', 'San Jose', 'Sharks', '18', 'NSH', 'Nashville', 'Predators', '15', 'Bridgestone Arena', '18', 'NSH', 'Nashville', 'Predators', '1', '0', '0', '0', '0', '0', '1', '2', '29', '30', '49.2', '2', '1', '50.0', '2', '0', '100.0', '0', '0', '3', '2', '20', '4', '14', '28']"
"['', '26871', '2013-12-17', '01:00:00 GMT', '20', 'CHI', 'Chicago', 'Blackhawks', '18', 'NSH', 'Nashville', 'Predators', '15', 'Bridgestone Arena', '18', 'NSH', 'Nashville', 'Predators', '0', '1', '0', '0', '0', '0', '0', '0', '34', '19', '64.2', '6', '1', '16.7', '5', '2', '60.0', '0', '0', '1', '3', '27', '5', '10', '19']"
"['', '26883', '2013-12-19', '00:30:00 GMT', '18', 'NSH', 'Nashville', 'Predators', '1', 'TBL', 'Tampa Bay', 'Lightning', '26', 'Tampa Bay Times Forum', '18', 'NSH', 'Nashville', 'Predators', '0', '1', '0', '0', '0', '0', '0', '0', '32', '28', '53.3', '4', '1', '25.0', '4', '1', '75.0', '0', '0', '2', '4', '28', '5', '13', '20']"
"['', '26902', '2013-12-21', '00:00:00 GMT', '14', 'MTL', 'Montreal', 'Canadiens', '18', 'NSH', 'Nashville', 'Predators', '15', 'Bridgestone Arena', '18', 'NSH', 'Nashville', 'Predators', '0', '0', '0', '1', '0', '0', '0', '1', '40', '25', '61.5', '2', '2', '100.0', '2', '0', '100.0', '0', '0', '3', '4', '31', '3', '9', '21']"
"['', '26916', '2013-12-23', '01:00:00 GMT', '11', 'BOS', 'Boston', 'Bruins', '18', 'NSH', 'Nashville', 'Predators', '15', 'Bridgestone Arena', '18', 'NSH', 'Nashville', 'Predators', '0', '1', '0', '0', '0', '0', '0', '0', '29', '32', '47.5', '2', '1', '50.0', '3', '3', '0.0', '0', '0', '2', '6', '32', '4', '11', '12']"
"['', '26928', '2013-12-27', '01:30:00 GMT', '18', 'NSH', 'Nashville', 'Predators', '27', 'DAL', 'Dallas', 'Stars', '2', 'American Airlines Center', '18', 'NSH', 'Nashville', 'Predators', '0', '1', '0', '0', '0', '0', '0', '0', '40', '46', '46.5', '3', '0', '0.0', '3', '0', '100.0', '0', '0', '1', '4', '33', '7', '22', '23']"
"['', '26936', '2013-12-28', '01:00:00 GMT', '28', 'LAK', 'Los Angeles', 'Kings', '18', 'NSH', 'Nashville', 'Predators', '15', 'Bridgestone Arena', '18', 'NSH', 'Nashville', 'Predators', '1', '0', '0', '0', '0', '0', '1', '2', '24', '22', '52.2', '4', '1', '25.0', '2', '1', '50.0', '0', '0', '3', '2', '28', '3', '9', '16']"
"['', '26951', '2013-12-30', '01:00:00 GMT', '16', 'DET', 'Detroit', 'Red Wings', '18', 'NSH', 'Nashville', 'Predators', '15', 'Bridgestone Arena', '18', 'NSH', 'Nashville', 'Predators', '1', '0', '0', '0', '0', '0', '1', '2', '40', '29', '58.0', '5', '1', '20.0', '1', '1', '0.0', '0', '0', '6', '4', '23', '3', '9', '17']"
"['', '26966', '2014-01-02', '00:00:00 GMT', '18', 'NSH', 'Nashville', 'Predators', '11', 'BOS', 'Boston', 'Bruins', '27', 'TD Garden', '18', 'NSH', 'Nashville', 'Predators', '0', '0', '0', '1', '0', '0', '0', '1', '34', '29', '54.0', '1', '0', '0.0', '2', '0', '100.0', '0', '0', '2', '3', '33', '2', '4', '20']"
"['', '26985', '2014-01-04', '00:00:00 GMT', '18', 'NSH', 'Nashville', 'Predators', '4', 'FLO', 'Florida', 'Panthers', '3', 'BB&T Center', '18', 'NSH', 'Nashville', 'Predators', '0', '0', '0', '1', '0', '0', '0', '1', '31', '24', '56.4', '2', '0', '0.0', '1', '0', '100.0', '0', '0', '4', '4', '38', '2', '4', '36']"
"['', '26993', '2014-01-05', '00:00:00 GMT', '18', 'NSH', 'Nashville', 'Predators', '3', 'CAR', 'Carolina', 'Hurricanes', '21', 'RBC Center', '18', 'NSH', 'Nashville', 'Predators', '0', '1', '0', '0', '0', '0', '0', '0', '27', '28', '49.1', '0', '1', '0.0', '2', '0', '100.0', '0', '0', '1', '2', '31', '2', '4', '17']"
"['', '27004', '2014-01-07', '01:00:00 GMT', '26', 'SJS', 'San Jose', 'Sharks', '18', 'NSH', 'Nashville', 'Predators', '15', 'Bridgestone Arena', '18', 'NSH', 'Nashville', 'Predators', '1', '0', '0', '0', '0', '0', '1', '2', '32', '20', '61.5', '1', '0', '0.0', '4', '1', '75.0', '0', '0', '3', '2', '25', '5', '10', '15']"
"['', '27018', '2014-01-09', '01:00:00 GMT', '29', 'ANA', 'Anaheim', 'Ducks', '18', 'NSH', 'Nashville', 'Predators', '15', 'Bridgestone Arena', '18', 'NSH', 'Nashville', 'Predators', '0', '1', '0', '0', '0', '0', '0', '0', '30', '26', '53.6', '2', '0', '0.0', '4', '1', '75.0', '0', '0', '3', '4', '23', '5', '13', '14']"
"['', '27032', '2014-01-11', '00:00:00 GMT', '13', 'OTT', 'Ottawa', 'Senators', '18', 'NSH', 'Nashville', 'Predators', '15', 'Bridgestone Arena', '18', 'NSH', 'Nashville', 'Predators', '0', '0', '0', '1', '0', '0', '0', '1', '27', '26', '50.9', '2', '0', '0.0', '1', '0', '100.0', '0', '0', '1', '1', '31', '3', '9', '24']"
"['', '27044', '2014-01-12', '00:00:00 GMT', '25', 'MIN', 'Minnesota', 'Wild', '18', 'NSH', 'Nashville', 'Predators', '15', 'Bridgestone Arena', '18', 'NSH', 'Nashville', 'Predators', '0', '1', '0', '0', '0', '0', '0', '0', '28', '19', '59.6', '2', '0', '0.0', '1', '0', '100.0', '0', '0', '0', '4', '23', '2', '7', '16']"
"['', '27058', '2014-01-14', '01:00:00 GMT', '23', 'CGY', 'Calgary', 'Flames', '18', 'NSH', 'Nashville', 'Predators', '15', 'Bridgestone Arena', '18', 'NSH', 'Nashville', 'Predators', '1', '0', '0', '0', '0', '0', '1', '2', '36', '33', '52.2', '4', '2', '50.0', '2', '0', '100.0', '0', '0', '4', '2', '30', '3', '6', '7']"
"['', '27065', '2014-01-16', '00:00:00 GMT', '18', 'NSH', 'Nashville', 'Predators', '6', 'PHI', 'Philadelphia', 'Flyers', '29', 'Wells Fargo Center', '18', 'NSH', 'Nashville', 'Predators', '1', '0', '0', '0', '0', '0', '0', '2', '22', '35', '38.6', '5', '2', '40.0', '4', '1', '75.0', '0', '0', '3', '3', '34', '4', '8', '20']"
"['', '27086', '2014-01-18', '01:00:00 GMT', '22', 'COL', 'Colorado', 'Avalanche', '18', 'NSH', 'Nashville', 'Predators', '15', 'Bridgestone Arena', '18', 'NSH', 'Nashville', 'Predators', '0', '1', '0', '0', '0', '0', '0', '0', '29', '33', '46.8', '3', '1', '33.3', '1', '1', '0.0', '0', '0', '4', '5', '27', '3', '12', '21']"
"['', '27097', '2014-01-20', '01:00:00 GMT', '27', 'DAL', 'Dallas', 'Stars', '18', 'NSH', 'Nashville', 'Predators', '15', 'Bridgestone Arena', '18', 'NSH', 'Nashville', 'Predators', '1', '0', '0', '0', '0', '0', '1', '2', '35', '29', '54.7', '2', '0', '0.0', '2', '1', '50.0', '0', '0', '4', '1', '19', '3', '9', '21']"
"['', '27120', '2014-01-23', '03:00:00 GMT', '18', 'NSH', 'Nashville', 'Predators', '21', 'VAN', 'Vancouver', 'Canucks', '7', 'Rogers Arena', '18', 'NSH', 'Nashville', 'Predators', '1', '0', '0', '0', '0', '0', '1', '2', '18', '29', '38.3', '3', '1', '33.3', '5', '0', '100.0', '0', '0', '2', '1', '24', '6', '15', '20']"
"['', '27127', '2014-01-24', '02:00:00 GMT', '18', 'NSH', 'Nashville', 'Predators', '23', 'CGY', 'Calgary', 'Flames', '18', 'Scotiabank Saddledome', '18', 'NSH', 'Nashville', 'Predators', '0', '0', '0', '1', '0', '0', '0', '1', '30', '30', '50.0', '2', '0', '0.0', '5', '3', '40.0', '0', '0', '4', '4', '21', '5', '10', '16']"
"['', '27140', '2014-01-26', '01:00:00 GMT', '18', 'NSH', 'Nashville', 'Predators', '24', 'EDM', 'Edmonton', 'Oilers', '22', 'Rogers Place', '18', 'NSH', 'Nashville', 'Predators', '0', '1', '0', '0', '0', '0', '0', '0', '27', '34', '44.3', '3', '0', '0.0', '3', '2', '33.3', '0', '0', '1', '5', '34', '3', '6', '18']"
"['', '27155', '2014-01-28', '01:00:00 GMT', '18', 'NSH', 'Nashville', 'Predators', '2', 'WPJ', 'Winnipeg', 'Jets', '39', 'MTS Centre', '18', 'NSH', 'Nashville', 'Predators', '1', '0', '0', '0', '0', '0', '1', '2', '27', '24', '52.9', '3', '1', '33.3', '2', '0', '100.0', '0', '0', '4', '3', '21', '2', '4', '27']"
"['', '27175', '2014-01-31', '01:00:00 GMT', '7', 'NJD', 'New Jersey', 'Devils', '18', 'NSH', 'Nashville', 'Predators', '15', 'Bridgestone Arena', '18', 'NSH', 'Nashville', 'Predators', '1', '0', '0', '0', '0', '0', '1', '2', '21', '27', '43.8', '2', '0', '0.0', '2', '0', '100.0', '0', '0', '3', '2', '30', '3', '6', '21']"
"['', '27183', '2014-02-01', '01:00:00 GMT', '18', 'NSH', 'Nashville', 'Predators', '17', 'STL', 'St. Louis', 'Blues', '24', 'Scottrade Center', '18', 'NSH', 'Nashville', 'Predators', '0', '0', '0', '1', '0', '0', '0', '1', '36', '24', '60.0', '1', '0', '0.0', '3', '1', '66.7', '0', '0', '3', '3', '28', '3', '6', '18']"
"['', '27217', '2014-02-06', '01:00:00 GMT', '18', 'NSH', 'Nashville', 'Predators', '25', 'MIN', 'Minnesota', 'Wild', '30', 'Xcel Energy Center', '18', 'NSH', 'Nashville', 'Predators', '0', '0', '0', '1', '0', '0', '0', '1', '28', '28', '50.0', '2', '0', '0.0', '5', '1', '80.0', '0', '0', '2', '3', '16', '5', '10', '18']"
"['', '27232', '2014-02-08', '01:00:00 GMT', '29', 'ANA', 'Anaheim', 'Ducks', '18', 'NSH', 'Nashville', 'Predators', '15', 'Bridgestone Arena', '18', 'NSH', 'Nashville', 'Predators', '0', '1', '0', '0', '0', '0', '0', '0', '30', '22', '57.7', '3', '1', '33.3', '4', '1', '75.0', '0', '0', '2', '5', '36', '7', '25', '17']"
"['', '27245', '2014-02-27', '01:00:00 GMT', '1', 'TBL', 'Tampa Bay', 'Lightning', '18', 'NSH', 'Nashville', 'Predators', '15', 'Bridgestone Arena', '18', 'NSH', 'Nashville', 'Predators', '1', '0', '0', '0', '0', '0', '1', '2', '32', '23', '58.2', '2', '3', '1.0', '3', '1', '66.7', '0', '0', '3', '2', '26', '5', '13', '19']"
"['', '27258', '2014-03-01', '20:00:00 GMT', '2', 'WPJ', 'Winnipeg', 'Jets', '18', 'NSH', 'Nashville', 'Predators', '15', 'Bridgestone Arena', '18', 'NSH', 'Nashville', 'Predators', '0', '1', '0', '0', '0', '0', '0', '0', '32', '22', '59.3', '6', '0', '0.0', '1', '0', '100.0', '0', '0', '1', '3', '39', '2', '4', '18']"
"['', '27280', '2014-03-04', '01:00:00 GMT', '10', 'PIT', 'Pittsburgh', 'Penguins', '18', 'NSH', 'Nashville', 'Predators', '15', 'Bridgestone Arena', '18', 'NSH', 'Nashville', 'Predators', '0', '1', '0', '0', '0', '0', '0', '0', '33', '32', '50.8', '3', '0', '0.0', '4', '1', '75.0', '0', '0', '1', '3', '18', '7', '25', '13']"
"['', '27294', '2014-03-06', '01:00:00 GMT', '17', 'STL', 'St. Louis', 'Blues', '18', 'NSH', 'Nashville', 'Predators', '15', 'Bridgestone Arena', '18', 'NSH', 'Nashville', 'Predators', '0', '1', '0', '0', '0', '0', '0', '0', '32', '28', '53.3', '3', '0', '0.0', '2', '0', '100.0', '0', '0', '1', '2', '20', '3', '6', '20']"
"['', '27310', '2014-03-08', '01:00:00 GMT', '19', 'CBJ', 'Columbus', 'Blue Jackets', '18', 'NSH', 'Nashville', 'Predators', '15', 'Bridgestone Arena', '18', 'NSH', 'Nashville', 'Predators', '0', '1', '0', '0', '0', '0', '0', '0', '33', '32', '50.8', '1', '0', '0.0', '5', '0', '100.0', '0', '0', '0', '1', '28', '6', '15', '18']"
"['', '27320', '2014-03-10', '23:30:00 GMT', '18', 'NSH', 'Nashville', 'Predators', '13', 'OTT', 'Ottawa', 'Senators', '23', 'Canadian Tire Centre', '18', 'NSH', 'Nashville', 'Predators', '1', '0', '0', '0', '0', '0', '1', '2', '37', '35', '51.4', '3', '0', '0.0', '1', '0', '100.0', '0', '0', '4', '3', '38', '2', '7', '35']"
"['', '27327', '2014-03-11', '23:00:00 GMT', '18', 'NSH', 'Nashville', 'Predators', '15', 'BUF', 'Buffalo', 'Sabres', '10', 'First Niagara Center', '18', 'NSH', 'Nashville', 'Predators', '1', '0', '0', '0', '0', '0', '1', '2', '30', '30', '50.0', '1', '1', '100.0', '4', '1', '75.0', '0', '0', '4', '1', '20', '6', '23', '11']"
"['', '27351', '2014-03-14', '00:00:00 GMT', '18', 'NSH', 'Nashville', 'Predators', '20', 'CHI', 'Chicago', 'Blackhawks', '28', 'United Center', '18', 'NSH', 'Nashville', 'Predators', '1', '0', '0', '0', '0', '0', '1', '2', '25', '36', '41.0', '2', '1', '50.0', '1', '0', '100.0', '0', '0', '3', '2', '26', '2', '4', '24']"
"['', '27360', '2014-03-15', '00:00:00 GMT', '17', 'STL', 'St. Louis', 'Blues', '18', 'NSH', 'Nashville', 'Predators', '15', 'Bridgestone Arena', '18', 'NSH', 'Nashville', 'Predators', '0', '1', '0', '0', '0', '0', '0', '0', '27', '34', '44.3', '3', '0', '0.0', '1', '0', '100.0', '0', '0', '1', '4', '30', '4', '11', '20']"
"['', '27386', '2014-03-18', '01:30:00 GMT', '18', 'NSH', 'Nashville', 'Predators', '24', 'EDM', 'Edmonton', 'Oilers', '22', 'Rogers Place', '18', 'NSH', 'Nashville', 'Predators', '0', '1', '0', '0', '0', '0', '0', '0', '36', '27', '57.1', '4', '0', '0.0', '4', '1', '75.0', '0', '0', '1', '5', '28', '5', '10', '12']"
"['', '27392', '2014-03-19', '02:00:00 GMT', '18', 'NSH', 'Nashville', 'Predators', '21', 'VAN', 'Vancouver', 'Canucks', '7', 'Rogers Arena', '18', 'NSH', 'Nashville', 'Predators', '0', '1', '0', '0', '0', '0', '0', '0', '26', '19', '57.8', '4', '0', '0.0', '1', '1', '0.0', '0', '0', '0', '2', '30', '1', '2', '20']"
"['', '27405', '2014-03-21', '01:00:00 GMT', '18', 'NSH', 'Nashville', 'Predators', '23', 'CGY', 'Calgary', 'Flames', '18', 'Scotiabank Saddledome', '18', 'NSH', 'Nashville', 'Predators', '1', '0', '0', '0', '0', '0', '1', '2', '33', '30', '52.4', '2', '1', '50.0', '2', '1', '50.0', '0', '0', '6', '5', '16', '2', '4', '15']"
"['', '27420', '2014-03-23', '23:00:00 GMT', '18', 'NSH', 'Nashville', 'Predators', '20', 'CHI', 'Chicago', 'Blackhawks', '28', 'United Center', '18', 'NSH', 'Nashville', 'Predators', '1', '0', '0', '0', '0', '0', '1', '2', '26', '30', '46.4', '3', '0', '0.0', '3', '0', '100.0', '0', '0', '2', '0', '15', '6', '15', '27']"
"['', '27438', '2014-03-25', '00:00:00 GMT', '22', 'COL', 'Colorado', 'Avalanche', '18', 'NSH', 'Nashville', 'Predators', '15', 'Bridgestone Arena', '18', 'NSH', 'Nashville', 'Predators', '0', '0', '0', '1', '0', '0', '0', '1', '33', '38', '46.5', '2', '0', '0.0', '0', '0', '0.0', '0', '0', '4', '4', '29', '0', '0', '15']"
"['', '27450', '2014-03-27', '00:00:00 GMT', '15', 'BUF', 'Buffalo', 'Sabres', '18', 'NSH', 'Nashville', 'Predators', '15', 'Bridgestone Arena', '18', 'NSH', 'Nashville', 'Predators', '1', '0', '0', '0', '0', '0', '1', '2', '36', '32', '52.9', '3', '1', '33.3', '3', '0', '100.0', '0', '0', '6', '1', '28', '5', '13', '6']"
"['', '27456', '2014-03-28', '00:30:00 GMT', '18', 'NSH', 'Nashville', 'Predators', '27', 'DAL', 'Dallas', 'Stars', '2', 'American Airlines Center', '18', 'NSH', 'Nashville', 'Predators', '0', '1', '0', '0', '0', '0', '0', '0', '33', '31', '51.6', '1', '0', '0.0', '1', '1', '0.0', '0', '0', '3', '7', '25', '1', '2', '36']"
"['', '27473', '2014-03-30', '00:00:00 GMT', '5', 'WSH', 'Washington', 'Capitals', '18', 'NSH', 'Nashville', 'Predators', '15', 'Bridgestone Arena', '18', 'NSH', 'Nashville', 'Predators', '1', '0', '0', '0', '0', '0', '0', '2', '37', '36', '50.7', '0', '0', '0.0', '4', '2', '50.0', '0', '0', '3', '3', '26', '6', '15', '13']"
"['', '27509', '2014-04-04', '02:00:00 GMT', '18', 'NSH', 'Nashville', 'Predators', '29', 'ANA', 'Anaheim', 'Ducks', '8', 'Honda Center', '18', 'NSH', 'Nashville', 'Predators', '1', '0', '0', '0', '0', '0', '1', '2', '31', '27', '53.4', '4', '0', '0.0', '3', '0', '100.0', '0', '0', '5', '2', '19', '3', '6', '30']"
"['', '27520', '2014-04-05', '02:30:00 GMT', '18', 'NSH', 'Nashville', 'Predators', '26', 'SJS', 'San Jose', 'Sharks', '9', 'SAP Center at San Jose', '18', 'NSH', 'Nashville', 'Predators', '1', '0', '0', '0', '0', '0', '1', '2', '41', '31', '56.9', '1', '0', '0.0', '2', '0', '100.0', '0', '0', '3', '0', '21', '3', '6', '28']"
"['', '27538', '2014-04-08', '00:30:00 GMT', '18', 'NSH', 'Nashville', 'Predators', '27', 'DAL', 'Dallas', 'Stars', '2', 'American Airlines Center', '18', 'NSH', 'Nashville', 'Predators', '0', '0', '0', '1', '0', '0', '0', '1', '29', '27', '51.8', '1', '0', '0.0', '2', '0', '100.0', '0', '0', '2', '2', '27', '2', '4', '17']"
"['', '27550', '2014-04-10', '00:00:00 GMT', '30', 'PHX', 'Phoenix', 'Coyotes', '18', 'NSH', 'Nashville', 'Predators', '15', 'Bridgestone Arena', '18', 'NSH', 'Nashville', 'Predators', '1', '0', '0', '0', '0', '0', '1', '2', '36', '30', '54.5', '2', '1', '50.0', '2', '0', '100.0', '0', '0', '2', '0', '21', '2', '4', '18']"
"['', '27566', '2014-04-12', '00:00:00 GMT', '20', 'CHI', 'Chicago', 'Blackhawks', '18', 'NSH', 'Nashville', 'Predators', '15', 'Bridgestone Arena', '18', 'NSH', 'Nashville', 'Predators', '1', '0', '0', '0', '0', '0', '1', '2', '37', '26', '58.7', '3', '0', '0.0', '2', '0', '100.0', '0', '0', '7', '5', '26', '2', '4', '21']"
"['', '27576', '2014-04-13', '00:00:00 GMT', '18', 'NSH', 'Nashville', 'Predators', '25', 'MIN', 'Minnesota', 'Wild', '30', 'Xcel Energy Center', '18', 'NSH', 'Nashville', 'Predators', '1', '0', '0', '0', '0', '0', '1', '2', '44', '26', '62.9', '5', '3', '60.0', '4', '1', '75.0', '0', '0', '7', '3', '26', '6', '20', '10']"
