"['#Date/Time of Update: 2018-12-10 19:03:10 GMT', '#Game ID', '#Game Date', '#Game Time', '#Away Team ID', '#Away Team Abbr.', '#Away Team City', '#Away Team Name', '#Home Team ID', '#Home Team Abbr.', '#Home Team City', '#Home Team Name', '#Venue ID', '#Venue Name', '#Team ID', '#Team Abbr.', '#Team City', '#Team Name', '#Wins', '#Losses', '#OvertimeWins', '#OvertimeLosses', '#ShootoutWins', '#ShootoutLosses', '#Rows', '#Points', '#FaceoffWins', '#FaceoffLosses', '#FaceoffPercent', '#Powerplays', '#PowerplayGoals', '#PowerplayPercent', '#PenaltyKills', '#PenaltyKillGoalsAllowed', '#PenaltyKillPercent', '#ShorthandedGoalsFor', '#ShorthandedGoalsAgainst', '#GoalsFor', '#GoalsAgainst', '#Shots', '#Penalties', '#PenaltyMinutes', '#Hits']"
"['', '26358', '2013-10-02', '23:30:00 GMT', '12', 'TOR', 'Toronto', 'Maple Leafs', '6', 'PHI', 'Philadelphia', 'Flyers', '29', 'Wells Fargo Center', '6', 'PHI', 'Philadelphia', 'Flyers', '0', '1', '0', '0', '0', '0', '0', '0', '33', '36', '47.8', '7', '1', '14.3', '2', '1', '50.0', '0', '0', '1', '3', '30', '4', '11', '22']"
"['', '26377', '2013-10-05', '23:00:00 GMT', '6', 'PHI', 'Philadelphia', 'Flyers', '14', 'MTL', 'Montreal', 'Canadiens', '4', 'Bell Centre', '6', 'PHI', 'Philadelphia', 'Flyers', '0', '1', '0', '0', '0', '0', '0', '0', '40', '38', '51.3', '4', '1', '25.0', '7', '2', '71.4', '0', '0', '1', '4', '22', '13', '32', '29']"
"['', '26386', '2013-10-06', '21:00:00 GMT', '6', 'PHI', 'Philadelphia', 'Flyers', '3', 'CAR', 'Carolina', 'Hurricanes', '21', 'RBC Center', '6', 'PHI', 'Philadelphia', 'Flyers', '0', '1', '0', '0', '0', '0', '0', '0', '24', '32', '42.9', '2', '0', '0.0', '3', '0', '100.0', '0', '0', '1', '2', '17', '4', '8', '46']"
"['', '26393', '2013-10-08', '23:00:00 GMT', '4', 'FLO', 'Florida', 'Panthers', '6', 'PHI', 'Philadelphia', 'Flyers', '29', 'Wells Fargo Center', '6', 'PHI', 'Philadelphia', 'Flyers', '1', '0', '0', '0', '0', '0', '1', '2', '26', '25', '51.0', '5', '0', '0.0', '4', '0', '100.0', '0', '0', '2', '1', '28', '8', '24', '28']"
"['', '26412', '2013-10-11', '23:00:00 GMT', '30', 'PHX', 'Phoenix', 'Coyotes', '6', 'PHI', 'Philadelphia', 'Flyers', '29', 'Wells Fargo Center', '6', 'PHI', 'Philadelphia', 'Flyers', '0', '1', '0', '0', '0', '0', '0', '0', '34', '32', '51.5', '3', '0', '0.0', '6', '1', '83.3', '0', '0', '1', '2', '35', '9', '29', '18']"
"['', '26419', '2013-10-12', '23:00:00 GMT', '6', 'PHI', 'Philadelphia', 'Flyers', '16', 'DET', 'Detroit', 'Red Wings', '11', 'Joe Louis Arena', '6', 'PHI', 'Philadelphia', 'Flyers', '0', '1', '0', '0', '0', '0', '0', '0', '27', '36', '42.9', '4', '0', '0.0', '6', '3', '50.0', '0', '0', '2', '5', '32', '7', '14', '24']"
"['', '26438', '2013-10-15', '23:00:00 GMT', '21', 'VAN', 'Vancouver', 'Canucks', '6', 'PHI', 'Philadelphia', 'Flyers', '29', 'Wells Fargo Center', '6', 'PHI', 'Philadelphia', 'Flyers', '0', '1', '0', '0', '0', '0', '0', '0', '15', '35', '30.0', '2', '0', '0.0', '1', '0', '100.0', '0', '0', '2', '3', '20', '2', '7', '23']"
"['', '26453', '2013-10-17', '23:00:00 GMT', '10', 'PIT', 'Pittsburgh', 'Penguins', '6', 'PHI', 'Philadelphia', 'Flyers', '29', 'Wells Fargo Center', '6', 'PHI', 'Philadelphia', 'Flyers', '0', '1', '0', '0', '0', '0', '0', '0', '39', '28', '58.2', '4', '1', '25.0', '4', '0', '100.0', '0', '0', '1', '4', '24', '5', '13', '33']"
"['', '26495', '2013-10-24', '23:00:00 GMT', '9', 'NYR', 'New York', 'Rangers', '6', 'PHI', 'Philadelphia', 'Flyers', '29', 'Wells Fargo Center', '6', 'PHI', 'Philadelphia', 'Flyers', '1', '0', '0', '0', '0', '0', '1', '2', '26', '29', '47.3', '4', '0', '0.0', '2', '0', '100.0', '1', '0', '2', '1', '25', '4', '14', '22']"
"['', '26514', '2013-10-26', '23:00:00 GMT', '6', 'PHI', 'Philadelphia', 'Flyers', '8', 'NYI', 'New York', 'Islanders', '16', 'Nassau Veterans Memorial Coliseum', '6', 'PHI', 'Philadelphia', 'Flyers', '1', '0', '0', '0', '0', '0', '1', '2', '34', '27', '55.7', '3', '1', '33.3', '3', '0', '100.0', '0', '1', '5', '2', '27', '5', '13', '25']"
"['', '26531', '2013-10-29', '23:00:00 GMT', '29', 'ANA', 'Anaheim', 'Ducks', '6', 'PHI', 'Philadelphia', 'Flyers', '29', 'Wells Fargo Center', '6', 'PHI', 'Philadelphia', 'Flyers', '0', '1', '0', '0', '0', '0', '0', '0', '24', '27', '47.1', '2', '1', '50.0', '2', '0', '100.0', '0', '0', '2', '3', '26', '2', '4', '35']"
"['', '26545', '2013-11-01', '23:00:00 GMT', '5', 'WSH', 'Washington', 'Capitals', '6', 'PHI', 'Philadelphia', 'Flyers', '29', 'Wells Fargo Center', '6', 'PHI', 'Philadelphia', 'Flyers', '0', '1', '0', '0', '0', '0', '0', '0', '31', '34', '47.7', '4', '0', '0.0', '5', '2', '60.0', '0', '0', '0', '7', '30', '18', '99', '34']"
"['', '26556', '2013-11-02', '23:00:00 GMT', '6', 'PHI', 'Philadelphia', 'Flyers', '7', 'NJD', 'New Jersey', 'Devils', '37', 'Prudential Center', '6', 'PHI', 'Philadelphia', 'Flyers', '1', '0', '0', '0', '0', '0', '1', '2', '37', '24', '60.7', '5', '0', '0.0', '4', '0', '100.0', '0', '0', '1', '0', '17', '5', '10', '15']"
"['', '26576', '2013-11-05', '00:30:00 GMT', '6', 'PHI', 'Philadelphia', 'Flyers', '3', 'CAR', 'Carolina', 'Hurricanes', '21', 'RBC Center', '6', 'PHI', 'Philadelphia', 'Flyers', '0', '0', '0', '1', '0', '0', '0', '1', '29', '42', '40.8', '3', '1', '33.3', '2', '0', '100.0', '0', '0', '1', '2', '28', '5', '10', '35']"
"['', '26586', '2013-11-07', '00:00:00 GMT', '7', 'NJD', 'New Jersey', 'Devils', '6', 'PHI', 'Philadelphia', 'Flyers', '29', 'Wells Fargo Center', '6', 'PHI', 'Philadelphia', 'Flyers', '0', '1', '0', '0', '0', '0', '0', '0', '29', '24', '54.7', '3', '0', '0.0', '3', '0', '100.0', '0', '0', '0', '3', '22', '3', '6', '30']"
"['', '26599', '2013-11-09', '18:00:00 GMT', '24', 'EDM', 'Edmonton', 'Oilers', '6', 'PHI', 'Philadelphia', 'Flyers', '29', 'Wells Fargo Center', '6', 'PHI', 'Philadelphia', 'Flyers', '1', '0', '0', '0', '0', '0', '1', '2', '31', '36', '46.3', '2', '0', '0.0', '5', '1', '80.0', '1', '0', '4', '2', '30', '7', '17', '30']"
"['', '26623', '2013-11-12', '00:30:00 GMT', '6', 'PHI', 'Philadelphia', 'Flyers', '13', 'OTT', 'Ottawa', 'Senators', '23', 'Canadian Tire Centre', '6', 'PHI', 'Philadelphia', 'Flyers', '1', '0', '0', '0', '0', '0', '1', '2', '32', '26', '55.2', '3', '2', '66.7', '1', '0', '100.0', '0', '0', '5', '0', '26', '1', '2', '30']"
"['', '26629', '2013-11-13', '01:00:00 GMT', '6', 'PHI', 'Philadelphia', 'Flyers', '10', 'PIT', 'Pittsburgh', 'Penguins', '40', 'Consol Energy Center', '6', 'PHI', 'Philadelphia', 'Flyers', '1', '0', '0', '0', '0', '0', '1', '2', '34', '27', '55.7', '2', '1', '50.0', '4', '1', '75.0', '0', '0', '2', '1', '19', '5', '10', '31']"
"['', '26646', '2013-11-15', '01:00:00 GMT', '6', 'PHI', 'Philadelphia', 'Flyers', '2', 'WPJ', 'Winnipeg', 'Jets', '39', 'MTS Centre', '6', 'PHI', 'Philadelphia', 'Flyers', '0', '0', '0', '1', '0', '0', '0', '1', '32', '40', '44.4', '3', '1', '33.3', '4', '2', '50.0', '0', '0', '2', '2', '32', '4', '8', '26']"
"['', '26668', '2013-11-19', '00:00:00 GMT', '13', 'OTT', 'Ottawa', 'Senators', '6', 'PHI', 'Philadelphia', 'Flyers', '29', 'Wells Fargo Center', '6', 'PHI', 'Philadelphia', 'Flyers', '1', '0', '0', '0', '0', '0', '1', '2', '32', '31', '50.8', '4', '1', '25.0', '6', '2', '66.7', '1', '0', '5', '2', '37', '9', '29', '21']"
"['', '26682', '2013-11-21', '00:00:00 GMT', '15', 'BUF', 'Buffalo', 'Sabres', '6', 'PHI', 'Philadelphia', 'Flyers', '29', 'Wells Fargo Center', '6', 'PHI', 'Philadelphia', 'Flyers', '1', '0', '0', '0', '0', '0', '1', '2', '31', '34', '47.7', '7', '1', '14.3', '4', '1', '75.0', '0', '0', '4', '1', '42', '7', '22', '27']"
"['', '26700', '2013-11-23', '00:00:00 GMT', '8', 'NYI', 'New York', 'Islanders', '6', 'PHI', 'Philadelphia', 'Flyers', '29', 'Wells Fargo Center', '6', 'PHI', 'Philadelphia', 'Flyers', '1', '0', '0', '0', '0', '0', '1', '2', '35', '26', '57.4', '3', '1', '33.3', '3', '0', '100.0', '0', '0', '5', '2', '25', '3', '6', '21']"
"['', '26713', '2013-11-25', '00:30:00 GMT', '6', 'PHI', 'Philadelphia', 'Flyers', '4', 'FLO', 'Florida', 'Panthers', '3', 'BB&T Center', '6', 'PHI', 'Philadelphia', 'Flyers', '0', '1', '0', '0', '0', '0', '0', '0', '29', '30', '49.2', '4', '1', '25.0', '2', '1', '50.0', '0', '0', '1', '3', '38', '3', '9', '25']"
"['', '26725', '2013-11-27', '00:30:00 GMT', '6', 'PHI', 'Philadelphia', 'Flyers', '1', 'TBL', 'Tampa Bay', 'Lightning', '26', 'Tampa Bay Times Forum', '6', 'PHI', 'Philadelphia', 'Flyers', '0', '1', '0', '0', '0', '0', '0', '0', '25', '32', '43.9', '2', '1', '50.0', '4', '1', '75.0', '0', '1', '2', '4', '18', '8', '27', '30']"
"['', '26734', '2013-11-29', '04:30:00 GMT', '2', 'WPJ', 'Winnipeg', 'Jets', '6', 'PHI', 'Philadelphia', 'Flyers', '29', 'Wells Fargo Center', '6', 'PHI', 'Philadelphia', 'Flyers', '1', '0', '0', '0', '0', '0', '1', '2', '33', '27', '55.0', '4', '0', '0.0', '5', '0', '100.0', '1', '0', '2', '1', '32', '7', '14', '37']"
"['', '26752', '2013-11-30', '01:00:00 GMT', '6', 'PHI', 'Philadelphia', 'Flyers', '18', 'NSH', 'Nashville', 'Predators', '15', 'Bridgestone Arena', '6', 'PHI', 'Philadelphia', 'Flyers', '1', '0', '0', '0', '0', '0', '0', '2', '30', '31', '49.2', '3', '0', '0.0', '5', '0', '100.0', '0', '0', '2', '2', '22', '5', '10', '21']"
"['', '26762', '2013-12-02', '01:00:00 GMT', '6', 'PHI', 'Philadelphia', 'Flyers', '25', 'MIN', 'Minnesota', 'Wild', '30', 'Xcel Energy Center', '6', 'PHI', 'Philadelphia', 'Flyers', '0', '1', '0', '0', '0', '0', '0', '0', '30', '18', '62.5', '2', '0', '0.0', '2', '0', '100.0', '0', '0', '0', '2', '21', '3', '9', '20']"
"['', '26774', '2013-12-04', '01:00:00 GMT', '6', 'PHI', 'Philadelphia', 'Flyers', '16', 'DET', 'Detroit', 'Red Wings', '11', 'Joe Louis Arena', '6', 'PHI', 'Philadelphia', 'Flyers', '1', '0', '0', '0', '0', '0', '1', '2', '32', '40', '44.4', '3', '3', '100.0', '8', '1', '87.5', '0', '0', '6', '3', '28', '10', '20', '23']"
"['', '26792', '2013-12-07', '19:00:00 GMT', '6', 'PHI', 'Philadelphia', 'Flyers', '27', 'DAL', 'Dallas', 'Stars', '2', 'American Airlines Center', '6', 'PHI', 'Philadelphia', 'Flyers', '0', '1', '0', '0', '0', '0', '0', '0', '34', '33', '50.7', '4', '0', '0.0', '3', '0', '100.0', '0', '1', '1', '5', '27', '9', '45', '21']"
"['', '26808', '2013-12-09', '00:30:00 GMT', '6', 'PHI', 'Philadelphia', 'Flyers', '13', 'OTT', 'Ottawa', 'Senators', '23', 'Canadian Tire Centre', '6', 'PHI', 'Philadelphia', 'Flyers', '0', '0', '0', '1', '0', '0', '0', '1', '23', '35', '39.7', '2', '1', '50.0', '3', '1', '66.7', '0', '0', '4', '4', '25', '5', '16', '28']"
"['', '26825', '2013-12-11', '01:00:00 GMT', '6', 'PHI', 'Philadelphia', 'Flyers', '20', 'CHI', 'Chicago', 'Blackhawks', '28', 'United Center', '6', 'PHI', 'Philadelphia', 'Flyers', '0', '1', '0', '0', '0', '0', '0', '0', '27', '38', '41.5', '5', '2', '40.0', '6', '2', '66.7', '0', '1', '2', '7', '28', '10', '39', '35']"
"['', '26828', '2013-12-12', '00:00:00 GMT', '14', 'MTL', 'Montreal', 'Canadiens', '6', 'PHI', 'Philadelphia', 'Flyers', '29', 'Wells Fargo Center', '6', 'PHI', 'Philadelphia', 'Flyers', '1', '0', '0', '0', '0', '0', '1', '2', '25', '32', '43.9', '4', '0', '0.0', '1', '0', '100.0', '0', '0', '2', '1', '25', '3', '6', '21']"
"['', '26853', '2013-12-15', '20:00:00 GMT', '6', 'PHI', 'Philadelphia', 'Flyers', '5', 'WSH', 'Washington', 'Capitals', '13', 'Verizon Center', '6', 'PHI', 'Philadelphia', 'Flyers', '0', '0', '0', '1', '0', '0', '0', '1', '29', '40', '42.0', '3', '0', '0.0', '4', '1', '75.0', '0', '0', '4', '4', '24', '7', '20', '21']"
"['', '26869', '2013-12-17', '00:30:00 GMT', '5', 'WSH', 'Washington', 'Capitals', '6', 'PHI', 'Philadelphia', 'Flyers', '29', 'Wells Fargo Center', '6', 'PHI', 'Philadelphia', 'Flyers', '1', '0', '0', '0', '0', '0', '1', '2', '25', '27', '48.1', '4', '2', '50.0', '2', '1', '50.0', '0', '0', '5', '2', '30', '6', '18', '24']"
"['', '26879', '2013-12-19', '00:00:00 GMT', '19', 'CBJ', 'Columbus', 'Blue Jackets', '6', 'PHI', 'Philadelphia', 'Flyers', '29', 'Wells Fargo Center', '6', 'PHI', 'Philadelphia', 'Flyers', '1', '0', '0', '0', '0', '0', '1', '2', '31', '28', '52.5', '3', '0', '0.0', '2', '0', '100.0', '0', '1', '5', '4', '34', '2', '4', '17']"
"['', '26901', '2013-12-21', '00:00:00 GMT', '6', 'PHI', 'Philadelphia', 'Flyers', '19', 'CBJ', 'Columbus', 'Blue Jackets', '17', 'Nationwide Arena', '6', 'PHI', 'Philadelphia', 'Flyers', '0', '1', '0', '0', '0', '0', '0', '0', '39', '41', '48.8', '4', '0', '0.0', '4', '1', '75.0', '0', '0', '3', '6', '33', '5', '13', '20']"
"['', '26914', '2013-12-23', '00:30:00 GMT', '25', 'MIN', 'Minnesota', 'Wild', '6', 'PHI', 'Philadelphia', 'Flyers', '29', 'Wells Fargo Center', '6', 'PHI', 'Philadelphia', 'Flyers', '1', '0', '0', '0', '0', '0', '1', '2', '21', '25', '45.7', '3', '1', '33.3', '5', '1', '80.0', '0', '0', '4', '1', '27', '5', '10', '29']"
"['', '26938', '2013-12-28', '03:00:00 GMT', '6', 'PHI', 'Philadelphia', 'Flyers', '24', 'EDM', 'Edmonton', 'Oilers', '22', 'Rogers Place', '6', 'PHI', 'Philadelphia', 'Flyers', '1', '0', '0', '0', '0', '0', '0', '2', '39', '35', '52.7', '5', '3', '60.0', '5', '1', '80.0', '0', '0', '3', '3', '35', '5', '10', '26']"
"['', '26952', '2013-12-30', '03:00:00 GMT', '6', 'PHI', 'Philadelphia', 'Flyers', '21', 'VAN', 'Vancouver', 'Canucks', '7', 'Rogers Arena', '6', 'PHI', 'Philadelphia', 'Flyers', '1', '0', '0', '0', '0', '0', '0', '2', '34', '37', '47.9', '2', '0', '0.0', '4', '0', '100.0', '0', '0', '3', '3', '24', '5', '10', '13']"
"['', '26962', '2013-12-31', '02:00:00 GMT', '6', 'PHI', 'Philadelphia', 'Flyers', '23', 'CGY', 'Calgary', 'Flames', '18', 'Scotiabank Saddledome', '6', 'PHI', 'Philadelphia', 'Flyers', '1', '0', '0', '0', '0', '0', '1', '2', '34', '26', '56.7', '1', '0', '0.0', '2', '0', '100.0', '1', '0', '4', '1', '17', '2', '4', '9']"
"['', '26973', '2014-01-02', '02:00:00 GMT', '6', 'PHI', 'Philadelphia', 'Flyers', '22', 'COL', 'Colorado', 'Avalanche', '19', 'Pepsi Center', '6', 'PHI', 'Philadelphia', 'Flyers', '0', '1', '0', '0', '0', '0', '0', '0', '26', '35', '42.6', '3', '0', '0.0', '2', '0', '100.0', '0', '0', '1', '2', '29', '2', '4', '28']"
"['', '26990', '2014-01-04', '01:00:00 GMT', '6', 'PHI', 'Philadelphia', 'Flyers', '30', 'PHX', 'Phoenix', 'Coyotes', '6', 'Jobing.com Arena', '6', 'PHI', 'Philadelphia', 'Flyers', '1', '0', '0', '0', '0', '0', '1', '2', '23', '31', '42.6', '3', '1', '33.3', '4', '0', '100.0', '0', '0', '5', '3', '23', '5', '13', '25']"
"['', '27003', '2014-01-07', '00:30:00 GMT', '6', 'PHI', 'Philadelphia', 'Flyers', '7', 'NJD', 'New Jersey', 'Devils', '37', 'Prudential Center', '6', 'PHI', 'Philadelphia', 'Flyers', '1', '0', '0', '0', '0', '0', '1', '2', '35', '26', '57.4', '5', '1', '20.0', '2', '0', '100.0', '0', '1', '3', '2', '25', '3', '6', '28']"
"['', '27011', '2014-01-08', '00:30:00 GMT', '14', 'MTL', 'Montreal', 'Canadiens', '6', 'PHI', 'Philadelphia', 'Flyers', '29', 'Wells Fargo Center', '6', 'PHI', 'Philadelphia', 'Flyers', '1', '0', '0', '0', '0', '0', '1', '2', '26', '25', '51.0', '4', '0', '0.0', '4', '0', '100.0', '0', '1', '3', '1', '24', '5', '13', '21']"
"['', '27029', '2014-01-11', '18:00:00 GMT', '1', 'TBL', 'Tampa Bay', 'Lightning', '6', 'PHI', 'Philadelphia', 'Flyers', '29', 'Wells Fargo Center', '6', 'PHI', 'Philadelphia', 'Flyers', '0', '1', '0', '0', '0', '0', '0', '0', '32', '25', '56.1', '4', '1', '25.0', '3', '0', '100.0', '0', '0', '3', '6', '35', '5', '10', '23']"
"['', '27042', '2014-01-12', '00:00:00 GMT', '6', 'PHI', 'Philadelphia', 'Flyers', '9', 'NYR', 'New York', 'Rangers', '12', 'Madison Square Garden', '6', 'PHI', 'Philadelphia', 'Flyers', '0', '1', '0', '0', '0', '0', '0', '0', '26', '34', '43.3', '3', '1', '33.3', '6', '1', '83.3', '0', '0', '1', '4', '37', '10', '42', '31']"
"['', '27053', '2014-01-14', '00:30:00 GMT', '6', 'PHI', 'Philadelphia', 'Flyers', '15', 'BUF', 'Buffalo', 'Sabres', '10', 'First Niagara Center', '6', 'PHI', 'Philadelphia', 'Flyers', '1', '0', '0', '0', '0', '0', '1', '2', '33', '36', '47.8', '6', '2', '33.3', '4', '0', '100.0', '0', '0', '4', '3', '29', '4', '8', '8']"
"['', '27065', '2014-01-16', '00:00:00 GMT', '18', 'NSH', 'Nashville', 'Predators', '6', 'PHI', 'Philadelphia', 'Flyers', '29', 'Wells Fargo Center', '6', 'PHI', 'Philadelphia', 'Flyers', '0', '0', '0', '1', '0', '0', '0', '1', '35', '22', '61.4', '4', '1', '25.0', '5', '2', '60.0', '0', '0', '3', '3', '27', '5', '10', '23']"
"['', '27083', '2014-01-18', '00:00:00 GMT', '8', 'NYI', 'New York', 'Islanders', '6', 'PHI', 'Philadelphia', 'Flyers', '29', 'Wells Fargo Center', '6', 'PHI', 'Philadelphia', 'Flyers', '1', '0', '0', '0', '0', '0', '1', '2', '39', '19', '67.2', '2', '0', '0.0', '3', '0', '100.0', '0', '1', '6', '4', '26', '5', '13', '34']"
"['', '27094', '2014-01-20', '18:00:00 GMT', '6', 'PHI', 'Philadelphia', 'Flyers', '8', 'NYI', 'New York', 'Islanders', '16', 'Nassau Veterans Memorial Coliseum', '6', 'PHI', 'Philadelphia', 'Flyers', '0', '0', '0', '1', '0', '0', '0', '1', '30', '37', '44.8', '3', '0', '0.0', '6', '2', '66.7', '1', '0', '3', '3', '26', '9', '24', '22']"
"['', '27103', '2014-01-23', '11:00:00 GMT', '3', 'CAR', 'Carolina', 'Hurricanes', '6', 'PHI', 'Philadelphia', 'Flyers', '29', 'Wells Fargo Center', '6', 'PHI', 'Philadelphia', 'Flyers', '0', '1', '0', '0', '0', '0', '0', '0', '22', '28', '44.0', '2', '1', '50.0', '2', '0', '100.0', '0', '0', '2', '3', '22', '3', '6', '27']"
"['', '27115', '2014-01-23', '00:00:00 GMT', '6', 'PHI', 'Philadelphia', 'Flyers', '19', 'CBJ', 'Columbus', 'Blue Jackets', '17', 'Nationwide Arena', '6', 'PHI', 'Philadelphia', 'Flyers', '0', '1', '0', '0', '0', '0', '0', '0', '24', '34', '41.4', '5', '1', '20.0', '4', '1', '75.0', '0', '0', '2', '5', '26', '7', '14', '21']"
"['', '27130', '2014-01-25', '18:00:00 GMT', '11', 'BOS', 'Boston', 'Bruins', '6', 'PHI', 'Philadelphia', 'Flyers', '29', 'Wells Fargo Center', '6', 'PHI', 'Philadelphia', 'Flyers', '0', '1', '0', '0', '0', '0', '0', '0', '27', '40', '40.3', '2', '1', '50.0', '4', '2', '50.0', '0', '0', '1', '6', '25', '7', '20', '39']"
"['', '27150', '2014-01-28', '00:00:00 GMT', '16', 'DET', 'Detroit', 'Red Wings', '6', 'PHI', 'Philadelphia', 'Flyers', '29', 'Wells Fargo Center', '6', 'PHI', 'Philadelphia', 'Flyers', '1', '0', '0', '0', '0', '0', '1', '2', '24', '28', '46.2', '2', '1', '50.0', '4', '0', '100.0', '0', '0', '5', '0', '23', '6', '12', '36']"
"['', '27170', '2014-01-30', '03:00:00 GMT', '6', 'PHI', 'Philadelphia', 'Flyers', '29', 'ANA', 'Anaheim', 'Ducks', '8', 'Honda Center', '6', 'PHI', 'Philadelphia', 'Flyers', '0', '1', '0', '0', '0', '0', '0', '0', '32', '37', '46.4', '4', '1', '25.0', '1', '0', '100.0', '0', '1', '3', '5', '27', '2', '7', '20']"
"['', '27180', '2014-02-01', '21:00:00 GMT', '6', 'PHI', 'Philadelphia', 'Flyers', '28', 'LAK', 'Los Angeles', 'Kings', '25', 'Staples Center', '6', 'PHI', 'Philadelphia', 'Flyers', '1', '0', '0', '0', '0', '0', '1', '2', '22', '32', '40.7', '2', '1', '50.0', '3', '0', '100.0', '0', '0', '2', '0', '11', '3', '6', '34']"
"['', '27195', '2014-02-03', '03:30:00 GMT', '6', 'PHI', 'Philadelphia', 'Flyers', '26', 'SJS', 'San Jose', 'Sharks', '9', 'SAP Center at San Jose', '6', 'PHI', 'Philadelphia', 'Flyers', '1', '0', '0', '0', '0', '0', '1', '2', '31', '36', '46.3', '2', '1', '50.0', '5', '1', '80.0', '0', '0', '5', '2', '23', '5', '10', '22']"
"['', '27210', '2014-02-06', '00:00:00 GMT', '22', 'COL', 'Colorado', 'Avalanche', '6', 'PHI', 'Philadelphia', 'Flyers', '29', 'Wells Fargo Center', '6', 'PHI', 'Philadelphia', 'Flyers', '1', '0', '0', '0', '0', '0', '1', '2', '36', '35', '50.7', '3', '1', '33.3', '3', '0', '100.0', '0', '0', '3', '1', '32', '4', '8', '15']"
"['', '27224', '2014-02-08', '18:00:00 GMT', '23', 'CGY', 'Calgary', 'Flames', '6', 'PHI', 'Philadelphia', 'Flyers', '29', 'Wells Fargo Center', '6', 'PHI', 'Philadelphia', 'Flyers', '1', '0', '0', '0', '0', '0', '1', '2', '31', '19', '62.0', '2', '0', '0.0', '1', '0', '100.0', '0', '0', '2', '1', '21', '3', '6', '25']"
"['', '27241', '2014-02-27', '00:00:00 GMT', '26', 'SJS', 'San Jose', 'Sharks', '6', 'PHI', 'Philadelphia', 'Flyers', '29', 'Wells Fargo Center', '6', 'PHI', 'Philadelphia', 'Flyers', '0', '1', '0', '0', '0', '0', '0', '0', '36', '38', '48.6', '4', '0', '0.0', '2', '1', '50.0', '0', '1', '3', '7', '27', '6', '20', '19']"
"['', '27256', '2014-03-01', '18:00:00 GMT', '9', 'NYR', 'New York', 'Rangers', '6', 'PHI', 'Philadelphia', 'Flyers', '29', 'Wells Fargo Center', '6', 'PHI', 'Philadelphia', 'Flyers', '1', '0', '0', '0', '0', '0', '1', '2', '33', '26', '55.9', '4', '1', '25.0', '3', '1', '66.7', '0', '0', '4', '2', '27', '5', '18', '36']"
"['', '27584', '2014-03-02', '05:30:00 GMT', '6', 'PHI', 'Philadelphia', 'Flyers', '5', 'WSH', 'Washington', 'Capitals', '13', 'Verizon Center', '6', 'PHI', 'Philadelphia', 'Flyers', '1', '0', '0', '0', '0', '0', '1', '2', '37', '23', '61.7', '3', '2', '66.7', '4', '0', '100.0', '0', '0', '5', '4', '31', '8', '16', '27']"
"['', '27286', '2014-03-05', '01:00:00 GMT', '5', 'WSH', 'Washington', 'Capitals', '6', 'PHI', 'Philadelphia', 'Flyers', '29', 'Wells Fargo Center', '6', 'PHI', 'Philadelphia', 'Flyers', '1', '0', '0', '0', '0', '0', '1', '2', '39', '23', '62.9', '2', '1', '50.0', '4', '3', '25.0', '0', '0', '6', '4', '24', '9', '32', '36']"
"['', '27306', '2014-03-08', '00:00:00 GMT', '6', 'PHI', 'Philadelphia', 'Flyers', '12', 'TOR', 'Toronto', 'Maple Leafs', '1', 'Air Canada Center', '6', 'PHI', 'Philadelphia', 'Flyers', '0', '0', '0', '1', '0', '0', '0', '1', '31', '34', '47.7', '2', '0', '0.0', '2', '0', '100.0', '0', '0', '3', '4', '28', '4', '11', '38']"
"['', '27328', '2014-03-11', '23:00:00 GMT', '7', 'NJD', 'New Jersey', 'Devils', '6', 'PHI', 'Philadelphia', 'Flyers', '29', 'Wells Fargo Center', '6', 'PHI', 'Philadelphia', 'Flyers', '0', '1', '0', '0', '0', '0', '0', '0', '38', '20', '65.5', '6', '0', '0.0', '3', '0', '100.0', '0', '0', '1', '2', '30', '3', '6', '28']"
"['', '27356', '2014-03-15', '17:00:00 GMT', '10', 'PIT', 'Pittsburgh', 'Penguins', '6', 'PHI', 'Philadelphia', 'Flyers', '29', 'Wells Fargo Center', '6', 'PHI', 'Philadelphia', 'Flyers', '1', '0', '0', '0', '0', '0', '1', '2', '31', '24', '56.4', '3', '1', '33.3', '5', '0', '100.0', '1', '0', '4', '0', '36', '5', '10', '38']"
"['', '27370', '2014-03-16', '23:30:00 GMT', '6', 'PHI', 'Philadelphia', 'Flyers', '10', 'PIT', 'Pittsburgh', 'Penguins', '40', 'Consol Energy Center', '6', 'PHI', 'Philadelphia', 'Flyers', '1', '0', '0', '0', '0', '0', '1', '2', '27', '23', '54.0', '3', '2', '66.7', '4', '0', '100.0', '1', '0', '4', '3', '31', '4', '8', '25']"
"['', '27384', '2014-03-18', '23:30:00 GMT', '20', 'CHI', 'Chicago', 'Blackhawks', '6', 'PHI', 'Philadelphia', 'Flyers', '29', 'Wells Fargo Center', '6', 'PHI', 'Philadelphia', 'Flyers', '1', '0', '0', '0', '0', '0', '1', '2', '32', '32', '50.0', '5', '0', '0.0', '3', '0', '100.0', '0', '0', '3', '2', '34', '6', '18', '34']"
"['', '27394', '2014-03-20', '23:00:00 GMT', '27', 'DAL', 'Dallas', 'Stars', '6', 'PHI', 'Philadelphia', 'Flyers', '29', 'Wells Fargo Center', '6', 'PHI', 'Philadelphia', 'Flyers', '1', '0', '0', '0', '0', '0', '1', '2', '35', '27', '56.5', '2', '1', '50.0', '3', '1', '66.7', '0', '0', '4', '2', '25', '3', '6', '33']"
"['', '27406', '2014-03-22', '17:00:00 GMT', '17', 'STL', 'St. Louis', 'Blues', '6', 'PHI', 'Philadelphia', 'Flyers', '29', 'Wells Fargo Center', '6', 'PHI', 'Philadelphia', 'Flyers', '1', '0', '0', '0', '0', '0', '1', '2', '26', '33', '44.1', '4', '1', '25.0', '6', '0', '100.0', '0', '1', '4', '1', '15', '10', '20', '32']"
"['', '27425', '2014-03-24', '23:00:00 GMT', '28', 'LAK', 'Los Angeles', 'Kings', '6', 'PHI', 'Philadelphia', 'Flyers', '29', 'Wells Fargo Center', '6', 'PHI', 'Philadelphia', 'Flyers', '0', '1', '0', '0', '0', '0', '0', '0', '39', '24', '61.9', '3', '0', '0.0', '4', '0', '100.0', '0', '0', '2', '3', '30', '5', '10', '37']"
"['', '27441', '2014-03-26', '00:00:00 GMT', '6', 'PHI', 'Philadelphia', 'Flyers', '9', 'NYR', 'New York', 'Rangers', '12', 'Madison Square Garden', '6', 'PHI', 'Philadelphia', 'Flyers', '0', '1', '0', '0', '0', '0', '0', '0', '32', '30', '51.6', '1', '0', '0.0', '2', '0', '100.0', '0', '0', '1', '3', '30', '5', '10', '22']"
"['', '27453', '2014-03-28', '23:00:00 GMT', '12', 'TOR', 'Toronto', 'Maple Leafs', '6', 'PHI', 'Philadelphia', 'Flyers', '29', 'Wells Fargo Center', '6', 'PHI', 'Philadelphia', 'Flyers', '1', '0', '0', '0', '0', '0', '1', '2', '34', '29', '54.0', '5', '2', '40.0', '3', '0', '100.0', '0', '0', '4', '2', '25', '6', '12', '35']"
"['', '27471', '2014-03-30', '23:30:00 GMT', '11', 'BOS', 'Boston', 'Bruins', '6', 'PHI', 'Philadelphia', 'Flyers', '29', 'Wells Fargo Center', '6', 'PHI', 'Philadelphia', 'Flyers', '0', '0', '0', '1', '0', '0', '0', '1', '41', '32', '56.2', '3', '0', '0.0', '2', '1', '50.0', '0', '0', '3', '3', '49', '3', '9', '43']"
"['', '27486', '2014-04-01', '00:00:00 GMT', '6', 'PHI', 'Philadelphia', 'Flyers', '17', 'STL', 'St. Louis', 'Blues', '24', 'Scottrade Center', '6', 'PHI', 'Philadelphia', 'Flyers', '0', '0', '0', '1', '0', '0', '0', '1', '21', '34', '38.2', '2', '0', '0.0', '3', '0', '100.0', '0', '0', '0', '0', '31', '4', '8', '25']"
"['', '27495', '2014-04-03', '23:00:00 GMT', '19', 'CBJ', 'Columbus', 'Blue Jackets', '6', 'PHI', 'Philadelphia', 'Flyers', '29', 'Wells Fargo Center', '6', 'PHI', 'Philadelphia', 'Flyers', '0', '1', '0', '0', '0', '0', '0', '0', '34', '22', '60.7', '3', '0', '0.0', '4', '1', '75.0', '0', '0', '0', '2', '37', '4', '8', '34']"
"['', '27510', '2014-04-05', '17:00:00 GMT', '6', 'PHI', 'Philadelphia', 'Flyers', '11', 'BOS', 'Boston', 'Bruins', '27', 'TD Garden', '6', 'PHI', 'Philadelphia', 'Flyers', '0', '1', '0', '0', '0', '0', '0', '0', '21', '31', '40.4', '3', '1', '33.3', '1', '0', '100.0', '0', '0', '2', '5', '24', '2', '7', '27']"
"['', '27523', '2014-04-06', '23:30:00 GMT', '15', 'BUF', 'Buffalo', 'Sabres', '6', 'PHI', 'Philadelphia', 'Flyers', '29', 'Wells Fargo Center', '6', 'PHI', 'Philadelphia', 'Flyers', '1', '0', '0', '0', '0', '0', '1', '2', '30', '30', '50.0', '4', '1', '25.0', '3', '0', '100.0', '0', '0', '5', '2', '32', '5', '18', '25']"
"['', '27535', '2014-04-08', '23:30:00 GMT', '6', 'PHI', 'Philadelphia', 'Flyers', '4', 'FLO', 'Florida', 'Panthers', '3', 'BB&T Center', '6', 'PHI', 'Philadelphia', 'Flyers', '1', '0', '0', '0', '0', '0', '1', '2', '32', '34', '48.5', '3', '0', '0.0', '1', '0', '100.0', '0', '0', '5', '2', '22', '1', '2', '22']"
"['', '27548', '2014-04-10', '23:30:00 GMT', '6', 'PHI', 'Philadelphia', 'Flyers', '1', 'TBL', 'Tampa Bay', 'Lightning', '26', 'Tampa Bay Times Forum', '6', 'PHI', 'Philadelphia', 'Flyers', '0', '1', '0', '0', '0', '0', '0', '0', '29', '28', '50.9', '3', '1', '33.3', '3', '1', '66.7', '0', '0', '2', '4', '34', '3', '6', '13']"
"['', '27562', '2014-04-12', '19:00:00 GMT', '6', 'PHI', 'Philadelphia', 'Flyers', '10', 'PIT', 'Pittsburgh', 'Penguins', '40', 'Consol Energy Center', '6', 'PHI', 'Philadelphia', 'Flyers', '1', '0', '0', '0', '0', '0', '1', '2', '34', '29', '54.0', '2', '1', '50.0', '4', '0', '100.0', '0', '0', '4', '3', '17', '6', '12', '24']"
"['', '27571', '2014-04-13', '19:00:00 GMT', '3', 'CAR', 'Carolina', 'Hurricanes', '6', 'PHI', 'Philadelphia', 'Flyers', '29', 'Wells Fargo Center', '6', 'PHI', 'Philadelphia', 'Flyers', '0', '0', '0', '1', '0', '0', '0', '1', '23', '38', '37.7', '2', '1', '50.0', '2', '1', '50.0', '0', '0', '5', '5', '39', '4', '19', '17']"
