"['#Date/Time of Update: 2018-12-10 19:03:24 GMT', '#Game ID', '#Game Date', '#Game Time', '#Away Team ID', '#Away Team Abbr.', '#Away Team City', '#Away Team Name', '#Home Team ID', '#Home Team Abbr.', '#Home Team City', '#Home Team Name', '#Venue ID', '#Venue Name', '#Team ID', '#Team Abbr.', '#Team City', '#Team Name', '#Wins', '#Losses', '#OvertimeWins', '#OvertimeLosses', '#Points', '#FaceoffWins', '#FaceoffLosses', '#FaceoffPercent', '#Powerplays', '#PowerplayGoals', '#PowerplayPercent', '#PenaltyKills', '#PenaltyKillGoalsAllowed', '#PenaltyKillPercent', '#ShorthandedGoalsFor', '#ShorthandedGoalsAgainst', '#GoalsFor', '#GoalsAgainst', '#Shots', '#BlockedShots', '#Penalties', '#PenaltyMinutes', '#Hits']"
"['', '40782', '2017-10-05', '23:30:00 GMT', '5', 'WSH', 'Washington', 'Capitals', '13', 'OTT', 'Ottawa', 'Senators', '23', 'Canadian Tire Centre', '5', 'WSH', 'Washington', 'Capitals', '1', '0', '0', '0', '2', '31', '27', '53.4', '1', '0', '0.0', '5', '0', '100.0', '0', '0', '4', '4', '28', '15', '5', '10', '25']"
"['', '40790', '2017-10-07', '23:00:00 GMT', '14', 'MTL', 'Montreal', 'Canadiens', '5', 'WSH', 'Washington', 'Capitals', '13', 'Capital One Arena', '5', 'WSH', 'Washington', 'Capitals', '1', '0', '0', '0', '2', '41', '26', '61.2', '4', '1', '25.0', '4', '0', '100.0', '0', '1', '6', '1', '23', '15', '4', '8', '21']"
"['', '43340', '2017-10-09', '23:00:00 GMT', '5', 'WSH', 'Washington', 'Capitals', '1', 'TBL', 'Tampa Bay', 'Lightning', '26', 'Amalie Arena', '5', 'WSH', 'Washington', 'Capitals', '0', '0', '0', '1', '1', '32', '32', '50.0', '3', '2', '66.7', '5', '1', '80.0', '0', '0', '3', '4', '26', '17', '7', '14', '14']"
"['', '40819', '2017-10-11', '23:30:00 GMT', '10', 'PIT', 'Pittsburgh', 'Penguins', '5', 'WSH', 'Washington', 'Capitals', '13', 'Capital One Arena', '5', 'WSH', 'Washington', 'Capitals', '0', '1', '0', '0', '0', '38', '29', '56.7', '4', '0', '0.0', '6', '3', '50.0', '0', '0', '2', '3', '22', '16', '6', '12', '26']"
"['', '40832', '2017-10-13', '23:00:00 GMT', '5', 'WSH', 'Washington', 'Capitals', '7', 'NJD', 'New Jersey', 'Devils', '37', 'Prudential Center', '5', 'WSH', 'Washington', 'Capitals', '1', '0', '0', '0', '2', '27', '39', '40.9', '4', '3', '75.0', '6', '1', '83.3', '0', '0', '5', '2', '28', '9', '8', '30', '27']"
"['', '40841', '2017-10-14', '23:00:00 GMT', '5', 'WSH', 'Washington', 'Capitals', '6', 'PHI', 'Philadelphia', 'Flyers', '29', 'Wells Fargo Center', '5', 'WSH', 'Washington', 'Capitals', '0', '1', '0', '0', '0', '28', '32', '46.7', '2', '0', '0.0', '2', '1', '50.0', '0', '1', '2', '8', '23', '10', '3', '14', '20']"
"['', '40854', '2017-10-17', '23:00:00 GMT', '12', 'TOR', 'Toronto', 'Maple Leafs', '5', 'WSH', 'Washington', 'Capitals', '13', 'Capital One Arena', '5', 'WSH', 'Washington', 'Capitals', '0', '1', '0', '0', '0', '28', '23', '54.9', '3', '0', '0.0', '2', '0', '100.0', '0', '0', '0', '2', '30', '9', '2', '4', '24']"
"['', '40880', '2017-10-20', '23:30:00 GMT', '5', 'WSH', 'Washington', 'Capitals', '16', 'DET', 'Detroit', 'Red Wings', '145', 'Little Caesars Arena', '5', 'WSH', 'Washington', 'Capitals', '1', '0', '0', '0', '2', '33', '27', '55.0', '5', '2', '40.0', '5', '1', '80.0', '1', '1', '4', '3', '41', '15', '5', '10', '18']"
"['', '40887', '2017-10-21', '23:30:00 GMT', '4', 'FLO', 'Florida', 'Panthers', '5', 'WSH', 'Washington', 'Capitals', '13', 'Capital One Arena', '5', 'WSH', 'Washington', 'Capitals', '0', '1', '0', '0', '0', '34', '43', '44.2', '4', '0', '0.0', '6', '2', '66.7', '0', '1', '1', '4', '42', '11', '6', '12', '12']"
"['', '40921', '2017-10-26', '02:00:00 GMT', '5', 'WSH', 'Washington', 'Capitals', '21', 'VAN', 'Vancouver', 'Canucks', '7', 'Rogers Arena', '5', 'WSH', 'Washington', 'Capitals', '0', '1', '0', '0', '0', '30', '38', '44.1', '2', '0', '0.0', '6', '3', '50.0', '0', '0', '2', '6', '27', '10', '8', '27', '22']"
"['', '40939', '2017-10-28', '02:00:00 GMT', '5', 'WSH', 'Washington', 'Capitals', '24', 'EDM', 'Edmonton', 'Oilers', '22', 'Rogers Place', '5', 'WSH', 'Washington', 'Capitals', '1', '0', '0', '0', '2', '24', '37', '39.3', '0', '0', '0.0', '4', '0', '100.0', '0', '0', '5', '2', '31', '24', '5', '10', '26']"
"['', '40942', '2017-10-29', '01:00:00 GMT', '5', 'WSH', 'Washington', 'Capitals', '23', 'CGY', 'Calgary', 'Flames', '18', 'Scotiabank Saddledome', '5', 'WSH', 'Washington', 'Capitals', '0', '1', '0', '0', '0', '33', '27', '55.0', '2', '0', '0.0', '2', '0', '100.0', '0', '0', '1', '2', '31', '7', '3', '6', '17']"
"['', '40959', '2017-11-02', '23:00:00 GMT', '8', 'NYI', 'New York', 'Islanders', '5', 'WSH', 'Washington', 'Capitals', '13', 'Capital One Arena', '5', 'WSH', 'Washington', 'Capitals', '1', '0', '0', '0', '2', '32', '20', '61.5', '4', '0', '0.0', '4', '2', '50.0', '0', '0', '4', '3', '19', '19', '5', '10', '10']"
"['', '40976', '2017-11-04', '23:00:00 GMT', '5', 'WSH', 'Washington', 'Capitals', '11', 'BOS', 'Boston', 'Bruins', '27', 'TD Garden', '5', 'WSH', 'Washington', 'Capitals', '1', '0', '0', '0', '2', '29', '31', '48.3', '2', '0', '0.0', '4', '1', '75.0', '0', '0', '3', '2', '27', '13', '3', '8', '23']"
"['', '40993', '2017-11-06', '00:00:00 GMT', '30', 'ARI', 'Arizona', 'Coyotes', '5', 'WSH', 'Washington', 'Capitals', '13', 'Capital One Arena', '5', 'WSH', 'Washington', 'Capitals', '1', '0', '0', '0', '2', '34', '24', '58.6', '6', '1', '16.7', '3', '0', '100.0', '0', '0', '3', '2', '40', '11', '4', '11', '14']"
"['', '40999', '2017-11-07', '00:00:00 GMT', '5', 'WSH', 'Washington', 'Capitals', '15', 'BUF', 'Buffalo', 'Sabres', '10', 'KeyBank Center', '5', 'WSH', 'Washington', 'Capitals', '0', '1', '0', '0', '0', '29', '31', '48.3', '1', '0', '0.0', '4', '0', '100.0', '0', '0', '1', '3', '25', '8', '5', '13', '22']"
"['', '41016', '2017-11-10', '00:00:00 GMT', '10', 'PIT', 'Pittsburgh', 'Penguins', '5', 'WSH', 'Washington', 'Capitals', '13', 'Capital One Arena', '5', 'WSH', 'Washington', 'Capitals', '1', '0', '0', '0', '2', '34', '26', '56.7', '5', '2', '40.0', '4', '0', '100.0', '0', '0', '4', '1', '31', '15', '5', '13', '30']"
"['', '41034', '2017-11-12', '00:00:00 GMT', '24', 'EDM', 'Edmonton', 'Oilers', '5', 'WSH', 'Washington', 'Capitals', '13', 'Capital One Arena', '5', 'WSH', 'Washington', 'Capitals', '1', '0', '0', '0', '2', '27', '30', '47.4', '3', '0', '0.0', '0', '0', '0.0', '0', '0', '1', '1', '19', '19', '2', '7', '28']"
"['', '41044', '2017-11-14', '01:00:00 GMT', '5', 'WSH', 'Washington', 'Capitals', '18', 'NSH', 'Nashville', 'Predators', '15', 'Bridgestone Arena', '5', 'WSH', 'Washington', 'Capitals', '0', '1', '0', '0', '0', '30', '38', '44.1', '3', '1', '33.3', '5', '1', '80.0', '0', '0', '3', '6', '29', '16', '5', '10', '24']"
"['', '41058', '2017-11-16', '02:00:00 GMT', '5', 'WSH', 'Washington', 'Capitals', '22', 'COL', 'Colorado', 'Avalanche', '19', 'Pepsi Center', '5', 'WSH', 'Washington', 'Capitals', '0', '1', '0', '0', '0', '43', '24', '64.2', '5', '1', '20.0', '6', '2', '66.7', '0', '0', '2', '6', '30', '18', '10', '20', '26']"
"['', '41074', '2017-11-18', '00:30:00 GMT', '25', 'MIN', 'Minnesota', 'Wild', '5', 'WSH', 'Washington', 'Capitals', '13', 'Capital One Arena', '5', 'WSH', 'Washington', 'Capitals', '1', '0', '0', '0', '2', '30', '30', '50.0', '4', '2', '50.0', '4', '1', '75.0', '0', '0', '3', '1', '42', '10', '4', '8', '29']"
"['', '41084', '2017-11-20', '00:00:00 GMT', '23', 'CGY', 'Calgary', 'Flames', '5', 'WSH', 'Washington', 'Capitals', '13', 'Capital One Arena', '5', 'WSH', 'Washington', 'Capitals', '0', '1', '0', '0', '0', '30', '31', '49.2', '3', '0', '0.0', '5', '2', '60.0', '0', '0', '1', '4', '30', '20', '5', '10', '16']"
"['', '41093', '2017-11-22', '00:00:00 GMT', '13', 'OTT', 'Ottawa', 'Senators', '5', 'WSH', 'Washington', 'Capitals', '13', 'Capital One Arena', '5', 'WSH', 'Washington', 'Capitals', '1', '0', '0', '0', '2', '30', '24', '55.6', '1', '1', '100.0', '3', '0', '100.0', '0', '0', '5', '2', '25', '14', '4', '8', '20']"
"['', '41111', '2017-11-24', '22:00:00 GMT', '1', 'TBL', 'Tampa Bay', 'Lightning', '5', 'WSH', 'Washington', 'Capitals', '13', 'Capital One Arena', '5', 'WSH', 'Washington', 'Capitals', '1', '0', '0', '0', '2', '40', '18', '69.0', '3', '0', '0.0', '3', '1', '66.7', '0', '0', '3', '1', '38', '25', '3', '6', '26']"
"['', '41121', '2017-11-25', '00:00:00 GMT', '5', 'WSH', 'Washington', 'Capitals', '12', 'TOR', 'Toronto', 'Maple Leafs', '1', 'Air Canada Center', '5', 'WSH', 'Washington', 'Capitals', '1', '0', '0', '0', '2', '25', '34', '42.4', '3', '1', '33.3', '1', '0', '100.0', '0', '0', '4', '2', '21', '12', '1', '2', '37']"
"['', '41154', '2017-11-30', '00:00:00 GMT', '28', 'LAK', 'Los Angeles', 'Kings', '5', 'WSH', 'Washington', 'Capitals', '13', 'Capital One Arena', '5', 'WSH', 'Washington', 'Capitals', '0', '1', '0', '0', '0', '26', '26', '50.0', '2', '0', '0.0', '2', '0', '100.0', '0', '0', '2', '5', '29', '11', '2', '4', '14']"
"['', '41171', '2017-12-02', '00:00:00 GMT', '19', 'CBJ', 'Columbus', 'Blue Jackets', '5', 'WSH', 'Washington', 'Capitals', '13', 'Capital One Arena', '5', 'WSH', 'Washington', 'Capitals', '1', '0', '0', '0', '2', '37', '23', '61.7', '2', '1', '50.0', '0', '0', '0.0', '0', '1', '4', '3', '23', '14', '0', '0', '32']"
"['', '41185', '2017-12-04', '00:00:00 GMT', '26', 'SJS', 'San Jose', 'Sharks', '5', 'WSH', 'Washington', 'Capitals', '13', 'Capital One Arena', '5', 'WSH', 'Washington', 'Capitals', '1', '0', '0', '0', '2', '34', '24', '58.6', '6', '2', '33.3', '1', '0', '100.0', '0', '0', '4', '1', '29', '16', '7', '20', '16']"
"['', '41200', '2017-12-06', '01:00:00 GMT', '20', 'CHI', 'Chicago', 'Blackhawks', '5', 'WSH', 'Washington', 'Capitals', '13', 'Capital One Arena', '5', 'WSH', 'Washington', 'Capitals', '1', '0', '0', '0', '2', '30', '37', '44.8', '2', '1', '50.0', '5', '0', '100.0', '1', '0', '6', '2', '25', '20', '6', '12', '15']"
"['', '41212', '2017-12-08', '00:00:00 GMT', '9', 'NYR', 'New York', 'Rangers', '5', 'WSH', 'Washington', 'Capitals', '13', 'Capital One Arena', '5', 'WSH', 'Washington', 'Capitals', '1', '0', '0', '0', '2', '34', '20', '63.0', '4', '0', '0.0', '3', '0', '100.0', '0', '0', '4', '2', '40', '15', '3', '6', '21']"
"['', '41234', '2017-12-11', '00:00:00 GMT', '5', 'WSH', 'Washington', 'Capitals', '8', 'NYI', 'New York', 'Islanders', '16', 'Nassau Veterans Memorial Coliseum', '5', 'WSH', 'Washington', 'Capitals', '0', '1', '0', '0', '0', '28', '28', '50.0', '2', '0', '0.0', '3', '0', '100.0', '0', '0', '1', '3', '32', '8', '3', '6', '20']"
"['', '41239', '2017-12-12', '00:00:00 GMT', '22', 'COL', 'Colorado', 'Avalanche', '5', 'WSH', 'Washington', 'Capitals', '13', 'Capital One Arena', '5', 'WSH', 'Washington', 'Capitals', '1', '0', '0', '0', '2', '27', '24', '52.9', '1', '0', '0.0', '4', '0', '100.0', '0', '0', '5', '2', '27', '22', '4', '8', '24']"
"['', '41254', '2017-12-14', '00:00:00 GMT', '5', 'WSH', 'Washington', 'Capitals', '11', 'BOS', 'Boston', 'Bruins', '27', 'TD Garden', '5', 'WSH', 'Washington', 'Capitals', '1', '0', '0', '0', '2', '27', '37', '42.2', '4', '1', '25.0', '5', '2', '60.0', '1', '0', '5', '3', '22', '15', '7', '22', '20']"
"['', '41275', '2017-12-16', '01:00:00 GMT', '29', 'ANA', 'Anaheim', 'Ducks', '5', 'WSH', 'Washington', 'Capitals', '13', 'Capital One Arena', '5', 'WSH', 'Washington', 'Capitals', '1', '0', '0', '0', '2', '24', '25', '49.0', '0', '0', '0.0', '1', '1', '0.0', '0', '0', '3', '2', '27', '16', '2', '7', '25']"
"['', '41295', '2017-12-19', '01:30:00 GMT', '5', 'WSH', 'Washington', 'Capitals', '27', 'DAL', 'Dallas', 'Stars', '2', 'American Airlines Center', '5', 'WSH', 'Washington', 'Capitals', '1', '0', '0', '0', '2', '28', '28', '50.0', '3', '0', '0.0', '4', '1', '75.0', '0', '0', '4', '3', '28', '21', '7', '14', '24']"
"['', '43402', '2017-12-22', '02:00:00 GMT', '5', 'WSH', 'Washington', 'Capitals', '30', 'ARI', 'Arizona', 'Coyotes', '6', 'Gila River Arena', '5', 'WSH', 'Washington', 'Capitals', '0', '0', '0', '1', '1', '29', '22', '56.9', '2', '0', '0.0', '2', '1', '50.0', '0', '0', '2', '3', '17', '13', '2', '4', '17']"
"['', '41328', '2017-12-23', '01:00:00 GMT', '5', 'WSH', 'Washington', 'Capitals', '142', 'VGK', 'Vegas', 'Golden Knights', '139', 'T-Mobile Arena', '5', 'WSH', 'Washington', 'Capitals', '0', '1', '0', '0', '0', '26', '27', '49.1', '4', '0', '0.0', '2', '0', '100.0', '0', '0', '0', '3', '26', '10', '2', '4', '34']"
"['', '43401', '2017-12-27', '01:00:00 GMT', '5', 'WSH', 'Washington', 'Capitals', '9', 'NYR', 'New York', 'Rangers', '12', 'Madison Square Garden', '5', 'WSH', 'Washington', 'Capitals', '0', '0', '0', '1', '1', '19', '32', '37.3', '2', '0', '0.0', '3', '0', '100.0', '0', '0', '0', '0', '30', '12', '3', '6', '22']"
"['', '41342', '2017-12-28', '00:30:00 GMT', '11', 'BOS', 'Boston', 'Bruins', '5', 'WSH', 'Washington', 'Capitals', '13', 'Capital One Arena', '5', 'WSH', 'Washington', 'Capitals', '1', '0', '0', '0', '2', '30', '37', '44.8', '4', '1', '25.0', '5', '0', '100.0', '0', '0', '3', '3', '34', '19', '6', '15', '37']"
"['', '41360', '2017-12-30', '00:00:00 GMT', '7', 'NJD', 'New Jersey', 'Devils', '5', 'WSH', 'Washington', 'Capitals', '13', 'Capital One Arena', '5', 'WSH', 'Washington', 'Capitals', '1', '0', '0', '0', '2', '31', '25', '55.4', '2', '1', '50.0', '2', '0', '100.0', '0', '0', '5', '2', '35', '19', '2', '4', '23']"
"['', '41375', '2018-01-02', '00:00:00 GMT', '5', 'WSH', 'Washington', 'Capitals', '3', 'CAR', 'Carolina', 'Hurricanes', '21', 'PNC Arena', '5', 'WSH', 'Washington', 'Capitals', '1', '0', '0', '0', '2', '27', '30', '47.4', '2', '0', '0.0', '4', '1', '75.0', '0', '0', '5', '4', '26', '14', '4', '8', '25']"
"['', '41418', '2018-01-07', '20:00:00 GMT', '17', 'STL', 'St. Louis', 'Blues', '5', 'WSH', 'Washington', 'Capitals', '13', 'Capital One Arena', '5', 'WSH', 'Washington', 'Capitals', '1', '0', '0', '0', '2', '26', '36', '41.9', '4', '2', '50.0', '2', '1', '50.0', '0', '0', '4', '3', '33', '9', '2', '4', '18']"
"['', '41426', '2018-01-09', '00:00:00 GMT', '21', 'VAN', 'Vancouver', 'Canucks', '5', 'WSH', 'Washington', 'Capitals', '13', 'Capital One Arena', '5', 'WSH', 'Washington', 'Capitals', '1', '0', '0', '0', '2', '33', '28', '54.1', '2', '0', '0.0', '3', '1', '66.7', '0', '0', '3', '1', '36', '22', '5', '21', '24']"
"['', '41435', '2018-01-11', '00:00:00 GMT', '3', 'CAR', 'Carolina', 'Hurricanes', '5', 'WSH', 'Washington', 'Capitals', '13', 'Capital One Arena', '5', 'WSH', 'Washington', 'Capitals', '0', '1', '0', '0', '0', '27', '28', '49.1', '3', '0', '0.0', '1', '0', '100.0', '0', '1', '1', '3', '28', '20', '1', '2', '19']"
"['', '41440', '2018-01-12', '00:30:00 GMT', '5', 'WSH', 'Washington', 'Capitals', '3', 'CAR', 'Carolina', 'Hurricanes', '21', 'PNC Arena', '5', 'WSH', 'Washington', 'Capitals', '1', '0', '0', '0', '2', '32', '28', '53.3', '4', '1', '25.0', '5', '2', '60.0', '0', '0', '4', '3', '27', '7', '5', '10', '22']"
"['', '41471', '2018-01-18', '00:00:00 GMT', '5', 'WSH', 'Washington', 'Capitals', '7', 'NJD', 'New Jersey', 'Devils', '37', 'Prudential Center', '5', 'WSH', 'Washington', 'Capitals', '0', '0', '0', '1', '1', '26', '36', '41.9', '5', '0', '0.0', '3', '0', '100.0', '0', '0', '3', '4', '19', '7', '4', '11', '26']"
"['', '41478', '2018-01-19', '00:30:00 GMT', '14', 'MTL', 'Montreal', 'Canadiens', '5', 'WSH', 'Washington', 'Capitals', '13', 'Capital One Arena', '5', 'WSH', 'Washington', 'Capitals', '0', '1', '0', '0', '0', '32', '24', '57.1', '3', '1', '33.3', '4', '1', '75.0', '0', '0', '2', '3', '26', '19', '6', '15', '18']"
"['', '41494', '2018-01-21', '17:30:00 GMT', '6', 'PHI', 'Philadelphia', 'Flyers', '5', 'WSH', 'Washington', 'Capitals', '13', 'Capital One Arena', '5', 'WSH', 'Washington', 'Capitals', '0', '0', '0', '1', '1', '26', '30', '46.4', '3', '1', '33.3', '3', '0', '100.0', '0', '0', '1', '2', '28', '4', '4', '8', '30']"
"['', '41524', '2018-01-25', '00:30:00 GMT', '5', 'WSH', 'Washington', 'Capitals', '4', 'FLO', 'Florida', 'Panthers', '3', 'BB&T Center', '5', 'WSH', 'Washington', 'Capitals', '1', '0', '0', '0', '2', '27', '37', '42.2', '5', '2', '40.0', '4', '0', '100.0', '0', '0', '4', '2', '46', '8', '6', '15', '21']"
"['', '41547', '2018-01-31', '01:00:00 GMT', '6', 'PHI', 'Philadelphia', 'Flyers', '5', 'WSH', 'Washington', 'Capitals', '13', 'Capital One Arena', '5', 'WSH', 'Washington', 'Capitals', '1', '0', '0', '0', '2', '26', '36', '41.9', '3', '2', '66.7', '1', '0', '100.0', '0', '0', '5', '3', '25', '9', '2', '7', '18']"
"['', '41561', '2018-02-02', '00:00:00 GMT', '5', 'WSH', 'Washington', 'Capitals', '10', 'PIT', 'Pittsburgh', 'Penguins', '40', 'PPG Paints Arena', '5', 'WSH', 'Washington', 'Capitals', '0', '1', '0', '0', '0', '32', '31', '50.8', '3', '0', '0.0', '4', '3', '25.0', '0', '0', '4', '7', '33', '11', '5', '10', '31']"
"['', '41578', '2018-02-04', '17:30:00 GMT', '142', 'VGK', 'Vegas', 'Golden Knights', '5', 'WSH', 'Washington', 'Capitals', '13', 'Capital One Arena', '5', 'WSH', 'Washington', 'Capitals', '0', '1', '0', '0', '0', '19', '26', '42.2', '2', '0', '0.0', '1', '1', '0.0', '0', '0', '3', '4', '23', '17', '1', '2', '28']"
"['', '41588', '2018-02-06', '00:00:00 GMT', '5', 'WSH', 'Washington', 'Capitals', '19', 'CBJ', 'Columbus', 'Blue Jackets', '17', 'Nationwide Arena', '5', 'WSH', 'Washington', 'Capitals', '1', '0', '0', '0', '2', '28', '26', '51.9', '1', '1', '100.0', '3', '0', '100.0', '0', '0', '3', '2', '25', '14', '4', '11', '13']"
"['', '41610', '2018-02-09', '00:00:00 GMT', '19', 'CBJ', 'Columbus', 'Blue Jackets', '5', 'WSH', 'Washington', 'Capitals', '13', 'Capital One Arena', '5', 'WSH', 'Washington', 'Capitals', '1', '0', '0', '0', '2', '27', '32', '45.8', '4', '1', '25.0', '3', '0', '100.0', '0', '0', '4', '2', '17', '21', '3', '6', '20']"
"['', '41626', '2018-02-11', '20:00:00 GMT', '16', 'DET', 'Detroit', 'Red Wings', '5', 'WSH', 'Washington', 'Capitals', '13', 'Capital One Arena', '5', 'WSH', 'Washington', 'Capitals', '0', '0', '0', '1', '1', '30', '29', '50.8', '3', '2', '66.7', '3', '0', '100.0', '0', '0', '4', '5', '27', '17', '3', '6', '25']"
"['', '41645', '2018-02-13', '01:00:00 GMT', '5', 'WSH', 'Washington', 'Capitals', '2', 'WPJ', 'Winnipeg', 'Jets', '39', 'Bell MTS Place', '5', 'WSH', 'Washington', 'Capitals', '0', '0', '0', '1', '1', '29', '30', '49.2', '2', '0', '0.0', '3', '0', '100.0', '0', '1', '3', '4', '27', '20', '3', '6', '15']"
"['', '41658', '2018-02-15', '01:00:00 GMT', '5', 'WSH', 'Washington', 'Capitals', '25', 'MIN', 'Minnesota', 'Wild', '30', 'Xcel Energy Center', '5', 'WSH', 'Washington', 'Capitals', '1', '0', '0', '0', '2', '29', '39', '42.6', '2', '0', '0.0', '5', '1', '80.0', '0', '0', '5', '2', '27', '12', '5', '10', '12']"
"['', '41675', '2018-02-17', '01:30:00 GMT', '5', 'WSH', 'Washington', 'Capitals', '20', 'CHI', 'Chicago', 'Blackhawks', '28', 'United Center', '5', 'WSH', 'Washington', 'Capitals', '0', '1', '0', '0', '0', '30', '28', '51.7', '2', '0', '0.0', '5', '1', '80.0', '0', '0', '1', '7', '20', '17', '7', '25', '35']"
"['', '41686', '2018-02-19', '20:00:00 GMT', '5', 'WSH', 'Washington', 'Capitals', '15', 'BUF', 'Buffalo', 'Sabres', '10', 'KeyBank Center', '5', 'WSH', 'Washington', 'Capitals', '1', '0', '0', '0', '2', '35', '33', '51.5', '1', '0', '0.0', '3', '0', '100.0', '0', '0', '3', '2', '30', '10', '3', '6', '14']"
"['', '41690', '2018-02-20', '00:00:00 GMT', '1', 'TBL', 'Tampa Bay', 'Lightning', '5', 'WSH', 'Washington', 'Capitals', '13', 'Capital One Arena', '5', 'WSH', 'Washington', 'Capitals', '0', '1', '0', '0', '0', '23', '27', '46.0', '2', '1', '50.0', '2', '1', '50.0', '0', '0', '2', '4', '37', '13', '2', '4', '19']"
"['', '41707', '2018-02-22', '00:30:00 GMT', '5', 'WSH', 'Washington', 'Capitals', '4', 'FLO', 'Florida', 'Panthers', '3', 'BB&T Center', '5', 'WSH', 'Washington', 'Capitals', '0', '1', '0', '0', '0', '28', '34', '45.2', '3', '1', '33.3', '5', '1', '80.0', '0', '0', '2', '3', '35', '14', '7', '33', '14']"
"['', '41721', '2018-02-24', '00:00:00 GMT', '15', 'BUF', 'Buffalo', 'Sabres', '5', 'WSH', 'Washington', 'Capitals', '13', 'Capital One Arena', '5', 'WSH', 'Washington', 'Capitals', '1', '0', '0', '0', '2', '31', '31', '50.0', '1', '1', '100.0', '2', '0', '100.0', '0', '0', '5', '1', '36', '17', '2', '4', '20']"
"['', '41736', '2018-02-26', '00:00:00 GMT', '5', 'WSH', 'Washington', 'Capitals', '19', 'CBJ', 'Columbus', 'Blue Jackets', '17', 'Nationwide Arena', '5', 'WSH', 'Washington', 'Capitals', '0', '1', '0', '0', '0', '24', '33', '42.1', '3', '1', '33.3', '4', '2', '50.0', '0', '1', '1', '5', '26', '12', '5', '10', '13']"
"['', '41742', '2018-02-27', '00:00:00 GMT', '13', 'OTT', 'Ottawa', 'Senators', '5', 'WSH', 'Washington', 'Capitals', '13', 'Capital One Arena', '5', 'WSH', 'Washington', 'Capitals', '1', '0', '0', '0', '2', '36', '24', '60.0', '2', '0', '0.0', '7', '1', '85.7', '0', '0', '3', '2', '22', '22', '9', '24', '20']"
"['', '41778', '2018-03-03', '01:00:00 GMT', '12', 'TOR', 'Toronto', 'Maple Leafs', '5', 'WSH', 'Washington', 'Capitals', '13', 'Capital One Arena', '5', 'WSH', 'Washington', 'Capitals', '1', '0', '0', '0', '2', '38', '29', '56.7', '2', '2', '100.0', '2', '0', '100.0', '0', '0', '5', '2', '34', '24', '2', '4', '22']"
"['', '41800', '2018-03-06', '03:00:00 GMT', '5', 'WSH', 'Washington', 'Capitals', '29', 'ANA', 'Anaheim', 'Ducks', '8', 'Honda Center', '5', 'WSH', 'Washington', 'Capitals', '0', '1', '0', '0', '0', '29', '24', '54.7', '3', '0', '0.0', '1', '1', '0.0', '0', '0', '0', '4', '36', '13', '2', '4', '22']"
"['', '41815', '2018-03-08', '03:30:00 GMT', '5', 'WSH', 'Washington', 'Capitals', '28', 'LAK', 'Los Angeles', 'Kings', '25', 'Staples Center', '5', 'WSH', 'Washington', 'Capitals', '0', '1', '0', '0', '0', '18', '37', '32.7', '3', '0', '0.0', '1', '0', '100.0', '0', '0', '1', '3', '26', '8', '2', '4', '30']"
"['', '41826', '2018-03-10', '21:00:00 GMT', '5', 'WSH', 'Washington', 'Capitals', '26', 'SJS', 'San Jose', 'Sharks', '9', 'SAP Center at San Jose', '5', 'WSH', 'Washington', 'Capitals', '1', '0', '0', '0', '2', '33', '20', '62.3', '0', '0', '0.0', '2', '0', '100.0', '0', '0', '2', '0', '26', '14', '2', '4', '26']"
"['', '41838', '2018-03-12', '23:00:00 GMT', '2', 'WPJ', 'Winnipeg', 'Jets', '5', 'WSH', 'Washington', 'Capitals', '13', 'Capital One Arena', '5', 'WSH', 'Washington', 'Capitals', '1', '0', '0', '0', '2', '34', '35', '49.3', '4', '1', '25.0', '3', '0', '100.0', '0', '0', '3', '2', '43', '22', '3', '6', '28']"
"['', '41855', '2018-03-15', '23:00:00 GMT', '5', 'WSH', 'Washington', 'Capitals', '8', 'NYI', 'New York', 'Islanders', '16', 'Nassau Veterans Memorial Coliseum', '5', 'WSH', 'Washington', 'Capitals', '1', '0', '0', '0', '2', '30', '32', '48.4', '1', '1', '100.0', '3', '0', '100.0', '0', '0', '7', '3', '22', '17', '3', '6', '12']"
"['', '41864', '2018-03-16', '23:00:00 GMT', '8', 'NYI', 'New York', 'Islanders', '5', 'WSH', 'Washington', 'Capitals', '13', 'Capital One Arena', '5', 'WSH', 'Washington', 'Capitals', '1', '0', '0', '0', '2', '36', '30', '54.5', '9', '3', '33.3', '4', '3', '25.0', '0', '0', '6', '3', '31', '19', '6', '15', '15']"
"['', '41884', '2018-03-18', '21:00:00 GMT', '5', 'WSH', 'Washington', 'Capitals', '6', 'PHI', 'Philadelphia', 'Flyers', '29', 'Wells Fargo Center', '5', 'WSH', 'Washington', 'Capitals', '0', '1', '0', '0', '0', '33', '25', '56.9', '3', '0', '0.0', '3', '0', '100.0', '0', '0', '3', '6', '28', '15', '5', '13', '17']"
"['', '41896', '2018-03-20', '23:00:00 GMT', '27', 'DAL', 'Dallas', 'Stars', '5', 'WSH', 'Washington', 'Capitals', '13', 'Capital One Arena', '5', 'WSH', 'Washington', 'Capitals', '1', '0', '0', '0', '2', '35', '26', '57.4', '3', '1', '33.3', '4', '1', '75.0', '0', '0', '4', '3', '32', '21', '5', '10', '36']"
"['', '41912', '2018-03-22', '23:30:00 GMT', '5', 'WSH', 'Washington', 'Capitals', '16', 'DET', 'Detroit', 'Red Wings', '145', 'Little Caesars Arena', '5', 'WSH', 'Washington', 'Capitals', '1', '0', '0', '0', '2', '31', '32', '49.2', '3', '0', '0.0', '3', '0', '100.0', '0', '0', '1', '0', '26', '15', '4', '8', '15']"
"['', '41925', '2018-03-24', '23:00:00 GMT', '5', 'WSH', 'Washington', 'Capitals', '14', 'MTL', 'Montreal', 'Canadiens', '4', 'Bell Centre', '5', 'WSH', 'Washington', 'Capitals', '1', '0', '0', '0', '2', '39', '29', '57.4', '3', '2', '66.7', '3', '1', '66.7', '0', '0', '6', '4', '30', '14', '3', '6', '21']"
"['', '41940', '2018-03-26', '23:30:00 GMT', '5', 'WSH', 'Washington', 'Capitals', '9', 'NYR', 'New York', 'Rangers', '12', 'Madison Square Garden', '5', 'WSH', 'Washington', 'Capitals', '1', '0', '0', '0', '2', '27', '26', '50.9', '3', '1', '33.3', '4', '0', '100.0', '1', '0', '4', '2', '33', '15', '4', '8', '16']"
"['', '41959', '2018-03-28', '00:00:00 GMT', '9', 'NYR', 'New York', 'Rangers', '5', 'WSH', 'Washington', 'Capitals', '13', 'Capital One Arena', '5', 'WSH', 'Washington', 'Capitals', '1', '0', '0', '0', '2', '33', '29', '53.2', '5', '0', '0.0', '3', '1', '66.7', '0', '0', '3', '2', '32', '12', '6', '12', '16']"
"['', '41973', '2018-03-30', '23:00:00 GMT', '3', 'CAR', 'Carolina', 'Hurricanes', '5', 'WSH', 'Washington', 'Capitals', '13', 'Capital One Arena', '5', 'WSH', 'Washington', 'Capitals', '0', '1', '0', '0', '0', '22', '31', '41.5', '2', '0', '0.0', '1', '0', '100.0', '0', '0', '1', '4', '21', '14', '1', '2', '22']"
"['', '41993', '2018-04-01', '23:30:00 GMT', '5', 'WSH', 'Washington', 'Capitals', '10', 'PIT', 'Pittsburgh', 'Penguins', '40', 'PPG Paints Arena', '5', 'WSH', 'Washington', 'Capitals', '1', '0', '0', '0', '2', '34', '35', '49.3', '5', '0', '0.0', '5', '0', '100.0', '0', '0', '3', '1', '34', '15', '7', '14', '33']"
"['', '41998', '2018-04-02', '00:00:00 GMT', '5', 'WSH', 'Washington', 'Capitals', '17', 'STL', 'St. Louis', 'Blues', '24', 'Scottrade Center', '5', 'WSH', 'Washington', 'Capitals', '1', '0', '0', '0', '2', '29', '37', '43.9', '2', '1', '50.0', '4', '0', '100.0', '0', '0', '4', '2', '34', '25', '4', '8', '13']"
"['', '42013', '2018-04-05', '23:00:00 GMT', '18', 'NSH', 'Nashville', 'Predators', '5', 'WSH', 'Washington', 'Capitals', '13', 'Capital One Arena', '5', 'WSH', 'Washington', 'Capitals', '0', '1', '0', '0', '0', '29', '36', '44.6', '4', '2', '50.0', '2', '2', '0.0', '0', '0', '3', '4', '32', '19', '2', '4', '24']"
"['', '42035', '2018-04-07', '23:00:00 GMT', '7', 'NJD', 'New Jersey', 'Devils', '5', 'WSH', 'Washington', 'Capitals', '13', 'Capital One Arena', '5', 'WSH', 'Washington', 'Capitals', '1', '0', '0', '0', '2', '32', '22', '59.3', '2', '0', '0.0', '1', '0', '100.0', '0', '0', '5', '3', '26', '13', '3', '6', '15']"
