"['#Date/Time of Update: 2018-12-10 19:02:57 GMT', '#Game ID', '#Game Date', '#Game Time', '#Away Team ID', '#Away Team Abbr.', '#Away Team City', '#Away Team Name', '#Home Team ID', '#Home Team Abbr.', '#Home Team City', '#Home Team Name', '#Venue ID', '#Venue Name', '#Team ID', '#Team Abbr.', '#Team City', '#Team Name', '#Wins', '#Losses', '#OvertimeWins', '#OvertimeLosses', '#ShootoutWins', '#ShootoutLosses', '#Points', '#FaceoffWins', '#FaceoffLosses', '#FaceoffPercent', '#Powerplays', '#PowerplayGoals', '#PowerplayPercent', '#PenaltyKills', '#PenaltyKillGoalsAllowed', '#PenaltyKillPercent', '#ShorthandedGoalsFor', '#ShorthandedGoalsAgainst', '#GoalsFor', '#GoalsAgainst', '#Shots', '#Penalties', '#PenaltyMinutes', '#Hits']"
"['', '8696', '2009-10-03', '23:00:00 GMT', '14', 'MTL', 'Montreal', 'Canadiens', '15', 'BUF', 'Buffalo', 'Sabres', '10', 'HSBC Arena', '15', 'BUF', 'Buffalo', 'Sabres', '0', '0', '0', '1', '0', '0', '1', '33', '29', '53.2', '6', '1', '16.7', '5', '0', '100.0', '0', '1', '1', '2', '34', '9', '18', '17']"
"['', '9915', '2009-10-08', '23:00:00 GMT', '30', 'PHX', 'Phoenix', 'Coyotes', '15', 'BUF', 'Buffalo', 'Sabres', '10', 'HSBC Arena', '15', 'BUF', 'Buffalo', 'Sabres', '1', '0', '0', '0', '0', '0', '2', '20', '34', '37.0', '5', '1', '20.0', '3', '1', '66.7', '0', '0', '2', '1', '37', '4', '11', '11']"
"['', '8740', '2009-10-10', '00:00:00 GMT', '15', 'BUF', 'Buffalo', 'Sabres', '18', 'NSH', 'Nashville', 'Predators', '15', 'Sommet Center', '15', 'BUF', 'Buffalo', 'Sabres', '1', '0', '0', '0', '0', '0', '2', '21', '36', '36.8', '4', '0', '0.0', '1', '0', '100.0', '0', '0', '1', '0', '41', '2', '4', '13']"
"['', '8756', '2009-10-13', '23:00:00 GMT', '16', 'DET', 'Detroit', 'Red Wings', '15', 'BUF', 'Buffalo', 'Sabres', '10', 'HSBC Arena', '15', 'BUF', 'Buffalo', 'Sabres', '1', '0', '0', '0', '0', '0', '2', '33', '20', '62.3', '4', '1', '25.0', '1', '1', '0.0', '0', '0', '6', '2', '31', '3', '6', '17']"
"['', '8771', '2009-10-16', '23:30:00 GMT', '8', 'NYI', 'New York', 'Islanders', '15', 'BUF', 'Buffalo', 'Sabres', '10', 'HSBC Arena', '15', 'BUF', 'Buffalo', 'Sabres', '1', '0', '0', '0', '0', '0', '2', '32', '26', '55.2', '5', '1', '20.0', '2', '1', '50.0', '0', '0', '6', '3', '28', '3', '9', '17']"
"['', '8776', '2009-10-17', '23:00:00 GMT', '2', 'ATL', 'Atlanta', 'Thrashers', '15', 'BUF', 'Buffalo', 'Sabres', '10', 'HSBC Arena', '15', 'BUF', 'Buffalo', 'Sabres', '0', '1', '0', '0', '0', '0', '0', '31', '31', '50.0', '4', '1', '25.0', '5', '2', '60.0', '0', '0', '2', '4', '40', '5', '10', '27']"
"['', '8797', '2009-10-21', '23:30:00 GMT', '15', 'BUF', 'Buffalo', 'Sabres', '4', 'FLO', 'Florida', 'Panthers', '3', 'BankAtlantic Center', '15', 'BUF', 'Buffalo', 'Sabres', '1', '0', '0', '0', '0', '0', '2', '32', '28', '53.3', '5', '1', '20.0', '6', '0', '100.0', '0', '0', '5', '2', '31', '10', '28', '14']"
"['', '8820', '2009-10-24', '23:30:00 GMT', '15', 'BUF', 'Buffalo', 'Sabres', '1', 'TBL', 'Tampa Bay', 'Lightning', '26', 'St. Pete Times Forum', '15', 'BUF', 'Buffalo', 'Sabres', '1', '0', '0', '0', '0', '0', '2', '33', '29', '53.2', '3', '0', '0.0', '2', '0', '100.0', '0', '0', '2', '2', '30', '3', '6', '17']"
"['', '8839', '2009-10-28', '23:00:00 GMT', '15', 'BUF', 'Buffalo', 'Sabres', '7', 'NJD', 'New Jersey', 'Devils', '5', 'Izod Center', '15', 'BUF', 'Buffalo', 'Sabres', '1', '0', '0', '0', '0', '0', '2', '34', '24', '58.6', '3', '1', '33.3', '4', '1', '75.0', '0', '0', '4', '1', '23', '6', '12', '13']"
"['', '8857', '2009-10-30', '23:30:00 GMT', '12', 'TOR', 'Toronto', 'Maple Leafs', '15', 'BUF', 'Buffalo', 'Sabres', '10', 'HSBC Arena', '15', 'BUF', 'Buffalo', 'Sabres', '1', '0', '0', '0', '0', '0', '2', '31', '33', '48.4', '7', '2', '28.6', '3', '0', '100.0', '0', '1', '3', '2', '25', '6', '12', '19']"
"['', '8868', '2009-10-31', '23:00:00 GMT', '15', 'BUF', 'Buffalo', 'Sabres', '8', 'NYI', 'New York', 'Islanders', '16', 'Nassau Veterans Memorial Coliseum', '15', 'BUF', 'Buffalo', 'Sabres', '0', '1', '0', '0', '0', '0', '0', '27', '32', '45.8', '5', '0', '0.0', '2', '1', '50.0', '0', '0', '0', '5', '38', '7', '28', '11']"
"['', '8886', '2009-11-04', '00:00:00 GMT', '8', 'NYI', 'New York', 'Islanders', '15', 'BUF', 'Buffalo', 'Sabres', '10', 'HSBC Arena', '15', 'BUF', 'Buffalo', 'Sabres', '1', '0', '0', '0', '0', '0', '2', '39', '8', '83.0', '5', '2', '40.0', '3', '0', '100.0', '0', '0', '3', '0', '36', '4', '8', '12']"
"['', '8904', '2009-11-06', '00:30:00 GMT', '6', 'PHI', 'Philadelphia', 'Flyers', '15', 'BUF', 'Buffalo', 'Sabres', '10', 'HSBC Arena', '15', 'BUF', 'Buffalo', 'Sabres', '0', '1', '0', '0', '0', '0', '0', '27', '31', '46.6', '4', '2', '50.0', '2', '0', '100.0', '0', '0', '2', '5', '28', '5', '10', '9']"
"['', '8909', '2009-11-07', '00:00:00 GMT', '15', 'BUF', 'Buffalo', 'Sabres', '11', 'BOS', 'Boston', 'Bruins', '27', 'TD Garden', '15', 'BUF', 'Buffalo', 'Sabres', '0', '1', '0', '0', '0', '0', '0', '31', '36', '46.3', '7', '0', '0.0', '3', '2', '33.3', '0', '0', '2', '4', '28', '9', '43', '15']"
"['', '8930', '2009-11-11', '00:00:00 GMT', '24', 'EDM', 'Edmonton', 'Oilers', '15', 'BUF', 'Buffalo', 'Sabres', '10', 'HSBC Arena', '15', 'BUF', 'Buffalo', 'Sabres', '1', '0', '0', '0', '0', '0', '2', '36', '19', '65.5', '4', '0', '0.0', '5', '1', '80.0', '0', '0', '3', '1', '23', '9', '29', '5']"
"['', '8948', '2009-11-13', '00:30:00 GMT', '23', 'CGY', 'Calgary', 'Flames', '15', 'BUF', 'Buffalo', 'Sabres', '10', 'HSBC Arena', '15', 'BUF', 'Buffalo', 'Sabres', '1', '0', '0', '0', '0', '0', '2', '38', '24', '61.3', '4', '1', '25.0', '4', '0', '100.0', '0', '0', '1', '1', '32', '8', '22', '25']"
"['', '8954', '2009-11-14', '00:00:00 GMT', '15', 'BUF', 'Buffalo', 'Sabres', '6', 'PHI', 'Philadelphia', 'Flyers', '29', 'Wachovia Center', '15', 'BUF', 'Buffalo', 'Sabres', '1', '0', '0', '0', '0', '0', '2', '21', '36', '36.8', '6', '2', '33.3', '3', '0', '100.0', '0', '1', '3', '2', '22', '6', '12', '10']"
"['', '8977', '2009-11-18', '00:00:00 GMT', '4', 'FLO', 'Florida', 'Panthers', '15', 'BUF', 'Buffalo', 'Sabres', '10', 'HSBC Arena', '15', 'BUF', 'Buffalo', 'Sabres', '0', '1', '0', '0', '0', '0', '0', '17', '32', '34.7', '4', '1', '25.0', '3', '0', '100.0', '0', '0', '2', '6', '26', '3', '6', '15']"
"['', '8991', '2009-11-20', '00:30:00 GMT', '11', 'BOS', 'Boston', 'Bruins', '15', 'BUF', 'Buffalo', 'Sabres', '10', 'HSBC Arena', '15', 'BUF', 'Buffalo', 'Sabres', '0', '0', '0', '1', '0', '0', '1', '30', '23', '56.6', '2', '1', '50.0', '4', '0', '100.0', '0', '0', '1', '2', '25', '4', '8', '29']"
"['', '9000', '2009-11-21', '00:00:00 GMT', '15', 'BUF', 'Buffalo', 'Sabres', '13', 'OTT', 'Ottawa', 'Senators', '23', 'Scotiabank Place', '15', 'BUF', 'Buffalo', 'Sabres', '0', '1', '0', '0', '0', '0', '0', '21', '38', '35.6', '6', '1', '16.7', '4', '1', '75.0', '0', '0', '3', '5', '38', '6', '12', '29']"
"['', '9025', '2009-11-25', '00:00:00 GMT', '15', 'BUF', 'Buffalo', 'Sabres', '5', 'WSH', 'Washington', 'Capitals', '13', 'Verizon Center', '15', 'BUF', 'Buffalo', 'Sabres', '0', '1', '0', '0', '0', '0', '0', '18', '25', '41.9', '2', '0', '0.0', '0', '0', '0.0', '0', '0', '0', '2', '25', '1', '2', '17']"
"['', '9039', '2009-11-27', '18:00:00 GMT', '15', 'BUF', 'Buffalo', 'Sabres', '6', 'PHI', 'Philadelphia', 'Flyers', '29', 'Wachovia Center', '15', 'BUF', 'Buffalo', 'Sabres', '1', '0', '0', '0', '0', '0', '2', '38', '27', '58.5', '3', '1', '33.3', '3', '0', '100.0', '0', '0', '4', '2', '21', '9', '35', '12']"
"['', '9052', '2009-11-28', '00:00:00 GMT', '3', 'CAR', 'Carolina', 'Hurricanes', '15', 'BUF', 'Buffalo', 'Sabres', '10', 'HSBC Arena', '15', 'BUF', 'Buffalo', 'Sabres', '1', '0', '0', '0', '0', '0', '2', '28', '31', '47.5', '5', '2', '40.0', '5', '0', '100.0', '0', '0', '5', '1', '19', '5', '10', '8']"
"['', '9067', '2009-11-30', '00:00:00 GMT', '15', 'BUF', 'Buffalo', 'Sabres', '12', 'TOR', 'Toronto', 'Maple Leafs', '1', 'Air Canada Center', '15', 'BUF', 'Buffalo', 'Sabres', '1', '0', '0', '0', '0', '0', '2', '27', '23', '54.0', '2', '0', '0.0', '3', '0', '100.0', '0', '0', '3', '0', '28', '5', '13', '23']"
"['', '9081', '2009-12-03', '00:00:00 GMT', '14', 'MTL', 'Montreal', 'Canadiens', '15', 'BUF', 'Buffalo', 'Sabres', '10', 'HSBC Arena', '15', 'BUF', 'Buffalo', 'Sabres', '1', '0', '0', '0', '0', '0', '2', '23', '31', '42.6', '2', '0', '0.0', '1', '0', '100.0', '0', '0', '6', '2', '31', '2', '7', '16']"
"['', '9100', '2009-12-05', '00:00:00 GMT', '9', 'NYR', 'New York', 'Rangers', '15', 'BUF', 'Buffalo', 'Sabres', '10', 'HSBC Arena', '15', 'BUF', 'Buffalo', 'Sabres', '0', '1', '0', '0', '0', '0', '0', '24', '33', '42.1', '3', '0', '0.0', '2', '0', '100.0', '0', '0', '1', '2', '36', '2', '4', '12']"
"['', '9112', '2009-12-07', '00:00:00 GMT', '7', 'NJD', 'New Jersey', 'Devils', '15', 'BUF', 'Buffalo', 'Sabres', '10', 'HSBC Arena', '15', 'BUF', 'Buffalo', 'Sabres', '0', '1', '0', '0', '0', '0', '0', '16', '23', '41.0', '3', '0', '0.0', '4', '1', '75.0', '0', '0', '0', '3', '22', '5', '10', '17']"
"['', '9125', '2009-12-09', '00:00:00 GMT', '5', 'WSH', 'Washington', 'Capitals', '15', 'BUF', 'Buffalo', 'Sabres', '10', 'HSBC Arena', '15', 'BUF', 'Buffalo', 'Sabres', '1', '0', '0', '0', '0', '0', '2', '19', '37', '33.9', '3', '1', '33.3', '1', '0', '100.0', '0', '0', '3', '0', '25', '2', '4', '11']"
"['', '9143', '2009-12-11', '00:30:00 GMT', '20', 'CHI', 'Chicago', 'Blackhawks', '15', 'BUF', 'Buffalo', 'Sabres', '10', 'HSBC Arena', '15', 'BUF', 'Buffalo', 'Sabres', '1', '0', '0', '0', '0', '0', '2', '25', '23', '52.1', '5', '1', '20.0', '3', '0', '100.0', '0', '0', '2', '1', '31', '4', '8', '17']"
"['', '9151', '2009-12-12', '00:00:00 GMT', '15', 'BUF', 'Buffalo', 'Sabres', '9', 'NYR', 'New York', 'Rangers', '12', 'Madison Square Garden', '15', 'BUF', 'Buffalo', 'Sabres', '1', '0', '0', '0', '0', '0', '2', '27', '37', '42.2', '3', '0', '0.0', '6', '2', '66.7', '1', '0', '3', '2', '29', '6', '12', '26']"
"['', '9169', '2009-12-14', '00:30:00 GMT', '15', 'BUF', 'Buffalo', 'Sabres', '14', 'MTL', 'Montreal', 'Canadiens', '4', 'Bell Centre', '15', 'BUF', 'Buffalo', 'Sabres', '1', '0', '0', '0', '0', '0', '2', '20', '39', '33.9', '6', '1', '16.7', '4', '2', '50.0', '1', '0', '4', '3', '23', '6', '15', '10']"
"['', '9180', '2009-12-16', '00:30:00 GMT', '15', 'BUF', 'Buffalo', 'Sabres', '13', 'OTT', 'Ottawa', 'Senators', '23', 'Scotiabank Place', '15', 'BUF', 'Buffalo', 'Sabres', '0', '1', '0', '0', '0', '0', '0', '20', '28', '41.7', '5', '0', '0.0', '2', '0', '100.0', '0', '0', '0', '2', '22', '4', '8', '20']"
"['', '9195', '2009-12-18', '00:30:00 GMT', '12', 'TOR', 'Toronto', 'Maple Leafs', '15', 'BUF', 'Buffalo', 'Sabres', '10', 'HSBC Arena', '15', 'BUF', 'Buffalo', 'Sabres', '1', '0', '0', '0', '0', '0', '2', '28', '25', '52.8', '2', '0', '0.0', '1', '0', '100.0', '0', '0', '5', '2', '22', '1', '2', '9']"
"['', '9203', '2009-12-19', '00:00:00 GMT', '10', 'PIT', 'Pittsburgh', 'Penguins', '15', 'BUF', 'Buffalo', 'Sabres', '10', 'HSBC Arena', '15', 'BUF', 'Buffalo', 'Sabres', '0', '0', '0', '1', '0', '0', '1', '34', '26', '56.7', '8', '0', '0.0', '5', '0', '100.0', '0', '0', '1', '1', '31', '5', '10', '23']"
"['', '9217', '2009-12-21', '00:00:00 GMT', '15', 'BUF', 'Buffalo', 'Sabres', '12', 'TOR', 'Toronto', 'Maple Leafs', '1', 'Air Canada Center', '15', 'BUF', 'Buffalo', 'Sabres', '1', '0', '0', '0', '0', '0', '2', '22', '37', '37.3', '1', '0', '0.0', '0', '0', '0.0', '0', '0', '3', '2', '27', '0', '0', '21']"
"['', '9233', '2009-12-23', '00:00:00 GMT', '15', 'BUF', 'Buffalo', 'Sabres', '5', 'WSH', 'Washington', 'Capitals', '13', 'Verizon Center', '15', 'BUF', 'Buffalo', 'Sabres', '0', '1', '0', '0', '0', '0', '0', '33', '27', '55.0', '3', '0', '0.0', '2', '1', '50.0', '0', '0', '2', '5', '32', '3', '6', '16']"
"['', '9240', '2009-12-26', '00:00:00 GMT', '13', 'OTT', 'Ottawa', 'Senators', '15', 'BUF', 'Buffalo', 'Sabres', '10', 'HSBC Arena', '15', 'BUF', 'Buffalo', 'Sabres', '0', '0', '0', '1', '0', '0', '1', '32', '33', '49.2', '3', '1', '33.3', '3', '0', '100.0', '0', '0', '2', '2', '20', '4', '8', '27']"
"['', '9255', '2009-12-27', '23:00:00 GMT', '15', 'BUF', 'Buffalo', 'Sabres', '17', 'STL', 'St. Louis', 'Blues', '24', 'Scottrade Center', '15', 'BUF', 'Buffalo', 'Sabres', '1', '0', '0', '0', '0', '0', '2', '25', '42', '37.3', '4', '1', '25.0', '5', '0', '100.0', '1', '0', '5', '3', '19', '7', '17', '14']"
"['', '9267', '2009-12-29', '00:00:00 GMT', '10', 'PIT', 'Pittsburgh', 'Penguins', '15', 'BUF', 'Buffalo', 'Sabres', '10', 'HSBC Arena', '15', 'BUF', 'Buffalo', 'Sabres', '1', '0', '0', '0', '0', '0', '2', '24', '29', '45.3', '4', '1', '25.0', '1', '0', '100.0', '0', '0', '4', '3', '20', '3', '6', '19']"
"['', '9293', '2010-01-01', '00:30:00 GMT', '2', 'ATL', 'Atlanta', 'Thrashers', '15', 'BUF', 'Buffalo', 'Sabres', '10', 'HSBC Arena', '15', 'BUF', 'Buffalo', 'Sabres', '1', '0', '0', '0', '0', '0', '2', '30', '28', '51.7', '2', '0', '0.0', '6', '1', '83.3', '0', '0', '4', '3', '19', '7', '14', '15']"
"['', '9306', '2010-01-03', '20:00:00 GMT', '15', 'BUF', 'Buffalo', 'Sabres', '14', 'MTL', 'Montreal', 'Canadiens', '4', 'Bell Centre', '15', 'BUF', 'Buffalo', 'Sabres', '1', '0', '0', '0', '0', '0', '2', '28', '29', '49.1', '1', '0', '0.0', '2', '0', '100.0', '0', '0', '1', '0', '29', '2', '4', '11']"
"['', '9322', '2010-01-06', '00:00:00 GMT', '1', 'TBL', 'Tampa Bay', 'Lightning', '15', 'BUF', 'Buffalo', 'Sabres', '10', 'HSBC Arena', '15', 'BUF', 'Buffalo', 'Sabres', '1', '0', '0', '0', '0', '0', '2', '27', '36', '42.9', '3', '1', '33.3', '3', '0', '100.0', '0', '0', '5', '3', '30', '4', '8', '13']"
"['', '9340', '2010-01-08', '00:30:00 GMT', '12', 'TOR', 'Toronto', 'Maple Leafs', '15', 'BUF', 'Buffalo', 'Sabres', '10', 'HSBC Arena', '15', 'BUF', 'Buffalo', 'Sabres', '1', '0', '0', '0', '0', '0', '2', '26', '28', '48.1', '2', '2', '100.0', '4', '0', '100.0', '0', '0', '3', '2', '28', '4', '8', '22']"
"['', '9344', '2010-01-09', '00:00:00 GMT', '22', 'COL', 'Colorado', 'Avalanche', '15', 'BUF', 'Buffalo', 'Sabres', '10', 'HSBC Arena', '15', 'BUF', 'Buffalo', 'Sabres', '0', '0', '0', '1', '0', '0', '1', '35', '28', '55.6', '4', '1', '25.0', '4', '0', '100.0', '0', '0', '3', '3', '32', '6', '15', '9']"
"['', '9378', '2010-01-14', '00:00:00 GMT', '15', 'BUF', 'Buffalo', 'Sabres', '2', 'ATL', 'Atlanta', 'Thrashers', '20', 'Philips Arena', '15', 'BUF', 'Buffalo', 'Sabres', '1', '0', '0', '0', '0', '0', '2', '29', '33', '46.8', '6', '1', '16.7', '6', '1', '83.3', '0', '0', '2', '1', '30', '8', '16', '17']"
"['', '9396', '2010-01-16', '00:00:00 GMT', '15', 'BUF', 'Buffalo', 'Sabres', '8', 'NYI', 'New York', 'Islanders', '16', 'Nassau Veterans Memorial Coliseum', '15', 'BUF', 'Buffalo', 'Sabres', '0', '0', '0', '1', '0', '0', '1', '29', '30', '49.2', '2', '0', '0.0', '4', '0', '100.0', '0', '0', '2', '2', '31', '5', '10', '14']"
"['', '9409', '2010-01-18', '00:00:00 GMT', '15', 'BUF', 'Buffalo', 'Sabres', '30', 'PHX', 'Phoenix', 'Coyotes', '6', 'Jobing.com Arena', '15', 'BUF', 'Buffalo', 'Sabres', '1', '0', '0', '0', '0', '0', '2', '26', '32', '44.8', '3', '0', '0.0', '3', '0', '100.0', '0', '0', '7', '2', '24', '4', '8', '21']"
"['', '9422', '2010-01-19', '03:00:00 GMT', '15', 'BUF', 'Buffalo', 'Sabres', '29', 'ANA', 'Anaheim', 'Ducks', '8', 'Honda Center', '15', 'BUF', 'Buffalo', 'Sabres', '0', '1', '0', '0', '0', '0', '0', '29', '38', '43.3', '4', '1', '25.0', '3', '1', '66.7', '0', '0', '4', '5', '41', '4', '8', '12']"
"['', '9438', '2010-01-21', '03:30:00 GMT', '15', 'BUF', 'Buffalo', 'Sabres', '28', 'LAK', 'Los Angeles', 'Kings', '25', 'Staples Center', '15', 'BUF', 'Buffalo', 'Sabres', '0', '0', '0', '1', '0', '0', '1', '23', '32', '41.8', '3', '1', '33.3', '2', '0', '100.0', '0', '0', '3', '3', '26', '3', '6', '26']"
"['', '9454', '2010-01-23', '03:30:00 GMT', '15', 'BUF', 'Buffalo', 'Sabres', '26', 'SJS', 'San Jose', 'Sharks', '9', 'HP Pavilion at San Jose', '15', 'BUF', 'Buffalo', 'Sabres', '0', '1', '0', '0', '0', '0', '0', '34', '35', '49.3', '4', '1', '25.0', '4', '0', '100.0', '0', '0', '2', '5', '38', '6', '12', '23']"
"['', '9460', '2010-01-25', '03:00:00 GMT', '15', 'BUF', 'Buffalo', 'Sabres', '21', 'VAN', 'Vancouver', 'Canucks', '7', 'General Motors Place', '15', 'BUF', 'Buffalo', 'Sabres', '0', '1', '0', '0', '0', '0', '0', '31', '29', '51.7', '0', '1', '0.0', '4', '0', '100.0', '0', '0', '2', '3', '30', '3', '6', '10']"
"['', '9469', '2010-01-27', '00:00:00 GMT', '7', 'NJD', 'New Jersey', 'Devils', '15', 'BUF', 'Buffalo', 'Sabres', '10', 'HSBC Arena', '15', 'BUF', 'Buffalo', 'Sabres', '1', '0', '0', '0', '0', '0', '2', '26', '25', '51.0', '1', '0', '0.0', '1', '0', '100.0', '0', '0', '1', '1', '30', '1', '2', '21']"
"['', '9486', '2010-01-29', '00:30:00 GMT', '11', 'BOS', 'Boston', 'Bruins', '15', 'BUF', 'Buffalo', 'Sabres', '10', 'HSBC Arena', '15', 'BUF', 'Buffalo', 'Sabres', '1', '0', '0', '0', '0', '0', '2', '31', '22', '58.5', '4', '1', '25.0', '1', '0', '100.0', '0', '0', '2', '1', '21', '1', '2', '19']"
"['', '9506', '2010-02-01', '00:00:00 GMT', '15', 'BUF', 'Buffalo', 'Sabres', '10', 'PIT', 'Pittsburgh', 'Penguins', '14', 'Mellon Arena', '15', 'BUF', 'Buffalo', 'Sabres', '0', '1', '0', '0', '0', '0', '0', '23', '26', '46.9', '5', '2', '40.0', '2', '0', '100.0', '0', '0', '4', '5', '30', '4', '8', '14']"
"['', '9519', '2010-02-03', '00:00:00 GMT', '13', 'OTT', 'Ottawa', 'Senators', '15', 'BUF', 'Buffalo', 'Sabres', '10', 'HSBC Arena', '15', 'BUF', 'Buffalo', 'Sabres', '0', '1', '0', '0', '0', '0', '0', '37', '27', '57.8', '3', '0', '0.0', '2', '0', '100.0', '0', '0', '2', '4', '34', '5', '10', '27']"
"['', '9535', '2010-02-05', '00:30:00 GMT', '3', 'CAR', 'Carolina', 'Hurricanes', '15', 'BUF', 'Buffalo', 'Sabres', '10', 'HSBC Arena', '15', 'BUF', 'Buffalo', 'Sabres', '0', '1', '0', '0', '0', '0', '0', '31', '26', '54.4', '4', '0', '0.0', '4', '0', '100.0', '0', '0', '3', '4', '28', '6', '12', '16']"
"['', '9547', '2010-02-06', '00:00:00 GMT', '15', 'BUF', 'Buffalo', 'Sabres', '19', 'CBJ', 'Columbus', 'Blue Jackets', '17', 'Nationwide Arena', '15', 'BUF', 'Buffalo', 'Sabres', '0', '1', '0', '0', '0', '0', '0', '35', '33', '51.5', '5', '0', '0.0', '5', '1', '80.0', '0', '0', '0', '4', '28', '8', '22', '20']"
"['', '9559', '2010-02-09', '00:00:00 GMT', '11', 'BOS', 'Boston', 'Bruins', '15', 'BUF', 'Buffalo', 'Sabres', '10', 'HSBC Arena', '15', 'BUF', 'Buffalo', 'Sabres', '0', '0', '0', '1', '0', '0', '1', '29', '29', '50.0', '3', '1', '33.3', '2', '0', '100.0', '0', '0', '2', '2', '43', '4', '14', '39']"
"['', '9574', '2010-02-11', '00:00:00 GMT', '15', 'BUF', 'Buffalo', 'Sabres', '3', 'CAR', 'Carolina', 'Hurricanes', '21', 'RBC Center', '15', 'BUF', 'Buffalo', 'Sabres', '0', '0', '0', '1', '0', '0', '1', '21', '39', '35.0', '2', '0', '0.0', '4', '2', '50.0', '0', '0', '3', '4', '29', '5', '10', '26']"
"['', '9589', '2010-02-13', '00:00:00 GMT', '26', 'SJS', 'San Jose', 'Sharks', '15', 'BUF', 'Buffalo', 'Sabres', '10', 'HSBC Arena', '15', 'BUF', 'Buffalo', 'Sabres', '1', '0', '0', '0', '0', '0', '2', '25', '26', '49.0', '2', '0', '0.0', '4', '0', '100.0', '0', '0', '3', '1', '25', '5', '10', '21']"
"['', '9611', '2010-03-02', '00:30:00 GMT', '15', 'BUF', 'Buffalo', 'Sabres', '10', 'PIT', 'Pittsburgh', 'Penguins', '14', 'Mellon Arena', '15', 'BUF', 'Buffalo', 'Sabres', '0', '1', '0', '0', '0', '0', '0', '22', '26', '45.8', '4', '0', '0.0', '2', '1', '50.0', '0', '0', '2', '3', '26', '4', '11', '21']"
"['', '9617', '2010-03-03', '00:00:00 GMT', '5', 'WSH', 'Washington', 'Capitals', '15', 'BUF', 'Buffalo', 'Sabres', '10', 'HSBC Arena', '15', 'BUF', 'Buffalo', 'Sabres', '0', '1', '0', '0', '0', '0', '0', '34', '21', '61.8', '2', '0', '0.0', '2', '0', '100.0', '0', '0', '1', '3', '23', '2', '4', '11']"
"['', '9632', '2010-03-05', '00:30:00 GMT', '6', 'PHI', 'Philadelphia', 'Flyers', '15', 'BUF', 'Buffalo', 'Sabres', '10', 'HSBC Arena', '15', 'BUF', 'Buffalo', 'Sabres', '1', '0', '0', '0', '0', '0', '2', '31', '23', '57.4', '2', '0', '0.0', '1', '0', '100.0', '0', '0', '3', '2', '32', '1', '2', '23']"
"['', '9652', '2010-03-07', '00:00:00 GMT', '15', 'BUF', 'Buffalo', 'Sabres', '9', 'NYR', 'New York', 'Rangers', '12', 'Madison Square Garden', '15', 'BUF', 'Buffalo', 'Sabres', '1', '0', '0', '0', '0', '0', '2', '21', '25', '45.7', '2', '0', '0.0', '2', '1', '50.0', '0', '0', '2', '1', '30', '2', '4', '22']"
"['', '9667', '2010-03-10', '00:00:00 GMT', '27', 'DAL', 'Dallas', 'Stars', '15', 'BUF', 'Buffalo', 'Sabres', '10', 'HSBC Arena', '15', 'BUF', 'Buffalo', 'Sabres', '1', '0', '0', '0', '0', '0', '2', '26', '26', '50.0', '2', '0', '0.0', '2', '0', '100.0', '0', '0', '5', '3', '38', '3', '9', '17']"
"['', '9684', '2010-03-12', '00:30:00 GMT', '25', 'MIN', 'Minnesota', 'Wild', '15', 'BUF', 'Buffalo', 'Sabres', '10', 'HSBC Arena', '15', 'BUF', 'Buffalo', 'Sabres', '0', '1', '0', '0', '0', '0', '0', '43', '27', '61.4', '6', '1', '16.7', '2', '1', '50.0', '0', '0', '2', '3', '43', '4', '11', '12']"
"['', '9690', '2010-03-13', '00:00:00 GMT', '15', 'BUF', 'Buffalo', 'Sabres', '16', 'DET', 'Detroit', 'Red Wings', '11', 'Joe Louis Arena', '15', 'BUF', 'Buffalo', 'Sabres', '0', '0', '0', '1', '0', '0', '1', '21', '22', '48.8', '2', '0', '0.0', '4', '1', '75.0', '0', '0', '2', '3', '24', '4', '8', '20']"
"['', '9712', '2010-03-16', '23:00:00 GMT', '15', 'BUF', 'Buffalo', 'Sabres', '2', 'ATL', 'Atlanta', 'Thrashers', '20', 'Philips Arena', '15', 'BUF', 'Buffalo', 'Sabres', '0', '1', '0', '0', '0', '0', '0', '29', '30', '49.2', '3', '1', '33.3', '5', '0', '100.0', '0', '0', '3', '4', '29', '7', '14', '8']"
"['', '9728', '2010-03-18', '23:30:00 GMT', '15', 'BUF', 'Buffalo', 'Sabres', '1', 'TBL', 'Tampa Bay', 'Lightning', '26', 'St. Pete Times Forum', '15', 'BUF', 'Buffalo', 'Sabres', '1', '0', '0', '0', '0', '0', '2', '34', '24', '58.6', '7', '1', '14.3', '4', '1', '75.0', '1', '0', '6', '2', '22', '7', '25', '12']"
"['', '9743', '2010-03-20', '23:00:00 GMT', '15', 'BUF', 'Buffalo', 'Sabres', '4', 'FLO', 'Florida', 'Panthers', '3', 'BankAtlantic Center', '15', 'BUF', 'Buffalo', 'Sabres', '1', '0', '0', '0', '0', '0', '2', '27', '39', '40.9', '4', '0', '0.0', '6', '0', '100.0', '0', '0', '3', '1', '33', '6', '12', '14']"
"['', '9752', '2010-03-21', '21:00:00 GMT', '15', 'BUF', 'Buffalo', 'Sabres', '3', 'CAR', 'Carolina', 'Hurricanes', '21', 'RBC Center', '15', 'BUF', 'Buffalo', 'Sabres', '1', '0', '0', '0', '0', '0', '2', '27', '35', '43.5', '3', '2', '66.7', '6', '1', '83.3', '0', '0', '5', '3', '15', '8', '24', '21']"
"['', '9774', '2010-03-24', '23:30:00 GMT', '14', 'MTL', 'Montreal', 'Canadiens', '15', 'BUF', 'Buffalo', 'Sabres', '10', 'HSBC Arena', '15', 'BUF', 'Buffalo', 'Sabres', '1', '0', '0', '0', '0', '0', '2', '27', '30', '47.4', '5', '1', '20.0', '4', '1', '75.0', '0', '0', '2', '2', '40', '4', '8', '10']"
"['', '9789', '2010-03-26', '23:30:00 GMT', '13', 'OTT', 'Ottawa', 'Senators', '15', 'BUF', 'Buffalo', 'Sabres', '10', 'HSBC Arena', '15', 'BUF', 'Buffalo', 'Sabres', '0', '1', '0', '0', '0', '0', '0', '32', '26', '55.2', '3', '0', '0.0', '2', '1', '50.0', '0', '0', '2', '4', '41', '4', '11', '21']"
"['', '9794', '2010-03-27', '23:00:00 GMT', '1', 'TBL', 'Tampa Bay', 'Lightning', '15', 'BUF', 'Buffalo', 'Sabres', '10', 'HSBC Arena', '15', 'BUF', 'Buffalo', 'Sabres', '1', '0', '0', '0', '0', '0', '2', '21', '32', '39.6', '2', '3', '1.0', '2', '0', '100.0', '0', '0', '7', '1', '19', '2', '4', '13']"
"['', '9810', '2010-03-29', '23:00:00 GMT', '15', 'BUF', 'Buffalo', 'Sabres', '11', 'BOS', 'Boston', 'Bruins', '27', 'TD Garden', '15', 'BUF', 'Buffalo', 'Sabres', '1', '0', '0', '0', '0', '0', '2', '25', '29', '46.3', '1', '0', '0.0', '2', '0', '100.0', '0', '0', '3', '2', '30', '2', '4', '12']"
"['', '9824', '2010-03-31', '23:00:00 GMT', '4', 'FLO', 'Florida', 'Panthers', '15', 'BUF', 'Buffalo', 'Sabres', '10', 'HSBC Arena', '15', 'BUF', 'Buffalo', 'Sabres', '1', '0', '0', '0', '0', '0', '2', '28', '28', '50.0', '2', '1', '50.0', '2', '0', '100.0', '0', '0', '6', '2', '35', '2', '4', '12']"
"['', '9833', '2010-04-01', '23:00:00 GMT', '15', 'BUF', 'Buffalo', 'Sabres', '12', 'TOR', 'Toronto', 'Maple Leafs', '1', 'Air Canada Center', '15', 'BUF', 'Buffalo', 'Sabres', '0', '1', '0', '0', '0', '0', '0', '26', '20', '56.5', '2', '1', '50.0', '6', '0', '100.0', '0', '0', '2', '4', '22', '6', '12', '20']"
"['', '9850', '2010-04-03', '23:00:00 GMT', '15', 'BUF', 'Buffalo', 'Sabres', '14', 'MTL', 'Montreal', 'Canadiens', '4', 'Bell Centre', '15', 'BUF', 'Buffalo', 'Sabres', '0', '1', '0', '0', '0', '0', '0', '18', '36', '33.3', '3', '0', '0.0', '5', '0', '100.0', '0', '0', '0', '3', '29', '8', '27', '26']"
"['', '9864', '2010-04-06', '23:00:00 GMT', '9', 'NYR', 'New York', 'Rangers', '15', 'BUF', 'Buffalo', 'Sabres', '10', 'HSBC Arena', '15', 'BUF', 'Buffalo', 'Sabres', '1', '0', '0', '0', '0', '0', '2', '21', '34', '38.2', '4', '1', '25.0', '2', '1', '50.0', '0', '0', '5', '2', '25', '5', '10', '14']"
"['', '9880', '2010-04-08', '23:00:00 GMT', '15', 'BUF', 'Buffalo', 'Sabres', '11', 'BOS', 'Boston', 'Bruins', '27', 'TD Garden', '15', 'BUF', 'Buffalo', 'Sabres', '0', '1', '0', '0', '0', '0', '0', '28', '37', '43.1', '3', '0', '0.0', '4', '0', '100.0', '0', '0', '1', '3', '31', '6', '12', '15']"
"['', '9898', '2010-04-10', '23:00:00 GMT', '15', 'BUF', 'Buffalo', 'Sabres', '13', 'OTT', 'Ottawa', 'Senators', '23', 'Scotiabank Place', '15', 'BUF', 'Buffalo', 'Sabres', '1', '0', '0', '0', '0', '0', '2', '25', '30', '45.5', '4', '1', '25.0', '5', '0', '100.0', '0', '0', '5', '2', '23', '8', '16', '12']"
"['', '9909', '2010-04-11', '21:00:00 GMT', '15', 'BUF', 'Buffalo', 'Sabres', '7', 'NJD', 'New Jersey', 'Devils', '5', 'Izod Center', '15', 'BUF', 'Buffalo', 'Sabres', '0', '1', '0', '0', '0', '0', '0', '28', '20', '58.3', '1', '0', '0.0', '4', '1', '75.0', '0', '0', '1', '2', '22', '5', '10', '13']"
