"['#Date/Time of Update: 2018-12-10 19:03:26 GMT', '#Game ID', '#Game Date', '#Game Time', '#Away Team ID', '#Away Team Abbr.', '#Away Team City', '#Away Team Name', '#Home Team ID', '#Home Team Abbr.', '#Home Team City', '#Home Team Name', '#Venue ID', '#Venue Name', '#Team ID', '#Team Abbr.', '#Team City', '#Team Name', '#Wins', '#Losses', '#OvertimeWins', '#OvertimeLosses', '#Points', '#FaceoffWins', '#FaceoffLosses', '#FaceoffPercent', '#Powerplays', '#PowerplayGoals', '#PowerplayPercent', '#PenaltyKills', '#PenaltyKillGoalsAllowed', '#PenaltyKillPercent', '#ShorthandedGoalsFor', '#ShorthandedGoalsAgainst', '#GoalsFor', '#GoalsAgainst', '#Shots', '#Penalties', '#PenaltyMinutes', '#Hits']"
"['', '46302', '2018-10-03', '02:30:00 GMT', '29', 'ANA', 'Anaheim', 'Ducks', '26', 'SJS', 'San Jose', 'Sharks', '9', 'SAP Center at San Jose', '29', 'ANA', 'Anaheim', 'Ducks', '1', '0', '0', '0', '2', '29', '31', '48.3', '3', '2', '66.7', '3', '0', '100.0', '0', '1', '5', '2', '15', '3', '6', '25']"
"['', '46325', '2018-10-06', '01:00:00 GMT', '29', 'ANA', 'Anaheim', 'Ducks', '30', 'ARI', 'Arizona', 'Coyotes', '6', 'Gila River Arena', '29', 'ANA', 'Anaheim', 'Ducks', '1', '0', '0', '0', '2', '26', '31', '45.6', '2', '0', '0.0', '4', '0', '100.0', '0', '0', '1', '0', '20', '4', '8', '25']"
"['', '46333', '2018-10-08', '02:00:00 GMT', '16', 'DET', 'Detroit', 'Red Wings', '29', 'ANA', 'Anaheim', 'Ducks', '8', 'Honda Center', '29', 'ANA', 'Anaheim', 'Ducks', '1', '0', '0', '0', '2', '31', '36', '46.3', '3', '0', '0.0', '2', '0', '100.0', '0', '0', '2', '2', '27', '2', '4', '28']"
"['', '46342', '2018-10-10', '02:00:00 GMT', '30', 'ARI', 'Arizona', 'Coyotes', '29', 'ANA', 'Anaheim', 'Ducks', '8', 'Honda Center', '29', 'ANA', 'Anaheim', 'Ducks', '0', '0', '0', '1', '1', '24', '28', '46.2', '3', '0', '0.0', '3', '1', '66.7', '0', '1', '2', '2', '25', '3', '6', '27']"
"['', '46365', '2018-10-13', '00:00:00 GMT', '29', 'ANA', 'Anaheim', 'Ducks', '27', 'DAL', 'Dallas', 'Stars', '2', 'American Airlines Center', '29', 'ANA', 'Anaheim', 'Ducks', '0', '1', '0', '0', '0', '30', '37', '44.8', '2', '1', '50.0', '3', '2', '33.3', '0', '0', '3', '5', '25', '3', '6', '16']"
"['', '46370', '2018-10-14', '23:00:00 GMT', '29', 'ANA', 'Anaheim', 'Ducks', '17', 'STL', 'St. Louis', 'Blues', '24', 'Enterprise Center', '29', 'ANA', 'Anaheim', 'Ducks', '1', '0', '0', '0', '2', '24', '45', '34.8', '2', '1', '50.0', '3', '1', '66.7', '0', '0', '3', '2', '31', '3', '6', '18']"
"['', '46387', '2018-10-17', '02:00:00 GMT', '8', 'NYI', 'New York', 'Islanders', '29', 'ANA', 'Anaheim', 'Ducks', '8', 'Honda Center', '29', 'ANA', 'Anaheim', 'Ducks', '1', '0', '0', '0', '2', '23', '26', '46.9', '3', '1', '33.3', '4', '0', '100.0', '0', '0', '4', '1', '25', '6', '15', '11']"
"['', '46411', '2018-10-20', '02:00:00 GMT', '29', 'ANA', 'Anaheim', 'Ducks', '142', 'VGK', 'Vegas', 'Golden Knights', '139', 'T-Mobile Arena', '29', 'ANA', 'Anaheim', 'Ducks', '0', '1', '0', '0', '0', '38', '27', '58.5', '2', '0', '0.0', '5', '1', '80.0', '0', '0', '1', '3', '18', '5', '10', '38']"
"['', '46415', '2018-10-21', '00:00:00 GMT', '15', 'BUF', 'Buffalo', 'Sabres', '29', 'ANA', 'Anaheim', 'Ducks', '8', 'Honda Center', '29', 'ANA', 'Anaheim', 'Ducks', '0', '1', '0', '0', '0', '29', '26', '52.7', '2', '0', '0.0', '4', '2', '50.0', '0', '0', '2', '4', '28', '5', '13', '12']"
"['', '46425', '2018-10-23', '00:30:00 GMT', '29', 'ANA', 'Anaheim', 'Ducks', '20', 'CHI', 'Chicago', 'Blackhawks', '28', 'United Center', '29', 'ANA', 'Anaheim', 'Ducks', '0', '1', '0', '0', '0', '32', '27', '54.2', '4', '0', '0.0', '4', '1', '75.0', '0', '1', '1', '3', '25', '5', '10', '27']"
"['', '46438', '2018-10-25', '00:30:00 GMT', '29', 'ANA', 'Anaheim', 'Ducks', '27', 'DAL', 'Dallas', 'Stars', '2', 'American Airlines Center', '29', 'ANA', 'Anaheim', 'Ducks', '0', '1', '0', '0', '0', '25', '32', '43.9', '2', '0', '0.0', '5', '0', '100.0', '0', '0', '2', '5', '25', '9', '24', '27']"
"['', '46462', '2018-10-28', '00:00:00 GMT', '26', 'SJS', 'San Jose', 'Sharks', '29', 'ANA', 'Anaheim', 'Ducks', '8', 'Honda Center', '29', 'ANA', 'Anaheim', 'Ducks', '0', '0', '0', '1', '1', '35', '29', '54.7', '2', '0', '0.0', '2', '0', '100.0', '0', '0', '3', '4', '30', '3', '6', '27']"
"['', '46474', '2018-10-30', '02:00:00 GMT', '6', 'PHI', 'Philadelphia', 'Flyers', '29', 'ANA', 'Anaheim', 'Ducks', '8', 'Honda Center', '29', 'ANA', 'Anaheim', 'Ducks', '0', '1', '0', '0', '0', '31', '26', '54.4', '3', '1', '33.3', '4', '1', '75.0', '0', '0', '2', '3', '25', '4', '8', '17']"
"['', '46487', '2018-11-01', '02:00:00 GMT', '9', 'NYR', 'New York', 'Rangers', '29', 'ANA', 'Anaheim', 'Ducks', '8', 'Honda Center', '29', 'ANA', 'Anaheim', 'Ducks', '0', '0', '0', '1', '1', '27', '21', '56.2', '3', '1', '33.3', '3', '1', '66.7', '0', '0', '2', '2', '30', '3', '6', '18']"
"['', '46507', '2018-11-04', '02:00:00 GMT', '19', 'CBJ', 'Columbus', 'Blue Jackets', '29', 'ANA', 'Anaheim', 'Ducks', '8', 'Honda Center', '29', 'ANA', 'Anaheim', 'Ducks', '1', '0', '0', '0', '2', '29', '28', '50.9', '5', '0', '0.0', '6', '0', '100.0', '0', '0', '3', '2', '30', '6', '12', '13']"
"['', '46520', '2018-11-06', '03:30:00 GMT', '29', 'ANA', 'Anaheim', 'Ducks', '28', 'LAK', 'Los Angeles', 'Kings', '25', 'Staples Center', '29', 'ANA', 'Anaheim', 'Ducks', '0', '1', '0', '0', '0', '44', '33', '57.1', '4', '0', '0.0', '1', '1', '0.0', '0', '0', '1', '4', '31', '1', '2', '18']"
"['', '46524', '2018-11-07', '03:30:00 GMT', '23', 'CGY', 'Calgary', 'Flames', '29', 'ANA', 'Anaheim', 'Ducks', '8', 'Honda Center', '29', 'ANA', 'Anaheim', 'Ducks', '1', '0', '0', '0', '2', '22', '30', '42.3', '3', '0', '0.0', '3', '1', '66.7', '0', '1', '3', '2', '24', '3', '6', '13']"
"['', '46539', '2018-11-09', '03:00:00 GMT', '25', 'MIN', 'Minnesota', 'Wild', '29', 'ANA', 'Anaheim', 'Ducks', '8', 'Honda Center', '29', 'ANA', 'Anaheim', 'Ducks', '0', '1', '0', '0', '0', '25', '33', '43.1', '2', '1', '50.0', '4', '0', '100.0', '0', '0', '1', '5', '21', '4', '13', '35']"
"['', '46561', '2018-11-12', '03:00:00 GMT', '18', 'NSH', 'Nashville', 'Predators', '29', 'ANA', 'Anaheim', 'Ducks', '8', 'Honda Center', '29', 'ANA', 'Anaheim', 'Ducks', '1', '0', '0', '0', '2', '42', '34', '55.3', '2', '0', '0.0', '7', '0', '100.0', '0', '0', '1', '1', '30', '8', '19', '6']"
"['', '46574', '2018-11-14', '03:30:00 GMT', '29', 'ANA', 'Anaheim', 'Ducks', '142', 'VGK', 'Vegas', 'Golden Knights', '139', 'T-Mobile Arena', '29', 'ANA', 'Anaheim', 'Ducks', '0', '1', '0', '0', '0', '32', '22', '59.3', '4', '0', '0.0', '6', '1', '83.3', '0', '1', '0', '5', '29', '6', '12', '22']"
"['', '46589', '2018-11-16', '03:00:00 GMT', '12', 'TOR', 'Toronto', 'Maple Leafs', '29', 'ANA', 'Anaheim', 'Ducks', '8', 'Honda Center', '29', 'ANA', 'Anaheim', 'Ducks', '0', '0', '0', '1', '1', '32', '29', '52.5', '1', '0', '0.0', '2', '0', '100.0', '0', '0', '1', '2', '39', '2', '4', '16']"
"['', '46605', '2018-11-18', '01:00:00 GMT', '22', 'COL', 'Colorado', 'Avalanche', '29', 'ANA', 'Anaheim', 'Ducks', '8', 'Honda Center', '29', 'ANA', 'Anaheim', 'Ducks', '0', '0', '0', '1', '1', '37', '26', '58.7', '3', '1', '33.3', '2', '2', '0.0', '0', '0', '3', '4', '33', '2', '4', '16']"
"['', '46628', '2018-11-21', '03:00:00 GMT', '21', 'VAN', 'Vancouver', 'Canucks', '29', 'ANA', 'Anaheim', 'Ducks', '8', 'Honda Center', '29', 'ANA', 'Anaheim', 'Ducks', '1', '0', '0', '0', '2', '28', '32', '46.7', '4', '1', '25.0', '2', '1', '50.0', '0', '0', '4', '3', '37', '2', '4', '29']"
"['', '46635', '2018-11-23', '21:00:00 GMT', '24', 'EDM', 'Edmonton', 'Oilers', '29', 'ANA', 'Anaheim', 'Ducks', '8', 'Honda Center', '29', 'ANA', 'Anaheim', 'Ducks', '1', '0', '0', '0', '2', '29', '18', '61.7', '2', '0', '0.0', '2', '1', '50.0', '0', '0', '2', '1', '25', '2', '4', '31']"
"['', '46658', '2018-11-25', '01:00:00 GMT', '29', 'ANA', 'Anaheim', 'Ducks', '18', 'NSH', 'Nashville', 'Predators', '15', 'Bridgestone Arena', '29', 'ANA', 'Anaheim', 'Ducks', '0', '1', '0', '0', '0', '34', '35', '49.3', '5', '1', '20.0', '6', '2', '66.7', '0', '0', '2', '5', '19', '8', '16', '15']"
"['', '46668', '2018-11-27', '00:30:00 GMT', '29', 'ANA', 'Anaheim', 'Ducks', '1', 'TBL', 'Tampa Bay', 'Lightning', '26', 'Amalie Arena', '29', 'ANA', 'Anaheim', 'Ducks', '1', '0', '0', '0', '2', '24', '24', '50.0', '3', '1', '33.3', '4', '0', '100.0', '0', '0', '3', '1', '22', '4', '8', '22']"
"['', '46676', '2018-11-28', '00:00:00 GMT', '29', 'ANA', 'Anaheim', 'Ducks', '4', 'FLO', 'Florida', 'Panthers', '3', 'BB&T Center', '29', 'ANA', 'Anaheim', 'Ducks', '1', '0', '0', '0', '2', '38', '27', '58.5', '2', '0', '0.0', '3', '1', '66.7', '0', '0', '3', '2', '25', '3', '6', '16']"
"['', '46690', '2018-11-30', '00:30:00 GMT', '29', 'ANA', 'Anaheim', 'Ducks', '3', 'CAR', 'Carolina', 'Hurricanes', '21', 'PNC Arena', '29', 'ANA', 'Anaheim', 'Ducks', '1', '0', '0', '0', '2', '26', '33', '44.1', '3', '0', '0.0', '6', '0', '100.0', '0', '0', '2', '1', '29', '6', '12', '27']"
"['', '46705', '2018-12-02', '20:00:00 GMT', '29', 'ANA', 'Anaheim', 'Ducks', '5', 'WSH', 'Washington', 'Capitals', '13', 'Capital One Arena', '29', 'ANA', 'Anaheim', 'Ducks', '1', '0', '0', '0', '2', '27', '35', '43.5', '3', '2', '66.7', '5', '1', '80.0', '0', '0', '6', '5', '25', '5', '10', '19']"
"['', '46725', '2018-12-05', '03:30:00 GMT', '20', 'CHI', 'Chicago', 'Blackhawks', '29', 'ANA', 'Anaheim', 'Ducks', '8', 'Honda Center', '29', 'ANA', 'Anaheim', 'Ducks', '1', '0', '0', '0', '2', '27', '27', '50.0', '1', '0', '0.0', '3', '0', '100.0', '0', '0', '4', '2', '32', '4', '11', '31']"
"['', '46741', '2018-12-07', '03:00:00 GMT', '3', 'CAR', 'Carolina', 'Hurricanes', '29', 'ANA', 'Anaheim', 'Ducks', '8', 'Honda Center', '29', 'ANA', 'Anaheim', 'Ducks', '0', '1', '0', '0', '0', '35', '24', '59.3', '5', '0', '0.0', '5', '0', '100.0', '1', '0', '1', '4', '19', '8', '27', '36']"
"['', '46756', '2018-12-09', '01:00:00 GMT', '7', 'NJD', 'New Jersey', 'Devils', '29', 'ANA', 'Anaheim', 'Ducks', '8', 'Honda Center', '29', 'ANA', 'Anaheim', 'Ducks', '1', '0', '0', '0', '2', '36', '24', '60.0', '1', '0', '0.0', '3', '1', '66.7', '0', '0', '5', '5', '38', '3', '6', '31']"
