"['#Date/Time of Update: 2018-12-10 19:03:07 GMT', '#Game ID', '#Game Date', '#Game Time', '#Away Team ID', '#Away Team Abbr.', '#Away Team City', '#Away Team Name', '#Home Team ID', '#Home Team Abbr.', '#Home Team City', '#Home Team Name', '#Venue ID', '#Venue Name', '#Team ID', '#Team Abbr.', '#Team City', '#Team Name', '#Wins', '#Losses', '#OvertimeWins', '#OvertimeLosses', '#ShootoutWins', '#ShootoutLosses', '#Rows', '#Points', '#FaceoffWins', '#FaceoffLosses', '#FaceoffPercent', '#Powerplays', '#PowerplayGoals', '#PowerplayPercent', '#PenaltyKills', '#PenaltyKillGoalsAllowed', '#PenaltyKillPercent', '#ShorthandedGoalsFor', '#ShorthandedGoalsAgainst', '#GoalsFor', '#GoalsAgainst', '#Shots', '#Penalties', '#PenaltyMinutes', '#Hits']"
"['', '19725', '2013-01-19', '00:00:00 GMT', '9', 'NYR', 'New York', 'Rangers', '11', 'BOS', 'Boston', 'Bruins', '27', 'TD Garden', '9', 'NYR', 'New York', 'Rangers', '0', '1', '0', '0', '0', '0', '0', '0', '0', '0', '0.0', '0', '0', '0.0', '0', '0', '0.0', '0', '0', '1', '3', '0', '0', '0', '0']"
"['', '19736', '2013-01-20', '00:00:00 GMT', '10', 'PIT', 'Pittsburgh', 'Penguins', '9', 'NYR', 'New York', 'Rangers', '12', 'Madison Square Garden', '9', 'NYR', 'New York', 'Rangers', '0', '1', '0', '0', '0', '0', '0', '0', '36', '27', '57.1', '3', '1', '33.3', '5', '2', '60.0', '1', '0', '3', '6', '31', '7', '17', '30']"
"['', '19758', '2013-01-23', '00:30:00 GMT', '11', 'BOS', 'Boston', 'Bruins', '9', 'NYR', 'New York', 'Rangers', '12', 'Madison Square Garden', '9', 'NYR', 'New York', 'Rangers', '1', '0', '0', '0', '0', '0', '1', '2', '17', '36', '32.1', '5', '0', '0.0', '5', '1', '80.0', '0', '0', '4', '3', '29', '7', '17', '28']"
"['', '19762', '2013-01-24', '00:00:00 GMT', '9', 'NYR', 'New York', 'Rangers', '6', 'PHI', 'Philadelphia', 'Flyers', '29', 'Wells Fargo Center', '9', 'NYR', 'New York', 'Rangers', '0', '1', '0', '0', '0', '0', '0', '0', '33', '27', '55.0', '3', '1', '33.3', '3', '1', '66.7', '0', '0', '1', '2', '18', '7', '28', '25']"
"['', '19779', '2013-01-26', '00:00:00 GMT', '12', 'TOR', 'Toronto', 'Maple Leafs', '9', 'NYR', 'New York', 'Rangers', '12', 'Madison Square Garden', '9', 'NYR', 'New York', 'Rangers', '1', '0', '0', '0', '0', '0', '1', '2', '31', '32', '49.2', '4', '0', '0.0', '4', '1', '75.0', '0', '0', '5', '2', '37', '6', '18', '32']"
"['', '19801', '2013-01-29', '00:00:00 GMT', '6', 'PHI', 'Philadelphia', 'Flyers', '9', 'NYR', 'New York', 'Rangers', '12', 'Madison Square Garden', '9', 'NYR', 'New York', 'Rangers', '1', '0', '0', '0', '0', '0', '1', '2', '40', '21', '65.6', '2', '1', '50.0', '6', '1', '83.3', '0', '0', '2', '1', '26', '7', '14', '39']"
"['', '19816', '2013-01-31', '00:00:00 GMT', '10', 'PIT', 'Pittsburgh', 'Penguins', '9', 'NYR', 'New York', 'Rangers', '12', 'Madison Square Garden', '9', 'NYR', 'New York', 'Rangers', '0', '1', '0', '0', '0', '0', '0', '0', '33', '34', '49.3', '4', '0', '0.0', '5', '1', '80.0', '0', '0', '0', '3', '28', '7', '14', '34']"
"['', '19834', '2013-02-02', '00:00:00 GMT', '9', 'NYR', 'New York', 'Rangers', '1', 'TBL', 'Tampa Bay', 'Lightning', '26', 'Tampa Bay Times Forum', '9', 'NYR', 'New York', 'Rangers', '1', '0', '0', '0', '0', '0', '1', '2', '29', '38', '43.3', '2', '0', '0.0', '1', '1', '0.0', '0', '0', '3', '2', '27', '1', '2', '25']"
"['', '19849', '2013-02-05', '00:00:00 GMT', '9', 'NYR', 'New York', 'Rangers', '7', 'NJD', 'New Jersey', 'Devils', '5', 'Izod Center', '9', 'NYR', 'New York', 'Rangers', '0', '1', '0', '0', '0', '0', '0', '0', '32', '26', '55.2', '5', '0', '0.0', '4', '1', '75.0', '0', '0', '1', '3', '24', '4', '8', '15']"
"['', '19864', '2013-02-07', '00:00:00 GMT', '8', 'NYI', 'New York', 'Islanders', '9', 'NYR', 'New York', 'Rangers', '12', 'Madison Square Garden', '9', 'NYR', 'New York', 'Rangers', '1', '0', '0', '0', '0', '0', '1', '2', '25', '23', '52.1', '2', '1', '50.0', '5', '0', '100.0', '0', '0', '4', '1', '21', '5', '10', '34']"
"['', '19890', '2013-02-10', '00:30:00 GMT', '1', 'TBL', 'Tampa Bay', 'Lightning', '9', 'NYR', 'New York', 'Rangers', '12', 'Madison Square Garden', '9', 'NYR', 'New York', 'Rangers', '1', '0', '0', '0', '0', '0', '1', '2', '31', '33', '48.4', '3', '0', '0.0', '2', '0', '100.0', '0', '0', '5', '1', '27', '2', '4', '32']"
"['', '19900', '2013-02-12', '00:30:00 GMT', '9', 'NYR', 'New York', 'Rangers', '11', 'BOS', 'Boston', 'Bruins', '27', 'TD Garden', '9', 'NYR', 'New York', 'Rangers', '1', '0', '0', '0', '0', '0', '0', '2', '27', '37', '42.2', '3', '0', '0.0', '4', '0', '100.0', '0', '0', '3', '3', '26', '4', '8', '31']"
"['', '19912', '2013-02-14', '00:00:00 GMT', '8', 'NYI', 'New York', 'Islanders', '9', 'NYR', 'New York', 'Rangers', '12', 'Madison Square Garden', '9', 'NYR', 'New York', 'Rangers', '0', '0', '0', '1', '0', '0', '0', '1', '44', '32', '57.9', '4', '1', '25.0', '1', '0', '100.0', '0', '0', '3', '3', '36', '2', '7', '29']"
"['', '19938', '2013-02-17', '23:00:00 GMT', '5', 'WSH', 'Washington', 'Capitals', '9', 'NYR', 'New York', 'Rangers', '12', 'Madison Square Garden', '9', 'NYR', 'New York', 'Rangers', '1', '0', '0', '0', '0', '0', '1', '2', '27', '31', '46.6', '5', '1', '20.0', '4', '0', '100.0', '0', '0', '2', '1', '38', '4', '8', '34']"
"['', '19948', '2013-02-19', '00:00:00 GMT', '14', 'MTL', 'Montreal', 'Canadiens', '9', 'NYR', 'New York', 'Rangers', '12', 'Madison Square Garden', '9', 'NYR', 'New York', 'Rangers', '0', '1', '0', '0', '0', '0', '0', '0', '30', '32', '48.4', '2', '0', '0.0', '1', '0', '100.0', '0', '0', '1', '3', '24', '1', '2', '37']"
"['', '19963', '2013-02-21', '00:30:00 GMT', '9', 'NYR', 'New York', 'Rangers', '13', 'OTT', 'Ottawa', 'Senators', '23', 'Canadian Tire Centre', '9', 'NYR', 'New York', 'Rangers', '0', '0', '0', '1', '0', '0', '0', '1', '24', '29', '45.3', '4', '1', '25.0', '2', '1', '50.0', '0', '1', '2', '2', '32', '2', '4', '38']"
"['', '19976', '2013-02-23', '00:00:00 GMT', '9', 'NYR', 'New York', 'Rangers', '14', 'MTL', 'Montreal', 'Canadiens', '4', 'Bell Centre', '9', 'NYR', 'New York', 'Rangers', '0', '1', '0', '0', '0', '0', '0', '0', '33', '26', '55.9', '2', '0', '0.0', '4', '1', '75.0', '0', '0', '0', '3', '17', '5', '10', '32']"
"['', '19996', '2013-02-26', '00:00:00 GMT', '2', 'WPJ', 'Winnipeg', 'Jets', '9', 'NYR', 'New York', 'Rangers', '12', 'Madison Square Garden', '9', 'NYR', 'New York', 'Rangers', '0', '1', '0', '0', '0', '0', '0', '0', '31', '23', '57.4', '2', '0', '0.0', '3', '0', '100.0', '0', '0', '3', '4', '30', '3', '6', '28']"
"['', '20011', '2013-02-28', '00:00:00 GMT', '1', 'TBL', 'Tampa Bay', 'Lightning', '9', 'NYR', 'New York', 'Rangers', '12', 'Madison Square Garden', '9', 'NYR', 'New York', 'Rangers', '1', '0', '0', '0', '0', '0', '1', '2', '38', '19', '66.7', '4', '1', '25.0', '3', '0', '100.0', '0', '0', '4', '1', '38', '4', '11', '21']"
"['', '20038', '2013-03-03', '00:30:00 GMT', '15', 'BUF', 'Buffalo', 'Sabres', '9', 'NYR', 'New York', 'Rangers', '12', 'Madison Square Garden', '9', 'NYR', 'New York', 'Rangers', '1', '0', '0', '0', '0', '0', '0', '2', '35', '20', '63.6', '3', '2', '66.7', '5', '0', '100.0', '0', '1', '2', '2', '26', '5', '10', '23']"
"['', '20050', '2013-03-05', '00:30:00 GMT', '6', 'PHI', 'Philadelphia', 'Flyers', '9', 'NYR', 'New York', 'Rangers', '12', 'Madison Square Garden', '9', 'NYR', 'New York', 'Rangers', '1', '0', '0', '0', '0', '0', '1', '2', '33', '27', '55.0', '4', '1', '25.0', '3', '2', '33.3', '0', '0', '4', '2', '16', '4', '16', '39']"
"['', '20062', '2013-03-07', '00:00:00 GMT', '9', 'NYR', 'New York', 'Rangers', '8', 'NYI', 'New York', 'Islanders', '16', 'Nassau Veterans Memorial Coliseum', '9', 'NYR', 'New York', 'Rangers', '1', '0', '0', '0', '0', '0', '1', '2', '23', '18', '56.1', '3', '1', '33.3', '0', '0', '0.0', '0', '0', '2', '1', '35', '1', '2', '20']"
"['', '20071', '2013-03-08', '00:00:00 GMT', '13', 'OTT', 'Ottawa', 'Senators', '9', 'NYR', 'New York', 'Rangers', '12', 'Madison Square Garden', '9', 'NYR', 'New York', 'Rangers', '0', '1', '0', '0', '0', '0', '0', '0', '27', '32', '45.8', '1', '0', '0.0', '3', '1', '66.7', '0', '0', '2', '3', '33', '5', '13', '29']"
"['', '20086', '2013-03-10', '16:30:00 GMT', '9', 'NYR', 'New York', 'Rangers', '5', 'WSH', 'Washington', 'Capitals', '13', 'Verizon Center', '9', 'NYR', 'New York', 'Rangers', '1', '0', '0', '0', '0', '0', '1', '2', '23', '31', '42.6', '2', '1', '50.0', '3', '0', '100.0', '0', '0', '4', '1', '26', '4', '8', '34']"
"['', '20098', '2013-03-12', '23:00:00 GMT', '9', 'NYR', 'New York', 'Rangers', '15', 'BUF', 'Buffalo', 'Sabres', '10', 'First Niagara Center', '9', 'NYR', 'New York', 'Rangers', '0', '1', '0', '0', '0', '0', '0', '0', '31', '25', '55.4', '1', '0', '0.0', '5', '0', '100.0', '1', '0', '1', '3', '32', '5', '10', '38']"
"['', '20117', '2013-03-14', '00:00:00 GMT', '9', 'NYR', 'New York', 'Rangers', '2', 'WPJ', 'Winnipeg', 'Jets', '39', 'MTS Centre', '9', 'NYR', 'New York', 'Rangers', '0', '1', '0', '0', '0', '0', '0', '0', '33', '23', '58.9', '1', '0', '0.0', '2', '1', '50.0', '0', '0', '1', '3', '27', '3', '9', '33']"
"['', '20127', '2013-03-16', '17:00:00 GMT', '9', 'NYR', 'New York', 'Rangers', '10', 'PIT', 'Pittsburgh', 'Penguins', '14', 'Civic Arena', '9', 'NYR', 'New York', 'Rangers', '0', '1', '0', '0', '0', '0', '0', '0', '32', '22', '59.3', '1', '0', '0.0', '3', '1', '66.7', '0', '0', '0', '3', '23', '4', '8', '26']"
"['', '20143', '2013-03-18', '23:00:00 GMT', '3', 'CAR', 'Carolina', 'Hurricanes', '9', 'NYR', 'New York', 'Rangers', '12', 'Madison Square Garden', '9', 'NYR', 'New York', 'Rangers', '1', '0', '0', '0', '0', '0', '0', '2', '18', '29', '38.3', '2', '0', '0.0', '3', '0', '100.0', '0', '0', '1', '1', '35', '3', '6', '31']"
"['', '20150', '2013-03-19', '23:00:00 GMT', '9', 'NYR', 'New York', 'Rangers', '7', 'NJD', 'New Jersey', 'Devils', '5', 'Izod Center', '9', 'NYR', 'New York', 'Rangers', '1', '0', '0', '0', '0', '0', '1', '2', '26', '36', '41.9', '2', '0', '0.0', '4', '1', '75.0', '1', '0', '3', '2', '19', '4', '8', '25']"
"['', '20166', '2013-03-21', '23:00:00 GMT', '4', 'FLO', 'Florida', 'Panthers', '9', 'NYR', 'New York', 'Rangers', '12', 'Madison Square Garden', '9', 'NYR', 'New York', 'Rangers', '0', '1', '0', '0', '0', '0', '0', '0', '33', '29', '53.2', '3', '0', '0.0', '2', '1', '50.0', '0', '1', '1', '3', '44', '2', '4', '19']"
"['', '20188', '2013-03-24', '23:00:00 GMT', '5', 'WSH', 'Washington', 'Capitals', '9', 'NYR', 'New York', 'Rangers', '12', 'Madison Square Garden', '9', 'NYR', 'New York', 'Rangers', '0', '0', '0', '1', '0', '0', '0', '1', '27', '25', '51.9', '2', '1', '50.0', '3', '1', '66.7', '0', '0', '2', '2', '30', '4', '8', '47']"
"['', '20204', '2013-03-26', '23:30:00 GMT', '9', 'NYR', 'New York', 'Rangers', '6', 'PHI', 'Philadelphia', 'Flyers', '29', 'Wells Fargo Center', '9', 'NYR', 'New York', 'Rangers', '1', '0', '0', '0', '0', '0', '1', '2', '41', '25', '62.1', '3', '1', '33.3', '1', '1', '0.0', '0', '0', '5', '2', '26', '1', '2', '23']"
"['', '20216', '2013-03-28', '23:30:00 GMT', '9', 'NYR', 'New York', 'Rangers', '13', 'OTT', 'Ottawa', 'Senators', '23', 'Canadian Tire Centre', '9', 'NYR', 'New York', 'Rangers', '0', '1', '0', '0', '0', '0', '0', '0', '24', '34', '41.4', '4', '0', '0.0', '2', '1', '50.0', '0', '0', '0', '3', '24', '2', '4', '20']"
"['', '20232', '2013-03-30', '23:00:00 GMT', '9', 'NYR', 'New York', 'Rangers', '14', 'MTL', 'Montreal', 'Canadiens', '4', 'Bell Centre', '9', 'NYR', 'New York', 'Rangers', '0', '1', '0', '0', '0', '0', '0', '0', '32', '31', '50.8', '1', '0', '0.0', '2', '1', '50.0', '0', '0', '0', '3', '34', '2', '4', '42']"
"['', '20244', '2013-04-01', '23:00:00 GMT', '2', 'WPJ', 'Winnipeg', 'Jets', '9', 'NYR', 'New York', 'Rangers', '12', 'Madison Square Garden', '9', 'NYR', 'New York', 'Rangers', '1', '0', '0', '0', '0', '0', '1', '2', '21', '29', '42.0', '1', '0', '0.0', '4', '0', '100.0', '1', '0', '4', '2', '31', '5', '10', '28']"
"['', '20259', '2013-04-03', '23:30:00 GMT', '10', 'PIT', 'Pittsburgh', 'Penguins', '9', 'NYR', 'New York', 'Rangers', '12', 'Madison Square Garden', '9', 'NYR', 'New York', 'Rangers', '1', '0', '0', '0', '0', '0', '1', '2', '36', '28', '56.2', '4', '3', '75.0', '2', '0', '100.0', '0', '0', '6', '1', '33', '4', '11', '31']"
"['', '20275', '2013-04-05', '23:00:00 GMT', '9', 'NYR', 'New York', 'Rangers', '10', 'PIT', 'Pittsburgh', 'Penguins', '14', 'Civic Arena', '9', 'NYR', 'New York', 'Rangers', '0', '0', '0', '1', '0', '0', '0', '1', '25', '36', '41.0', '2', '0', '0.0', '2', '0', '100.0', '0', '0', '1', '1', '34', '3', '9', '27']"
"['', '20286', '2013-04-06', '23:00:00 GMT', '9', 'NYR', 'New York', 'Rangers', '3', 'CAR', 'Carolina', 'Hurricanes', '21', 'RBC Center', '9', 'NYR', 'New York', 'Rangers', '1', '0', '0', '0', '0', '0', '1', '2', '35', '36', '49.3', '4', '2', '50.0', '5', '0', '100.0', '0', '0', '4', '1', '35', '5', '10', '22']"
"['', '20299', '2013-04-08', '23:00:00 GMT', '9', 'NYR', 'New York', 'Rangers', '12', 'TOR', 'Toronto', 'Maple Leafs', '1', 'Air Canada Center', '9', 'NYR', 'New York', 'Rangers', '0', '1', '0', '0', '0', '0', '0', '0', '33', '29', '53.2', '2', '0', '0.0', '2', '1', '50.0', '0', '0', '3', '4', '31', '2', '4', '42']"
"['', '20313', '2013-04-10', '23:30:00 GMT', '12', 'TOR', 'Toronto', 'Maple Leafs', '9', 'NYR', 'New York', 'Rangers', '12', 'Madison Square Garden', '9', 'NYR', 'New York', 'Rangers', '1', '0', '0', '0', '0', '0', '0', '2', '23', '38', '37.7', '3', '0', '0.0', '2', '0', '100.0', '0', '0', '2', '2', '26', '3', '9', '31']"
"['', '20334', '2013-04-13', '23:00:00 GMT', '9', 'NYR', 'New York', 'Rangers', '8', 'NYI', 'New York', 'Islanders', '16', 'Nassau Veterans Memorial Coliseum', '9', 'NYR', 'New York', 'Rangers', '1', '0', '0', '0', '0', '0', '1', '2', '22', '32', '40.7', '4', '0', '0.0', '2', '0', '100.0', '0', '0', '1', '0', '19', '3', '6', '19']"
"['', '20356', '2013-04-16', '23:30:00 GMT', '9', 'NYR', 'New York', 'Rangers', '6', 'PHI', 'Philadelphia', 'Flyers', '29', 'Wells Fargo Center', '9', 'NYR', 'New York', 'Rangers', '0', '1', '0', '0', '0', '0', '0', '0', '30', '39', '43.5', '5', '0', '0.0', '2', '1', '50.0', '0', '0', '2', '4', '38', '3', '9', '19']"
"['', '20366', '2013-04-18', '23:00:00 GMT', '4', 'FLO', 'Florida', 'Panthers', '9', 'NYR', 'New York', 'Rangers', '12', 'Madison Square Garden', '9', 'NYR', 'New York', 'Rangers', '1', '0', '0', '0', '0', '0', '1', '2', '24', '27', '47.1', '4', '2', '50.0', '1', '0', '100.0', '0', '0', '6', '1', '24', '2', '7', '27']"
"['', '20376', '2013-04-19', '23:00:00 GMT', '9', 'NYR', 'New York', 'Rangers', '15', 'BUF', 'Buffalo', 'Sabres', '10', 'First Niagara Center', '9', 'NYR', 'New York', 'Rangers', '1', '0', '0', '0', '0', '0', '1', '2', '33', '26', '55.9', '1', '0', '0.0', '3', '2', '33.3', '0', '0', '8', '4', '21', '4', '8', '19']"
"['', '20440', '2013-04-21', '23:00:00 GMT', '7', 'NJD', 'New Jersey', 'Devils', '9', 'NYR', 'New York', 'Rangers', '12', 'Madison Square Garden', '9', 'NYR', 'New York', 'Rangers', '1', '0', '0', '0', '0', '0', '1', '2', '29', '32', '47.5', '4', '1', '25.0', '2', '0', '100.0', '0', '0', '4', '1', '18', '4', '16', '29']"
"['', '20405', '2013-04-23', '23:30:00 GMT', '9', 'NYR', 'New York', 'Rangers', '4', 'FLO', 'Florida', 'Panthers', '3', 'BB&T Center', '9', 'NYR', 'New York', 'Rangers', '0', '1', '0', '0', '0', '0', '0', '0', '30', '26', '53.6', '3', '0', '0.0', '2', '1', '50.0', '0', '1', '2', '3', '36', '3', '9', '36']"
"['', '20416', '2013-04-25', '23:00:00 GMT', '9', 'NYR', 'New York', 'Rangers', '3', 'CAR', 'Carolina', 'Hurricanes', '21', 'RBC Center', '9', 'NYR', 'New York', 'Rangers', '1', '0', '0', '0', '0', '0', '1', '2', '26', '38', '40.6', '3', '1', '33.3', '2', '1', '50.0', '0', '0', '4', '3', '34', '2', '4', '26']"
"['', '20441', '2013-04-27', '23:00:00 GMT', '7', 'NJD', 'New Jersey', 'Devils', '9', 'NYR', 'New York', 'Rangers', '12', 'Madison Square Garden', '9', 'NYR', 'New York', 'Rangers', '1', '0', '0', '0', '0', '0', '1', '2', '21', '26', '44.7', '5', '0', '0.0', '4', '0', '100.0', '1', '0', '4', '0', '17', '4', '8', '30']"
