"['#Date/Time of Update: 2018-12-10 19:03:14 GMT', '#Game ID', '#Game Date', '#Game Time', '#Away Team ID', '#Away Team Abbr.', '#Away Team City', '#Away Team Name', '#Home Team ID', '#Home Team Abbr.', '#Home Team City', '#Home Team Name', '#Venue ID', '#Venue Name', '#Team ID', '#Team Abbr.', '#Team City', '#Team Name', '#Wins', '#Losses', '#OvertimeWins', '#OvertimeLosses', '#ShootoutWins', '#ShootoutLosses', '#Rows', '#Points', '#FaceoffWins', '#FaceoffLosses', '#FaceoffPercent', '#Powerplays', '#PowerplayGoals', '#PowerplayPercent', '#PenaltyKills', '#PenaltyKillGoalsAllowed', '#PenaltyKillPercent', '#ShorthandedGoalsFor', '#ShorthandedGoalsAgainst', '#GoalsFor', '#GoalsAgainst', '#Shots', '#Penalties', '#PenaltyMinutes', '#Hits']"
"['', '27698', '2014-10-08', '02:00:00 GMT', '26', 'SJS', 'San Jose', 'Sharks', '28', 'LAK', 'Los Angeles', 'Kings', '25', 'Staples Center', '28', 'LAK', 'Los Angeles', 'Kings', '0', '1', '0', '0', '0', '0', '0', '0', '29', '42', '40.8', '4', '0', '0.0', '4', '1', '75.0', '0', '0', '0', '4', '34', '5', '13', '30']"
"['', '27724', '2014-10-11', '01:00:00 GMT', '28', 'LAK', 'Los Angeles', 'Kings', '30', 'ARI', 'Arizona', 'Coyotes', '6', 'Gila River Arena', '28', 'LAK', 'Los Angeles', 'Kings', '0', '0', '0', '1', '0', '0', '0', '1', '38', '32', '54.3', '3', '0', '0.0', '3', '2', '33.3', '0', '0', '2', '3', '24', '7', '14', '32']"
"['', '27728', '2014-10-12', '02:00:00 GMT', '2', 'WPJ', 'Winnipeg', 'Jets', '28', 'LAK', 'Los Angeles', 'Kings', '25', 'Staples Center', '28', 'LAK', 'Los Angeles', 'Kings', '1', '0', '0', '0', '0', '0', '1', '2', '30', '37', '44.8', '3', '0', '0.0', '2', '0', '100.0', '0', '0', '4', '1', '27', '6', '18', '31']"
"['', '27740', '2014-10-14', '02:30:00 GMT', '24', 'EDM', 'Edmonton', 'Oilers', '28', 'LAK', 'Los Angeles', 'Kings', '25', 'Staples Center', '28', 'LAK', 'Los Angeles', 'Kings', '1', '0', '0', '0', '0', '0', '1', '2', '33', '25', '56.9', '3', '1', '33.3', '3', '0', '100.0', '1', '0', '6', '1', '20', '4', '11', '38']"
"['', '27749', '2014-10-16', '02:30:00 GMT', '17', 'STL', 'St. Louis', 'Blues', '28', 'LAK', 'Los Angeles', 'Kings', '25', 'Staples Center', '28', 'LAK', 'Los Angeles', 'Kings', '1', '0', '0', '0', '0', '0', '0', '2', '33', '41', '44.6', '4', '0', '0.0', '4', '0', '100.0', '0', '0', '0', '0', '18', '5', '10', '34']"
"['', '27768', '2014-10-19', '20:00:00 GMT', '25', 'MIN', 'Minnesota', 'Wild', '28', 'LAK', 'Los Angeles', 'Kings', '25', 'Staples Center', '28', 'LAK', 'Los Angeles', 'Kings', '1', '0', '0', '0', '0', '0', '1', '2', '37', '28', '56.9', '2', '1', '50.0', '5', '0', '100.0', '0', '0', '2', '1', '14', '7', '25', '37']"
"['', '27793', '2014-10-23', '02:30:00 GMT', '15', 'BUF', 'Buffalo', 'Sabres', '28', 'LAK', 'Los Angeles', 'Kings', '25', 'Staples Center', '28', 'LAK', 'Los Angeles', 'Kings', '1', '0', '0', '0', '0', '0', '1', '2', '28', '25', '52.8', '3', '2', '66.7', '3', '0', '100.0', '0', '0', '2', '0', '37', '6', '18', '24']"
"['', '27812', '2014-10-26', '20:00:00 GMT', '19', 'CBJ', 'Columbus', 'Blue Jackets', '28', 'LAK', 'Los Angeles', 'Kings', '25', 'Staples Center', '28', 'LAK', 'Los Angeles', 'Kings', '1', '0', '0', '0', '0', '0', '1', '2', '40', '29', '58.0', '3', '1', '33.3', '3', '1', '66.7', '0', '0', '5', '2', '22', '5', '21', '29']"
"['', '27822', '2014-10-28', '23:00:00 GMT', '28', 'LAK', 'Los Angeles', 'Kings', '6', 'PHI', 'Philadelphia', 'Flyers', '29', 'Wells Fargo Center', '28', 'LAK', 'Los Angeles', 'Kings', '0', '0', '0', '1', '0', '0', '0', '1', '32', '23', '58.2', '2', '0', '0.0', '2', '0', '100.0', '1', '0', '2', '3', '38', '3', '14', '40']"
"['', '27834', '2014-10-30', '23:00:00 GMT', '28', 'LAK', 'Los Angeles', 'Kings', '10', 'PIT', 'Pittsburgh', 'Penguins', '40', 'Consol Energy Center', '28', 'LAK', 'Los Angeles', 'Kings', '0', '1', '0', '0', '0', '0', '0', '0', '32', '30', '51.6', '4', '0', '0.0', '5', '2', '60.0', '0', '0', '0', '3', '36', '8', '16', '32']"
"['', '27843', '2014-10-31', '23:30:00 GMT', '28', 'LAK', 'Los Angeles', 'Kings', '16', 'DET', 'Detroit', 'Red Wings', '11', 'Joe Louis Arena', '28', 'LAK', 'Los Angeles', 'Kings', '0', '1', '0', '0', '0', '0', '0', '0', '37', '37', '50.0', '2', '0', '0.0', '4', '2', '50.0', '1', '0', '2', '5', '27', '7', '22', '30']"
"['', '27859', '2014-11-02', '22:00:00 GMT', '28', 'LAK', 'Los Angeles', 'Kings', '3', 'CAR', 'Carolina', 'Hurricanes', '21', 'RBC Center', '28', 'LAK', 'Los Angeles', 'Kings', '0', '1', '0', '0', '0', '0', '0', '0', '34', '25', '57.6', '3', '1', '33.3', '4', '1', '75.0', '0', '0', '2', '3', '30', '4', '8', '28']"
"['', '27875', '2014-11-04', '01:30:00 GMT', '28', 'LAK', 'Los Angeles', 'Kings', '27', 'DAL', 'Dallas', 'Stars', '2', 'American Airlines Center', '28', 'LAK', 'Los Angeles', 'Kings', '1', '0', '0', '0', '0', '0', '1', '2', '37', '30', '55.2', '5', '0', '0.0', '3', '0', '100.0', '1', '0', '3', '1', '27', '5', '10', '27']"
"['', '27889', '2014-11-06', '03:30:00 GMT', '8', 'NYI', 'New York', 'Islanders', '28', 'LAK', 'Los Angeles', 'Kings', '25', 'Staples Center', '28', 'LAK', 'Los Angeles', 'Kings', '0', '0', '0', '1', '0', '0', '0', '1', '33', '22', '60.0', '3', '0', '0.0', '5', '1', '80.0', '0', '0', '1', '1', '28', '4', '10', '24']"
"['', '27907', '2014-11-08', '03:00:00 GMT', '21', 'VAN', 'Vancouver', 'Canucks', '28', 'LAK', 'Los Angeles', 'Kings', '25', 'Staples Center', '28', 'LAK', 'Los Angeles', 'Kings', '1', '0', '0', '0', '0', '0', '1', '2', '29', '28', '50.9', '2', '0', '0.0', '4', '0', '100.0', '0', '0', '5', '1', '31', '5', '10', '16']"
"['', '27926', '2014-11-12', '03:30:00 GMT', '28', 'LAK', 'Los Angeles', 'Kings', '29', 'ANA', 'Anaheim', 'Ducks', '8', 'Honda Center', '28', 'LAK', 'Los Angeles', 'Kings', '0', '0', '0', '1', '0', '0', '0', '1', '30', '35', '46.2', '0', '0', '0.0', '0', '0', '0.0', '0', '0', '5', '5', '21', '2', '4', '36']"
"['', '27935', '2014-11-13', '03:30:00 GMT', '27', 'DAL', 'Dallas', 'Stars', '28', 'LAK', 'Los Angeles', 'Kings', '25', 'Staples Center', '28', 'LAK', 'Los Angeles', 'Kings', '0', '1', '0', '0', '0', '0', '0', '0', '33', '32', '50.8', '3', '0', '0.0', '3', '0', '100.0', '0', '0', '0', '2', '27', '5', '13', '20']"
"['', '27944', '2014-11-15', '21:00:00 GMT', '29', 'ANA', 'Anaheim', 'Ducks', '28', 'LAK', 'Los Angeles', 'Kings', '25', 'Staples Center', '28', 'LAK', 'Los Angeles', 'Kings', '1', '0', '0', '0', '0', '0', '1', '2', '35', '33', '51.5', '3', '2', '66.7', '3', '0', '100.0', '1', '0', '3', '2', '34', '4', '11', '50']"
"['', '27971', '2014-11-18', '03:30:00 GMT', '4', 'FLO', 'Florida', 'Panthers', '28', 'LAK', 'Los Angeles', 'Kings', '25', 'Staples Center', '28', 'LAK', 'Los Angeles', 'Kings', '1', '0', '0', '0', '0', '0', '1', '2', '32', '35', '47.8', '5', '3', '60.0', '4', '1', '75.0', '0', '0', '5', '2', '22', '5', '10', '32']"
"['', '27984', '2014-11-20', '03:30:00 GMT', '3', 'CAR', 'Carolina', 'Hurricanes', '28', 'LAK', 'Los Angeles', 'Kings', '25', 'Staples Center', '28', 'LAK', 'Los Angeles', 'Kings', '1', '0', '0', '0', '0', '0', '1', '2', '37', '28', '56.9', '2', '1', '50.0', '4', '1', '75.0', '0', '0', '3', '2', '36', '5', '13', '24']"
"['', '27997', '2014-11-22', '01:00:00 GMT', '28', 'LAK', 'Los Angeles', 'Kings', '27', 'DAL', 'Dallas', 'Stars', '2', 'American Airlines Center', '28', 'LAK', 'Los Angeles', 'Kings', '0', '1', '0', '0', '0', '0', '0', '0', '31', '38', '44.9', '4', '1', '25.0', '6', '2', '66.7', '0', '0', '4', '5', '37', '6', '12', '36']"
"['', '28012', '2014-11-25', '01:00:00 GMT', '28', 'LAK', 'Los Angeles', 'Kings', '18', 'NSH', 'Nashville', 'Predators', '15', 'Bridgestone Arena', '28', 'LAK', 'Los Angeles', 'Kings', '0', '0', '0', '1', '0', '0', '0', '1', '36', '30', '54.5', '3', '0', '0.0', '4', '0', '100.0', '0', '0', '3', '3', '18', '4', '8', '24']"
"['', '28023', '2014-11-26', '01:00:00 GMT', '28', 'LAK', 'Los Angeles', 'Kings', '25', 'MIN', 'Minnesota', 'Wild', '30', 'Xcel Energy Center', '28', 'LAK', 'Los Angeles', 'Kings', '1', '0', '0', '0', '0', '0', '1', '2', '26', '21', '55.3', '2', '0', '0.0', '2', '0', '100.0', '0', '0', '4', '0', '18', '3', '6', '23']"
"['', '28047', '2014-11-29', '03:00:00 GMT', '20', 'CHI', 'Chicago', 'Blackhawks', '28', 'LAK', 'Los Angeles', 'Kings', '25', 'Staples Center', '28', 'LAK', 'Los Angeles', 'Kings', '0', '1', '0', '0', '0', '0', '0', '0', '29', '24', '54.7', '3', '0', '0.0', '2', '0', '100.0', '0', '0', '1', '4', '19', '5', '19', '34']"
"['', '28065', '2014-12-02', '03:30:00 GMT', '11', 'BOS', 'Boston', 'Bruins', '28', 'LAK', 'Los Angeles', 'Kings', '25', 'Staples Center', '28', 'LAK', 'Los Angeles', 'Kings', '1', '0', '0', '0', '0', '0', '1', '2', '28', '28', '50.0', '3', '0', '0.0', '0', '0', '0.0', '0', '0', '2', '0', '33', '1', '2', '28']"
"['', '28079', '2014-12-04', '02:00:00 GMT', '28', 'LAK', 'Los Angeles', 'Kings', '30', 'ARI', 'Arizona', 'Coyotes', '6', 'Gila River Arena', '28', 'LAK', 'Los Angeles', 'Kings', '1', '0', '0', '0', '0', '0', '1', '2', '28', '41', '40.6', '3', '2', '66.7', '2', '0', '100.0', '0', '0', '4', '0', '39', '2', '4', '47']"
"['', '28086', '2014-12-06', '21:00:00 GMT', '6', 'PHI', 'Philadelphia', 'Flyers', '28', 'LAK', 'Los Angeles', 'Kings', '25', 'Staples Center', '28', 'LAK', 'Los Angeles', 'Kings', '0', '1', '0', '0', '0', '0', '0', '0', '27', '25', '51.9', '5', '0', '0.0', '4', '1', '75.0', '0', '0', '1', '2', '37', '5', '10', '37']"
"['', '28103', '2014-12-09', '00:00:00 GMT', '28', 'LAK', 'Los Angeles', 'Kings', '15', 'BUF', 'Buffalo', 'Sabres', '10', 'First Niagara Center', '28', 'LAK', 'Los Angeles', 'Kings', '0', '1', '0', '0', '0', '0', '0', '0', '26', '27', '49.1', '2', '0', '0.0', '4', '1', '75.0', '0', '0', '0', '1', '34', '4', '8', '22']"
"['', '28119', '2014-12-11', '00:30:00 GMT', '28', 'LAK', 'Los Angeles', 'Kings', '13', 'OTT', 'Ottawa', 'Senators', '23', 'Canadian Tire Centre', '28', 'LAK', 'Los Angeles', 'Kings', '1', '0', '0', '0', '0', '0', '1', '2', '34', '27', '55.7', '4', '1', '25.0', '2', '0', '100.0', '0', '1', '5', '3', '31', '3', '9', '31']"
"['', '28126', '2014-12-12', '00:30:00 GMT', '28', 'LAK', 'Los Angeles', 'Kings', '14', 'MTL', 'Montreal', 'Canadiens', '4', 'Bell Centre', '28', 'LAK', 'Los Angeles', 'Kings', '0', '1', '0', '0', '0', '0', '0', '0', '23', '40', '36.5', '5', '0', '0.0', '3', '2', '33.3', '0', '0', '2', '6', '44', '3', '6', '32']"
"['', '28142', '2014-12-14', '22:00:00 GMT', '28', 'LAK', 'Los Angeles', 'Kings', '12', 'TOR', 'Toronto', 'Maple Leafs', '1', 'Air Canada Center', '28', 'LAK', 'Los Angeles', 'Kings', '0', '0', '0', '1', '0', '0', '0', '1', '34', '28', '54.8', '2', '0', '0.0', '3', '1', '66.7', '0', '0', '3', '3', '33', '4', '8', '48']"
"['', '28154', '2014-12-16', '01:00:00 GMT', '28', 'LAK', 'Los Angeles', 'Kings', '17', 'STL', 'St. Louis', 'Blues', '24', 'Scottrade Center', '28', 'LAK', 'Los Angeles', 'Kings', '0', '1', '0', '0', '0', '0', '0', '0', '28', '37', '43.1', '6', '1', '16.7', '2', '2', '0.0', '0', '0', '2', '5', '21', '3', '6', '19']"
"['', '28166', '2014-12-18', '03:30:00 GMT', '17', 'STL', 'St. Louis', 'Blues', '28', 'LAK', 'Los Angeles', 'Kings', '25', 'Staples Center', '28', 'LAK', 'Los Angeles', 'Kings', '1', '0', '0', '0', '0', '0', '1', '2', '28', '38', '42.4', '5', '3', '60.0', '3', '2', '33.3', '0', '0', '6', '4', '31', '5', '13', '46']"
"['', '28173', '2014-12-20', '21:00:00 GMT', '30', 'ARI', 'Arizona', 'Coyotes', '28', 'LAK', 'Los Angeles', 'Kings', '25', 'Staples Center', '28', 'LAK', 'Los Angeles', 'Kings', '1', '0', '0', '0', '0', '0', '1', '2', '28', '27', '50.9', '4', '2', '50.0', '3', '0', '100.0', '0', '0', '4', '2', '31', '3', '6', '38']"
"['', '28196', '2014-12-22', '03:30:00 GMT', '23', 'CGY', 'Calgary', 'Flames', '28', 'LAK', 'Los Angeles', 'Kings', '25', 'Staples Center', '28', 'LAK', 'Los Angeles', 'Kings', '0', '0', '0', '1', '0', '0', '0', '1', '41', '28', '59.4', '2', '2', '100.0', '2', '1', '50.0', '0', '0', '3', '4', '31', '2', '4', '30']"
"['', '28220', '2014-12-27', '03:30:00 GMT', '26', 'SJS', 'San Jose', 'Sharks', '28', 'LAK', 'Los Angeles', 'Kings', '25', 'Staples Center', '28', 'LAK', 'Los Angeles', 'Kings', '1', '0', '0', '0', '0', '0', '1', '2', '25', '29', '46.3', '4', '2', '50.0', '2', '0', '100.0', '0', '0', '3', '1', '26', '2', '4', '36']"
"['', '28234', '2014-12-29', '02:00:00 GMT', '28', 'LAK', 'Los Angeles', 'Kings', '23', 'CGY', 'Calgary', 'Flames', '18', 'Scotiabank Saddledome', '28', 'LAK', 'Los Angeles', 'Kings', '0', '1', '0', '0', '0', '0', '0', '0', '34', '27', '55.7', '2', '0', '0.0', '2', '0', '100.0', '0', '0', '1', '2', '26', '2', '4', '29']"
"['', '28237', '2014-12-30', '02:30:00 GMT', '28', 'LAK', 'Los Angeles', 'Kings', '24', 'EDM', 'Edmonton', 'Oilers', '22', 'Rogers Place', '28', 'LAK', 'Los Angeles', 'Kings', '0', '0', '0', '1', '0', '0', '0', '1', '34', '20', '63.0', '3', '1', '33.3', '3', '0', '100.0', '0', '0', '2', '2', '37', '4', '8', '38']"
"['', '28251', '2015-01-01', '03:00:00 GMT', '28', 'LAK', 'Los Angeles', 'Kings', '21', 'VAN', 'Vancouver', 'Canucks', '7', 'Rogers Arena', '28', 'LAK', 'Los Angeles', 'Kings', '1', '0', '0', '0', '0', '0', '1', '2', '28', '33', '45.9', '4', '1', '25.0', '1', '1', '0.0', '0', '0', '3', '2', '37', '1', '2', '25']"
"['', '28261', '2015-01-03', '21:00:00 GMT', '18', 'NSH', 'Nashville', 'Predators', '28', 'LAK', 'Los Angeles', 'Kings', '25', 'Staples Center', '28', 'LAK', 'Los Angeles', 'Kings', '0', '0', '0', '1', '0', '0', '0', '1', '37', '33', '52.9', '3', '0', '0.0', '2', '1', '50.0', '0', '0', '6', '7', '24', '4', '8', '29']"
"['', '28301', '2015-01-08', '03:30:00 GMT', '9', 'NYR', 'New York', 'Rangers', '28', 'LAK', 'Los Angeles', 'Kings', '25', 'Staples Center', '28', 'LAK', 'Los Angeles', 'Kings', '0', '1', '0', '0', '0', '0', '0', '0', '31', '27', '53.4', '3', '0', '0.0', '4', '2', '50.0', '0', '0', '3', '4', '28', '4', '8', '24']"
"['', '28316', '2015-01-10', '03:00:00 GMT', '2', 'WPJ', 'Winnipeg', 'Jets', '28', 'LAK', 'Los Angeles', 'Kings', '25', 'Staples Center', '28', 'LAK', 'Los Angeles', 'Kings', '0', '0', '0', '1', '0', '0', '0', '1', '41', '26', '61.2', '6', '2', '33.3', '3', '1', '66.7', '0', '0', '4', '4', '25', '5', '10', '37']"
"['', '28323', '2015-01-12', '03:30:00 GMT', '12', 'TOR', 'Toronto', 'Maple Leafs', '28', 'LAK', 'Los Angeles', 'Kings', '25', 'Staples Center', '28', 'LAK', 'Los Angeles', 'Kings', '1', '0', '0', '0', '0', '0', '1', '2', '22', '29', '43.1', '2', '0', '0.0', '3', '0', '100.0', '0', '0', '2', '0', '18', '5', '13', '41']"
"['', '28337', '2015-01-14', '03:30:00 GMT', '7', 'NJD', 'New Jersey', 'Devils', '28', 'LAK', 'Los Angeles', 'Kings', '25', 'Staples Center', '28', 'LAK', 'Los Angeles', 'Kings', '0', '1', '0', '0', '0', '0', '0', '0', '27', '27', '50.0', '4', '0', '0.0', '4', '2', '50.0', '0', '0', '3', '5', '23', '5', '13', '31']"
"['', '28365', '2015-01-17', '03:00:00 GMT', '29', 'ANA', 'Anaheim', 'Ducks', '28', 'LAK', 'Los Angeles', 'Kings', '25', 'Staples Center', '28', 'LAK', 'Los Angeles', 'Kings', '0', '0', '0', '1', '0', '0', '0', '1', '37', '39', '48.7', '3', '1', '33.3', '2', '1', '50.0', '0', '0', '2', '2', '26', '3', '9', '45']"
"['', '28376', '2015-01-19', '03:30:00 GMT', '23', 'CGY', 'Calgary', 'Flames', '28', 'LAK', 'Los Angeles', 'Kings', '25', 'Staples Center', '28', 'LAK', 'Los Angeles', 'Kings', '0', '0', '0', '1', '0', '0', '0', '1', '38', '24', '61.3', '4', '0', '0.0', '4', '0', '100.0', '0', '0', '1', '2', '33', '8', '16', '43']"
"['', '28390', '2015-01-21', '03:30:00 GMT', '28', 'LAK', 'Los Angeles', 'Kings', '26', 'SJS', 'San Jose', 'Sharks', '9', 'SAP Center at San Jose', '28', 'LAK', 'Los Angeles', 'Kings', '0', '1', '0', '0', '0', '0', '0', '0', '35', '28', '55.6', '5', '1', '20.0', '2', '2', '0.0', '0', '0', '2', '4', '26', '5', '13', '45']"
"['', '28404', '2015-01-28', '03:30:00 GMT', '20', 'CHI', 'Chicago', 'Blackhawks', '28', 'LAK', 'Los Angeles', 'Kings', '25', 'Staples Center', '28', 'LAK', 'Los Angeles', 'Kings', '1', '0', '0', '0', '0', '0', '1', '2', '31', '33', '48.4', '2', '1', '50.0', '4', '1', '75.0', '0', '0', '4', '3', '23', '4', '8', '39']"
"['', '28424', '2015-01-31', '00:00:00 GMT', '28', 'LAK', 'Los Angeles', 'Kings', '11', 'BOS', 'Boston', 'Bruins', '27', 'TD Garden', '28', 'LAK', 'Los Angeles', 'Kings', '0', '1', '0', '0', '0', '0', '0', '0', '20', '31', '39.2', '1', '0', '0.0', '1', '0', '100.0', '0', '0', '1', '3', '30', '1', '2', '35']"
"['', '28441', '2015-02-03', '00:00:00 GMT', '28', 'LAK', 'Los Angeles', 'Kings', '5', 'WSH', 'Washington', 'Capitals', '13', 'Verizon Center', '28', 'LAK', 'Los Angeles', 'Kings', '0', '1', '0', '0', '0', '0', '0', '0', '26', '23', '53.1', '0', '0', '0.0', '3', '1', '66.7', '0', '0', '0', '4', '27', '4', '8', '37']"
"['', '28456', '2015-02-05', '00:30:00 GMT', '28', 'LAK', 'Los Angeles', 'Kings', '4', 'FLO', 'Florida', 'Panthers', '3', 'BB&T Center', '28', 'LAK', 'Los Angeles', 'Kings', '0', '1', '0', '0', '0', '0', '0', '0', '42', '22', '65.6', '2', '1', '50.0', '1', '0', '100.0', '0', '0', '2', '3', '29', '1', '2', '47']"
"['', '28468', '2015-02-07', '22:00:00 GMT', '28', 'LAK', 'Los Angeles', 'Kings', '1', 'TBL', 'Tampa Bay', 'Lightning', '26', 'Amalie Arena', '28', 'LAK', 'Los Angeles', 'Kings', '1', '0', '0', '0', '0', '0', '1', '2', '27', '36', '42.9', '2', '0', '0.0', '1', '0', '100.0', '0', '0', '4', '2', '25', '5', '10', '27']"
"['', '28487', '2015-02-09', '00:00:00 GMT', '28', 'LAK', 'Los Angeles', 'Kings', '19', 'CBJ', 'Columbus', 'Blue Jackets', '17', 'Nationwide Arena', '28', 'LAK', 'Los Angeles', 'Kings', '1', '0', '0', '0', '0', '0', '1', '2', '23', '36', '39.0', '1', '0', '0.0', '1', '0', '100.0', '0', '0', '4', '3', '40', '2', '7', '39']"
"['', '28511', '2015-02-12', '03:30:00 GMT', '23', 'CGY', 'Calgary', 'Flames', '28', 'LAK', 'Los Angeles', 'Kings', '25', 'Staples Center', '28', 'LAK', 'Los Angeles', 'Kings', '1', '0', '0', '0', '0', '0', '1', '2', '33', '22', '60.0', '2', '0', '0.0', '3', '1', '66.7', '0', '0', '5', '3', '40', '4', '11', '29']"
"['', '28526', '2015-02-14', '03:30:00 GMT', '5', 'WSH', 'Washington', 'Capitals', '28', 'LAK', 'Los Angeles', 'Kings', '25', 'Staples Center', '28', 'LAK', 'Los Angeles', 'Kings', '1', '0', '0', '0', '0', '0', '1', '2', '34', '28', '54.8', '3', '0', '0.0', '1', '0', '100.0', '0', '0', '3', '1', '27', '2', '4', '35']"
"['', '28539', '2015-02-16', '03:30:00 GMT', '1', 'TBL', 'Tampa Bay', 'Lightning', '28', 'LAK', 'Los Angeles', 'Kings', '25', 'Staples Center', '28', 'LAK', 'Los Angeles', 'Kings', '1', '0', '0', '0', '0', '0', '1', '2', '24', '16', '60.0', '3', '0', '0.0', '2', '0', '100.0', '0', '0', '3', '2', '25', '2', '4', '38']"
"['', '28552', '2015-02-18', '03:00:00 GMT', '28', 'LAK', 'Los Angeles', 'Kings', '22', 'COL', 'Colorado', 'Avalanche', '19', 'Pepsi Center', '28', 'LAK', 'Los Angeles', 'Kings', '1', '0', '0', '0', '0', '0', '1', '2', '19', '41', '31.7', '4', '1', '25.0', '3', '0', '100.0', '0', '0', '4', '1', '22', '3', '6', '19']"
"['', '28577', '2015-02-21', '03:00:00 GMT', '28', 'LAK', 'Los Angeles', 'Kings', '26', 'SJS', 'San Jose', 'Sharks', '9', 'SAP Center at San Jose', '28', 'LAK', 'Los Angeles', 'Kings', '1', '0', '0', '0', '0', '0', '1', '2', '31', '33', '48.4', '2', '0', '0.0', '3', '0', '100.0', '0', '0', '2', '1', '27', '3', '6', '45']"
"['', '28598', '2015-02-24', '03:30:00 GMT', '16', 'DET', 'Detroit', 'Red Wings', '28', 'LAK', 'Los Angeles', 'Kings', '25', 'Staples Center', '28', 'LAK', 'Los Angeles', 'Kings', '1', '0', '0', '0', '0', '0', '1', '2', '33', '21', '61.1', '3', '1', '33.3', '5', '0', '100.0', '0', '0', '1', '0', '26', '6', '12', '37']"
"['', '28609', '2015-02-26', '03:30:00 GMT', '13', 'OTT', 'Ottawa', 'Senators', '28', 'LAK', 'Los Angeles', 'Kings', '25', 'Staples Center', '28', 'LAK', 'Los Angeles', 'Kings', '0', '1', '0', '0', '0', '0', '0', '0', '36', '31', '53.7', '4', '0', '0.0', '2', '0', '100.0', '0', '0', '0', '1', '35', '3', '6', '30']"
"['', '28616', '2015-02-27', '03:00:00 GMT', '28', 'LAK', 'Los Angeles', 'Kings', '29', 'ANA', 'Anaheim', 'Ducks', '8', 'Honda Center', '28', 'LAK', 'Los Angeles', 'Kings', '0', '1', '0', '0', '0', '0', '0', '0', '27', '37', '42.2', '1', '0', '0.0', '1', '0', '100.0', '0', '0', '2', '4', '20', '1', '2', '25']"
"['', '28627', '2015-03-01', '20:00:00 GMT', '28', 'LAK', 'Los Angeles', 'Kings', '2', 'WPJ', 'Winnipeg', 'Jets', '39', 'MTS Centre', '28', 'LAK', 'Los Angeles', 'Kings', '0', '1', '0', '0', '0', '0', '0', '0', '40', '22', '64.5', '3', '0', '0.0', '1', '0', '100.0', '0', '0', '2', '5', '18', '7', '25', '29']"
"['', '28644', '2015-03-03', '02:30:00 GMT', '28', 'LAK', 'Los Angeles', 'Kings', '24', 'EDM', 'Edmonton', 'Oilers', '22', 'Rogers Place', '28', 'LAK', 'Los Angeles', 'Kings', '1', '0', '0', '0', '0', '0', '1', '2', '30', '19', '61.2', '3', '0', '0.0', '4', '1', '75.0', '1', '0', '5', '2', '24', '4', '8', '29']"
"['', '28657', '2015-03-05', '03:30:00 GMT', '14', 'MTL', 'Montreal', 'Canadiens', '28', 'LAK', 'Los Angeles', 'Kings', '25', 'Staples Center', '28', 'LAK', 'Los Angeles', 'Kings', '1', '0', '0', '0', '0', '0', '0', '2', '30', '26', '53.6', '4', '2', '50.0', '2', '0', '100.0', '0', '0', '3', '3', '26', '4', '11', '31']"
"['', '28672', '2015-03-07', '03:00:00 GMT', '10', 'PIT', 'Pittsburgh', 'Penguins', '28', 'LAK', 'Los Angeles', 'Kings', '25', 'Staples Center', '28', 'LAK', 'Los Angeles', 'Kings', '0', '0', '0', '1', '0', '0', '0', '1', '26', '29', '47.3', '2', '0', '0.0', '4', '0', '100.0', '0', '0', '0', '1', '31', '5', '10', '37']"
"['', '28692', '2015-03-10', '01:00:00 GMT', '28', 'LAK', 'Los Angeles', 'Kings', '22', 'COL', 'Colorado', 'Avalanche', '19', 'Pepsi Center', '28', 'LAK', 'Los Angeles', 'Kings', '1', '0', '0', '0', '0', '0', '1', '2', '27', '34', '44.3', '2', '1', '50.0', '3', '0', '100.0', '0', '0', '5', '2', '25', '3', '6', '26']"
"['', '28705', '2015-03-12', '02:00:00 GMT', '28', 'LAK', 'Los Angeles', 'Kings', '21', 'VAN', 'Vancouver', 'Canucks', '7', 'Rogers Arena', '28', 'LAK', 'Los Angeles', 'Kings', '1', '0', '0', '0', '0', '0', '1', '2', '29', '26', '52.7', '3', '1', '33.3', '2', '0', '100.0', '0', '0', '4', '0', '16', '3', '9', '20']"
"['', '28723', '2015-03-14', '02:30:00 GMT', '18', 'NSH', 'Nashville', 'Predators', '28', 'LAK', 'Los Angeles', 'Kings', '25', 'Staples Center', '28', 'LAK', 'Los Angeles', 'Kings', '0', '1', '0', '0', '0', '0', '0', '0', '27', '22', '55.1', '1', '1', '100.0', '3', '1', '66.7', '0', '0', '1', '2', '23', '4', '8', '33']"
"['', '28734', '2015-03-16', '02:30:00 GMT', '30', 'ARI', 'Arizona', 'Coyotes', '28', 'LAK', 'Los Angeles', 'Kings', '25', 'Staples Center', '28', 'LAK', 'Los Angeles', 'Kings', '1', '0', '0', '0', '0', '0', '1', '2', '33', '20', '62.3', '3', '0', '0.0', '2', '0', '100.0', '0', '0', '1', '0', '34', '2', '4', '45']"
"['', '28746', '2015-03-18', '02:30:00 GMT', '28', 'LAK', 'Los Angeles', 'Kings', '29', 'ANA', 'Anaheim', 'Ducks', '8', 'Honda Center', '28', 'LAK', 'Los Angeles', 'Kings', '0', '0', '0', '1', '0', '0', '0', '1', '22', '36', '37.9', '3', '1', '33.3', '3', '0', '100.0', '0', '0', '2', '3', '29', '4', '8', '29']"
"['', '28762', '2015-03-21', '20:00:00 GMT', '21', 'VAN', 'Vancouver', 'Canucks', '28', 'LAK', 'Los Angeles', 'Kings', '25', 'Staples Center', '28', 'LAK', 'Los Angeles', 'Kings', '0', '1', '0', '0', '0', '0', '0', '0', '27', '25', '51.9', '3', '1', '33.3', '3', '1', '66.7', '0', '1', '1', '4', '25', '5', '11', '34']"
"['', '28777', '2015-03-23', '23:00:00 GMT', '28', 'LAK', 'Los Angeles', 'Kings', '7', 'NJD', 'New Jersey', 'Devils', '37', 'Prudential Center', '28', 'LAK', 'Los Angeles', 'Kings', '1', '0', '0', '0', '0', '0', '1', '2', '28', '26', '51.9', '3', '1', '33.3', '1', '0', '100.0', '0', '0', '3', '1', '30', '2', '4', '19']"
"['', '28785', '2015-03-24', '23:00:00 GMT', '28', 'LAK', 'Los Angeles', 'Kings', '9', 'NYR', 'New York', 'Rangers', '12', 'Madison Square Garden', '28', 'LAK', 'Los Angeles', 'Kings', '1', '0', '0', '0', '0', '0', '1', '2', '34', '30', '53.1', '2', '0', '0.0', '1', '0', '100.0', '0', '0', '4', '2', '31', '1', '2', '28']"
"['', '28798', '2015-03-26', '23:00:00 GMT', '28', 'LAK', 'Los Angeles', 'Kings', '8', 'NYI', 'New York', 'Islanders', '16', 'Nassau Veterans Memorial Coliseum', '28', 'LAK', 'Los Angeles', 'Kings', '1', '0', '0', '0', '0', '0', '1', '2', '30', '21', '58.8', '2', '0', '0.0', '2', '1', '50.0', '1', '0', '3', '2', '34', '2', '4', '29']"
"['', '28819', '2015-03-28', '00:00:00 GMT', '28', 'LAK', 'Los Angeles', 'Kings', '25', 'MIN', 'Minnesota', 'Wild', '30', 'Xcel Energy Center', '28', 'LAK', 'Los Angeles', 'Kings', '0', '1', '0', '0', '0', '0', '0', '0', '32', '30', '51.6', '3', '0', '0.0', '2', '1', '50.0', '0', '0', '1', '4', '31', '3', '9', '11']"
"['', '28832', '2015-03-30', '00:30:00 GMT', '28', 'LAK', 'Los Angeles', 'Kings', '20', 'CHI', 'Chicago', 'Blackhawks', '28', 'United Center', '28', 'LAK', 'Los Angeles', 'Kings', '0', '1', '0', '0', '0', '0', '0', '0', '37', '28', '56.9', '1', '0', '0.0', '2', '1', '50.0', '0', '0', '1', '4', '31', '2', '4', '41']"
"['', '28855', '2015-04-02', '02:30:00 GMT', '24', 'EDM', 'Edmonton', 'Oilers', '28', 'LAK', 'Los Angeles', 'Kings', '25', 'Staples Center', '28', 'LAK', 'Los Angeles', 'Kings', '1', '0', '0', '0', '0', '0', '1', '2', '34', '32', '51.5', '1', '1', '100.0', '3', '1', '66.7', '0', '0', '8', '2', '25', '3', '6', '33']"
"['', '28872', '2015-04-04', '02:00:00 GMT', '22', 'COL', 'Colorado', 'Avalanche', '28', 'LAK', 'Los Angeles', 'Kings', '25', 'Staples Center', '28', 'LAK', 'Los Angeles', 'Kings', '1', '0', '0', '0', '0', '0', '1', '2', '20', '23', '46.5', '0', '0', '0.0', '1', '0', '100.0', '0', '0', '3', '1', '23', '1', '2', '28']"
"['', '28882', '2015-04-06', '02:00:00 GMT', '28', 'LAK', 'Los Angeles', 'Kings', '21', 'VAN', 'Vancouver', 'Canucks', '7', 'Rogers Arena', '28', 'LAK', 'Los Angeles', 'Kings', '0', '0', '0', '1', '0', '0', '0', '1', '42', '35', '54.5', '2', '0', '0.0', '3', '0', '100.0', '0', '0', '1', '1', '36', '3', '6', '17']"
"['', '28893', '2015-04-07', '01:30:00 GMT', '28', 'LAK', 'Los Angeles', 'Kings', '24', 'EDM', 'Edmonton', 'Oilers', '22', 'Rogers Place', '28', 'LAK', 'Los Angeles', 'Kings', '0', '1', '0', '0', '0', '0', '0', '0', '17', '31', '35.4', '2', '2', '100.0', '1', '0', '100.0', '0', '0', '2', '4', '25', '3', '9', '38']"
"['', '28905', '2015-04-09', '01:00:00 GMT', '28', 'LAK', 'Los Angeles', 'Kings', '23', 'CGY', 'Calgary', 'Flames', '18', 'Scotiabank Saddledome', '28', 'LAK', 'Los Angeles', 'Kings', '0', '1', '0', '0', '0', '0', '0', '0', '31', '29', '51.7', '0', '0', '0.0', '1', '0', '100.0', '0', '0', '1', '3', '33', '1', '2', '28']"
"['', '28913', '2015-04-11', '19:00:00 GMT', '26', 'SJS', 'San Jose', 'Sharks', '28', 'LAK', 'Los Angeles', 'Kings', '25', 'Staples Center', '28', 'LAK', 'Los Angeles', 'Kings', '1', '0', '0', '0', '0', '0', '1', '2', '23', '27', '46.0', '3', '0', '0.0', '3', '1', '66.7', '0', '0', '4', '1', '32', '4', '8', '31']"
