"['#Date/Time of Update: 2018-12-10 19:03:04 GMT', '#Game ID', '#Game Date', '#Game Time', '#Away Team ID', '#Away Team Abbr.', '#Away Team City', '#Away Team Name', '#Home Team ID', '#Home Team Abbr.', '#Home Team City', '#Home Team Name', '#Venue ID', '#Venue Name', '#Team ID', '#Team Abbr.', '#Team City', '#Team Name', '#Wins', '#Losses', '#OvertimeWins', '#OvertimeLosses', '#ShootoutWins', '#ShootoutLosses', '#Rows', '#Points', '#FaceoffWins', '#FaceoffLosses', '#FaceoffPercent', '#Powerplays', '#PowerplayGoals', '#PowerplayPercent', '#PenaltyKills', '#PenaltyKillGoalsAllowed', '#PenaltyKillPercent', '#ShorthandedGoalsFor', '#ShorthandedGoalsAgainst', '#GoalsFor', '#GoalsAgainst', '#Shots', '#Penalties', '#PenaltyMinutes', '#Hits']"
"['', '14900', '2011-10-08', '23:00:00 GMT', '3', 'CAR', 'Carolina', 'Hurricanes', '5', 'WSH', 'Washington', 'Capitals', '13', 'Verizon Center', '5', 'WSH', 'Washington', 'Capitals', '1', '0', '0', '0', '0', '0', '1', '2', '37', '31', '54.4', '4', '2', '50.0', '4', '2', '50.0', '0', '0', '4', '3', '32', '4', '8', '27']"
"['', '14915', '2011-10-10', '23:00:00 GMT', '1', 'TBL', 'Tampa Bay', 'Lightning', '5', 'WSH', 'Washington', 'Capitals', '13', 'Verizon Center', '5', 'WSH', 'Washington', 'Capitals', '1', '0', '0', '0', '0', '0', '0', '2', '32', '34', '48.5', '7', '0', '0.0', '2', '0', '100.0', '0', '0', '5', '5', '38', '5', '10', '33']"
"['', '14924', '2011-10-13', '23:00:00 GMT', '5', 'WSH', 'Washington', 'Capitals', '10', 'PIT', 'Pittsburgh', 'Penguins', '14', 'Civic Arena', '5', 'WSH', 'Washington', 'Capitals', '1', '0', '0', '0', '0', '0', '1', '2', '23', '26', '46.9', '1', '1', '100.0', '5', '1', '80.0', '0', '0', '3', '2', '16', '6', '15', '19']"
"['', '14939', '2011-10-15', '23:00:00 GMT', '13', 'OTT', 'Ottawa', 'Senators', '5', 'WSH', 'Washington', 'Capitals', '13', 'Verizon Center', '5', 'WSH', 'Washington', 'Capitals', '1', '0', '0', '0', '0', '0', '1', '2', '28', '33', '45.9', '3', '1', '33.3', '1', '0', '100.0', '0', '0', '2', '1', '24', '1', '2', '31']"
"['', '14955', '2011-10-18', '23:00:00 GMT', '4', 'FLO', 'Florida', 'Panthers', '5', 'WSH', 'Washington', 'Capitals', '13', 'Verizon Center', '5', 'WSH', 'Washington', 'Capitals', '1', '0', '0', '0', '0', '0', '1', '2', '22', '24', '47.8', '1', '1', '100.0', '2', '0', '100.0', '0', '0', '3', '0', '29', '3', '6', '30']"
"['', '14966', '2011-10-20', '23:00:00 GMT', '5', 'WSH', 'Washington', 'Capitals', '6', 'PHI', 'Philadelphia', 'Flyers', '29', 'Wells Fargo Center', '5', 'WSH', 'Washington', 'Capitals', '1', '0', '0', '0', '0', '0', '1', '2', '28', '31', '47.5', '5', '1', '20.0', '2', '0', '100.0', '0', '0', '5', '2', '23', '4', '8', '12']"
"['', '14987', '2011-10-22', '23:00:00 GMT', '16', 'DET', 'Detroit', 'Red Wings', '5', 'WSH', 'Washington', 'Capitals', '13', 'Verizon Center', '5', 'WSH', 'Washington', 'Capitals', '1', '0', '0', '0', '0', '0', '1', '2', '29', '34', '46.0', '4', '2', '50.0', '4', '1', '75.0', '0', '0', '7', '1', '18', '4', '8', '24']"
"['', '15019', '2011-10-27', '01:30:00 GMT', '5', 'WSH', 'Washington', 'Capitals', '24', 'EDM', 'Edmonton', 'Oilers', '22', 'Rogers Place', '5', 'WSH', 'Washington', 'Capitals', '0', '1', '0', '0', '0', '0', '0', '0', '29', '24', '54.7', '4', '0', '0.0', '8', '2', '75.0', '0', '0', '1', '2', '34', '9', '18', '12']"
"['', '15037', '2011-10-29', '02:00:00 GMT', '5', 'WSH', 'Washington', 'Capitals', '21', 'VAN', 'Vancouver', 'Canucks', '7', 'Rogers Arena', '5', 'WSH', 'Washington', 'Capitals', '0', '1', '0', '0', '0', '0', '0', '0', '26', '39', '40.0', '2', '1', '50.0', '5', '2', '60.0', '0', '0', '4', '7', '28', '5', '10', '11']"
"['', '15046', '2011-11-01', '23:30:00 GMT', '29', 'ANA', 'Anaheim', 'Ducks', '5', 'WSH', 'Washington', 'Capitals', '13', 'Verizon Center', '5', 'WSH', 'Washington', 'Capitals', '1', '0', '0', '0', '0', '0', '1', '2', '26', '30', '46.4', '3', '0', '0.0', '1', '1', '0.0', '0', '0', '5', '4', '35', '2', '7', '21']"
"['', '15063', '2011-11-04', '23:00:00 GMT', '5', 'WSH', 'Washington', 'Capitals', '3', 'CAR', 'Carolina', 'Hurricanes', '21', 'RBC Center', '5', 'WSH', 'Washington', 'Capitals', '1', '0', '0', '0', '0', '0', '1', '2', '29', '29', '50.0', '3', '1', '33.3', '4', '0', '100.0', '0', '0', '5', '1', '27', '4', '8', '6']"
"['', '15072', '2011-11-05', '23:00:00 GMT', '5', 'WSH', 'Washington', 'Capitals', '8', 'NYI', 'New York', 'Islanders', '16', 'Nassau Veterans Memorial Coliseum', '5', 'WSH', 'Washington', 'Capitals', '0', '1', '0', '0', '0', '0', '0', '0', '25', '25', '50.0', '1', '1', '100.0', '2', '0', '100.0', '0', '0', '3', '5', '25', '4', '8', '22']"
"['', '15090', '2011-11-08', '00:00:00 GMT', '27', 'DAL', 'Dallas', 'Stars', '5', 'WSH', 'Washington', 'Capitals', '13', 'Verizon Center', '5', 'WSH', 'Washington', 'Capitals', '0', '1', '0', '0', '0', '0', '0', '0', '41', '26', '61.2', '3', '1', '33.3', '4', '1', '75.0', '0', '0', '2', '5', '30', '7', '17', '21']"
"['', '15107', '2011-11-11', '00:00:00 GMT', '5', 'WSH', 'Washington', 'Capitals', '7', 'NJD', 'New Jersey', 'Devils', '5', 'Izod Center', '5', 'WSH', 'Washington', 'Capitals', '1', '0', '0', '0', '0', '0', '1', '2', '22', '24', '47.8', '4', '0', '0.0', '5', '0', '100.0', '1', '0', '3', '1', '17', '5', '10', '16']"
"['', '15116', '2011-11-12', '00:00:00 GMT', '7', 'NJD', 'New Jersey', 'Devils', '5', 'WSH', 'Washington', 'Capitals', '13', 'Verizon Center', '5', 'WSH', 'Washington', 'Capitals', '0', '0', '0', '1', '0', '0', '0', '1', '35', '33', '51.5', '5', '0', '0.0', '4', '0', '100.0', '0', '0', '2', '2', '15', '5', '10', '32']"
"['', '15138', '2011-11-15', '01:00:00 GMT', '5', 'WSH', 'Washington', 'Capitals', '18', 'NSH', 'Nashville', 'Predators', '15', 'Bridgestone Arena', '5', 'WSH', 'Washington', 'Capitals', '0', '1', '0', '0', '0', '0', '0', '0', '33', '29', '53.2', '2', '0', '0.0', '2', '0', '100.0', '0', '0', '1', '3', '39', '2', '4', '16']"
"['', '15152', '2011-11-17', '01:30:00 GMT', '5', 'WSH', 'Washington', 'Capitals', '2', 'WPJ', 'Winnipeg', 'Jets', '39', 'MTS Centre', '5', 'WSH', 'Washington', 'Capitals', '0', '1', '0', '0', '0', '0', '0', '0', '35', '26', '57.4', '5', '0', '0.0', '5', '2', '60.0', '0', '0', '1', '4', '31', '6', '15', '5']"
"['', '15162', '2011-11-19', '00:00:00 GMT', '5', 'WSH', 'Washington', 'Capitals', '12', 'TOR', 'Toronto', 'Maple Leafs', '1', 'Air Canada Center', '5', 'WSH', 'Washington', 'Capitals', '0', '1', '0', '0', '0', '0', '0', '0', '33', '26', '55.9', '5', '0', '0.0', '4', '3', '25.0', '0', '1', '1', '7', '40', '7', '14', '20']"
"['', '15177', '2011-11-21', '00:00:00 GMT', '30', 'PHX', 'Phoenix', 'Coyotes', '5', 'WSH', 'Washington', 'Capitals', '13', 'Verizon Center', '5', 'WSH', 'Washington', 'Capitals', '1', '0', '0', '0', '0', '0', '1', '2', '27', '27', '50.0', '5', '1', '20.0', '2', '0', '100.0', '0', '1', '4', '3', '27', '4', '19', '29']"
"['', '15189', '2011-11-23', '00:00:00 GMT', '2', 'WPJ', 'Winnipeg', 'Jets', '5', 'WSH', 'Washington', 'Capitals', '13', 'Verizon Center', '5', 'WSH', 'Washington', 'Capitals', '1', '0', '0', '0', '0', '0', '1', '2', '31', '26', '54.4', '3', '0', '0.0', '2', '0', '100.0', '0', '0', '4', '3', '33', '3', '6', '35']"
"['', '15202', '2011-11-25', '21:00:00 GMT', '9', 'NYR', 'New York', 'Rangers', '5', 'WSH', 'Washington', 'Capitals', '13', 'Verizon Center', '5', 'WSH', 'Washington', 'Capitals', '0', '1', '0', '0', '0', '0', '0', '0', '28', '37', '43.1', '4', '1', '25.0', '5', '1', '80.0', '0', '0', '3', '6', '18', '5', '10', '40']"
"['', '15215', '2011-11-26', '00:00:00 GMT', '5', 'WSH', 'Washington', 'Capitals', '15', 'BUF', 'Buffalo', 'Sabres', '10', 'First Niagara Center', '5', 'WSH', 'Washington', 'Capitals', '0', '1', '0', '0', '0', '0', '0', '0', '32', '26', '55.2', '4', '0', '0.0', '1', '0', '100.0', '0', '1', '1', '5', '26', '3', '6', '26']"
"['', '15232', '2011-11-29', '00:00:00 GMT', '17', 'STL', 'St. Louis', 'Blues', '5', 'WSH', 'Washington', 'Capitals', '13', 'Verizon Center', '5', 'WSH', 'Washington', 'Capitals', '0', '1', '0', '0', '0', '0', '0', '0', '21', '22', '48.8', '1', '0', '0.0', '4', '0', '100.0', '0', '0', '1', '2', '18', '5', '13', '32']"
"['', '15243', '2011-12-01', '00:00:00 GMT', '10', 'PIT', 'Pittsburgh', 'Penguins', '5', 'WSH', 'Washington', 'Capitals', '13', 'Verizon Center', '5', 'WSH', 'Washington', 'Capitals', '0', '1', '0', '0', '0', '0', '0', '0', '37', '17', '68.5', '2', '0', '0.0', '3', '0', '100.0', '0', '0', '1', '2', '16', '4', '11', '43']"
"['', '15259', '2011-12-03', '00:00:00 GMT', '13', 'OTT', 'Ottawa', 'Senators', '5', 'WSH', 'Washington', 'Capitals', '13', 'Verizon Center', '5', 'WSH', 'Washington', 'Capitals', '1', '0', '0', '0', '0', '0', '1', '2', '31', '29', '51.7', '4', '0', '0.0', '1', '0', '100.0', '0', '0', '3', '2', '32', '1', '2', '24']"
"['', '15275', '2011-12-05', '00:30:00 GMT', '5', 'WSH', 'Washington', 'Capitals', '4', 'FLO', 'Florida', 'Panthers', '3', 'BankAtlantic Center', '5', 'WSH', 'Washington', 'Capitals', '0', '1', '0', '0', '0', '0', '0', '0', '33', '29', '53.2', '2', '0', '0.0', '6', '3', '50.0', '0', '0', '4', '5', '28', '8', '27', '20']"
"['', '15287', '2011-12-07', '00:00:00 GMT', '5', 'WSH', 'Washington', 'Capitals', '13', 'OTT', 'Ottawa', 'Senators', '23', 'Scotiabank Place', '5', 'WSH', 'Washington', 'Capitals', '1', '0', '0', '0', '0', '0', '1', '2', '41', '31', '56.9', '3', '0', '0.0', '6', '1', '83.3', '0', '0', '5', '3', '39', '8', '19', '13']"
"['', '15302', '2011-12-09', '00:00:00 GMT', '12', 'TOR', 'Toronto', 'Maple Leafs', '5', 'WSH', 'Washington', 'Capitals', '13', 'Verizon Center', '5', 'WSH', 'Washington', 'Capitals', '1', '0', '0', '0', '0', '0', '1', '2', '27', '29', '48.2', '6', '4', '66.7', '2', '0', '100.0', '0', '0', '4', '2', '21', '4', '8', '15']"
"['', '15326', '2011-12-13', '00:00:00 GMT', '6', 'PHI', 'Philadelphia', 'Flyers', '5', 'WSH', 'Washington', 'Capitals', '13', 'Verizon Center', '5', 'WSH', 'Washington', 'Capitals', '0', '1', '0', '0', '0', '0', '0', '0', '24', '25', '49.0', '3', '0', '0.0', '1', '0', '100.0', '0', '0', '1', '5', '31', '1', '2', '22']"
"['', '15343', '2011-12-15', '01:30:00 GMT', '5', 'WSH', 'Washington', 'Capitals', '2', 'WPJ', 'Winnipeg', 'Jets', '39', 'MTS Centre', '5', 'WSH', 'Washington', 'Capitals', '1', '0', '0', '0', '0', '0', '1', '2', '27', '24', '52.9', '2', '0', '0.0', '4', '0', '100.0', '0', '0', '1', '0', '27', '4', '8', '13']"
"['', '15361', '2011-12-17', '02:00:00 GMT', '5', 'WSH', 'Washington', 'Capitals', '22', 'COL', 'Colorado', 'Avalanche', '19', 'Pepsi Center', '5', 'WSH', 'Washington', 'Capitals', '0', '1', '0', '0', '0', '0', '0', '0', '19', '33', '36.5', '4', '0', '0.0', '2', '0', '100.0', '0', '0', '1', '2', '25', '3', '9', '17']"
"['', '15374', '2011-12-20', '00:00:00 GMT', '18', 'NSH', 'Nashville', 'Predators', '5', 'WSH', 'Washington', 'Capitals', '13', 'Verizon Center', '5', 'WSH', 'Washington', 'Capitals', '1', '0', '0', '0', '0', '0', '1', '2', '35', '23', '60.3', '2', '1', '50.0', '4', '0', '100.0', '0', '0', '4', '1', '19', '5', '10', '17']"
"['', '15394', '2011-12-23', '00:00:00 GMT', '5', 'WSH', 'Washington', 'Capitals', '7', 'NJD', 'New Jersey', 'Devils', '5', 'Izod Center', '5', 'WSH', 'Washington', 'Capitals', '0', '0', '0', '1', '0', '0', '0', '1', '27', '30', '47.4', '2', '0', '0.0', '4', '1', '75.0', '0', '0', '3', '3', '22', '4', '8', '12']"
"['', '15405', '2011-12-26', '00:00:00 GMT', '5', 'WSH', 'Washington', 'Capitals', '15', 'BUF', 'Buffalo', 'Sabres', '10', 'First Niagara Center', '5', 'WSH', 'Washington', 'Capitals', '0', '1', '0', '0', '0', '0', '0', '0', '22', '31', '41.5', '4', '1', '25.0', '4', '2', '50.0', '0', '0', '2', '4', '20', '5', '10', '26']"
"['', '15422', '2011-12-28', '00:30:00 GMT', '9', 'NYR', 'New York', 'Rangers', '5', 'WSH', 'Washington', 'Capitals', '13', 'Verizon Center', '5', 'WSH', 'Washington', 'Capitals', '1', '0', '0', '0', '0', '0', '1', '2', '28', '23', '54.9', '2', '0', '0.0', '5', '0', '100.0', '0', '0', '4', '1', '19', '5', '10', '22']"
"['', '15436', '2011-12-30', '00:00:00 GMT', '15', 'BUF', 'Buffalo', 'Sabres', '5', 'WSH', 'Washington', 'Capitals', '13', 'Verizon Center', '5', 'WSH', 'Washington', 'Capitals', '1', '0', '0', '0', '0', '0', '1', '2', '33', '27', '55.0', '3', '1', '33.3', '1', '0', '100.0', '0', '0', '3', '1', '18', '3', '12', '25']"
"['', '15449', '2011-12-31', '00:00:00 GMT', '5', 'WSH', 'Washington', 'Capitals', '19', 'CBJ', 'Columbus', 'Blue Jackets', '17', 'Nationwide Arena', '5', 'WSH', 'Washington', 'Capitals', '1', '0', '0', '0', '0', '0', '1', '2', '32', '31', '50.8', '1', '1', '100.0', '1', '0', '100.0', '0', '0', '4', '2', '22', '3', '6', '27']"
"['', '15461', '2012-01-03', '00:00:00 GMT', '23', 'CGY', 'Calgary', 'Flames', '5', 'WSH', 'Washington', 'Capitals', '13', 'Verizon Center', '5', 'WSH', 'Washington', 'Capitals', '1', '0', '0', '0', '0', '0', '1', '2', '34', '20', '63.0', '3', '2', '66.7', '4', '0', '100.0', '0', '0', '3', '1', '18', '4', '8', '21']"
"['', '15495', '2012-01-07', '03:30:00 GMT', '5', 'WSH', 'Washington', 'Capitals', '26', 'SJS', 'San Jose', 'Sharks', '9', 'HP Pavilion at San Jose', '5', 'WSH', 'Washington', 'Capitals', '0', '1', '0', '0', '0', '0', '0', '0', '35', '39', '47.3', '1', '1', '100.0', '3', '1', '66.7', '0', '0', '2', '5', '28', '4', '8', '25']"
"['', '15500', '2012-01-09', '03:30:00 GMT', '5', 'WSH', 'Washington', 'Capitals', '28', 'LAK', 'Los Angeles', 'Kings', '25', 'Staples Center', '5', 'WSH', 'Washington', 'Capitals', '0', '1', '0', '0', '0', '0', '0', '0', '40', '43', '48.2', '2', '0', '0.0', '4', '1', '75.0', '0', '0', '2', '5', '20', '6', '18', '26']"
"['', '15514', '2012-01-11', '00:30:00 GMT', '10', 'PIT', 'Pittsburgh', 'Penguins', '5', 'WSH', 'Washington', 'Capitals', '13', 'Verizon Center', '5', 'WSH', 'Washington', 'Capitals', '1', '0', '0', '0', '0', '0', '1', '2', '25', '20', '55.6', '2', '0', '0.0', '0', '0', '0.0', '0', '0', '1', '0', '20', '1', '5', '39']"
"['', '15527', '2012-01-13', '00:00:00 GMT', '1', 'TBL', 'Tampa Bay', 'Lightning', '5', 'WSH', 'Washington', 'Capitals', '13', 'Verizon Center', '5', 'WSH', 'Washington', 'Capitals', '1', '0', '0', '0', '0', '0', '1', '2', '32', '36', '47.1', '4', '2', '50.0', '5', '1', '80.0', '0', '0', '4', '3', '16', '7', '17', '33']"
"['', '15544', '2012-01-15', '22:00:00 GMT', '3', 'CAR', 'Carolina', 'Hurricanes', '5', 'WSH', 'Washington', 'Capitals', '13', 'Verizon Center', '5', 'WSH', 'Washington', 'Capitals', '1', '0', '0', '0', '0', '0', '1', '2', '32', '28', '53.3', '1', '0', '0.0', '4', '1', '75.0', '0', '0', '2', '1', '22', '6', '12', '36']"
"['', '15559', '2012-01-17', '00:00:00 GMT', '8', 'NYI', 'New York', 'Islanders', '5', 'WSH', 'Washington', 'Capitals', '13', 'Verizon Center', '5', 'WSH', 'Washington', 'Capitals', '0', '1', '0', '0', '0', '0', '0', '0', '25', '19', '56.8', '3', '0', '0.0', '6', '2', '66.7', '0', '0', '0', '3', '17', '6', '12', '19']"
"['', '15566', '2012-01-18', '00:30:00 GMT', '5', 'WSH', 'Washington', 'Capitals', '14', 'MTL', 'Montreal', 'Canadiens', '4', 'Bell Centre', '5', 'WSH', 'Washington', 'Capitals', '1', '0', '0', '0', '0', '0', '1', '2', '37', '26', '58.7', '4', '1', '25.0', '6', '0', '100.0', '0', '0', '3', '0', '13', '8', '19', '19']"
"['', '15581', '2012-01-20', '00:00:00 GMT', '5', 'WSH', 'Washington', 'Capitals', '3', 'CAR', 'Carolina', 'Hurricanes', '21', 'RBC Center', '5', 'WSH', 'Washington', 'Capitals', '0', '1', '0', '0', '0', '0', '0', '0', '28', '31', '47.5', '3', '0', '0.0', '3', '2', '33.3', '0', '1', '0', '3', '23', '4', '11', '21']"
"['', '15599', '2012-01-22', '20:00:00 GMT', '5', 'WSH', 'Washington', 'Capitals', '10', 'PIT', 'Pittsburgh', 'Penguins', '14', 'Civic Arena', '5', 'WSH', 'Washington', 'Capitals', '0', '0', '0', '1', '0', '0', '0', '1', '27', '33', '45.0', '5', '0', '0.0', '4', '1', '75.0', '0', '0', '3', '4', '17', '7', '17', '29']"
"['', '15610', '2012-01-24', '00:00:00 GMT', '11', 'BOS', 'Boston', 'Bruins', '5', 'WSH', 'Washington', 'Capitals', '13', 'Verizon Center', '5', 'WSH', 'Washington', 'Capitals', '1', '0', '0', '0', '0', '0', '1', '2', '28', '28', '50.0', '1', '0', '0.0', '2', '1', '50.0', '0', '0', '5', '3', '18', '3', '6', '30']"
"['', '15627', '2012-01-31', '00:30:00 GMT', '5', 'WSH', 'Washington', 'Capitals', '1', 'TBL', 'Tampa Bay', 'Lightning', '26', 'St. Pete Times Forum', '5', 'WSH', 'Washington', 'Capitals', '0', '0', '0', '1', '0', '0', '0', '1', '21', '29', '42.0', '3', '0', '0.0', '1', '0', '100.0', '0', '0', '3', '4', '27', '1', '2', '22']"
"['', '15636', '2012-02-01', '01:00:00 GMT', '5', 'WSH', 'Washington', 'Capitals', '4', 'FLO', 'Florida', 'Panthers', '3', 'BankAtlantic Center', '5', 'WSH', 'Washington', 'Capitals', '0', '1', '0', '0', '0', '0', '0', '0', '19', '29', '39.6', '1', '0', '0.0', '3', '1', '66.7', '0', '0', '2', '4', '26', '4', '8', '38']"
"['', '15654', '2012-02-04', '19:00:00 GMT', '5', 'WSH', 'Washington', 'Capitals', '14', 'MTL', 'Montreal', 'Canadiens', '4', 'Bell Centre', '5', 'WSH', 'Washington', 'Capitals', '1', '0', '0', '0', '0', '0', '1', '2', '24', '29', '45.3', '3', '0', '0.0', '1', '0', '100.0', '0', '0', '3', '0', '19', '1', '2', '21']"
"['', '15664', '2012-02-05', '17:30:00 GMT', '11', 'BOS', 'Boston', 'Bruins', '5', 'WSH', 'Washington', 'Capitals', '13', 'Verizon Center', '5', 'WSH', 'Washington', 'Capitals', '0', '1', '0', '0', '0', '0', '0', '0', '24', '43', '35.8', '1', '0', '0.0', '3', '0', '100.0', '0', '0', '1', '4', '35', '4', '11', '18']"
"['', '15673', '2012-02-07', '00:00:00 GMT', '4', 'FLO', 'Florida', 'Panthers', '5', 'WSH', 'Washington', 'Capitals', '13', 'Verizon Center', '5', 'WSH', 'Washington', 'Capitals', '1', '0', '0', '0', '0', '0', '1', '2', '32', '25', '56.1', '1', '1', '100.0', '4', '0', '100.0', '1', '0', '4', '0', '20', '4', '8', '31']"
"['', '15690', '2012-02-09', '00:00:00 GMT', '2', 'WPJ', 'Winnipeg', 'Jets', '5', 'WSH', 'Washington', 'Capitals', '13', 'Verizon Center', '5', 'WSH', 'Washington', 'Capitals', '0', '0', '0', '1', '0', '0', '0', '1', '34', '23', '59.6', '6', '2', '33.3', '3', '2', '33.3', '0', '0', '2', '2', '32', '3', '6', '22']"
"['', '15713', '2012-02-12', '23:30:00 GMT', '5', 'WSH', 'Washington', 'Capitals', '9', 'NYR', 'New York', 'Rangers', '12', 'Madison Square Garden', '5', 'WSH', 'Washington', 'Capitals', '0', '1', '0', '0', '0', '0', '0', '0', '19', '31', '38.0', '2', '0', '0.0', '2', '0', '100.0', '0', '1', '2', '3', '24', '2', '4', '20']"
"['', '15719', '2012-02-13', '00:00:00 GMT', '26', 'SJS', 'San Jose', 'Sharks', '5', 'WSH', 'Washington', 'Capitals', '13', 'Verizon Center', '5', 'WSH', 'Washington', 'Capitals', '0', '1', '0', '0', '0', '0', '0', '0', '35', '33', '51.5', '4', '0', '0.0', '5', '3', '40.0', '0', '0', '3', '5', '39', '7', '22', '17']"
"['', '15746', '2012-02-17', '00:30:00 GMT', '5', 'WSH', 'Washington', 'Capitals', '4', 'FLO', 'Florida', 'Panthers', '3', 'BankAtlantic Center', '5', 'WSH', 'Washington', 'Capitals', '1', '0', '0', '0', '0', '0', '1', '2', '29', '30', '49.2', '6', '1', '16.7', '3', '0', '100.0', '0', '0', '2', '1', '39', '3', '6', '37']"
"['', '15754', '2012-02-18', '00:00:00 GMT', '5', 'WSH', 'Washington', 'Capitals', '1', 'TBL', 'Tampa Bay', 'Lightning', '26', 'St. Pete Times Forum', '5', 'WSH', 'Washington', 'Capitals', '0', '1', '0', '0', '0', '0', '0', '0', '32', '30', '51.6', '2', '0', '0.0', '4', '0', '100.0', '0', '0', '1', '2', '23', '5', '10', '25']"
"['', '15769', '2012-02-20', '00:30:00 GMT', '5', 'WSH', 'Washington', 'Capitals', '3', 'CAR', 'Carolina', 'Hurricanes', '21', 'RBC Center', '5', 'WSH', 'Washington', 'Capitals', '0', '1', '0', '0', '0', '0', '0', '0', '30', '39', '43.5', '2', '0', '0.0', '4', '1', '75.0', '0', '1', '0', '5', '17', '7', '20', '16']"
"['', '15781', '2012-02-22', '00:00:00 GMT', '5', 'WSH', 'Washington', 'Capitals', '13', 'OTT', 'Ottawa', 'Senators', '23', 'Scotiabank Place', '5', 'WSH', 'Washington', 'Capitals', '0', '1', '0', '0', '0', '0', '0', '0', '37', '35', '51.4', '5', '1', '20.0', '3', '2', '33.3', '0', '0', '2', '5', '33', '4', '11', '21']"
"['', '15795', '2012-02-24', '00:00:00 GMT', '14', 'MTL', 'Montreal', 'Canadiens', '5', 'WSH', 'Washington', 'Capitals', '13', 'Verizon Center', '5', 'WSH', 'Washington', 'Capitals', '1', '0', '0', '0', '0', '0', '1', '2', '32', '32', '50.0', '4', '0', '0.0', '4', '0', '100.0', '0', '1', '4', '1', '20', '4', '8', '29']"
"['', '15803', '2012-02-25', '00:00:00 GMT', '5', 'WSH', 'Washington', 'Capitals', '12', 'TOR', 'Toronto', 'Maple Leafs', '1', 'Air Canada Center', '5', 'WSH', 'Washington', 'Capitals', '1', '0', '0', '0', '0', '0', '1', '2', '34', '35', '49.3', '1', '0', '0.0', '4', '0', '100.0', '0', '0', '4', '2', '32', '5', '10', '25']"
"['', '15824', '2012-02-28', '00:00:00 GMT', '8', 'NYI', 'New York', 'Islanders', '5', 'WSH', 'Washington', 'Capitals', '13', 'Verizon Center', '5', 'WSH', 'Washington', 'Capitals', '1', '0', '0', '0', '0', '0', '1', '2', '24', '28', '46.2', '2', '0', '0.0', '3', '0', '100.0', '0', '0', '3', '2', '31', '3', '6', '25']"
"['', '15844', '2012-03-02', '00:00:00 GMT', '7', 'NJD', 'New Jersey', 'Devils', '5', 'WSH', 'Washington', 'Capitals', '13', 'Verizon Center', '5', 'WSH', 'Washington', 'Capitals', '0', '1', '0', '0', '0', '0', '0', '0', '29', '19', '60.4', '2', '0', '0.0', '2', '1', '50.0', '0', '1', '0', '5', '23', '2', '4', '38']"
"['', '15864', '2012-03-04', '00:00:00 GMT', '6', 'PHI', 'Philadelphia', 'Flyers', '5', 'WSH', 'Washington', 'Capitals', '13', 'Verizon Center', '5', 'WSH', 'Washington', 'Capitals', '0', '1', '0', '0', '0', '0', '0', '0', '25', '20', '55.6', '0', '0', '0.0', '1', '0', '100.0', '0', '0', '0', '1', '34', '2', '7', '37']"
"['', '15872', '2012-03-06', '00:00:00 GMT', '3', 'CAR', 'Carolina', 'Hurricanes', '5', 'WSH', 'Washington', 'Capitals', '13', 'Verizon Center', '5', 'WSH', 'Washington', 'Capitals', '0', '0', '0', '1', '0', '0', '0', '1', '27', '44', '38.0', '1', '0', '0.0', '2', '0', '100.0', '0', '0', '3', '4', '46', '4', '16', '20']"
"['', '15886', '2012-03-08', '00:00:00 GMT', '1', 'TBL', 'Tampa Bay', 'Lightning', '5', 'WSH', 'Washington', 'Capitals', '13', 'Verizon Center', '5', 'WSH', 'Washington', 'Capitals', '1', '0', '0', '0', '0', '0', '1', '2', '27', '30', '47.4', '2', '0', '0.0', '3', '2', '33.3', '0', '0', '3', '2', '29', '3', '6', '28']"
"['', '15899', '2012-03-10', '18:00:00 GMT', '5', 'WSH', 'Washington', 'Capitals', '11', 'BOS', 'Boston', 'Bruins', '27', 'TD Garden', '5', 'WSH', 'Washington', 'Capitals', '1', '0', '0', '0', '0', '0', '1', '2', '27', '30', '47.4', '3', '1', '33.3', '2', '0', '100.0', '0', '0', '4', '3', '26', '3', '6', '16']"
"['', '15910', '2012-03-11', '21:00:00 GMT', '12', 'TOR', 'Toronto', 'Maple Leafs', '5', 'WSH', 'Washington', 'Capitals', '13', 'Verizon Center', '5', 'WSH', 'Washington', 'Capitals', '1', '0', '0', '0', '0', '0', '1', '2', '15', '24', '38.5', '1', '0', '0.0', '1', '0', '100.0', '1', '0', '2', '0', '21', '1', '2', '26']"
"['', '15922', '2012-03-13', '23:00:00 GMT', '5', 'WSH', 'Washington', 'Capitals', '8', 'NYI', 'New York', 'Islanders', '16', 'Nassau Veterans Memorial Coliseum', '5', 'WSH', 'Washington', 'Capitals', '1', '0', '0', '0', '0', '0', '0', '2', '27', '26', '50.9', '0', '0', '0.0', '5', '2', '60.0', '0', '0', '4', '4', '24', '5', '10', '23']"
"['', '15946', '2012-03-16', '00:30:00 GMT', '5', 'WSH', 'Washington', 'Capitals', '2', 'WPJ', 'Winnipeg', 'Jets', '39', 'MTS Centre', '5', 'WSH', 'Washington', 'Capitals', '0', '1', '0', '0', '0', '0', '0', '0', '29', '28', '50.9', '3', '1', '33.3', '5', '0', '100.0', '0', '0', '2', '3', '20', '6', '12', '27']"
"['', '15962', '2012-03-18', '23:00:00 GMT', '5', 'WSH', 'Washington', 'Capitals', '20', 'CHI', 'Chicago', 'Blackhawks', '28', 'United Center', '5', 'WSH', 'Washington', 'Capitals', '0', '1', '0', '0', '0', '0', '0', '0', '19', '36', '34.5', '1', '0', '0.0', '1', '0', '100.0', '0', '0', '2', '5', '16', '1', '2', '26']"
"['', '15969', '2012-03-19', '23:30:00 GMT', '5', 'WSH', 'Washington', 'Capitals', '16', 'DET', 'Detroit', 'Red Wings', '11', 'Joe Louis Arena', '5', 'WSH', 'Washington', 'Capitals', '1', '0', '0', '0', '0', '0', '1', '2', '24', '32', '42.9', '3', '3', '100.0', '3', '1', '66.7', '0', '0', '5', '3', '17', '3', '6', '21']"
"['', '15986', '2012-03-22', '23:00:00 GMT', '5', 'WSH', 'Washington', 'Capitals', '6', 'PHI', 'Philadelphia', 'Flyers', '29', 'Wells Fargo Center', '5', 'WSH', 'Washington', 'Capitals', '0', '0', '0', '1', '0', '0', '0', '1', '30', '24', '55.6', '2', '0', '0.0', '1', '0', '100.0', '0', '0', '1', '1', '30', '1', '2', '29']"
"['', '15996', '2012-03-23', '23:00:00 GMT', '2', 'WPJ', 'Winnipeg', 'Jets', '5', 'WSH', 'Washington', 'Capitals', '13', 'Verizon Center', '5', 'WSH', 'Washington', 'Capitals', '0', '0', '0', '1', '0', '0', '0', '1', '40', '26', '60.6', '2', '0', '0.0', '2', '0', '100.0', '0', '0', '3', '4', '20', '3', '9', '29']"
"['', '16012', '2012-03-25', '21:00:00 GMT', '25', 'MIN', 'Minnesota', 'Wild', '5', 'WSH', 'Washington', 'Capitals', '13', 'Verizon Center', '5', 'WSH', 'Washington', 'Capitals', '1', '0', '0', '0', '0', '0', '1', '2', '23', '30', '43.4', '3', '1', '33.3', '1', '0', '100.0', '0', '0', '3', '0', '20', '2', '4', '21']"
"['', '16028', '2012-03-27', '23:00:00 GMT', '15', 'BUF', 'Buffalo', 'Sabres', '5', 'WSH', 'Washington', 'Capitals', '13', 'Verizon Center', '5', 'WSH', 'Washington', 'Capitals', '0', '1', '0', '0', '0', '0', '0', '0', '37', '23', '61.7', '4', '0', '0.0', '1', '0', '100.0', '0', '1', '1', '5', '44', '2', '4', '26']"
"['', '16038', '2012-03-29', '23:00:00 GMT', '5', 'WSH', 'Washington', 'Capitals', '11', 'BOS', 'Boston', 'Bruins', '27', 'TD Garden', '5', 'WSH', 'Washington', 'Capitals', '1', '0', '0', '0', '0', '0', '0', '2', '23', '35', '39.7', '1', '0', '0.0', '1', '0', '100.0', '0', '0', '2', '2', '21', '2', '15', '20']"
"['', '16056', '2012-03-31', '23:00:00 GMT', '14', 'MTL', 'Montreal', 'Canadiens', '5', 'WSH', 'Washington', 'Capitals', '13', 'Verizon Center', '5', 'WSH', 'Washington', 'Capitals', '1', '0', '0', '0', '0', '0', '0', '2', '38', '28', '57.6', '5', '0', '0.0', '4', '0', '100.0', '0', '0', '2', '2', '31', '4', '8', '26']"
"['', '16071', '2012-04-02', '23:30:00 GMT', '5', 'WSH', 'Washington', 'Capitals', '1', 'TBL', 'Tampa Bay', 'Lightning', '26', 'St. Pete Times Forum', '5', 'WSH', 'Washington', 'Capitals', '0', '1', '0', '0', '0', '0', '0', '0', '31', '32', '49.2', '2', '0', '0.0', '4', '1', '75.0', '0', '0', '2', '4', '31', '5', '13', '23']"
"['', '16089', '2012-04-05', '23:00:00 GMT', '4', 'FLO', 'Florida', 'Panthers', '5', 'WSH', 'Washington', 'Capitals', '13', 'Verizon Center', '5', 'WSH', 'Washington', 'Capitals', '1', '0', '0', '0', '0', '0', '1', '2', '29', '32', '47.5', '2', '0', '0.0', '1', '0', '100.0', '0', '0', '4', '2', '20', '1', '2', '40']"
"['', '16102', '2012-04-07', '19:00:00 GMT', '5', 'WSH', 'Washington', 'Capitals', '9', 'NYR', 'New York', 'Rangers', '12', 'Madison Square Garden', '5', 'WSH', 'Washington', 'Capitals', '1', '0', '0', '0', '0', '0', '1', '2', '23', '27', '46.0', '2', '1', '50.0', '3', '0', '100.0', '0', '0', '4', '1', '13', '4', '8', '15']"
