"['#Date/Time of Update: 2018-12-10 19:02:57 GMT', '#Game ID', '#Game Date', '#Game Time', '#Away Team ID', '#Away Team Abbr.', '#Away Team City', '#Away Team Name', '#Home Team ID', '#Home Team Abbr.', '#Home Team City', '#Home Team Name', '#Venue ID', '#Venue Name', '#Team ID', '#Team Abbr.', '#Team City', '#Team Name', '#Wins', '#Losses', '#OvertimeWins', '#OvertimeLosses', '#ShootoutWins', '#ShootoutLosses', '#Points', '#FaceoffWins', '#FaceoffLosses', '#FaceoffPercent', '#Powerplays', '#PowerplayGoals', '#PowerplayPercent', '#PenaltyKills', '#PenaltyKillGoalsAllowed', '#PenaltyKillPercent', '#ShorthandedGoalsFor', '#ShorthandedGoalsAgainst', '#GoalsFor', '#GoalsAgainst', '#Shots', '#Penalties', '#PenaltyMinutes', '#Hits']"
"['', '8705', '2009-10-03', '02:00:00 GMT', '26', 'SJS', 'San Jose', 'Sharks', '29', 'ANA', 'Anaheim', 'Ducks', '8', 'Honda Center', '29', 'ANA', 'Anaheim', 'Ducks', '0', '1', '0', '0', '0', '0', '0', '22', '27', '44.9', '7', '1', '14.3', '4', '1', '75.0', '0', '1', '1', '4', '24', '10', '34', '26']"
"['', '8713', '2009-10-06', '01:00:00 GMT', '29', 'ANA', 'Anaheim', 'Ducks', '25', 'MIN', 'Minnesota', 'Wild', '30', 'Xcel Energy Center', '29', 'ANA', 'Anaheim', 'Ducks', '0', '0', '0', '1', '0', '0', '1', '23', '39', '37.1', '2', '1', '50.0', '5', '3', '40.0', '0', '0', '3', '4', '16', '8', '19', '15']"
"['', '8718', '2009-10-08', '23:00:00 GMT', '29', 'ANA', 'Anaheim', 'Ducks', '11', 'BOS', 'Boston', 'Bruins', '27', 'TD Garden', '29', 'ANA', 'Anaheim', 'Ducks', '1', '0', '0', '0', '0', '0', '2', '36', '23', '61.0', '2', '1', '50.0', '6', '0', '100.0', '1', '0', '6', '1', '24', '6', '12', '22']"
"['', '8735', '2009-10-10', '23:00:00 GMT', '29', 'ANA', 'Anaheim', 'Ducks', '6', 'PHI', 'Philadelphia', 'Flyers', '29', 'Wachovia Center', '29', 'ANA', 'Anaheim', 'Ducks', '1', '0', '0', '0', '0', '0', '2', '30', '28', '51.7', '4', '0', '0.0', '5', '2', '60.0', '0', '0', '2', '2', '31', '8', '16', '16']"
"['', '8745', '2009-10-11', '21:00:00 GMT', '29', 'ANA', 'Anaheim', 'Ducks', '9', 'NYR', 'New York', 'Rangers', '12', 'Madison Square Garden', '29', 'ANA', 'Anaheim', 'Ducks', '0', '1', '0', '0', '0', '0', '0', '23', '31', '42.6', '4', '0', '0.0', '5', '2', '60.0', '0', '1', '0', '3', '18', '5', '10', '36']"
"['', '8763', '2009-10-14', '02:00:00 GMT', '25', 'MIN', 'Minnesota', 'Wild', '29', 'ANA', 'Anaheim', 'Ducks', '8', 'Honda Center', '29', 'ANA', 'Anaheim', 'Ducks', '1', '0', '0', '0', '0', '0', '2', '28', '23', '54.9', '4', '0', '0.0', '4', '0', '100.0', '0', '0', '3', '2', '32', '5', '13', '9']"
"['', '8788', '2009-10-17', '02:00:00 GMT', '17', 'STL', 'St. Louis', 'Blues', '29', 'ANA', 'Anaheim', 'Ducks', '8', 'Honda Center', '29', 'ANA', 'Anaheim', 'Ducks', '0', '1', '0', '0', '0', '0', '0', '26', '21', '55.3', '5', '0', '0.0', '5', '2', '60.0', '0', '0', '0', '5', '26', '8', '19', '24']"
"['', '8800', '2009-10-21', '02:00:00 GMT', '27', 'DAL', 'Dallas', 'Stars', '29', 'ANA', 'Anaheim', 'Ducks', '8', 'Honda Center', '29', 'ANA', 'Anaheim', 'Ducks', '0', '1', '0', '0', '0', '0', '0', '24', '29', '45.3', '1', '0', '0.0', '3', '1', '66.7', '0', '0', '2', '4', '24', '5', '16', '30']"
"['', '8827', '2009-10-24', '02:00:00 GMT', '19', 'CBJ', 'Columbus', 'Blue Jackets', '29', 'ANA', 'Anaheim', 'Ducks', '8', 'Honda Center', '29', 'ANA', 'Anaheim', 'Ducks', '0', '1', '0', '0', '0', '0', '0', '28', '36', '43.8', '2', '2', '100.0', '2', '0', '100.0', '0', '0', '4', '6', '32', '3', '6', '25']"
"['', '8834', '2009-10-26', '02:00:00 GMT', '12', 'TOR', 'Toronto', 'Maple Leafs', '29', 'ANA', 'Anaheim', 'Ducks', '8', 'Honda Center', '29', 'ANA', 'Anaheim', 'Ducks', '0', '1', '0', '0', '0', '0', '0', '34', '33', '50.7', '3', '1', '33.3', '9', '4', '55.6', '0', '0', '3', '6', '25', '17', '45', '23']"
"['', '8861', '2009-10-30', '02:00:00 GMT', '21', 'VAN', 'Vancouver', 'Canucks', '29', 'ANA', 'Anaheim', 'Ducks', '8', 'Honda Center', '29', 'ANA', 'Anaheim', 'Ducks', '1', '0', '0', '0', '0', '0', '2', '30', '34', '46.9', '1', '2', '1.0', '4', '1', '75.0', '1', '0', '7', '2', '27', '4', '8', '25']"
"['', '8872', '2009-10-31', '01:00:00 GMT', '29', 'ANA', 'Anaheim', 'Ducks', '30', 'PHX', 'Phoenix', 'Coyotes', '6', 'Jobing.com Arena', '29', 'ANA', 'Anaheim', 'Ducks', '0', '0', '0', '1', '0', '0', '1', '25', '33', '43.1', '7', '1', '14.3', '2', '1', '50.0', '0', '0', '2', '2', '32', '5', '19', '23']"
"['', '8885', '2009-11-03', '03:00:00 GMT', '10', 'PIT', 'Pittsburgh', 'Penguins', '29', 'ANA', 'Anaheim', 'Ducks', '8', 'Honda Center', '29', 'ANA', 'Anaheim', 'Ducks', '0', '1', '0', '0', '0', '0', '0', '25', '25', '50.0', '2', '0', '0.0', '6', '0', '100.0', '0', '0', '3', '4', '26', '7', '14', '26']"
"['', '8900', '2009-11-05', '03:00:00 GMT', '18', 'NSH', 'Nashville', 'Predators', '29', 'ANA', 'Anaheim', 'Ducks', '8', 'Honda Center', '29', 'ANA', 'Anaheim', 'Ducks', '1', '0', '0', '0', '0', '0', '2', '35', '31', '53.0', '5', '0', '0.0', '5', '0', '100.0', '0', '0', '4', '0', '27', '7', '17', '12']"
"['', '8919', '2009-11-07', '03:00:00 GMT', '30', 'PHX', 'Phoenix', 'Coyotes', '29', 'ANA', 'Anaheim', 'Ducks', '8', 'Honda Center', '29', 'ANA', 'Anaheim', 'Ducks', '1', '0', '0', '0', '0', '0', '2', '30', '26', '53.6', '6', '1', '16.7', '2', '1', '50.0', '0', '0', '4', '3', '22', '3', '6', '23']"
"['', '8932', '2009-11-11', '00:00:00 GMT', '29', 'ANA', 'Anaheim', 'Ducks', '7', 'NJD', 'New Jersey', 'Devils', '5', 'Izod Center', '29', 'ANA', 'Anaheim', 'Ducks', '0', '1', '0', '0', '0', '0', '0', '24', '19', '55.8', '5', '0', '0.0', '3', '0', '100.0', '0', '1', '1', '3', '31', '3', '6', '25']"
"['', '8947', '2009-11-13', '00:00:00 GMT', '29', 'ANA', 'Anaheim', 'Ducks', '19', 'CBJ', 'Columbus', 'Blue Jackets', '17', 'Nationwide Arena', '29', 'ANA', 'Anaheim', 'Ducks', '0', '0', '0', '1', '0', '0', '1', '28', '26', '51.9', '4', '0', '0.0', '3', '1', '66.7', '0', '0', '2', '2', '32', '5', '10', '20']"
"['', '8951', '2009-11-14', '00:00:00 GMT', '29', 'ANA', 'Anaheim', 'Ducks', '16', 'DET', 'Detroit', 'Red Wings', '11', 'Joe Louis Arena', '29', 'ANA', 'Anaheim', 'Ducks', '0', '1', '0', '0', '0', '0', '0', '25', '38', '39.7', '4', '2', '50.0', '4', '3', '25.0', '0', '0', '4', '7', '19', '7', '14', '39']"
"['', '8969', '2009-11-16', '00:30:00 GMT', '29', 'ANA', 'Anaheim', 'Ducks', '10', 'PIT', 'Pittsburgh', 'Penguins', '14', 'Mellon Arena', '29', 'ANA', 'Anaheim', 'Ducks', '0', '1', '0', '0', '0', '0', '0', '22', '30', '42.3', '3', '0', '0.0', '7', '1', '85.7', '1', '1', '2', '5', '23', '8', '19', '20']"
"['', '8989', '2009-11-19', '03:00:00 GMT', '1', 'TBL', 'Tampa Bay', 'Lightning', '29', 'ANA', 'Anaheim', 'Ducks', '8', 'Honda Center', '29', 'ANA', 'Anaheim', 'Ducks', '1', '0', '0', '0', '0', '0', '2', '25', '30', '45.5', '6', '3', '50.0', '4', '1', '75.0', '0', '0', '4', '3', '23', '5', '13', '27']"
"['', '9008', '2009-11-21', '03:00:00 GMT', '26', 'SJS', 'San Jose', 'Sharks', '29', 'ANA', 'Anaheim', 'Ducks', '8', 'Honda Center', '29', 'ANA', 'Anaheim', 'Ducks', '0', '1', '0', '0', '0', '0', '0', '23', '31', '42.6', '4', '2', '50.0', '3', '1', '66.7', '0', '0', '2', '3', '28', '5', '13', '19']"
"['', '9020', '2009-11-23', '03:00:00 GMT', '23', 'CGY', 'Calgary', 'Flames', '29', 'ANA', 'Anaheim', 'Ducks', '8', 'Honda Center', '29', 'ANA', 'Anaheim', 'Ducks', '1', '0', '0', '0', '0', '0', '2', '42', '23', '64.6', '2', '0', '0.0', '4', '0', '100.0', '0', '0', '2', '2', '29', '6', '15', '24']"
"['', '9034', '2009-11-25', '03:00:00 GMT', '3', 'CAR', 'Carolina', 'Hurricanes', '29', 'ANA', 'Anaheim', 'Ducks', '8', 'Honda Center', '29', 'ANA', 'Anaheim', 'Ducks', '1', '0', '0', '0', '0', '0', '2', '30', '25', '54.5', '2', '1', '50.0', '3', '0', '100.0', '0', '0', '3', '2', '30', '3', '6', '14']"
"['', '9042', '2009-11-27', '21:00:00 GMT', '20', 'CHI', 'Chicago', 'Blackhawks', '29', 'ANA', 'Anaheim', 'Ducks', '8', 'Honda Center', '29', 'ANA', 'Anaheim', 'Ducks', '1', '0', '0', '0', '0', '0', '2', '22', '22', '50.0', '5', '3', '60.0', '4', '0', '100.0', '0', '0', '3', '0', '31', '4', '8', '20']"
"['', '9063', '2009-11-29', '01:00:00 GMT', '30', 'PHX', 'Phoenix', 'Coyotes', '29', 'ANA', 'Anaheim', 'Ducks', '8', 'Honda Center', '29', 'ANA', 'Anaheim', 'Ducks', '0', '0', '0', '1', '0', '0', '1', '29', '29', '50.0', '3', '1', '33.3', '4', '0', '100.0', '0', '0', '2', '3', '26', '5', '10', '31']"
"['', '9076', '2009-12-01', '03:30:00 GMT', '28', 'LAK', 'Los Angeles', 'Kings', '29', 'ANA', 'Anaheim', 'Ducks', '8', 'Honda Center', '29', 'ANA', 'Anaheim', 'Ducks', '0', '1', '0', '0', '0', '0', '0', '22', '29', '43.1', '4', '1', '25.0', '5', '1', '80.0', '0', '0', '3', '4', '27', '6', '15', '38']"
"['', '9088', '2009-12-03', '01:30:00 GMT', '29', 'ANA', 'Anaheim', 'Ducks', '27', 'DAL', 'Dallas', 'Stars', '2', 'American Airlines Center', '29', 'ANA', 'Anaheim', 'Ducks', '0', '1', '0', '0', '0', '0', '0', '22', '22', '50.0', '1', '0', '0.0', '3', '0', '100.0', '0', '0', '1', '3', '26', '4', '8', '43']"
"['', '9094', '2009-12-04', '01:00:00 GMT', '29', 'ANA', 'Anaheim', 'Ducks', '25', 'MIN', 'Minnesota', 'Wild', '30', 'Xcel Energy Center', '29', 'ANA', 'Anaheim', 'Ducks', '0', '0', '0', '1', '0', '0', '1', '26', '38', '40.6', '3', '1', '33.3', '2', '1', '50.0', '0', '0', '4', '4', '18', '4', '11', '24']"
"['', '9111', '2009-12-06', '01:00:00 GMT', '13', 'OTT', 'Ottawa', 'Senators', '29', 'ANA', 'Anaheim', 'Ducks', '8', 'Honda Center', '29', 'ANA', 'Anaheim', 'Ducks', '0', '0', '0', '1', '0', '0', '1', '27', '30', '47.4', '3', '0', '0.0', '4', '1', '75.0', '0', '0', '3', '3', '33', '6', '15', '41']"
"['', '9124', '2009-12-08', '03:00:00 GMT', '27', 'DAL', 'Dallas', 'Stars', '29', 'ANA', 'Anaheim', 'Ducks', '8', 'Honda Center', '29', 'ANA', 'Anaheim', 'Ducks', '1', '0', '0', '0', '0', '0', '2', '25', '25', '50.0', '0', '0', '0.0', '4', '1', '75.0', '0', '0', '4', '3', '38', '5', '13', '35']"
"['', '9144', '2009-12-11', '00:30:00 GMT', '29', 'ANA', 'Anaheim', 'Ducks', '16', 'DET', 'Detroit', 'Red Wings', '11', 'Joe Louis Arena', '29', 'ANA', 'Anaheim', 'Ducks', '0', '0', '0', '1', '0', '0', '1', '33', '25', '56.9', '2', '0', '0.0', '10', '2', '80.0', '0', '0', '2', '3', '25', '11', '25', '29']"
"['', '9155', '2009-12-12', '00:00:00 GMT', '29', 'ANA', 'Anaheim', 'Ducks', '19', 'CBJ', 'Columbus', 'Blue Jackets', '17', 'Nationwide Arena', '29', 'ANA', 'Anaheim', 'Ducks', '1', '0', '0', '0', '0', '0', '2', '24', '31', '43.6', '2', '1', '50.0', '4', '0', '100.0', '0', '0', '3', '1', '22', '7', '20', '21']"
"['', '9184', '2009-12-16', '03:00:00 GMT', '29', 'ANA', 'Anaheim', 'Ducks', '21', 'VAN', 'Vancouver', 'Canucks', '7', 'General Motors Place', '29', 'ANA', 'Anaheim', 'Ducks', '1', '0', '0', '0', '0', '0', '2', '26', '30', '46.4', '4', '1', '25.0', '4', '0', '100.0', '0', '0', '3', '2', '31', '8', '22', '17']"
"['', '9193', '2009-12-17', '03:30:00 GMT', '29', 'ANA', 'Anaheim', 'Ducks', '26', 'SJS', 'San Jose', 'Sharks', '9', 'HP Pavilion at San Jose', '29', 'ANA', 'Anaheim', 'Ducks', '0', '1', '0', '0', '0', '0', '0', '29', '35', '45.3', '3', '1', '33.3', '3', '1', '66.7', '0', '0', '1', '4', '20', '7', '17', '39']"
"['', '9202', '2009-12-19', '21:00:00 GMT', '30', 'PHX', 'Phoenix', 'Coyotes', '29', 'ANA', 'Anaheim', 'Ducks', '8', 'Honda Center', '29', 'ANA', 'Anaheim', 'Ducks', '1', '0', '0', '0', '0', '0', '2', '31', '36', '46.3', '7', '2', '28.6', '4', '0', '100.0', '0', '0', '4', '2', '29', '4', '8', '25']"
"['', '9226', '2009-12-22', '03:00:00 GMT', '29', 'ANA', 'Anaheim', 'Ducks', '22', 'COL', 'Colorado', 'Avalanche', '19', 'Pepsi Center', '29', 'ANA', 'Anaheim', 'Ducks', '1', '0', '0', '0', '0', '0', '2', '32', '32', '50.0', '3', '0', '0.0', '3', '0', '100.0', '0', '0', '4', '2', '39', '4', '11', '22']"
"['', '9238', '2009-12-23', '02:00:00 GMT', '29', 'ANA', 'Anaheim', 'Ducks', '30', 'PHX', 'Phoenix', 'Coyotes', '6', 'Jobing.com Arena', '29', 'ANA', 'Anaheim', 'Ducks', '0', '1', '0', '0', '0', '0', '0', '20', '28', '41.7', '4', '0', '0.0', '2', '1', '50.0', '0', '0', '0', '4', '21', '2', '4', '36']"
"['', '9252', '2009-12-26', '03:30:00 GMT', '29', 'ANA', 'Anaheim', 'Ducks', '26', 'SJS', 'San Jose', 'Sharks', '9', 'HP Pavilion at San Jose', '29', 'ANA', 'Anaheim', 'Ducks', '0', '1', '0', '0', '0', '0', '0', '22', '27', '44.9', '3', '0', '0.0', '2', '1', '50.0', '0', '0', '2', '5', '30', '6', '21', '38']"
"['', '9272', '2009-12-29', '03:00:00 GMT', '25', 'MIN', 'Minnesota', 'Wild', '29', 'ANA', 'Anaheim', 'Ducks', '8', 'Honda Center', '29', 'ANA', 'Anaheim', 'Ducks', '1', '0', '0', '0', '0', '0', '2', '26', '29', '47.3', '3', '1', '33.3', '4', '1', '75.0', '1', '0', '4', '2', '28', '7', '25', '33']"
"['', '9287', '2009-12-31', '01:00:00 GMT', '29', 'ANA', 'Anaheim', 'Ducks', '27', 'DAL', 'Dallas', 'Stars', '2', 'American Airlines Center', '29', 'ANA', 'Anaheim', 'Ducks', '0', '1', '0', '0', '0', '0', '0', '21', '28', '42.9', '2', '0', '0.0', '4', '1', '75.0', '0', '1', '3', '5', '31', '7', '23', '51']"
"['', '9303', '2010-01-02', '01:00:00 GMT', '29', 'ANA', 'Anaheim', 'Ducks', '18', 'NSH', 'Nashville', 'Predators', '15', 'Sommet Center', '29', 'ANA', 'Anaheim', 'Ducks', '0', '1', '0', '0', '0', '0', '0', '22', '22', '50.0', '2', '0', '0.0', '2', '0', '100.0', '0', '0', '1', '3', '25', '2', '4', '14']"
"['', '9309', '2010-01-03', '00:00:00 GMT', '29', 'ANA', 'Anaheim', 'Ducks', '20', 'CHI', 'Chicago', 'Blackhawks', '28', 'United Center', '29', 'ANA', 'Anaheim', 'Ducks', '0', '1', '0', '0', '0', '0', '0', '24', '25', '49.0', '2', '0', '0.0', '3', '1', '66.7', '0', '0', '2', '5', '22', '5', '13', '19']"
"['', '9321', '2010-01-05', '03:00:00 GMT', '16', 'DET', 'Detroit', 'Red Wings', '29', 'ANA', 'Anaheim', 'Ducks', '8', 'Honda Center', '29', 'ANA', 'Anaheim', 'Ducks', '1', '0', '0', '0', '0', '0', '2', '29', '34', '46.0', '4', '0', '0.0', '4', '0', '100.0', '1', '0', '4', '1', '31', '10', '26', '19']"
"['', '9336', '2010-01-07', '03:00:00 GMT', '17', 'STL', 'St. Louis', 'Blues', '29', 'ANA', 'Anaheim', 'Ducks', '8', 'Honda Center', '29', 'ANA', 'Anaheim', 'Ducks', '1', '0', '0', '0', '0', '0', '2', '26', '29', '47.3', '4', '0', '0.0', '3', '0', '100.0', '0', '2', '4', '2', '25', '4', '11', '29']"
"['', '9351', '2010-01-09', '01:00:00 GMT', '29', 'ANA', 'Anaheim', 'Ducks', '18', 'NSH', 'Nashville', 'Predators', '15', 'Sommet Center', '29', 'ANA', 'Anaheim', 'Ducks', '1', '0', '0', '0', '0', '0', '2', '24', '30', '44.4', '1', '0', '0.0', '1', '1', '0.0', '0', '0', '3', '2', '18', '1', '2', '13']"
"['', '9357', '2010-01-10', '00:00:00 GMT', '29', 'ANA', 'Anaheim', 'Ducks', '20', 'CHI', 'Chicago', 'Blackhawks', '28', 'United Center', '29', 'ANA', 'Anaheim', 'Ducks', '1', '0', '0', '0', '0', '0', '2', '21', '30', '41.2', '3', '1', '33.3', '4', '1', '75.0', '0', '0', '3', '1', '9', '4', '8', '16']"
"['', '9375', '2010-01-13', '03:00:00 GMT', '11', 'BOS', 'Boston', 'Bruins', '29', 'ANA', 'Anaheim', 'Ducks', '8', 'Honda Center', '29', 'ANA', 'Anaheim', 'Ducks', '1', '0', '0', '0', '0', '0', '2', '29', '17', '63.0', '5', '1', '20.0', '2', '0', '100.0', '0', '0', '4', '3', '28', '7', '20', '34']"
"['', '9386', '2010-01-14', '03:30:00 GMT', '29', 'ANA', 'Anaheim', 'Ducks', '28', 'LAK', 'Los Angeles', 'Kings', '25', 'Staples Center', '29', 'ANA', 'Anaheim', 'Ducks', '0', '1', '0', '0', '0', '0', '0', '22', '22', '50.0', '3', '0', '0.0', '8', '0', '100.0', '0', '0', '0', '4', '22', '14', '56', '39']"
"['', '9405', '2010-01-17', '01:00:00 GMT', '23', 'CGY', 'Calgary', 'Flames', '29', 'ANA', 'Anaheim', 'Ducks', '8', 'Honda Center', '29', 'ANA', 'Anaheim', 'Ducks', '1', '0', '0', '0', '0', '0', '2', '29', '28', '50.9', '3', '1', '33.3', '3', '0', '100.0', '0', '0', '5', '4', '21', '7', '28', '29']"
"['', '9422', '2010-01-19', '03:00:00 GMT', '15', 'BUF', 'Buffalo', 'Sabres', '29', 'ANA', 'Anaheim', 'Ducks', '8', 'Honda Center', '29', 'ANA', 'Anaheim', 'Ducks', '1', '0', '0', '0', '0', '0', '2', '38', '29', '56.7', '3', '1', '33.3', '4', '1', '75.0', '0', '0', '5', '4', '25', '5', '10', '27']"
"['', '9439', '2010-01-21', '03:30:00 GMT', '29', 'ANA', 'Anaheim', 'Ducks', '26', 'SJS', 'San Jose', 'Sharks', '9', 'HP Pavilion at San Jose', '29', 'ANA', 'Anaheim', 'Ducks', '0', '1', '0', '0', '0', '0', '0', '20', '36', '35.7', '5', '0', '0.0', '5', '1', '80.0', '0', '0', '1', '3', '26', '8', '22', '22']"
"['', '9451', '2010-01-23', '01:00:00 GMT', '29', 'ANA', 'Anaheim', 'Ducks', '17', 'STL', 'St. Louis', 'Blues', '24', 'Scottrade Center', '29', 'ANA', 'Anaheim', 'Ducks', '1', '0', '0', '0', '0', '0', '2', '32', '27', '54.2', '3', '0', '0.0', '1', '0', '100.0', '0', '0', '3', '3', '34', '2', '7', '18']"
"['', '9464', '2010-01-26', '00:00:00 GMT', '29', 'ANA', 'Anaheim', 'Ducks', '2', 'ATL', 'Atlanta', 'Thrashers', '20', 'Philips Arena', '29', 'ANA', 'Anaheim', 'Ducks', '0', '1', '0', '0', '0', '0', '0', '27', '23', '54.0', '4', '0', '0.0', '3', '1', '66.7', '0', '0', '1', '2', '34', '5', '13', '12']"
"['', '9471', '2010-01-27', '00:00:00 GMT', '29', 'ANA', 'Anaheim', 'Ducks', '5', 'WSH', 'Washington', 'Capitals', '13', 'Verizon Center', '29', 'ANA', 'Anaheim', 'Ducks', '0', '1', '0', '0', '0', '0', '0', '24', '41', '36.9', '2', '0', '0.0', '4', '1', '75.0', '0', '0', '1', '5', '30', '11', '25', '21']"
"['', '9488', '2010-01-29', '00:30:00 GMT', '29', 'ANA', 'Anaheim', 'Ducks', '1', 'TBL', 'Tampa Bay', 'Lightning', '26', 'St. Pete Times Forum', '29', 'ANA', 'Anaheim', 'Ducks', '1', '0', '0', '0', '0', '0', '2', '22', '33', '40.0', '2', '1', '50.0', '2', '0', '100.0', '0', '0', '1', '1', '31', '8', '30', '25']"
"['', '9507', '2010-02-01', '00:30:00 GMT', '29', 'ANA', 'Anaheim', 'Ducks', '4', 'FLO', 'Florida', 'Panthers', '3', 'BankAtlantic Center', '29', 'ANA', 'Anaheim', 'Ducks', '1', '0', '0', '0', '0', '0', '2', '27', '33', '45.0', '3', '1', '33.3', '4', '0', '100.0', '0', '0', '3', '0', '22', '4', '8', '33']"
"['', '9523', '2010-02-03', '03:00:00 GMT', '16', 'DET', 'Detroit', 'Red Wings', '29', 'ANA', 'Anaheim', 'Ducks', '8', 'Honda Center', '29', 'ANA', 'Anaheim', 'Ducks', '1', '0', '0', '0', '0', '0', '2', '29', '25', '53.7', '3', '0', '0.0', '3', '1', '66.7', '0', '0', '3', '1', '27', '4', '11', '27']"
"['', '9532', '2010-02-04', '03:30:00 GMT', '29', 'ANA', 'Anaheim', 'Ducks', '28', 'LAK', 'Los Angeles', 'Kings', '25', 'Staples Center', '29', 'ANA', 'Anaheim', 'Ducks', '0', '1', '0', '0', '0', '0', '0', '33', '29', '53.2', '1', '0', '0.0', '2', '2', '0.0', '0', '0', '4', '6', '18', '3', '9', '37']"
"['', '9558', '2010-02-08', '03:00:00 GMT', '28', 'LAK', 'Los Angeles', 'Kings', '29', 'ANA', 'Anaheim', 'Ducks', '8', 'Honda Center', '29', 'ANA', 'Anaheim', 'Ducks', '1', '0', '0', '0', '0', '0', '2', '24', '28', '46.2', '4', '2', '50.0', '4', '0', '100.0', '0', '0', '4', '2', '29', '5', '10', '39']"
"['', '9573', '2010-02-10', '03:00:00 GMT', '24', 'EDM', 'Edmonton', 'Oilers', '29', 'ANA', 'Anaheim', 'Ducks', '8', 'Honda Center', '29', 'ANA', 'Anaheim', 'Ducks', '1', '0', '0', '0', '0', '0', '2', '28', '25', '52.8', '8', '1', '12.5', '4', '0', '100.0', '0', '2', '3', '2', '27', '5', '13', '25']"
"['', '9597', '2010-02-13', '03:00:00 GMT', '29', 'ANA', 'Anaheim', 'Ducks', '23', 'CGY', 'Calgary', 'Flames', '18', 'Pengrowth Saddledome', '29', 'ANA', 'Anaheim', 'Ducks', '0', '1', '0', '0', '0', '0', '0', '34', '28', '54.8', '2', '0', '0.0', '2', '0', '100.0', '0', '0', '1', '3', '26', '4', '14', '14']"
"['', '9604', '2010-02-14', '00:00:00 GMT', '29', 'ANA', 'Anaheim', 'Ducks', '24', 'EDM', 'Edmonton', 'Oilers', '22', 'Rogers Place', '29', 'ANA', 'Anaheim', 'Ducks', '1', '0', '0', '0', '0', '0', '2', '31', '34', '47.7', '11', '4', '36.4', '5', '1', '80.0', '0', '1', '7', '3', '39', '9', '32', '12']"
"['', '9622', '2010-03-03', '03:00:00 GMT', '22', 'COL', 'Colorado', 'Avalanche', '29', 'ANA', 'Anaheim', 'Ducks', '8', 'Honda Center', '29', 'ANA', 'Anaheim', 'Ducks', '0', '1', '0', '0', '0', '0', '0', '26', '31', '45.6', '5', '2', '40.0', '6', '3', '50.0', '0', '0', '3', '4', '31', '9', '21', '15']"
"['', '9643', '2010-03-06', '01:00:00 GMT', '29', 'ANA', 'Anaheim', 'Ducks', '30', 'PHX', 'Phoenix', 'Coyotes', '6', 'Jobing.com Arena', '29', 'ANA', 'Anaheim', 'Ducks', '0', '1', '0', '0', '0', '0', '0', '24', '29', '45.3', '6', '0', '0.0', '4', '1', '75.0', '0', '0', '0', '4', '32', '7', '25', '23']"
"['', '9655', '2010-03-07', '01:00:00 GMT', '14', 'MTL', 'Montreal', 'Canadiens', '29', 'ANA', 'Anaheim', 'Ducks', '8', 'Honda Center', '29', 'ANA', 'Anaheim', 'Ducks', '0', '0', '0', '1', '0', '0', '1', '27', '33', '45.0', '2', '1', '50.0', '3', '0', '100.0', '0', '0', '3', '3', '29', '5', '10', '25']"
"['', '9666', '2010-03-09', '03:00:00 GMT', '19', 'CBJ', 'Columbus', 'Blue Jackets', '29', 'ANA', 'Anaheim', 'Ducks', '8', 'Honda Center', '29', 'ANA', 'Anaheim', 'Ducks', '0', '1', '0', '0', '0', '0', '0', '33', '28', '54.1', '5', '0', '0.0', '6', '3', '50.0', '0', '0', '2', '5', '36', '12', '33', '26']"
"['', '9687', '2010-03-12', '03:00:00 GMT', '18', 'NSH', 'Nashville', 'Predators', '29', 'ANA', 'Anaheim', 'Ducks', '8', 'Honda Center', '29', 'ANA', 'Anaheim', 'Ducks', '0', '1', '0', '0', '0', '0', '0', '26', '30', '46.4', '0', '0', '0.0', '3', '1', '66.7', '0', '0', '0', '1', '31', '6', '12', '23']"
"['', '9705', '2010-03-14', '00:00:00 GMT', '26', 'SJS', 'San Jose', 'Sharks', '29', 'ANA', 'Anaheim', 'Ducks', '8', 'Honda Center', '29', 'ANA', 'Anaheim', 'Ducks', '1', '0', '0', '0', '0', '0', '2', '20', '31', '39.2', '5', '0', '0.0', '4', '0', '100.0', '0', '0', '4', '2', '29', '6', '20', '27']"
"['', '9723', '2010-03-17', '02:00:00 GMT', '20', 'CHI', 'Chicago', 'Blackhawks', '29', 'ANA', 'Anaheim', 'Ducks', '8', 'Honda Center', '29', 'ANA', 'Anaheim', 'Ducks', '1', '0', '0', '0', '0', '0', '2', '26', '33', '44.1', '2', '0', '0.0', '3', '0', '100.0', '1', '0', '4', '2', '32', '7', '20', '14']"
"['', '9738', '2010-03-19', '02:00:00 GMT', '8', 'NYI', 'New York', 'Islanders', '29', 'ANA', 'Anaheim', 'Ducks', '8', 'Honda Center', '29', 'ANA', 'Anaheim', 'Ducks', '1', '0', '0', '0', '0', '0', '2', '33', '23', '58.9', '2', '1', '50.0', '3', '2', '33.3', '0', '0', '5', '4', '34', '5', '10', '37']"
"['', '9758', '2010-03-21', '00:00:00 GMT', '22', 'COL', 'Colorado', 'Avalanche', '29', 'ANA', 'Anaheim', 'Ducks', '8', 'Honda Center', '29', 'ANA', 'Anaheim', 'Ducks', '1', '0', '0', '0', '0', '0', '2', '22', '28', '44.0', '6', '3', '50.0', '3', '0', '100.0', '1', '0', '5', '2', '28', '5', '16', '20']"
"['', '9770', '2010-03-23', '01:00:00 GMT', '29', 'ANA', 'Anaheim', 'Ducks', '23', 'CGY', 'Calgary', 'Flames', '18', 'Pengrowth Saddledome', '29', 'ANA', 'Anaheim', 'Ducks', '0', '1', '0', '0', '0', '0', '0', '17', '26', '39.5', '0', '0', '0.0', '2', '1', '50.0', '0', '0', '1', '3', '22', '3', '9', '17']"
"['', '9777', '2010-03-24', '02:00:00 GMT', '29', 'ANA', 'Anaheim', 'Ducks', '21', 'VAN', 'Vancouver', 'Canucks', '7', 'General Motors Place', '29', 'ANA', 'Anaheim', 'Ducks', '0', '1', '0', '0', '0', '0', '0', '20', '33', '37.7', '4', '0', '0.0', '2', '1', '50.0', '0', '0', '1', '4', '30', '6', '29', '21']"
"['', '9791', '2010-03-26', '01:00:00 GMT', '29', 'ANA', 'Anaheim', 'Ducks', '24', 'EDM', 'Edmonton', 'Oilers', '22', 'Rogers Place', '29', 'ANA', 'Anaheim', 'Ducks', '1', '0', '0', '0', '0', '0', '2', '31', '27', '53.4', '4', '2', '50.0', '7', '1', '85.7', '0', '0', '3', '2', '37', '11', '36', '11']"
"['', '9814', '2010-03-29', '02:00:00 GMT', '27', 'DAL', 'Dallas', 'Stars', '29', 'ANA', 'Anaheim', 'Ducks', '8', 'Honda Center', '29', 'ANA', 'Anaheim', 'Ducks', '1', '0', '0', '0', '0', '0', '2', '32', '22', '59.3', '5', '1', '20.0', '1', '0', '100.0', '0', '0', '3', '1', '43', '2', '4', '25']"
"['', '9829', '2010-03-31', '01:00:00 GMT', '29', 'ANA', 'Anaheim', 'Ducks', '22', 'COL', 'Colorado', 'Avalanche', '19', 'Pepsi Center', '29', 'ANA', 'Anaheim', 'Ducks', '1', '0', '0', '0', '0', '0', '2', '24', '27', '47.1', '1', '0', '0.0', '3', '1', '66.7', '0', '0', '5', '2', '22', '4', '11', '23']"
"['', '9845', '2010-04-02', '02:00:00 GMT', '21', 'VAN', 'Vancouver', 'Canucks', '29', 'ANA', 'Anaheim', 'Ducks', '8', 'Honda Center', '29', 'ANA', 'Anaheim', 'Ducks', '0', '0', '0', '1', '0', '0', '1', '27', '32', '45.8', '8', '3', '37.5', '5', '0', '100.0', '0', '0', '4', '4', '30', '6', '15', '17']"
"['', '9856', '2010-04-03', '02:30:00 GMT', '29', 'ANA', 'Anaheim', 'Ducks', '28', 'LAK', 'Los Angeles', 'Kings', '25', 'Staples Center', '29', 'ANA', 'Anaheim', 'Ducks', '1', '0', '0', '0', '0', '0', '2', '28', '28', '50.0', '2', '1', '50.0', '4', '1', '75.0', '0', '0', '1', '1', '32', '6', '15', '37']"
"['', '9874', '2010-04-06', '02:00:00 GMT', '28', 'LAK', 'Los Angeles', 'Kings', '29', 'ANA', 'Anaheim', 'Ducks', '8', 'Honda Center', '29', 'ANA', 'Anaheim', 'Ducks', '0', '0', '0', '1', '0', '0', '1', '25', '29', '46.3', '3', '2', '66.7', '3', '1', '66.7', '0', '0', '4', '4', '17', '3', '6', '30']"
"['', '9885', '2010-04-08', '00:30:00 GMT', '29', 'ANA', 'Anaheim', 'Ducks', '27', 'DAL', 'Dallas', 'Stars', '2', 'American Airlines Center', '29', 'ANA', 'Anaheim', 'Ducks', '0', '0', '0', '1', '0', '0', '1', '20', '33', '37.7', '4', '1', '25.0', '3', '0', '100.0', '0', '0', '2', '2', '17', '3', '6', '35']"
"['', '9892', '2010-04-09', '00:00:00 GMT', '29', 'ANA', 'Anaheim', 'Ducks', '17', 'STL', 'St. Louis', 'Blues', '24', 'Scottrade Center', '29', 'ANA', 'Anaheim', 'Ducks', '0', '1', '0', '0', '0', '0', '0', '32', '26', '55.2', '2', '0', '0.0', '4', '2', '50.0', '0', '0', '3', '6', '23', '9', '29', '17']"
"['', '9912', '2010-04-11', '00:00:00 GMT', '24', 'EDM', 'Edmonton', 'Oilers', '29', 'ANA', 'Anaheim', 'Ducks', '8', 'Honda Center', '29', 'ANA', 'Anaheim', 'Ducks', '1', '0', '0', '0', '0', '0', '2', '23', '28', '45.1', '3', '1', '33.3', '2', '0', '100.0', '1', '0', '7', '2', '38', '3', '6', '17']"
