"['#Date/Time of Update: 2018-12-10 19:03:24 GMT', '#Game ID', '#Game Date', '#Game Time', '#Away Team ID', '#Away Team Abbr.', '#Away Team City', '#Away Team Name', '#Home Team ID', '#Home Team Abbr.', '#Home Team City', '#Home Team Name', '#Venue ID', '#Venue Name', '#Team ID', '#Team Abbr.', '#Team City', '#Team Name', '#Wins', '#Losses', '#OvertimeWins', '#OvertimeLosses', '#Points', '#FaceoffWins', '#FaceoffLosses', '#FaceoffPercent', '#Powerplays', '#PowerplayGoals', '#PowerplayPercent', '#PenaltyKills', '#PenaltyKillGoalsAllowed', '#PenaltyKillPercent', '#ShorthandedGoalsFor', '#ShorthandedGoalsAgainst', '#GoalsFor', '#GoalsAgainst', '#Shots', '#BlockedShots', '#Penalties', '#PenaltyMinutes', '#Hits']"
"['', '40781', '2017-10-05', '23:30:00 GMT', '25', 'MIN', 'Minnesota', 'Wild', '16', 'DET', 'Detroit', 'Red Wings', '145', 'Little Caesars Arena', '25', 'MIN', 'Minnesota', 'Wild', '0', '1', '0', '0', '0', '31', '26', '54.4', '4', '0', '0.0', '5', '2', '60.0', '0', '0', '2', '4', '39', '10', '5', '10', '19']"
"['', '40795', '2017-10-07', '23:00:00 GMT', '25', 'MIN', 'Minnesota', 'Wild', '3', 'CAR', 'Carolina', 'Hurricanes', '21', 'PNC Arena', '25', 'MIN', 'Minnesota', 'Wild', '0', '0', '0', '1', '1', '38', '30', '55.9', '3', '1', '33.3', '4', '1', '75.0', '0', '0', '4', '4', '27', '16', '4', '8', '27']"
"['', '40827', '2017-10-12', '00:30:00 GMT', '25', 'MIN', 'Minnesota', 'Wild', '20', 'CHI', 'Chicago', 'Blackhawks', '28', 'United Center', '25', 'MIN', 'Minnesota', 'Wild', '1', '0', '0', '0', '2', '29', '33', '46.8', '4', '1', '25.0', '5', '1', '80.0', '0', '0', '5', '2', '34', '17', '7', '17', '32']"
"['', '40842', '2017-10-14', '00:00:00 GMT', '19', 'CBJ', 'Columbus', 'Blue Jackets', '25', 'MIN', 'Minnesota', 'Wild', '30', 'Xcel Energy Center', '25', 'MIN', 'Minnesota', 'Wild', '0', '0', '0', '1', '1', '49', '25', '66.2', '3', '2', '66.7', '3', '0', '100.0', '0', '0', '4', '5', '21', '13', '3', '6', '18']"
"['', '40881', '2017-10-20', '00:00:00 GMT', '25', 'MIN', 'Minnesota', 'Wild', '2', 'WPJ', 'Winnipeg', 'Jets', '39', 'Bell MTS Place', '25', 'MIN', 'Minnesota', 'Wild', '0', '1', '0', '0', '0', '30', '28', '51.7', '1', '1', '100.0', '3', '2', '33.3', '0', '0', '3', '4', '27', '9', '3', '6', '16']"
"['', '40893', '2017-10-21', '02:00:00 GMT', '25', 'MIN', 'Minnesota', 'Wild', '23', 'CGY', 'Calgary', 'Flames', '18', 'Scotiabank Saddledome', '25', 'MIN', 'Minnesota', 'Wild', '1', '0', '0', '0', '2', '31', '31', '50.0', '3', '1', '33.3', '6', '1', '83.3', '0', '0', '4', '2', '32', '22', '6', '12', '11']"
"['', '40906', '2017-10-24', '00:00:00 GMT', '21', 'VAN', 'Vancouver', 'Canucks', '25', 'MIN', 'Minnesota', 'Wild', '30', 'Xcel Energy Center', '25', 'MIN', 'Minnesota', 'Wild', '0', '1', '0', '0', '0', '33', '32', '50.8', '4', '0', '0.0', '3', '0', '100.0', '0', '0', '0', '1', '29', '10', '3', '6', '17']"
"['', '40919', '2017-10-26', '00:00:00 GMT', '8', 'NYI', 'New York', 'Islanders', '25', 'MIN', 'Minnesota', 'Wild', '30', 'Xcel Energy Center', '25', 'MIN', 'Minnesota', 'Wild', '1', '0', '0', '0', '2', '32', '33', '49.2', '3', '0', '0.0', '5', '0', '100.0', '2', '0', '6', '4', '33', '22', '5', '10', '11']"
"['', '40937', '2017-10-28', '00:00:00 GMT', '10', 'PIT', 'Pittsburgh', 'Penguins', '25', 'MIN', 'Minnesota', 'Wild', '30', 'Xcel Energy Center', '25', 'MIN', 'Minnesota', 'Wild', '1', '0', '0', '0', '2', '25', '31', '44.6', '4', '0', '0.0', '3', '1', '66.7', '0', '0', '2', '1', '29', '18', '3', '6', '12']"
"['', '40953', '2017-10-31', '00:00:00 GMT', '2', 'WPJ', 'Winnipeg', 'Jets', '25', 'MIN', 'Minnesota', 'Wild', '30', 'Xcel Energy Center', '25', 'MIN', 'Minnesota', 'Wild', '0', '1', '0', '0', '0', '24', '28', '46.2', '5', '0', '0.0', '3', '0', '100.0', '0', '0', '1', '2', '29', '12', '4', '8', '14']"
"['', '40964', '2017-11-02', '00:00:00 GMT', '14', 'MTL', 'Montreal', 'Canadiens', '25', 'MIN', 'Minnesota', 'Wild', '30', 'Xcel Energy Center', '25', 'MIN', 'Minnesota', 'Wild', '1', '0', '0', '0', '2', '24', '39', '38.1', '4', '1', '25.0', '1', '0', '100.0', '0', '0', '6', '3', '27', '11', '1', '2', '16']"
"['', '40981', '2017-11-04', '00:00:00 GMT', '20', 'CHI', 'Chicago', 'Blackhawks', '25', 'MIN', 'Minnesota', 'Wild', '30', 'Xcel Energy Center', '25', 'MIN', 'Minnesota', 'Wild', '0', '1', '0', '0', '0', '26', '34', '43.3', '2', '0', '0.0', '4', '1', '75.0', '0', '0', '0', '2', '24', '22', '3', '8', '19']"
"['', '40991', '2017-11-06', '00:00:00 GMT', '25', 'MIN', 'Minnesota', 'Wild', '11', 'BOS', 'Boston', 'Bruins', '27', 'TD Garden', '25', 'MIN', 'Minnesota', 'Wild', '0', '1', '0', '0', '0', '35', '32', '52.2', '1', '0', '0.0', '4', '0', '100.0', '1', '0', '3', '5', '27', '12', '5', '13', '37']"
"['', '41005', '2017-11-08', '00:30:00 GMT', '25', 'MIN', 'Minnesota', 'Wild', '12', 'TOR', 'Toronto', 'Maple Leafs', '1', 'Air Canada Center', '25', 'MIN', 'Minnesota', 'Wild', '0', '1', '0', '0', '0', '31', '22', '58.5', '4', '1', '25.0', '2', '0', '100.0', '0', '0', '2', '4', '37', '15', '2', '4', '27']"
"['', '41010', '2017-11-09', '00:30:00 GMT', '25', 'MIN', 'Minnesota', 'Wild', '14', 'MTL', 'Montreal', 'Canadiens', '4', 'Bell Centre', '25', 'MIN', 'Minnesota', 'Wild', '1', '0', '0', '0', '2', '28', '43', '39.4', '3', '0', '0.0', '3', '0', '100.0', '1', '0', '3', '0', '35', '28', '4', '8', '25']"
"['', '41029', '2017-11-11', '00:00:00 GMT', '25', 'MIN', 'Minnesota', 'Wild', '6', 'PHI', 'Philadelphia', 'Flyers', '29', 'Wells Fargo Center', '25', 'MIN', 'Minnesota', 'Wild', '1', '0', '0', '0', '2', '26', '26', '50.0', '3', '0', '0.0', '3', '0', '100.0', '0', '0', '1', '0', '27', '18', '3', '6', '15']"
"['', '41043', '2017-11-14', '01:00:00 GMT', '6', 'PHI', 'Philadelphia', 'Flyers', '25', 'MIN', 'Minnesota', 'Wild', '30', 'Xcel Energy Center', '25', 'MIN', 'Minnesota', 'Wild', '1', '0', '0', '0', '2', '18', '27', '40.0', '1', '0', '0.0', '2', '0', '100.0', '0', '0', '3', '0', '20', '16', '2', '4', '11']"
"['', '41056', '2017-11-16', '01:00:00 GMT', '18', 'NSH', 'Nashville', 'Predators', '25', 'MIN', 'Minnesota', 'Wild', '30', 'Xcel Energy Center', '25', 'MIN', 'Minnesota', 'Wild', '1', '0', '0', '0', '2', '42', '41', '50.6', '5', '2', '40.0', '3', '0', '100.0', '0', '1', '6', '4', '36', '9', '3', '6', '16']"
"['', '41074', '2017-11-18', '00:30:00 GMT', '25', 'MIN', 'Minnesota', 'Wild', '5', 'WSH', 'Washington', 'Capitals', '13', 'Capital One Arena', '25', 'MIN', 'Minnesota', 'Wild', '0', '1', '0', '0', '0', '30', '30', '50.0', '4', '1', '25.0', '4', '2', '50.0', '0', '0', '1', '3', '31', '13', '5', '10', '16']"
"['', '41087', '2017-11-20', '01:00:00 GMT', '7', 'NJD', 'New Jersey', 'Devils', '25', 'MIN', 'Minnesota', 'Wild', '30', 'Xcel Energy Center', '25', 'MIN', 'Minnesota', 'Wild', '0', '0', '0', '1', '1', '37', '31', '54.4', '4', '2', '50.0', '2', '0', '100.0', '0', '0', '3', '4', '36', '15', '4', '8', '20']"
"['', '41099', '2017-11-22', '00:00:00 GMT', '25', 'MIN', 'Minnesota', 'Wild', '15', 'BUF', 'Buffalo', 'Sabres', '10', 'KeyBank Center', '25', 'MIN', 'Minnesota', 'Wild', '1', '0', '0', '0', '2', '30', '25', '54.5', '3', '2', '66.7', '3', '0', '100.0', '0', '0', '5', '4', '32', '15', '3', '6', '11']"
"['', '41108', '2017-11-24', '21:00:00 GMT', '22', 'COL', 'Colorado', 'Avalanche', '25', 'MIN', 'Minnesota', 'Wild', '30', 'Xcel Energy Center', '25', 'MIN', 'Minnesota', 'Wild', '1', '0', '0', '0', '2', '29', '22', '56.9', '2', '1', '50.0', '3', '0', '100.0', '0', '1', '2', '2', '27', '14', '3', '6', '16']"
"['', '41127', '2017-11-25', '01:00:00 GMT', '25', 'MIN', 'Minnesota', 'Wild', '17', 'STL', 'St. Louis', 'Blues', '24', 'Scottrade Center', '25', 'MIN', 'Minnesota', 'Wild', '0', '1', '0', '0', '0', '34', '29', '54.0', '3', '2', '66.7', '8', '3', '62.5', '1', '1', '3', '6', '25', '15', '9', '21', '16']"
"['', '41138', '2017-11-27', '01:00:00 GMT', '25', 'MIN', 'Minnesota', 'Wild', '2', 'WPJ', 'Winnipeg', 'Jets', '39', 'Bell MTS Place', '25', 'MIN', 'Minnesota', 'Wild', '0', '1', '0', '0', '0', '25', '35', '41.7', '0', '0', '0.0', '6', '2', '66.7', '0', '0', '2', '7', '19', '16', '9', '29', '16']"
"['', '41157', '2017-11-30', '01:00:00 GMT', '142', 'VGK', 'Vegas', 'Golden Knights', '25', 'MIN', 'Minnesota', 'Wild', '30', 'Xcel Energy Center', '25', 'MIN', 'Minnesota', 'Wild', '1', '0', '0', '0', '2', '29', '23', '55.8', '2', '0', '0.0', '3', '0', '100.0', '0', '0', '4', '2', '32', '18', '3', '6', '9']"
"['', '41170', '2017-12-02', '23:00:00 GMT', '17', 'STL', 'St. Louis', 'Blues', '25', 'MIN', 'Minnesota', 'Wild', '30', 'Xcel Energy Center', '25', 'MIN', 'Minnesota', 'Wild', '1', '0', '0', '0', '2', '21', '33', '38.9', '3', '0', '0.0', '5', '1', '80.0', '0', '0', '2', '1', '25', '17', '5', '10', '26']"
"['', '41198', '2017-12-05', '03:00:00 GMT', '25', 'MIN', 'Minnesota', 'Wild', '28', 'LAK', 'Los Angeles', 'Kings', '25', 'Staples Center', '25', 'MIN', 'Minnesota', 'Wild', '0', '1', '0', '0', '0', '25', '34', '42.4', '1', '0', '0.0', '3', '1', '66.7', '0', '0', '2', '5', '21', '13', '4', '11', '27']"
"['', '41216', '2017-12-08', '03:00:00 GMT', '25', 'MIN', 'Minnesota', 'Wild', '29', 'ANA', 'Anaheim', 'Ducks', '8', 'Honda Center', '25', 'MIN', 'Minnesota', 'Wild', '1', '0', '0', '0', '2', '23', '24', '48.9', '2', '0', '0.0', '3', '0', '100.0', '0', '0', '3', '2', '31', '18', '4', '8', '25']"
"['', '41232', '2017-12-10', '02:00:00 GMT', '25', 'MIN', 'Minnesota', 'Wild', '26', 'SJS', 'San Jose', 'Sharks', '9', 'SAP Center at San Jose', '25', 'MIN', 'Minnesota', 'Wild', '1', '0', '0', '0', '2', '30', '27', '52.6', '3', '1', '33.3', '6', '2', '66.7', '0', '0', '4', '3', '24', '26', '7', '14', '20']"
"['', '41244', '2017-12-12', '01:00:00 GMT', '23', 'CGY', 'Calgary', 'Flames', '25', 'MIN', 'Minnesota', 'Wild', '30', 'Xcel Energy Center', '25', 'MIN', 'Minnesota', 'Wild', '1', '0', '0', '0', '2', '29', '23', '55.8', '2', '0', '0.0', '3', '0', '100.0', '0', '0', '1', '1', '22', '19', '3', '6', '9']"
"['', '41256', '2017-12-14', '01:00:00 GMT', '12', 'TOR', 'Toronto', 'Maple Leafs', '25', 'MIN', 'Minnesota', 'Wild', '30', 'Xcel Energy Center', '25', 'MIN', 'Minnesota', 'Wild', '1', '0', '0', '0', '2', '29', '33', '46.8', '1', '0', '0.0', '4', '0', '100.0', '0', '0', '2', '0', '26', '21', '5', '10', '12']"
"['', '41269', '2017-12-16', '19:00:00 GMT', '24', 'EDM', 'Edmonton', 'Oilers', '25', 'MIN', 'Minnesota', 'Wild', '30', 'Xcel Energy Center', '25', 'MIN', 'Minnesota', 'Wild', '0', '1', '0', '0', '0', '29', '32', '47.5', '4', '0', '0.0', '6', '0', '100.0', '0', '1', '2', '3', '31', '13', '6', '12', '6']"
"['', '41281', '2017-12-17', '00:00:00 GMT', '25', 'MIN', 'Minnesota', 'Wild', '20', 'CHI', 'Chicago', 'Blackhawks', '28', 'United Center', '25', 'MIN', 'Minnesota', 'Wild', '0', '1', '0', '0', '0', '34', '26', '56.7', '2', '0', '0.0', '6', '0', '100.0', '0', '1', '1', '4', '28', '24', '7', '14', '27']"
"['', '41293', '2017-12-19', '00:00:00 GMT', '25', 'MIN', 'Minnesota', 'Wild', '13', 'OTT', 'Ottawa', 'Senators', '23', 'Canadian Tire Centre', '25', 'MIN', 'Minnesota', 'Wild', '1', '0', '0', '0', '2', '24', '28', '46.2', '4', '1', '25.0', '4', '2', '50.0', '0', '0', '6', '4', '40', '18', '5', '10', '20']"
"['', '41313', '2017-12-22', '00:30:00 GMT', '25', 'MIN', 'Minnesota', 'Wild', '4', 'FLO', 'Florida', 'Panthers', '3', 'BB&T Center', '25', 'MIN', 'Minnesota', 'Wild', '0', '1', '0', '0', '0', '46', '26', '63.9', '5', '1', '20.0', '3', '0', '100.0', '0', '0', '2', '4', '31', '12', '4', '11', '9']"
"['', '41319', '2017-12-23', '00:00:00 GMT', '25', 'MIN', 'Minnesota', 'Wild', '1', 'TBL', 'Tampa Bay', 'Lightning', '26', 'Amalie Arena', '25', 'MIN', 'Minnesota', 'Wild', '0', '1', '0', '0', '0', '32', '32', '50.0', '6', '0', '0.0', '6', '0', '100.0', '0', '0', '0', '3', '22', '19', '6', '12', '17']"
"['', '41339', '2017-12-27', '01:00:00 GMT', '27', 'DAL', 'Dallas', 'Stars', '25', 'MIN', 'Minnesota', 'Wild', '30', 'Xcel Energy Center', '25', 'MIN', 'Minnesota', 'Wild', '1', '0', '0', '0', '2', '36', '27', '57.1', '3', '1', '33.3', '4', '1', '75.0', '0', '0', '4', '2', '31', '15', '4', '8', '16']"
"['', '43410', '2017-12-29', '01:00:00 GMT', '18', 'NSH', 'Nashville', 'Predators', '25', 'MIN', 'Minnesota', 'Wild', '30', 'Xcel Energy Center', '25', 'MIN', 'Minnesota', 'Wild', '1', '0', '0', '0', '2', '29', '38', '43.3', '5', '1', '20.0', '3', '1', '66.7', '0', '0', '4', '2', '38', '17', '4', '11', '13']"
"['', '41364', '2017-12-30', '01:00:00 GMT', '25', 'MIN', 'Minnesota', 'Wild', '18', 'NSH', 'Nashville', 'Predators', '15', 'Bridgestone Arena', '25', 'MIN', 'Minnesota', 'Wild', '0', '1', '0', '0', '0', '28', '24', '53.8', '3', '0', '0.0', '5', '1', '80.0', '0', '0', '0', '3', '29', '18', '5', '10', '11']"
"['', '41381', '2018-01-02', '01:00:00 GMT', '4', 'FLO', 'Florida', 'Panthers', '25', 'MIN', 'Minnesota', 'Wild', '30', 'Xcel Energy Center', '25', 'MIN', 'Minnesota', 'Wild', '1', '0', '0', '0', '2', '31', '27', '53.4', '1', '0', '0.0', '2', '0', '100.0', '0', '0', '5', '1', '41', '12', '3', '9', '8']"
"['', '41395', '2018-01-04', '01:00:00 GMT', '15', 'BUF', 'Buffalo', 'Sabres', '25', 'MIN', 'Minnesota', 'Wild', '30', 'Xcel Energy Center', '25', 'MIN', 'Minnesota', 'Wild', '1', '0', '0', '0', '2', '21', '23', '47.7', '2', '1', '50.0', '3', '0', '100.0', '0', '0', '6', '2', '27', '8', '4', '16', '9']"
"['', '41408', '2018-01-06', '02:00:00 GMT', '25', 'MIN', 'Minnesota', 'Wild', '22', 'COL', 'Colorado', 'Avalanche', '19', 'Pepsi Center', '25', 'MIN', 'Minnesota', 'Wild', '0', '1', '0', '0', '0', '34', '30', '53.1', '4', '1', '25.0', '4', '3', '25.0', '0', '0', '2', '7', '36', '6', '8', '16', '13']"
"['', '41432', '2018-01-09', '01:00:00 GMT', '23', 'CGY', 'Calgary', 'Flames', '25', 'MIN', 'Minnesota', 'Wild', '30', 'Xcel Energy Center', '25', 'MIN', 'Minnesota', 'Wild', '0', '0', '0', '1', '1', '36', '38', '48.6', '5', '0', '0.0', '4', '0', '100.0', '0', '0', '2', '3', '35', '13', '6', '12', '16']"
"['', '41434', '2018-01-10', '01:00:00 GMT', '25', 'MIN', 'Minnesota', 'Wild', '20', 'CHI', 'Chicago', 'Blackhawks', '28', 'United Center', '25', 'MIN', 'Minnesota', 'Wild', '1', '0', '0', '0', '2', '28', '35', '44.4', '3', '0', '0.0', '3', '0', '100.0', '0', '0', '2', '1', '27', '27', '3', '6', '31']"
"['', '41447', '2018-01-13', '00:00:00 GMT', '2', 'WPJ', 'Winnipeg', 'Jets', '25', 'MIN', 'Minnesota', 'Wild', '30', 'Xcel Energy Center', '25', 'MIN', 'Minnesota', 'Wild', '1', '0', '0', '0', '2', '27', '31', '46.6', '4', '1', '25.0', '2', '1', '50.0', '0', '0', '4', '1', '41', '13', '2', '4', '11']"
"['', '41455', '2018-01-14', '01:00:00 GMT', '21', 'VAN', 'Vancouver', 'Canucks', '25', 'MIN', 'Minnesota', 'Wild', '30', 'Xcel Energy Center', '25', 'MIN', 'Minnesota', 'Wild', '0', '0', '0', '1', '1', '29', '24', '54.7', '1', '1', '100.0', '1', '0', '100.0', '0', '0', '2', '3', '23', '9', '1', '2', '17']"
"['', '41492', '2018-01-20', '02:00:00 GMT', '1', 'TBL', 'Tampa Bay', 'Lightning', '25', 'MIN', 'Minnesota', 'Wild', '30', 'Xcel Energy Center', '25', 'MIN', 'Minnesota', 'Wild', '1', '0', '0', '0', '2', '30', '25', '54.5', '3', '1', '33.3', '3', '1', '66.7', '0', '0', '5', '2', '35', '18', '5', '10', '23']"
"['', '41501', '2018-01-22', '01:00:00 GMT', '13', 'OTT', 'Ottawa', 'Senators', '25', 'MIN', 'Minnesota', 'Wild', '30', 'Xcel Energy Center', '25', 'MIN', 'Minnesota', 'Wild', '1', '0', '0', '0', '2', '32', '30', '51.6', '2', '1', '50.0', '2', '0', '100.0', '0', '0', '3', '1', '36', '13', '2', '4', '17']"
"['', '41520', '2018-01-25', '00:00:00 GMT', '25', 'MIN', 'Minnesota', 'Wild', '10', 'PIT', 'Pittsburgh', 'Penguins', '40', 'PPG Paints Arena', '25', 'MIN', 'Minnesota', 'Wild', '0', '1', '0', '0', '0', '30', '27', '52.6', '5', '1', '20.0', '2', '2', '0.0', '0', '0', '3', '6', '26', '10', '2', '4', '17']"
"['', '41539', '2018-01-30', '00:00:00 GMT', '25', 'MIN', 'Minnesota', 'Wild', '19', 'CBJ', 'Columbus', 'Blue Jackets', '17', 'Nationwide Arena', '25', 'MIN', 'Minnesota', 'Wild', '1', '0', '0', '0', '2', '32', '29', '52.5', '2', '1', '50.0', '3', '1', '66.7', '0', '0', '2', '2', '43', '9', '3', '6', '14']"
"['', '41564', '2018-02-02', '01:00:00 GMT', '142', 'VGK', 'Vegas', 'Golden Knights', '25', 'MIN', 'Minnesota', 'Wild', '30', 'Xcel Energy Center', '25', 'MIN', 'Minnesota', 'Wild', '1', '0', '0', '0', '2', '27', '25', '51.9', '4', '2', '50.0', '3', '2', '33.3', '0', '0', '5', '2', '35', '14', '4', '11', '13']"
"['', '41573', '2018-02-03', '01:00:00 GMT', '25', 'MIN', 'Minnesota', 'Wild', '27', 'DAL', 'Dallas', 'Stars', '2', 'American Airlines Center', '25', 'MIN', 'Minnesota', 'Wild', '0', '1', '0', '0', '0', '18', '37', '32.7', '2', '0', '0.0', '2', '2', '0.0', '0', '0', '1', '6', '31', '21', '2', '4', '24']"
"['', '41593', '2018-02-06', '01:00:00 GMT', '25', 'MIN', 'Minnesota', 'Wild', '17', 'STL', 'St. Louis', 'Blues', '24', 'Scottrade Center', '25', 'MIN', 'Minnesota', 'Wild', '1', '0', '0', '0', '2', '26', '43', '37.7', '3', '2', '66.7', '3', '0', '100.0', '0', '0', '6', '2', '20', '19', '4', '8', '12']"
"['', '41605', '2018-02-08', '01:00:00 GMT', '30', 'ARI', 'Arizona', 'Coyotes', '25', 'MIN', 'Minnesota', 'Wild', '30', 'Xcel Energy Center', '25', 'MIN', 'Minnesota', 'Wild', '0', '0', '0', '1', '1', '27', '32', '45.8', '1', '0', '0.0', '1', '0', '100.0', '0', '0', '3', '4', '28', '19', '1', '2', '14']"
"['', '41622', '2018-02-10', '01:00:00 GMT', '20', 'CHI', 'Chicago', 'Blackhawks', '25', 'MIN', 'Minnesota', 'Wild', '30', 'Xcel Energy Center', '25', 'MIN', 'Minnesota', 'Wild', '1', '0', '0', '0', '2', '35', '32', '52.2', '4', '1', '25.0', '3', '0', '100.0', '0', '0', '3', '0', '19', '26', '5', '13', '14']"
"['', '41646', '2018-02-13', '01:00:00 GMT', '9', 'NYR', 'New York', 'Rangers', '25', 'MIN', 'Minnesota', 'Wild', '30', 'Xcel Energy Center', '25', 'MIN', 'Minnesota', 'Wild', '1', '0', '0', '0', '2', '32', '22', '59.3', '1', '0', '0.0', '5', '2', '60.0', '0', '0', '3', '2', '29', '14', '4', '8', '17']"
"['', '41658', '2018-02-15', '01:00:00 GMT', '5', 'WSH', 'Washington', 'Capitals', '25', 'MIN', 'Minnesota', 'Wild', '30', 'Xcel Energy Center', '25', 'MIN', 'Minnesota', 'Wild', '0', '1', '0', '0', '0', '39', '29', '57.4', '5', '1', '20.0', '2', '0', '100.0', '0', '0', '2', '5', '34', '11', '2', '4', '8']"
"['', '41668', '2018-02-17', '19:00:00 GMT', '29', 'ANA', 'Anaheim', 'Ducks', '25', 'MIN', 'Minnesota', 'Wild', '30', 'Xcel Energy Center', '25', 'MIN', 'Minnesota', 'Wild', '0', '0', '0', '1', '1', '33', '23', '58.9', '3', '0', '0.0', '3', '1', '66.7', '0', '0', '2', '2', '38', '22', '4', '11', '15']"
"['', '41685', '2018-02-19', '18:00:00 GMT', '25', 'MIN', 'Minnesota', 'Wild', '8', 'NYI', 'New York', 'Islanders', '16', 'Nassau Veterans Memorial Coliseum', '25', 'MIN', 'Minnesota', 'Wild', '1', '0', '0', '0', '2', '29', '34', '46.0', '1', '0', '0.0', '4', '0', '100.0', '0', '0', '5', '3', '32', '26', '4', '8', '29']"
"['', '41702', '2018-02-22', '00:00:00 GMT', '25', 'MIN', 'Minnesota', 'Wild', '7', 'NJD', 'New Jersey', 'Devils', '37', 'Prudential Center', '25', 'MIN', 'Minnesota', 'Wild', '1', '0', '0', '0', '2', '21', '37', '36.2', '2', '0', '0.0', '3', '1', '66.7', '0', '0', '4', '2', '25', '13', '3', '6', '15']"
"['', '41713', '2018-02-23', '00:00:00 GMT', '25', 'MIN', 'Minnesota', 'Wild', '9', 'NYR', 'New York', 'Rangers', '12', 'Madison Square Garden', '25', 'MIN', 'Minnesota', 'Wild', '1', '0', '0', '0', '2', '24', '19', '55.8', '1', '1', '100.0', '1', '0', '100.0', '0', '0', '4', '1', '37', '13', '1', '2', '15']"
"['', '41734', '2018-02-25', '01:00:00 GMT', '26', 'SJS', 'San Jose', 'Sharks', '25', 'MIN', 'Minnesota', 'Wild', '30', 'Xcel Energy Center', '25', 'MIN', 'Minnesota', 'Wild', '1', '0', '0', '0', '2', '30', '35', '46.2', '3', '0', '0.0', '1', '0', '100.0', '0', '0', '3', '2', '41', '10', '1', '2', '11']"
"['', '41745', '2018-02-27', '01:00:00 GMT', '17', 'STL', 'St. Louis', 'Blues', '25', 'MIN', 'Minnesota', 'Wild', '30', 'Xcel Energy Center', '25', 'MIN', 'Minnesota', 'Wild', '1', '0', '0', '0', '2', '24', '26', '48.0', '6', '2', '33.3', '6', '1', '83.3', '0', '0', '8', '3', '33', '16', '8', '16', '16']"
"['', '41760', '2018-03-01', '02:00:00 GMT', '25', 'MIN', 'Minnesota', 'Wild', '30', 'ARI', 'Arizona', 'Coyotes', '6', 'Gila River Arena', '25', 'MIN', 'Minnesota', 'Wild', '0', '1', '0', '0', '0', '31', '27', '53.4', '4', '1', '25.0', '2', '1', '50.0', '0', '0', '3', '5', '35', '17', '3', '6', '20']"
"['', '41768', '2018-03-02', '02:00:00 GMT', '25', 'MIN', 'Minnesota', 'Wild', '22', 'COL', 'Colorado', 'Avalanche', '19', 'Pepsi Center', '25', 'MIN', 'Minnesota', 'Wild', '0', '1', '0', '0', '0', '31', '31', '50.0', '3', '0', '0.0', '3', '1', '66.7', '0', '0', '1', '7', '32', '15', '3', '6', '17']"
"['', '41785', '2018-03-04', '00:00:00 GMT', '16', 'DET', 'Detroit', 'Red Wings', '25', 'MIN', 'Minnesota', 'Wild', '30', 'Xcel Energy Center', '25', 'MIN', 'Minnesota', 'Wild', '1', '0', '0', '0', '2', '27', '30', '47.4', '3', '1', '33.3', '2', '0', '100.0', '0', '0', '4', '1', '27', '12', '4', '11', '11']"
"['', '41797', '2018-03-06', '01:00:00 GMT', '3', 'CAR', 'Carolina', 'Hurricanes', '25', 'MIN', 'Minnesota', 'Wild', '30', 'Xcel Energy Center', '25', 'MIN', 'Minnesota', 'Wild', '1', '0', '0', '0', '2', '29', '34', '46.0', '2', '2', '100.0', '3', '1', '66.7', '0', '0', '6', '2', '31', '17', '3', '6', '8']"
"['', '41819', '2018-03-09', '03:00:00 GMT', '25', 'MIN', 'Minnesota', 'Wild', '21', 'VAN', 'Vancouver', 'Canucks', '7', 'Rogers Arena', '25', 'MIN', 'Minnesota', 'Wild', '1', '0', '0', '0', '2', '26', '30', '46.4', '2', '0', '0.0', '1', '0', '100.0', '0', '0', '5', '2', '36', '16', '1', '2', '10']"
"['', '41830', '2018-03-10', '03:00:00 GMT', '25', 'MIN', 'Minnesota', 'Wild', '24', 'EDM', 'Edmonton', 'Oilers', '22', 'Rogers Place', '25', 'MIN', 'Minnesota', 'Wild', '0', '1', '0', '0', '0', '25', '26', '49.0', '3', '0', '0.0', '2', '2', '0.0', '0', '0', '1', '4', '33', '15', '3', '6', '21']"
"['', '41846', '2018-03-13', '00:30:00 GMT', '22', 'COL', 'Colorado', 'Avalanche', '25', 'MIN', 'Minnesota', 'Wild', '30', 'Xcel Energy Center', '25', 'MIN', 'Minnesota', 'Wild', '0', '1', '0', '0', '0', '32', '20', '61.5', '4', '0', '0.0', '3', '2', '33.3', '0', '0', '1', '5', '34', '16', '5', '10', '19']"
"['', '41869', '2018-03-16', '02:30:00 GMT', '25', 'MIN', 'Minnesota', 'Wild', '142', 'VGK', 'Vegas', 'Golden Knights', '139', 'T-Mobile Arena', '25', 'MIN', 'Minnesota', 'Wild', '1', '0', '0', '0', '2', '21', '31', '40.4', '3', '0', '0.0', '3', '0', '100.0', '0', '0', '4', '2', '30', '18', '3', '6', '24']"
"['', '41878', '2018-03-17', '01:00:00 GMT', '25', 'MIN', 'Minnesota', 'Wild', '30', 'ARI', 'Arizona', 'Coyotes', '6', 'Gila River Arena', '25', 'MIN', 'Minnesota', 'Wild', '1', '0', '0', '0', '2', '29', '26', '52.7', '5', '1', '20.0', '2', '0', '100.0', '0', '0', '3', '1', '33', '19', '2', '4', '12']"
"['', '41891', '2018-03-19', '00:00:00 GMT', '28', 'LAK', 'Los Angeles', 'Kings', '25', 'MIN', 'Minnesota', 'Wild', '30', 'Xcel Energy Center', '25', 'MIN', 'Minnesota', 'Wild', '0', '0', '0', '1', '1', '30', '29', '50.8', '1', '0', '0.0', '2', '1', '50.0', '0', '0', '3', '4', '27', '18', '3', '6', '24']"
"['', '41933', '2018-03-24', '00:00:00 GMT', '18', 'NSH', 'Nashville', 'Predators', '25', 'MIN', 'Minnesota', 'Wild', '30', 'Xcel Energy Center', '25', 'MIN', 'Minnesota', 'Wild', '1', '0', '0', '0', '2', '27', '30', '47.4', '4', '0', '0.0', '2', '0', '100.0', '0', '0', '4', '1', '30', '18', '4', '8', '17']"
"['', '41938', '2018-03-25', '23:30:00 GMT', '11', 'BOS', 'Boston', 'Bruins', '25', 'MIN', 'Minnesota', 'Wild', '30', 'Xcel Energy Center', '25', 'MIN', 'Minnesota', 'Wild', '0', '0', '0', '1', '1', '26', '31', '45.6', '2', '0', '0.0', '2', '0', '100.0', '0', '0', '1', '2', '25', '13', '2', '4', '9']"
"['', '41954', '2018-03-27', '00:00:00 GMT', '25', 'MIN', 'Minnesota', 'Wild', '18', 'NSH', 'Nashville', 'Predators', '15', 'Bridgestone Arena', '25', 'MIN', 'Minnesota', 'Wild', '0', '0', '0', '1', '1', '32', '32', '50.0', '2', '0', '0.0', '5', '0', '100.0', '0', '0', '1', '1', '23', '15', '5', '10', '15']"
"['', '41966', '2018-03-29', '00:00:00 GMT', '27', 'DAL', 'Dallas', 'Stars', '25', 'MIN', 'Minnesota', 'Wild', '30', 'Xcel Energy Center', '25', 'MIN', 'Minnesota', 'Wild', '1', '0', '0', '0', '2', '33', '27', '55.0', '3', '2', '66.7', '4', '0', '100.0', '1', '0', '5', '2', '22', '18', '4', '10', '7']"
"['', '41985', '2018-03-31', '00:00:00 GMT', '25', 'MIN', 'Minnesota', 'Wild', '27', 'DAL', 'Dallas', 'Stars', '2', 'American Airlines Center', '25', 'MIN', 'Minnesota', 'Wild', '0', '1', '0', '0', '0', '30', '34', '46.9', '3', '1', '33.3', '3', '0', '100.0', '0', '1', '1', '4', '34', '7', '3', '6', '14']"
"['', '41999', '2018-04-02', '00:00:00 GMT', '24', 'EDM', 'Edmonton', 'Oilers', '25', 'MIN', 'Minnesota', 'Wild', '30', 'Xcel Energy Center', '25', 'MIN', 'Minnesota', 'Wild', '1', '0', '0', '0', '2', '30', '25', '54.5', '2', '0', '0.0', '2', '0', '100.0', '0', '0', '3', '0', '40', '9', '2', '4', '12']"
"['', '42012', '2018-04-04', '02:00:00 GMT', '25', 'MIN', 'Minnesota', 'Wild', '29', 'ANA', 'Anaheim', 'Ducks', '8', 'Honda Center', '25', 'MIN', 'Minnesota', 'Wild', '0', '1', '0', '0', '0', '27', '26', '50.9', '3', '1', '33.3', '3', '0', '100.0', '0', '0', '1', '3', '27', '14', '3', '6', '20']"
"['', '42024', '2018-04-05', '02:30:00 GMT', '25', 'MIN', 'Minnesota', 'Wild', '28', 'LAK', 'Los Angeles', 'Kings', '25', 'Staples Center', '25', 'MIN', 'Minnesota', 'Wild', '0', '0', '0', '1', '1', '28', '41', '40.6', '1', '0', '0.0', '6', '1', '83.3', '1', '0', '4', '5', '27', '18', '9', '18', '28']"
"['', '42042', '2018-04-07', '02:30:00 GMT', '25', 'MIN', 'Minnesota', 'Wild', '26', 'SJS', 'San Jose', 'Sharks', '9', 'SAP Center at San Jose', '25', 'MIN', 'Minnesota', 'Wild', '1', '0', '0', '0', '2', '26', '28', '48.1', '1', '0', '0.0', '2', '0', '100.0', '0', '0', '6', '3', '24', '22', '2', '4', '15']"
