"['#Date/Time of Update: 2018-12-10 19:03:24 GMT', '#Game ID', '#Game Date', '#Game Time', '#Away Team ID', '#Away Team Abbr.', '#Away Team City', '#Away Team Name', '#Home Team ID', '#Home Team Abbr.', '#Home Team City', '#Home Team Name', '#Venue ID', '#Venue Name', '#Team ID', '#Team Abbr.', '#Team City', '#Team Name', '#Wins', '#Losses', '#OvertimeWins', '#OvertimeLosses', '#Points', '#FaceoffWins', '#FaceoffLosses', '#FaceoffPercent', '#Powerplays', '#PowerplayGoals', '#PowerplayPercent', '#PenaltyKills', '#PenaltyKillGoalsAllowed', '#PenaltyKillPercent', '#ShorthandedGoalsFor', '#ShorthandedGoalsAgainst', '#GoalsFor', '#GoalsAgainst', '#Shots', '#BlockedShots', '#Penalties', '#PenaltyMinutes', '#Hits']"
"['', '40784', '2017-10-05', '02:00:00 GMT', '30', 'ARI', 'Arizona', 'Coyotes', '29', 'ANA', 'Anaheim', 'Ducks', '8', 'Honda Center', '29', 'ANA', 'Anaheim', 'Ducks', '1', '0', '0', '0', '2', '40', '30', '57.1', '4', '0', '0.0', '4', '2', '50.0', '0', '0', '5', '4', '41', '18', '5', '18', '27']"
"['', '40802', '2017-10-07', '02:00:00 GMT', '6', 'PHI', 'Philadelphia', 'Flyers', '29', 'ANA', 'Anaheim', 'Ducks', '8', 'Honda Center', '29', 'ANA', 'Anaheim', 'Ducks', '0', '0', '0', '1', '1', '28', '28', '50.0', '2', '0', '0.0', '5', '0', '100.0', '1', '0', '2', '3', '23', '15', '6', '12', '16']"
"['', '40811', '2017-10-09', '02:00:00 GMT', '23', 'CGY', 'Calgary', 'Flames', '29', 'ANA', 'Anaheim', 'Ducks', '8', 'Honda Center', '29', 'ANA', 'Anaheim', 'Ducks', '0', '1', '0', '0', '0', '29', '22', '56.9', '5', '0', '0.0', '4', '1', '75.0', '0', '0', '0', '2', '43', '17', '5', '13', '25']"
"['', '40822', '2017-10-11', '02:00:00 GMT', '8', 'NYI', 'New York', 'Islanders', '29', 'ANA', 'Anaheim', 'Ducks', '8', 'Honda Center', '29', 'ANA', 'Anaheim', 'Ducks', '1', '0', '0', '0', '2', '34', '29', '54.0', '4', '0', '0.0', '5', '0', '100.0', '0', '0', '3', '2', '30', '22', '5', '10', '19']"
"['', '40834', '2017-10-13', '01:00:00 GMT', '29', 'ANA', 'Anaheim', 'Ducks', '22', 'COL', 'Colorado', 'Avalanche', '19', 'Pepsi Center', '29', 'ANA', 'Anaheim', 'Ducks', '0', '1', '0', '0', '0', '32', '39', '45.1', '2', '0', '0.0', '8', '2', '75.0', '1', '0', '1', '3', '18', '26', '8', '16', '19']"
"['', '40851', '2017-10-15', '01:00:00 GMT', '15', 'BUF', 'Buffalo', 'Sabres', '29', 'ANA', 'Anaheim', 'Ducks', '8', 'Honda Center', '29', 'ANA', 'Anaheim', 'Ducks', '0', '1', '0', '0', '0', '31', '29', '51.7', '4', '0', '0.0', '3', '0', '100.0', '1', '0', '1', '3', '26', '15', '3', '6', '27']"
"['', '40882', '2017-10-20', '02:00:00 GMT', '14', 'MTL', 'Montreal', 'Canadiens', '29', 'ANA', 'Anaheim', 'Ducks', '8', 'Honda Center', '29', 'ANA', 'Anaheim', 'Ducks', '1', '0', '0', '0', '2', '49', '28', '63.6', '3', '1', '33.3', '6', '1', '83.3', '0', '0', '6', '2', '45', '12', '10', '36', '24']"
"['', '40900', '2017-10-24', '23:00:00 GMT', '29', 'ANA', 'Anaheim', 'Ducks', '6', 'PHI', 'Philadelphia', 'Flyers', '29', 'Wells Fargo Center', '29', 'ANA', 'Anaheim', 'Ducks', '1', '0', '0', '0', '2', '27', '34', '44.3', '3', '1', '33.3', '6', '0', '100.0', '0', '0', '6', '2', '25', '11', '9', '21', '20']"
"['', '40915', '2017-10-26', '23:30:00 GMT', '29', 'ANA', 'Anaheim', 'Ducks', '4', 'FLO', 'Florida', 'Panthers', '3', 'BB&T Center', '29', 'ANA', 'Anaheim', 'Ducks', '0', '1', '0', '0', '0', '33', '20', '62.3', '3', '0', '0.0', '3', '1', '66.7', '0', '1', '3', '8', '34', '3', '4', '11', '21']"
"['', '40931', '2017-10-28', '23:00:00 GMT', '29', 'ANA', 'Anaheim', 'Ducks', '1', 'TBL', 'Tampa Bay', 'Lightning', '26', 'Amalie Arena', '29', 'ANA', 'Anaheim', 'Ducks', '1', '0', '0', '0', '2', '29', '38', '43.3', '2', '2', '100.0', '4', '0', '100.0', '0', '0', '4', '1', '21', '15', '4', '8', '18']"
"['', '40940', '2017-10-29', '21:00:00 GMT', '29', 'ANA', 'Anaheim', 'Ducks', '3', 'CAR', 'Carolina', 'Hurricanes', '21', 'PNC Arena', '29', 'ANA', 'Anaheim', 'Ducks', '1', '0', '0', '0', '2', '20', '32', '38.5', '0', '0', '0.0', '3', '1', '66.7', '0', '0', '3', '3', '25', '21', '3', '6', '37']"
"['', '40957', '2017-11-01', '02:00:00 GMT', '12', 'TOR', 'Toronto', 'Maple Leafs', '29', 'ANA', 'Anaheim', 'Ducks', '8', 'Honda Center', '29', 'ANA', 'Anaheim', 'Ducks', '0', '1', '0', '0', '0', '34', '26', '56.7', '4', '0', '0.0', '2', '0', '100.0', '0', '0', '1', '3', '29', '15', '2', '4', '27']"
"['', '40972', '2017-11-03', '02:00:00 GMT', '18', 'NSH', 'Nashville', 'Predators', '29', 'ANA', 'Anaheim', 'Ducks', '8', 'Honda Center', '29', 'ANA', 'Anaheim', 'Ducks', '0', '1', '0', '0', '0', '35', '29', '54.7', '4', '1', '25.0', '4', '1', '75.0', '0', '0', '3', '5', '38', '13', '4', '8', '25']"
"['', '40985', '2017-11-04', '02:30:00 GMT', '29', 'ANA', 'Anaheim', 'Ducks', '26', 'SJS', 'San Jose', 'Sharks', '9', 'SAP Center at San Jose', '29', 'ANA', 'Anaheim', 'Ducks', '0', '0', '0', '1', '1', '28', '31', '47.5', '1', '0', '0.0', '3', '0', '100.0', '0', '0', '1', '1', '26', '17', '3', '6', '38']"
"['', '41004', '2017-11-07', '03:00:00 GMT', '28', 'LAK', 'Los Angeles', 'Kings', '29', 'ANA', 'Anaheim', 'Ducks', '8', 'Honda Center', '29', 'ANA', 'Anaheim', 'Ducks', '0', '0', '0', '1', '1', '30', '33', '47.6', '5', '0', '0.0', '7', '1', '85.7', '0', '0', '3', '4', '36', '12', '9', '21', '28']"
"['', '41013', '2017-11-09', '03:00:00 GMT', '21', 'VAN', 'Vancouver', 'Canucks', '29', 'ANA', 'Anaheim', 'Ducks', '8', 'Honda Center', '29', 'ANA', 'Anaheim', 'Ducks', '1', '0', '0', '0', '2', '32', '29', '52.5', '7', '3', '42.9', '5', '0', '100.0', '0', '0', '4', '1', '35', '12', '6', '15', '10']"
"['', '41036', '2017-11-12', '01:00:00 GMT', '1', 'TBL', 'Tampa Bay', 'Lightning', '29', 'ANA', 'Anaheim', 'Ducks', '8', 'Honda Center', '29', 'ANA', 'Anaheim', 'Ducks', '0', '1', '0', '0', '0', '37', '34', '52.1', '1', '0', '0.0', '2', '1', '50.0', '0', '0', '1', '2', '29', '19', '2', '4', '27']"
"['', '41050', '2017-11-15', '03:00:00 GMT', '11', 'BOS', 'Boston', 'Bruins', '29', 'ANA', 'Anaheim', 'Ducks', '8', 'Honda Center', '29', 'ANA', 'Anaheim', 'Ducks', '1', '0', '0', '0', '2', '29', '30', '49.2', '0', '0', '0.0', '2', '0', '100.0', '0', '0', '4', '2', '27', '12', '2', '4', '31']"
"['', '41082', '2017-11-19', '01:00:00 GMT', '4', 'FLO', 'Florida', 'Panthers', '29', 'ANA', 'Anaheim', 'Ducks', '8', 'Honda Center', '29', 'ANA', 'Anaheim', 'Ducks', '1', '0', '0', '0', '2', '32', '31', '50.8', '4', '2', '50.0', '6', '1', '83.3', '0', '0', '3', '2', '28', '18', '8', '19', '28']"
"['', '41088', '2017-11-20', '03:30:00 GMT', '29', 'ANA', 'Anaheim', 'Ducks', '26', 'SJS', 'San Jose', 'Sharks', '9', 'SAP Center at San Jose', '29', 'ANA', 'Anaheim', 'Ducks', '1', '0', '0', '0', '2', '37', '35', '51.4', '2', '0', '0.0', '3', '1', '66.7', '0', '0', '2', '2', '30', '19', '3', '6', '45']"
"['', '41105', '2017-11-22', '03:30:00 GMT', '142', 'VGK', 'Vegas', 'Golden Knights', '29', 'ANA', 'Anaheim', 'Ducks', '8', 'Honda Center', '29', 'ANA', 'Anaheim', 'Ducks', '0', '1', '0', '0', '0', '43', '28', '60.6', '4', '1', '25.0', '3', '1', '66.7', '0', '0', '2', '4', '19', '15', '4', '11', '24']"
"['', '41110', '2017-11-24', '21:00:00 GMT', '2', 'WPJ', 'Winnipeg', 'Jets', '29', 'ANA', 'Anaheim', 'Ducks', '8', 'Honda Center', '29', 'ANA', 'Anaheim', 'Ducks', '0', '1', '0', '0', '0', '27', '30', '47.4', '2', '0', '0.0', '3', '2', '33.3', '0', '0', '1', '4', '31', '12', '4', '8', '20']"
"['', '41131', '2017-11-25', '03:30:00 GMT', '29', 'ANA', 'Anaheim', 'Ducks', '28', 'LAK', 'Los Angeles', 'Kings', '25', 'Staples Center', '29', 'ANA', 'Anaheim', 'Ducks', '0', '0', '0', '1', '1', '34', '36', '48.6', '2', '0', '0.0', '5', '0', '100.0', '0', '0', '1', '1', '26', '19', '7', '23', '37']"
"['', '41139', '2017-11-27', '01:30:00 GMT', '29', 'ANA', 'Anaheim', 'Ducks', '20', 'CHI', 'Chicago', 'Blackhawks', '28', 'United Center', '29', 'ANA', 'Anaheim', 'Ducks', '0', '1', '0', '0', '0', '24', '27', '47.1', '2', '1', '50.0', '3', '2', '33.3', '0', '0', '3', '7', '29', '20', '5', '10', '26']"
"['', '41152', '2017-11-29', '02:00:00 GMT', '29', 'ANA', 'Anaheim', 'Ducks', '17', 'STL', 'St. Louis', 'Blues', '24', 'Scottrade Center', '29', 'ANA', 'Anaheim', 'Ducks', '1', '0', '0', '0', '2', '32', '31', '50.8', '6', '2', '33.3', '4', '0', '100.0', '0', '0', '3', '2', '30', '21', '4', '8', '15']"
"['', '41161', '2017-12-01', '00:00:00 GMT', '29', 'ANA', 'Anaheim', 'Ducks', '19', 'CBJ', 'Columbus', 'Blue Jackets', '17', 'Nationwide Arena', '29', 'ANA', 'Anaheim', 'Ducks', '0', '1', '0', '0', '0', '30', '33', '47.6', '4', '0', '0.0', '7', '1', '85.7', '0', '0', '2', '4', '27', '9', '9', '18', '17']"
"['', '41176', '2017-12-02', '01:00:00 GMT', '29', 'ANA', 'Anaheim', 'Ducks', '18', 'NSH', 'Nashville', 'Predators', '15', 'Bridgestone Arena', '29', 'ANA', 'Anaheim', 'Ducks', '0', '0', '0', '1', '1', '32', '35', '47.8', '2', '1', '50.0', '4', '2', '50.0', '0', '0', '2', '2', '35', '12', '7', '17', '25']"
"['', '41197', '2017-12-05', '03:00:00 GMT', '29', 'ANA', 'Anaheim', 'Ducks', '142', 'VGK', 'Vegas', 'Golden Knights', '139', 'T-Mobile Arena', '29', 'ANA', 'Anaheim', 'Ducks', '0', '0', '0', '1', '1', '28', '39', '41.8', '2', '1', '50.0', '5', '0', '100.0', '0', '0', '3', '3', '29', '18', '4', '10', '9']"
"['', '41202', '2017-12-06', '03:00:00 GMT', '13', 'OTT', 'Ottawa', 'Senators', '29', 'ANA', 'Anaheim', 'Ducks', '8', 'Honda Center', '29', 'ANA', 'Anaheim', 'Ducks', '1', '0', '0', '0', '2', '34', '30', '53.1', '2', '0', '0.0', '3', '0', '100.0', '0', '0', '3', '0', '22', '11', '4', '11', '14']"
"['', '41216', '2017-12-08', '03:00:00 GMT', '25', 'MIN', 'Minnesota', 'Wild', '29', 'ANA', 'Anaheim', 'Ducks', '8', 'Honda Center', '29', 'ANA', 'Anaheim', 'Ducks', '0', '0', '0', '1', '1', '24', '23', '51.1', '3', '0', '0.0', '2', '0', '100.0', '0', '0', '2', '3', '28', '12', '3', '6', '21']"
"['', '41238', '2017-12-11', '03:00:00 GMT', '3', 'CAR', 'Carolina', 'Hurricanes', '29', 'ANA', 'Anaheim', 'Ducks', '8', 'Honda Center', '29', 'ANA', 'Anaheim', 'Ducks', '1', '0', '0', '0', '2', '28', '31', '47.5', '2', '0', '0.0', '3', '0', '100.0', '0', '0', '3', '2', '23', '19', '3', '6', '14']"
"['', '41258', '2017-12-14', '01:00:00 GMT', '29', 'ANA', 'Anaheim', 'Ducks', '17', 'STL', 'St. Louis', 'Blues', '24', 'Scottrade Center', '29', 'ANA', 'Anaheim', 'Ducks', '1', '0', '0', '0', '2', '25', '33', '43.1', '1', '0', '0.0', '4', '0', '100.0', '0', '0', '3', '1', '18', '19', '4', '8', '22']"
"['', '41275', '2017-12-16', '01:00:00 GMT', '29', 'ANA', 'Anaheim', 'Ducks', '5', 'WSH', 'Washington', 'Capitals', '13', 'Capital One Arena', '29', 'ANA', 'Anaheim', 'Ducks', '0', '0', '0', '1', '1', '25', '24', '51.0', '1', '1', '100.0', '0', '0', '0.0', '0', '0', '2', '3', '30', '23', '1', '5', '26']"
"['', '41284', '2017-12-18', '00:00:00 GMT', '29', 'ANA', 'Anaheim', 'Ducks', '7', 'NJD', 'New Jersey', 'Devils', '37', 'Prudential Center', '29', 'ANA', 'Anaheim', 'Ducks', '0', '1', '0', '0', '0', '36', '27', '57.1', '2', '0', '0.0', '2', '1', '50.0', '0', '0', '3', '5', '24', '5', '2', '4', '12']"
"['', '41290', '2017-12-19', '00:00:00 GMT', '29', 'ANA', 'Anaheim', 'Ducks', '9', 'NYR', 'New York', 'Rangers', '12', 'Madison Square Garden', '29', 'ANA', 'Anaheim', 'Ducks', '0', '1', '0', '0', '0', '25', '25', '50.0', '2', '0', '0.0', '2', '0', '100.0', '0', '0', '1', '4', '40', '6', '2', '4', '21']"
"['', '41302', '2017-12-21', '00:00:00 GMT', '29', 'ANA', 'Anaheim', 'Ducks', '8', 'NYI', 'New York', 'Islanders', '16', 'Nassau Veterans Memorial Coliseum', '29', 'ANA', 'Anaheim', 'Ducks', '1', '0', '0', '0', '2', '41', '35', '53.9', '2', '0', '0.0', '3', '2', '33.3', '0', '0', '5', '4', '40', '17', '4', '8', '29']"
"['', '41322', '2017-12-23', '00:00:00 GMT', '29', 'ANA', 'Anaheim', 'Ducks', '10', 'PIT', 'Pittsburgh', 'Penguins', '40', 'PPG Paints Arena', '29', 'ANA', 'Anaheim', 'Ducks', '1', '0', '0', '0', '2', '21', '36', '36.8', '2', '1', '50.0', '2', '0', '100.0', '1', '0', '4', '0', '23', '13', '3', '6', '20']"
"['', '43405', '2017-12-27', '02:00:00 GMT', '142', 'VGK', 'Vegas', 'Golden Knights', '29', 'ANA', 'Anaheim', 'Ducks', '8', 'Honda Center', '29', 'ANA', 'Anaheim', 'Ducks', '0', '1', '0', '0', '0', '27', '26', '50.9', '2', '0', '0.0', '2', '0', '100.0', '0', '0', '1', '4', '28', '13', '2', '4', '26']"
"['', '41359', '2017-12-29', '03:00:00 GMT', '23', 'CGY', 'Calgary', 'Flames', '29', 'ANA', 'Anaheim', 'Ducks', '8', 'Honda Center', '29', 'ANA', 'Anaheim', 'Ducks', '1', '0', '0', '0', '2', '29', '35', '45.3', '6', '1', '16.7', '3', '0', '100.0', '0', '0', '2', '1', '41', '21', '5', '13', '15']"
"['', '41367', '2017-12-31', '21:00:00 GMT', '30', 'ARI', 'Arizona', 'Coyotes', '29', 'ANA', 'Anaheim', 'Ducks', '8', 'Honda Center', '29', 'ANA', 'Anaheim', 'Ducks', '1', '0', '0', '0', '2', '41', '19', '68.3', '1', '0', '0.0', '4', '2', '50.0', '0', '0', '5', '2', '26', '22', '4', '8', '25']"
"['', '41386', '2018-01-02', '03:00:00 GMT', '29', 'ANA', 'Anaheim', 'Ducks', '21', 'VAN', 'Vancouver', 'Canucks', '7', 'Rogers Arena', '29', 'ANA', 'Anaheim', 'Ducks', '1', '0', '0', '0', '2', '34', '35', '49.3', '2', '0', '0.0', '4', '0', '100.0', '0', '0', '5', '0', '27', '14', '5', '13', '19']"
"['', '41399', '2018-01-04', '02:00:00 GMT', '29', 'ANA', 'Anaheim', 'Ducks', '24', 'EDM', 'Edmonton', 'Oilers', '22', 'Rogers Place', '29', 'ANA', 'Anaheim', 'Ducks', '0', '0', '0', '1', '1', '27', '34', '44.3', '2', '1', '50.0', '5', '0', '100.0', '0', '0', '1', '1', '34', '17', '5', '10', '30']"
"['', '41413', '2018-01-06', '03:00:00 GMT', '29', 'ANA', 'Anaheim', 'Ducks', '23', 'CGY', 'Calgary', 'Flames', '18', 'Scotiabank Saddledome', '29', 'ANA', 'Anaheim', 'Ducks', '0', '1', '0', '0', '0', '30', '29', '50.8', '4', '0', '0.0', '3', '0', '100.0', '1', '0', '2', '3', '29', '18', '8', '24', '18']"
"['', '41451', '2018-01-13', '03:30:00 GMT', '29', 'ANA', 'Anaheim', 'Ducks', '28', 'LAK', 'Los Angeles', 'Kings', '25', 'Staples Center', '29', 'ANA', 'Anaheim', 'Ducks', '1', '0', '0', '0', '2', '23', '23', '50.0', '2', '1', '50.0', '2', '0', '100.0', '0', '0', '4', '2', '22', '19', '5', '19', '38']"
"['', '41457', '2018-01-15', '20:00:00 GMT', '29', 'ANA', 'Anaheim', 'Ducks', '22', 'COL', 'Colorado', 'Avalanche', '19', 'Pepsi Center', '29', 'ANA', 'Anaheim', 'Ducks', '0', '1', '0', '0', '0', '27', '21', '56.2', '2', '0', '0.0', '6', '1', '83.3', '0', '0', '1', '3', '34', '16', '6', '12', '24']"
"['', '41467', '2018-01-17', '03:00:00 GMT', '10', 'PIT', 'Pittsburgh', 'Penguins', '29', 'ANA', 'Anaheim', 'Ducks', '8', 'Honda Center', '29', 'ANA', 'Anaheim', 'Ducks', '1', '0', '0', '0', '2', '36', '24', '60.0', '2', '0', '0.0', '4', '2', '50.0', '1', '0', '5', '3', '33', '17', '7', '14', '16']"
"['', '41480', '2018-01-19', '03:00:00 GMT', '28', 'LAK', 'Los Angeles', 'Kings', '29', 'ANA', 'Anaheim', 'Ducks', '8', 'Honda Center', '29', 'ANA', 'Anaheim', 'Ducks', '1', '0', '0', '0', '2', '34', '21', '61.8', '2', '0', '0.0', '1', '0', '100.0', '0', '0', '2', '1', '31', '24', '1', '2', '31']"
"['', '41497', '2018-01-21', '02:00:00 GMT', '26', 'SJS', 'San Jose', 'Sharks', '29', 'ANA', 'Anaheim', 'Ducks', '8', 'Honda Center', '29', 'ANA', 'Anaheim', 'Ducks', '0', '1', '0', '0', '0', '33', '28', '54.1', '3', '1', '33.3', '5', '2', '60.0', '0', '0', '2', '6', '35', '15', '5', '10', '31']"
"['', '41514', '2018-01-23', '03:00:00 GMT', '9', 'NYR', 'New York', 'Rangers', '29', 'ANA', 'Anaheim', 'Ducks', '8', 'Honda Center', '29', 'ANA', 'Anaheim', 'Ducks', '1', '0', '0', '0', '2', '38', '25', '60.3', '6', '2', '33.3', '3', '1', '66.7', '1', '1', '6', '3', '31', '4', '3', '6', '23']"
"['', '41530', '2018-01-25', '03:00:00 GMT', '2', 'WPJ', 'Winnipeg', 'Jets', '29', 'ANA', 'Anaheim', 'Ducks', '8', 'Honda Center', '29', 'ANA', 'Anaheim', 'Ducks', '1', '0', '0', '0', '2', '33', '26', '55.9', '4', '0', '0.0', '2', '0', '100.0', '0', '0', '3', '3', '39', '9', '2', '4', '35']"
"['', '41534', '2018-01-30', '00:00:00 GMT', '29', 'ANA', 'Anaheim', 'Ducks', '11', 'BOS', 'Boston', 'Bruins', '27', 'TD Garden', '29', 'ANA', 'Anaheim', 'Ducks', '1', '0', '0', '0', '2', '33', '25', '56.9', '2', '1', '50.0', '4', '0', '100.0', '0', '0', '3', '1', '27', '16', '5', '10', '33']"
"['', '41554', '2018-02-01', '00:00:00 GMT', '29', 'ANA', 'Anaheim', 'Ducks', '13', 'OTT', 'Ottawa', 'Senators', '23', 'Canadian Tire Centre', '29', 'ANA', 'Anaheim', 'Ducks', '0', '0', '0', '1', '1', '27', '26', '50.9', '2', '0', '0.0', '4', '2', '50.0', '0', '0', '1', '2', '31', '8', '5', '10', '29']"
"['', '41566', '2018-02-03', '18:00:00 GMT', '29', 'ANA', 'Anaheim', 'Ducks', '14', 'MTL', 'Montreal', 'Canadiens', '4', 'Bell Centre', '29', 'ANA', 'Anaheim', 'Ducks', '0', '1', '0', '0', '0', '30', '23', '56.6', '4', '1', '25.0', '7', '3', '57.1', '0', '0', '2', '5', '45', '16', '8', '24', '39']"
"['', '41581', '2018-02-05', '00:00:00 GMT', '29', 'ANA', 'Anaheim', 'Ducks', '12', 'TOR', 'Toronto', 'Maple Leafs', '1', 'Air Canada Center', '29', 'ANA', 'Anaheim', 'Ducks', '0', '1', '0', '0', '0', '33', '38', '46.5', '3', '1', '33.3', '3', '1', '66.7', '0', '0', '4', '7', '44', '12', '3', '6', '26']"
"['', '41586', '2018-02-06', '00:00:00 GMT', '29', 'ANA', 'Anaheim', 'Ducks', '15', 'BUF', 'Buffalo', 'Sabres', '10', 'KeyBank Center', '29', 'ANA', 'Anaheim', 'Ducks', '1', '0', '0', '0', '2', '28', '36', '43.8', '3', '1', '33.3', '2', '1', '50.0', '0', '1', '4', '3', '33', '14', '3', '6', '16']"
"['', '41615', '2018-02-09', '03:00:00 GMT', '24', 'EDM', 'Edmonton', 'Oilers', '29', 'ANA', 'Anaheim', 'Ducks', '8', 'Honda Center', '29', 'ANA', 'Anaheim', 'Ducks', '1', '0', '0', '0', '2', '29', '27', '51.8', '2', '0', '0.0', '3', '0', '100.0', '0', '0', '3', '2', '34', '14', '4', '11', '28']"
"['', '41633', '2018-02-11', '01:00:00 GMT', '26', 'SJS', 'San Jose', 'Sharks', '29', 'ANA', 'Anaheim', 'Ducks', '8', 'Honda Center', '29', 'ANA', 'Anaheim', 'Ducks', '0', '0', '0', '1', '1', '30', '41', '42.3', '2', '0', '0.0', '1', '0', '100.0', '0', '0', '2', '2', '27', '9', '2', '7', '25']"
"['', '41643', '2018-02-13', '00:30:00 GMT', '29', 'ANA', 'Anaheim', 'Ducks', '16', 'DET', 'Detroit', 'Red Wings', '145', 'Little Caesars Arena', '29', 'ANA', 'Anaheim', 'Ducks', '0', '1', '0', '0', '0', '33', '18', '64.7', '4', '0', '0.0', '2', '0', '100.0', '0', '0', '1', '2', '33', '14', '2', '4', '26']"
"['', '41659', '2018-02-15', '01:30:00 GMT', '29', 'ANA', 'Anaheim', 'Ducks', '20', 'CHI', 'Chicago', 'Blackhawks', '28', 'United Center', '29', 'ANA', 'Anaheim', 'Ducks', '1', '0', '0', '0', '2', '25', '33', '43.1', '2', '0', '0.0', '5', '1', '80.0', '0', '0', '3', '2', '32', '29', '6', '12', '24']"
"['', '41668', '2018-02-17', '19:00:00 GMT', '29', 'ANA', 'Anaheim', 'Ducks', '25', 'MIN', 'Minnesota', 'Wild', '30', 'Xcel Energy Center', '29', 'ANA', 'Anaheim', 'Ducks', '1', '0', '0', '0', '2', '23', '33', '41.1', '3', '1', '33.3', '3', '0', '100.0', '0', '0', '2', '2', '31', '14', '4', '11', '16']"
"['', '41689', '2018-02-19', '03:00:00 GMT', '29', 'ANA', 'Anaheim', 'Ducks', '142', 'VGK', 'Vegas', 'Golden Knights', '139', 'T-Mobile Arena', '29', 'ANA', 'Anaheim', 'Ducks', '1', '0', '0', '0', '2', '32', '32', '50.0', '0', '0', '0.0', '2', '0', '100.0', '0', '0', '2', '0', '20', '25', '3', '6', '28']"
"['', '41700', '2018-02-21', '03:00:00 GMT', '27', 'DAL', 'Dallas', 'Stars', '29', 'ANA', 'Anaheim', 'Ducks', '8', 'Honda Center', '29', 'ANA', 'Anaheim', 'Ducks', '1', '0', '0', '0', '2', '27', '30', '47.4', '3', '1', '33.3', '4', '0', '100.0', '1', '0', '2', '0', '17', '13', '6', '15', '28']"
"['', '41728', '2018-02-24', '01:00:00 GMT', '29', 'ANA', 'Anaheim', 'Ducks', '30', 'ARI', 'Arizona', 'Coyotes', '6', 'Gila River Arena', '29', 'ANA', 'Anaheim', 'Ducks', '0', '1', '0', '0', '0', '32', '18', '64.0', '2', '0', '0.0', '4', '0', '100.0', '0', '0', '0', '2', '26', '14', '4', '8', '24']"
"['', '41733', '2018-02-25', '01:00:00 GMT', '24', 'EDM', 'Edmonton', 'Oilers', '29', 'ANA', 'Anaheim', 'Ducks', '8', 'Honda Center', '29', 'ANA', 'Anaheim', 'Ducks', '0', '0', '0', '1', '1', '32', '35', '47.8', '3', '1', '33.3', '2', '0', '100.0', '0', '0', '5', '5', '46', '12', '2', '4', '26']"
"['', '41770', '2018-03-02', '03:00:00 GMT', '19', 'CBJ', 'Columbus', 'Blue Jackets', '29', 'ANA', 'Anaheim', 'Ducks', '8', 'Honda Center', '29', 'ANA', 'Anaheim', 'Ducks', '1', '0', '0', '0', '2', '36', '27', '57.1', '2', '0', '0.0', '4', '0', '100.0', '1', '0', '4', '2', '35', '9', '6', '12', '19']"
"['', '41782', '2018-03-04', '21:00:00 GMT', '20', 'CHI', 'Chicago', 'Blackhawks', '29', 'ANA', 'Anaheim', 'Ducks', '8', 'Honda Center', '29', 'ANA', 'Anaheim', 'Ducks', '1', '0', '0', '0', '2', '24', '30', '44.4', '2', '1', '50.0', '2', '0', '100.0', '0', '0', '6', '3', '31', '17', '3', '9', '25']"
"['', '41800', '2018-03-06', '03:00:00 GMT', '5', 'WSH', 'Washington', 'Capitals', '29', 'ANA', 'Anaheim', 'Ducks', '8', 'Honda Center', '29', 'ANA', 'Anaheim', 'Ducks', '1', '0', '0', '0', '2', '24', '29', '45.3', '1', '1', '100.0', '3', '0', '100.0', '0', '0', '4', '0', '18', '23', '4', '8', '23']"
"['', '41811', '2018-03-08', '01:00:00 GMT', '29', 'ANA', 'Anaheim', 'Ducks', '18', 'NSH', 'Nashville', 'Predators', '15', 'Bridgestone Arena', '29', 'ANA', 'Anaheim', 'Ducks', '0', '1', '0', '0', '0', '22', '30', '42.3', '2', '0', '0.0', '1', '0', '100.0', '0', '1', '2', '4', '33', '7', '2', '7', '22']"
"['', '41818', '2018-03-09', '01:30:00 GMT', '29', 'ANA', 'Anaheim', 'Ducks', '27', 'DAL', 'Dallas', 'Stars', '2', 'American Airlines Center', '29', 'ANA', 'Anaheim', 'Ducks', '0', '1', '0', '0', '0', '27', '27', '50.0', '3', '0', '0.0', '2', '2', '0.0', '0', '0', '1', '2', '27', '23', '2', '4', '17']"
"['', '41840', '2018-03-12', '02:00:00 GMT', '17', 'STL', 'St. Louis', 'Blues', '29', 'ANA', 'Anaheim', 'Ducks', '8', 'Honda Center', '29', 'ANA', 'Anaheim', 'Ducks', '0', '1', '0', '0', '0', '20', '21', '48.8', '1', '0', '0.0', '1', '0', '100.0', '0', '0', '2', '4', '22', '11', '1', '2', '24']"
"['', '41853', '2018-03-14', '02:00:00 GMT', '21', 'VAN', 'Vancouver', 'Canucks', '29', 'ANA', 'Anaheim', 'Ducks', '8', 'Honda Center', '29', 'ANA', 'Anaheim', 'Ducks', '1', '0', '0', '0', '2', '29', '26', '52.7', '6', '1', '16.7', '2', '0', '100.0', '0', '0', '3', '0', '37', '11', '2', '4', '33']"
"['', '41868', '2018-03-16', '02:00:00 GMT', '16', 'DET', 'Detroit', 'Red Wings', '29', 'ANA', 'Anaheim', 'Ducks', '8', 'Honda Center', '29', 'ANA', 'Anaheim', 'Ducks', '1', '0', '0', '0', '2', '35', '27', '56.5', '2', '0', '0.0', '5', '0', '100.0', '0', '0', '4', '2', '36', '13', '8', '25', '13']"
"['', '41887', '2018-03-18', '01:00:00 GMT', '7', 'NJD', 'New Jersey', 'Devils', '29', 'ANA', 'Anaheim', 'Ducks', '8', 'Honda Center', '29', 'ANA', 'Anaheim', 'Ducks', '1', '0', '0', '0', '2', '33', '23', '58.9', '2', '1', '50.0', '4', '1', '75.0', '0', '0', '4', '2', '36', '13', '6', '12', '26']"
"['', '41907', '2018-03-21', '01:30:00 GMT', '29', 'ANA', 'Anaheim', 'Ducks', '23', 'CGY', 'Calgary', 'Flames', '18', 'Scotiabank Saddledome', '29', 'ANA', 'Anaheim', 'Ducks', '1', '0', '0', '0', '2', '28', '24', '53.8', '1', '0', '0.0', '2', '0', '100.0', '1', '0', '4', '0', '16', '13', '4', '8', '14']"
"['', '41920', '2018-03-23', '00:00:00 GMT', '29', 'ANA', 'Anaheim', 'Ducks', '2', 'WPJ', 'Winnipeg', 'Jets', '39', 'Bell MTS Place', '29', 'ANA', 'Anaheim', 'Ducks', '0', '0', '0', '1', '1', '23', '39', '37.1', '2', '1', '50.0', '2', '0', '100.0', '0', '0', '2', '3', '18', '24', '2', '4', '18']"
"['', '41939', '2018-03-25', '01:30:00 GMT', '29', 'ANA', 'Anaheim', 'Ducks', '24', 'EDM', 'Edmonton', 'Oilers', '22', 'Rogers Place', '29', 'ANA', 'Anaheim', 'Ducks', '1', '0', '0', '0', '2', '30', '27', '52.6', '2', '0', '0.0', '4', '1', '75.0', '0', '0', '5', '4', '38', '8', '4', '8', '24']"
"['', '41957', '2018-03-27', '02:00:00 GMT', '29', 'ANA', 'Anaheim', 'Ducks', '21', 'VAN', 'Vancouver', 'Canucks', '7', 'Rogers Arena', '29', 'ANA', 'Anaheim', 'Ducks', '0', '1', '0', '0', '0', '27', '24', '52.9', '2', '0', '0.0', '1', '0', '100.0', '0', '0', '1', '4', '24', '8', '1', '2', '20']"
"['', '41976', '2018-03-30', '02:00:00 GMT', '28', 'LAK', 'Los Angeles', 'Kings', '29', 'ANA', 'Anaheim', 'Ducks', '8', 'Honda Center', '29', 'ANA', 'Anaheim', 'Ducks', '1', '0', '0', '0', '2', '32', '20', '61.5', '1', '0', '0.0', '0', '0', '0.0', '0', '0', '2', '1', '33', '12', '0', '0', '29']"
"['', '41994', '2018-04-01', '01:00:00 GMT', '22', 'COL', 'Colorado', 'Avalanche', '29', 'ANA', 'Anaheim', 'Ducks', '8', 'Honda Center', '29', 'ANA', 'Anaheim', 'Ducks', '1', '0', '0', '0', '2', '47', '29', '61.8', '2', '0', '0.0', '4', '1', '75.0', '0', '0', '4', '3', '42', '15', '6', '12', '28']"
"['', '42012', '2018-04-04', '02:00:00 GMT', '25', 'MIN', 'Minnesota', 'Wild', '29', 'ANA', 'Anaheim', 'Ducks', '8', 'Honda Center', '29', 'ANA', 'Anaheim', 'Ducks', '1', '0', '0', '0', '2', '26', '27', '49.1', '3', '0', '0.0', '3', '1', '66.7', '0', '0', '3', '1', '30', '14', '3', '6', '23']"
"['', '42028', '2018-04-06', '02:00:00 GMT', '27', 'DAL', 'Dallas', 'Stars', '29', 'ANA', 'Anaheim', 'Ducks', '8', 'Honda Center', '29', 'ANA', 'Anaheim', 'Ducks', '1', '0', '0', '0', '2', '25', '28', '47.2', '5', '1', '20.0', '1', '0', '100.0', '0', '0', '5', '3', '33', '13', '1', '2', '14']"
"['', '42038', '2018-04-07', '01:00:00 GMT', '29', 'ANA', 'Anaheim', 'Ducks', '30', 'ARI', 'Arizona', 'Coyotes', '6', 'Gila River Arena', '29', 'ANA', 'Anaheim', 'Ducks', '1', '0', '0', '0', '2', '30', '27', '52.6', '3', '1', '33.3', '4', '0', '100.0', '0', '0', '3', '0', '27', '17', '6', '15', '14']"
