"['#Date/Time of Update: 2018-12-10 19:03:17 GMT', '#Game ID', '#Game Date', '#Game Time', '#Away Team ID', '#Away Team Abbr.', '#Away Team City', '#Away Team Name', '#Home Team ID', '#Home Team Abbr.', '#Home Team City', '#Home Team Name', '#Venue ID', '#Venue Name', '#Team ID', '#Team Abbr.', '#Team City', '#Team Name', '#Wins', '#Losses', '#OvertimeWins', '#OvertimeLosses', '#ShootoutWins', '#ShootoutLosses', '#Rows', '#Points', '#FaceoffWins', '#FaceoffLosses', '#FaceoffPercent', '#Powerplays', '#PowerplayGoals', '#PowerplayPercent', '#PenaltyKills', '#PenaltyKillGoalsAllowed', '#PenaltyKillPercent', '#ShorthandedGoalsFor', '#ShorthandedGoalsAgainst', '#GoalsFor', '#GoalsAgainst', '#Shots', '#Penalties', '#PenaltyMinutes', '#Hits']"
"['', '29024', '2015-10-08', '23:00:00 GMT', '13', 'OTT', 'Ottawa', 'Senators', '15', 'BUF', 'Buffalo', 'Sabres', '10', 'First Niagara Center', '13', 'OTT', 'Ottawa', 'Senators', '1', '0', '0', '0', '0', '0', '1', '2', '42', '30', '58.3', '0', '0', '0.0', '3', '1', '66.7', '0', '0', '3', '1', '22', '3', '6', '22']"
"['', '29041', '2015-10-10', '23:00:00 GMT', '13', 'OTT', 'Ottawa', 'Senators', '12', 'TOR', 'Toronto', 'Maple Leafs', '1', 'Air Canada Center', '13', 'OTT', 'Ottawa', 'Senators', '1', '0', '0', '0', '0', '0', '0', '2', '34', '35', '49.3', '5', '3', '60.0', '4', '1', '75.0', '0', '0', '4', '4', '33', '5', '10', '32']"
"['', '29049', '2015-10-11', '23:00:00 GMT', '14', 'MTL', 'Montreal', 'Canadiens', '13', 'OTT', 'Ottawa', 'Senators', '23', 'Canadian Tire Centre', '13', 'OTT', 'Ottawa', 'Senators', '0', '1', '0', '0', '0', '0', '0', '0', '42', '28', '60.0', '2', '0', '0.0', '6', '0', '100.0', '1', '0', '1', '3', '21', '9', '18', '32']"
"['', '29064', '2015-10-14', '23:00:00 GMT', '13', 'OTT', 'Ottawa', 'Senators', '19', 'CBJ', 'Columbus', 'Blue Jackets', '17', 'Nationwide Arena', '13', 'OTT', 'Ottawa', 'Senators', '1', '0', '0', '0', '0', '0', '1', '2', '30', '40', '42.9', '3', '1', '33.3', '3', '1', '66.7', '0', '0', '7', '3', '27', '6', '15', '11']"
"['', '29069', '2015-10-15', '23:00:00 GMT', '13', 'OTT', 'Ottawa', 'Senators', '10', 'PIT', 'Pittsburgh', 'Penguins', '40', 'Consol Energy Center', '13', 'OTT', 'Ottawa', 'Senators', '0', '1', '0', '0', '0', '0', '0', '0', '33', '30', '52.4', '3', '0', '0.0', '2', '0', '100.0', '0', '0', '0', '2', '22', '4', '11', '29']"
"['', '29084', '2015-10-17', '23:00:00 GMT', '18', 'NSH', 'Nashville', 'Predators', '13', 'OTT', 'Ottawa', 'Senators', '23', 'Canadian Tire Centre', '13', 'OTT', 'Ottawa', 'Senators', '0', '0', '0', '1', '0', '0', '0', '1', '40', '33', '54.8', '2', '0', '0.0', '6', '2', '66.7', '0', '0', '3', '3', '41', '11', '28', '35']"
"['', '29112', '2015-10-22', '23:30:00 GMT', '7', 'NJD', 'New Jersey', 'Devils', '13', 'OTT', 'Ottawa', 'Senators', '23', 'Canadian Tire Centre', '13', 'OTT', 'Ottawa', 'Senators', '0', '0', '0', '1', '0', '0', '0', '1', '25', '27', '48.1', '4', '1', '25.0', '4', '2', '50.0', '1', '0', '4', '4', '39', '6', '15', '20']"
"['', '29127', '2015-10-24', '23:00:00 GMT', '30', 'ARI', 'Arizona', 'Coyotes', '13', 'OTT', 'Ottawa', 'Senators', '23', 'Canadian Tire Centre', '13', 'OTT', 'Ottawa', 'Senators', '0', '1', '0', '0', '0', '0', '0', '0', '31', '30', '50.8', '3', '0', '0.0', '1', '0', '100.0', '0', '0', '1', '4', '36', '2', '4', '33']"
"['', '29152', '2015-10-28', '23:30:00 GMT', '23', 'CGY', 'Calgary', 'Flames', '13', 'OTT', 'Ottawa', 'Senators', '23', 'Canadian Tire Centre', '13', 'OTT', 'Ottawa', 'Senators', '1', '0', '0', '0', '0', '0', '0', '2', '42', '31', '57.5', '3', '0', '0.0', '4', '1', '75.0', '0', '0', '4', '4', '23', '4', '8', '16']"
"['', '29167', '2015-10-30', '23:30:00 GMT', '13', 'OTT', 'Ottawa', 'Senators', '16', 'DET', 'Detroit', 'Red Wings', '11', 'Joe Louis Arena', '13', 'OTT', 'Ottawa', 'Senators', '1', '0', '0', '0', '0', '0', '1', '2', '25', '32', '43.9', '4', '0', '0.0', '5', '1', '80.0', '0', '0', '3', '1', '35', '5', '10', '20']"
"['', '29176', '2015-10-31', '23:00:00 GMT', '16', 'DET', 'Detroit', 'Red Wings', '13', 'OTT', 'Ottawa', 'Senators', '23', 'Canadian Tire Centre', '13', 'OTT', 'Ottawa', 'Senators', '0', '1', '0', '0', '0', '0', '0', '0', '35', '36', '49.3', '3', '0', '0.0', '3', '2', '33.3', '0', '0', '3', '5', '36', '7', '30', '26']"
"['', '29193', '2015-11-03', '00:30:00 GMT', '13', 'OTT', 'Ottawa', 'Senators', '14', 'MTL', 'Montreal', 'Canadiens', '4', 'Bell Centre', '13', 'OTT', 'Ottawa', 'Senators', '1', '0', '0', '0', '0', '0', '1', '2', '19', '39', '32.8', '1', '0', '0.0', '3', '1', '66.7', '1', '0', '2', '1', '27', '3', '6', '38']"
"['', '29206', '2015-11-05', '00:30:00 GMT', '2', 'WPJ', 'Winnipeg', 'Jets', '13', 'OTT', 'Ottawa', 'Senators', '23', 'Canadian Tire Centre', '13', 'OTT', 'Ottawa', 'Senators', '1', '0', '0', '0', '0', '0', '0', '2', '41', '27', '60.3', '3', '0', '0.0', '1', '0', '100.0', '0', '0', '2', '2', '31', '2', '4', '23']"
"['', '29222', '2015-11-07', '00:00:00 GMT', '13', 'OTT', 'Ottawa', 'Senators', '3', 'CAR', 'Carolina', 'Hurricanes', '21', 'RBC Center', '13', 'OTT', 'Ottawa', 'Senators', '0', '0', '0', '1', '0', '0', '0', '1', '24', '41', '36.9', '2', '1', '50.0', '3', '1', '66.7', '0', '0', '2', '3', '21', '3', '6', '21']"
"['', '29241', '2015-11-10', '01:00:00 GMT', '13', 'OTT', 'Ottawa', 'Senators', '18', 'NSH', 'Nashville', 'Predators', '15', 'Bridgestone Arena', '13', 'OTT', 'Ottawa', 'Senators', '0', '1', '0', '0', '0', '0', '0', '0', '34', '44', '43.6', '3', '2', '66.7', '3', '1', '66.7', '1', '0', '5', '7', '26', '3', '6', '13']"
"['', '29252', '2015-11-12', '00:30:00 GMT', '21', 'VAN', 'Vancouver', 'Canucks', '13', 'OTT', 'Ottawa', 'Senators', '23', 'Canadian Tire Centre', '13', 'OTT', 'Ottawa', 'Senators', '1', '0', '0', '0', '0', '0', '1', '2', '22', '30', '42.3', '4', '2', '50.0', '3', '1', '66.7', '0', '0', '3', '2', '25', '3', '6', '25']"
"['', '29264', '2015-11-14', '18:00:00 GMT', '9', 'NYR', 'New York', 'Rangers', '13', 'OTT', 'Ottawa', 'Senators', '23', 'Canadian Tire Centre', '13', 'OTT', 'Ottawa', 'Senators', '0', '0', '0', '1', '0', '0', '0', '1', '29', '24', '54.7', '3', '1', '33.3', '2', '1', '50.0', '0', '0', '1', '1', '23', '4', '11', '27']"
"['', '29282', '2015-11-16', '00:30:00 GMT', '16', 'DET', 'Detroit', 'Red Wings', '13', 'OTT', 'Ottawa', 'Senators', '23', 'Canadian Tire Centre', '13', 'OTT', 'Ottawa', 'Senators', '0', '0', '0', '1', '0', '0', '0', '1', '40', '26', '60.6', '2', '1', '50.0', '1', '0', '100.0', '0', '0', '3', '4', '25', '2', '4', '14']"
"['', '29301', '2015-11-19', '00:30:00 GMT', '19', 'CBJ', 'Columbus', 'Blue Jackets', '13', 'OTT', 'Ottawa', 'Senators', '23', 'Canadian Tire Centre', '13', 'OTT', 'Ottawa', 'Senators', '1', '0', '0', '0', '0', '0', '1', '2', '36', '29', '55.4', '4', '1', '25.0', '3', '0', '100.0', '0', '0', '3', '0', '28', '7', '17', '34']"
"['', '29312', '2015-11-21', '00:00:00 GMT', '6', 'PHI', 'Philadelphia', 'Flyers', '13', 'OTT', 'Ottawa', 'Senators', '23', 'Canadian Tire Centre', '13', 'OTT', 'Ottawa', 'Senators', '1', '0', '0', '0', '0', '0', '1', '2', '38', '25', '60.3', '3', '0', '0.0', '4', '0', '100.0', '0', '0', '4', '0', '31', '9', '35', '25']"
"['', '29333', '2015-11-24', '01:30:00 GMT', '13', 'OTT', 'Ottawa', 'Senators', '27', 'DAL', 'Dallas', 'Stars', '2', 'American Airlines Center', '13', 'OTT', 'Ottawa', 'Senators', '1', '0', '0', '0', '0', '0', '1', '2', '33', '32', '50.8', '3', '1', '33.3', '2', '0', '100.0', '1', '1', '7', '4', '20', '2', '4', '10']"
"['', '29346', '2015-11-25', '02:30:00 GMT', '13', 'OTT', 'Ottawa', 'Senators', '22', 'COL', 'Colorado', 'Avalanche', '19', 'Pepsi Center', '13', 'OTT', 'Ottawa', 'Senators', '1', '0', '0', '0', '0', '0', '1', '2', '32', '28', '53.3', '1', '0', '0.0', '5', '1', '80.0', '1', '0', '5', '3', '29', '8', '27', '18']"
"['', '29369', '2015-11-28', '03:00:00 GMT', '13', 'OTT', 'Ottawa', 'Senators', '30', 'ARI', 'Arizona', 'Coyotes', '6', 'Gila River Arena', '13', 'OTT', 'Ottawa', 'Senators', '0', '1', '0', '0', '0', '0', '0', '0', '30', '34', '46.9', '3', '1', '33.3', '2', '0', '100.0', '0', '0', '3', '4', '38', '2', '4', '29']"
"['', '29379', '2015-12-01', '00:30:00 GMT', '6', 'PHI', 'Philadelphia', 'Flyers', '13', 'OTT', 'Ottawa', 'Senators', '23', 'Canadian Tire Centre', '13', 'OTT', 'Ottawa', 'Senators', '0', '1', '0', '0', '0', '0', '0', '0', '36', '26', '58.1', '2', '0', '0.0', '3', '0', '100.0', '0', '0', '2', '4', '25', '4', '8', '25']"
"['', '29394', '2015-12-03', '00:30:00 GMT', '20', 'CHI', 'Chicago', 'Blackhawks', '13', 'OTT', 'Ottawa', 'Senators', '23', 'Canadian Tire Centre', '13', 'OTT', 'Ottawa', 'Senators', '1', '0', '0', '0', '0', '0', '1', '2', '32', '24', '57.1', '3', '2', '66.7', '3', '1', '66.7', '0', '0', '4', '3', '27', '4', '8', '33']"
"['', '29408', '2015-12-05', '00:00:00 GMT', '8', 'NYI', 'New York', 'Islanders', '13', 'OTT', 'Ottawa', 'Senators', '23', 'Canadian Tire Centre', '13', 'OTT', 'Ottawa', 'Senators', '1', '0', '0', '0', '0', '0', '1', '2', '38', '24', '61.3', '3', '0', '0.0', '1', '1', '0.0', '0', '0', '3', '2', '29', '1', '2', '28']"
"['', '29419', '2015-12-06', '00:00:00 GMT', '13', 'OTT', 'Ottawa', 'Senators', '9', 'NYR', 'New York', 'Rangers', '12', 'Madison Square Garden', '13', 'OTT', 'Ottawa', 'Senators', '0', '1', '0', '0', '0', '0', '0', '0', '20', '35', '36.4', '2', '0', '0.0', '2', '2', '0.0', '0', '0', '1', '4', '24', '2', '4', '30']"
"['', '29430', '2015-12-08', '00:30:00 GMT', '13', 'OTT', 'Ottawa', 'Senators', '4', 'FLO', 'Florida', 'Panthers', '3', 'BB&T Center', '13', 'OTT', 'Ottawa', 'Senators', '1', '0', '0', '0', '0', '0', '1', '2', '29', '25', '53.7', '4', '2', '50.0', '4', '0', '100.0', '1', '0', '4', '2', '23', '4', '8', '30']"
"['', '29440', '2015-12-10', '00:30:00 GMT', '13', 'OTT', 'Ottawa', 'Senators', '1', 'TBL', 'Tampa Bay', 'Lightning', '26', 'Amalie Arena', '13', 'OTT', 'Ottawa', 'Senators', '0', '1', '0', '0', '0', '0', '0', '0', '30', '27', '52.6', '3', '0', '0.0', '2', '1', '50.0', '0', '0', '1', '4', '31', '4', '8', '22']"
"['', '29455', '2015-12-12', '00:00:00 GMT', '13', 'OTT', 'Ottawa', 'Senators', '14', 'MTL', 'Montreal', 'Canadiens', '4', 'Bell Centre', '13', 'OTT', 'Ottawa', 'Senators', '0', '1', '0', '0', '0', '0', '0', '0', '31', '36', '46.3', '2', '0', '0.0', '3', '0', '100.0', '0', '0', '1', '3', '26', '4', '8', '56']"
"['', '29469', '2015-12-14', '00:30:00 GMT', '28', 'LAK', 'Los Angeles', 'Kings', '13', 'OTT', 'Ottawa', 'Senators', '23', 'Canadian Tire Centre', '13', 'OTT', 'Ottawa', 'Senators', '1', '0', '0', '0', '0', '0', '1', '2', '30', '36', '45.5', '3', '0', '0.0', '3', '1', '66.7', '0', '0', '5', '3', '21', '3', '6', '37']"
"['', '29482', '2015-12-16', '00:00:00 GMT', '13', 'OTT', 'Ottawa', 'Senators', '5', 'WSH', 'Washington', 'Capitals', '13', 'Verizon Center', '13', 'OTT', 'Ottawa', 'Senators', '0', '1', '0', '0', '0', '0', '0', '0', '26', '26', '50.0', '2', '1', '50.0', '1', '0', '100.0', '0', '0', '1', '2', '27', '3', '6', '25']"
"['', '29498', '2015-12-18', '00:30:00 GMT', '26', 'SJS', 'San Jose', 'Sharks', '13', 'OTT', 'Ottawa', 'Senators', '23', 'Canadian Tire Centre', '13', 'OTT', 'Ottawa', 'Senators', '1', '0', '0', '0', '0', '0', '1', '2', '33', '33', '50.0', '3', '0', '0.0', '4', '1', '75.0', '0', '0', '4', '2', '35', '4', '8', '35']"
"['', '29513', '2015-12-20', '22:00:00 GMT', '13', 'OTT', 'Ottawa', 'Senators', '1', 'TBL', 'Tampa Bay', 'Lightning', '26', 'Amalie Arena', '13', 'OTT', 'Ottawa', 'Senators', '0', '1', '0', '0', '0', '0', '0', '0', '31', '26', '54.4', '6', '0', '0.0', '1', '2', '1.0', '1', '0', '2', '5', '25', '4', '22', '25']"
"['', '29529', '2015-12-22', '00:30:00 GMT', '13', 'OTT', 'Ottawa', 'Senators', '4', 'FLO', 'Florida', 'Panthers', '3', 'BB&T Center', '13', 'OTT', 'Ottawa', 'Senators', '0', '0', '0', '1', '0', '0', '0', '1', '32', '30', '51.6', '2', '1', '50.0', '5', '0', '100.0', '0', '0', '1', '1', '16', '5', '10', '34']"
"['', '29544', '2015-12-27', '22:00:00 GMT', '11', 'BOS', 'Boston', 'Bruins', '13', 'OTT', 'Ottawa', 'Senators', '23', 'Canadian Tire Centre', '13', 'OTT', 'Ottawa', 'Senators', '1', '0', '0', '0', '0', '0', '1', '2', '20', '33', '37.7', '2', '1', '50.0', '2', '0', '100.0', '0', '0', '3', '1', '22', '3', '9', '47']"
"['', '29559', '2015-12-29', '00:00:00 GMT', '13', 'OTT', 'Ottawa', 'Senators', '11', 'BOS', 'Boston', 'Bruins', '27', 'TD Garden', '13', 'OTT', 'Ottawa', 'Senators', '0', '1', '0', '0', '0', '0', '0', '0', '32', '36', '47.1', '4', '0', '0.0', '7', '4', '42.9', '0', '0', '3', '7', '32', '14', '58', '36']"
"['', '29571', '2015-12-30', '00:30:00 GMT', '7', 'NJD', 'New Jersey', 'Devils', '13', 'OTT', 'Ottawa', 'Senators', '23', 'Canadian Tire Centre', '13', 'OTT', 'Ottawa', 'Senators', '0', '1', '0', '0', '0', '0', '0', '0', '23', '16', '59.0', '4', '0', '0.0', '4', '1', '75.0', '0', '1', '0', '3', '36', '5', '13', '29']"
"['', '29599', '2016-01-03', '00:00:00 GMT', '13', 'OTT', 'Ottawa', 'Senators', '20', 'CHI', 'Chicago', 'Blackhawks', '28', 'United Center', '13', 'OTT', 'Ottawa', 'Senators', '0', '1', '0', '0', '0', '0', '0', '0', '25', '24', '51.0', '2', '0', '0.0', '1', '0', '100.0', '0', '0', '0', '3', '26', '1', '2', '60']"
"['', '29602', '2016-01-04', '01:00:00 GMT', '13', 'OTT', 'Ottawa', 'Senators', '17', 'STL', 'St. Louis', 'Blues', '24', 'Scottrade Center', '13', 'OTT', 'Ottawa', 'Senators', '1', '0', '0', '0', '0', '0', '1', '2', '30', '42', '41.7', '3', '2', '66.7', '3', '1', '66.7', '0', '0', '3', '2', '32', '4', '11', '25']"
"['', '29620', '2016-01-07', '00:30:00 GMT', '4', 'FLO', 'Florida', 'Panthers', '13', 'OTT', 'Ottawa', 'Senators', '23', 'Canadian Tire Centre', '13', 'OTT', 'Ottawa', 'Senators', '0', '1', '0', '0', '0', '0', '0', '0', '35', '19', '64.8', '4', '0', '0.0', '4', '0', '100.0', '0', '0', '2', '3', '32', '4', '8', '30']"
"['', '29635', '2016-01-09', '00:00:00 GMT', '11', 'BOS', 'Boston', 'Bruins', '13', 'OTT', 'Ottawa', 'Senators', '23', 'Canadian Tire Centre', '13', 'OTT', 'Ottawa', 'Senators', '1', '0', '0', '0', '0', '0', '1', '2', '35', '30', '53.8', '2', '0', '0.0', '1', '0', '100.0', '0', '0', '2', '1', '40', '2', '4', '36']"
"['', '29643', '2016-01-10', '00:00:00 GMT', '13', 'OTT', 'Ottawa', 'Senators', '5', 'WSH', 'Washington', 'Capitals', '13', 'Verizon Center', '13', 'OTT', 'Ottawa', 'Senators', '0', '1', '0', '0', '0', '0', '0', '0', '33', '38', '46.5', '4', '0', '0.0', '3', '2', '33.3', '0', '0', '1', '7', '33', '4', '8', '11']"
"['', '29663', '2016-01-13', '03:00:00 GMT', '13', 'OTT', 'Ottawa', 'Senators', '29', 'ANA', 'Anaheim', 'Ducks', '8', 'Honda Center', '13', 'OTT', 'Ottawa', 'Senators', '0', '1', '0', '0', '0', '0', '0', '0', '19', '38', '33.3', '2', '0', '0.0', '3', '1', '66.7', '0', '0', '1', '4', '25', '5', '16', '23']"
"['', '29679', '2016-01-16', '21:00:00 GMT', '13', 'OTT', 'Ottawa', 'Senators', '28', 'LAK', 'Los Angeles', 'Kings', '25', 'Staples Center', '13', 'OTT', 'Ottawa', 'Senators', '1', '0', '0', '0', '0', '0', '1', '2', '25', '36', '41.0', '4', '1', '25.0', '3', '1', '66.7', '0', '0', '5', '3', '23', '3', '6', '25']"
"['', '29699', '2016-01-18', '03:30:00 GMT', '13', 'OTT', 'Ottawa', 'Senators', '26', 'SJS', 'San Jose', 'Sharks', '9', 'SAP Center at San Jose', '13', 'OTT', 'Ottawa', 'Senators', '1', '0', '0', '0', '0', '0', '0', '2', '24', '31', '43.6', '1', '1', '100.0', '2', '0', '100.0', '0', '0', '3', '3', '17', '2', '4', '26']"
"['', '29712', '2016-01-21', '00:00:00 GMT', '13', 'OTT', 'Ottawa', 'Senators', '7', 'NJD', 'New Jersey', 'Devils', '37', 'Prudential Center', '13', 'OTT', 'Ottawa', 'Senators', '0', '1', '0', '0', '0', '0', '0', '0', '38', '28', '57.6', '4', '1', '25.0', '2', '2', '0.0', '0', '0', '3', '6', '32', '2', '4', '33']"
"['', '29724', '2016-01-22', '00:30:00 GMT', '8', 'NYI', 'New York', 'Islanders', '13', 'OTT', 'Ottawa', 'Senators', '23', 'Canadian Tire Centre', '13', 'OTT', 'Ottawa', 'Senators', '0', '1', '0', '0', '0', '0', '0', '0', '28', '30', '48.3', '2', '0', '0.0', '4', '1', '75.0', '0', '0', '2', '5', '30', '5', '13', '27']"
"['', '29739', '2016-01-24', '20:00:00 GMT', '9', 'NYR', 'New York', 'Rangers', '13', 'OTT', 'Ottawa', 'Senators', '23', 'Canadian Tire Centre', '13', 'OTT', 'Ottawa', 'Senators', '1', '0', '0', '0', '0', '0', '1', '2', '21', '31', '40.4', '2', '0', '0.0', '3', '0', '100.0', '1', '0', '3', '0', '33', '3', '6', '20']"
"['', '29753', '2016-01-26', '00:30:00 GMT', '15', 'BUF', 'Buffalo', 'Sabres', '13', 'OTT', 'Ottawa', 'Senators', '23', 'Canadian Tire Centre', '13', 'OTT', 'Ottawa', 'Senators', '0', '1', '0', '0', '0', '0', '0', '0', '36', '27', '57.1', '2', '0', '0.0', '2', '1', '50.0', '0', '0', '2', '3', '36', '4', '11', '28']"
"['', '29766', '2016-02-02', '00:00:00 GMT', '13', 'OTT', 'Ottawa', 'Senators', '10', 'PIT', 'Pittsburgh', 'Penguins', '40', 'Consol Energy Center', '13', 'OTT', 'Ottawa', 'Senators', '0', '1', '0', '0', '0', '0', '0', '0', '43', '31', '58.1', '1', '0', '0.0', '6', '2', '66.7', '0', '0', '5', '6', '23', '6', '14', '31']"
"['', '29781', '2016-02-04', '00:30:00 GMT', '24', 'EDM', 'Edmonton', 'Oilers', '13', 'OTT', 'Ottawa', 'Senators', '23', 'Canadian Tire Centre', '13', 'OTT', 'Ottawa', 'Senators', '0', '1', '0', '0', '0', '0', '0', '0', '43', '29', '59.7', '4', '1', '25.0', '3', '3', '0.0', '0', '0', '2', '7', '38', '6', '21', '34']"
"['', '29798', '2016-02-06', '00:00:00 GMT', '12', 'TOR', 'Toronto', 'Maple Leafs', '13', 'OTT', 'Ottawa', 'Senators', '23', 'Canadian Tire Centre', '13', 'OTT', 'Ottawa', 'Senators', '1', '0', '0', '0', '0', '0', '1', '2', '27', '28', '49.1', '3', '0', '0.0', '4', '0', '100.0', '0', '0', '6', '1', '25', '6', '12', '43']"
"['', '29810', '2016-02-08', '00:30:00 GMT', '1', 'TBL', 'Tampa Bay', 'Lightning', '13', 'OTT', 'Ottawa', 'Senators', '23', 'Canadian Tire Centre', '13', 'OTT', 'Ottawa', 'Senators', '1', '0', '0', '0', '0', '0', '1', '2', '26', '29', '47.3', '6', '1', '16.7', '3', '0', '100.0', '0', '0', '5', '1', '29', '5', '13', '33']"
"['', '29824', '2016-02-10', '00:00:00 GMT', '13', 'OTT', 'Ottawa', 'Senators', '16', 'DET', 'Detroit', 'Red Wings', '11', 'Joe Louis Arena', '13', 'OTT', 'Ottawa', 'Senators', '0', '1', '0', '0', '0', '0', '0', '0', '33', '23', '58.9', '7', '1', '14.3', '2', '0', '100.0', '0', '0', '1', '3', '23', '2', '4', '23']"
"['', '29830', '2016-02-11', '00:30:00 GMT', '22', 'COL', 'Colorado', 'Avalanche', '13', 'OTT', 'Ottawa', 'Senators', '23', 'Canadian Tire Centre', '13', 'OTT', 'Ottawa', 'Senators', '0', '1', '0', '0', '0', '0', '0', '0', '31', '26', '54.4', '4', '2', '50.0', '4', '3', '25.0', '0', '0', '3', '4', '29', '3', '8', '28']"
"['', '29847', '2016-02-13', '00:00:00 GMT', '13', 'OTT', 'Ottawa', 'Senators', '19', 'CBJ', 'Columbus', 'Blue Jackets', '17', 'Nationwide Arena', '13', 'OTT', 'Ottawa', 'Senators', '0', '1', '0', '0', '0', '0', '0', '0', '31', '37', '45.6', '3', '1', '33.3', '2', '0', '100.0', '0', '0', '2', '4', '35', '5', '13', '16']"
"['', '29869', '2016-02-16', '00:30:00 GMT', '15', 'BUF', 'Buffalo', 'Sabres', '13', 'OTT', 'Ottawa', 'Senators', '23', 'Canadian Tire Centre', '13', 'OTT', 'Ottawa', 'Senators', '1', '0', '0', '0', '0', '0', '0', '2', '36', '24', '60.0', '2', '0', '0.0', '2', '0', '100.0', '0', '0', '1', '1', '26', '3', '9', '30']"
"['', '29879', '2016-02-18', '00:30:00 GMT', '3', 'CAR', 'Carolina', 'Hurricanes', '13', 'OTT', 'Ottawa', 'Senators', '23', 'Canadian Tire Centre', '13', 'OTT', 'Ottawa', 'Senators', '1', '0', '0', '0', '0', '0', '1', '2', '27', '31', '46.6', '4', '0', '0.0', '2', '1', '50.0', '0', '0', '4', '2', '22', '2', '4', '24']"
"['', '29894', '2016-02-20', '00:00:00 GMT', '16', 'DET', 'Detroit', 'Red Wings', '13', 'OTT', 'Ottawa', 'Senators', '23', 'Canadian Tire Centre', '13', 'OTT', 'Ottawa', 'Senators', '1', '0', '0', '0', '0', '0', '0', '2', '30', '37', '44.8', '2', '0', '0.0', '2', '0', '100.0', '0', '0', '2', '2', '27', '3', '6', '39']"
"['', '29918', '2016-02-23', '02:00:00 GMT', '13', 'OTT', 'Ottawa', 'Senators', '24', 'EDM', 'Edmonton', 'Oilers', '22', 'Rogers Place', '13', 'OTT', 'Ottawa', 'Senators', '1', '0', '0', '0', '0', '0', '1', '2', '30', '20', '60.0', '2', '1', '50.0', '3', '0', '100.0', '0', '0', '4', '1', '25', '4', '8', '36']"
"['', '29932', '2016-02-25', '03:00:00 GMT', '13', 'OTT', 'Ottawa', 'Senators', '21', 'VAN', 'Vancouver', 'Canucks', '7', 'Rogers Arena', '13', 'OTT', 'Ottawa', 'Senators', '0', '1', '0', '0', '0', '0', '0', '0', '27', '22', '55.1', '3', '0', '0.0', '3', '1', '66.7', '1', '0', '3', '5', '30', '5', '10', '15']"
"['', '29946', '2016-02-27', '03:00:00 GMT', '13', 'OTT', 'Ottawa', 'Senators', '23', 'CGY', 'Calgary', 'Flames', '18', 'Scotiabank Saddledome', '13', 'OTT', 'Ottawa', 'Senators', '1', '0', '0', '0', '0', '0', '1', '2', '36', '29', '55.4', '3', '1', '33.3', '3', '1', '66.7', '0', '0', '6', '4', '26', '3', '6', '10']"
"['', '29964', '2016-03-01', '00:30:00 GMT', '17', 'STL', 'St. Louis', 'Blues', '13', 'OTT', 'Ottawa', 'Senators', '23', 'Canadian Tire Centre', '13', 'OTT', 'Ottawa', 'Senators', '0', '0', '0', '1', '0', '0', '0', '1', '35', '31', '53.0', '3', '1', '33.3', '4', '2', '50.0', '0', '0', '3', '3', '43', '6', '12', '36']"
"['', '29977', '2016-03-03', '00:30:00 GMT', '1', 'TBL', 'Tampa Bay', 'Lightning', '13', 'OTT', 'Ottawa', 'Senators', '23', 'Canadian Tire Centre', '13', 'OTT', 'Ottawa', 'Senators', '0', '1', '0', '0', '0', '0', '0', '0', '29', '21', '58.0', '4', '0', '0.0', '1', '0', '100.0', '0', '0', '1', '4', '34', '2', '4', '30']"
"['', '29992', '2016-03-05', '00:00:00 GMT', '13', 'OTT', 'Ottawa', 'Senators', '12', 'TOR', 'Toronto', 'Maple Leafs', '1', 'Air Canada Center', '13', 'OTT', 'Ottawa', 'Senators', '1', '0', '0', '0', '0', '0', '1', '2', '29', '37', '43.9', '1', '0', '0.0', '3', '1', '66.7', '0', '0', '3', '2', '31', '4', '11', '32']"
"['', '29998', '2016-03-06', '22:00:00 GMT', '27', 'DAL', 'Dallas', 'Stars', '13', 'OTT', 'Ottawa', 'Senators', '23', 'Canadian Tire Centre', '13', 'OTT', 'Ottawa', 'Senators', '0', '1', '0', '0', '0', '0', '0', '0', '35', '31', '53.0', '3', '0', '0.0', '2', '1', '50.0', '0', '0', '1', '2', '24', '2', '4', '18']"
"['', '30013', '2016-03-08', '00:00:00 GMT', '13', 'OTT', 'Ottawa', 'Senators', '3', 'CAR', 'Carolina', 'Hurricanes', '21', 'RBC Center', '13', 'OTT', 'Ottawa', 'Senators', '0', '0', '0', '1', '0', '0', '0', '1', '23', '33', '41.1', '1', '0', '0.0', '2', '0', '100.0', '1', '1', '3', '3', '24', '5', '13', '32']"
"['', '30028', '2016-03-10', '00:30:00 GMT', '13', 'OTT', 'Ottawa', 'Senators', '4', 'FLO', 'Florida', 'Panthers', '3', 'BB&T Center', '13', 'OTT', 'Ottawa', 'Senators', '0', '1', '0', '0', '0', '0', '0', '0', '27', '43', '38.6', '2', '0', '0.0', '2', '0', '100.0', '0', '0', '2', '6', '28', '3', '6', '18']"
"['', '30040', '2016-03-12', '00:00:00 GMT', '12', 'TOR', 'Toronto', 'Maple Leafs', '13', 'OTT', 'Ottawa', 'Senators', '23', 'Canadian Tire Centre', '13', 'OTT', 'Ottawa', 'Senators', '1', '0', '0', '0', '0', '0', '1', '2', '26', '34', '43.3', '4', '0', '0.0', '4', '0', '100.0', '0', '0', '4', '0', '17', '5', '10', '38']"
"['', '30062', '2016-03-15', '23:30:00 GMT', '25', 'MIN', 'Minnesota', 'Wild', '13', 'OTT', 'Ottawa', 'Senators', '23', 'Canadian Tire Centre', '13', 'OTT', 'Ottawa', 'Senators', '1', '0', '0', '0', '0', '0', '1', '2', '29', '24', '54.7', '3', '0', '0.0', '3', '0', '100.0', '0', '0', '3', '2', '20', '4', '11', '35']"
"['', '30079', '2016-03-18', '23:00:00 GMT', '13', 'OTT', 'Ottawa', 'Senators', '15', 'BUF', 'Buffalo', 'Sabres', '10', 'First Niagara Center', '13', 'OTT', 'Ottawa', 'Senators', '0', '1', '0', '0', '0', '0', '0', '0', '23', '34', '40.4', '4', '0', '0.0', '2', '1', '50.0', '0', '0', '1', '3', '33', '7', '25', '12']"
"['', '30089', '2016-03-19', '23:00:00 GMT', '14', 'MTL', 'Montreal', 'Canadiens', '13', 'OTT', 'Ottawa', 'Senators', '23', 'Canadian Tire Centre', '13', 'OTT', 'Ottawa', 'Senators', '1', '0', '0', '0', '0', '0', '1', '2', '27', '30', '47.4', '2', '0', '0.0', '4', '0', '100.0', '3', '0', '5', '0', '44', '6', '15', '46']"
"['', '30110', '2016-03-22', '23:30:00 GMT', '5', 'WSH', 'Washington', 'Capitals', '13', 'OTT', 'Ottawa', 'Senators', '23', 'Canadian Tire Centre', '13', 'OTT', 'Ottawa', 'Senators', '0', '1', '0', '0', '0', '0', '0', '0', '31', '30', '50.8', '4', '0', '0.0', '2', '1', '50.0', '0', '0', '2', '4', '30', '2', '4', '28']"
"['', '30117', '2016-03-23', '23:00:00 GMT', '13', 'OTT', 'Ottawa', 'Senators', '8', 'NYI', 'New York', 'Islanders', '16', 'Nassau Veterans Memorial Coliseum', '13', 'OTT', 'Ottawa', 'Senators', '0', '1', '0', '0', '0', '0', '0', '0', '31', '28', '52.5', '1', '0', '0.0', '3', '0', '100.0', '0', '0', '1', '3', '23', '3', '6', '18']"
"['', '30853', '2016-03-26', '23:00:00 GMT', '29', 'ANA', 'Anaheim', 'Ducks', '13', 'OTT', 'Ottawa', 'Senators', '23', 'Canadian Tire Centre', '13', 'OTT', 'Ottawa', 'Senators', '0', '0', '0', '1', '0', '0', '0', '1', '31', '25', '55.4', '4', '0', '0.0', '4', '1', '75.0', '0', '0', '3', '4', '32', '5', '18', '28']"
"['', '30167', '2016-03-30', '23:30:00 GMT', '13', 'OTT', 'Ottawa', 'Senators', '2', 'WPJ', 'Winnipeg', 'Jets', '39', 'MTS Centre', '13', 'OTT', 'Ottawa', 'Senators', '1', '0', '0', '0', '0', '0', '1', '2', '23', '20', '53.5', '2', '0', '0.0', '3', '0', '100.0', '0', '0', '2', '1', '19', '5', '18', '20']"
"['', '30176', '2016-03-31', '00:00:00 GMT', '13', 'OTT', 'Ottawa', 'Senators', '25', 'MIN', 'Minnesota', 'Wild', '30', 'Xcel Energy Center', '13', 'OTT', 'Ottawa', 'Senators', '1', '0', '0', '0', '0', '0', '1', '2', '22', '26', '45.8', '1', '0', '0.0', '2', '0', '100.0', '0', '0', '3', '2', '22', '2', '4', '14']"
"['', '30186', '2016-04-02', '17:00:00 GMT', '13', 'OTT', 'Ottawa', 'Senators', '6', 'PHI', 'Philadelphia', 'Flyers', '29', 'Wells Fargo Center', '13', 'OTT', 'Ottawa', 'Senators', '0', '1', '0', '0', '0', '0', '0', '0', '26', '24', '52.0', '1', '1', '100.0', '5', '3', '40.0', '0', '0', '2', '3', '35', '7', '22', '29']"
"['', '30211', '2016-04-05', '23:30:00 GMT', '10', 'PIT', 'Pittsburgh', 'Penguins', '13', 'OTT', 'Ottawa', 'Senators', '23', 'Canadian Tire Centre', '13', 'OTT', 'Ottawa', 'Senators', '0', '1', '0', '0', '0', '0', '0', '0', '37', '28', '56.9', '4', '0', '0.0', '2', '0', '100.0', '0', '0', '3', '5', '30', '2', '4', '25']"
"['', '30226', '2016-04-07', '23:30:00 GMT', '4', 'FLO', 'Florida', 'Panthers', '13', 'OTT', 'Ottawa', 'Senators', '23', 'Canadian Tire Centre', '13', 'OTT', 'Ottawa', 'Senators', '1', '0', '0', '0', '0', '0', '1', '2', '37', '23', '61.7', '2', '1', '50.0', '1', '0', '100.0', '0', '0', '3', '1', '23', '2', '4', '22']"
"['', '30234', '2016-04-09', '17:00:00 GMT', '13', 'OTT', 'Ottawa', 'Senators', '11', 'BOS', 'Boston', 'Bruins', '27', 'TD Garden', '13', 'OTT', 'Ottawa', 'Senators', '1', '0', '0', '0', '0', '0', '1', '2', '29', '38', '43.3', '0', '0', '0.0', '4', '0', '100.0', '2', '0', '6', '1', '36', '6', '15', '30']"
