"['#Date/Time of Update: 2018-12-10 19:02:53 GMT', '#Game ID', '#Game Date', '#Game Time', '#Away Team ID', '#Away Team Abbr.', '#Away Team City', '#Away Team Name', '#Home Team ID', '#Home Team Abbr.', '#Home Team City', '#Home Team Name', '#Venue ID', '#Venue Name', '#Team ID', '#Team Abbr.', '#Team City', '#Team Name', '#Wins', '#Losses', '#OvertimeWins', '#OvertimeLosses', '#ShootoutWins', '#ShootoutLosses', '#Points', '#FaceoffWins', '#FaceoffLosses', '#FaceoffPercent', '#Powerplays', '#PowerplayGoals', '#PowerplayPercent', '#PenaltyKills', '#PenaltyKillGoalsAllowed', '#PenaltyKillPercent', '#ShorthandedGoalsFor', '#ShorthandedGoalsAgainst', '#GoalsFor', '#GoalsAgainst', '#Shots', '#Penalties', '#PenaltyMinutes', '#Hits']"
"['', '3828', '2008-10-10', '00:30:00 GMT', '18', 'NSH', 'Nashville', 'Predators', '17', 'STL', 'St. Louis', 'Blues', '24', 'Scottrade Center', '18', 'NSH', 'Nashville', 'Predators', '0', '1', '0', '0', '0', '0', '0', '28', '27', '50.9', '4', '0', '0.0', '5', '4', '20.0', '0', '0', '2', '5', '20', '6', '12', '23']"
"['', '3837', '2008-10-11', '00:00:00 GMT', '27', 'DAL', 'Dallas', 'Stars', '18', 'NSH', 'Nashville', 'Predators', '15', 'Sommet Center', '18', 'NSH', 'Nashville', 'Predators', '1', '0', '0', '0', '0', '0', '2', '30', '26', '53.6', '6', '2', '33.3', '5', '0', '100.0', '0', '0', '3', '1', '29', '10', '24', '17']"
"['', '3851', '2008-10-13', '00:30:00 GMT', '18', 'NSH', 'Nashville', 'Predators', '20', 'CHI', 'Chicago', 'Blackhawks', '28', 'United Center', '18', 'NSH', 'Nashville', 'Predators', '1', '0', '0', '0', '0', '0', '2', '30', '22', '57.7', '3', '1', '33.3', '3', '1', '66.7', '0', '0', '2', '2', '25', '5', '10', '15']"
"['', '3860', '2008-10-15', '00:30:00 GMT', '18', 'NSH', 'Nashville', 'Predators', '27', 'DAL', 'Dallas', 'Stars', '2', 'American Airlines Center', '18', 'NSH', 'Nashville', 'Predators', '0', '1', '0', '0', '0', '0', '0', '41', '27', '60.3', '4', '1', '25.0', '5', '1', '80.0', '0', '0', '4', '6', '15', '6', '12', '21']"
"['', '3871', '2008-10-17', '23:00:00 GMT', '18', 'NSH', 'Nashville', 'Predators', '19', 'CBJ', 'Columbus', 'Blue Jackets', '17', 'Nationwide Arena', '18', 'NSH', 'Nashville', 'Predators', '0', '1', '0', '0', '0', '0', '0', '34', '23', '59.6', '5', '0', '0.0', '4', '2', '50.0', '0', '0', '3', '5', '27', '6', '15', '25']"
"['', '3885', '2008-10-18', '00:00:00 GMT', '19', 'CBJ', 'Columbus', 'Blue Jackets', '18', 'NSH', 'Nashville', 'Predators', '15', 'Sommet Center', '18', 'NSH', 'Nashville', 'Predators', '1', '0', '0', '0', '0', '0', '2', '29', '33', '46.8', '3', '0', '0.0', '4', '0', '100.0', '1', '0', '6', '3', '24', '7', '20', '22']"
"['', '3908', '2008-10-23', '00:00:00 GMT', '23', 'CGY', 'Calgary', 'Flames', '18', 'NSH', 'Nashville', 'Predators', '15', 'Sommet Center', '18', 'NSH', 'Nashville', 'Predators', '0', '1', '0', '0', '0', '0', '0', '29', '37', '43.9', '8', '1', '12.5', '4', '1', '75.0', '0', '0', '3', '5', '35', '6', '15', '17']"
"['', '3926', '2008-10-25', '00:00:00 GMT', '28', 'LAK', 'Los Angeles', 'Kings', '18', 'NSH', 'Nashville', 'Predators', '15', 'Sommet Center', '18', 'NSH', 'Nashville', 'Predators', '1', '0', '0', '0', '0', '0', '2', '26', '24', '52.0', '3', '2', '66.7', '5', '1', '80.0', '0', '0', '5', '4', '22', '6', '12', '16']"
"['', '3939', '2008-10-28', '23:00:00 GMT', '18', 'NSH', 'Nashville', 'Predators', '5', 'WSH', 'Washington', 'Capitals', '13', 'Verizon Center', '18', 'NSH', 'Nashville', 'Predators', '0', '0', '0', '1', '0', '0', '1', '32', '32', '50.0', '7', '1', '14.3', '4', '1', '75.0', '0', '1', '3', '3', '23', '5', '10', '20']"
"['', '3953', '2008-10-30', '00:00:00 GMT', '24', 'EDM', 'Edmonton', 'Oilers', '18', 'NSH', 'Nashville', 'Predators', '15', 'Sommet Center', '18', 'NSH', 'Nashville', 'Predators', '1', '0', '0', '0', '0', '0', '2', '33', '27', '55.0', '3', '0', '0.0', '4', '1', '75.0', '0', '0', '3', '1', '22', '4', '8', '14']"
"['', '3971', '2008-11-01', '00:00:00 GMT', '4', 'FLO', 'Florida', 'Panthers', '18', 'NSH', 'Nashville', 'Predators', '15', 'Sommet Center', '18', 'NSH', 'Nashville', 'Predators', '1', '0', '0', '0', '0', '0', '2', '37', '28', '56.9', '4', '1', '25.0', '3', '0', '100.0', '0', '0', '2', '2', '30', '3', '6', '15']"
"['', '3988', '2008-11-04', '03:00:00 GMT', '18', 'NSH', 'Nashville', 'Predators', '21', 'VAN', 'Vancouver', 'Canucks', '7', 'General Motors Place', '18', 'NSH', 'Nashville', 'Predators', '0', '1', '0', '0', '0', '0', '0', '29', '32', '47.5', '5', '0', '0.0', '6', '2', '66.7', '0', '0', '0', '4', '24', '8', '19', '17']"
"['', '4001', '2008-11-06', '02:30:00 GMT', '18', 'NSH', 'Nashville', 'Predators', '23', 'CGY', 'Calgary', 'Flames', '18', 'Pengrowth Saddledome', '18', 'NSH', 'Nashville', 'Predators', '0', '1', '0', '0', '0', '0', '0', '39', '31', '55.7', '5', '2', '40.0', '6', '2', '66.7', '1', '1', '6', '7', '23', '9', '24', '17']"
"['', '4016', '2008-11-08', '02:00:00 GMT', '18', 'NSH', 'Nashville', 'Predators', '22', 'COL', 'Colorado', 'Avalanche', '19', 'Pepsi Center', '18', 'NSH', 'Nashville', 'Predators', '0', '1', '0', '0', '0', '0', '0', '30', '30', '50.0', '4', '0', '0.0', '8', '0', '100.0', '0', '0', '0', '1', '26', '9', '18', '13']"
"['', '4033', '2008-11-11', '03:30:00 GMT', '18', 'NSH', 'Nashville', 'Predators', '26', 'SJS', 'San Jose', 'Sharks', '9', 'HP Pavilion at San Jose', '18', 'NSH', 'Nashville', 'Predators', '1', '0', '0', '0', '0', '0', '2', '33', '21', '61.1', '1', '0', '0.0', '7', '1', '85.7', '0', '0', '4', '3', '25', '8', '16', '30']"
"['', '4054', '2008-11-14', '03:00:00 GMT', '18', 'NSH', 'Nashville', 'Predators', '29', 'ANA', 'Anaheim', 'Ducks', '8', 'Honda Center', '18', 'NSH', 'Nashville', 'Predators', '1', '0', '0', '0', '0', '0', '2', '29', '30', '49.2', '5', '2', '40.0', '3', '2', '33.3', '0', '0', '4', '3', '31', '5', '13', '16']"
"['', '4064', '2008-11-15', '03:30:00 GMT', '18', 'NSH', 'Nashville', 'Predators', '28', 'LAK', 'Los Angeles', 'Kings', '25', 'Staples Center', '18', 'NSH', 'Nashville', 'Predators', '1', '0', '0', '0', '0', '0', '2', '26', '20', '56.5', '3', '1', '33.3', '3', '0', '100.0', '0', '0', '3', '1', '19', '3', '6', '22']"
"['', '4074', '2008-11-17', '01:00:00 GMT', '26', 'SJS', 'San Jose', 'Sharks', '18', 'NSH', 'Nashville', 'Predators', '15', 'Sommet Center', '18', 'NSH', 'Nashville', 'Predators', '0', '1', '0', '0', '0', '0', '0', '40', '33', '54.8', '6', '0', '0.0', '6', '1', '83.3', '1', '0', '1', '4', '32', '12', '36', '18']"
"['', '4096', '2008-11-21', '00:30:00 GMT', '18', 'NSH', 'Nashville', 'Predators', '1', 'TBL', 'Tampa Bay', 'Lightning', '26', 'St. Pete Times Forum', '18', 'NSH', 'Nashville', 'Predators', '0', '1', '0', '0', '0', '0', '0', '32', '25', '56.1', '7', '0', '0.0', '6', '1', '83.3', '0', '0', '1', '4', '34', '6', '12', '13']"
"['', '4110', '2008-11-23', '20:00:00 GMT', '18', 'NSH', 'Nashville', 'Predators', '3', 'CAR', 'Carolina', 'Hurricanes', '21', 'RBC Center', '18', 'NSH', 'Nashville', 'Predators', '1', '0', '0', '0', '0', '0', '2', '25', '28', '47.2', '5', '1', '20.0', '7', '0', '100.0', '0', '0', '5', '2', '25', '9', '18', '30']"
"['', '4119', '2008-11-25', '00:00:00 GMT', '17', 'STL', 'St. Louis', 'Blues', '18', 'NSH', 'Nashville', 'Predators', '15', 'Sommet Center', '18', 'NSH', 'Nashville', 'Predators', '0', '0', '0', '1', '0', '0', '1', '24', '27', '47.1', '5', '0', '0.0', '4', '0', '100.0', '0', '0', '0', '0', '47', '5', '10', '30']"
"['', '4145', '2008-11-28', '00:30:00 GMT', '18', 'NSH', 'Nashville', 'Predators', '2', 'ATL', 'Atlanta', 'Thrashers', '20', 'Philips Arena', '18', 'NSH', 'Nashville', 'Predators', '1', '0', '0', '0', '0', '0', '2', '38', '27', '58.5', '2', '0', '0.0', '4', '0', '100.0', '1', '0', '4', '3', '22', '4', '8', '15']"
"['', '4155', '2008-11-29', '01:00:00 GMT', '25', 'MIN', 'Minnesota', 'Wild', '18', 'NSH', 'Nashville', 'Predators', '15', 'Sommet Center', '18', 'NSH', 'Nashville', 'Predators', '0', '1', '0', '0', '0', '0', '0', '36', '27', '57.1', '4', '1', '25.0', '9', '5', '44.4', '0', '0', '2', '6', '25', '17', '46', '10']"
"['', '4163', '2008-12-01', '00:00:00 GMT', '18', 'NSH', 'Nashville', 'Predators', '15', 'BUF', 'Buffalo', 'Sabres', '10', 'HSBC Arena', '18', 'NSH', 'Nashville', 'Predators', '1', '0', '0', '0', '0', '0', '2', '22', '24', '47.8', '2', '0', '0.0', '2', '0', '100.0', '0', '0', '2', '0', '25', '2', '4', '16']"
"['', '4186', '2008-12-04', '01:00:00 GMT', '22', 'COL', 'Colorado', 'Avalanche', '18', 'NSH', 'Nashville', 'Predators', '15', 'Sommet Center', '18', 'NSH', 'Nashville', 'Predators', '1', '0', '0', '0', '0', '0', '2', '33', '21', '61.1', '5', '1', '20.0', '4', '1', '75.0', '0', '1', '3', '2', '21', '4', '8', '7']"
"['', '4201', '2008-12-06', '01:00:00 GMT', '25', 'MIN', 'Minnesota', 'Wild', '18', 'NSH', 'Nashville', 'Predators', '15', 'Sommet Center', '18', 'NSH', 'Nashville', 'Predators', '1', '0', '0', '0', '0', '0', '2', '37', '36', '50.7', '3', '0', '0.0', '3', '0', '100.0', '0', '0', '1', '0', '42', '4', '11', '21']"
"['', '4214', '2008-12-08', '01:30:00 GMT', '18', 'NSH', 'Nashville', 'Predators', '17', 'STL', 'St. Louis', 'Blues', '24', 'Scottrade Center', '18', 'NSH', 'Nashville', 'Predators', '0', '1', '0', '0', '0', '0', '0', '30', '27', '52.6', '2', '1', '50.0', '6', '2', '66.7', '0', '0', '3', '6', '18', '7', '17', '20']"
"['', '4217', '2008-12-09', '01:00:00 GMT', '21', 'VAN', 'Vancouver', 'Canucks', '18', 'NSH', 'Nashville', 'Predators', '15', 'Sommet Center', '18', 'NSH', 'Nashville', 'Predators', '0', '1', '0', '0', '0', '0', '0', '31', '24', '56.4', '6', '1', '16.7', '5', '0', '100.0', '0', '0', '1', '3', '20', '11', '36', '16']"
"['', '4228', '2008-12-11', '00:00:00 GMT', '18', 'NSH', 'Nashville', 'Predators', '19', 'CBJ', 'Columbus', 'Blue Jackets', '17', 'Nationwide Arena', '18', 'NSH', 'Nashville', 'Predators', '0', '0', '0', '1', '0', '0', '1', '34', '20', '63.0', '3', '0', '0.0', '4', '0', '100.0', '0', '0', '1', '1', '25', '5', '10', '19']"
"['', '4250', '2008-12-13', '01:00:00 GMT', '27', 'DAL', 'Dallas', 'Stars', '18', 'NSH', 'Nashville', 'Predators', '15', 'Sommet Center', '18', 'NSH', 'Nashville', 'Predators', '1', '0', '0', '0', '0', '0', '2', '21', '24', '46.7', '2', '0', '0.0', '4', '0', '100.0', '0', '0', '3', '0', '35', '5', '10', '14']"
"['', '4281', '2008-12-18', '02:00:00 GMT', '18', 'NSH', 'Nashville', 'Predators', '30', 'PHX', 'Phoenix', 'Coyotes', '6', 'Jobing.com Arena', '18', 'NSH', 'Nashville', 'Predators', '0', '1', '0', '0', '0', '0', '0', '30', '23', '56.6', '1', '0', '0.0', '2', '0', '100.0', '0', '0', '1', '2', '30', '2', '4', '18']"
"['', '4294', '2008-12-20', '01:00:00 GMT', '8', 'NYI', 'New York', 'Islanders', '18', 'NSH', 'Nashville', 'Predators', '15', 'Sommet Center', '18', 'NSH', 'Nashville', 'Predators', '1', '0', '0', '0', '0', '0', '2', '38', '26', '59.4', '1', '0', '0.0', '1', '0', '100.0', '0', '0', '1', '0', '27', '2', '4', '17']"
"['', '4315', '2008-12-23', '00:30:00 GMT', '18', 'NSH', 'Nashville', 'Predators', '4', 'FLO', 'Florida', 'Panthers', '3', 'BankAtlantic Center', '18', 'NSH', 'Nashville', 'Predators', '0', '1', '0', '0', '0', '0', '0', '33', '29', '53.2', '2', '0', '0.0', '5', '0', '100.0', '0', '0', '0', '3', '27', '5', '10', '21']"
"['', '4325', '2008-12-26', '01:00:00 GMT', '16', 'DET', 'Detroit', 'Red Wings', '18', 'NSH', 'Nashville', 'Predators', '15', 'Sommet Center', '18', 'NSH', 'Nashville', 'Predators', '1', '0', '0', '0', '0', '0', '2', '34', '23', '59.6', '3', '1', '33.3', '3', '0', '100.0', '0', '0', '3', '2', '28', '3', '6', '29']"
"['', '4344', '2008-12-28', '01:00:00 GMT', '18', 'NSH', 'Nashville', 'Predators', '24', 'EDM', 'Edmonton', 'Oilers', '22', 'Rogers Place', '18', 'NSH', 'Nashville', 'Predators', '0', '1', '0', '0', '0', '0', '0', '38', '26', '59.4', '1', '0', '0.0', '4', '1', '75.0', '0', '0', '2', '5', '28', '6', '18', '10']"
"['', '4350', '2008-12-29', '02:00:00 GMT', '18', 'NSH', 'Nashville', 'Predators', '22', 'COL', 'Colorado', 'Avalanche', '19', 'Pepsi Center', '18', 'NSH', 'Nashville', 'Predators', '0', '1', '0', '0', '0', '0', '0', '25', '33', '43.1', '2', '1', '50.0', '3', '0', '100.0', '0', '0', '1', '5', '25', '5', '10', '19']"
"['', '4371', '2009-01-01', '01:00:00 GMT', '21', 'VAN', 'Vancouver', 'Canucks', '18', 'NSH', 'Nashville', 'Predators', '15', 'Sommet Center', '18', 'NSH', 'Nashville', 'Predators', '0', '1', '0', '0', '0', '0', '0', '29', '29', '50.0', '3', '0', '0.0', '4', '0', '100.0', '0', '0', '1', '2', '31', '6', '18', '19']"
"['', '4380', '2009-01-03', '20:00:00 GMT', '23', 'CGY', 'Calgary', 'Flames', '18', 'NSH', 'Nashville', 'Predators', '15', 'Sommet Center', '18', 'NSH', 'Nashville', 'Predators', '0', '1', '0', '0', '0', '0', '0', '25', '30', '45.5', '4', '0', '0.0', '5', '0', '100.0', '0', '0', '2', '3', '24', '5', '10', '19']"
"['', '4405', '2009-01-06', '01:00:00 GMT', '22', 'COL', 'Colorado', 'Avalanche', '18', 'NSH', 'Nashville', 'Predators', '15', 'Sommet Center', '18', 'NSH', 'Nashville', 'Predators', '0', '1', '0', '0', '0', '0', '0', '27', '19', '58.7', '3', '0', '0.0', '2', '0', '100.0', '0', '0', '1', '2', '22', '2', '4', '22']"
"['', '4417', '2009-01-08', '01:00:00 GMT', '10', 'PIT', 'Pittsburgh', 'Penguins', '18', 'NSH', 'Nashville', 'Predators', '15', 'Sommet Center', '18', 'NSH', 'Nashville', 'Predators', '1', '0', '0', '0', '0', '0', '2', '37', '36', '50.7', '3', '1', '33.3', '3', '0', '100.0', '1', '0', '5', '3', '30', '3', '6', '24']"
"['', '4435', '2009-01-10', '01:00:00 GMT', '20', 'CHI', 'Chicago', 'Blackhawks', '18', 'NSH', 'Nashville', 'Predators', '15', 'Sommet Center', '18', 'NSH', 'Nashville', 'Predators', '1', '0', '0', '0', '0', '0', '2', '36', '29', '55.4', '2', '1', '50.0', '5', '0', '100.0', '0', '0', '4', '1', '34', '6', '12', '28']"
"['', '4439', '2009-01-11', '00:00:00 GMT', '18', 'NSH', 'Nashville', 'Predators', '20', 'CHI', 'Chicago', 'Blackhawks', '28', 'United Center', '18', 'NSH', 'Nashville', 'Predators', '0', '1', '0', '0', '0', '0', '0', '21', '30', '41.2', '2', '0', '0.0', '5', '1', '80.0', '0', '0', '1', '3', '26', '5', '10', '7']"
"['', '4450', '2009-01-13', '00:30:00 GMT', '18', 'NSH', 'Nashville', 'Predators', '12', 'TOR', 'Toronto', 'Maple Leafs', '1', 'Air Canada Center', '18', 'NSH', 'Nashville', 'Predators', '1', '0', '0', '0', '0', '0', '2', '29', '20', '59.2', '4', '1', '25.0', '4', '0', '100.0', '0', '0', '2', '0', '21', '5', '10', '23']"
"['', '4461', '2009-01-15', '00:30:00 GMT', '18', 'NSH', 'Nashville', 'Predators', '14', 'MTL', 'Montreal', 'Canadiens', '4', 'Bell Centre', '18', 'NSH', 'Nashville', 'Predators', '0', '1', '0', '0', '0', '0', '0', '32', '28', '53.3', '2', '0', '0.0', '3', '1', '66.7', '0', '0', '2', '3', '23', '4', '11', '18']"
"['', '4481', '2009-01-17', '01:00:00 GMT', '2', 'ATL', 'Atlanta', 'Thrashers', '18', 'NSH', 'Nashville', 'Predators', '15', 'Sommet Center', '18', 'NSH', 'Nashville', 'Predators', '0', '1', '0', '0', '0', '0', '0', '33', '30', '52.4', '5', '1', '20.0', '2', '0', '100.0', '0', '1', '2', '7', '31', '2', '4', '19']"
"['', '4496', '2009-01-19', '01:00:00 GMT', '7', 'NJD', 'New Jersey', 'Devils', '18', 'NSH', 'Nashville', 'Predators', '15', 'Sommet Center', '18', 'NSH', 'Nashville', 'Predators', '0', '1', '0', '0', '0', '0', '0', '36', '31', '53.7', '4', '1', '25.0', '3', '1', '66.7', '0', '0', '1', '3', '33', '4', '11', '21']"
"['', '4528', '2009-01-28', '03:30:00 GMT', '18', 'NSH', 'Nashville', 'Predators', '21', 'VAN', 'Vancouver', 'Canucks', '7', 'General Motors Place', '18', 'NSH', 'Nashville', 'Predators', '1', '0', '0', '0', '0', '0', '2', '32', '39', '45.1', '7', '3', '42.9', '4', '1', '75.0', '0', '0', '5', '3', '33', '6', '12', '22']"
"['', '4541', '2009-01-30', '02:00:00 GMT', '18', 'NSH', 'Nashville', 'Predators', '23', 'CGY', 'Calgary', 'Flames', '18', 'Pengrowth Saddledome', '18', 'NSH', 'Nashville', 'Predators', '0', '1', '0', '0', '0', '0', '0', '33', '30', '52.4', '3', '0', '0.0', '7', '1', '85.7', '0', '0', '1', '3', '28', '9', '21', '9']"
"['', '4557', '2009-02-01', '01:00:00 GMT', '18', 'NSH', 'Nashville', 'Predators', '24', 'EDM', 'Edmonton', 'Oilers', '22', 'Rogers Place', '18', 'NSH', 'Nashville', 'Predators', '1', '0', '0', '0', '0', '0', '2', '37', '34', '52.1', '2', '0', '0.0', '3', '0', '100.0', '0', '0', '2', '1', '27', '3', '6', '17']"
"['', '4568', '2009-02-03', '01:00:00 GMT', '30', 'PHX', 'Phoenix', 'Coyotes', '18', 'NSH', 'Nashville', 'Predators', '15', 'Sommet Center', '18', 'NSH', 'Nashville', 'Predators', '1', '0', '0', '0', '0', '0', '2', '27', '32', '45.8', '2', '0', '0.0', '2', '0', '100.0', '0', '0', '2', '1', '22', '7', '14', '20']"
"['', '4580', '2009-02-05', '01:00:00 GMT', '29', 'ANA', 'Anaheim', 'Ducks', '18', 'NSH', 'Nashville', 'Predators', '15', 'Sommet Center', '18', 'NSH', 'Nashville', 'Predators', '1', '0', '0', '0', '0', '0', '2', '25', '20', '55.6', '2', '0', '0.0', '1', '0', '100.0', '0', '0', '4', '2', '30', '3', '9', '22']"
"['', '4588', '2009-02-06', '01:00:00 GMT', '18', 'NSH', 'Nashville', 'Predators', '25', 'MIN', 'Minnesota', 'Wild', '30', 'Xcel Energy Center', '18', 'NSH', 'Nashville', 'Predators', '1', '0', '0', '0', '0', '0', '2', '28', '21', '57.1', '2', '0', '0.0', '4', '0', '100.0', '0', '0', '2', '0', '24', '7', '14', '14']"
"['', '4605', '2009-02-08', '23:00:00 GMT', '18', 'NSH', 'Nashville', 'Predators', '27', 'DAL', 'Dallas', 'Stars', '2', 'American Airlines Center', '18', 'NSH', 'Nashville', 'Predators', '0', '1', '0', '0', '0', '0', '0', '29', '15', '65.9', '4', '0', '0.0', '4', '1', '75.0', '0', '1', '1', '4', '25', '4', '8', '21']"
"['', '4613', '2009-02-10', '01:00:00 GMT', '16', 'DET', 'Detroit', 'Red Wings', '18', 'NSH', 'Nashville', 'Predators', '15', 'Sommet Center', '18', 'NSH', 'Nashville', 'Predators', '0', '1', '0', '0', '0', '0', '0', '34', '32', '51.5', '2', '1', '50.0', '7', '2', '71.4', '0', '0', '3', '5', '18', '7', '14', '21']"
"['', '4628', '2009-02-12', '01:00:00 GMT', '17', 'STL', 'St. Louis', 'Blues', '18', 'NSH', 'Nashville', 'Predators', '15', 'Sommet Center', '18', 'NSH', 'Nashville', 'Predators', '1', '0', '0', '0', '0', '0', '2', '33', '38', '46.5', '5', '1', '20.0', '4', '0', '100.0', '0', '0', '3', '3', '31', '5', '13', '24']"
"['', '4643', '2009-02-14', '01:00:00 GMT', '11', 'BOS', 'Boston', 'Bruins', '18', 'NSH', 'Nashville', 'Predators', '15', 'Sommet Center', '18', 'NSH', 'Nashville', 'Predators', '1', '0', '0', '0', '0', '0', '2', '29', '29', '50.0', '5', '0', '0.0', '4', '0', '100.0', '1', '0', '2', '2', '29', '4', '8', '28']"
"['', '4657', '2009-02-16', '01:00:00 GMT', '13', 'OTT', 'Ottawa', 'Senators', '18', 'NSH', 'Nashville', 'Predators', '15', 'Sommet Center', '18', 'NSH', 'Nashville', 'Predators', '0', '1', '0', '0', '0', '0', '0', '23', '26', '46.9', '4', '0', '0.0', '3', '0', '100.0', '0', '0', '0', '2', '24', '4', '8', '27']"
"['', '4669', '2009-02-18', '00:30:00 GMT', '18', 'NSH', 'Nashville', 'Predators', '16', 'DET', 'Detroit', 'Red Wings', '11', 'Joe Louis Arena', '18', 'NSH', 'Nashville', 'Predators', '0', '1', '0', '0', '0', '0', '0', '31', '29', '51.7', '5', '1', '20.0', '6', '5', '16.7', '0', '0', '2', '6', '23', '8', '19', '24']"
"['', '4679', '2009-02-19', '01:00:00 GMT', '17', 'STL', 'St. Louis', 'Blues', '18', 'NSH', 'Nashville', 'Predators', '15', 'Sommet Center', '18', 'NSH', 'Nashville', 'Predators', '0', '0', '0', '1', '0', '0', '1', '36', '26', '58.1', '3', '0', '0.0', '3', '0', '100.0', '0', '0', '1', '2', '28', '4', '8', '18']"
"['', '4698', '2009-02-21', '01:30:00 GMT', '18', 'NSH', 'Nashville', 'Predators', '17', 'STL', 'St. Louis', 'Blues', '24', 'Scottrade Center', '18', 'NSH', 'Nashville', 'Predators', '1', '0', '0', '0', '0', '0', '2', '31', '25', '55.4', '1', '0', '0.0', '3', '0', '100.0', '0', '0', '1', '0', '21', '3', '6', '21']"
"['', '4712', '2009-02-24', '01:00:00 GMT', '20', 'CHI', 'Chicago', 'Blackhawks', '18', 'NSH', 'Nashville', 'Predators', '15', 'Sommet Center', '18', 'NSH', 'Nashville', 'Predators', '1', '0', '0', '0', '0', '0', '2', '39', '29', '57.4', '6', '2', '33.3', '2', '0', '100.0', '0', '0', '5', '3', '24', '2', '4', '18']"
"['', '4728', '2009-02-26', '01:00:00 GMT', '30', 'PHX', 'Phoenix', 'Coyotes', '18', 'NSH', 'Nashville', 'Predators', '15', 'Sommet Center', '18', 'NSH', 'Nashville', 'Predators', '1', '0', '0', '0', '0', '0', '2', '34', '26', '56.7', '2', '0', '0.0', '1', '0', '100.0', '0', '0', '4', '1', '43', '4', '16', '19']"
"['', '4744', '2009-02-28', '01:00:00 GMT', '16', 'DET', 'Detroit', 'Red Wings', '18', 'NSH', 'Nashville', 'Predators', '15', 'Sommet Center', '18', 'NSH', 'Nashville', 'Predators', '1', '0', '0', '0', '0', '0', '2', '23', '35', '39.7', '3', '1', '33.3', '2', '0', '100.0', '0', '0', '8', '0', '15', '3', '9', '16']"
"['', '4761', '2009-03-03', '01:00:00 GMT', '24', 'EDM', 'Edmonton', 'Oilers', '18', 'NSH', 'Nashville', 'Predators', '15', 'Sommet Center', '18', 'NSH', 'Nashville', 'Predators', '1', '0', '0', '0', '0', '0', '2', '33', '24', '57.9', '4', '2', '50.0', '2', '0', '100.0', '0', '0', '6', '5', '37', '4', '11', '25']"
"['', '4774', '2009-03-05', '01:00:00 GMT', '19', 'CBJ', 'Columbus', 'Blue Jackets', '18', 'NSH', 'Nashville', 'Predators', '15', 'Sommet Center', '18', 'NSH', 'Nashville', 'Predators', '1', '0', '0', '0', '0', '0', '2', '35', '27', '56.5', '2', '0', '0.0', '2', '0', '100.0', '0', '0', '4', '2', '19', '4', '11', '31']"
"['', '4787', '2009-03-07', '00:00:00 GMT', '18', 'NSH', 'Nashville', 'Predators', '6', 'PHI', 'Philadelphia', 'Flyers', '29', 'Wachovia Center', '18', 'NSH', 'Nashville', 'Predators', '0', '1', '0', '0', '0', '0', '0', '30', '35', '46.2', '4', '0', '0.0', '3', '1', '66.7', '0', '0', '1', '4', '31', '8', '22', '24']"
"['', '4809', '2009-03-10', '00:00:00 GMT', '5', 'WSH', 'Washington', 'Capitals', '18', 'NSH', 'Nashville', 'Predators', '15', 'Sommet Center', '18', 'NSH', 'Nashville', 'Predators', '0', '0', '0', '1', '0', '0', '1', '30', '39', '43.5', '2', '0', '0.0', '2', '0', '100.0', '0', '0', '1', '2', '27', '6', '21', '26']"
"['', '4824', '2009-03-12', '00:00:00 GMT', '9', 'NYR', 'New York', 'Rangers', '18', 'NSH', 'Nashville', 'Predators', '15', 'Sommet Center', '18', 'NSH', 'Nashville', 'Predators', '0', '1', '0', '0', '0', '0', '0', '25', '33', '43.1', '6', '1', '16.7', '4', '0', '100.0', '0', '1', '2', '4', '19', '4', '8', '16']"
"['', '4843', '2009-03-14', '02:00:00 GMT', '18', 'NSH', 'Nashville', 'Predators', '30', 'PHX', 'Phoenix', 'Coyotes', '6', 'Jobing.com Arena', '18', 'NSH', 'Nashville', 'Predators', '1', '0', '0', '0', '0', '0', '2', '26', '26', '50.0', '2', '0', '0.0', '3', '0', '100.0', '0', '0', '2', '0', '31', '3', '6', '32']"
"['', '4852', '2009-03-16', '02:30:00 GMT', '18', 'NSH', 'Nashville', 'Predators', '28', 'LAK', 'Los Angeles', 'Kings', '25', 'Staples Center', '18', 'NSH', 'Nashville', 'Predators', '1', '0', '0', '0', '0', '0', '2', '32', '36', '47.1', '3', '1', '33.3', '4', '1', '75.0', '0', '0', '4', '3', '26', '4', '8', '30']"
"['', '4867', '2009-03-18', '02:00:00 GMT', '18', 'NSH', 'Nashville', 'Predators', '29', 'ANA', 'Anaheim', 'Ducks', '8', 'Honda Center', '18', 'NSH', 'Nashville', 'Predators', '0', '0', '0', '1', '0', '0', '1', '29', '33', '46.8', '3', '2', '66.7', '5', '3', '40.0', '0', '0', '3', '4', '21', '6', '15', '18']"
"['', '4875', '2009-03-19', '02:30:00 GMT', '18', 'NSH', 'Nashville', 'Predators', '26', 'SJS', 'San Jose', 'Sharks', '9', 'HP Pavilion at San Jose', '18', 'NSH', 'Nashville', 'Predators', '0', '0', '0', '1', '0', '0', '1', '26', '44', '37.1', '2', '0', '0.0', '3', '1', '66.7', '1', '0', '2', '2', '24', '5', '13', '22']"
"['', '4905', '2009-03-24', '00:00:00 GMT', '29', 'ANA', 'Anaheim', 'Ducks', '18', 'NSH', 'Nashville', 'Predators', '15', 'Sommet Center', '18', 'NSH', 'Nashville', 'Predators', '0', '0', '0', '1', '0', '0', '1', '27', '28', '49.1', '3', '1', '33.3', '1', '0', '100.0', '0', '0', '1', '1', '31', '1', '2', '18']"
"['', '4919', '2009-03-26', '00:00:00 GMT', '26', 'SJS', 'San Jose', 'Sharks', '18', 'NSH', 'Nashville', 'Predators', '15', 'Sommet Center', '18', 'NSH', 'Nashville', 'Predators', '1', '0', '0', '0', '0', '0', '2', '41', '32', '56.2', '2', '1', '50.0', '4', '2', '50.0', '0', '0', '3', '2', '30', '4', '8', '38']"
"['', '4936', '2009-03-28', '00:00:00 GMT', '28', 'LAK', 'Los Angeles', 'Kings', '18', 'NSH', 'Nashville', 'Predators', '15', 'Sommet Center', '18', 'NSH', 'Nashville', 'Predators', '1', '0', '0', '0', '0', '0', '2', '37', '21', '63.8', '4', '1', '25.0', '2', '0', '100.0', '1', '0', '4', '3', '24', '4', '8', '25']"
"['', '4940', '2009-03-29', '21:00:00 GMT', '18', 'NSH', 'Nashville', 'Predators', '16', 'DET', 'Detroit', 'Red Wings', '11', 'Joe Louis Arena', '18', 'NSH', 'Nashville', 'Predators', '1', '0', '0', '0', '0', '0', '2', '32', '39', '45.1', '3', '2', '66.7', '4', '1', '75.0', '0', '1', '4', '3', '22', '4', '8', '21']"
"['', '4951', '2009-03-31', '23:00:00 GMT', '18', 'NSH', 'Nashville', 'Predators', '19', 'CBJ', 'Columbus', 'Blue Jackets', '17', 'Nationwide Arena', '18', 'NSH', 'Nashville', 'Predators', '0', '1', '0', '0', '0', '0', '0', '28', '28', '50.0', '2', '0', '0.0', '2', '0', '100.0', '0', '0', '1', '2', '21', '3', '6', '21']"
"['', '4976', '2009-04-03', '00:30:00 GMT', '18', 'NSH', 'Nashville', 'Predators', '20', 'CHI', 'Chicago', 'Blackhawks', '28', 'United Center', '18', 'NSH', 'Nashville', 'Predators', '0', '1', '0', '0', '0', '0', '0', '26', '33', '44.1', '1', '0', '0.0', '2', '0', '100.0', '0', '0', '1', '3', '25', '2', '4', '23']"
"['', '4984', '2009-04-04', '00:00:00 GMT', '19', 'CBJ', 'Columbus', 'Blue Jackets', '18', 'NSH', 'Nashville', 'Predators', '15', 'Sommet Center', '18', 'NSH', 'Nashville', 'Predators', '1', '0', '0', '0', '0', '0', '2', '36', '36', '50.0', '6', '1', '16.7', '3', '1', '66.7', '0', '0', '4', '4', '29', '3', '6', '39']"
"['', '5004', '2009-04-07', '00:00:00 GMT', '20', 'CHI', 'Chicago', 'Blackhawks', '18', 'NSH', 'Nashville', 'Predators', '15', 'Sommet Center', '18', 'NSH', 'Nashville', 'Predators', '0', '1', '0', '0', '0', '0', '0', '34', '27', '55.7', '2', '1', '50.0', '1', '0', '100.0', '0', '0', '2', '4', '22', '2', '4', '25']"
"['', '5016', '2009-04-09', '23:30:00 GMT', '18', 'NSH', 'Nashville', 'Predators', '16', 'DET', 'Detroit', 'Red Wings', '11', 'Joe Louis Arena', '18', 'NSH', 'Nashville', 'Predators', '1', '0', '0', '0', '0', '0', '2', '30', '24', '55.6', '5', '1', '20.0', '4', '2', '50.0', '0', '0', '3', '3', '22', '4', '8', '20']"
"['', '5023', '2009-04-10', '00:00:00 GMT', '18', 'NSH', 'Nashville', 'Predators', '25', 'MIN', 'Minnesota', 'Wild', '30', 'Xcel Energy Center', '18', 'NSH', 'Nashville', 'Predators', '0', '1', '0', '0', '0', '0', '0', '34', '34', '50.0', '4', '1', '25.0', '5', '3', '40.0', '0', '1', '4', '8', '31', '6', '12', '13']"
