"['#Date/Time of Update: 2018-12-10 19:02:53 GMT', '#Game ID', '#Game Date', '#Game Time', '#Away Team ID', '#Away Team Abbr.', '#Away Team City', '#Away Team Name', '#Home Team ID', '#Home Team Abbr.', '#Home Team City', '#Home Team Name', '#Venue ID', '#Venue Name', '#Team ID', '#Team Abbr.', '#Team City', '#Team Name', '#Wins', '#Losses', '#OvertimeWins', '#OvertimeLosses', '#ShootoutWins', '#ShootoutLosses', '#Points', '#FaceoffWins', '#FaceoffLosses', '#FaceoffPercent', '#Powerplays', '#PowerplayGoals', '#PowerplayPercent', '#PenaltyKills', '#PenaltyKillGoalsAllowed', '#PenaltyKillPercent', '#ShorthandedGoalsFor', '#ShorthandedGoalsAgainst', '#GoalsFor', '#GoalsAgainst', '#Shots', '#Penalties', '#PenaltyMinutes', '#Hits']"
"['', '3814', '2008-10-04', '16:00:00 GMT', '9', 'NYR', 'New York', 'Rangers', '1', 'TBL', 'Tampa Bay', 'Lightning', '34', 'O2 Arena', '1', 'TBL', 'Tampa Bay', 'Lightning', '0', '1', '0', '0', '0', '0', '0', '32', '30', '51.6', '3', '0', '0.0', '7', '1', '85.7', '0', '0', '1', '2', '20', '7', '14', '17']"
"['', '3816', '2008-10-05', '16:00:00 GMT', '1', 'TBL', 'Tampa Bay', 'Lightning', '9', 'NYR', 'New York', 'Rangers', '34', 'O2 Arena', '1', 'TBL', 'Tampa Bay', 'Lightning', '0', '1', '0', '0', '0', '0', '0', '29', '17', '63.0', '6', '0', '0.0', '4', '1', '75.0', '0', '0', '1', '2', '18', '5', '13', '31']"
"['', '3836', '2008-10-11', '23:30:00 GMT', '3', 'CAR', 'Carolina', 'Hurricanes', '1', 'TBL', 'Tampa Bay', 'Lightning', '26', 'St. Pete Times Forum', '1', 'TBL', 'Tampa Bay', 'Lightning', '0', '0', '0', '1', '0', '0', '1', '40', '31', '56.3', '6', '2', '33.3', '7', '2', '71.4', '0', '0', '3', '4', '26', '9', '18', '20']"
"['', '3865', '2008-10-16', '23:30:00 GMT', '8', 'NYI', 'New York', 'Islanders', '1', 'TBL', 'Tampa Bay', 'Lightning', '26', 'St. Pete Times Forum', '1', 'TBL', 'Tampa Bay', 'Lightning', '0', '0', '0', '1', '0', '0', '1', '35', '26', '57.4', '5', '0', '0.0', '9', '1', '88.9', '0', '0', '3', '4', '33', '10', '20', '20']"
"['', '3884', '2008-10-18', '23:30:00 GMT', '25', 'MIN', 'Minnesota', 'Wild', '1', 'TBL', 'Tampa Bay', 'Lightning', '26', 'St. Pete Times Forum', '1', 'TBL', 'Tampa Bay', 'Lightning', '0', '0', '0', '1', '0', '0', '1', '27', '23', '54.0', '3', '0', '0.0', '7', '0', '100.0', '0', '0', '0', '0', '32', '7', '14', '30']"
"['', '3898', '2008-10-21', '23:30:00 GMT', '2', 'ATL', 'Atlanta', 'Thrashers', '1', 'TBL', 'Tampa Bay', 'Lightning', '26', 'St. Pete Times Forum', '1', 'TBL', 'Tampa Bay', 'Lightning', '1', '0', '0', '0', '0', '0', '2', '32', '28', '53.3', '5', '1', '20.0', '2', '0', '100.0', '0', '0', '3', '2', '35', '3', '6', '13']"
"['', '3924', '2008-10-25', '23:30:00 GMT', '26', 'SJS', 'San Jose', 'Sharks', '1', 'TBL', 'Tampa Bay', 'Lightning', '26', 'St. Pete Times Forum', '1', 'TBL', 'Tampa Bay', 'Lightning', '0', '1', '0', '0', '0', '0', '0', '18', '28', '39.1', '2', '0', '0.0', '5', '1', '80.0', '0', '0', '0', '3', '22', '7', '17', '25']"
"['', '3942', '2008-10-28', '23:30:00 GMT', '1', 'TBL', 'Tampa Bay', 'Lightning', '12', 'TOR', 'Toronto', 'Maple Leafs', '1', 'Air Canada Center', '1', 'TBL', 'Tampa Bay', 'Lightning', '1', '0', '0', '0', '0', '0', '2', '31', '44', '41.3', '5', '1', '20.0', '6', '2', '66.7', '0', '0', '3', '2', '22', '6', '12', '17']"
"['', '3949', '2008-10-30', '23:00:00 GMT', '1', 'TBL', 'Tampa Bay', 'Lightning', '15', 'BUF', 'Buffalo', 'Sabres', '10', 'HSBC Arena', '1', 'TBL', 'Tampa Bay', 'Lightning', '1', '0', '0', '0', '0', '0', '2', '30', '27', '52.6', '3', '1', '33.3', '4', '1', '75.0', '0', '0', '5', '2', '35', '6', '12', '12']"
"['', '3970', '2008-11-01', '23:30:00 GMT', '13', 'OTT', 'Ottawa', 'Senators', '1', 'TBL', 'Tampa Bay', 'Lightning', '26', 'St. Pete Times Forum', '1', 'TBL', 'Tampa Bay', 'Lightning', '1', '0', '0', '0', '0', '0', '2', '31', '35', '47.0', '4', '0', '0.0', '2', '1', '50.0', '0', '0', '2', '2', '32', '3', '6', '22']"
"['', '3991', '2008-11-05', '00:00:00 GMT', '1', 'TBL', 'Tampa Bay', 'Lightning', '7', 'NJD', 'New Jersey', 'Devils', '5', 'Izod Center', '1', 'TBL', 'Tampa Bay', 'Lightning', '0', '0', '0', '1', '0', '0', '1', '32', '31', '50.8', '3', '2', '66.7', '2', '1', '50.0', '0', '0', '3', '3', '24', '2', '4', '11']"
"['', '3995', '2008-11-06', '00:00:00 GMT', '1', 'TBL', 'Tampa Bay', 'Lightning', '9', 'NYR', 'New York', 'Rangers', '12', 'Madison Square Garden', '1', 'TBL', 'Tampa Bay', 'Lightning', '0', '1', '0', '0', '0', '0', '0', '28', '32', '46.7', '3', '1', '33.3', '6', '3', '50.0', '0', '1', '2', '5', '36', '12', '38', '38']"
"['', '4012', '2008-11-08', '00:00:00 GMT', '1', 'TBL', 'Tampa Bay', 'Lightning', '6', 'PHI', 'Philadelphia', 'Flyers', '29', 'Wachovia Center', '1', 'TBL', 'Tampa Bay', 'Lightning', '1', '0', '0', '0', '0', '0', '2', '30', '31', '49.2', '5', '0', '0.0', '6', '1', '83.3', '0', '0', '2', '1', '20', '7', '20', '21']"
"['', '4027', '2008-11-10', '00:00:00 GMT', '1', 'TBL', 'Tampa Bay', 'Lightning', '5', 'WSH', 'Washington', 'Capitals', '13', 'Verizon Center', '1', 'TBL', 'Tampa Bay', 'Lightning', '0', '1', '0', '0', '0', '0', '0', '28', '29', '49.1', '4', '2', '50.0', '4', '0', '100.0', '0', '0', '2', '4', '34', '4', '8', '15']"
"['', '4038', '2008-11-12', '00:30:00 GMT', '1', 'TBL', 'Tampa Bay', 'Lightning', '4', 'FLO', 'Florida', 'Panthers', '3', 'BankAtlantic Center', '1', 'TBL', 'Tampa Bay', 'Lightning', '0', '1', '0', '0', '0', '0', '0', '35', '25', '58.3', '3', '0', '0.0', '5', '2', '60.0', '0', '0', '0', '4', '24', '7', '17', '24']"
"['', '4044', '2008-11-13', '00:30:00 GMT', '16', 'DET', 'Detroit', 'Red Wings', '1', 'TBL', 'Tampa Bay', 'Lightning', '26', 'St. Pete Times Forum', '1', 'TBL', 'Tampa Bay', 'Lightning', '0', '1', '0', '0', '0', '0', '0', '21', '34', '38.2', '4', '1', '25.0', '4', '1', '75.0', '0', '0', '3', '4', '15', '5', '10', '14']"
"['', '4065', '2008-11-16', '20:00:00 GMT', '1', 'TBL', 'Tampa Bay', 'Lightning', '3', 'CAR', 'Carolina', 'Hurricanes', '21', 'RBC Center', '1', 'TBL', 'Tampa Bay', 'Lightning', '0', '0', '0', '1', '0', '0', '1', '29', '27', '51.8', '4', '1', '25.0', '5', '0', '100.0', '0', '0', '2', '2', '26', '5', '10', '32']"
"['', '4078', '2008-11-18', '00:30:00 GMT', '4', 'FLO', 'Florida', 'Panthers', '1', 'TBL', 'Tampa Bay', 'Lightning', '26', 'St. Pete Times Forum', '1', 'TBL', 'Tampa Bay', 'Lightning', '0', '0', '0', '1', '0', '0', '1', '31', '26', '54.4', '2', '0', '0.0', '5', '2', '60.0', '0', '0', '3', '3', '49', '5', '10', '23']"
"['', '4096', '2008-11-21', '00:30:00 GMT', '18', 'NSH', 'Nashville', 'Predators', '1', 'TBL', 'Tampa Bay', 'Lightning', '26', 'St. Pete Times Forum', '1', 'TBL', 'Tampa Bay', 'Lightning', '1', '0', '0', '0', '0', '0', '2', '25', '32', '43.9', '6', '1', '16.7', '7', '0', '100.0', '0', '0', '4', '1', '20', '7', '14', '16']"
"['', '4111', '2008-11-23', '22:00:00 GMT', '7', 'NJD', 'New Jersey', 'Devils', '1', 'TBL', 'Tampa Bay', 'Lightning', '26', 'St. Pete Times Forum', '1', 'TBL', 'Tampa Bay', 'Lightning', '0', '1', '0', '0', '0', '0', '0', '28', '30', '48.3', '3', '0', '0.0', '2', '0', '100.0', '0', '0', '3', '7', '26', '2', '4', '23']"
"['', '4128', '2008-11-26', '00:30:00 GMT', '9', 'NYR', 'New York', 'Rangers', '1', 'TBL', 'Tampa Bay', 'Lightning', '26', 'St. Pete Times Forum', '1', 'TBL', 'Tampa Bay', 'Lightning', '0', '0', '0', '1', '0', '0', '1', '35', '24', '59.3', '5', '1', '20.0', '5', '1', '80.0', '0', '0', '2', '2', '27', '9', '24', '26']"
"['', '4138', '2008-11-28', '19:00:00 GMT', '1', 'TBL', 'Tampa Bay', 'Lightning', '25', 'MIN', 'Minnesota', 'Wild', '30', 'Xcel Energy Center', '1', 'TBL', 'Tampa Bay', 'Lightning', '0', '1', '0', '0', '0', '0', '0', '29', '24', '54.7', '3', '1', '33.3', '3', '0', '100.0', '0', '0', '2', '4', '35', '3', '6', '16']"
"['', '4156', '2008-11-29', '02:00:00 GMT', '1', 'TBL', 'Tampa Bay', 'Lightning', '22', 'COL', 'Colorado', 'Avalanche', '19', 'Pepsi Center', '1', 'TBL', 'Tampa Bay', 'Lightning', '0', '1', '0', '0', '0', '0', '0', '22', '26', '45.8', '6', '2', '33.3', '3', '1', '66.7', '0', '0', '3', '4', '17', '5', '13', '21']"
"['', '4168', '2008-12-02', '00:00:00 GMT', '1', 'TBL', 'Tampa Bay', 'Lightning', '6', 'PHI', 'Philadelphia', 'Flyers', '29', 'Wachovia Center', '1', 'TBL', 'Tampa Bay', 'Lightning', '0', '0', '0', '1', '0', '0', '1', '33', '32', '50.8', '6', '2', '33.3', '6', '3', '50.0', '0', '1', '3', '4', '34', '8', '19', '11']"
"['', '4184', '2008-12-04', '00:30:00 GMT', '11', 'BOS', 'Boston', 'Bruins', '1', 'TBL', 'Tampa Bay', 'Lightning', '26', 'St. Pete Times Forum', '1', 'TBL', 'Tampa Bay', 'Lightning', '0', '1', '0', '0', '0', '0', '0', '31', '25', '55.4', '3', '0', '0.0', '1', '0', '100.0', '0', '1', '1', '3', '30', '1', '2', '27']"
"['', '4200', '2008-12-06', '00:30:00 GMT', '15', 'BUF', 'Buffalo', 'Sabres', '1', 'TBL', 'Tampa Bay', 'Lightning', '26', 'St. Pete Times Forum', '1', 'TBL', 'Tampa Bay', 'Lightning', '0', '1', '0', '0', '0', '0', '0', '32', '18', '64.0', '5', '0', '0.0', '6', '0', '100.0', '0', '0', '3', '4', '20', '10', '29', '25']"
"['', '4210', '2008-12-08', '00:00:00 GMT', '1', 'TBL', 'Tampa Bay', 'Lightning', '11', 'BOS', 'Boston', 'Bruins', '27', 'TD Banknorth Garden', '1', 'TBL', 'Tampa Bay', 'Lightning', '0', '1', '0', '0', '0', '0', '0', '25', '34', '42.4', '4', '0', '0.0', '6', '2', '66.7', '0', '0', '3', '5', '26', '6', '12', '17']"
"['', '4219', '2008-12-10', '00:00:00 GMT', '1', 'TBL', 'Tampa Bay', 'Lightning', '15', 'BUF', 'Buffalo', 'Sabres', '10', 'HSBC Arena', '1', 'TBL', 'Tampa Bay', 'Lightning', '0', '1', '0', '0', '0', '0', '0', '32', '32', '50.0', '3', '0', '0.0', '5', '2', '60.0', '0', '1', '2', '4', '26', '9', '24', '16']"
"['', '4229', '2008-12-11', '00:30:00 GMT', '1', 'TBL', 'Tampa Bay', 'Lightning', '14', 'MTL', 'Montreal', 'Canadiens', '4', 'Bell Centre', '1', 'TBL', 'Tampa Bay', 'Lightning', '1', '0', '0', '0', '0', '0', '2', '28', '28', '50.0', '3', '0', '0.0', '6', '1', '83.3', '1', '0', '3', '1', '19', '8', '19', '16']"
"['', '4248', '2008-12-13', '00:00:00 GMT', '1', 'TBL', 'Tampa Bay', 'Lightning', '13', 'OTT', 'Ottawa', 'Senators', '23', 'Scotiabank Place', '1', 'TBL', 'Tampa Bay', 'Lightning', '0', '1', '0', '0', '0', '0', '0', '18', '35', '34.0', '4', '0', '0.0', '8', '1', '87.5', '0', '0', '0', '2', '24', '10', '31', '23']"
"['', '4279', '2008-12-18', '00:30:00 GMT', '22', 'COL', 'Colorado', 'Avalanche', '1', 'TBL', 'Tampa Bay', 'Lightning', '26', 'St. Pete Times Forum', '1', 'TBL', 'Tampa Bay', 'Lightning', '0', '0', '0', '1', '0', '0', '1', '25', '31', '44.6', '1', '0', '0.0', '5', '0', '100.0', '0', '0', '1', '1', '37', '7', '30', '22']"
"['', '4293', '2008-12-20', '00:00:00 GMT', '1', 'TBL', 'Tampa Bay', 'Lightning', '2', 'ATL', 'Atlanta', 'Thrashers', '20', 'Philips Arena', '1', 'TBL', 'Tampa Bay', 'Lightning', '0', '1', '0', '0', '0', '0', '0', '26', '28', '48.1', '5', '2', '40.0', '4', '1', '75.0', '0', '0', '3', '4', '36', '6', '12', '8']"
"['', '4313', '2008-12-23', '00:30:00 GMT', '1', 'TBL', 'Tampa Bay', 'Lightning', '10', 'PIT', 'Pittsburgh', 'Penguins', '14', 'Mellon Arena', '1', 'TBL', 'Tampa Bay', 'Lightning', '1', '0', '0', '0', '0', '0', '2', '28', '20', '58.3', '5', '1', '20.0', '3', '0', '100.0', '0', '0', '2', '0', '27', '5', '10', '32']"
"['', '4323', '2008-12-26', '00:30:00 GMT', '1', 'TBL', 'Tampa Bay', 'Lightning', '4', 'FLO', 'Florida', 'Panthers', '3', 'BankAtlantic Center', '1', 'TBL', 'Tampa Bay', 'Lightning', '1', '0', '0', '0', '0', '0', '2', '27', '29', '48.2', '5', '0', '0.0', '4', '1', '75.0', '0', '0', '3', '3', '32', '8', '30', '29']"
"['', '4334', '2008-12-27', '00:30:00 GMT', '4', 'FLO', 'Florida', 'Panthers', '1', 'TBL', 'Tampa Bay', 'Lightning', '26', 'St. Pete Times Forum', '1', 'TBL', 'Tampa Bay', 'Lightning', '1', '0', '0', '0', '0', '0', '2', '38', '29', '56.7', '5', '1', '20.0', '8', '2', '75.0', '0', '0', '6', '4', '36', '8', '16', '23']"
"['', '4355', '2008-12-30', '00:30:00 GMT', '14', 'MTL', 'Montreal', 'Canadiens', '1', 'TBL', 'Tampa Bay', 'Lightning', '26', 'St. Pete Times Forum', '1', 'TBL', 'Tampa Bay', 'Lightning', '0', '0', '0', '1', '0', '0', '1', '26', '25', '51.0', '4', '1', '25.0', '5', '0', '100.0', '0', '0', '1', '1', '21', '7', '17', '28']"
"['', '4370', '2009-01-01', '00:00:00 GMT', '1', 'TBL', 'Tampa Bay', 'Lightning', '5', 'WSH', 'Washington', 'Capitals', '13', 'Verizon Center', '1', 'TBL', 'Tampa Bay', 'Lightning', '0', '1', '0', '0', '0', '0', '0', '31', '28', '52.5', '2', '0', '0.0', '2', '0', '100.0', '0', '0', '4', '7', '22', '4', '11', '28']"
"['', '4383', '2009-01-03', '00:30:00 GMT', '3', 'CAR', 'Carolina', 'Hurricanes', '1', 'TBL', 'Tampa Bay', 'Lightning', '26', 'St. Pete Times Forum', '1', 'TBL', 'Tampa Bay', 'Lightning', '0', '1', '0', '0', '0', '0', '0', '32', '23', '58.2', '2', '0', '0.0', '5', '1', '80.0', '0', '0', '2', '3', '17', '5', '10', '22']"
"['', '4390', '2009-01-04', '22:00:00 GMT', '1', 'TBL', 'Tampa Bay', 'Lightning', '2', 'ATL', 'Atlanta', 'Thrashers', '20', 'Philips Arena', '1', 'TBL', 'Tampa Bay', 'Lightning', '1', '0', '0', '0', '0', '0', '2', '20', '29', '40.8', '4', '2', '50.0', '2', '0', '100.0', '0', '0', '4', '1', '31', '3', '6', '11']"
"['', '4420', '2009-01-08', '02:00:00 GMT', '1', 'TBL', 'Tampa Bay', 'Lightning', '30', 'PHX', 'Phoenix', 'Coyotes', '6', 'Jobing.com Arena', '1', 'TBL', 'Tampa Bay', 'Lightning', '0', '1', '0', '0', '0', '0', '0', '25', '24', '51.0', '2', '1', '50.0', '3', '1', '66.7', '0', '0', '2', '3', '22', '3', '6', '29']"
"['', '4426', '2009-01-09', '03:00:00 GMT', '1', 'TBL', 'Tampa Bay', 'Lightning', '29', 'ANA', 'Anaheim', 'Ducks', '8', 'Honda Center', '1', 'TBL', 'Tampa Bay', 'Lightning', '1', '0', '0', '0', '0', '0', '2', '26', '30', '46.4', '3', '1', '33.3', '4', '1', '75.0', '1', '0', '4', '3', '15', '5', '13', '21']"
"['', '4443', '2009-01-12', '03:30:00 GMT', '1', 'TBL', 'Tampa Bay', 'Lightning', '28', 'LAK', 'Los Angeles', 'Kings', '25', 'Staples Center', '1', 'TBL', 'Tampa Bay', 'Lightning', '1', '0', '0', '0', '0', '0', '2', '24', '30', '44.4', '4', '0', '0.0', '4', '0', '100.0', '0', '0', '3', '1', '19', '7', '25', '33']"
"['', '4454', '2009-01-13', '03:30:00 GMT', '1', 'TBL', 'Tampa Bay', 'Lightning', '26', 'SJS', 'San Jose', 'Sharks', '9', 'HP Pavilion at San Jose', '1', 'TBL', 'Tampa Bay', 'Lightning', '0', '1', '0', '0', '0', '0', '0', '18', '37', '32.7', '2', '0', '0.0', '8', '3', '62.5', '0', '0', '1', '7', '24', '12', '40', '25']"
"['', '4462', '2009-01-15', '00:30:00 GMT', '6', 'PHI', 'Philadelphia', 'Flyers', '1', 'TBL', 'Tampa Bay', 'Lightning', '26', 'St. Pete Times Forum', '1', 'TBL', 'Tampa Bay', 'Lightning', '1', '0', '0', '0', '0', '0', '2', '22', '26', '45.8', '4', '1', '25.0', '2', '1', '50.0', '0', '0', '4', '1', '40', '5', '18', '19']"
"['', '4480', '2009-01-17', '00:30:00 GMT', '4', 'FLO', 'Florida', 'Panthers', '1', 'TBL', 'Tampa Bay', 'Lightning', '26', 'St. Pete Times Forum', '1', 'TBL', 'Tampa Bay', 'Lightning', '0', '1', '0', '0', '0', '0', '0', '33', '24', '57.9', '4', '1', '25.0', '2', '2', '0.0', '0', '0', '3', '4', '30', '2', '4', '16']"
"['', '4492', '2009-01-19', '00:30:00 GMT', '27', 'DAL', 'Dallas', 'Stars', '1', 'TBL', 'Tampa Bay', 'Lightning', '26', 'St. Pete Times Forum', '1', 'TBL', 'Tampa Bay', 'Lightning', '1', '0', '0', '0', '0', '0', '2', '25', '24', '51.0', '2', '1', '50.0', '7', '1', '85.7', '1', '0', '4', '2', '16', '7', '14', '20']"
"['', '4508', '2009-01-21', '00:30:00 GMT', '15', 'BUF', 'Buffalo', 'Sabres', '1', 'TBL', 'Tampa Bay', 'Lightning', '26', 'St. Pete Times Forum', '1', 'TBL', 'Tampa Bay', 'Lightning', '1', '0', '0', '0', '0', '0', '2', '35', '35', '50.0', '4', '3', '75.0', '4', '2', '50.0', '0', '0', '5', '3', '21', '6', '12', '23']"
"['', '4518', '2009-01-27', '00:30:00 GMT', '14', 'MTL', 'Montreal', 'Canadiens', '1', 'TBL', 'Tampa Bay', 'Lightning', '26', 'St. Pete Times Forum', '1', 'TBL', 'Tampa Bay', 'Lightning', '1', '0', '0', '0', '0', '0', '2', '34', '32', '51.5', '7', '2', '28.6', '4', '0', '100.0', '0', '0', '5', '3', '18', '6', '12', '24']"
"['', '4530', '2009-01-29', '00:00:00 GMT', '1', 'TBL', 'Tampa Bay', 'Lightning', '3', 'CAR', 'Carolina', 'Hurricanes', '21', 'RBC Center', '1', 'TBL', 'Tampa Bay', 'Lightning', '0', '1', '0', '0', '0', '0', '0', '29', '23', '55.8', '3', '0', '0.0', '4', '0', '100.0', '0', '1', '2', '3', '27', '5', '10', '22']"
"['', '4540', '2009-01-30', '00:30:00 GMT', '6', 'PHI', 'Philadelphia', 'Flyers', '1', 'TBL', 'Tampa Bay', 'Lightning', '26', 'St. Pete Times Forum', '1', 'TBL', 'Tampa Bay', 'Lightning', '0', '1', '0', '0', '0', '0', '0', '33', '36', '47.8', '7', '1', '14.3', '5', '1', '80.0', '0', '0', '1', '6', '40', '10', '26', '25']"
"['', '4562', '2009-02-03', '00:00:00 GMT', '1', 'TBL', 'Tampa Bay', 'Lightning', '8', 'NYI', 'New York', 'Islanders', '16', 'Nassau Veterans Memorial Coliseum', '1', 'TBL', 'Tampa Bay', 'Lightning', '0', '1', '0', '0', '0', '0', '0', '23', '27', '46.0', '7', '1', '14.3', '5', '1', '80.0', '0', '0', '1', '3', '29', '7', '17', '21']"
"['', '4575', '2009-02-04', '00:30:00 GMT', '1', 'TBL', 'Tampa Bay', 'Lightning', '10', 'PIT', 'Pittsburgh', 'Penguins', '14', 'Mellon Arena', '1', 'TBL', 'Tampa Bay', 'Lightning', '0', '0', '0', '1', '0', '0', '1', '31', '23', '57.4', '3', '0', '0.0', '5', '1', '80.0', '0', '0', '3', '4', '21', '7', '14', '44']"
"['', '4598', '2009-02-07', '00:30:00 GMT', '8', 'NYI', 'New York', 'Islanders', '1', 'TBL', 'Tampa Bay', 'Lightning', '26', 'St. Pete Times Forum', '1', 'TBL', 'Tampa Bay', 'Lightning', '1', '0', '0', '0', '0', '0', '2', '33', '17', '66.0', '4', '0', '0.0', '4', '0', '100.0', '0', '0', '1', '0', '27', '6', '18', '23']"
"['', '4611', '2009-02-10', '00:30:00 GMT', '2', 'ATL', 'Atlanta', 'Thrashers', '1', 'TBL', 'Tampa Bay', 'Lightning', '26', 'St. Pete Times Forum', '1', 'TBL', 'Tampa Bay', 'Lightning', '0', '1', '0', '0', '0', '0', '0', '27', '31', '46.6', '5', '0', '0.0', '3', '0', '100.0', '0', '1', '1', '3', '39', '3', '6', '27']"
"['', '4627', '2009-02-12', '00:30:00 GMT', '12', 'TOR', 'Toronto', 'Maple Leafs', '1', 'TBL', 'Tampa Bay', 'Lightning', '26', 'St. Pete Times Forum', '1', 'TBL', 'Tampa Bay', 'Lightning', '1', '0', '0', '0', '0', '0', '2', '27', '22', '55.1', '4', '2', '50.0', '2', '1', '50.0', '0', '0', '6', '4', '25', '3', '9', '18']"
"['', '4642', '2009-02-14', '00:30:00 GMT', '5', 'WSH', 'Washington', 'Capitals', '1', 'TBL', 'Tampa Bay', 'Lightning', '26', 'St. Pete Times Forum', '1', 'TBL', 'Tampa Bay', 'Lightning', '0', '1', '0', '0', '0', '0', '0', '27', '24', '52.9', '3', '0', '0.0', '4', '1', '75.0', '0', '0', '1', '5', '31', '4', '8', '19']"
"['', '4661', '2009-02-17', '00:30:00 GMT', '20', 'CHI', 'Chicago', 'Blackhawks', '1', 'TBL', 'Tampa Bay', 'Lightning', '26', 'St. Pete Times Forum', '1', 'TBL', 'Tampa Bay', 'Lightning', '0', '1', '0', '0', '0', '0', '0', '33', '30', '52.4', '5', '2', '40.0', '5', '2', '60.0', '0', '0', '3', '5', '20', '9', '32', '29']"
"['', '4676', '2009-02-19', '00:30:00 GMT', '7', 'NJD', 'New Jersey', 'Devils', '1', 'TBL', 'Tampa Bay', 'Lightning', '26', 'St. Pete Times Forum', '1', 'TBL', 'Tampa Bay', 'Lightning', '0', '0', '0', '1', '0', '0', '1', '35', '24', '59.3', '4', '0', '0.0', '3', '2', '33.3', '0', '0', '2', '2', '39', '5', '13', '23']"
"['', '4684', '2009-02-20', '00:00:00 GMT', '1', 'TBL', 'Tampa Bay', 'Lightning', '3', 'CAR', 'Carolina', 'Hurricanes', '21', 'RBC Center', '1', 'TBL', 'Tampa Bay', 'Lightning', '0', '1', '0', '0', '0', '0', '0', '22', '28', '44.0', '3', '0', '0.0', '7', '2', '71.4', '0', '0', '1', '4', '12', '8', '19', '35']"
"['', '4702', '2009-02-22', '22:00:00 GMT', '11', 'BOS', 'Boston', 'Bruins', '1', 'TBL', 'Tampa Bay', 'Lightning', '26', 'St. Pete Times Forum', '1', 'TBL', 'Tampa Bay', 'Lightning', '1', '0', '0', '0', '0', '0', '2', '26', '34', '43.3', '5', '1', '20.0', '3', '1', '66.7', '0', '0', '4', '3', '14', '7', '20', '30']"
"['', '4716', '2009-02-24', '02:00:00 GMT', '1', 'TBL', 'Tampa Bay', 'Lightning', '24', 'EDM', 'Edmonton', 'Oilers', '22', 'Rogers Place', '1', 'TBL', 'Tampa Bay', 'Lightning', '0', '1', '0', '0', '0', '0', '0', '36', '32', '52.9', '2', '1', '50.0', '5', '0', '100.0', '0', '0', '3', '5', '26', '9', '21', '12']"
"['', '4735', '2009-02-27', '03:00:00 GMT', '1', 'TBL', 'Tampa Bay', 'Lightning', '21', 'VAN', 'Vancouver', 'Canucks', '7', 'General Motors Place', '1', 'TBL', 'Tampa Bay', 'Lightning', '0', '1', '0', '0', '0', '0', '0', '25', '27', '48.1', '2', '0', '0.0', '5', '1', '80.0', '0', '0', '1', '2', '20', '5', '10', '16']"
"['', '4751', '2009-03-01', '01:00:00 GMT', '1', 'TBL', 'Tampa Bay', 'Lightning', '23', 'CGY', 'Calgary', 'Flames', '18', 'Pengrowth Saddledome', '1', 'TBL', 'Tampa Bay', 'Lightning', '1', '0', '0', '0', '0', '0', '2', '22', '29', '43.1', '5', '3', '60.0', '3', '3', '0.0', '0', '0', '8', '6', '24', '4', '11', '14']"
"['', '4759', '2009-03-03', '00:30:00 GMT', '10', 'PIT', 'Pittsburgh', 'Penguins', '1', 'TBL', 'Tampa Bay', 'Lightning', '26', 'St. Pete Times Forum', '1', 'TBL', 'Tampa Bay', 'Lightning', '0', '1', '0', '0', '0', '0', '0', '31', '22', '58.5', '1', '0', '0.0', '3', '1', '66.7', '0', '0', '1', '3', '32', '5', '13', '22']"
"['', '4779', '2009-03-06', '00:30:00 GMT', '17', 'STL', 'St. Louis', 'Blues', '1', 'TBL', 'Tampa Bay', 'Lightning', '26', 'St. Pete Times Forum', '1', 'TBL', 'Tampa Bay', 'Lightning', '0', '0', '0', '1', '0', '0', '1', '31', '26', '54.4', '2', '1', '50.0', '4', '1', '75.0', '0', '0', '3', '4', '20', '6', '12', '24']"
"['', '4790', '2009-03-07', '00:30:00 GMT', '3', 'CAR', 'Carolina', 'Hurricanes', '1', 'TBL', 'Tampa Bay', 'Lightning', '26', 'St. Pete Times Forum', '1', 'TBL', 'Tampa Bay', 'Lightning', '0', '1', '0', '0', '0', '0', '0', '33', '20', '62.3', '4', '0', '0.0', '5', '2', '60.0', '0', '1', '3', '9', '22', '6', '12', '21']"
"['', '4813', '2009-03-11', '23:00:00 GMT', '1', 'TBL', 'Tampa Bay', 'Lightning', '13', 'OTT', 'Ottawa', 'Senators', '23', 'Scotiabank Place', '1', 'TBL', 'Tampa Bay', 'Lightning', '0', '0', '0', '1', '0', '0', '1', '32', '25', '56.1', '5', '2', '40.0', '4', '1', '75.0', '0', '1', '2', '3', '22', '9', '26', '35']"
"['', '4823', '2009-03-12', '23:30:00 GMT', '1', 'TBL', 'Tampa Bay', 'Lightning', '12', 'TOR', 'Toronto', 'Maple Leafs', '1', 'Air Canada Center', '1', 'TBL', 'Tampa Bay', 'Lightning', '1', '0', '0', '0', '0', '0', '2', '27', '24', '52.9', '4', '1', '25.0', '3', '0', '100.0', '0', '0', '4', '1', '26', '5', '26', '35']"
"['', '4839', '2009-03-14', '23:00:00 GMT', '1', 'TBL', 'Tampa Bay', 'Lightning', '4', 'FLO', 'Florida', 'Panthers', '3', 'BankAtlantic Center', '1', 'TBL', 'Tampa Bay', 'Lightning', '1', '0', '0', '0', '0', '0', '2', '30', '35', '46.2', '3', '1', '33.3', '3', '1', '66.7', '0', '0', '3', '3', '24', '4', '11', '38']"
"['', '4858', '2009-03-17', '23:30:00 GMT', '12', 'TOR', 'Toronto', 'Maple Leafs', '1', 'TBL', 'Tampa Bay', 'Lightning', '26', 'St. Pete Times Forum', '1', 'TBL', 'Tampa Bay', 'Lightning', '0', '0', '0', '1', '0', '0', '1', '33', '29', '53.2', '5', '2', '40.0', '5', '0', '100.0', '0', '0', '3', '3', '19', '7', '25', '24']"
"['', '4870', '2009-03-19', '23:30:00 GMT', '5', 'WSH', 'Washington', 'Capitals', '1', 'TBL', 'Tampa Bay', 'Lightning', '26', 'St. Pete Times Forum', '1', 'TBL', 'Tampa Bay', 'Lightning', '0', '1', '0', '0', '0', '0', '0', '24', '32', '42.9', '5', '1', '20.0', '2', '1', '50.0', '0', '0', '2', '5', '26', '5', '10', '20']"
"['', '4889', '2009-03-21', '23:30:00 GMT', '2', 'ATL', 'Atlanta', 'Thrashers', '1', 'TBL', 'Tampa Bay', 'Lightning', '26', 'St. Pete Times Forum', '1', 'TBL', 'Tampa Bay', 'Lightning', '0', '0', '0', '1', '0', '0', '1', '33', '32', '50.8', '4', '2', '50.0', '6', '2', '66.7', '0', '0', '3', '3', '26', '8', '16', '20']"
"['', '4904', '2009-03-24', '23:30:00 GMT', '19', 'CBJ', 'Columbus', 'Blue Jackets', '1', 'TBL', 'Tampa Bay', 'Lightning', '26', 'St. Pete Times Forum', '1', 'TBL', 'Tampa Bay', 'Lightning', '1', '0', '0', '0', '0', '0', '2', '21', '21', '50.0', '1', '1', '100.0', '3', '0', '100.0', '0', '0', '2', '1', '15', '3', '6', '27']"
"['', '4918', '2009-03-26', '23:30:00 GMT', '1', 'TBL', 'Tampa Bay', 'Lightning', '14', 'MTL', 'Montreal', 'Canadiens', '4', 'Bell Centre', '1', 'TBL', 'Tampa Bay', 'Lightning', '0', '0', '0', '1', '0', '0', '1', '31', '40', '43.7', '1', '0', '0.0', '8', '1', '87.5', '0', '0', '2', '3', '17', '9', '18', '46']"
"['', '4923', '2009-03-27', '23:00:00 GMT', '1', 'TBL', 'Tampa Bay', 'Lightning', '5', 'WSH', 'Washington', 'Capitals', '13', 'Verizon Center', '1', 'TBL', 'Tampa Bay', 'Lightning', '0', '1', '0', '0', '0', '0', '0', '26', '37', '41.3', '3', '0', '0.0', '7', '3', '57.1', '0', '0', '3', '5', '33', '10', '20', '13']"
"['', '4942', '2009-03-29', '22:00:00 GMT', '13', 'OTT', 'Ottawa', 'Senators', '1', 'TBL', 'Tampa Bay', 'Lightning', '26', 'St. Pete Times Forum', '1', 'TBL', 'Tampa Bay', 'Lightning', '0', '1', '0', '0', '0', '0', '0', '19', '32', '37.3', '4', '0', '0.0', '4', '2', '50.0', '0', '0', '0', '3', '20', '6', '12', '17']"
"['', '4950', '2009-03-31', '23:00:00 GMT', '1', 'TBL', 'Tampa Bay', 'Lightning', '11', 'BOS', 'Boston', 'Bruins', '27', 'TD Banknorth Garden', '1', 'TBL', 'Tampa Bay', 'Lightning', '0', '1', '0', '0', '0', '0', '0', '33', '25', '56.9', '3', '0', '0.0', '6', '2', '66.7', '0', '0', '1', '3', '24', '10', '29', '21']"
"['', '4971', '2009-04-03', '23:00:00 GMT', '1', 'TBL', 'Tampa Bay', 'Lightning', '7', 'NJD', 'New Jersey', 'Devils', '5', 'Izod Center', '1', 'TBL', 'Tampa Bay', 'Lightning', '0', '0', '0', '1', '0', '0', '1', '17', '35', '32.7', '2', '1', '50.0', '3', '1', '66.7', '0', '0', '4', '5', '18', '6', '23', '23']"
"['', '4980', '2009-04-04', '23:00:00 GMT', '1', 'TBL', 'Tampa Bay', 'Lightning', '8', 'NYI', 'New York', 'Islanders', '16', 'Nassau Veterans Memorial Coliseum', '1', 'TBL', 'Tampa Bay', 'Lightning', '0', '1', '0', '0', '0', '0', '0', '23', '30', '43.4', '2', '1', '50.0', '5', '2', '60.0', '0', '0', '1', '3', '29', '9', '32', '29']"
"['', '5003', '2009-04-07', '23:30:00 GMT', '10', 'PIT', 'Pittsburgh', 'Penguins', '1', 'TBL', 'Tampa Bay', 'Lightning', '26', 'St. Pete Times Forum', '1', 'TBL', 'Tampa Bay', 'Lightning', '0', '1', '0', '0', '0', '0', '0', '28', '18', '60.9', '7', '0', '0.0', '4', '1', '75.0', '1', '0', '4', '6', '33', '8', '30', '19']"
"['', '5019', '2009-04-09', '23:30:00 GMT', '5', 'WSH', 'Washington', 'Capitals', '1', 'TBL', 'Tampa Bay', 'Lightning', '26', 'St. Pete Times Forum', '1', 'TBL', 'Tampa Bay', 'Lightning', '0', '1', '0', '0', '0', '0', '0', '33', '27', '55.0', '4', '0', '0.0', '4', '1', '75.0', '0', '0', '2', '4', '22', '5', '10', '16']"
"['', '5036', '2009-04-11', '23:00:00 GMT', '1', 'TBL', 'Tampa Bay', 'Lightning', '2', 'ATL', 'Atlanta', 'Thrashers', '20', 'Philips Arena', '1', 'TBL', 'Tampa Bay', 'Lightning', '0', '1', '0', '0', '0', '0', '0', '27', '33', '45.0', '5', '1', '20.0', '6', '2', '66.7', '0', '1', '2', '6', '33', '10', '29', '11']"
