"['#Date/Time of Update: 2018-12-10 19:03:07 GMT', '#Game ID', '#Game Date', '#Game Time', '#Away Team ID', '#Away Team Abbr.', '#Away Team City', '#Away Team Name', '#Home Team ID', '#Home Team Abbr.', '#Home Team City', '#Home Team Name', '#Venue ID', '#Venue Name', '#Team ID', '#Team Abbr.', '#Team City', '#Team Name', '#Wins', '#Losses', '#OvertimeWins', '#OvertimeLosses', '#ShootoutWins', '#ShootoutLosses', '#Rows', '#Points', '#FaceoffWins', '#FaceoffLosses', '#FaceoffPercent', '#Powerplays', '#PowerplayGoals', '#PowerplayPercent', '#PenaltyKills', '#PenaltyKillGoalsAllowed', '#PenaltyKillPercent', '#ShorthandedGoalsFor', '#ShorthandedGoalsAgainst', '#GoalsFor', '#GoalsAgainst', '#Shots', '#Penalties', '#PenaltyMinutes', '#Hits']"
"['', '19737', '2013-01-20', '00:00:00 GMT', '26', 'SJS', 'San Jose', 'Sharks', '23', 'CGY', 'Calgary', 'Flames', '18', 'Scotiabank Saddledome', '26', 'SJS', 'San Jose', 'Sharks', '1', '0', '0', '0', '0', '0', '1', '2', '42', '27', '60.9', '3', '2', '66.7', '3', '1', '66.7', '0', '0', '4', '1', '25', '3', '6', '22']"
"['', '19756', '2013-01-22', '03:00:00 GMT', '26', 'SJS', 'San Jose', 'Sharks', '24', 'EDM', 'Edmonton', 'Oilers', '22', 'Rogers Place', '26', 'SJS', 'San Jose', 'Sharks', '1', '0', '0', '0', '0', '0', '1', '2', '37', '31', '54.4', '5', '3', '60.0', '5', '2', '60.0', '0', '0', '6', '3', '25', '6', '12', '13']"
"['', '19770', '2013-01-24', '03:30:00 GMT', '30', 'PHX', 'Phoenix', 'Coyotes', '26', 'SJS', 'San Jose', 'Sharks', '9', 'SAP Center at San Jose', '26', 'SJS', 'San Jose', 'Sharks', '1', '0', '0', '0', '0', '0', '1', '2', '36', '26', '58.1', '6', '2', '33.3', '6', '2', '66.7', '0', '0', '5', '3', '30', '6', '12', '25']"
"['', '19778', '2013-01-26', '21:00:00 GMT', '22', 'COL', 'Colorado', 'Avalanche', '26', 'SJS', 'San Jose', 'Sharks', '9', 'SAP Center at San Jose', '26', 'SJS', 'San Jose', 'Sharks', '1', '0', '0', '0', '0', '0', '1', '2', '32', '28', '53.3', '6', '3', '50.0', '2', '0', '100.0', '0', '0', '4', '0', '39', '5', '21', '22']"
"['', '19793', '2013-01-27', '01:00:00 GMT', '21', 'VAN', 'Vancouver', 'Canucks', '26', 'SJS', 'San Jose', 'Sharks', '9', 'SAP Center at San Jose', '26', 'SJS', 'San Jose', 'Sharks', '1', '0', '0', '0', '0', '0', '1', '2', '42', '20', '67.7', '7', '2', '28.6', '6', '0', '100.0', '0', '0', '4', '1', '23', '13', '51', '16']"
"['', '19808', '2013-01-29', '03:30:00 GMT', '29', 'ANA', 'Anaheim', 'Ducks', '26', 'SJS', 'San Jose', 'Sharks', '9', 'SAP Center at San Jose', '26', 'SJS', 'San Jose', 'Sharks', '1', '0', '0', '0', '0', '0', '0', '2', '27', '23', '54.0', '2', '0', '0.0', '4', '0', '100.0', '0', '0', '2', '2', '16', '4', '8', '29']"
"['', '19821', '2013-01-31', '03:30:00 GMT', '24', 'EDM', 'Edmonton', 'Oilers', '26', 'SJS', 'San Jose', 'Sharks', '9', 'SAP Center at San Jose', '26', 'SJS', 'San Jose', 'Sharks', '1', '0', '0', '0', '0', '0', '0', '2', '31', '20', '60.8', '4', '0', '0.0', '3', '0', '100.0', '0', '0', '2', '2', '36', '3', '6', '18']"
"['', '19839', '2013-02-02', '03:30:00 GMT', '18', 'NSH', 'Nashville', 'Predators', '26', 'SJS', 'San Jose', 'Sharks', '9', 'SAP Center at San Jose', '26', 'SJS', 'San Jose', 'Sharks', '0', '0', '0', '1', '0', '0', '0', '1', '33', '31', '51.6', '4', '1', '25.0', '3', '0', '100.0', '0', '0', '1', '1', '26', '5', '10', '24']"
"['', '19848', '2013-02-04', '03:00:00 GMT', '26', 'SJS', 'San Jose', 'Sharks', '29', 'ANA', 'Anaheim', 'Ducks', '8', 'Honda Center', '26', 'SJS', 'San Jose', 'Sharks', '0', '1', '0', '0', '0', '0', '0', '0', '31', '26', '54.4', '5', '0', '0.0', '6', '0', '100.0', '0', '0', '1', '2', '25', '8', '27', '19']"
"['', '19858', '2013-02-05', '03:30:00 GMT', '20', 'CHI', 'Chicago', 'Blackhawks', '26', 'SJS', 'San Jose', 'Sharks', '9', 'SAP Center at San Jose', '26', 'SJS', 'San Jose', 'Sharks', '0', '1', '0', '0', '0', '0', '0', '0', '38', '34', '52.8', '4', '0', '0.0', '1', '0', '100.0', '0', '0', '3', '5', '30', '6', '23', '23']"
"['', '19880', '2013-02-09', '21:00:00 GMT', '30', 'PHX', 'Phoenix', 'Coyotes', '26', 'SJS', 'San Jose', 'Sharks', '9', 'SAP Center at San Jose', '26', 'SJS', 'San Jose', 'Sharks', '0', '0', '0', '1', '0', '0', '0', '1', '24', '29', '45.3', '3', '0', '0.0', '3', '0', '100.0', '0', '0', '0', '0', '33', '3', '6', '14']"
"['', '19895', '2013-02-11', '00:00:00 GMT', '26', 'SJS', 'San Jose', 'Sharks', '19', 'CBJ', 'Columbus', 'Blue Jackets', '17', 'Nationwide Arena', '26', 'SJS', 'San Jose', 'Sharks', '0', '1', '0', '0', '0', '0', '0', '0', '24', '31', '43.6', '3', '1', '33.3', '4', '2', '50.0', '0', '0', '2', '6', '25', '6', '18', '20']"
"['', '19905', '2013-02-12', '01:00:00 GMT', '26', 'SJS', 'San Jose', 'Sharks', '18', 'NSH', 'Nashville', 'Predators', '15', 'Bridgestone Arena', '26', 'SJS', 'San Jose', 'Sharks', '0', '0', '0', '1', '0', '0', '0', '1', '22', '35', '38.6', '4', '0', '0.0', '2', '0', '100.0', '0', '0', '0', '1', '25', '3', '6', '12']"
"['', '19922', '2013-02-15', '01:30:00 GMT', '26', 'SJS', 'San Jose', 'Sharks', '20', 'CHI', 'Chicago', 'Blackhawks', '28', 'United Center', '26', 'SJS', 'San Jose', 'Sharks', '0', '1', '0', '0', '0', '0', '0', '0', '27', '27', '50.0', '3', '0', '0.0', '4', '2', '50.0', '0', '0', '1', '4', '27', '8', '19', '24']"
"['', '19951', '2013-02-19', '01:00:00 GMT', '26', 'SJS', 'San Jose', 'Sharks', '17', 'STL', 'St. Louis', 'Blues', '24', 'Scottrade Center', '26', 'SJS', 'San Jose', 'Sharks', '1', '0', '0', '0', '0', '0', '1', '2', '37', '31', '54.4', '4', '0', '0.0', '3', '0', '100.0', '0', '0', '2', '1', '23', '5', '13', '23']"
"['', '19970', '2013-02-22', '01:30:00 GMT', '26', 'SJS', 'San Jose', 'Sharks', '20', 'CHI', 'Chicago', 'Blackhawks', '28', 'United Center', '26', 'SJS', 'San Jose', 'Sharks', '0', '1', '0', '0', '0', '0', '0', '0', '27', '33', '45.0', '4', '0', '0.0', '2', '0', '100.0', '0', '1', '1', '2', '26', '4', '16', '27']"
"['', '19981', '2013-02-23', '01:00:00 GMT', '26', 'SJS', 'San Jose', 'Sharks', '27', 'DAL', 'Dallas', 'Stars', '2', 'American Airlines Center', '26', 'SJS', 'San Jose', 'Sharks', '0', '1', '0', '0', '0', '0', '0', '0', '34', '33', '50.7', '6', '1', '16.7', '6', '2', '66.7', '0', '0', '1', '3', '31', '9', '21', '8']"
"['', '20004', '2013-02-26', '03:30:00 GMT', '22', 'COL', 'Colorado', 'Avalanche', '26', 'SJS', 'San Jose', 'Sharks', '9', 'SAP Center at San Jose', '26', 'SJS', 'San Jose', 'Sharks', '1', '0', '0', '0', '0', '0', '0', '2', '33', '35', '48.5', '5', '0', '0.0', '1', '0', '100.0', '0', '0', '2', '2', '39', '2', '4', '18']"
"['', '20019', '2013-02-28', '03:30:00 GMT', '16', 'DET', 'Detroit', 'Red Wings', '26', 'SJS', 'San Jose', 'Sharks', '9', 'SAP Center at San Jose', '26', 'SJS', 'San Jose', 'Sharks', '0', '0', '0', '1', '0', '0', '0', '1', '30', '26', '53.6', '1', '0', '0.0', '1', '0', '100.0', '0', '0', '1', '1', '25', '2', '4', '23']"
"['', '20031', '2013-03-02', '03:30:00 GMT', '18', 'NSH', 'Nashville', 'Predators', '26', 'SJS', 'San Jose', 'Sharks', '9', 'SAP Center at San Jose', '26', 'SJS', 'San Jose', 'Sharks', '1', '0', '0', '0', '0', '0', '1', '2', '33', '24', '57.9', '4', '2', '50.0', '0', '0', '0.0', '0', '1', '2', '1', '37', '1', '2', '23']"
"['', '20054', '2013-03-05', '03:00:00 GMT', '26', 'SJS', 'San Jose', 'Sharks', '21', 'VAN', 'Vancouver', 'Canucks', '7', 'Rogers Arena', '26', 'SJS', 'San Jose', 'Sharks', '1', '0', '0', '0', '0', '0', '0', '2', '36', '31', '53.7', '3', '0', '0.0', '5', '0', '100.0', '1', '0', '2', '2', '28', '5', '10', '21']"
"['', '20058', '2013-03-06', '02:30:00 GMT', '26', 'SJS', 'San Jose', 'Sharks', '23', 'CGY', 'Calgary', 'Flames', '18', 'Scotiabank Saddledome', '26', 'SJS', 'San Jose', 'Sharks', '0', '1', '0', '0', '0', '0', '0', '0', '39', '35', '52.7', '4', '0', '0.0', '3', '0', '100.0', '0', '1', '1', '4', '32', '3', '6', '5']"
"['', '20079', '2013-03-09', '21:00:00 GMT', '17', 'STL', 'St. Louis', 'Blues', '26', 'SJS', 'San Jose', 'Sharks', '9', 'SAP Center at San Jose', '26', 'SJS', 'San Jose', 'Sharks', '0', '0', '0', '1', '0', '0', '0', '1', '34', '33', '50.7', '2', '1', '50.0', '4', '1', '75.0', '0', '0', '3', '4', '22', '5', '10', '30']"
"['', '20094', '2013-03-10', '00:00:00 GMT', '26', 'SJS', 'San Jose', 'Sharks', '22', 'COL', 'Colorado', 'Avalanche', '19', 'Pepsi Center', '26', 'SJS', 'San Jose', 'Sharks', '0', '0', '0', '1', '0', '0', '0', '1', '47', '32', '59.5', '4', '0', '0.0', '3', '1', '66.7', '0', '0', '2', '3', '36', '4', '8', '9']"
"['', '20104', '2013-03-12', '00:00:00 GMT', '26', 'SJS', 'San Jose', 'Sharks', '17', 'STL', 'St. Louis', 'Blues', '24', 'Scottrade Center', '26', 'SJS', 'San Jose', 'Sharks', '0', '1', '0', '0', '0', '0', '0', '0', '34', '30', '53.1', '3', '1', '33.3', '3', '0', '100.0', '0', '0', '2', '4', '39', '4', '8', '27']"
"['', '20122', '2013-03-14', '02:30:00 GMT', '28', 'LAK', 'Los Angeles', 'Kings', '26', 'SJS', 'San Jose', 'Sharks', '9', 'SAP Center at San Jose', '26', 'SJS', 'San Jose', 'Sharks', '1', '0', '0', '0', '0', '0', '1', '2', '41', '27', '60.3', '2', '1', '50.0', '3', '1', '66.7', '0', '0', '4', '3', '22', '4', '11', '24']"
"['', '20138', '2013-03-16', '02:30:00 GMT', '26', 'SJS', 'San Jose', 'Sharks', '28', 'LAK', 'Los Angeles', 'Kings', '25', 'Staples Center', '26', 'SJS', 'San Jose', 'Sharks', '0', '1', '0', '0', '0', '0', '0', '0', '29', '26', '52.7', '2', '1', '50.0', '1', '0', '100.0', '0', '0', '2', '5', '19', '2', '7', '36']"
"['', '20148', '2013-03-18', '02:00:00 GMT', '26', 'SJS', 'San Jose', 'Sharks', '29', 'ANA', 'Anaheim', 'Ducks', '8', 'Honda Center', '26', 'SJS', 'San Jose', 'Sharks', '0', '1', '0', '0', '0', '0', '0', '0', '23', '35', '39.7', '3', '0', '0.0', '1', '0', '100.0', '0', '1', '3', '5', '32', '2', '7', '20']"
"['', '20162', '2013-03-20', '01:30:00 GMT', '26', 'SJS', 'San Jose', 'Sharks', '24', 'EDM', 'Edmonton', 'Oilers', '22', 'Rogers Place', '26', 'SJS', 'San Jose', 'Sharks', '1', '0', '0', '0', '0', '0', '0', '2', '38', '31', '55.1', '2', '1', '50.0', '4', '1', '75.0', '0', '0', '3', '3', '31', '7', '22', '21']"
"['', '20178', '2013-03-23', '18:00:00 GMT', '26', 'SJS', 'San Jose', 'Sharks', '25', 'MIN', 'Minnesota', 'Wild', '30', 'Xcel Energy Center', '26', 'SJS', 'San Jose', 'Sharks', '0', '1', '0', '0', '0', '0', '0', '0', '36', '24', '60.0', '5', '0', '0.0', '3', '1', '66.7', '0', '0', '0', '2', '32', '5', '13', '11']"
"['', '20199', '2013-03-25', '02:00:00 GMT', '26', 'SJS', 'San Jose', 'Sharks', '29', 'ANA', 'Anaheim', 'Ducks', '8', 'Honda Center', '26', 'SJS', 'San Jose', 'Sharks', '1', '0', '0', '0', '0', '0', '1', '2', '39', '40', '49.4', '5', '0', '0.0', '2', '0', '100.0', '0', '0', '5', '3', '34', '2', '4', '30']"
"['', '20212', '2013-03-27', '02:00:00 GMT', '29', 'ANA', 'Anaheim', 'Ducks', '26', 'SJS', 'San Jose', 'Sharks', '9', 'SAP Center at San Jose', '26', 'SJS', 'San Jose', 'Sharks', '1', '0', '0', '0', '0', '0', '1', '2', '31', '30', '50.8', '3', '1', '33.3', '2', '0', '100.0', '1', '0', '4', '0', '25', '5', '16', '16']"
"['', '20222', '2013-03-28', '02:30:00 GMT', '16', 'DET', 'Detroit', 'Red Wings', '26', 'SJS', 'San Jose', 'Sharks', '9', 'SAP Center at San Jose', '26', 'SJS', 'San Jose', 'Sharks', '1', '0', '0', '0', '0', '0', '1', '2', '31', '23', '57.4', '0', '0', '0.0', '1', '0', '100.0', '0', '0', '2', '0', '22', '1', '2', '14']"
"['', '20237', '2013-03-30', '02:30:00 GMT', '30', 'PHX', 'Phoenix', 'Coyotes', '26', 'SJS', 'San Jose', 'Sharks', '9', 'SAP Center at San Jose', '26', 'SJS', 'San Jose', 'Sharks', '1', '0', '0', '0', '0', '0', '0', '2', '31', '32', '49.2', '2', '1', '50.0', '1', '0', '100.0', '0', '0', '2', '2', '32', '1', '2', '19']"
"['', '20251', '2013-04-01', '02:30:00 GMT', '21', 'VAN', 'Vancouver', 'Canucks', '26', 'SJS', 'San Jose', 'Sharks', '9', 'SAP Center at San Jose', '26', 'SJS', 'San Jose', 'Sharks', '1', '0', '0', '0', '0', '0', '1', '2', '36', '26', '58.1', '3', '1', '33.3', '0', '0', '0.0', '0', '0', '3', '2', '32', '1', '5', '17']"
"['', '20263', '2013-04-03', '02:30:00 GMT', '25', 'MIN', 'Minnesota', 'Wild', '26', 'SJS', 'San Jose', 'Sharks', '9', 'SAP Center at San Jose', '26', 'SJS', 'San Jose', 'Sharks', '1', '0', '0', '0', '0', '0', '1', '2', '36', '28', '56.2', '5', '2', '40.0', '2', '0', '100.0', '0', '0', '4', '2', '29', '5', '21', '21']"
"['', '20279', '2013-04-05', '02:30:00 GMT', '23', 'CGY', 'Calgary', 'Flames', '26', 'SJS', 'San Jose', 'Sharks', '9', 'SAP Center at San Jose', '26', 'SJS', 'San Jose', 'Sharks', '1', '0', '0', '0', '0', '0', '1', '2', '41', '30', '57.7', '3', '0', '0.0', '2', '1', '50.0', '0', '0', '2', '1', '39', '2', '4', '20']"
"['', '20291', '2013-04-07', '20:00:00 GMT', '27', 'DAL', 'Dallas', 'Stars', '26', 'SJS', 'San Jose', 'Sharks', '9', 'SAP Center at San Jose', '26', 'SJS', 'San Jose', 'Sharks', '0', '0', '0', '1', '0', '0', '0', '1', '42', '30', '58.3', '3', '0', '0.0', '3', '0', '100.0', '0', '0', '4', '4', '32', '3', '6', '28']"
"['', '20305', '2013-04-09', '23:00:00 GMT', '26', 'SJS', 'San Jose', 'Sharks', '19', 'CBJ', 'Columbus', 'Blue Jackets', '17', 'Nationwide Arena', '26', 'SJS', 'San Jose', 'Sharks', '0', '1', '0', '0', '0', '0', '0', '0', '30', '32', '48.4', '1', '0', '0.0', '2', '0', '100.0', '0', '0', '0', '4', '30', '3', '6', '20']"
"['', '20322', '2013-04-11', '23:30:00 GMT', '26', 'SJS', 'San Jose', 'Sharks', '16', 'DET', 'Detroit', 'Red Wings', '11', 'Joe Louis Arena', '26', 'SJS', 'San Jose', 'Sharks', '1', '0', '0', '0', '0', '0', '0', '2', '38', '28', '57.6', '4', '1', '25.0', '4', '1', '75.0', '1', '0', '2', '2', '28', '4', '8', '25']"
"['', '20339', '2013-04-13', '00:00:00 GMT', '26', 'SJS', 'San Jose', 'Sharks', '27', 'DAL', 'Dallas', 'Stars', '2', 'American Airlines Center', '26', 'SJS', 'San Jose', 'Sharks', '0', '1', '0', '0', '0', '0', '0', '0', '31', '23', '57.4', '2', '1', '50.0', '4', '1', '75.0', '0', '0', '1', '2', '31', '5', '10', '32']"
"['', '20352', '2013-04-15', '02:00:00 GMT', '26', 'SJS', 'San Jose', 'Sharks', '30', 'PHX', 'Phoenix', 'Coyotes', '6', 'Jobing.com Arena', '26', 'SJS', 'San Jose', 'Sharks', '1', '0', '0', '0', '0', '0', '1', '2', '44', '28', '61.1', '2', '1', '50.0', '2', '0', '100.0', '0', '0', '4', '0', '37', '4', '8', '23']"
"['', '20360', '2013-04-16', '02:30:00 GMT', '28', 'LAK', 'Los Angeles', 'Kings', '26', 'SJS', 'San Jose', 'Sharks', '9', 'SAP Center at San Jose', '26', 'SJS', 'San Jose', 'Sharks', '1', '0', '0', '0', '0', '0', '0', '2', '37', '38', '49.3', '3', '0', '0.0', '3', '1', '66.7', '0', '0', '2', '2', '33', '5', '10', '21']"
"['', '20374', '2013-04-18', '02:30:00 GMT', '25', 'MIN', 'Minnesota', 'Wild', '26', 'SJS', 'San Jose', 'Sharks', '9', 'SAP Center at San Jose', '26', 'SJS', 'San Jose', 'Sharks', '1', '0', '0', '0', '0', '0', '1', '2', '41', '32', '56.2', '1', '1', '100.0', '0', '0', '0.0', '0', '0', '6', '1', '23', '2', '12', '29']"
"['', '20394', '2013-04-21', '00:00:00 GMT', '19', 'CBJ', 'Columbus', 'Blue Jackets', '26', 'SJS', 'San Jose', 'Sharks', '9', 'SAP Center at San Jose', '26', 'SJS', 'San Jose', 'Sharks', '0', '1', '0', '0', '0', '0', '0', '0', '22', '26', '45.8', '3', '1', '33.3', '2', '1', '50.0', '0', '0', '3', '4', '32', '2', '4', '25']"
"['', '20409', '2013-04-23', '02:00:00 GMT', '27', 'DAL', 'Dallas', 'Stars', '26', 'SJS', 'San Jose', 'Sharks', '9', 'SAP Center at San Jose', '26', 'SJS', 'San Jose', 'Sharks', '1', '0', '0', '0', '0', '0', '1', '2', '31', '22', '58.5', '3', '1', '33.3', '3', '1', '66.7', '0', '0', '3', '2', '34', '3', '6', '26']"
"['', '20413', '2013-04-24', '02:00:00 GMT', '26', 'SJS', 'San Jose', 'Sharks', '30', 'PHX', 'Phoenix', 'Coyotes', '6', 'Jobing.com Arena', '26', 'SJS', 'San Jose', 'Sharks', '0', '1', '0', '0', '0', '0', '0', '0', '26', '26', '50.0', '2', '0', '0.0', '3', '1', '66.7', '0', '0', '1', '2', '33', '4', '8', '17']"
"['', '20439', '2013-04-27', '02:30:00 GMT', '26', 'SJS', 'San Jose', 'Sharks', '28', 'LAK', 'Los Angeles', 'Kings', '25', 'Staples Center', '26', 'SJS', 'San Jose', 'Sharks', '0', '1', '0', '0', '0', '0', '0', '0', '23', '35', '39.7', '0', '0', '0.0', '1', '0', '100.0', '0', '0', '2', '3', '23', '1', '2', '41']"
