"['#Date/Time of Update: 2018-12-10 19:02:57 GMT', '#Game ID', '#Game Date', '#Game Time', '#Away Team ID', '#Away Team Abbr.', '#Away Team City', '#Away Team Name', '#Home Team ID', '#Home Team Abbr.', '#Home Team City', '#Home Team Name', '#Venue ID', '#Venue Name', '#Team ID', '#Team Abbr.', '#Team City', '#Team Name', '#Wins', '#Losses', '#OvertimeWins', '#OvertimeLosses', '#ShootoutWins', '#ShootoutLosses', '#Points', '#FaceoffWins', '#FaceoffLosses', '#FaceoffPercent', '#Powerplays', '#PowerplayGoals', '#PowerplayPercent', '#PenaltyKills', '#PenaltyKillGoalsAllowed', '#PenaltyKillPercent', '#ShorthandedGoalsFor', '#ShorthandedGoalsAgainst', '#GoalsFor', '#GoalsAgainst', '#Shots', '#Penalties', '#PenaltyMinutes', '#Hits']"
"['', '8687', '2009-10-01', '02:00:00 GMT', '21', 'VAN', 'Vancouver', 'Canucks', '23', 'CGY', 'Calgary', 'Flames', '18', 'Pengrowth Saddledome', '23', 'CGY', 'Calgary', 'Flames', '1', '0', '0', '0', '0', '0', '2', '27', '30', '47.4', '3', '2', '66.7', '4', '2', '50.0', '0', '0', '5', '3', '18', '6', '12', '24']"
"['', '8704', '2009-10-03', '02:00:00 GMT', '23', 'CGY', 'Calgary', 'Flames', '24', 'EDM', 'Edmonton', 'Oilers', '22', 'Rogers Place', '23', 'CGY', 'Calgary', 'Flames', '1', '0', '0', '0', '0', '0', '2', '29', '35', '45.3', '4', '2', '50.0', '4', '0', '100.0', '0', '0', '4', '3', '17', '7', '20', '22']"
"['', '8712', '2009-10-06', '01:00:00 GMT', '14', 'MTL', 'Montreal', 'Canadiens', '23', 'CGY', 'Calgary', 'Flames', '18', 'Pengrowth Saddledome', '23', 'CGY', 'Calgary', 'Flames', '1', '0', '0', '0', '0', '0', '2', '21', '27', '43.8', '1', '1', '100.0', '0', '0', '0.0', '0', '0', '4', '3', '24', '2', '10', '14']"
"['', '8727', '2009-10-08', '01:30:00 GMT', '23', 'CGY', 'Calgary', 'Flames', '24', 'EDM', 'Edmonton', 'Oilers', '22', 'Rogers Place', '23', 'CGY', 'Calgary', 'Flames', '1', '0', '0', '0', '0', '0', '2', '26', '29', '47.3', '4', '0', '0.0', '4', '1', '75.0', '0', '0', '3', '3', '25', '5', '13', '21']"
"['', '8731', '2009-10-09', '01:00:00 GMT', '27', 'DAL', 'Dallas', 'Stars', '23', 'CGY', 'Calgary', 'Flames', '18', 'Pengrowth Saddledome', '23', 'CGY', 'Calgary', 'Flames', '0', '1', '0', '0', '0', '0', '0', '25', '27', '48.1', '4', '2', '50.0', '2', '0', '100.0', '0', '0', '2', '5', '21', '3', '6', '14']"
"['', '8754', '2009-10-12', '00:30:00 GMT', '23', 'CGY', 'Calgary', 'Flames', '20', 'CHI', 'Chicago', 'Blackhawks', '28', 'United Center', '23', 'CGY', 'Calgary', 'Flames', '0', '0', '0', '1', '0', '0', '1', '23', '41', '35.9', '1', '0', '0.0', '4', '0', '100.0', '0', '0', '5', '6', '15', '5', '13', '19']"
"['', '8757', '2009-10-13', '23:00:00 GMT', '23', 'CGY', 'Calgary', 'Flames', '19', 'CBJ', 'Columbus', 'Blue Jackets', '17', 'Nationwide Arena', '23', 'CGY', 'Calgary', 'Flames', '0', '1', '0', '0', '0', '0', '0', '33', '28', '54.1', '0', '0', '0.0', '4', '1', '75.0', '0', '0', '1', '2', '22', '7', '17', '31']"
"['', '8774', '2009-10-16', '01:00:00 GMT', '21', 'VAN', 'Vancouver', 'Canucks', '23', 'CGY', 'Calgary', 'Flames', '18', 'Pengrowth Saddledome', '23', 'CGY', 'Calgary', 'Flames', '1', '0', '0', '0', '0', '0', '2', '27', '24', '52.9', '5', '1', '20.0', '4', '2', '50.0', '1', '0', '5', '3', '19', '8', '25', '20']"
"['', '8794', '2009-10-20', '01:30:00 GMT', '19', 'CBJ', 'Columbus', 'Blue Jackets', '23', 'CGY', 'Calgary', 'Flames', '18', 'Pengrowth Saddledome', '23', 'CGY', 'Calgary', 'Flames', '1', '0', '0', '0', '0', '0', '2', '25', '31', '44.6', '5', '0', '0.0', '7', '2', '71.4', '0', '1', '6', '3', '16', '9', '21', '12']"
"['', '8826', '2009-10-24', '02:00:00 GMT', '24', 'EDM', 'Edmonton', 'Oilers', '23', 'CGY', 'Calgary', 'Flames', '18', 'Pengrowth Saddledome', '23', 'CGY', 'Calgary', 'Flames', '1', '0', '0', '0', '0', '0', '2', '35', '28', '55.6', '3', '2', '66.7', '8', '2', '75.0', '1', '0', '5', '2', '33', '12', '30', '16']"
"['', '8846', '2009-10-28', '01:30:00 GMT', '22', 'COL', 'Colorado', 'Avalanche', '23', 'CGY', 'Calgary', 'Flames', '18', 'Pengrowth Saddledome', '23', 'CGY', 'Calgary', 'Flames', '0', '1', '0', '0', '0', '0', '0', '29', '27', '51.8', '3', '0', '0.0', '2', '0', '100.0', '0', '0', '2', '3', '30', '2', '4', '20']"
"['', '8873', '2009-10-31', '02:00:00 GMT', '16', 'DET', 'Detroit', 'Red Wings', '23', 'CGY', 'Calgary', 'Flames', '18', 'Pengrowth Saddledome', '23', 'CGY', 'Calgary', 'Flames', '0', '1', '0', '0', '0', '0', '0', '28', '29', '49.1', '2', '0', '0.0', '3', '0', '100.0', '0', '0', '1', '3', '20', '4', '8', '16']"
"['', '8890', '2009-11-04', '01:30:00 GMT', '23', 'CGY', 'Calgary', 'Flames', '27', 'DAL', 'Dallas', 'Stars', '2', 'American Airlines Center', '23', 'CGY', 'Calgary', 'Flames', '1', '0', '0', '0', '0', '0', '2', '24', '25', '49.0', '4', '1', '25.0', '5', '0', '100.0', '0', '0', '3', '2', '20', '6', '20', '36']"
"['', '8896', '2009-11-05', '01:00:00 GMT', '23', 'CGY', 'Calgary', 'Flames', '17', 'STL', 'St. Louis', 'Blues', '24', 'Scottrade Center', '23', 'CGY', 'Calgary', 'Flames', '1', '0', '0', '0', '0', '0', '2', '32', '40', '44.4', '5', '0', '0.0', '5', '1', '80.0', '0', '0', '2', '1', '30', '6', '15', '22']"
"['', '8918', '2009-11-07', '03:00:00 GMT', '9', 'NYR', 'New York', 'Rangers', '23', 'CGY', 'Calgary', 'Flames', '18', 'Pengrowth Saddledome', '23', 'CGY', 'Calgary', 'Flames', '1', '0', '0', '0', '0', '0', '2', '32', '19', '62.7', '3', '1', '33.3', '3', '0', '100.0', '0', '0', '3', '1', '19', '4', '8', '19']"
"['', '8926', '2009-11-10', '00:30:00 GMT', '23', 'CGY', 'Calgary', 'Flames', '14', 'MTL', 'Montreal', 'Canadiens', '4', 'Bell Centre', '23', 'CGY', 'Calgary', 'Flames', '1', '0', '0', '0', '0', '0', '2', '29', '28', '50.9', '6', '0', '0.0', '3', '0', '100.0', '0', '0', '1', '0', '30', '7', '20', '21']"
"['', '8948', '2009-11-13', '00:30:00 GMT', '23', 'CGY', 'Calgary', 'Flames', '15', 'BUF', 'Buffalo', 'Sabres', '10', 'HSBC Arena', '23', 'CGY', 'Calgary', 'Flames', '0', '0', '0', '1', '0', '0', '1', '24', '38', '38.7', '4', '0', '0.0', '4', '1', '75.0', '0', '0', '1', '1', '25', '8', '22', '19']"
"['', '9917', '2009-11-14', '00:00:00 GMT', '23', 'CGY', 'Calgary', 'Flames', '12', 'TOR', 'Toronto', 'Maple Leafs', '1', 'Air Canada Center', '23', 'CGY', 'Calgary', 'Flames', '1', '0', '0', '0', '0', '0', '2', '28', '35', '44.4', '2', '1', '50.0', '5', '2', '60.0', '0', '0', '5', '2', '17', '8', '25', '17']"
"['', '8976', '2009-11-17', '02:30:00 GMT', '22', 'COL', 'Colorado', 'Avalanche', '23', 'CGY', 'Calgary', 'Flames', '18', 'Pengrowth Saddledome', '23', 'CGY', 'Calgary', 'Flames', '0', '1', '0', '0', '0', '0', '0', '19', '32', '37.3', '3', '0', '0.0', '4', '1', '75.0', '1', '0', '2', '3', '34', '7', '20', '19']"
"['', '8988', '2009-11-19', '02:30:00 GMT', '20', 'CHI', 'Chicago', 'Blackhawks', '23', 'CGY', 'Calgary', 'Flames', '18', 'Pengrowth Saddledome', '23', 'CGY', 'Calgary', 'Flames', '0', '1', '0', '0', '0', '0', '0', '26', '29', '47.3', '5', '1', '20.0', '3', '4', '1.0', '0', '0', '1', '7', '27', '7', '20', '16']"
"['', '8996', '2009-11-21', '21:00:00 GMT', '23', 'CGY', 'Calgary', 'Flames', '28', 'LAK', 'Los Angeles', 'Kings', '25', 'Staples Center', '23', 'CGY', 'Calgary', 'Flames', '1', '0', '0', '0', '0', '0', '2', '28', '33', '45.9', '7', '2', '28.6', '3', '0', '100.0', '1', '0', '5', '2', '27', '4', '8', '31']"
"['', '9020', '2009-11-23', '03:00:00 GMT', '23', 'CGY', 'Calgary', 'Flames', '29', 'ANA', 'Anaheim', 'Ducks', '8', 'Honda Center', '23', 'CGY', 'Calgary', 'Flames', '0', '0', '0', '1', '0', '0', '1', '23', '42', '35.4', '4', '0', '0.0', '2', '0', '100.0', '0', '0', '2', '2', '41', '5', '13', '27']"
"['', '9032', '2009-11-25', '02:30:00 GMT', '30', 'PHX', 'Phoenix', 'Coyotes', '23', 'CGY', 'Calgary', 'Flames', '18', 'Pengrowth Saddledome', '23', 'CGY', 'Calgary', 'Flames', '1', '0', '0', '0', '0', '0', '2', '22', '29', '43.1', '1', '0', '0.0', '3', '1', '66.7', '0', '0', '2', '1', '24', '4', '11', '16']"
"['', '9044', '2009-11-27', '00:30:00 GMT', '23', 'CGY', 'Calgary', 'Flames', '16', 'DET', 'Detroit', 'Red Wings', '11', 'Joe Louis Arena', '23', 'CGY', 'Calgary', 'Flames', '1', '0', '0', '0', '0', '0', '2', '30', '38', '44.1', '1', '0', '0.0', '5', '0', '100.0', '0', '0', '3', '0', '14', '6', '12', '30']"
"['', '9055', '2009-11-28', '00:00:00 GMT', '23', 'CGY', 'Calgary', 'Flames', '19', 'CBJ', 'Columbus', 'Blue Jackets', '17', 'Nationwide Arena', '23', 'CGY', 'Calgary', 'Flames', '1', '0', '0', '0', '0', '0', '2', '27', '35', '43.5', '3', '1', '33.3', '1', '1', '0.0', '0', '0', '3', '3', '29', '2', '4', '38']"
"['', '9072', '2009-11-30', '01:00:00 GMT', '23', 'CGY', 'Calgary', 'Flames', '18', 'NSH', 'Nashville', 'Predators', '15', 'Sommet Center', '23', 'CGY', 'Calgary', 'Flames', '1', '0', '0', '0', '0', '0', '2', '22', '31', '41.5', '1', '2', '1.0', '3', '0', '100.0', '1', '0', '5', '0', '25', '4', '11', '14']"
"['', '9089', '2009-12-03', '02:00:00 GMT', '23', 'CGY', 'Calgary', 'Flames', '30', 'PHX', 'Phoenix', 'Coyotes', '6', 'Jobing.com Arena', '23', 'CGY', 'Calgary', 'Flames', '0', '1', '0', '0', '0', '0', '0', '19', '33', '36.5', '3', '0', '0.0', '4', '0', '100.0', '0', '0', '1', '2', '28', '4', '8', '31']"
"['', '9108', '2009-12-05', '03:00:00 GMT', '23', 'CGY', 'Calgary', 'Flames', '26', 'SJS', 'San Jose', 'Sharks', '9', 'HP Pavilion at San Jose', '23', 'CGY', 'Calgary', 'Flames', '1', '0', '0', '0', '0', '0', '2', '25', '36', '41.0', '5', '0', '0.0', '3', '0', '100.0', '0', '0', '2', '1', '34', '5', '13', '35']"
"['', '9120', '2009-12-07', '03:30:00 GMT', '23', 'CGY', 'Calgary', 'Flames', '28', 'LAK', 'Los Angeles', 'Kings', '25', 'Staples Center', '23', 'CGY', 'Calgary', 'Flames', '0', '1', '0', '0', '0', '0', '0', '15', '22', '40.5', '4', '0', '0.0', '3', '1', '66.7', '0', '0', '1', '2', '26', '5', '13', '25']"
"['', '9133', '2009-12-09', '02:30:00 GMT', '2', 'ATL', 'Atlanta', 'Thrashers', '23', 'CGY', 'Calgary', 'Flames', '18', 'Pengrowth Saddledome', '23', 'CGY', 'Calgary', 'Flames', '1', '0', '0', '0', '0', '0', '2', '25', '26', '49.0', '4', '0', '0.0', '2', '0', '100.0', '0', '0', '3', '1', '29', '5', '13', '11']"
"['', '9146', '2009-12-11', '02:00:00 GMT', '25', 'MIN', 'Minnesota', 'Wild', '23', 'CGY', 'Calgary', 'Flames', '18', 'Pengrowth Saddledome', '23', 'CGY', 'Calgary', 'Flames', '0', '0', '0', '1', '0', '0', '1', '27', '35', '43.5', '3', '0', '0.0', '4', '0', '100.0', '0', '0', '1', '2', '22', '7', '17', '14']"
"['', '9162', '2009-12-13', '01:00:00 GMT', '23', 'CGY', 'Calgary', 'Flames', '22', 'COL', 'Colorado', 'Avalanche', '19', 'Pepsi Center', '23', 'CGY', 'Calgary', 'Flames', '0', '1', '0', '0', '0', '0', '0', '27', '28', '49.1', '5', '1', '20.0', '6', '1', '83.3', '0', '0', '2', '3', '19', '8', '22', '21']"
"['', '9172', '2009-12-15', '01:00:00 GMT', '23', 'CGY', 'Calgary', 'Flames', '17', 'STL', 'St. Louis', 'Blues', '24', 'Scottrade Center', '23', 'CGY', 'Calgary', 'Flames', '0', '1', '0', '0', '0', '0', '0', '26', '33', '44.1', '4', '1', '25.0', '5', '1', '80.0', '0', '0', '3', '4', '20', '6', '15', '22']"
"['', '9191', '2009-12-17', '02:30:00 GMT', '28', 'LAK', 'Los Angeles', 'Kings', '23', 'CGY', 'Calgary', 'Flames', '18', 'Pengrowth Saddledome', '23', 'CGY', 'Calgary', 'Flames', '1', '0', '0', '0', '0', '0', '2', '26', '29', '47.3', '5', '1', '20.0', '3', '0', '100.0', '0', '0', '2', '1', '22', '4', '8', '26']"
"['', '9204', '2009-12-19', '00:00:00 GMT', '18', 'NSH', 'Nashville', 'Predators', '23', 'CGY', 'Calgary', 'Flames', '18', 'Pengrowth Saddledome', '23', 'CGY', 'Calgary', 'Flames', '0', '1', '0', '0', '0', '0', '0', '30', '27', '52.6', '2', '1', '50.0', '3', '0', '100.0', '0', '0', '3', '5', '29', '5', '13', '7']"
"['', '9239', '2009-12-23', '02:30:00 GMT', '17', 'STL', 'St. Louis', 'Blues', '23', 'CGY', 'Calgary', 'Flames', '18', 'Pengrowth Saddledome', '23', 'CGY', 'Calgary', 'Flames', '0', '0', '0', '1', '0', '0', '1', '28', '25', '52.8', '2', '0', '0.0', '2', '0', '100.0', '0', '0', '1', '1', '23', '2', '4', '26']"
"['', '9258', '2009-12-27', '01:00:00 GMT', '21', 'VAN', 'Vancouver', 'Canucks', '23', 'CGY', 'Calgary', 'Flames', '18', 'Pengrowth Saddledome', '23', 'CGY', 'Calgary', 'Flames', '0', '1', '0', '0', '0', '0', '0', '33', '25', '56.9', '4', '0', '0.0', '6', '1', '83.3', '0', '0', '1', '5', '29', '11', '28', '18']"
"['', '9264', '2009-12-28', '02:00:00 GMT', '23', 'CGY', 'Calgary', 'Flames', '24', 'EDM', 'Edmonton', 'Oilers', '22', 'Rogers Place', '23', 'CGY', 'Calgary', 'Flames', '1', '0', '0', '0', '0', '0', '2', '28', '39', '41.8', '6', '1', '16.7', '5', '0', '100.0', '1', '0', '4', '1', '19', '9', '30', '26']"
"['', '9278', '2009-12-30', '02:30:00 GMT', '28', 'LAK', 'Los Angeles', 'Kings', '23', 'CGY', 'Calgary', 'Flames', '18', 'Pengrowth Saddledome', '23', 'CGY', 'Calgary', 'Flames', '1', '0', '0', '0', '0', '0', '2', '25', '22', '53.2', '5', '1', '20.0', '2', '0', '100.0', '0', '0', '2', '1', '19', '9', '48', '22']"
"['', '9291', '2009-12-31', '02:00:00 GMT', '24', 'EDM', 'Edmonton', 'Oilers', '23', 'CGY', 'Calgary', 'Flames', '18', 'Pengrowth Saddledome', '23', 'CGY', 'Calgary', 'Flames', '1', '0', '0', '0', '0', '0', '2', '31', '20', '60.8', '2', '1', '50.0', '3', '0', '100.0', '0', '0', '2', '1', '37', '3', '6', '15']"
"['', '9298', '2010-01-02', '00:00:00 GMT', '12', 'TOR', 'Toronto', 'Maple Leafs', '23', 'CGY', 'Calgary', 'Flames', '18', 'Pengrowth Saddledome', '23', 'CGY', 'Calgary', 'Flames', '1', '0', '0', '0', '0', '0', '2', '36', '36', '50.0', '3', '1', '33.3', '4', '0', '100.0', '0', '0', '3', '1', '32', '5', '10', '13']"
"['', '9317', '2010-01-05', '01:00:00 GMT', '23', 'CGY', 'Calgary', 'Flames', '18', 'NSH', 'Nashville', 'Predators', '15', 'Sommet Center', '23', 'CGY', 'Calgary', 'Flames', '1', '0', '0', '0', '0', '0', '2', '22', '34', '39.3', '2', '0', '0.0', '3', '1', '66.7', '0', '0', '3', '1', '31', '3', '6', '20']"
"['', '9325', '2010-01-06', '01:00:00 GMT', '23', 'CGY', 'Calgary', 'Flames', '25', 'MIN', 'Minnesota', 'Wild', '30', 'Xcel Energy Center', '23', 'CGY', 'Calgary', 'Flames', '0', '1', '0', '0', '0', '0', '0', '20', '28', '41.7', '2', '0', '0.0', '5', '1', '80.0', '0', '0', '1', '4', '25', '5', '10', '18']"
"['', '9342', '2010-01-08', '02:00:00 GMT', '19', 'CBJ', 'Columbus', 'Blue Jackets', '23', 'CGY', 'Calgary', 'Flames', '18', 'Pengrowth Saddledome', '23', 'CGY', 'Calgary', 'Flames', '0', '1', '0', '0', '0', '0', '0', '28', '25', '52.8', '3', '0', '0.0', '2', '0', '100.0', '0', '0', '2', '3', '20', '2', '4', '9']"
"['', '9353', '2010-01-09', '03:00:00 GMT', '23', 'CGY', 'Calgary', 'Flames', '21', 'VAN', 'Vancouver', 'Canucks', '7', 'General Motors Place', '23', 'CGY', 'Calgary', 'Flames', '1', '0', '0', '0', '0', '0', '2', '27', '40', '40.3', '3', '0', '0.0', '2', '0', '100.0', '0', '0', '2', '2', '38', '6', '26', '39']"
"['', '9360', '2010-01-11', '03:00:00 GMT', '22', 'COL', 'Colorado', 'Avalanche', '23', 'CGY', 'Calgary', 'Flames', '18', 'Pengrowth Saddledome', '23', 'CGY', 'Calgary', 'Flames', '0', '0', '0', '1', '0', '0', '1', '33', '27', '55.0', '4', '0', '0.0', '4', '1', '75.0', '0', '0', '2', '2', '44', '7', '23', '19']"
"['', '9374', '2010-01-13', '02:30:00 GMT', '10', 'PIT', 'Pittsburgh', 'Penguins', '23', 'CGY', 'Calgary', 'Flames', '18', 'Pengrowth Saddledome', '23', 'CGY', 'Calgary', 'Flames', '0', '1', '0', '0', '0', '0', '0', '30', '27', '52.6', '5', '1', '20.0', '5', '1', '80.0', '0', '0', '1', '3', '37', '6', '15', '16']"
"['', '9389', '2010-01-15', '02:00:00 GMT', '18', 'NSH', 'Nashville', 'Predators', '23', 'CGY', 'Calgary', 'Flames', '18', 'Pengrowth Saddledome', '23', 'CGY', 'Calgary', 'Flames', '0', '1', '0', '0', '0', '0', '0', '34', '25', '57.6', '2', '0', '0.0', '3', '0', '100.0', '0', '0', '0', '1', '22', '4', '11', '18']"
"['', '9405', '2010-01-17', '01:00:00 GMT', '23', 'CGY', 'Calgary', 'Flames', '29', 'ANA', 'Anaheim', 'Ducks', '8', 'Honda Center', '23', 'CGY', 'Calgary', 'Flames', '0', '1', '0', '0', '0', '0', '0', '28', '29', '49.1', '3', '0', '0.0', '3', '1', '66.7', '0', '0', '4', '5', '33', '7', '28', '21']"
"['', '9415', '2010-01-18', '03:00:00 GMT', '23', 'CGY', 'Calgary', 'Flames', '26', 'SJS', 'San Jose', 'Sharks', '9', 'HP Pavilion at San Jose', '23', 'CGY', 'Calgary', 'Flames', '0', '1', '0', '0', '0', '0', '0', '27', '34', '44.3', '3', '0', '0.0', '5', '2', '60.0', '0', '0', '1', '9', '21', '7', '20', '30']"
"['', '9436', '2010-01-21', '02:30:00 GMT', '20', 'CHI', 'Chicago', 'Blackhawks', '23', 'CGY', 'Calgary', 'Flames', '18', 'Pengrowth Saddledome', '23', 'CGY', 'Calgary', 'Flames', '0', '1', '0', '0', '0', '0', '0', '23', '29', '44.2', '2', '1', '50.0', '2', '1', '50.0', '0', '0', '1', '3', '19', '3', '14', '9']"
"['', '9459', '2010-01-25', '02:30:00 GMT', '17', 'STL', 'St. Louis', 'Blues', '23', 'CGY', 'Calgary', 'Flames', '18', 'Pengrowth Saddledome', '23', 'CGY', 'Calgary', 'Flames', '0', '1', '0', '0', '0', '0', '0', '30', '31', '49.2', '2', '0', '0.0', '2', '0', '100.0', '0', '0', '0', '2', '34', '5', '16', '16']"
"['', '9474', '2010-01-27', '01:30:00 GMT', '23', 'CGY', 'Calgary', 'Flames', '27', 'DAL', 'Dallas', 'Stars', '2', 'American Airlines Center', '23', 'CGY', 'Calgary', 'Flames', '0', '0', '0', '1', '0', '0', '1', '31', '30', '50.8', '1', '0', '0.0', '6', '1', '83.3', '0', '0', '3', '3', '23', '7', '17', '33']"
"['', '9481', '2010-01-28', '02:00:00 GMT', '23', 'CGY', 'Calgary', 'Flames', '30', 'PHX', 'Phoenix', 'Coyotes', '6', 'Jobing.com Arena', '23', 'CGY', 'Calgary', 'Flames', '0', '0', '0', '1', '0', '0', '1', '30', '35', '46.2', '3', '0', '0.0', '4', '1', '75.0', '0', '0', '2', '2', '24', '6', '12', '39']"
"['', '9498', '2010-01-30', '03:00:00 GMT', '24', 'EDM', 'Edmonton', 'Oilers', '23', 'CGY', 'Calgary', 'Flames', '18', 'Pengrowth Saddledome', '23', 'CGY', 'Calgary', 'Flames', '1', '0', '0', '0', '0', '0', '2', '28', '26', '51.9', '3', '1', '33.3', '5', '1', '80.0', '0', '0', '6', '1', '24', '8', '30', '14']"
"['', '9508', '2010-02-01', '02:30:00 GMT', '6', 'PHI', 'Philadelphia', 'Flyers', '23', 'CGY', 'Calgary', 'Flames', '18', 'Pengrowth Saddledome', '23', 'CGY', 'Calgary', 'Flames', '0', '1', '0', '0', '0', '0', '0', '25', '24', '51.0', '1', '0', '0.0', '4', '1', '75.0', '0', '0', '0', '3', '18', '4', '8', '16']"
"['', '9521', '2010-02-03', '02:00:00 GMT', '3', 'CAR', 'Carolina', 'Hurricanes', '23', 'CGY', 'Calgary', 'Flames', '18', 'Pengrowth Saddledome', '23', 'CGY', 'Calgary', 'Flames', '1', '0', '0', '0', '0', '0', '2', '32', '32', '50.0', '2', '0', '0.0', '9', '1', '88.9', '1', '0', '4', '1', '35', '11', '33', '19']"
"['', '9536', '2010-02-05', '00:30:00 GMT', '23', 'CGY', 'Calgary', 'Flames', '4', 'FLO', 'Florida', 'Panthers', '3', 'BankAtlantic Center', '23', 'CGY', 'Calgary', 'Flames', '1', '0', '0', '0', '0', '0', '2', '28', '18', '60.9', '3', '2', '66.7', '4', '1', '75.0', '0', '0', '2', '1', '38', '5', '13', '31']"
"['', '9544', '2010-02-06', '00:00:00 GMT', '23', 'CGY', 'Calgary', 'Flames', '1', 'TBL', 'Tampa Bay', 'Lightning', '26', 'St. Pete Times Forum', '23', 'CGY', 'Calgary', 'Flames', '0', '0', '0', '1', '0', '0', '1', '22', '26', '45.8', '4', '1', '25.0', '3', '0', '100.0', '0', '0', '1', '2', '25', '9', '32', '16']"
"['', '9562', '2010-02-09', '00:30:00 GMT', '23', 'CGY', 'Calgary', 'Flames', '13', 'OTT', 'Ottawa', 'Senators', '23', 'Scotiabank Place', '23', 'CGY', 'Calgary', 'Flames', '0', '1', '0', '0', '0', '0', '0', '32', '29', '52.5', '1', '0', '0.0', '3', '1', '66.7', '0', '0', '2', '3', '27', '6', '15', '31']"
"['', '9579', '2010-02-11', '02:30:00 GMT', '27', 'DAL', 'Dallas', 'Stars', '23', 'CGY', 'Calgary', 'Flames', '18', 'Pengrowth Saddledome', '23', 'CGY', 'Calgary', 'Flames', '0', '1', '0', '0', '0', '0', '0', '30', '22', '57.7', '6', '1', '16.7', '5', '1', '80.0', '0', '1', '1', '3', '33', '5', '10', '12']"
"['', '9597', '2010-02-13', '03:00:00 GMT', '29', 'ANA', 'Anaheim', 'Ducks', '23', 'CGY', 'Calgary', 'Flames', '18', 'Pengrowth Saddledome', '23', 'CGY', 'Calgary', 'Flames', '1', '0', '0', '0', '0', '0', '2', '28', '34', '45.2', '2', '0', '0.0', '2', '0', '100.0', '0', '0', '3', '1', '35', '4', '14', '10']"
"['', '9621', '2010-03-03', '03:00:00 GMT', '25', 'MIN', 'Minnesota', 'Wild', '23', 'CGY', 'Calgary', 'Flames', '18', 'Pengrowth Saddledome', '23', 'CGY', 'Calgary', 'Flames', '0', '1', '0', '0', '0', '0', '0', '20', '37', '35.1', '2', '0', '0.0', '0', '0', '0.0', '0', '0', '0', '4', '29', '0', '0', '15']"
"['', '9635', '2010-03-05', '02:00:00 GMT', '7', 'NJD', 'New Jersey', 'Devils', '23', 'CGY', 'Calgary', 'Flames', '18', 'Pengrowth Saddledome', '23', 'CGY', 'Calgary', 'Flames', '1', '0', '0', '0', '0', '0', '2', '31', '27', '53.4', '0', '0', '0.0', '4', '1', '75.0', '1', '0', '5', '3', '20', '6', '18', '19']"
"['', '9649', '2010-03-07', '20:00:00 GMT', '23', 'CGY', 'Calgary', 'Flames', '25', 'MIN', 'Minnesota', 'Wild', '30', 'Xcel Energy Center', '23', 'CGY', 'Calgary', 'Flames', '1', '0', '0', '0', '0', '0', '2', '24', '36', '40.0', '5', '2', '40.0', '3', '1', '66.7', '0', '0', '5', '2', '19', '4', '8', '32']"
"['', '9661', '2010-03-09', '00:30:00 GMT', '23', 'CGY', 'Calgary', 'Flames', '16', 'DET', 'Detroit', 'Red Wings', '11', 'Joe Louis Arena', '23', 'CGY', 'Calgary', 'Flames', '1', '0', '0', '0', '0', '0', '2', '24', '28', '46.2', '2', '0', '0.0', '4', '1', '75.0', '0', '0', '4', '2', '28', '5', '10', '32']"
"['', '9679', '2010-03-11', '02:30:00 GMT', '13', 'OTT', 'Ottawa', 'Senators', '23', 'CGY', 'Calgary', 'Flames', '18', 'Pengrowth Saddledome', '23', 'CGY', 'Calgary', 'Flames', '1', '0', '0', '0', '0', '0', '2', '24', '36', '40.0', '3', '0', '0.0', '5', '0', '100.0', '0', '0', '2', '0', '23', '6', '12', '20']"
"['', '9706', '2010-03-14', '02:00:00 GMT', '23', 'CGY', 'Calgary', 'Flames', '21', 'VAN', 'Vancouver', 'Canucks', '7', 'General Motors Place', '23', 'CGY', 'Calgary', 'Flames', '0', '1', '0', '0', '0', '0', '0', '24', '35', '40.7', '5', '0', '0.0', '6', '1', '83.3', '0', '0', '1', '3', '32', '8', '16', '28']"
"['', '9709', '2010-03-15', '01:30:00 GMT', '16', 'DET', 'Detroit', 'Red Wings', '23', 'CGY', 'Calgary', 'Flames', '18', 'Pengrowth Saddledome', '23', 'CGY', 'Calgary', 'Flames', '0', '1', '0', '0', '0', '0', '0', '34', '20', '63.0', '3', '0', '0.0', '1', '1', '0.0', '0', '0', '1', '2', '21', '3', '6', '23']"
"['', '9722', '2010-03-17', '01:00:00 GMT', '23', 'CGY', 'Calgary', 'Flames', '22', 'COL', 'Colorado', 'Avalanche', '19', 'Pepsi Center', '23', 'CGY', 'Calgary', 'Flames', '1', '0', '0', '0', '0', '0', '2', '26', '32', '44.8', '4', '1', '25.0', '3', '0', '100.0', '1', '0', '3', '2', '31', '5', '13', '23']"
"['', '9736', '2010-03-19', '01:00:00 GMT', '26', 'SJS', 'San Jose', 'Sharks', '23', 'CGY', 'Calgary', 'Flames', '18', 'Pengrowth Saddledome', '23', 'CGY', 'Calgary', 'Flames', '1', '0', '0', '0', '0', '0', '2', '24', '33', '42.1', '3', '0', '0.0', '3', '0', '100.0', '0', '0', '4', '3', '20', '4', '11', '14']"
"['', '9751', '2010-03-21', '19:00:00 GMT', '23', 'CGY', 'Calgary', 'Flames', '25', 'MIN', 'Minnesota', 'Wild', '30', 'Xcel Energy Center', '23', 'CGY', 'Calgary', 'Flames', '0', '1', '0', '0', '0', '0', '0', '37', '29', '56.1', '1', '1', '100.0', '2', '1', '50.0', '0', '0', '3', '4', '29', '2', '4', '15']"
"['', '9770', '2010-03-23', '01:00:00 GMT', '29', 'ANA', 'Anaheim', 'Ducks', '23', 'CGY', 'Calgary', 'Flames', '18', 'Pengrowth Saddledome', '23', 'CGY', 'Calgary', 'Flames', '1', '0', '0', '0', '0', '0', '2', '26', '17', '60.5', '2', '1', '50.0', '0', '0', '0.0', '0', '0', '3', '1', '25', '1', '5', '9']"
"['', '9781', '2010-03-25', '23:00:00 GMT', '23', 'CGY', 'Calgary', 'Flames', '8', 'NYI', 'New York', 'Islanders', '16', 'Nassau Veterans Memorial Coliseum', '23', 'CGY', 'Calgary', 'Flames', '0', '1', '0', '0', '0', '0', '0', '31', '16', '66.0', '4', '0', '0.0', '2', '0', '100.0', '0', '0', '2', '3', '21', '2', '4', '28']"
"['', '9792', '2010-03-27', '17:00:00 GMT', '23', 'CGY', 'Calgary', 'Flames', '11', 'BOS', 'Boston', 'Bruins', '27', 'TD Garden', '23', 'CGY', 'Calgary', 'Flames', '0', '1', '0', '0', '0', '0', '0', '28', '39', '41.8', '3', '0', '0.0', '4', '3', '25.0', '0', '0', '0', '5', '31', '6', '15', '18']"
"['', '9804', '2010-03-28', '19:00:00 GMT', '23', 'CGY', 'Calgary', 'Flames', '5', 'WSH', 'Washington', 'Capitals', '13', 'Verizon Center', '23', 'CGY', 'Calgary', 'Flames', '1', '0', '0', '0', '0', '0', '2', '33', '33', '50.0', '2', '1', '50.0', '5', '2', '60.0', '0', '0', '5', '3', '17', '6', '15', '19']"
"['', '9830', '2010-03-31', '01:30:00 GMT', '30', 'PHX', 'Phoenix', 'Coyotes', '23', 'CGY', 'Calgary', 'Flames', '18', 'Pengrowth Saddledome', '23', 'CGY', 'Calgary', 'Flames', '1', '0', '0', '0', '0', '0', '2', '26', '25', '51.0', '4', '1', '25.0', '2', '0', '100.0', '0', '0', '2', '1', '29', '2', '4', '18']"
"['', '9844', '2010-04-02', '01:30:00 GMT', '23', 'CGY', 'Calgary', 'Flames', '22', 'COL', 'Colorado', 'Avalanche', '19', 'Pepsi Center', '23', 'CGY', 'Calgary', 'Flames', '1', '0', '0', '0', '0', '0', '2', '35', '18', '66.0', '3', '0', '0.0', '1', '0', '100.0', '0', '0', '2', '1', '25', '1', '2', '24']"
"['', '9857', '2010-04-04', '19:00:00 GMT', '23', 'CGY', 'Calgary', 'Flames', '20', 'CHI', 'Chicago', 'Blackhawks', '28', 'United Center', '23', 'CGY', 'Calgary', 'Flames', '0', '1', '0', '0', '0', '0', '0', '28', '31', '47.5', '1', '0', '0.0', '3', '0', '100.0', '0', '0', '1', '4', '25', '3', '6', '17']"
"['', '9872', '2010-04-06', '01:30:00 GMT', '26', 'SJS', 'San Jose', 'Sharks', '23', 'CGY', 'Calgary', 'Flames', '18', 'Pengrowth Saddledome', '23', 'CGY', 'Calgary', 'Flames', '0', '1', '0', '0', '0', '0', '0', '29', '27', '51.8', '4', '1', '25.0', '2', '1', '50.0', '0', '0', '1', '2', '38', '2', '4', '22']"
"['', '9886', '2010-04-08', '01:30:00 GMT', '25', 'MIN', 'Minnesota', 'Wild', '23', 'CGY', 'Calgary', 'Flames', '18', 'Pengrowth Saddledome', '23', 'CGY', 'Calgary', 'Flames', '0', '0', '0', '1', '0', '0', '1', '25', '27', '48.1', '5', '0', '0.0', '4', '1', '75.0', '0', '0', '1', '1', '32', '6', '12', '14']"
"['', '9903', '2010-04-10', '02:00:00 GMT', '23', 'CGY', 'Calgary', 'Flames', '21', 'VAN', 'Vancouver', 'Canucks', '7', 'General Motors Place', '23', 'CGY', 'Calgary', 'Flames', '0', '1', '0', '0', '0', '0', '0', '25', '27', '48.1', '2', '0', '0.0', '4', '0', '100.0', '0', '0', '3', '7', '38', '6', '15', '16']"
