"['#Date/Time of Update: 2018-12-10 19:02:57 GMT', '#Game ID', '#Game Date', '#Game Time', '#Away Team ID', '#Away Team Abbr.', '#Away Team City', '#Away Team Name', '#Home Team ID', '#Home Team Abbr.', '#Home Team City', '#Home Team Name', '#Venue ID', '#Venue Name', '#Team ID', '#Team Abbr.', '#Team City', '#Team Name', '#Wins', '#Losses', '#OvertimeWins', '#OvertimeLosses', '#ShootoutWins', '#ShootoutLosses', '#Points', '#FaceoffWins', '#FaceoffLosses', '#FaceoffPercent', '#Powerplays', '#PowerplayGoals', '#PowerplayPercent', '#PenaltyKills', '#PenaltyKillGoalsAllowed', '#PenaltyKillPercent', '#ShorthandedGoalsFor', '#ShorthandedGoalsAgainst', '#GoalsFor', '#GoalsAgainst', '#Shots', '#Penalties', '#PenaltyMinutes', '#Hits']"
"['', '8698', '2009-10-03', '23:00:00 GMT', '10', 'PIT', 'Pittsburgh', 'Penguins', '8', 'NYI', 'New York', 'Islanders', '16', 'Nassau Veterans Memorial Coliseum', '8', 'NYI', 'New York', 'Islanders', '0', '0', '0', '1', '0', '0', '1', '27', '38', '41.5', '5', '2', '40.0', '2', '0', '100.0', '0', '0', '3', '3', '25', '5', '16', '31']"
"['', '8720', '2009-10-08', '23:00:00 GMT', '8', 'NYI', 'New York', 'Islanders', '13', 'OTT', 'Ottawa', 'Senators', '23', 'Scotiabank Place', '8', 'NYI', 'New York', 'Islanders', '0', '0', '0', '1', '0', '0', '1', '27', '26', '50.9', '4', '1', '25.0', '2', '0', '100.0', '0', '0', '2', '3', '23', '2', '4', '17']"
"['', '8732', '2009-10-10', '23:00:00 GMT', '8', 'NYI', 'New York', 'Islanders', '11', 'BOS', 'Boston', 'Bruins', '27', 'TD Garden', '8', 'NYI', 'New York', 'Islanders', '0', '0', '0', '1', '0', '0', '1', '29', '34', '46.0', '6', '1', '16.7', '5', '0', '100.0', '0', '0', '3', '3', '35', '5', '10', '20']"
"['', '8748', '2009-10-12', '18:00:00 GMT', '28', 'LAK', 'Los Angeles', 'Kings', '8', 'NYI', 'New York', 'Islanders', '16', 'Nassau Veterans Memorial Coliseum', '8', 'NYI', 'New York', 'Islanders', '0', '1', '0', '0', '0', '0', '0', '29', '23', '55.8', '2', '0', '0.0', '3', '1', '66.7', '0', '0', '1', '2', '28', '4', '11', '34']"
"['', '8771', '2009-10-16', '23:30:00 GMT', '8', 'NYI', 'New York', 'Islanders', '15', 'BUF', 'Buffalo', 'Sabres', '10', 'HSBC Arena', '8', 'NYI', 'New York', 'Islanders', '0', '1', '0', '0', '0', '0', '0', '26', '32', '44.8', '2', '1', '50.0', '5', '1', '80.0', '0', '0', '3', '6', '36', '6', '15', '18']"
"['', '8780', '2009-10-17', '23:00:00 GMT', '26', 'SJS', 'San Jose', 'Sharks', '8', 'NYI', 'New York', 'Islanders', '16', 'Nassau Veterans Memorial Coliseum', '8', 'NYI', 'New York', 'Islanders', '0', '1', '0', '0', '0', '0', '0', '30', '26', '53.6', '3', '1', '33.3', '3', '2', '33.3', '0', '0', '1', '4', '31', '6', '15', '14']"
"['', '8796', '2009-10-21', '23:00:00 GMT', '3', 'CAR', 'Carolina', 'Hurricanes', '8', 'NYI', 'New York', 'Islanders', '16', 'Nassau Veterans Memorial Coliseum', '8', 'NYI', 'New York', 'Islanders', '1', '0', '0', '0', '0', '0', '2', '44', '20', '68.8', '2', '0', '0.0', '4', '1', '75.0', '0', '0', '3', '3', '26', '5', '13', '27']"
"['', '8801', '2009-10-22', '23:00:00 GMT', '8', 'NYI', 'New York', 'Islanders', '14', 'MTL', 'Montreal', 'Canadiens', '4', 'Bell Centre', '8', 'NYI', 'New York', 'Islanders', '0', '1', '0', '0', '0', '0', '0', '28', '30', '48.3', '3', '0', '0.0', '6', '2', '66.7', '1', '0', '1', '5', '21', '7', '17', '17']"
"['', '8814', '2009-10-24', '23:00:00 GMT', '5', 'WSH', 'Washington', 'Capitals', '8', 'NYI', 'New York', 'Islanders', '16', 'Nassau Veterans Memorial Coliseum', '8', 'NYI', 'New York', 'Islanders', '0', '0', '0', '1', '0', '0', '1', '46', '20', '69.7', '2', '0', '0.0', '4', '0', '100.0', '1', '0', '2', '3', '28', '4', '8', '32']"
"['', '8832', '2009-10-26', '23:30:00 GMT', '8', 'NYI', 'New York', 'Islanders', '14', 'MTL', 'Montreal', 'Canadiens', '4', 'Bell Centre', '8', 'NYI', 'New York', 'Islanders', '0', '0', '0', '1', '0', '0', '1', '27', '27', '50.0', '7', '2', '28.6', '1', '0', '100.0', '0', '0', '2', '3', '29', '2', '4', '25']"
"['', '8840', '2009-10-28', '23:00:00 GMT', '9', 'NYR', 'New York', 'Rangers', '8', 'NYI', 'New York', 'Islanders', '16', 'Nassau Veterans Memorial Coliseum', '8', 'NYI', 'New York', 'Islanders', '1', '0', '0', '0', '0', '0', '2', '36', '20', '64.3', '2', '1', '50.0', '3', '0', '100.0', '0', '0', '3', '1', '29', '5', '10', '38']"
"['', '8855', '2009-10-30', '23:00:00 GMT', '8', 'NYI', 'New York', 'Islanders', '5', 'WSH', 'Washington', 'Capitals', '13', 'Verizon Center', '8', 'NYI', 'New York', 'Islanders', '1', '0', '0', '0', '0', '0', '2', '28', '32', '46.7', '2', '0', '0.0', '5', '1', '80.0', '0', '0', '4', '3', '26', '6', '12', '19']"
"['', '8868', '2009-10-31', '23:00:00 GMT', '15', 'BUF', 'Buffalo', 'Sabres', '8', 'NYI', 'New York', 'Islanders', '16', 'Nassau Veterans Memorial Coliseum', '8', 'NYI', 'New York', 'Islanders', '1', '0', '0', '0', '0', '0', '2', '32', '27', '54.2', '2', '1', '50.0', '5', '0', '100.0', '0', '0', '5', '0', '24', '9', '24', '16']"
"['', '8878', '2009-11-02', '00:00:00 GMT', '24', 'EDM', 'Edmonton', 'Oilers', '8', 'NYI', 'New York', 'Islanders', '16', 'Nassau Veterans Memorial Coliseum', '8', 'NYI', 'New York', 'Islanders', '1', '0', '0', '0', '0', '0', '2', '32', '22', '59.3', '4', '0', '0.0', '0', '0', '0.0', '0', '0', '3', '1', '34', '2', '7', '29']"
"['', '8886', '2009-11-04', '00:00:00 GMT', '8', 'NYI', 'New York', 'Islanders', '15', 'BUF', 'Buffalo', 'Sabres', '10', 'HSBC Arena', '8', 'NYI', 'New York', 'Islanders', '0', '1', '0', '0', '0', '0', '0', '8', '39', '17.0', '3', '0', '0.0', '5', '2', '60.0', '0', '0', '0', '3', '24', '7', '14', '15']"
"['', '8903', '2009-11-06', '00:00:00 GMT', '8', 'NYI', 'New York', 'Islanders', '7', 'NJD', 'New Jersey', 'Devils', '5', 'Izod Center', '8', 'NYI', 'New York', 'Islanders', '0', '1', '0', '0', '0', '0', '0', '22', '26', '45.8', '3', '0', '0.0', '5', '1', '80.0', '0', '0', '1', '2', '23', '6', '15', '18']"
"['', '8911', '2009-11-07', '00:00:00 GMT', '2', 'ATL', 'Atlanta', 'Thrashers', '8', 'NYI', 'New York', 'Islanders', '16', 'Nassau Veterans Memorial Coliseum', '8', 'NYI', 'New York', 'Islanders', '1', '0', '0', '0', '0', '0', '2', '27', '31', '46.6', '2', '1', '50.0', '3', '0', '100.0', '0', '0', '6', '3', '39', '4', '8', '25']"
"['', '8933', '2009-11-11', '00:00:00 GMT', '8', 'NYI', 'New York', 'Islanders', '5', 'WSH', 'Washington', 'Capitals', '13', 'Verizon Center', '8', 'NYI', 'New York', 'Islanders', '0', '0', '0', '1', '0', '0', '1', '30', '39', '43.5', '3', '1', '33.3', '3', '2', '33.3', '0', '0', '4', '4', '27', '3', '6', '20']"
"['', '8945', '2009-11-13', '00:00:00 GMT', '8', 'NYI', 'New York', 'Islanders', '3', 'CAR', 'Carolina', 'Hurricanes', '21', 'RBC Center', '8', 'NYI', 'New York', 'Islanders', '1', '0', '0', '0', '0', '0', '2', '24', '33', '42.1', '3', '1', '33.3', '4', '1', '75.0', '0', '0', '4', '3', '21', '6', '12', '22']"
"['', '8956', '2009-11-14', '00:00:00 GMT', '8', 'NYI', 'New York', 'Islanders', '4', 'FLO', 'Florida', 'Panthers', '3', 'BankAtlantic Center', '8', 'NYI', 'New York', 'Islanders', '0', '0', '0', '1', '0', '0', '1', '31', '38', '44.9', '3', '2', '66.7', '5', '1', '80.0', '0', '0', '4', '4', '36', '5', '10', '22']"
"['', '8966', '2009-11-16', '00:00:00 GMT', '8', 'NYI', 'New York', 'Islanders', '11', 'BOS', 'Boston', 'Bruins', '27', 'TD Garden', '8', 'NYI', 'New York', 'Islanders', '1', '0', '0', '0', '0', '0', '2', '18', '43', '29.5', '5', '0', '0.0', '4', '0', '100.0', '0', '0', '4', '1', '17', '5', '13', '20']"
"['', '8993', '2009-11-20', '01:00:00 GMT', '8', 'NYI', 'New York', 'Islanders', '25', 'MIN', 'Minnesota', 'Wild', '30', 'Xcel Energy Center', '8', 'NYI', 'New York', 'Islanders', '0', '1', '0', '0', '0', '0', '0', '30', '27', '52.6', '6', '0', '0.0', '5', '1', '80.0', '0', '0', '2', '3', '27', '8', '22', '9']"
"['', '9004', '2009-11-21', '01:00:00 GMT', '8', 'NYI', 'New York', 'Islanders', '17', 'STL', 'St. Louis', 'Blues', '24', 'Scottrade Center', '8', 'NYI', 'New York', 'Islanders', '0', '1', '0', '0', '0', '0', '0', '28', '27', '50.9', '2', '0', '0.0', '5', '0', '100.0', '0', '0', '1', '4', '23', '4', '8', '16']"
"['', '9012', '2009-11-23', '00:00:00 GMT', '8', 'NYI', 'New York', 'Islanders', '12', 'TOR', 'Toronto', 'Maple Leafs', '1', 'Air Canada Center', '8', 'NYI', 'New York', 'Islanders', '1', '0', '0', '0', '0', '0', '2', '24', '42', '36.4', '2', '0', '0.0', '6', '0', '100.0', '1', '0', '4', '3', '17', '6', '12', '21']"
"['', '9023', '2009-11-25', '00:00:00 GMT', '6', 'PHI', 'Philadelphia', 'Flyers', '8', 'NYI', 'New York', 'Islanders', '16', 'Nassau Veterans Memorial Coliseum', '8', 'NYI', 'New York', 'Islanders', '0', '1', '0', '0', '0', '0', '0', '37', '25', '59.7', '4', '1', '25.0', '1', '1', '0.0', '0', '0', '1', '2', '28', '3', '12', '23']"
"['', '9040', '2009-11-27', '19:00:00 GMT', '10', 'PIT', 'Pittsburgh', 'Penguins', '8', 'NYI', 'New York', 'Islanders', '16', 'Nassau Veterans Memorial Coliseum', '8', 'NYI', 'New York', 'Islanders', '1', '0', '0', '0', '0', '0', '2', '28', '32', '46.7', '3', '0', '0.0', '4', '0', '100.0', '0', '0', '3', '2', '34', '9', '24', '26']"
"['', '9050', '2009-11-28', '18:00:00 GMT', '8', 'NYI', 'New York', 'Islanders', '7', 'NJD', 'New Jersey', 'Devils', '5', 'Izod Center', '8', 'NYI', 'New York', 'Islanders', '0', '1', '0', '0', '0', '0', '0', '32', '26', '55.2', '4', '0', '0.0', '3', '2', '33.3', '0', '0', '1', '6', '22', '5', '16', '15']"
"['', '9084', '2009-12-03', '00:00:00 GMT', '8', 'NYI', 'New York', 'Islanders', '2', 'ATL', 'Atlanta', 'Thrashers', '20', 'Philips Arena', '8', 'NYI', 'New York', 'Islanders', '1', '0', '0', '0', '0', '0', '2', '27', '28', '49.1', '3', '1', '33.3', '2', '0', '100.0', '0', '0', '4', '1', '23', '2', '4', '12']"
"['', '9106', '2009-12-05', '00:30:00 GMT', '8', 'NYI', 'New York', 'Islanders', '1', 'TBL', 'Tampa Bay', 'Lightning', '26', 'St. Pete Times Forum', '8', 'NYI', 'New York', 'Islanders', '0', '1', '0', '0', '0', '0', '0', '24', '32', '42.9', '6', '0', '0.0', '4', '2', '50.0', '0', '0', '0', '4', '30', '5', '13', '8']"
"['', '9121', '2009-12-08', '00:00:00 GMT', '8', 'NYI', 'New York', 'Islanders', '6', 'PHI', 'Philadelphia', 'Flyers', '29', 'Wachovia Center', '8', 'NYI', 'New York', 'Islanders', '0', '1', '0', '0', '0', '0', '0', '28', '31', '47.5', '8', '2', '25.0', '4', '3', '25.0', '0', '1', '2', '6', '22', '6', '12', '15']"
"['', '9127', '2009-12-09', '00:00:00 GMT', '8', 'NYI', 'New York', 'Islanders', '12', 'TOR', 'Toronto', 'Maple Leafs', '1', 'Air Canada Center', '8', 'NYI', 'New York', 'Islanders', '0', '1', '0', '0', '0', '0', '0', '28', '35', '44.4', '4', '2', '50.0', '4', '1', '75.0', '0', '0', '2', '3', '30', '6', '12', '17']"
"['', '9150', '2009-12-12', '00:00:00 GMT', '11', 'BOS', 'Boston', 'Bruins', '8', 'NYI', 'New York', 'Islanders', '16', 'Nassau Veterans Memorial Coliseum', '8', 'NYI', 'New York', 'Islanders', '1', '0', '0', '0', '0', '0', '2', '21', '26', '44.7', '2', '1', '50.0', '3', '0', '100.0', '0', '0', '3', '2', '16', '3', '6', '26']"
"['', '9164', '2009-12-14', '00:00:00 GMT', '4', 'FLO', 'Florida', 'Panthers', '8', 'NYI', 'New York', 'Islanders', '16', 'Nassau Veterans Memorial Coliseum', '8', 'NYI', 'New York', 'Islanders', '0', '1', '0', '0', '0', '0', '0', '30', '28', '51.7', '2', '0', '0.0', '2', '2', '0.0', '0', '1', '1', '7', '30', '3', '14', '35']"
"['', '9179', '2009-12-16', '00:00:00 GMT', '8', 'NYI', 'New York', 'Islanders', '9', 'NYR', 'New York', 'Rangers', '12', 'Madison Square Garden', '8', 'NYI', 'New York', 'Islanders', '1', '0', '0', '0', '0', '0', '2', '20', '31', '39.2', '2', '0', '0.0', '2', '0', '100.0', '0', '0', '2', '1', '26', '4', '8', '26']"
"['', '9186', '2009-12-17', '00:00:00 GMT', '9', 'NYR', 'New York', 'Rangers', '8', 'NYI', 'New York', 'Islanders', '16', 'Nassau Veterans Memorial Coliseum', '8', 'NYI', 'New York', 'Islanders', '0', '1', '0', '0', '0', '0', '0', '18', '29', '38.3', '5', '0', '0.0', '5', '3', '40.0', '0', '0', '2', '5', '35', '9', '18', '22']"
"['', '9206', '2009-12-19', '00:00:00 GMT', '14', 'MTL', 'Montreal', 'Canadiens', '8', 'NYI', 'New York', 'Islanders', '16', 'Nassau Veterans Memorial Coliseum', '8', 'NYI', 'New York', 'Islanders', '0', '1', '0', '0', '0', '0', '0', '28', '39', '41.8', '6', '0', '0.0', '5', '3', '40.0', '0', '0', '0', '3', '40', '6', '12', '19']"
"['', '9215', '2009-12-21', '00:00:00 GMT', '1', 'TBL', 'Tampa Bay', 'Lightning', '8', 'NYI', 'New York', 'Islanders', '16', 'Nassau Veterans Memorial Coliseum', '8', 'NYI', 'New York', 'Islanders', '0', '1', '0', '0', '0', '0', '0', '31', '25', '55.4', '5', '1', '20.0', '3', '2', '33.3', '0', '0', '2', '4', '36', '4', '8', '24']"
"['', '9230', '2009-12-23', '00:00:00 GMT', '12', 'TOR', 'Toronto', 'Maple Leafs', '8', 'NYI', 'New York', 'Islanders', '16', 'Nassau Veterans Memorial Coliseum', '8', 'NYI', 'New York', 'Islanders', '1', '0', '0', '0', '0', '0', '2', '24', '21', '53.3', '4', '0', '0.0', '2', '0', '100.0', '0', '0', '3', '1', '20', '2', '4', '21']"
"['', '9243', '2009-12-26', '00:00:00 GMT', '8', 'NYI', 'New York', 'Islanders', '9', 'NYR', 'New York', 'Rangers', '12', 'Madison Square Garden', '8', 'NYI', 'New York', 'Islanders', '1', '0', '0', '0', '0', '0', '2', '23', '33', '41.1', '3', '0', '0.0', '3', '0', '100.0', '1', '0', '3', '2', '19', '5', '13', '30']"
"['', '9253', '2009-12-27', '22:00:00 GMT', '6', 'PHI', 'Philadelphia', 'Flyers', '8', 'NYI', 'New York', 'Islanders', '16', 'Nassau Veterans Memorial Coliseum', '8', 'NYI', 'New York', 'Islanders', '0', '1', '0', '0', '0', '0', '0', '23', '31', '42.6', '2', '0', '0.0', '2', '0', '100.0', '0', '0', '1', '2', '28', '5', '10', '29']"
"['', '9268', '2009-12-29', '00:00:00 GMT', '19', 'CBJ', 'Columbus', 'Blue Jackets', '8', 'NYI', 'New York', 'Islanders', '16', 'Nassau Veterans Memorial Coliseum', '8', 'NYI', 'New York', 'Islanders', '1', '0', '0', '0', '0', '0', '2', '23', '26', '46.9', '4', '0', '0.0', '2', '0', '100.0', '0', '0', '1', '1', '24', '3', '6', '34']"
"['', '9283', '2009-12-31', '00:00:00 GMT', '8', 'NYI', 'New York', 'Islanders', '13', 'OTT', 'Ottawa', 'Senators', '23', 'Scotiabank Place', '8', 'NYI', 'New York', 'Islanders', '0', '0', '0', '1', '0', '0', '1', '30', '30', '50.0', '4', '1', '25.0', '3', '0', '100.0', '0', '0', '2', '2', '25', '5', '10', '26']"
"['', '9299', '2010-01-02', '00:00:00 GMT', '2', 'ATL', 'Atlanta', 'Thrashers', '8', 'NYI', 'New York', 'Islanders', '16', 'Nassau Veterans Memorial Coliseum', '8', 'NYI', 'New York', 'Islanders', '1', '0', '0', '0', '0', '0', '2', '34', '22', '60.7', '3', '0', '0.0', '5', '1', '80.0', '0', '0', '5', '5', '31', '6', '12', '17']"
"['', '9326', '2010-01-06', '02:00:00 GMT', '8', 'NYI', 'New York', 'Islanders', '22', 'COL', 'Colorado', 'Avalanche', '19', 'Pepsi Center', '8', 'NYI', 'New York', 'Islanders', '1', '0', '0', '0', '0', '0', '2', '23', '32', '41.8', '2', '1', '50.0', '2', '1', '50.0', '0', '0', '3', '2', '32', '3', '6', '12']"
"['', '9341', '2010-01-08', '01:30:00 GMT', '8', 'NYI', 'New York', 'Islanders', '27', 'DAL', 'Dallas', 'Stars', '2', 'American Airlines Center', '8', 'NYI', 'New York', 'Islanders', '0', '1', '0', '0', '0', '0', '0', '22', '26', '45.8', '1', '0', '0.0', '1', '0', '100.0', '0', '0', '3', '4', '19', '1', '2', '23']"
"['', '9350', '2010-01-09', '01:00:00 GMT', '8', 'NYI', 'New York', 'Islanders', '30', 'PHX', 'Phoenix', 'Coyotes', '6', 'Jobing.com Arena', '8', 'NYI', 'New York', 'Islanders', '1', '0', '0', '0', '0', '0', '2', '23', '33', '41.1', '5', '2', '40.0', '5', '3', '40.0', '0', '0', '4', '4', '26', '6', '12', '22']"
"['', '9363', '2010-01-12', '00:00:00 GMT', '16', 'DET', 'Detroit', 'Red Wings', '8', 'NYI', 'New York', 'Islanders', '16', 'Nassau Veterans Memorial Coliseum', '8', 'NYI', 'New York', 'Islanders', '1', '0', '0', '0', '0', '0', '2', '26', '24', '52.0', '2', '1', '50.0', '3', '0', '100.0', '0', '0', '6', '0', '25', '3', '6', '20']"
"['', '9396', '2010-01-16', '00:00:00 GMT', '15', 'BUF', 'Buffalo', 'Sabres', '8', 'NYI', 'New York', 'Islanders', '16', 'Nassau Veterans Memorial Coliseum', '8', 'NYI', 'New York', 'Islanders', '1', '0', '0', '0', '0', '0', '2', '30', '29', '50.8', '4', '0', '0.0', '2', '0', '100.0', '0', '0', '2', '2', '36', '3', '6', '24']"
"['', '9407', '2010-01-18', '19:00:00 GMT', '7', 'NJD', 'New Jersey', 'Devils', '8', 'NYI', 'New York', 'Islanders', '16', 'Nassau Veterans Memorial Coliseum', '8', 'NYI', 'New York', 'Islanders', '1', '0', '0', '0', '0', '0', '2', '32', '25', '56.1', '3', '1', '33.3', '2', '0', '100.0', '0', '0', '4', '0', '42', '2', '4', '22']"
"['', '9421', '2010-01-19', '00:30:00 GMT', '8', 'NYI', 'New York', 'Islanders', '10', 'PIT', 'Pittsburgh', 'Penguins', '14', 'Mellon Arena', '8', 'NYI', 'New York', 'Islanders', '0', '1', '0', '0', '0', '0', '0', '19', '41', '31.7', '1', '0', '0.0', '6', '4', '33.3', '0', '0', '4', '6', '30', '8', '27', '17']"
"['', '9428', '2010-01-21', '00:00:00 GMT', '4', 'FLO', 'Florida', 'Panthers', '8', 'NYI', 'New York', 'Islanders', '16', 'Nassau Veterans Memorial Coliseum', '8', 'NYI', 'New York', 'Islanders', '1', '0', '0', '0', '0', '0', '2', '30', '24', '55.6', '1', '0', '0.0', '3', '0', '100.0', '0', '0', '1', '1', '35', '3', '6', '16']"
"['', '9447', '2010-01-23', '00:00:00 GMT', '7', 'NJD', 'New Jersey', 'Devils', '8', 'NYI', 'New York', 'Islanders', '16', 'Nassau Veterans Memorial Coliseum', '8', 'NYI', 'New York', 'Islanders', '0', '1', '0', '0', '0', '0', '0', '30', '23', '56.6', '3', '2', '66.7', '1', '1', '0.0', '0', '0', '2', '4', '20', '1', '2', '21']"
"['', '9462', '2010-01-26', '00:00:00 GMT', '5', 'WSH', 'Washington', 'Capitals', '8', 'NYI', 'New York', 'Islanders', '16', 'Nassau Veterans Memorial Coliseum', '8', 'NYI', 'New York', 'Islanders', '0', '1', '0', '0', '0', '0', '0', '29', '28', '50.9', '5', '1', '20.0', '2', '1', '50.0', '0', '0', '2', '7', '29', '2', '4', '15']"
"['', '9476', '2010-01-28', '00:00:00 GMT', '8', 'NYI', 'New York', 'Islanders', '3', 'CAR', 'Carolina', 'Hurricanes', '21', 'RBC Center', '8', 'NYI', 'New York', 'Islanders', '0', '1', '0', '0', '0', '0', '0', '25', '22', '53.2', '2', '0', '0.0', '3', '1', '66.7', '0', '1', '1', '4', '26', '3', '6', '12']"
"['', '9493', '2010-01-30', '00:00:00 GMT', '8', 'NYI', 'New York', 'Islanders', '6', 'PHI', 'Philadelphia', 'Flyers', '29', 'Wachovia Center', '8', 'NYI', 'New York', 'Islanders', '0', '1', '0', '0', '0', '0', '0', '30', '34', '46.9', '3', '0', '0.0', '6', '1', '83.3', '0', '0', '1', '2', '31', '7', '14', '20']"
"['', '9503', '2010-01-31', '22:00:00 GMT', '8', 'NYI', 'New York', 'Islanders', '4', 'FLO', 'Florida', 'Panthers', '3', 'BankAtlantic Center', '8', 'NYI', 'New York', 'Islanders', '0', '1', '0', '0', '0', '0', '0', '18', '27', '40.0', '4', '0', '0.0', '2', '1', '50.0', '0', '0', '0', '2', '33', '5', '10', '21']"
"['', '9528', '2010-02-04', '00:30:00 GMT', '8', 'NYI', 'New York', 'Islanders', '1', 'TBL', 'Tampa Bay', 'Lightning', '26', 'St. Pete Times Forum', '8', 'NYI', 'New York', 'Islanders', '0', '1', '0', '0', '0', '0', '0', '25', '33', '43.1', '4', '0', '0.0', '3', '1', '66.7', '0', '0', '2', '5', '34', '3', '6', '18']"
"['', '9542', '2010-02-06', '00:00:00 GMT', '3', 'CAR', 'Carolina', 'Hurricanes', '8', 'NYI', 'New York', 'Islanders', '16', 'Nassau Veterans Memorial Coliseum', '8', 'NYI', 'New York', 'Islanders', '0', '1', '0', '0', '0', '0', '0', '35', '26', '57.4', '3', '0', '0.0', '4', '0', '100.0', '1', '0', '1', '3', '34', '4', '8', '21']"
"['', '9561', '2010-02-09', '00:00:00 GMT', '18', 'NSH', 'Nashville', 'Predators', '8', 'NYI', 'New York', 'Islanders', '16', 'Nassau Veterans Memorial Coliseum', '8', 'NYI', 'New York', 'Islanders', '1', '0', '0', '0', '0', '0', '2', '34', '32', '51.5', '5', '2', '40.0', '5', '1', '80.0', '0', '0', '3', '3', '29', '6', '12', '17']"
"['', '9570', '2010-02-10', '00:30:00 GMT', '8', 'NYI', 'New York', 'Islanders', '10', 'PIT', 'Pittsburgh', 'Penguins', '14', 'Mellon Arena', '8', 'NYI', 'New York', 'Islanders', '0', '1', '0', '0', '0', '0', '0', '27', '34', '44.3', '3', '0', '0.0', '2', '0', '100.0', '0', '0', '1', '3', '37', '6', '15', '13']"
"['', '9588', '2010-02-13', '19:00:00 GMT', '1', 'TBL', 'Tampa Bay', 'Lightning', '8', 'NYI', 'New York', 'Islanders', '16', 'Nassau Veterans Memorial Coliseum', '8', 'NYI', 'New York', 'Islanders', '1', '0', '0', '0', '0', '0', '2', '31', '38', '44.9', '4', '0', '0.0', '5', '0', '100.0', '0', '0', '5', '4', '28', '7', '25', '27']"
"['', '9602', '2010-02-14', '22:00:00 GMT', '13', 'OTT', 'Ottawa', 'Senators', '8', 'NYI', 'New York', 'Islanders', '16', 'Nassau Veterans Memorial Coliseum', '8', 'NYI', 'New York', 'Islanders', '0', '1', '0', '0', '0', '0', '0', '33', '27', '55.0', '5', '0', '0.0', '2', '1', '50.0', '0', '0', '3', '4', '34', '2', '4', '28']"
"['', '9606', '2010-03-02', '00:00:00 GMT', '20', 'CHI', 'Chicago', 'Blackhawks', '8', 'NYI', 'New York', 'Islanders', '16', 'Nassau Veterans Memorial Coliseum', '8', 'NYI', 'New York', 'Islanders', '1', '0', '0', '0', '0', '0', '2', '28', '31', '47.5', '0', '0', '0.0', '3', '2', '33.3', '0', '0', '5', '3', '18', '3', '6', '22']"
"['', '9627', '2010-03-04', '00:00:00 GMT', '8', 'NYI', 'New York', 'Islanders', '2', 'ATL', 'Atlanta', 'Thrashers', '20', 'Philips Arena', '8', 'NYI', 'New York', 'Islanders', '0', '1', '0', '0', '0', '0', '0', '19', '31', '38.0', '4', '2', '50.0', '3', '1', '66.7', '0', '0', '3', '6', '34', '3', '6', '12']"
"['', '9638', '2010-03-06', '19:00:00 GMT', '11', 'BOS', 'Boston', 'Bruins', '8', 'NYI', 'New York', 'Islanders', '16', 'Nassau Veterans Memorial Coliseum', '8', 'NYI', 'New York', 'Islanders', '0', '1', '0', '0', '0', '0', '0', '16', '30', '34.8', '2', '1', '50.0', '2', '1', '50.0', '0', '0', '2', '3', '37', '2', '4', '25']"
"['', '9658', '2010-03-09', '00:00:00 GMT', '8', 'NYI', 'New York', 'Islanders', '6', 'PHI', 'Philadelphia', 'Flyers', '29', 'Wachovia Center', '8', 'NYI', 'New York', 'Islanders', '0', '1', '0', '0', '0', '0', '0', '25', '29', '46.3', '1', '0', '0.0', '4', '2', '50.0', '0', '0', '2', '3', '23', '4', '8', '24']"
"['', '9673', '2010-03-11', '00:00:00 GMT', '17', 'STL', 'St. Louis', 'Blues', '8', 'NYI', 'New York', 'Islanders', '16', 'Nassau Veterans Memorial Coliseum', '8', 'NYI', 'New York', 'Islanders', '0', '0', '0', '1', '0', '0', '1', '34', '25', '57.6', '4', '1', '25.0', '6', '1', '83.3', '0', '0', '1', '1', '29', '6', '12', '19']"
"['', '9693', '2010-03-13', '00:00:00 GMT', '7', 'NJD', 'New Jersey', 'Devils', '8', 'NYI', 'New York', 'Islanders', '16', 'Nassau Veterans Memorial Coliseum', '8', 'NYI', 'New York', 'Islanders', '1', '0', '0', '0', '0', '0', '2', '20', '25', '44.4', '3', '1', '33.3', '3', '0', '100.0', '1', '0', '4', '2', '25', '4', '8', '44']"
"['', '9700', '2010-03-14', '21:00:00 GMT', '12', 'TOR', 'Toronto', 'Maple Leafs', '8', 'NYI', 'New York', 'Islanders', '16', 'Nassau Veterans Memorial Coliseum', '8', 'NYI', 'New York', 'Islanders', '1', '0', '0', '0', '0', '0', '2', '34', '27', '55.7', '5', '1', '20.0', '7', '0', '100.0', '1', '0', '4', '1', '28', '9', '18', '21']"
"['', '9720', '2010-03-16', '02:00:00 GMT', '8', 'NYI', 'New York', 'Islanders', '21', 'VAN', 'Vancouver', 'Canucks', '7', 'General Motors Place', '8', 'NYI', 'New York', 'Islanders', '1', '0', '0', '0', '0', '0', '2', '26', '37', '41.3', '4', '1', '25.0', '2', '0', '100.0', '0', '0', '5', '2', '15', '2', '4', '27']"
"['', '9738', '2010-03-19', '02:00:00 GMT', '8', 'NYI', 'New York', 'Islanders', '29', 'ANA', 'Anaheim', 'Ducks', '8', 'Honda Center', '8', 'NYI', 'New York', 'Islanders', '0', '0', '0', '1', '0', '0', '1', '23', '33', '41.1', '3', '2', '66.7', '2', '1', '50.0', '0', '0', '4', '5', '27', '4', '8', '25']"
"['', '9749', '2010-03-20', '02:30:00 GMT', '8', 'NYI', 'New York', 'Islanders', '28', 'LAK', 'Los Angeles', 'Kings', '25', 'Staples Center', '8', 'NYI', 'New York', 'Islanders', '0', '1', '0', '0', '0', '0', '0', '30', '27', '52.6', '4', '0', '0.0', '4', '0', '100.0', '0', '0', '0', '1', '26', '4', '8', '25']"
"['', '9772', '2010-03-24', '23:00:00 GMT', '8', 'NYI', 'New York', 'Islanders', '9', 'NYR', 'New York', 'Rangers', '12', 'Madison Square Garden', '8', 'NYI', 'New York', 'Islanders', '0', '1', '0', '0', '0', '0', '0', '35', '30', '53.8', '3', '0', '0.0', '4', '1', '75.0', '0', '0', '0', '5', '27', '8', '27', '35']"
"['', '9781', '2010-03-25', '23:00:00 GMT', '23', 'CGY', 'Calgary', 'Flames', '8', 'NYI', 'New York', 'Islanders', '16', 'Nassau Veterans Memorial Coliseum', '8', 'NYI', 'New York', 'Islanders', '1', '0', '0', '0', '0', '0', '2', '16', '31', '34.0', '2', '0', '0.0', '4', '0', '100.0', '0', '0', '3', '2', '19', '5', '10', '29']"
"['', '9799', '2010-03-27', '23:00:00 GMT', '8', 'NYI', 'New York', 'Islanders', '19', 'CBJ', 'Columbus', 'Blue Jackets', '17', 'Nationwide Arena', '8', 'NYI', 'New York', 'Islanders', '1', '0', '0', '0', '0', '0', '2', '33', '23', '58.9', '0', '0', '0.0', '4', '1', '75.0', '0', '0', '4', '3', '24', '4', '8', '35']"
"['', '9816', '2010-03-30', '23:00:00 GMT', '9', 'NYR', 'New York', 'Rangers', '8', 'NYI', 'New York', 'Islanders', '16', 'Nassau Veterans Memorial Coliseum', '8', 'NYI', 'New York', 'Islanders', '0', '1', '0', '0', '0', '0', '0', '32', '21', '60.4', '4', '1', '25.0', '1', '0', '100.0', '0', '0', '3', '4', '25', '3', '6', '36']"
"['', '9832', '2010-04-01', '23:00:00 GMT', '6', 'PHI', 'Philadelphia', 'Flyers', '8', 'NYI', 'New York', 'Islanders', '16', 'Nassau Veterans Memorial Coliseum', '8', 'NYI', 'New York', 'Islanders', '1', '0', '0', '0', '0', '0', '2', '33', '32', '50.8', '3', '0', '0.0', '3', '1', '66.7', '0', '0', '6', '4', '22', '4', '11', '22']"
"['', '9848', '2010-04-03', '18:00:00 GMT', '13', 'OTT', 'Ottawa', 'Senators', '8', 'NYI', 'New York', 'Islanders', '16', 'Nassau Veterans Memorial Coliseum', '8', 'NYI', 'New York', 'Islanders', '1', '0', '0', '0', '0', '0', '2', '27', '23', '54.0', '2', '0', '0.0', '3', '0', '100.0', '0', '0', '4', '1', '29', '6', '26', '21']"
"['', '9865', '2010-04-06', '23:00:00 GMT', '14', 'MTL', 'Montreal', 'Canadiens', '8', 'NYI', 'New York', 'Islanders', '16', 'Nassau Veterans Memorial Coliseum', '8', 'NYI', 'New York', 'Islanders', '1', '0', '0', '0', '0', '0', '2', '23', '26', '46.9', '3', '0', '0.0', '2', '1', '50.0', '0', '0', '3', '3', '39', '3', '6', '31']"
"['', '9882', '2010-04-08', '23:30:00 GMT', '8', 'NYI', 'New York', 'Islanders', '10', 'PIT', 'Pittsburgh', 'Penguins', '14', 'Mellon Arena', '8', 'NYI', 'New York', 'Islanders', '0', '1', '0', '0', '0', '0', '0', '32', '39', '45.1', '5', '1', '20.0', '5', '2', '60.0', '0', '0', '3', '7', '32', '8', '19', '20']"
"['', '9897', '2010-04-10', '23:00:00 GMT', '8', 'NYI', 'New York', 'Islanders', '7', 'NJD', 'New Jersey', 'Devils', '5', 'Izod Center', '8', 'NYI', 'New York', 'Islanders', '0', '1', '0', '0', '0', '0', '0', '25', '32', '43.9', '3', '1', '33.3', '5', '2', '60.0', '0', '0', '1', '7', '18', '10', '34', '16']"
"['', '9910', '2010-04-11', '21:00:00 GMT', '10', 'PIT', 'Pittsburgh', 'Penguins', '8', 'NYI', 'New York', 'Islanders', '16', 'Nassau Veterans Memorial Coliseum', '8', 'NYI', 'New York', 'Islanders', '0', '0', '0', '1', '0', '0', '1', '36', '44', '45.0', '7', '2', '28.6', '5', '1', '80.0', '0', '0', '5', '6', '33', '12', '46', '21']"
