"['#Date/Time of Update: 2018-12-10 19:03:00 GMT', '#Game ID', '#Game Date', '#Game Time', '#Away Team ID', '#Away Team Abbr.', '#Away Team City', '#Away Team Name', '#Home Team ID', '#Home Team Abbr.', '#Home Team City', '#Home Team Name', '#Venue ID', '#Venue Name', '#Team ID', '#Team Abbr.', '#Team City', '#Team Name', '#Wins', '#Losses', '#OvertimeWins', '#OvertimeLosses', '#ShootoutWins', '#ShootoutLosses', '#Rows', '#Points', '#FaceoffWins', '#FaceoffLosses', '#FaceoffPercent', '#Powerplays', '#PowerplayGoals', '#PowerplayPercent', '#PenaltyKills', '#PenaltyKillGoalsAllowed', '#PenaltyKillPercent', '#ShorthandedGoalsFor', '#ShorthandedGoalsAgainst', '#GoalsFor', '#GoalsAgainst', '#Shots', '#Penalties', '#PenaltyMinutes', '#Hits']"
"['', '12477', '2010-10-07', '23:00:00 GMT', '14', 'MTL', 'Montreal', 'Canadiens', '12', 'TOR', 'Toronto', 'Maple Leafs', '1', 'Air Canada Center', '14', 'MTL', 'Montreal', 'Canadiens', '0', '1', '0', '0', '0', '0', '0', '0', '23', '20', '53.5', '3', '0', '0.0', '5', '0', '100.0', '0', '0', '2', '3', '26', '5', '10', '34']"
"['', '11258', '2010-10-09', '23:00:00 GMT', '14', 'MTL', 'Montreal', 'Canadiens', '10', 'PIT', 'Pittsburgh', 'Penguins', '14', 'Civic Arena', '14', 'MTL', 'Montreal', 'Canadiens', '1', '0', '0', '0', '0', '0', '1', '2', '28', '25', '52.8', '3', '0', '0.0', '6', '0', '100.0', '0', '0', '3', '2', '24', '7', '17', '27']"
"['', '11280', '2010-10-13', '23:30:00 GMT', '1', 'TBL', 'Tampa Bay', 'Lightning', '14', 'MTL', 'Montreal', 'Canadiens', '4', 'Bell Centre', '14', 'MTL', 'Montreal', 'Canadiens', '0', '0', '0', '1', '0', '0', '0', '1', '32', '34', '48.5', '1', '0', '0.0', '3', '2', '33.3', '0', '0', '3', '4', '24', '7', '17', '27']"
"['', '11294', '2010-10-15', '23:30:00 GMT', '14', 'MTL', 'Montreal', 'Canadiens', '15', 'BUF', 'Buffalo', 'Sabres', '10', 'HSBC Arena', '14', 'MTL', 'Montreal', 'Canadiens', '1', '0', '0', '0', '0', '0', '1', '2', '24', '26', '48.0', '3', '1', '33.3', '1', '0', '100.0', '0', '0', '2', '1', '26', '1', '2', '17']"
"['', '11297', '2010-10-16', '23:00:00 GMT', '13', 'OTT', 'Ottawa', 'Senators', '14', 'MTL', 'Montreal', 'Canadiens', '4', 'Bell Centre', '14', 'MTL', 'Montreal', 'Canadiens', '1', '0', '0', '0', '0', '0', '1', '2', '36', '31', '53.7', '5', '0', '0.0', '2', '0', '100.0', '0', '0', '4', '3', '36', '4', '8', '14']"
"['', '11328', '2010-10-21', '23:30:00 GMT', '7', 'NJD', 'New Jersey', 'Devils', '14', 'MTL', 'Montreal', 'Canadiens', '4', 'Bell Centre', '14', 'MTL', 'Montreal', 'Canadiens', '0', '1', '0', '0', '0', '0', '0', '0', '26', '29', '47.3', '3', '0', '0.0', '3', '0', '100.0', '0', '0', '0', '3', '29', '5', '13', '14']"
"['', '11343', '2010-10-23', '23:00:00 GMT', '14', 'MTL', 'Montreal', 'Canadiens', '13', 'OTT', 'Ottawa', 'Senators', '23', 'Scotiabank Place', '14', 'MTL', 'Montreal', 'Canadiens', '1', '0', '0', '0', '0', '0', '1', '2', '21', '33', '38.9', '4', '0', '0.0', '2', '0', '100.0', '0', '0', '3', '0', '31', '5', '13', '18']"
"['', '11357', '2010-10-25', '23:30:00 GMT', '30', 'PHX', 'Phoenix', 'Coyotes', '14', 'MTL', 'Montreal', 'Canadiens', '4', 'Bell Centre', '14', 'MTL', 'Montreal', 'Canadiens', '1', '0', '0', '0', '0', '0', '1', '2', '23', '23', '50.0', '3', '1', '33.3', '5', '1', '80.0', '0', '0', '3', '2', '26', '5', '10', '13']"
"['', '11367', '2010-10-27', '23:30:00 GMT', '8', 'NYI', 'New York', 'Islanders', '14', 'MTL', 'Montreal', 'Canadiens', '4', 'Bell Centre', '14', 'MTL', 'Montreal', 'Canadiens', '1', '0', '0', '0', '0', '0', '1', '2', '31', '28', '52.5', '3', '0', '0.0', '4', '2', '50.0', '1', '0', '5', '3', '29', '5', '13', '13']"
"['', '11379', '2010-10-29', '23:00:00 GMT', '14', 'MTL', 'Montreal', 'Canadiens', '8', 'NYI', 'New York', 'Islanders', '16', 'Nassau Veterans Memorial Coliseum', '14', 'MTL', 'Montreal', 'Canadiens', '1', '0', '0', '0', '0', '0', '1', '2', '34', '23', '59.6', '2', '1', '50.0', '5', '0', '100.0', '0', '0', '3', '1', '23', '8', '19', '22']"
"['', '11387', '2010-10-30', '23:00:00 GMT', '4', 'FLO', 'Florida', 'Panthers', '14', 'MTL', 'Montreal', 'Canadiens', '4', 'Bell Centre', '14', 'MTL', 'Montreal', 'Canadiens', '0', '1', '0', '0', '0', '0', '0', '0', '23', '25', '47.9', '5', '0', '0.0', '3', '0', '100.0', '0', '0', '1', '3', '40', '4', '16', '26']"
"['', '11403', '2010-11-02', '23:00:00 GMT', '14', 'MTL', 'Montreal', 'Canadiens', '19', 'CBJ', 'Columbus', 'Blue Jackets', '17', 'Nationwide Arena', '14', 'MTL', 'Montreal', 'Canadiens', '0', '1', '0', '0', '0', '0', '0', '0', '19', '35', '35.2', '3', '0', '0.0', '3', '1', '66.7', '0', '0', '0', '3', '29', '3', '6', '18']"
"['', '11423', '2010-11-05', '23:30:00 GMT', '14', 'MTL', 'Montreal', 'Canadiens', '15', 'BUF', 'Buffalo', 'Sabres', '10', 'HSBC Arena', '14', 'MTL', 'Montreal', 'Canadiens', '1', '0', '0', '0', '0', '0', '1', '2', '25', '32', '43.9', '3', '0', '0.0', '4', '0', '100.0', '0', '0', '3', '2', '29', '5', '10', '16']"
"['', '11432', '2010-11-06', '23:00:00 GMT', '13', 'OTT', 'Ottawa', 'Senators', '14', 'MTL', 'Montreal', 'Canadiens', '4', 'Bell Centre', '14', 'MTL', 'Montreal', 'Canadiens', '0', '1', '0', '0', '0', '0', '0', '0', '26', '28', '48.1', '3', '0', '0.0', '5', '1', '80.0', '0', '0', '2', '3', '21', '6', '12', '32']"
"['', '11448', '2010-11-09', '00:30:00 GMT', '21', 'VAN', 'Vancouver', 'Canucks', '14', 'MTL', 'Montreal', 'Canadiens', '4', 'Bell Centre', '14', 'MTL', 'Montreal', 'Canadiens', '1', '0', '0', '0', '0', '0', '1', '2', '30', '23', '56.6', '4', '1', '25.0', '4', '0', '100.0', '0', '0', '2', '0', '27', '4', '8', '16']"
"['', '11459', '2010-11-11', '00:00:00 GMT', '14', 'MTL', 'Montreal', 'Canadiens', '11', 'BOS', 'Boston', 'Bruins', '27', 'TD Garden', '14', 'MTL', 'Montreal', 'Canadiens', '1', '0', '0', '0', '0', '0', '1', '2', '30', '35', '46.2', '4', '2', '50.0', '2', '0', '100.0', '0', '0', '3', '1', '38', '5', '10', '23']"
"['', '11478', '2010-11-13', '00:00:00 GMT', '3', 'CAR', 'Carolina', 'Hurricanes', '14', 'MTL', 'Montreal', 'Canadiens', '4', 'Bell Centre', '14', 'MTL', 'Montreal', 'Canadiens', '1', '0', '0', '0', '0', '0', '1', '2', '38', '26', '59.4', '5', '3', '60.0', '5', '1', '80.0', '0', '0', '7', '2', '26', '8', '24', '27']"
"['', '11497', '2010-11-16', '00:30:00 GMT', '6', 'PHI', 'Philadelphia', 'Flyers', '14', 'MTL', 'Montreal', 'Canadiens', '4', 'Bell Centre', '14', 'MTL', 'Montreal', 'Canadiens', '1', '0', '0', '0', '0', '0', '1', '2', '32', '41', '43.8', '7', '2', '28.6', '6', '0', '100.0', '0', '0', '3', '0', '25', '10', '31', '28']"
"['', '11514', '2010-11-18', '00:30:00 GMT', '18', 'NSH', 'Nashville', 'Predators', '14', 'MTL', 'Montreal', 'Canadiens', '4', 'Bell Centre', '14', 'MTL', 'Montreal', 'Canadiens', '0', '1', '0', '0', '0', '0', '0', '0', '28', '22', '56.0', '4', '0', '0.0', '2', '0', '100.0', '0', '0', '0', '3', '30', '3', '6', '18']"
"['', '11528', '2010-11-20', '00:00:00 GMT', '12', 'TOR', 'Toronto', 'Maple Leafs', '14', 'MTL', 'Montreal', 'Canadiens', '4', 'Bell Centre', '14', 'MTL', 'Montreal', 'Canadiens', '1', '0', '0', '0', '0', '0', '1', '2', '35', '18', '66.0', '1', '1', '100.0', '3', '0', '100.0', '1', '0', '2', '0', '37', '3', '6', '25']"
"['', '11542', '2010-11-22', '00:00:00 GMT', '14', 'MTL', 'Montreal', 'Canadiens', '6', 'PHI', 'Philadelphia', 'Flyers', '29', 'Wells Fargo Center', '14', 'MTL', 'Montreal', 'Canadiens', '0', '1', '0', '0', '0', '0', '0', '0', '22', '38', '36.7', '3', '0', '0.0', '3', '0', '100.0', '0', '0', '2', '3', '29', '3', '6', '22']"
"['', '11553', '2010-11-24', '00:30:00 GMT', '28', 'LAK', 'Los Angeles', 'Kings', '14', 'MTL', 'Montreal', 'Canadiens', '4', 'Bell Centre', '14', 'MTL', 'Montreal', 'Canadiens', '1', '0', '0', '0', '0', '0', '1', '2', '24', '33', '42.1', '3', '1', '33.3', '3', '1', '66.7', '0', '0', '4', '1', '29', '4', '8', '20']"
"['', '11573', '2010-11-26', '00:30:00 GMT', '14', 'MTL', 'Montreal', 'Canadiens', '2', 'ATL', 'Atlanta', 'Thrashers', '20', 'Philips Arena', '14', 'MTL', 'Montreal', 'Canadiens', '0', '1', '0', '0', '0', '0', '0', '0', '21', '34', '38.2', '3', '0', '0.0', '6', '1', '83.3', '0', '0', '0', '3', '25', '9', '21', '20']"
"['', '11578', '2010-11-27', '00:00:00 GMT', '15', 'BUF', 'Buffalo', 'Sabres', '14', 'MTL', 'Montreal', 'Canadiens', '4', 'Bell Centre', '14', 'MTL', 'Montreal', 'Canadiens', '1', '0', '0', '0', '0', '0', '1', '2', '34', '21', '61.8', '5', '1', '20.0', '4', '0', '100.0', '0', '0', '3', '1', '30', '9', '29', '19']"
"['', '11600', '2010-12-01', '00:00:00 GMT', '24', 'EDM', 'Edmonton', 'Oilers', '14', 'MTL', 'Montreal', 'Canadiens', '4', 'Bell Centre', '14', 'MTL', 'Montreal', 'Canadiens', '0', '0', '0', '1', '0', '0', '0', '1', '25', '21', '54.3', '3', '2', '66.7', '5', '1', '80.0', '0', '1', '3', '4', '36', '5', '10', '22']"
"['', '11608', '2010-12-02', '00:00:00 GMT', '14', 'MTL', 'Montreal', 'Canadiens', '7', 'NJD', 'New Jersey', 'Devils', '37', 'Prudential Center', '14', 'MTL', 'Montreal', 'Canadiens', '1', '0', '0', '0', '0', '0', '1', '2', '22', '30', '42.3', '2', '1', '50.0', '2', '0', '100.0', '0', '0', '5', '1', '26', '3', '6', '16']"
"['', '11622', '2010-12-04', '19:00:00 GMT', '26', 'SJS', 'San Jose', 'Sharks', '14', 'MTL', 'Montreal', 'Canadiens', '4', 'Bell Centre', '14', 'MTL', 'Montreal', 'Canadiens', '1', '0', '0', '0', '0', '0', '1', '2', '22', '24', '47.8', '0', '0', '0.0', '2', '0', '100.0', '0', '0', '3', '1', '16', '2', '4', '21']"
"['', '11644', '2010-12-07', '00:30:00 GMT', '13', 'OTT', 'Ottawa', 'Senators', '14', 'MTL', 'Montreal', 'Canadiens', '4', 'Bell Centre', '14', 'MTL', 'Montreal', 'Canadiens', '1', '0', '0', '0', '0', '0', '1', '2', '36', '27', '57.1', '4', '1', '25.0', '1', '1', '0.0', '0', '0', '4', '1', '31', '5', '18', '23']"
"['', '11661', '2010-12-10', '00:00:00 GMT', '14', 'MTL', 'Montreal', 'Canadiens', '16', 'DET', 'Detroit', 'Red Wings', '11', 'Joe Louis Arena', '14', 'MTL', 'Montreal', 'Canadiens', '0', '1', '0', '0', '0', '0', '0', '0', '26', '35', '42.6', '1', '0', '0.0', '6', '1', '83.3', '0', '0', '2', '4', '36', '6', '12', '19']"
"['', '11671', '2010-12-11', '00:00:00 GMT', '14', 'MTL', 'Montreal', 'Canadiens', '12', 'TOR', 'Toronto', 'Maple Leafs', '1', 'Air Canada Center', '14', 'MTL', 'Montreal', 'Canadiens', '0', '1', '0', '0', '0', '0', '0', '0', '30', '35', '46.2', '1', '0', '0.0', '3', '0', '100.0', '0', '0', '1', '3', '22', '5', '10', '33']"
"['', '11696', '2010-12-15', '00:30:00 GMT', '6', 'PHI', 'Philadelphia', 'Flyers', '14', 'MTL', 'Montreal', 'Canadiens', '4', 'Bell Centre', '14', 'MTL', 'Montreal', 'Canadiens', '0', '1', '0', '0', '0', '0', '0', '0', '33', '28', '54.1', '2', '1', '50.0', '3', '1', '66.7', '0', '0', '3', '5', '38', '3', '6', '20']"
"['', '11705', '2010-12-16', '00:30:00 GMT', '11', 'BOS', 'Boston', 'Bruins', '14', 'MTL', 'Montreal', 'Canadiens', '4', 'Bell Centre', '14', 'MTL', 'Montreal', 'Canadiens', '1', '0', '0', '0', '0', '0', '1', '2', '32', '28', '53.3', '3', '0', '0.0', '4', '1', '75.0', '0', '0', '4', '3', '37', '5', '13', '25']"
"['', '11729', '2010-12-19', '01:00:00 GMT', '14', 'MTL', 'Montreal', 'Canadiens', '22', 'COL', 'Colorado', 'Avalanche', '19', 'Pepsi Center', '14', 'MTL', 'Montreal', 'Canadiens', '0', '1', '0', '0', '0', '0', '0', '0', '28', '28', '50.0', '5', '2', '40.0', '3', '1', '66.7', '0', '0', '2', '3', '27', '3', '6', '19']"
"['', '11741', '2010-12-21', '02:00:00 GMT', '14', 'MTL', 'Montreal', 'Canadiens', '27', 'DAL', 'Dallas', 'Stars', '2', 'American Airlines Center', '14', 'MTL', 'Montreal', 'Canadiens', '0', '1', '0', '0', '0', '0', '0', '0', '34', '24', '58.6', '4', '0', '0.0', '2', '1', '50.0', '1', '1', '2', '5', '27', '4', '11', '19']"
"['', '11750', '2010-12-23', '00:00:00 GMT', '14', 'MTL', 'Montreal', 'Canadiens', '3', 'CAR', 'Carolina', 'Hurricanes', '21', 'RBC Center', '14', 'MTL', 'Montreal', 'Canadiens', '1', '0', '0', '0', '0', '0', '1', '2', '31', '28', '52.5', '3', '2', '66.7', '2', '0', '100.0', '0', '1', '3', '2', '26', '3', '6', '19']"
"['', '11764', '2010-12-26', '00:00:00 GMT', '14', 'MTL', 'Montreal', 'Canadiens', '8', 'NYI', 'New York', 'Islanders', '16', 'Nassau Veterans Memorial Coliseum', '14', 'MTL', 'Montreal', 'Canadiens', '0', '1', '0', '0', '0', '0', '0', '0', '27', '34', '44.3', '2', '0', '0.0', '7', '2', '71.4', '0', '0', '1', '4', '38', '9', '29', '21']"
"['', '11780', '2010-12-28', '00:00:00 GMT', '14', 'MTL', 'Montreal', 'Canadiens', '5', 'WSH', 'Washington', 'Capitals', '13', 'Verizon Center', '14', 'MTL', 'Montreal', 'Canadiens', '0', '1', '0', '0', '0', '0', '0', '0', '16', '36', '30.8', '5', '0', '0.0', '7', '0', '100.0', '0', '0', '0', '3', '25', '9', '18', '17']"
"['', '11795', '2010-12-30', '00:30:00 GMT', '14', 'MTL', 'Montreal', 'Canadiens', '1', 'TBL', 'Tampa Bay', 'Lightning', '26', 'St. Pete Times Forum', '14', 'MTL', 'Montreal', 'Canadiens', '0', '1', '0', '0', '0', '0', '0', '0', '24', '23', '51.1', '4', '0', '0.0', '6', '1', '83.3', '0', '0', '1', '4', '27', '7', '22', '22']"
"['', '11800', '2010-12-31', '22:00:00 GMT', '14', 'MTL', 'Montreal', 'Canadiens', '4', 'FLO', 'Florida', 'Panthers', '3', 'BankAtlantic Center', '14', 'MTL', 'Montreal', 'Canadiens', '1', '0', '0', '0', '0', '0', '1', '2', '25', '29', '46.3', '3', '2', '66.7', '6', '0', '100.0', '0', '0', '3', '2', '45', '6', '12', '33']"
"['', '11815', '2011-01-02', '18:00:00 GMT', '2', 'ATL', 'Atlanta', 'Thrashers', '14', 'MTL', 'Montreal', 'Canadiens', '4', 'Bell Centre', '14', 'MTL', 'Montreal', 'Canadiens', '0', '0', '0', '1', '0', '0', '0', '1', '43', '25', '63.2', '3', '2', '66.7', '2', '1', '50.0', '0', '0', '3', '4', '47', '2', '4', '23']"
"['', '11842', '2011-01-06', '00:30:00 GMT', '10', 'PIT', 'Pittsburgh', 'Penguins', '14', 'MTL', 'Montreal', 'Canadiens', '4', 'Bell Centre', '14', 'MTL', 'Montreal', 'Canadiens', '1', '0', '0', '0', '0', '0', '0', '2', '22', '31', '41.5', '5', '0', '0.0', '2', '0', '100.0', '0', '0', '1', '1', '22', '2', '4', '23']"
"['', '11856', '2011-01-08', '00:00:00 GMT', '11', 'BOS', 'Boston', 'Bruins', '14', 'MTL', 'Montreal', 'Canadiens', '4', 'Bell Centre', '14', 'MTL', 'Montreal', 'Canadiens', '1', '0', '0', '0', '0', '0', '1', '2', '38', '29', '56.7', '3', '1', '33.3', '3', '0', '100.0', '0', '0', '3', '2', '39', '5', '21', '27']"
"['', '11878', '2011-01-11', '00:00:00 GMT', '14', 'MTL', 'Montreal', 'Canadiens', '9', 'NYR', 'New York', 'Rangers', '12', 'Madison Square Garden', '14', 'MTL', 'Montreal', 'Canadiens', '1', '0', '0', '0', '0', '0', '1', '2', '26', '22', '54.2', '1', '0', '0.0', '2', '0', '100.0', '0', '0', '2', '1', '36', '3', '6', '28']"
"['', '11884', '2011-01-12', '00:30:00 GMT', '10', 'PIT', 'Pittsburgh', 'Penguins', '14', 'MTL', 'Montreal', 'Canadiens', '4', 'Bell Centre', '14', 'MTL', 'Montreal', 'Canadiens', '0', '1', '0', '0', '0', '0', '0', '0', '33', '28', '54.1', '3', '0', '0.0', '6', '4', '33.3', '0', '0', '2', '5', '20', '8', '19', '30']"
"['', '11905', '2011-01-15', '00:00:00 GMT', '9', 'NYR', 'New York', 'Rangers', '14', 'MTL', 'Montreal', 'Canadiens', '4', 'Bell Centre', '14', 'MTL', 'Montreal', 'Canadiens', '1', '0', '0', '0', '0', '0', '1', '2', '28', '25', '52.8', '4', '2', '50.0', '4', '0', '100.0', '0', '0', '3', '2', '38', '7', '17', '15']"
"['', '11922', '2011-01-17', '00:30:00 GMT', '23', 'CGY', 'Calgary', 'Flames', '14', 'MTL', 'Montreal', 'Canadiens', '4', 'Bell Centre', '14', 'MTL', 'Montreal', 'Canadiens', '1', '0', '0', '0', '0', '0', '1', '2', '30', '21', '58.8', '2', '0', '0.0', '3', '0', '100.0', '0', '0', '5', '4', '24', '4', '8', '10']"
"['', '11925', '2011-01-18', '00:30:00 GMT', '14', 'MTL', 'Montreal', 'Canadiens', '15', 'BUF', 'Buffalo', 'Sabres', '10', 'HSBC Arena', '14', 'MTL', 'Montreal', 'Canadiens', '0', '0', '0', '1', '0', '0', '0', '1', '32', '27', '54.2', '3', '1', '33.3', '4', '2', '50.0', '0', '0', '1', '2', '29', '6', '12', '9']"
"['', '11951', '2011-01-21', '00:30:00 GMT', '14', 'MTL', 'Montreal', 'Canadiens', '13', 'OTT', 'Ottawa', 'Senators', '23', 'Scotiabank Place', '14', 'MTL', 'Montreal', 'Canadiens', '1', '0', '0', '0', '0', '0', '1', '2', '23', '32', '41.8', '3', '2', '66.7', '3', '0', '100.0', '0', '0', '7', '1', '28', '5', '13', '20']"
"['', '11957', '2011-01-22', '00:00:00 GMT', '29', 'ANA', 'Anaheim', 'Ducks', '14', 'MTL', 'Montreal', 'Canadiens', '4', 'Bell Centre', '14', 'MTL', 'Montreal', 'Canadiens', '0', '0', '0', '1', '0', '0', '0', '1', '28', '34', '45.2', '6', '2', '33.3', '4', '2', '50.0', '0', '0', '3', '3', '37', '4', '8', '16']"
"['', '11977', '2011-01-25', '00:30:00 GMT', '14', 'MTL', 'Montreal', 'Canadiens', '6', 'PHI', 'Philadelphia', 'Flyers', '29', 'Wells Fargo Center', '14', 'MTL', 'Montreal', 'Canadiens', '0', '1', '0', '0', '0', '0', '0', '0', '44', '33', '57.1', '7', '0', '0.0', '5', '3', '40.0', '0', '0', '2', '5', '29', '7', '14', '19']"
"['', '11997', '2011-02-01', '00:30:00 GMT', '14', 'MTL', 'Montreal', 'Canadiens', '5', 'WSH', 'Washington', 'Capitals', '13', 'Verizon Center', '14', 'MTL', 'Montreal', 'Canadiens', '1', '0', '0', '0', '0', '0', '0', '2', '28', '31', '47.5', '4', '0', '0.0', '3', '1', '66.7', '0', '0', '2', '2', '36', '3', '6', '16']"
"['', '12008', '2011-02-02', '00:30:00 GMT', '4', 'FLO', 'Florida', 'Panthers', '14', 'MTL', 'Montreal', 'Canadiens', '4', 'Bell Centre', '14', 'MTL', 'Montreal', 'Canadiens', '1', '0', '0', '0', '0', '0', '1', '2', '41', '30', '57.7', '5', '0', '0.0', '1', '0', '100.0', '0', '0', '3', '2', '37', '3', '6', '19']"
"['', '12025', '2011-02-05', '19:00:00 GMT', '9', 'NYR', 'New York', 'Rangers', '14', 'MTL', 'Montreal', 'Canadiens', '4', 'Bell Centre', '14', 'MTL', 'Montreal', 'Canadiens', '1', '0', '0', '0', '0', '0', '1', '2', '24', '30', '44.4', '2', '0', '0.0', '4', '0', '100.0', '0', '0', '2', '0', '27', '7', '17', '19']"
"['', '12036', '2011-02-06', '20:00:00 GMT', '7', 'NJD', 'New Jersey', 'Devils', '14', 'MTL', 'Montreal', 'Canadiens', '4', 'Bell Centre', '14', 'MTL', 'Montreal', 'Canadiens', '0', '1', '0', '0', '0', '0', '0', '0', '23', '33', '41.1', '1', '0', '0.0', '2', '0', '100.0', '0', '0', '1', '4', '25', '3', '14', '18']"
"['', '12050', '2011-02-09', '00:00:00 GMT', '14', 'MTL', 'Montreal', 'Canadiens', '11', 'BOS', 'Boston', 'Bruins', '27', 'TD Garden', '14', 'MTL', 'Montreal', 'Canadiens', '0', '1', '0', '0', '0', '0', '0', '0', '29', '31', '48.3', '6', '4', '66.7', '2', '1', '50.0', '0', '0', '6', '8', '27', '21', '95', '21']"
"['', '12061', '2011-02-10', '00:30:00 GMT', '8', 'NYI', 'New York', 'Islanders', '14', 'MTL', 'Montreal', 'Canadiens', '4', 'Bell Centre', '14', 'MTL', 'Montreal', 'Canadiens', '0', '0', '0', '1', '0', '0', '0', '1', '32', '29', '52.5', '4', '0', '0.0', '3', '0', '100.0', '0', '0', '3', '3', '37', '5', '10', '14']"
"['', '12073', '2011-02-12', '00:00:00 GMT', '12', 'TOR', 'Toronto', 'Maple Leafs', '14', 'MTL', 'Montreal', 'Canadiens', '4', 'Bell Centre', '14', 'MTL', 'Montreal', 'Canadiens', '1', '0', '0', '0', '0', '0', '1', '2', '32', '32', '50.0', '5', '1', '20.0', '5', '0', '100.0', '0', '0', '3', '0', '36', '6', '15', '17']"
"['', '12090', '2011-02-15', '00:30:00 GMT', '15', 'BUF', 'Buffalo', 'Sabres', '14', 'MTL', 'Montreal', 'Canadiens', '4', 'Bell Centre', '14', 'MTL', 'Montreal', 'Canadiens', '0', '0', '0', '1', '0', '0', '0', '1', '36', '31', '53.7', '5', '1', '20.0', '2', '1', '50.0', '0', '0', '2', '2', '32', '2', '4', '25']"
"['', '12108', '2011-02-17', '02:00:00 GMT', '14', 'MTL', 'Montreal', 'Canadiens', '24', 'EDM', 'Edmonton', 'Oilers', '22', 'Rogers Place', '14', 'MTL', 'Montreal', 'Canadiens', '0', '1', '0', '0', '0', '0', '0', '0', '29', '24', '54.7', '1', '0', '0.0', '2', '0', '100.0', '0', '0', '1', '4', '36', '5', '24', '16']"
"['', '12129', '2011-02-20', '23:00:00 GMT', '14', 'MTL', 'Montreal', 'Canadiens', '23', 'CGY', 'Calgary', 'Flames', '18', 'Scotiabank Saddledome', '14', 'MTL', 'Montreal', 'Canadiens', '0', '1', '0', '0', '0', '0', '0', '0', '34', '33', '50.7', '1', '0', '0.0', '4', '2', '50.0', '0', '1', '0', '4', '39', '4', '8', '18']"
"['', '12141', '2011-02-22', '03:00:00 GMT', '14', 'MTL', 'Montreal', 'Canadiens', '21', 'VAN', 'Vancouver', 'Canucks', '7', 'Canada Hockey Place', '14', 'MTL', 'Montreal', 'Canadiens', '1', '0', '0', '0', '0', '0', '1', '2', '25', '45', '35.7', '3', '0', '0.0', '6', '2', '66.7', '0', '0', '3', '2', '22', '6', '12', '25']"
"['', '12151', '2011-02-24', '00:30:00 GMT', '12', 'TOR', 'Toronto', 'Maple Leafs', '14', 'MTL', 'Montreal', 'Canadiens', '4', 'Bell Centre', '14', 'MTL', 'Montreal', 'Canadiens', '0', '1', '0', '0', '0', '0', '0', '0', '38', '27', '58.5', '6', '2', '33.3', '5', '3', '40.0', '0', '0', '4', '5', '31', '8', '16', '19']"
"['', '12167', '2011-02-26', '00:00:00 GMT', '3', 'CAR', 'Carolina', 'Hurricanes', '14', 'MTL', 'Montreal', 'Canadiens', '4', 'Bell Centre', '14', 'MTL', 'Montreal', 'Canadiens', '1', '0', '0', '0', '0', '0', '1', '2', '26', '23', '53.1', '1', '1', '100.0', '4', '0', '100.0', '0', '0', '4', '3', '23', '4', '8', '16']"
"['', '12185', '2011-03-01', '00:00:00 GMT', '14', 'MTL', 'Montreal', 'Canadiens', '2', 'ATL', 'Atlanta', 'Thrashers', '20', 'Philips Arena', '14', 'MTL', 'Montreal', 'Canadiens', '1', '0', '0', '0', '0', '0', '1', '2', '35', '18', '66.0', '5', '1', '20.0', '4', '0', '100.0', '0', '0', '3', '1', '20', '7', '14', '16']"
"['', '12203', '2011-03-03', '00:30:00 GMT', '14', 'MTL', 'Montreal', 'Canadiens', '4', 'FLO', 'Florida', 'Panthers', '3', 'BankAtlantic Center', '14', 'MTL', 'Montreal', 'Canadiens', '1', '0', '0', '0', '0', '0', '1', '2', '30', '28', '51.7', '1', '0', '0.0', '3', '0', '100.0', '0', '0', '4', '0', '27', '3', '6', '20']"
"['', '12219', '2011-03-05', '00:00:00 GMT', '14', 'MTL', 'Montreal', 'Canadiens', '1', 'TBL', 'Tampa Bay', 'Lightning', '26', 'St. Pete Times Forum', '14', 'MTL', 'Montreal', 'Canadiens', '1', '0', '0', '0', '0', '0', '1', '2', '29', '39', '42.6', '2', '2', '100.0', '6', '1', '83.3', '0', '0', '4', '2', '19', '7', '14', '13']"
"['', '12235', '2011-03-08', '00:30:00 GMT', '11', 'BOS', 'Boston', 'Bruins', '14', 'MTL', 'Montreal', 'Canadiens', '4', 'Bell Centre', '14', 'MTL', 'Montreal', 'Canadiens', '1', '0', '0', '0', '0', '0', '1', '2', '19', '32', '37.3', '5', '2', '40.0', '4', '0', '100.0', '0', '0', '4', '1', '22', '7', '33', '22']"
"['', '12250', '2011-03-10', '01:00:00 GMT', '14', 'MTL', 'Montreal', 'Canadiens', '17', 'STL', 'St. Louis', 'Blues', '24', 'Scottrade Center', '14', 'MTL', 'Montreal', 'Canadiens', '0', '1', '0', '0', '0', '0', '0', '0', '31', '29', '51.7', '3', '0', '0.0', '3', '0', '100.0', '0', '1', '1', '4', '27', '5', '13', '18']"
"['', '12262', '2011-03-12', '19:00:00 GMT', '14', 'MTL', 'Montreal', 'Canadiens', '10', 'PIT', 'Pittsburgh', 'Penguins', '14', 'Civic Arena', '14', 'MTL', 'Montreal', 'Canadiens', '1', '0', '0', '0', '0', '0', '1', '2', '22', '29', '43.1', '2', '0', '0.0', '3', '0', '100.0', '0', '0', '3', '0', '17', '5', '13', '12']"
"['', '12284', '2011-03-15', '23:00:00 GMT', '5', 'WSH', 'Washington', 'Capitals', '14', 'MTL', 'Montreal', 'Canadiens', '4', 'Bell Centre', '14', 'MTL', 'Montreal', 'Canadiens', '0', '1', '0', '0', '0', '0', '0', '0', '27', '30', '47.4', '3', '0', '0.0', '4', '2', '50.0', '0', '0', '2', '4', '24', '7', '17', '26']"
"['', '12296', '2011-03-17', '23:30:00 GMT', '1', 'TBL', 'Tampa Bay', 'Lightning', '14', 'MTL', 'Montreal', 'Canadiens', '4', 'Bell Centre', '14', 'MTL', 'Montreal', 'Canadiens', '1', '0', '0', '0', '0', '0', '0', '2', '19', '35', '35.2', '2', '0', '0.0', '4', '1', '75.0', '1', '0', '2', '2', '27', '5', '10', '29']"
"['', '12307', '2011-03-18', '23:00:00 GMT', '14', 'MTL', 'Montreal', 'Canadiens', '9', 'NYR', 'New York', 'Rangers', '12', 'Madison Square Garden', '14', 'MTL', 'Montreal', 'Canadiens', '0', '1', '0', '0', '0', '0', '0', '0', '30', '32', '48.4', '3', '1', '33.3', '5', '1', '80.0', '0', '0', '3', '6', '22', '8', '19', '32']"
"['', '12322', '2011-03-20', '22:00:00 GMT', '14', 'MTL', 'Montreal', 'Canadiens', '25', 'MIN', 'Minnesota', 'Wild', '30', 'Xcel Energy Center', '14', 'MTL', 'Montreal', 'Canadiens', '1', '0', '0', '0', '0', '0', '1', '2', '26', '37', '41.3', '5', '1', '20.0', '3', '0', '100.0', '0', '0', '8', '1', '24', '6', '23', '4']"
"['', '12331', '2011-03-22', '23:30:00 GMT', '15', 'BUF', 'Buffalo', 'Sabres', '14', 'MTL', 'Montreal', 'Canadiens', '4', 'Bell Centre', '14', 'MTL', 'Montreal', 'Canadiens', '0', '1', '0', '0', '0', '0', '0', '0', '21', '23', '47.7', '1', '0', '0.0', '5', '0', '100.0', '0', '0', '0', '2', '31', '5', '10', '23']"
"['', '12341', '2011-03-24', '23:00:00 GMT', '14', 'MTL', 'Montreal', 'Canadiens', '11', 'BOS', 'Boston', 'Bruins', '27', 'TD Garden', '14', 'MTL', 'Montreal', 'Canadiens', '0', '1', '0', '0', '0', '0', '0', '0', '25', '38', '39.7', '5', '0', '0.0', '5', '1', '80.0', '0', '1', '0', '7', '24', '8', '19', '25']"
"['', '12360', '2011-03-26', '23:00:00 GMT', '5', 'WSH', 'Washington', 'Capitals', '14', 'MTL', 'Montreal', 'Canadiens', '4', 'Bell Centre', '14', 'MTL', 'Montreal', 'Canadiens', '0', '1', '0', '0', '0', '0', '0', '0', '30', '35', '46.2', '3', '0', '0.0', '4', '0', '100.0', '0', '0', '0', '2', '18', '4', '8', '23']"
"['', '12378', '2011-03-29', '23:30:00 GMT', '2', 'ATL', 'Atlanta', 'Thrashers', '14', 'MTL', 'Montreal', 'Canadiens', '4', 'Bell Centre', '14', 'MTL', 'Montreal', 'Canadiens', '1', '0', '0', '0', '0', '0', '1', '2', '33', '29', '53.2', '4', '0', '0.0', '1', '0', '100.0', '0', '0', '3', '1', '28', '5', '13', '23']"
"['', '12386', '2011-03-30', '23:00:00 GMT', '14', 'MTL', 'Montreal', 'Canadiens', '3', 'CAR', 'Carolina', 'Hurricanes', '21', 'RBC Center', '14', 'MTL', 'Montreal', 'Canadiens', '0', '1', '0', '0', '0', '0', '0', '0', '26', '28', '48.1', '3', '2', '66.7', '3', '1', '66.7', '0', '0', '2', '6', '38', '6', '28', '10']"
"['', '12407', '2011-04-02', '23:00:00 GMT', '14', 'MTL', 'Montreal', 'Canadiens', '7', 'NJD', 'New Jersey', 'Devils', '37', 'Prudential Center', '14', 'MTL', 'Montreal', 'Canadiens', '1', '0', '0', '0', '0', '0', '1', '2', '22', '28', '44.0', '2', '1', '50.0', '1', '0', '100.0', '0', '0', '3', '1', '26', '3', '14', '14']"
"['', '12426', '2011-04-05', '23:30:00 GMT', '20', 'CHI', 'Chicago', 'Blackhawks', '14', 'MTL', 'Montreal', 'Canadiens', '4', 'Bell Centre', '14', 'MTL', 'Montreal', 'Canadiens', '1', '0', '0', '0', '0', '0', '1', '2', '25', '32', '43.9', '3', '1', '33.3', '4', '0', '100.0', '0', '0', '2', '1', '33', '5', '10', '11']"
"['', '12441', '2011-04-07', '23:30:00 GMT', '14', 'MTL', 'Montreal', 'Canadiens', '13', 'OTT', 'Ottawa', 'Senators', '23', 'Scotiabank Place', '14', 'MTL', 'Montreal', 'Canadiens', '0', '0', '0', '1', '0', '0', '0', '1', '15', '31', '32.6', '3', '0', '0.0', '1', '0', '100.0', '0', '0', '2', '3', '27', '2', '4', '12']"
"['', '12458', '2011-04-09', '23:00:00 GMT', '14', 'MTL', 'Montreal', 'Canadiens', '12', 'TOR', 'Toronto', 'Maple Leafs', '1', 'Air Canada Center', '14', 'MTL', 'Montreal', 'Canadiens', '1', '0', '0', '0', '0', '0', '1', '2', '24', '31', '43.6', '3', '2', '66.7', '4', '0', '100.0', '1', '0', '4', '1', '30', '6', '15', '24']"
