"['#Date/Time of Update: 2018-12-10 19:03:04 GMT', '#Game ID', '#Game Date', '#Game Time', '#Away Team ID', '#Away Team Abbr.', '#Away Team City', '#Away Team Name', '#Home Team ID', '#Home Team Abbr.', '#Home Team City', '#Home Team Name', '#Venue ID', '#Venue Name', '#Team ID', '#Team Abbr.', '#Team City', '#Team Name', '#Wins', '#Losses', '#OvertimeWins', '#OvertimeLosses', '#ShootoutWins', '#ShootoutLosses', '#Rows', '#Points', '#FaceoffWins', '#FaceoffLosses', '#FaceoffPercent', '#Powerplays', '#PowerplayGoals', '#PowerplayPercent', '#PenaltyKills', '#PenaltyKillGoalsAllowed', '#PenaltyKillPercent', '#ShorthandedGoalsFor', '#ShorthandedGoalsAgainst', '#GoalsFor', '#GoalsAgainst', '#Shots', '#Penalties', '#PenaltyMinutes', '#Hits']"
"['', '14890', '2011-10-07', '17:00:00 GMT', '9', 'NYR', 'New York', 'Rangers', '28', 'LAK', 'Los Angeles', 'Kings', '25', 'Staples Center', '9', 'NYR', 'New York', 'Rangers', '0', '0', '0', '1', '0', '0', '0', '1', '34', '26', '56.7', '1', '0', '0.0', '5', '1', '80.0', '0', '0', '2', '3', '24', '7', '25', '23']"
"['', '14895', '2011-10-08', '17:00:00 GMT', '9', 'NYR', 'New York', 'Rangers', '29', 'ANA', 'Anaheim', 'Ducks', '8', 'Honda Center', '9', 'NYR', 'New York', 'Rangers', '0', '0', '0', '1', '0', '0', '0', '1', '32', '22', '59.3', '6', '0', '0.0', '3', '0', '100.0', '0', '0', '1', '1', '14', '9', '21', '20']"
"['', '14936', '2011-10-15', '23:00:00 GMT', '9', 'NYR', 'New York', 'Rangers', '8', 'NYI', 'New York', 'Islanders', '16', 'Nassau Veterans Memorial Coliseum', '9', 'NYR', 'New York', 'Rangers', '0', '1', '0', '0', '0', '0', '0', '0', '28', '22', '56.0', '4', '0', '0.0', '7', '2', '71.4', '0', '0', '2', '4', '29', '8', '16', '28']"
"['', '14961', '2011-10-18', '02:00:00 GMT', '9', 'NYR', 'New York', 'Rangers', '21', 'VAN', 'Vancouver', 'Canucks', '7', 'Rogers Arena', '9', 'NYR', 'New York', 'Rangers', '1', '0', '0', '0', '0', '0', '1', '2', '27', '37', '42.2', '2', '0', '0.0', '7', '0', '100.0', '0', '0', '4', '0', '15', '10', '31', '31']"
"['', '14972', '2011-10-20', '01:30:00 GMT', '9', 'NYR', 'New York', 'Rangers', '23', 'CGY', 'Calgary', 'Flames', '18', 'Scotiabank Saddledome', '9', 'NYR', 'New York', 'Rangers', '1', '0', '0', '0', '0', '0', '1', '2', '31', '38', '44.9', '2', '1', '50.0', '4', '1', '75.0', '1', '0', '3', '2', '26', '9', '32', '17']"
"['', '14992', '2011-10-22', '02:00:00 GMT', '9', 'NYR', 'New York', 'Rangers', '24', 'EDM', 'Edmonton', 'Oilers', '22', 'Rogers Place', '9', 'NYR', 'New York', 'Rangers', '0', '1', '0', '0', '0', '0', '0', '0', '19', '26', '42.2', '4', '0', '0.0', '3', '1', '66.7', '0', '0', '0', '2', '19', '5', '13', '29']"
"['', '14997', '2011-10-24', '00:30:00 GMT', '9', 'NYR', 'New York', 'Rangers', '2', 'WPJ', 'Winnipeg', 'Jets', '39', 'MTS Centre', '9', 'NYR', 'New York', 'Rangers', '1', '0', '0', '0', '0', '0', '1', '2', '25', '28', '47.2', '4', '2', '50.0', '1', '0', '100.0', '0', '0', '2', '1', '15', '2', '7', '21']"
"['', '15012', '2011-10-27', '23:00:00 GMT', '12', 'TOR', 'Toronto', 'Maple Leafs', '9', 'NYR', 'New York', 'Rangers', '12', 'Madison Square Garden', '9', 'NYR', 'New York', 'Rangers', '0', '1', '0', '0', '0', '0', '0', '0', '31', '31', '50.0', '2', '0', '0.0', '3', '0', '100.0', '0', '0', '2', '4', '28', '6', '15', '17']"
"['', '15025', '2011-10-29', '19:00:00 GMT', '13', 'OTT', 'Ottawa', 'Senators', '9', 'NYR', 'New York', 'Rangers', '12', 'Madison Square Garden', '9', 'NYR', 'New York', 'Rangers', '0', '0', '0', '1', '0', '0', '0', '1', '34', '28', '54.8', '2', '2', '100.0', '4', '1', '75.0', '0', '0', '4', '4', '24', '4', '8', '26']"
"['', '15042', '2011-10-31', '23:00:00 GMT', '26', 'SJS', 'San Jose', 'Sharks', '9', 'NYR', 'New York', 'Rangers', '12', 'Madison Square Garden', '9', 'NYR', 'New York', 'Rangers', '1', '0', '0', '0', '0', '0', '1', '2', '29', '29', '50.0', '5', '1', '20.0', '3', '0', '100.0', '0', '0', '5', '2', '26', '4', '11', '26']"
"['', '15054', '2011-11-03', '23:00:00 GMT', '29', 'ANA', 'Anaheim', 'Ducks', '9', 'NYR', 'New York', 'Rangers', '12', 'Madison Square Garden', '9', 'NYR', 'New York', 'Rangers', '1', '0', '0', '0', '0', '0', '0', '2', '24', '27', '47.1', '4', '0', '0.0', '1', '0', '100.0', '0', '0', '1', '1', '24', '4', '11', '29']"
"['', '15073', '2011-11-05', '23:00:00 GMT', '14', 'MTL', 'Montreal', 'Canadiens', '9', 'NYR', 'New York', 'Rangers', '12', 'Madison Square Garden', '9', 'NYR', 'New York', 'Rangers', '1', '0', '0', '0', '0', '0', '1', '2', '31', '19', '62.0', '8', '1', '12.5', '3', '1', '66.7', '0', '0', '5', '3', '24', '6', '26', '18']"
"['', '15082', '2011-11-06', '00:00:00 GMT', '2', 'WPJ', 'Winnipeg', 'Jets', '9', 'NYR', 'New York', 'Rangers', '12', 'Madison Square Garden', '9', 'NYR', 'New York', 'Rangers', '1', '0', '0', '0', '0', '0', '1', '2', '37', '27', '57.8', '5', '1', '20.0', '4', '0', '100.0', '0', '0', '3', '0', '24', '4', '8', '23']"
"['', '15096', '2011-11-09', '00:30:00 GMT', '9', 'NYR', 'New York', 'Rangers', '13', 'OTT', 'Ottawa', 'Senators', '23', 'Scotiabank Place', '9', 'NYR', 'New York', 'Rangers', '1', '0', '0', '0', '0', '0', '1', '2', '22', '32', '40.7', '0', '0', '0.0', '2', '0', '100.0', '0', '0', '3', '2', '16', '4', '14', '29']"
"['', '15108', '2011-11-11', '00:00:00 GMT', '3', 'CAR', 'Carolina', 'Hurricanes', '9', 'NYR', 'New York', 'Rangers', '12', 'Madison Square Garden', '9', 'NYR', 'New York', 'Rangers', '1', '0', '0', '0', '0', '0', '1', '2', '25', '28', '47.2', '3', '1', '33.3', '2', '0', '100.0', '0', '0', '5', '1', '35', '2', '4', '29']"
"['', '15133', '2011-11-15', '00:00:00 GMT', '9', 'NYR', 'New York', 'Rangers', '8', 'NYI', 'New York', 'Islanders', '16', 'Nassau Veterans Memorial Coliseum', '9', 'NYR', 'New York', 'Rangers', '1', '0', '0', '0', '0', '0', '1', '2', '26', '27', '49.1', '5', '0', '0.0', '6', '1', '83.3', '0', '0', '4', '2', '26', '8', '22', '24']"
"['', '15163', '2011-11-19', '00:00:00 GMT', '9', 'NYR', 'New York', 'Rangers', '14', 'MTL', 'Montreal', 'Canadiens', '4', 'Bell Centre', '9', 'NYR', 'New York', 'Rangers', '0', '1', '0', '0', '0', '0', '0', '0', '25', '27', '48.1', '3', '0', '0.0', '6', '2', '66.7', '0', '0', '0', '4', '17', '9', '21', '28']"
"['', '15192', '2011-11-23', '00:30:00 GMT', '9', 'NYR', 'New York', 'Rangers', '4', 'FLO', 'Florida', 'Panthers', '3', 'BankAtlantic Center', '9', 'NYR', 'New York', 'Rangers', '0', '1', '0', '0', '0', '0', '0', '0', '22', '22', '50.0', '4', '0', '0.0', '3', '1', '66.7', '0', '0', '1', '2', '19', '4', '16', '50']"
"['', '15202', '2011-11-25', '21:00:00 GMT', '9', 'NYR', 'New York', 'Rangers', '5', 'WSH', 'Washington', 'Capitals', '13', 'Verizon Center', '9', 'NYR', 'New York', 'Rangers', '1', '0', '0', '0', '0', '0', '1', '2', '37', '28', '56.9', '5', '1', '20.0', '4', '1', '75.0', '0', '0', '6', '3', '27', '4', '8', '28']"
"['', '15212', '2011-11-26', '19:00:00 GMT', '6', 'PHI', 'Philadelphia', 'Flyers', '9', 'NYR', 'New York', 'Rangers', '12', 'Madison Square Garden', '9', 'NYR', 'New York', 'Rangers', '1', '0', '0', '0', '0', '0', '1', '2', '28', '33', '45.9', '2', '1', '50.0', '2', '0', '100.0', '0', '0', '2', '0', '30', '6', '18', '22']"
"['', '15231', '2011-11-29', '00:30:00 GMT', '10', 'PIT', 'Pittsburgh', 'Penguins', '9', 'NYR', 'New York', 'Rangers', '12', 'Madison Square Garden', '9', 'NYR', 'New York', 'Rangers', '1', '0', '0', '0', '0', '0', '1', '2', '40', '17', '70.2', '7', '2', '28.6', '6', '1', '83.3', '0', '0', '4', '3', '26', '8', '19', '43']"
"['', '15244', '2011-12-01', '00:00:00 GMT', '9', 'NYR', 'New York', 'Rangers', '3', 'CAR', 'Carolina', 'Hurricanes', '21', 'RBC Center', '9', 'NYR', 'New York', 'Rangers', '1', '0', '0', '0', '0', '0', '1', '2', '27', '31', '46.6', '4', '1', '25.0', '1', '0', '100.0', '0', '0', '5', '3', '22', '2', '7', '18']"
"['', '15262', '2011-12-03', '00:00:00 GMT', '9', 'NYR', 'New York', 'Rangers', '1', 'TBL', 'Tampa Bay', 'Lightning', '26', 'St. Pete Times Forum', '9', 'NYR', 'New York', 'Rangers', '1', '0', '0', '0', '0', '0', '1', '2', '34', '29', '54.0', '2', '0', '0.0', '1', '0', '100.0', '0', '0', '4', '2', '32', '1', '2', '26']"
"['', '15272', '2011-12-05', '00:00:00 GMT', '12', 'TOR', 'Toronto', 'Maple Leafs', '9', 'NYR', 'New York', 'Rangers', '12', 'Madison Square Garden', '9', 'NYR', 'New York', 'Rangers', '0', '1', '0', '0', '0', '0', '0', '0', '39', '30', '56.5', '4', '1', '25.0', '4', '1', '75.0', '0', '1', '2', '4', '30', '5', '13', '41']"
"['', '15293', '2011-12-08', '00:00:00 GMT', '1', 'TBL', 'Tampa Bay', 'Lightning', '9', 'NYR', 'New York', 'Rangers', '12', 'Madison Square Garden', '9', 'NYR', 'New York', 'Rangers', '0', '0', '0', '1', '0', '0', '0', '1', '22', '28', '44.0', '6', '1', '16.7', '4', '0', '100.0', '1', '1', '2', '2', '28', '11', '30', '25']"
"['', '15307', '2011-12-10', '00:00:00 GMT', '9', 'NYR', 'New York', 'Rangers', '15', 'BUF', 'Buffalo', 'Sabres', '10', 'First Niagara Center', '9', 'NYR', 'New York', 'Rangers', '1', '0', '0', '0', '0', '0', '1', '2', '28', '26', '51.9', '3', '1', '33.3', '3', '0', '100.0', '2', '0', '4', '1', '29', '3', '6', '23']"
"['', '15318', '2011-12-11', '00:00:00 GMT', '4', 'FLO', 'Florida', 'Panthers', '9', 'NYR', 'New York', 'Rangers', '12', 'Madison Square Garden', '9', 'NYR', 'New York', 'Rangers', '1', '0', '0', '0', '0', '0', '1', '2', '18', '26', '40.9', '3', '2', '66.7', '6', '0', '100.0', '0', '0', '6', '1', '27', '8', '19', '30']"
"['', '15324', '2011-12-13', '00:00:00 GMT', '27', 'DAL', 'Dallas', 'Stars', '9', 'NYR', 'New York', 'Rangers', '12', 'Madison Square Garden', '9', 'NYR', 'New York', 'Rangers', '0', '1', '0', '0', '0', '0', '0', '0', '25', '27', '48.1', '4', '0', '0.0', '2', '0', '100.0', '0', '0', '0', '1', '34', '4', '11', '28']"
"['', '15341', '2011-12-15', '01:00:00 GMT', '9', 'NYR', 'New York', 'Rangers', '17', 'STL', 'St. Louis', 'Blues', '24', 'Scottrade Center', '9', 'NYR', 'New York', 'Rangers', '0', '1', '0', '0', '0', '0', '0', '0', '26', '40', '39.4', '0', '0', '0.0', '1', '0', '100.0', '0', '0', '1', '4', '25', '1', '2', '26']"
"['', '15360', '2011-12-17', '01:00:00 GMT', '9', 'NYR', 'New York', 'Rangers', '30', 'PHX', 'Phoenix', 'Coyotes', '6', 'Jobing.com Arena', '9', 'NYR', 'New York', 'Rangers', '1', '0', '0', '0', '0', '0', '1', '2', '19', '40', '32.2', '6', '1', '16.7', '2', '1', '50.0', '0', '1', '3', '2', '27', '3', '6', '29']"
"['', '15372', '2011-12-20', '00:00:00 GMT', '9', 'NYR', 'New York', 'Rangers', '7', 'NJD', 'New Jersey', 'Devils', '5', 'Izod Center', '9', 'NYR', 'New York', 'Rangers', '1', '0', '0', '0', '0', '0', '1', '2', '20', '27', '42.6', '1', '0', '0.0', '3', '0', '100.0', '1', '0', '4', '1', '17', '7', '28', '14']"
"['', '15386', '2011-12-22', '00:00:00 GMT', '8', 'NYI', 'New York', 'Islanders', '9', 'NYR', 'New York', 'Rangers', '12', 'Madison Square Garden', '9', 'NYR', 'New York', 'Rangers', '1', '0', '0', '0', '0', '0', '1', '2', '35', '28', '55.6', '3', '0', '0.0', '3', '2', '33.3', '0', '0', '4', '2', '21', '7', '17', '22']"
"['', '15396', '2011-12-23', '00:00:00 GMT', '6', 'PHI', 'Philadelphia', 'Flyers', '9', 'NYR', 'New York', 'Rangers', '12', 'Madison Square Garden', '9', 'NYR', 'New York', 'Rangers', '1', '0', '0', '0', '0', '0', '1', '2', '29', '23', '55.8', '4', '1', '25.0', '4', '1', '75.0', '0', '0', '4', '2', '20', '6', '18', '35']"
"['', '15406', '2011-12-26', '00:00:00 GMT', '8', 'NYI', 'New York', 'Islanders', '9', 'NYR', 'New York', 'Rangers', '12', 'Madison Square Garden', '9', 'NYR', 'New York', 'Rangers', '1', '0', '0', '0', '0', '0', '1', '2', '25', '25', '50.0', '3', '0', '0.0', '2', '0', '100.0', '0', '0', '3', '0', '28', '6', '15', '31']"
"['', '15422', '2011-12-28', '00:30:00 GMT', '9', 'NYR', 'New York', 'Rangers', '5', 'WSH', 'Washington', 'Capitals', '13', 'Verizon Center', '9', 'NYR', 'New York', 'Rangers', '0', '1', '0', '0', '0', '0', '0', '0', '23', '28', '45.1', '5', '0', '0.0', '2', '0', '100.0', '0', '0', '1', '4', '31', '2', '4', '15']"
"['', '15438', '2011-12-30', '00:30:00 GMT', '9', 'NYR', 'New York', 'Rangers', '4', 'FLO', 'Florida', 'Panthers', '3', 'BankAtlantic Center', '9', 'NYR', 'New York', 'Rangers', '1', '0', '0', '0', '0', '0', '1', '2', '21', '26', '44.7', '1', '0', '0.0', '4', '0', '100.0', '0', '0', '4', '1', '21', '6', '23', '36']"
"['', '15454', '2012-01-02', '18:00:00 GMT', '9', 'NYR', 'New York', 'Rangers', '6', 'PHI', 'Philadelphia', 'Flyers', '29', 'Wells Fargo Center', '9', 'NYR', 'New York', 'Rangers', '1', '0', '0', '0', '0', '0', '1', '2', '29', '37', '43.9', '2', '0', '0.0', '1', '0', '100.0', '0', '0', '3', '2', '30', '4', '16', '50']"
"['', '15471', '2012-01-05', '00:00:00 GMT', '4', 'FLO', 'Florida', 'Panthers', '9', 'NYR', 'New York', 'Rangers', '12', 'Madison Square Garden', '9', 'NYR', 'New York', 'Rangers', '1', '0', '0', '0', '0', '0', '1', '2', '29', '33', '46.8', '3', '1', '33.3', '1', '0', '100.0', '0', '0', '3', '2', '38', '1', '2', '50']"
"['', '15479', '2012-01-06', '00:00:00 GMT', '9', 'NYR', 'New York', 'Rangers', '10', 'PIT', 'Pittsburgh', 'Penguins', '14', 'Civic Arena', '9', 'NYR', 'New York', 'Rangers', '1', '0', '0', '0', '0', '0', '1', '2', '40', '25', '61.5', '1', '0', '0.0', '4', '0', '100.0', '1', '0', '3', '1', '18', '4', '8', '35']"
"['', '15504', '2012-01-10', '00:00:00 GMT', '30', 'PHX', 'Phoenix', 'Coyotes', '9', 'NYR', 'New York', 'Rangers', '12', 'Madison Square Garden', '9', 'NYR', 'New York', 'Rangers', '1', '0', '0', '0', '0', '0', '0', '2', '33', '14', '70.2', '1', '0', '0.0', '0', '0', '0.0', '0', '0', '1', '1', '30', '2', '7', '39']"
"['', '15518', '2012-01-12', '00:00:00 GMT', '13', 'OTT', 'Ottawa', 'Senators', '9', 'NYR', 'New York', 'Rangers', '12', 'Madison Square Garden', '9', 'NYR', 'New York', 'Rangers', '0', '1', '0', '0', '0', '0', '0', '0', '26', '32', '44.8', '4', '0', '0.0', '2', '1', '50.0', '0', '0', '0', '3', '34', '3', '9', '37']"
"['', '15534', '2012-01-14', '00:00:00 GMT', '9', 'NYR', 'New York', 'Rangers', '12', 'TOR', 'Toronto', 'Maple Leafs', '1', 'Air Canada Center', '9', 'NYR', 'New York', 'Rangers', '1', '0', '0', '0', '0', '0', '1', '2', '31', '25', '55.4', '2', '0', '0.0', '2', '0', '100.0', '0', '0', '3', '0', '27', '2', '4', '48']"
"['', '15545', '2012-01-15', '00:00:00 GMT', '9', 'NYR', 'New York', 'Rangers', '14', 'MTL', 'Montreal', 'Canadiens', '4', 'Bell Centre', '9', 'NYR', 'New York', 'Rangers', '0', '1', '0', '0', '0', '0', '0', '0', '25', '30', '45.5', '1', '0', '0.0', '1', '0', '100.0', '0', '0', '1', '4', '28', '2', '7', '26']"
"['', '15561', '2012-01-17', '00:30:00 GMT', '18', 'NSH', 'Nashville', 'Predators', '9', 'NYR', 'New York', 'Rangers', '12', 'Madison Square Garden', '9', 'NYR', 'New York', 'Rangers', '1', '0', '0', '0', '0', '0', '1', '2', '26', '26', '50.0', '2', '0', '0.0', '1', '0', '100.0', '0', '0', '3', '0', '26', '3', '6', '36']"
"['', '15572', '2012-01-19', '00:00:00 GMT', '10', 'PIT', 'Pittsburgh', 'Penguins', '9', 'NYR', 'New York', 'Rangers', '12', 'Madison Square Garden', '9', 'NYR', 'New York', 'Rangers', '0', '1', '0', '0', '0', '0', '0', '0', '39', '24', '61.9', '2', '0', '0.0', '2', '0', '100.0', '0', '0', '1', '4', '30', '5', '21', '38']"
"['', '15584', '2012-01-21', '18:00:00 GMT', '9', 'NYR', 'New York', 'Rangers', '11', 'BOS', 'Boston', 'Bruins', '27', 'TD Garden', '9', 'NYR', 'New York', 'Rangers', '1', '0', '0', '0', '0', '0', '1', '2', '27', '32', '45.8', '3', '1', '33.3', '4', '0', '100.0', '0', '0', '3', '2', '30', '6', '15', '27']"
"['', '15609', '2012-01-24', '00:00:00 GMT', '2', 'WPJ', 'Winnipeg', 'Jets', '9', 'NYR', 'New York', 'Rangers', '12', 'Madison Square Garden', '9', 'NYR', 'New York', 'Rangers', '1', '0', '0', '0', '0', '0', '1', '2', '26', '25', '51.0', '4', '0', '0.0', '2', '0', '100.0', '0', '0', '3', '0', '28', '4', '14', '32']"
"['', '15622', '2012-01-31', '00:00:00 GMT', '9', 'NYR', 'New York', 'Rangers', '7', 'NJD', 'New Jersey', 'Devils', '5', 'Izod Center', '9', 'NYR', 'New York', 'Rangers', '0', '0', '0', '1', '0', '0', '0', '1', '22', '28', '44.0', '3', '0', '0.0', '3', '1', '66.7', '0', '0', '3', '3', '23', '3', '6', '20']"
"['', '15634', '2012-02-01', '00:30:00 GMT', '9', 'NYR', 'New York', 'Rangers', '15', 'BUF', 'Buffalo', 'Sabres', '10', 'First Niagara Center', '9', 'NYR', 'New York', 'Rangers', '1', '0', '0', '0', '0', '0', '0', '2', '24', '38', '38.7', '2', '0', '0.0', '5', '0', '100.0', '0', '0', '0', '0', '29', '6', '12', '28']"
"['', '15666', '2012-02-05', '18:00:00 GMT', '6', 'PHI', 'Philadelphia', 'Flyers', '9', 'NYR', 'New York', 'Rangers', '12', 'Madison Square Garden', '9', 'NYR', 'New York', 'Rangers', '1', '0', '0', '0', '0', '0', '1', '2', '31', '29', '51.7', '4', '0', '0.0', '7', '1', '85.7', '0', '0', '5', '2', '33', '10', '32', '30']"
"['', '15671', '2012-02-07', '00:00:00 GMT', '7', 'NJD', 'New Jersey', 'Devils', '9', 'NYR', 'New York', 'Rangers', '12', 'Madison Square Garden', '9', 'NYR', 'New York', 'Rangers', '0', '1', '0', '0', '0', '0', '0', '0', '26', '17', '60.5', '3', '0', '0.0', '4', '1', '75.0', '0', '0', '0', '1', '30', '6', '18', '52']"
"['', '15688', '2012-02-09', '00:00:00 GMT', '1', 'TBL', 'Tampa Bay', 'Lightning', '9', 'NYR', 'New York', 'Rangers', '12', 'Madison Square Garden', '9', 'NYR', 'New York', 'Rangers', '1', '0', '0', '0', '0', '0', '1', '2', '0', '0', '0.0', '3', '1', '33.3', '2', '1', '50.0', '0', '0', '4', '3', '0', '3', '6', '0']"
"['', '15704', '2012-02-11', '18:00:00 GMT', '9', 'NYR', 'New York', 'Rangers', '6', 'PHI', 'Philadelphia', 'Flyers', '29', 'Wells Fargo Center', '9', 'NYR', 'New York', 'Rangers', '1', '0', '0', '0', '0', '0', '1', '2', '22', '30', '42.3', '7', '3', '42.9', '4', '0', '100.0', '0', '0', '5', '2', '21', '10', '42', '37']"
"['', '15713', '2012-02-12', '23:30:00 GMT', '5', 'WSH', 'Washington', 'Capitals', '9', 'NYR', 'New York', 'Rangers', '12', 'Madison Square Garden', '9', 'NYR', 'New York', 'Rangers', '1', '0', '0', '0', '0', '0', '1', '2', '31', '19', '62.0', '2', '0', '0.0', '2', '0', '100.0', '1', '0', '3', '2', '25', '2', '4', '37']"
"['', '15722', '2012-02-14', '00:00:00 GMT', '9', 'NYR', 'New York', 'Rangers', '11', 'BOS', 'Boston', 'Bruins', '27', 'TD Garden', '9', 'NYR', 'New York', 'Rangers', '1', '0', '0', '0', '0', '0', '1', '2', '38', '32', '54.3', '1', '1', '100.0', '1', '0', '100.0', '0', '0', '3', '0', '17', '3', '6', '31']"
"['', '15736', '2012-02-16', '00:00:00 GMT', '20', 'CHI', 'Chicago', 'Blackhawks', '9', 'NYR', 'New York', 'Rangers', '12', 'Madison Square Garden', '9', 'NYR', 'New York', 'Rangers', '0', '1', '0', '0', '0', '0', '0', '0', '26', '23', '53.1', '6', '0', '0.0', '1', '0', '100.0', '0', '0', '2', '4', '22', '5', '18', '32']"
"['', '15764', '2012-02-19', '00:00:00 GMT', '19', 'CBJ', 'Columbus', 'Blue Jackets', '9', 'NYR', 'New York', 'Rangers', '12', 'Madison Square Garden', '9', 'NYR', 'New York', 'Rangers', '1', '0', '0', '0', '0', '0', '1', '2', '25', '27', '48.1', '2', '0', '0.0', '4', '1', '75.0', '0', '0', '3', '2', '32', '4', '8', '21']"
"['', '15772', '2012-02-21', '00:00:00 GMT', '9', 'NYR', 'New York', 'Rangers', '10', 'PIT', 'Pittsburgh', 'Penguins', '14', 'Civic Arena', '9', 'NYR', 'New York', 'Rangers', '0', '1', '0', '0', '0', '0', '0', '0', '27', '26', '50.9', '2', '0', '0.0', '2', '1', '50.0', '0', '0', '0', '2', '27', '4', '8', '30']"
"['', '15794', '2012-02-24', '00:00:00 GMT', '9', 'NYR', 'New York', 'Rangers', '8', 'NYI', 'New York', 'Islanders', '16', 'Nassau Veterans Memorial Coliseum', '9', 'NYR', 'New York', 'Rangers', '0', '0', '0', '1', '0', '0', '0', '1', '32', '43', '42.7', '4', '2', '50.0', '4', '1', '75.0', '0', '0', '3', '3', '33', '6', '15', '37']"
"['', '15805', '2012-02-25', '00:00:00 GMT', '15', 'BUF', 'Buffalo', 'Sabres', '9', 'NYR', 'New York', 'Rangers', '12', 'Madison Square Garden', '9', 'NYR', 'New York', 'Rangers', '1', '0', '0', '0', '0', '0', '1', '2', '28', '30', '48.3', '2', '0', '0.0', '2', '1', '50.0', '0', '0', '3', '2', '25', '4', '11', '27']"
"['', '15817', '2012-02-27', '00:00:00 GMT', '7', 'NJD', 'New Jersey', 'Devils', '9', 'NYR', 'New York', 'Rangers', '12', 'Madison Square Garden', '9', 'NYR', 'New York', 'Rangers', '1', '0', '0', '0', '0', '0', '1', '2', '26', '22', '54.2', '2', '0', '0.0', '1', '0', '100.0', '0', '0', '2', '0', '13', '5', '16', '37']"
"['', '15838', '2012-03-01', '00:00:00 GMT', '9', 'NYR', 'New York', 'Rangers', '3', 'CAR', 'Carolina', 'Hurricanes', '21', 'RBC Center', '9', 'NYR', 'New York', 'Rangers', '1', '0', '0', '0', '0', '0', '1', '2', '32', '35', '47.8', '3', '0', '0.0', '4', '1', '75.0', '0', '0', '3', '2', '22', '6', '12', '19']"
"['', '15846', '2012-03-02', '00:30:00 GMT', '9', 'NYR', 'New York', 'Rangers', '1', 'TBL', 'Tampa Bay', 'Lightning', '26', 'St. Pete Times Forum', '9', 'NYR', 'New York', 'Rangers', '0', '0', '0', '1', '0', '0', '0', '1', '29', '23', '55.8', '1', '1', '100.0', '4', '0', '100.0', '0', '0', '3', '4', '16', '5', '10', '28']"
"['', '15860', '2012-03-04', '20:00:00 GMT', '11', 'BOS', 'Boston', 'Bruins', '9', 'NYR', 'New York', 'Rangers', '12', 'Madison Square Garden', '9', 'NYR', 'New York', 'Rangers', '1', '0', '0', '0', '0', '0', '1', '2', '32', '31', '50.8', '2', '0', '0.0', '3', '0', '100.0', '0', '0', '4', '3', '13', '6', '21', '33']"
"['', '15870', '2012-03-06', '00:00:00 GMT', '9', 'NYR', 'New York', 'Rangers', '7', 'NJD', 'New Jersey', 'Devils', '5', 'Izod Center', '9', 'NYR', 'New York', 'Rangers', '0', '1', '0', '0', '0', '0', '0', '0', '29', '30', '49.2', '2', '0', '0.0', '4', '0', '100.0', '0', '0', '1', '4', '25', '6', '18', '12']"
"['', '15888', '2012-03-08', '00:30:00 GMT', '9', 'NYR', 'New York', 'Rangers', '13', 'OTT', 'Ottawa', 'Senators', '23', 'Scotiabank Place', '9', 'NYR', 'New York', 'Rangers', '0', '1', '0', '0', '0', '0', '0', '0', '27', '21', '56.2', '3', '0', '0.0', '2', '0', '100.0', '0', '0', '1', '4', '25', '4', '11', '37']"
"['', '15897', '2012-03-09', '01:30:00 GMT', '9', 'NYR', 'New York', 'Rangers', '20', 'CHI', 'Chicago', 'Blackhawks', '28', 'United Center', '9', 'NYR', 'New York', 'Rangers', '0', '1', '0', '0', '0', '0', '0', '0', '24', '25', '49.0', '2', '0', '0.0', '1', '0', '100.0', '0', '0', '3', '4', '22', '2', '7', '40']"
"['', '15915', '2012-03-11', '23:00:00 GMT', '8', 'NYI', 'New York', 'Islanders', '9', 'NYR', 'New York', 'Rangers', '12', 'Madison Square Garden', '9', 'NYR', 'New York', 'Rangers', '1', '0', '0', '0', '0', '0', '1', '2', '30', '26', '53.6', '6', '3', '50.0', '3', '1', '66.7', '0', '0', '4', '3', '32', '6', '15', '24']"
"['', '15923', '2012-03-13', '23:00:00 GMT', '3', 'CAR', 'Carolina', 'Hurricanes', '9', 'NYR', 'New York', 'Rangers', '12', 'Madison Square Garden', '9', 'NYR', 'New York', 'Rangers', '1', '0', '0', '0', '0', '0', '1', '2', '18', '33', '35.3', '2', '0', '0.0', '4', '1', '75.0', '0', '0', '4', '2', '24', '4', '8', '20']"
"['', '15939', '2012-03-15', '23:00:00 GMT', '10', 'PIT', 'Pittsburgh', 'Penguins', '9', 'NYR', 'New York', 'Rangers', '12', 'Madison Square Garden', '9', 'NYR', 'New York', 'Rangers', '0', '1', '0', '0', '0', '0', '0', '0', '34', '31', '52.3', '1', '0', '0.0', '3', '0', '100.0', '0', '0', '2', '5', '29', '4', '8', '34']"
"['', '15955', '2012-03-17', '23:00:00 GMT', '22', 'COL', 'Colorado', 'Avalanche', '9', 'NYR', 'New York', 'Rangers', '12', 'Madison Square Garden', '9', 'NYR', 'New York', 'Rangers', '0', '1', '0', '0', '0', '0', '0', '0', '34', '35', '49.3', '5', '0', '0.0', '2', '1', '50.0', '0', '0', '1', '3', '41', '3', '9', '17']"
"['', '15967', '2012-03-19', '23:00:00 GMT', '7', 'NJD', 'New Jersey', 'Devils', '9', 'NYR', 'New York', 'Rangers', '12', 'Madison Square Garden', '9', 'NYR', 'New York', 'Rangers', '1', '0', '0', '0', '0', '0', '1', '2', '34', '23', '59.6', '3', '1', '33.3', '3', '0', '100.0', '0', '0', '4', '2', '23', '7', '23', '41']"
"['', '15983', '2012-03-21', '23:30:00 GMT', '16', 'DET', 'Detroit', 'Red Wings', '9', 'NYR', 'New York', 'Rangers', '12', 'Madison Square Garden', '9', 'NYR', 'New York', 'Rangers', '1', '0', '0', '0', '0', '0', '1', '2', '17', '37', '31.5', '3', '1', '33.3', '1', '0', '100.0', '0', '0', '2', '1', '32', '1', '2', '16']"
"['', '15995', '2012-03-23', '23:00:00 GMT', '15', 'BUF', 'Buffalo', 'Sabres', '9', 'NYR', 'New York', 'Rangers', '12', 'Madison Square Garden', '9', 'NYR', 'New York', 'Rangers', '0', '1', '0', '0', '0', '0', '0', '0', '21', '23', '47.7', '2', '0', '0.0', '1', '0', '100.0', '0', '0', '1', '4', '26', '1', '2', '27']"
"['', '16003', '2012-03-24', '23:00:00 GMT', '9', 'NYR', 'New York', 'Rangers', '12', 'TOR', 'Toronto', 'Maple Leafs', '1', 'Air Canada Center', '9', 'NYR', 'New York', 'Rangers', '1', '0', '0', '0', '0', '0', '0', '2', '21', '35', '37.5', '2', '0', '0.0', '3', '0', '100.0', '0', '0', '3', '3', '30', '3', '6', '55']"
"['', '16031', '2012-03-27', '00:00:00 GMT', '9', 'NYR', 'New York', 'Rangers', '25', 'MIN', 'Minnesota', 'Wild', '30', 'Xcel Energy Center', '9', 'NYR', 'New York', 'Rangers', '1', '0', '0', '0', '0', '0', '1', '2', '29', '20', '59.2', '4', '0', '0.0', '2', '2', '0.0', '0', '0', '3', '2', '29', '2', '4', '30']"
"['', '16032', '2012-03-28', '23:00:00 GMT', '9', 'NYR', 'New York', 'Rangers', '2', 'WPJ', 'Winnipeg', 'Jets', '39', 'MTS Centre', '9', 'NYR', 'New York', 'Rangers', '1', '0', '0', '0', '0', '0', '1', '2', '36', '23', '61.0', '4', '2', '50.0', '5', '0', '100.0', '1', '0', '4', '2', '24', '6', '15', '26']"
"['', '16045', '2012-03-30', '23:30:00 GMT', '14', 'MTL', 'Montreal', 'Canadiens', '9', 'NYR', 'New York', 'Rangers', '12', 'Madison Square Garden', '9', 'NYR', 'New York', 'Rangers', '1', '0', '0', '0', '0', '0', '1', '2', '29', '28', '50.9', '4', '2', '50.0', '2', '0', '100.0', '0', '0', '4', '1', '25', '3', '6', '23']"
"['', '16066', '2012-04-01', '19:00:00 GMT', '11', 'BOS', 'Boston', 'Bruins', '9', 'NYR', 'New York', 'Rangers', '12', 'Madison Square Garden', '9', 'NYR', 'New York', 'Rangers', '0', '1', '0', '0', '0', '0', '0', '0', '16', '32', '33.3', '3', '0', '0.0', '2', '1', '50.0', '0', '0', '1', '2', '33', '2', '4', '31']"
"['', '16076', '2012-04-03', '23:00:00 GMT', '9', 'NYR', 'New York', 'Rangers', '6', 'PHI', 'Philadelphia', 'Flyers', '29', 'Wells Fargo Center', '9', 'NYR', 'New York', 'Rangers', '1', '0', '0', '0', '0', '0', '1', '2', '29', '27', '51.8', '5', '3', '60.0', '7', '1', '85.7', '0', '0', '5', '3', '19', '11', '28', '31']"
"['', '16088', '2012-04-05', '23:00:00 GMT', '9', 'NYR', 'New York', 'Rangers', '10', 'PIT', 'Pittsburgh', 'Penguins', '14', 'Civic Arena', '9', 'NYR', 'New York', 'Rangers', '0', '1', '0', '0', '0', '0', '0', '0', '25', '28', '47.2', '5', '1', '20.0', '1', '0', '100.0', '0', '1', '2', '5', '35', '2', '4', '19']"
"['', '16102', '2012-04-07', '19:00:00 GMT', '5', 'WSH', 'Washington', 'Capitals', '9', 'NYR', 'New York', 'Rangers', '12', 'Madison Square Garden', '9', 'NYR', 'New York', 'Rangers', '0', '1', '0', '0', '0', '0', '0', '0', '27', '23', '54.0', '3', '0', '0.0', '2', '1', '50.0', '0', '0', '1', '4', '35', '4', '8', '22']"
