"['#Date/Time of Update: 2018-12-10 19:03:26 GMT', '#Game ID', '#Game Date', '#Game Time', '#Away Team ID', '#Away Team Abbr.', '#Away Team City', '#Away Team Name', '#Home Team ID', '#Home Team Abbr.', '#Home Team City', '#Home Team Name', '#Venue ID', '#Venue Name', '#Team ID', '#Team Abbr.', '#Team City', '#Team Name', '#Wins', '#Losses', '#OvertimeWins', '#OvertimeLosses', '#Points', '#FaceoffWins', '#FaceoffLosses', '#FaceoffPercent', '#Powerplays', '#PowerplayGoals', '#PowerplayPercent', '#PenaltyKills', '#PenaltyKillGoalsAllowed', '#PenaltyKillPercent', '#ShorthandedGoalsFor', '#ShorthandedGoalsAgainst', '#GoalsFor', '#GoalsAgainst', '#Shots', '#Penalties', '#PenaltyMinutes', '#Hits']"
"['', '46307', '2018-10-04', '23:30:00 GMT', '20', 'CHI', 'Chicago', 'Blackhawks', '13', 'OTT', 'Ottawa', 'Senators', '23', 'Canadian Tire Centre', '13', 'OTT', 'Ottawa', 'Senators', '0', '0', '0', '1', '1', '40', '36', '52.6', '3', '1', '33.3', '3', '0', '100.0', '0', '0', '3', '4', '25', '3', '6', '22']"
"['', '46317', '2018-10-06', '23:00:00 GMT', '13', 'OTT', 'Ottawa', 'Senators', '12', 'TOR', 'Toronto', 'Maple Leafs', '1', 'Scotiabank Arena', '13', 'OTT', 'Ottawa', 'Senators', '1', '0', '0', '0', '2', '36', '37', '49.3', '2', '0', '0.0', '3', '1', '66.7', '0', '0', '5', '3', '24', '3', '14', '26']"
"['', '46330', '2018-10-08', '17:00:00 GMT', '13', 'OTT', 'Ottawa', 'Senators', '11', 'BOS', 'Boston', 'Bruins', '27', 'TD Garden', '13', 'OTT', 'Ottawa', 'Senators', '0', '1', '0', '0', '0', '36', '27', '57.1', '3', '0', '0.0', '2', '1', '50.0', '0', '0', '3', '6', '31', '3', '6', '17']"
"['', '46340', '2018-10-10', '23:30:00 GMT', '6', 'PHI', 'Philadelphia', 'Flyers', '13', 'OTT', 'Ottawa', 'Senators', '23', 'Canadian Tire Centre', '13', 'OTT', 'Ottawa', 'Senators', '0', '1', '0', '0', '0', '35', '38', '47.9', '6', '3', '50.0', '7', '2', '71.4', '0', '0', '4', '7', '35', '13', '26', '24']"
"['', '46357', '2018-10-13', '18:00:00 GMT', '28', 'LAK', 'Los Angeles', 'Kings', '13', 'OTT', 'Ottawa', 'Senators', '23', 'Canadian Tire Centre', '13', 'OTT', 'Ottawa', 'Senators', '1', '0', '0', '0', '2', '30', '25', '54.5', '1', '1', '100.0', '5', '0', '100.0', '0', '0', '5', '1', '22', '5', '10', '19']"
"['', '46374', '2018-10-15', '23:30:00 GMT', '27', 'DAL', 'Dallas', 'Stars', '13', 'OTT', 'Ottawa', 'Senators', '23', 'Canadian Tire Centre', '13', 'OTT', 'Ottawa', 'Senators', '1', '0', '0', '0', '2', '33', '31', '51.6', '2', '0', '0.0', '4', '1', '75.0', '0', '0', '4', '1', '24', '4', '8', '25']"
"['', '46405', '2018-10-20', '23:00:00 GMT', '14', 'MTL', 'Montreal', 'Canadiens', '13', 'OTT', 'Ottawa', 'Senators', '23', 'Canadian Tire Centre', '13', 'OTT', 'Ottawa', 'Senators', '1', '0', '0', '0', '2', '39', '28', '58.2', '4', '1', '25.0', '3', '1', '66.7', '0', '0', '4', '3', '34', '3', '6', '33']"
"['', '46423', '2018-10-23', '23:30:00 GMT', '11', 'BOS', 'Boston', 'Bruins', '13', 'OTT', 'Ottawa', 'Senators', '23', 'Canadian Tire Centre', '13', 'OTT', 'Ottawa', 'Senators', '0', '1', '0', '0', '0', '29', '35', '45.3', '5', '1', '20.0', '2', '2', '0.0', '0', '0', '1', '4', '39', '3', '9', '21']"
"['', '46445', '2018-10-26', '01:00:00 GMT', '13', 'OTT', 'Ottawa', 'Senators', '22', 'COL', 'Colorado', 'Avalanche', '19', 'Pepsi Center', '13', 'OTT', 'Ottawa', 'Senators', '0', '1', '0', '0', '0', '33', '34', '49.3', '2', '0', '0.0', '3', '2', '33.3', '0', '0', '3', '6', '24', '3', '6', '17']"
"['', '46461', '2018-10-28', '00:00:00 GMT', '13', 'OTT', 'Ottawa', 'Senators', '142', 'VGK', 'Vegas', 'Golden Knights', '139', 'T-Mobile Arena', '13', 'OTT', 'Ottawa', 'Senators', '0', '0', '0', '1', '1', '34', '37', '47.9', '3', '1', '33.3', '5', '1', '80.0', '0', '0', '3', '4', '22', '11', '68', '19']"
"['', '46473', '2018-10-30', '02:00:00 GMT', '13', 'OTT', 'Ottawa', 'Senators', '30', 'ARI', 'Arizona', 'Coyotes', '6', 'Gila River Arena', '13', 'OTT', 'Ottawa', 'Senators', '0', '1', '0', '0', '0', '19', '33', '36.5', '4', '0', '0.0', '2', '1', '50.0', '0', '1', '1', '5', '26', '3', '6', '14']"
"['', '46481', '2018-11-01', '23:30:00 GMT', '15', 'BUF', 'Buffalo', 'Sabres', '13', 'OTT', 'Ottawa', 'Senators', '23', 'Canadian Tire Centre', '13', 'OTT', 'Ottawa', 'Senators', '1', '0', '0', '0', '2', '26', '24', '52.0', '5', '2', '40.0', '4', '1', '75.0', '0', '0', '4', '2', '32', '4', '8', '20']"
"['', '46493', '2018-11-03', '18:00:00 GMT', '13', 'OTT', 'Ottawa', 'Senators', '15', 'BUF', 'Buffalo', 'Sabres', '10', 'KeyBank Center', '13', 'OTT', 'Ottawa', 'Senators', '0', '1', '0', '0', '0', '32', '30', '51.6', '1', '0', '0.0', '3', '1', '66.7', '0', '0', '2', '9', '29', '4', '8', '6']"
"['', '46505', '2018-11-04', '00:00:00 GMT', '1', 'TBL', 'Tampa Bay', 'Lightning', '13', 'OTT', 'Ottawa', 'Senators', '23', 'Canadian Tire Centre', '13', 'OTT', 'Ottawa', 'Senators', '0', '0', '0', '1', '1', '26', '29', '47.3', '3', '2', '66.7', '3', '1', '66.7', '0', '0', '3', '4', '25', '3', '6', '17']"
"['', '46516', '2018-11-06', '00:30:00 GMT', '7', 'NJD', 'New Jersey', 'Devils', '13', 'OTT', 'Ottawa', 'Senators', '23', 'Canadian Tire Centre', '13', 'OTT', 'Ottawa', 'Senators', '1', '0', '0', '0', '2', '38', '35', '52.1', '4', '1', '25.0', '2', '0', '100.0', '0', '0', '7', '3', '42', '2', '4', '14']"
"['', '46529', '2018-11-08', '00:30:00 GMT', '142', 'VGK', 'Vegas', 'Golden Knights', '13', 'OTT', 'Ottawa', 'Senators', '23', 'Canadian Tire Centre', '13', 'OTT', 'Ottawa', 'Senators', '0', '1', '0', '0', '0', '35', '35', '50.0', '2', '0', '0.0', '2', '2', '0.0', '0', '0', '3', '5', '30', '3', '9', '29']"
"['', '46545', '2018-11-10', '00:00:00 GMT', '13', 'OTT', 'Ottawa', 'Senators', '1', 'TBL', 'Tampa Bay', 'Lightning', '26', 'Amalie Arena', '13', 'OTT', 'Ottawa', 'Senators', '1', '0', '0', '0', '2', '38', '31', '55.1', '4', '2', '50.0', '3', '1', '66.7', '0', '0', '6', '4', '34', '3', '6', '18']"
"['', '46552', '2018-11-11', '22:00:00 GMT', '13', 'OTT', 'Ottawa', 'Senators', '4', 'FLO', 'Florida', 'Panthers', '3', 'BB&T Center', '13', 'OTT', 'Ottawa', 'Senators', '0', '1', '0', '0', '0', '29', '41', '41.4', '5', '1', '20.0', '3', '1', '66.7', '0', '0', '1', '5', '35', '3', '6', '12']"
"['', '46579', '2018-11-15', '00:30:00 GMT', '16', 'DET', 'Detroit', 'Red Wings', '13', 'OTT', 'Ottawa', 'Senators', '23', 'Canadian Tire Centre', '13', 'OTT', 'Ottawa', 'Senators', '1', '0', '0', '0', '2', '35', '31', '53.0', '4', '1', '25.0', '5', '0', '100.0', '0', '0', '2', '1', '36', '25', '229', '12']"
"['', '46593', '2018-11-17', '00:00:00 GMT', '10', 'PIT', 'Pittsburgh', 'Penguins', '13', 'OTT', 'Ottawa', 'Senators', '23', 'Canadian Tire Centre', '13', 'OTT', 'Ottawa', 'Senators', '1', '0', '0', '0', '2', '35', '29', '54.7', '3', '0', '0.0', '4', '1', '75.0', '1', '0', '6', '4', '25', '5', '10', '16']"
"['', '46610', '2018-11-19', '00:30:00 GMT', '4', 'FLO', 'Florida', 'Panthers', '13', 'OTT', 'Ottawa', 'Senators', '23', 'Canadian Tire Centre', '13', 'OTT', 'Ottawa', 'Senators', '0', '1', '0', '0', '0', '34', '27', '55.7', '5', '1', '20.0', '2', '1', '50.0', '0', '0', '5', '7', '38', '3', '6', '17']"
"['', '46625', '2018-11-21', '01:00:00 GMT', '13', 'OTT', 'Ottawa', 'Senators', '25', 'MIN', 'Minnesota', 'Wild', '30', 'Xcel Energy Center', '13', 'OTT', 'Ottawa', 'Senators', '0', '1', '0', '0', '0', '36', '27', '57.1', '4', '0', '0.0', '5', '2', '60.0', '1', '0', '4', '6', '27', '4', '8', '9']"
"['', '46642', '2018-11-23', '01:00:00 GMT', '13', 'OTT', 'Ottawa', 'Senators', '27', 'DAL', 'Dallas', 'Stars', '2', 'American Airlines Center', '13', 'OTT', 'Ottawa', 'Senators', '0', '1', '0', '0', '0', '33', '42', '44.0', '2', '1', '50.0', '3', '0', '100.0', '0', '0', '4', '6', '33', '5', '10', '17']"
"['', '46663', '2018-11-26', '00:00:00 GMT', '13', 'OTT', 'Ottawa', 'Senators', '9', 'NYR', 'New York', 'Rangers', '12', 'Madison Square Garden', '13', 'OTT', 'Ottawa', 'Senators', '0', '1', '0', '0', '0', '28', '30', '48.3', '2', '0', '0.0', '4', '0', '100.0', '0', '0', '2', '4', '31', '5', '10', '20']"
"['', '46666', '2018-11-27', '00:00:00 GMT', '13', 'OTT', 'Ottawa', 'Senators', '6', 'PHI', 'Philadelphia', 'Flyers', '29', 'Wells Fargo Center', '13', 'OTT', 'Ottawa', 'Senators', '1', '0', '0', '0', '2', '27', '33', '45.0', '3', '0', '0.0', '0', '0', '0.0', '0', '0', '4', '3', '24', '1', '5', '18']"
"['', '46682', '2018-11-29', '00:30:00 GMT', '9', 'NYR', 'New York', 'Rangers', '13', 'OTT', 'Ottawa', 'Senators', '23', 'Canadian Tire Centre', '13', 'OTT', 'Ottawa', 'Senators', '1', '0', '0', '0', '2', '21', '13', '61.8', '1', '0', '0.0', '0', '0', '0.0', '0', '0', '3', '0', '34', '0', '0', '26']"
"['', '46693', '2018-12-01', '18:00:00 GMT', '26', 'SJS', 'San Jose', 'Sharks', '13', 'OTT', 'Ottawa', 'Senators', '23', 'Canadian Tire Centre', '13', 'OTT', 'Ottawa', 'Senators', '1', '0', '0', '0', '2', '32', '46', '41.0', '2', '1', '50.0', '3', '1', '66.7', '0', '0', '6', '2', '27', '4', '11', '26']"
"['', '46719', '2018-12-04', '00:30:00 GMT', '13', 'OTT', 'Ottawa', 'Senators', '14', 'MTL', 'Montreal', 'Canadiens', '4', 'Bell Centre', '13', 'OTT', 'Ottawa', 'Senators', '0', '1', '0', '0', '0', '28', '24', '53.8', '3', '0', '0.0', '2', '0', '100.0', '0', '0', '2', '5', '30', '5', '13', '20']"
"['', '46731', '2018-12-06', '00:30:00 GMT', '14', 'MTL', 'Montreal', 'Canadiens', '13', 'OTT', 'Ottawa', 'Senators', '23', 'Canadian Tire Centre', '13', 'OTT', 'Ottawa', 'Senators', '0', '1', '0', '0', '0', '30', '23', '56.6', '1', '1', '100.0', '3', '0', '100.0', '0', '0', '2', '5', '21', '3', '6', '36']"
"['', '46745', '2018-12-08', '00:00:00 GMT', '10', 'PIT', 'Pittsburgh', 'Penguins', '13', 'OTT', 'Ottawa', 'Senators', '23', 'Canadian Tire Centre', '13', 'OTT', 'Ottawa', 'Senators', '1', '0', '0', '0', '2', '24', '25', '49.0', '5', '1', '20.0', '2', '0', '100.0', '0', '0', '2', '1', '29', '3', '6', '34']"
"['', '46754', '2018-12-09', '22:00:00 GMT', '11', 'BOS', 'Boston', 'Bruins', '13', 'OTT', 'Ottawa', 'Senators', '23', 'Canadian Tire Centre', '13', 'OTT', 'Ottawa', 'Senators', '0', '0', '0', '1', '1', '33', '25', '56.9', '3', '0', '0.0', '3', '1', '66.7', '0', '0', '1', '2', '28', '5', '21', '26']"
