"['#Date/Time of Update: 2018-12-10 19:03:24 GMT', '#Game ID', '#Game Date', '#Game Time', '#Away Team ID', '#Away Team Abbr.', '#Away Team City', '#Away Team Name', '#Home Team ID', '#Home Team Abbr.', '#Home Team City', '#Home Team Name', '#Venue ID', '#Venue Name', '#Team ID', '#Team Abbr.', '#Team City', '#Team Name', '#Wins', '#Losses', '#OvertimeWins', '#OvertimeLosses', '#Points', '#FaceoffWins', '#FaceoffLosses', '#FaceoffPercent', '#Powerplays', '#PowerplayGoals', '#PowerplayPercent', '#PenaltyKills', '#PenaltyKillGoalsAllowed', '#PenaltyKillPercent', '#ShorthandedGoalsFor', '#ShorthandedGoalsAgainst', '#GoalsFor', '#GoalsAgainst', '#Shots', '#BlockedShots', '#Penalties', '#PenaltyMinutes', '#Hits']"
"['', '40786', '2017-10-06', '23:00:00 GMT', '8', 'NYI', 'New York', 'Islanders', '19', 'CBJ', 'Columbus', 'Blue Jackets', '17', 'Nationwide Arena', '8', 'NYI', 'New York', 'Islanders', '0', '1', '0', '0', '0', '29', '29', '50.0', '1', '0', '0.0', '2', '1', '50.0', '0', '0', '0', '5', '29', '15', '4', '11', '25']"
"['', '40793', '2017-10-07', '23:00:00 GMT', '15', 'BUF', 'Buffalo', 'Sabres', '8', 'NYI', 'New York', 'Islanders', '16', 'Nassau Veterans Memorial Coliseum', '8', 'NYI', 'New York', 'Islanders', '1', '0', '0', '0', '2', '31', '28', '52.5', '3', '0', '0.0', '4', '0', '100.0', '2', '2', '6', '3', '33', '11', '5', '10', '25']"
"['', '40805', '2017-10-09', '17:00:00 GMT', '17', 'STL', 'St. Louis', 'Blues', '8', 'NYI', 'New York', 'Islanders', '16', 'Nassau Veterans Memorial Coliseum', '8', 'NYI', 'New York', 'Islanders', '0', '0', '0', '1', '1', '27', '27', '50.0', '5', '0', '0.0', '5', '1', '80.0', '0', '0', '2', '2', '42', '13', '5', '10', '20']"
"['', '40822', '2017-10-11', '02:00:00 GMT', '8', 'NYI', 'New York', 'Islanders', '29', 'ANA', 'Anaheim', 'Ducks', '8', 'Honda Center', '8', 'NYI', 'New York', 'Islanders', '0', '1', '0', '0', '0', '29', '34', '46.0', '5', '0', '0.0', '4', '0', '100.0', '0', '0', '2', '3', '41', '12', '4', '8', '21']"
"['', '40849', '2017-10-14', '02:30:00 GMT', '8', 'NYI', 'New York', 'Islanders', '26', 'SJS', 'San Jose', 'Sharks', '9', 'SAP Center at San Jose', '8', 'NYI', 'New York', 'Islanders', '1', '0', '0', '0', '2', '18', '34', '34.6', '3', '0', '0.0', '1', '1', '0.0', '0', '0', '3', '1', '23', '24', '2', '4', '27']"
"['', '40852', '2017-10-15', '02:30:00 GMT', '8', 'NYI', 'New York', 'Islanders', '28', 'LAK', 'Los Angeles', 'Kings', '25', 'Staples Center', '8', 'NYI', 'New York', 'Islanders', '0', '1', '0', '0', '0', '14', '31', '31.1', '2', '0', '0.0', '2', '1', '50.0', '0', '1', '2', '3', '25', '14', '2', '4', '34']"
"['', '40871', '2017-10-19', '23:00:00 GMT', '8', 'NYI', 'New York', 'Islanders', '9', 'NYR', 'New York', 'Rangers', '12', 'Madison Square Garden', '8', 'NYI', 'New York', 'Islanders', '1', '0', '0', '0', '2', '33', '28', '54.1', '3', '1', '33.3', '1', '0', '100.0', '0', '0', '3', '3', '38', '9', '1', '2', '20']"
"['', '40888', '2017-10-21', '23:00:00 GMT', '26', 'SJS', 'San Jose', 'Sharks', '8', 'NYI', 'New York', 'Islanders', '16', 'Nassau Veterans Memorial Coliseum', '8', 'NYI', 'New York', 'Islanders', '1', '0', '0', '0', '2', '28', '27', '50.9', '2', '0', '0.0', '4', '1', '75.0', '0', '0', '5', '3', '23', '17', '4', '8', '15']"
"['', '40898', '2017-10-24', '23:00:00 GMT', '30', 'ARI', 'Arizona', 'Coyotes', '8', 'NYI', 'New York', 'Islanders', '16', 'Nassau Veterans Memorial Coliseum', '8', 'NYI', 'New York', 'Islanders', '1', '0', '0', '0', '2', '33', '40', '45.2', '3', '1', '33.3', '3', '1', '66.7', '0', '0', '5', '3', '25', '17', '3', '6', '16']"
"['', '40919', '2017-10-26', '00:00:00 GMT', '8', 'NYI', 'New York', 'Islanders', '25', 'MIN', 'Minnesota', 'Wild', '30', 'Xcel Energy Center', '8', 'NYI', 'New York', 'Islanders', '0', '1', '0', '0', '0', '33', '32', '50.8', '5', '0', '0.0', '3', '0', '100.0', '0', '2', '4', '6', '33', '4', '3', '6', '10']"
"['', '40935', '2017-10-28', '00:00:00 GMT', '8', 'NYI', 'New York', 'Islanders', '18', 'NSH', 'Nashville', 'Predators', '15', 'Bridgestone Arena', '8', 'NYI', 'New York', 'Islanders', '1', '0', '0', '0', '2', '22', '34', '39.3', '5', '3', '60.0', '4', '1', '75.0', '0', '0', '6', '2', '23', '14', '7', '14', '18']"
"['', '40943', '2017-10-30', '23:00:00 GMT', '142', 'VGK', 'Vegas', 'Golden Knights', '8', 'NYI', 'New York', 'Islanders', '16', 'Nassau Veterans Memorial Coliseum', '8', 'NYI', 'New York', 'Islanders', '1', '0', '0', '0', '2', '31', '27', '53.4', '5', '2', '40.0', '5', '2', '60.0', '0', '1', '6', '3', '30', '23', '5', '10', '15']"
"['', '40959', '2017-11-02', '23:00:00 GMT', '8', 'NYI', 'New York', 'Islanders', '5', 'WSH', 'Washington', 'Capitals', '13', 'Capital One Arena', '8', 'NYI', 'New York', 'Islanders', '0', '1', '0', '0', '0', '20', '32', '38.5', '4', '2', '50.0', '4', '0', '100.0', '0', '0', '3', '4', '38', '20', '4', '8', '12']"
"['', '40987', '2017-11-05', '23:00:00 GMT', '22', 'COL', 'Colorado', 'Avalanche', '8', 'NYI', 'New York', 'Islanders', '16', 'Nassau Veterans Memorial Coliseum', '8', 'NYI', 'New York', 'Islanders', '1', '0', '0', '0', '2', '41', '32', '56.2', '2', '2', '100.0', '4', '0', '100.0', '0', '0', '6', '4', '28', '17', '5', '13', '18']"
"['', '41001', '2017-11-07', '00:00:00 GMT', '24', 'EDM', 'Edmonton', 'Oilers', '8', 'NYI', 'New York', 'Islanders', '16', 'Nassau Veterans Memorial Coliseum', '8', 'NYI', 'New York', 'Islanders', '0', '0', '0', '1', '1', '36', '19', '65.5', '3', '0', '0.0', '2', '0', '100.0', '0', '0', '1', '2', '37', '15', '2', '4', '19']"
"['', '41020', '2017-11-10', '01:30:00 GMT', '8', 'NYI', 'New York', 'Islanders', '27', 'DAL', 'Dallas', 'Stars', '2', 'American Airlines Center', '8', 'NYI', 'New York', 'Islanders', '0', '1', '0', '0', '0', '20', '35', '36.4', '4', '0', '0.0', '4', '1', '75.0', '0', '1', '0', '5', '14', '23', '4', '8', '13']"
"['', '41031', '2017-11-11', '01:00:00 GMT', '8', 'NYI', 'New York', 'Islanders', '17', 'STL', 'St. Louis', 'Blues', '24', 'Scottrade Center', '8', 'NYI', 'New York', 'Islanders', '1', '0', '0', '0', '2', '32', '34', '48.5', '1', '0', '0.0', '3', '0', '100.0', '0', '0', '5', '2', '29', '15', '5', '10', '21']"
"['', '41052', '2017-11-16', '00:00:00 GMT', '3', 'CAR', 'Carolina', 'Hurricanes', '8', 'NYI', 'New York', 'Islanders', '16', 'Nassau Veterans Memorial Coliseum', '8', 'NYI', 'New York', 'Islanders', '1', '0', '0', '0', '2', '31', '33', '48.4', '3', '1', '33.3', '3', '1', '66.7', '1', '0', '6', '4', '36', '17', '3', '6', '20']"
"['', '43378', '2017-11-18', '00:00:00 GMT', '8', 'NYI', 'New York', 'Islanders', '1', 'TBL', 'Tampa Bay', 'Lightning', '26', 'Amalie Arena', '8', 'NYI', 'New York', 'Islanders', '1', '0', '0', '0', '2', '23', '31', '42.6', '2', '1', '50.0', '1', '0', '100.0', '0', '0', '5', '3', '32', '17', '1', '2', '23']"
"['', '41078', '2017-11-19', '22:00:00 GMT', '8', 'NYI', 'New York', 'Islanders', '3', 'CAR', 'Carolina', 'Hurricanes', '21', 'PNC Arena', '8', 'NYI', 'New York', 'Islanders', '0', '1', '0', '0', '0', '22', '34', '39.3', '7', '1', '14.3', '5', '2', '60.0', '0', '0', '2', '4', '29', '9', '5', '10', '24']"
"['', '41097', '2017-11-22', '00:00:00 GMT', '6', 'PHI', 'Philadelphia', 'Flyers', '8', 'NYI', 'New York', 'Islanders', '16', 'Nassau Veterans Memorial Coliseum', '8', 'NYI', 'New York', 'Islanders', '1', '0', '0', '0', '2', '35', '32', '52.2', '5', '2', '40.0', '2', '1', '50.0', '0', '0', '4', '3', '39', '10', '2', '4', '10']"
"['', '41109', '2017-11-24', '21:00:00 GMT', '8', 'NYI', 'New York', 'Islanders', '6', 'PHI', 'Philadelphia', 'Flyers', '29', 'Wells Fargo Center', '8', 'NYI', 'New York', 'Islanders', '1', '0', '0', '0', '2', '21', '37', '36.2', '3', '1', '33.3', '1', '0', '100.0', '0', '0', '5', '4', '37', '18', '2', '4', '24']"
"['', '41122', '2017-11-25', '00:00:00 GMT', '8', 'NYI', 'New York', 'Islanders', '13', 'OTT', 'Ottawa', 'Senators', '23', 'Canadian Tire Centre', '8', 'NYI', 'New York', 'Islanders', '1', '0', '0', '0', '2', '26', '28', '48.1', '5', '1', '20.0', '6', '1', '83.3', '0', '0', '2', '1', '24', '13', '6', '12', '12']"
"['', '41144', '2017-11-28', '00:00:00 GMT', '21', 'VAN', 'Vancouver', 'Canucks', '8', 'NYI', 'New York', 'Islanders', '16', 'Nassau Veterans Memorial Coliseum', '8', 'NYI', 'New York', 'Islanders', '1', '0', '0', '0', '2', '34', '27', '55.7', '3', '0', '0.0', '2', '1', '50.0', '1', '1', '5', '2', '36', '16', '2', '4', '22']"
"['', '41164', '2017-12-01', '00:00:00 GMT', '13', 'OTT', 'Ottawa', 'Senators', '8', 'NYI', 'New York', 'Islanders', '16', 'Nassau Veterans Memorial Coliseum', '8', 'NYI', 'New York', 'Islanders', '0', '1', '0', '0', '0', '27', '29', '48.2', '3', '1', '33.3', '3', '2', '33.3', '0', '0', '5', '6', '37', '12', '3', '6', '17']"
"['', '41186', '2017-12-04', '00:30:00 GMT', '8', 'NYI', 'New York', 'Islanders', '4', 'FLO', 'Florida', 'Panthers', '3', 'BB&T Center', '8', 'NYI', 'New York', 'Islanders', '1', '0', '0', '0', '2', '31', '38', '44.9', '1', '0', '0.0', '5', '2', '60.0', '0', '0', '4', '4', '32', '8', '5', '18', '20']"
"['', '41193', '2017-12-05', '00:30:00 GMT', '8', 'NYI', 'New York', 'Islanders', '1', 'TBL', 'Tampa Bay', 'Lightning', '26', 'Amalie Arena', '8', 'NYI', 'New York', 'Islanders', '0', '1', '0', '0', '0', '25', '33', '43.1', '2', '1', '50.0', '4', '2', '50.0', '0', '0', '2', '6', '31', '21', '4', '8', '27']"
"['', '41203', '2017-12-07', '00:00:00 GMT', '8', 'NYI', 'New York', 'Islanders', '10', 'PIT', 'Pittsburgh', 'Penguins', '40', 'PPG Paints Arena', '8', 'NYI', 'New York', 'Islanders', '0', '0', '0', '1', '1', '32', '28', '53.3', '4', '0', '0.0', '2', '2', '0.0', '0', '0', '3', '4', '26', '13', '2', '4', '30']"
"['', '43392', '2017-12-09', '00:00:00 GMT', '8', 'NYI', 'New York', 'Islanders', '11', 'BOS', 'Boston', 'Bruins', '27', 'TD Garden', '8', 'NYI', 'New York', 'Islanders', '0', '1', '0', '0', '0', '27', '38', '41.5', '4', '0', '0.0', '2', '1', '50.0', '0', '0', '1', '3', '31', '10', '5', '13', '28']"
"['', '41234', '2017-12-11', '00:00:00 GMT', '5', 'WSH', 'Washington', 'Capitals', '8', 'NYI', 'New York', 'Islanders', '16', 'Nassau Veterans Memorial Coliseum', '8', 'NYI', 'New York', 'Islanders', '1', '0', '0', '0', '2', '28', '28', '50.0', '3', '0', '0.0', '2', '0', '100.0', '0', '0', '3', '1', '29', '17', '2', '4', '21']"
"['', '41248', '2017-12-13', '00:00:00 GMT', '27', 'DAL', 'Dallas', 'Stars', '8', 'NYI', 'New York', 'Islanders', '16', 'Nassau Veterans Memorial Coliseum', '8', 'NYI', 'New York', 'Islanders', '0', '1', '0', '0', '0', '34', '24', '58.6', '2', '1', '50.0', '1', '0', '100.0', '0', '0', '2', '5', '34', '9', '2', '4', '25']"
"['', '41252', '2017-12-14', '00:00:00 GMT', '8', 'NYI', 'New York', 'Islanders', '19', 'CBJ', 'Columbus', 'Blue Jackets', '17', 'Nationwide Arena', '8', 'NYI', 'New York', 'Islanders', '0', '1', '0', '0', '0', '35', '31', '53.0', '4', '1', '25.0', '2', '1', '50.0', '0', '0', '4', '6', '25', '17', '2', '4', '20']"
"['', '41272', '2017-12-16', '00:00:00 GMT', '28', 'LAK', 'Los Angeles', 'Kings', '8', 'NYI', 'New York', 'Islanders', '16', 'Nassau Veterans Memorial Coliseum', '8', 'NYI', 'New York', 'Islanders', '1', '0', '0', '0', '2', '40', '23', '63.5', '5', '1', '20.0', '3', '1', '66.7', '0', '0', '4', '3', '33', '12', '4', '11', '24']"
"['', '41292', '2017-12-19', '00:00:00 GMT', '16', 'DET', 'Detroit', 'Red Wings', '8', 'NYI', 'New York', 'Islanders', '16', 'Nassau Veterans Memorial Coliseum', '8', 'NYI', 'New York', 'Islanders', '0', '1', '0', '0', '0', '31', '33', '48.4', '3', '2', '66.7', '1', '1', '0.0', '0', '0', '3', '6', '37', '18', '1', '2', '26']"
"['', '41302', '2017-12-21', '00:00:00 GMT', '29', 'ANA', 'Anaheim', 'Ducks', '8', 'NYI', 'New York', 'Islanders', '16', 'Nassau Veterans Memorial Coliseum', '8', 'NYI', 'New York', 'Islanders', '0', '0', '0', '1', '1', '35', '41', '46.1', '3', '2', '66.7', '2', '0', '100.0', '0', '0', '4', '5', '26', '17', '3', '6', '38']"
"['', '41316', '2017-12-23', '18:00:00 GMT', '2', 'WPJ', 'Winnipeg', 'Jets', '8', 'NYI', 'New York', 'Islanders', '16', 'Nassau Veterans Memorial Coliseum', '8', 'NYI', 'New York', 'Islanders', '1', '0', '0', '0', '2', '33', '26', '55.9', '3', '1', '33.3', '3', '0', '100.0', '0', '0', '5', '2', '29', '16', '3', '6', '30']"
"['', '43403', '2017-12-27', '00:00:00 GMT', '15', 'BUF', 'Buffalo', 'Sabres', '8', 'NYI', 'New York', 'Islanders', '16', 'Nassau Veterans Memorial Coliseum', '8', 'NYI', 'New York', 'Islanders', '1', '0', '0', '0', '2', '24', '33', '42.1', '2', '0', '0.0', '4', '0', '100.0', '0', '0', '3', '2', '34', '15', '4', '8', '20']"
"['', '41355', '2017-12-29', '01:00:00 GMT', '8', 'NYI', 'New York', 'Islanders', '2', 'WPJ', 'Winnipeg', 'Jets', '39', 'Bell MTS Place', '8', 'NYI', 'New York', 'Islanders', '0', '1', '0', '0', '0', '33', '35', '48.5', '4', '0', '0.0', '5', '1', '80.0', '0', '0', '2', '4', '44', '23', '5', '10', '18']"
"['', '43415', '2017-12-31', '01:00:00 GMT', '8', 'NYI', 'New York', 'Islanders', '22', 'COL', 'Colorado', 'Avalanche', '19', 'Pepsi Center', '8', 'NYI', 'New York', 'Islanders', '0', '1', '0', '0', '0', '36', '33', '52.2', '3', '0', '0.0', '4', '2', '50.0', '0', '0', '1', '6', '28', '19', '4', '8', '16']"
"['', '41376', '2018-01-02', '00:00:00 GMT', '11', 'BOS', 'Boston', 'Bruins', '8', 'NYI', 'New York', 'Islanders', '16', 'Nassau Veterans Memorial Coliseum', '8', 'NYI', 'New York', 'Islanders', '0', '1', '0', '0', '0', '20', '30', '40.0', '4', '0', '0.0', '3', '0', '100.0', '0', '0', '1', '5', '26', '18', '4', '8', '25']"
"['', '41391', '2018-01-04', '00:00:00 GMT', '8', 'NYI', 'New York', 'Islanders', '6', 'PHI', 'Philadelphia', 'Flyers', '29', 'Wells Fargo Center', '8', 'NYI', 'New York', 'Islanders', '0', '1', '0', '0', '0', '31', '31', '50.0', '1', '1', '100.0', '6', '3', '50.0', '0', '0', '4', '6', '31', '17', '9', '37', '23']"
"['', '41401', '2018-01-05', '00:00:00 GMT', '10', 'PIT', 'Pittsburgh', 'Penguins', '8', 'NYI', 'New York', 'Islanders', '16', 'Nassau Veterans Memorial Coliseum', '8', 'NYI', 'New York', 'Islanders', '0', '1', '0', '0', '0', '38', '30', '55.9', '4', '0', '0.0', '3', '1', '66.7', '0', '0', '0', '4', '31', '9', '3', '6', '20']"
"['', '41416', '2018-01-07', '18:00:00 GMT', '7', 'NJD', 'New Jersey', 'Devils', '8', 'NYI', 'New York', 'Islanders', '16', 'Nassau Veterans Memorial Coliseum', '8', 'NYI', 'New York', 'Islanders', '1', '0', '0', '0', '2', '37', '31', '54.4', '3', '1', '33.3', '5', '0', '100.0', '0', '1', '4', '4', '38', '14', '5', '10', '25']"
"['', '41444', '2018-01-13', '18:00:00 GMT', '8', 'NYI', 'New York', 'Islanders', '9', 'NYR', 'New York', 'Rangers', '12', 'Madison Square Garden', '8', 'NYI', 'New York', 'Islanders', '1', '0', '0', '0', '2', '30', '34', '46.9', '2', '0', '0.0', '3', '1', '66.7', '0', '0', '7', '2', '37', '21', '3', '6', '25']"
"['', '41459', '2018-01-15', '00:30:00 GMT', '8', 'NYI', 'New York', 'Islanders', '14', 'MTL', 'Montreal', 'Canadiens', '4', 'Bell Centre', '8', 'NYI', 'New York', 'Islanders', '1', '0', '0', '0', '2', '33', '39', '45.8', '2', '0', '0.0', '4', '1', '75.0', '1', '0', '5', '4', '24', '16', '4', '8', '23']"
"['', '41462', '2018-01-16', '00:00:00 GMT', '7', 'NJD', 'New Jersey', 'Devils', '8', 'NYI', 'New York', 'Islanders', '16', 'Nassau Veterans Memorial Coliseum', '8', 'NYI', 'New York', 'Islanders', '0', '1', '0', '0', '0', '27', '28', '49.1', '2', '0', '0.0', '3', '1', '66.7', '0', '0', '1', '4', '26', '10', '4', '11', '19']"
"['', '41468', '2018-01-18', '00:00:00 GMT', '11', 'BOS', 'Boston', 'Bruins', '8', 'NYI', 'New York', 'Islanders', '16', 'Nassau Veterans Memorial Coliseum', '8', 'NYI', 'New York', 'Islanders', '0', '1', '0', '0', '0', '29', '28', '50.9', '2', '0', '0.0', '1', '1', '0.0', '0', '0', '2', '5', '24', '11', '1', '2', '19']"
"['', '41491', '2018-01-20', '01:30:00 GMT', '8', 'NYI', 'New York', 'Islanders', '20', 'CHI', 'Chicago', 'Blackhawks', '28', 'United Center', '8', 'NYI', 'New York', 'Islanders', '1', '0', '0', '0', '2', '32', '42', '43.2', '4', '2', '50.0', '1', '0', '100.0', '0', '0', '7', '3', '46', '23', '3', '17', '29']"
"['', '41503', '2018-01-22', '02:00:00 GMT', '8', 'NYI', 'New York', 'Islanders', '30', 'ARI', 'Arizona', 'Coyotes', '6', 'Gila River Arena', '8', 'NYI', 'New York', 'Islanders', '0', '0', '0', '1', '1', '23', '26', '46.9', '2', '0', '0.0', '2', '0', '100.0', '0', '0', '2', '3', '34', '15', '2', '4', '23']"
"['', '41531', '2018-01-25', '03:00:00 GMT', '8', 'NYI', 'New York', 'Islanders', '142', 'VGK', 'Vegas', 'Golden Knights', '139', 'T-Mobile Arena', '8', 'NYI', 'New York', 'Islanders', '1', '0', '0', '0', '2', '30', '31', '49.2', '1', '0', '0.0', '2', '1', '50.0', '0', '0', '2', '1', '25', '20', '2', '4', '17']"
"['', '41538', '2018-01-30', '00:00:00 GMT', '4', 'FLO', 'Florida', 'Panthers', '8', 'NYI', 'New York', 'Islanders', '16', 'Nassau Veterans Memorial Coliseum', '8', 'NYI', 'New York', 'Islanders', '0', '1', '0', '0', '0', '21', '28', '42.9', '1', '0', '0.0', '0', '0', '0.0', '0', '0', '1', '4', '33', '11', '0', '0', '19']"
"['', '41546', '2018-01-31', '00:30:00 GMT', '8', 'NYI', 'New York', 'Islanders', '12', 'TOR', 'Toronto', 'Maple Leafs', '1', 'Air Canada Center', '8', 'NYI', 'New York', 'Islanders', '0', '1', '0', '0', '0', '28', '39', '41.8', '1', '0', '0.0', '2', '0', '100.0', '0', '0', '0', '5', '28', '16', '2', '4', '39']"
"['', '41567', '2018-02-03', '00:00:00 GMT', '19', 'CBJ', 'Columbus', 'Blue Jackets', '8', 'NYI', 'New York', 'Islanders', '16', 'Nassau Veterans Memorial Coliseum', '8', 'NYI', 'New York', 'Islanders', '1', '0', '0', '0', '2', '37', '37', '50.0', '2', '1', '50.0', '3', '1', '66.7', '0', '0', '4', '3', '38', '17', '4', '8', '24']"
"['', '41582', '2018-02-05', '00:00:00 GMT', '18', 'NSH', 'Nashville', 'Predators', '8', 'NYI', 'New York', 'Islanders', '16', 'Nassau Veterans Memorial Coliseum', '8', 'NYI', 'New York', 'Islanders', '0', '0', '0', '1', '1', '31', '31', '50.0', '4', '1', '25.0', '3', '0', '100.0', '0', '0', '4', '5', '28', '13', '4', '8', '13']"
"['', '41600', '2018-02-08', '00:00:00 GMT', '8', 'NYI', 'New York', 'Islanders', '15', 'BUF', 'Buffalo', 'Sabres', '10', 'KeyBank Center', '8', 'NYI', 'New York', 'Islanders', '0', '1', '0', '0', '0', '16', '24', '40.0', '3', '1', '33.3', '2', '1', '50.0', '0', '0', '3', '4', '29', '9', '2', '4', '25']"
"['', '41609', '2018-02-09', '00:00:00 GMT', '16', 'DET', 'Detroit', 'Red Wings', '8', 'NYI', 'New York', 'Islanders', '16', 'Nassau Veterans Memorial Coliseum', '8', 'NYI', 'New York', 'Islanders', '1', '0', '0', '0', '2', '27', '33', '45.0', '3', '4', '1.0', '2', '1', '50.0', '0', '0', '7', '6', '29', '15', '3', '9', '26']"
"['', '41630', '2018-02-11', '00:00:00 GMT', '23', 'CGY', 'Calgary', 'Flames', '8', 'NYI', 'New York', 'Islanders', '16', 'Nassau Veterans Memorial Coliseum', '8', 'NYI', 'New York', 'Islanders', '0', '1', '0', '0', '0', '37', '22', '62.7', '5', '0', '0.0', '4', '1', '75.0', '0', '0', '2', '3', '25', '19', '5', '13', '19']"
"['', '41641', '2018-02-13', '00:00:00 GMT', '19', 'CBJ', 'Columbus', 'Blue Jackets', '8', 'NYI', 'New York', 'Islanders', '16', 'Nassau Veterans Memorial Coliseum', '8', 'NYI', 'New York', 'Islanders', '0', '1', '0', '0', '0', '42', '25', '62.7', '3', '1', '33.3', '4', '2', '50.0', '0', '0', '1', '4', '30', '19', '5', '10', '18']"
"['', '41653', '2018-02-15', '00:00:00 GMT', '9', 'NYR', 'New York', 'Rangers', '8', 'NYI', 'New York', 'Islanders', '16', 'Nassau Veterans Memorial Coliseum', '8', 'NYI', 'New York', 'Islanders', '1', '0', '0', '0', '2', '26', '32', '44.8', '2', '1', '50.0', '3', '0', '100.0', '0', '0', '3', '0', '35', '16', '3', '6', '19']"
"['', '41664', '2018-02-16', '00:30:00 GMT', '8', 'NYI', 'New York', 'Islanders', '3', 'CAR', 'Carolina', 'Hurricanes', '21', 'PNC Arena', '8', 'NYI', 'New York', 'Islanders', '1', '0', '0', '0', '2', '21', '37', '36.2', '0', '0', '0.0', '2', '0', '100.0', '0', '0', '3', '0', '23', '27', '3', '6', '37']"
"['', '41685', '2018-02-19', '18:00:00 GMT', '25', 'MIN', 'Minnesota', 'Wild', '8', 'NYI', 'New York', 'Islanders', '16', 'Nassau Veterans Memorial Coliseum', '8', 'NYI', 'New York', 'Islanders', '0', '1', '0', '0', '0', '34', '29', '54.0', '4', '0', '0.0', '1', '0', '100.0', '0', '0', '3', '5', '35', '13', '1', '2', '25']"
"['', '41704', '2018-02-22', '00:00:00 GMT', '8', 'NYI', 'New York', 'Islanders', '12', 'TOR', 'Toronto', 'Maple Leafs', '1', 'Air Canada Center', '8', 'NYI', 'New York', 'Islanders', '0', '0', '0', '1', '1', '29', '34', '46.0', '2', '0', '0.0', '3', '0', '100.0', '0', '0', '3', '3', '35', '19', '3', '6', '30']"
"['', '41723', '2018-02-24', '23:15:00 GMT', '8', 'NYI', 'New York', 'Islanders', '7', 'NJD', 'New Jersey', 'Devils', '37', 'Prudential Center', '8', 'NYI', 'New York', 'Islanders', '0', '1', '0', '0', '0', '29', '26', '52.7', '2', '0', '0.0', '1', '0', '100.0', '0', '0', '1', '2', '31', '15', '1', '2', '34']"
"['', '41750', '2018-02-28', '00:00:00 GMT', '8', 'NYI', 'New York', 'Islanders', '14', 'MTL', 'Montreal', 'Canadiens', '4', 'Bell Centre', '8', 'NYI', 'New York', 'Islanders', '0', '1', '0', '0', '0', '17', '23', '42.5', '2', '0', '0.0', '2', '1', '50.0', '0', '0', '1', '3', '28', '16', '2', '4', '39']"
"['', '41763', '2018-03-02', '00:00:00 GMT', '14', 'MTL', 'Montreal', 'Canadiens', '8', 'NYI', 'New York', 'Islanders', '16', 'Nassau Veterans Memorial Coliseum', '8', 'NYI', 'New York', 'Islanders', '0', '1', '0', '0', '0', '24', '29', '45.3', '4', '1', '25.0', '3', '0', '100.0', '0', '0', '3', '6', '35', '5', '3', '6', '34']"
"['', '41776', '2018-03-03', '22:00:00 GMT', '8', 'NYI', 'New York', 'Islanders', '10', 'PIT', 'Pittsburgh', 'Penguins', '40', 'PPG Paints Arena', '8', 'NYI', 'New York', 'Islanders', '0', '0', '0', '1', '1', '31', '24', '56.4', '2', '0', '0.0', '2', '1', '50.0', '0', '0', '2', '3', '27', '17', '2', '4', '34']"
"['', '41791', '2018-03-05', '03:00:00 GMT', '8', 'NYI', 'New York', 'Islanders', '21', 'VAN', 'Vancouver', 'Canucks', '7', 'Rogers Arena', '8', 'NYI', 'New York', 'Islanders', '0', '0', '0', '1', '1', '24', '31', '43.6', '4', '1', '25.0', '1', '0', '100.0', '0', '0', '3', '4', '34', '16', '1', '2', '13']"
"['', '41813', '2018-03-08', '02:00:00 GMT', '8', 'NYI', 'New York', 'Islanders', '24', 'EDM', 'Edmonton', 'Oilers', '22', 'Rogers Place', '8', 'NYI', 'New York', 'Islanders', '0', '0', '0', '1', '1', '41', '26', '61.2', '1', '0', '0.0', '2', '0', '100.0', '0', '0', '1', '1', '31', '21', '3', '9', '34']"
"['', '41832', '2018-03-11', '23:00:00 GMT', '8', 'NYI', 'New York', 'Islanders', '23', 'CGY', 'Calgary', 'Flames', '18', 'Scotiabank Saddledome', '8', 'NYI', 'New York', 'Islanders', '1', '0', '0', '0', '2', '30', '42', '41.7', '1', '0', '0.0', '4', '0', '100.0', '0', '0', '5', '2', '27', '20', '5', '13', '17']"
"['', '41855', '2018-03-15', '23:00:00 GMT', '5', 'WSH', 'Washington', 'Capitals', '8', 'NYI', 'New York', 'Islanders', '16', 'Nassau Veterans Memorial Coliseum', '8', 'NYI', 'New York', 'Islanders', '0', '1', '0', '0', '0', '32', '30', '51.6', '3', '0', '0.0', '1', '1', '0.0', '0', '0', '3', '7', '38', '9', '1', '2', '16']"
"['', '41864', '2018-03-16', '23:00:00 GMT', '8', 'NYI', 'New York', 'Islanders', '5', 'WSH', 'Washington', 'Capitals', '13', 'Capital One Arena', '8', 'NYI', 'New York', 'Islanders', '0', '1', '0', '0', '0', '30', '36', '45.5', '4', '3', '75.0', '9', '3', '66.7', '0', '0', '3', '6', '25', '12', '11', '41', '16']"
"['', '41883', '2018-03-18', '21:00:00 GMT', '3', 'CAR', 'Carolina', 'Hurricanes', '8', 'NYI', 'New York', 'Islanders', '16', 'Nassau Veterans Memorial Coliseum', '8', 'NYI', 'New York', 'Islanders', '0', '1', '0', '0', '0', '28', '32', '46.7', '3', '2', '66.7', '4', '0', '100.0', '0', '0', '3', '4', '29', '13', '5', '10', '22']"
"['', '41894', '2018-03-20', '23:00:00 GMT', '10', 'PIT', 'Pittsburgh', 'Penguins', '8', 'NYI', 'New York', 'Islanders', '16', 'Nassau Veterans Memorial Coliseum', '8', 'NYI', 'New York', 'Islanders', '1', '0', '0', '0', '2', '30', '33', '47.6', '5', '1', '20.0', '1', '0', '100.0', '0', '0', '4', '1', '40', '13', '2', '4', '25']"
"['', '41910', '2018-03-22', '23:00:00 GMT', '1', 'TBL', 'Tampa Bay', 'Lightning', '8', 'NYI', 'New York', 'Islanders', '16', 'Nassau Veterans Memorial Coliseum', '8', 'NYI', 'New York', 'Islanders', '0', '1', '0', '0', '0', '40', '27', '59.7', '5', '3', '60.0', '4', '2', '50.0', '0', '1', '6', '7', '41', '13', '4', '8', '19']"
"['', '41928', '2018-03-24', '23:00:00 GMT', '20', 'CHI', 'Chicago', 'Blackhawks', '8', 'NYI', 'New York', 'Islanders', '16', 'Nassau Veterans Memorial Coliseum', '8', 'NYI', 'New York', 'Islanders', '0', '1', '0', '0', '0', '23', '20', '53.5', '2', '0', '0.0', '2', '1', '50.0', '0', '0', '1', '3', '32', '19', '2', '4', '13']"
"['', '41943', '2018-03-26', '23:00:00 GMT', '4', 'FLO', 'Florida', 'Panthers', '8', 'NYI', 'New York', 'Islanders', '16', 'Nassau Veterans Memorial Coliseum', '8', 'NYI', 'New York', 'Islanders', '0', '1', '0', '0', '0', '30', '31', '49.2', '4', '0', '0.0', '6', '1', '83.3', '0', '0', '0', '3', '32', '17', '5', '12', '14']"
"['', '41950', '2018-03-27', '23:30:00 GMT', '8', 'NYI', 'New York', 'Islanders', '13', 'OTT', 'Ottawa', 'Senators', '23', 'Canadian Tire Centre', '8', 'NYI', 'New York', 'Islanders', '1', '0', '0', '0', '2', '31', '26', '54.4', '2', '1', '50.0', '4', '1', '75.0', '0', '0', '4', '3', '31', '23', '5', '13', '36']"
"['', '41972', '2018-03-30', '23:00:00 GMT', '12', 'TOR', 'Toronto', 'Maple Leafs', '8', 'NYI', 'New York', 'Islanders', '16', 'Nassau Veterans Memorial Coliseum', '8', 'NYI', 'New York', 'Islanders', '0', '1', '0', '0', '0', '25', '30', '45.5', '3', '2', '66.7', '2', '1', '50.0', '0', '0', '4', '5', '33', '21', '3', '6', '14']"
"['', '41984', '2018-03-31', '23:00:00 GMT', '8', 'NYI', 'New York', 'Islanders', '7', 'NJD', 'New Jersey', 'Devils', '37', 'Prudential Center', '8', 'NYI', 'New York', 'Islanders', '0', '1', '0', '0', '0', '40', '30', '57.1', '2', '1', '50.0', '2', '1', '50.0', '0', '1', '3', '4', '30', '6', '2', '4', '13']"
"['', '42001', '2018-04-03', '23:00:00 GMT', '6', 'PHI', 'Philadelphia', 'Flyers', '8', 'NYI', 'New York', 'Islanders', '16', 'Nassau Veterans Memorial Coliseum', '8', 'NYI', 'New York', 'Islanders', '1', '0', '0', '0', '2', '28', '29', '49.1', '3', '1', '33.3', '2', '2', '0.0', '0', '0', '5', '4', '37', '13', '4', '8', '18']"
"['', '42014', '2018-04-05', '23:00:00 GMT', '9', 'NYR', 'New York', 'Rangers', '8', 'NYI', 'New York', 'Islanders', '16', 'Nassau Veterans Memorial Coliseum', '8', 'NYI', 'New York', 'Islanders', '1', '0', '0', '0', '2', '23', '23', '50.0', '2', '0', '0.0', '4', '1', '75.0', '0', '0', '2', '1', '22', '17', '3', '8', '26']"
"['', '42032', '2018-04-07', '23:00:00 GMT', '8', 'NYI', 'New York', 'Islanders', '16', 'DET', 'Detroit', 'Red Wings', '145', 'Little Caesars Arena', '8', 'NYI', 'New York', 'Islanders', '1', '0', '0', '0', '2', '29', '28', '50.9', '2', '1', '50.0', '1', '1', '0.0', '0', '0', '4', '3', '40', '19', '1', '2', '13']"
