"['#Date/Time of Update: 2018-12-10 19:03:24 GMT', '#Game ID', '#Game Date', '#Game Time', '#Away Team ID', '#Away Team Abbr.', '#Away Team City', '#Away Team Name', '#Home Team ID', '#Home Team Abbr.', '#Home Team City', '#Home Team Name', '#Venue ID', '#Venue Name', '#Team ID', '#Team Abbr.', '#Team City', '#Team Name', '#Wins', '#Losses', '#OvertimeWins', '#OvertimeLosses', '#Points', '#FaceoffWins', '#FaceoffLosses', '#FaceoffPercent', '#Powerplays', '#PowerplayGoals', '#PowerplayPercent', '#PenaltyKills', '#PenaltyKillGoalsAllowed', '#PenaltyKillPercent', '#ShorthandedGoalsFor', '#ShorthandedGoalsAgainst', '#GoalsFor', '#GoalsAgainst', '#Shots', '#BlockedShots', '#Penalties', '#PenaltyMinutes', '#Hits']"
"['', '40781', '2017-10-05', '23:30:00 GMT', '25', 'MIN', 'Minnesota', 'Wild', '16', 'DET', 'Detroit', 'Red Wings', '145', 'Little Caesars Arena', '16', 'DET', 'Detroit', 'Red Wings', '1', '0', '0', '0', '2', '26', '31', '45.6', '5', '2', '40.0', '4', '0', '100.0', '0', '0', '4', '2', '31', '11', '4', '8', '13']"
"['', '40791', '2017-10-07', '23:00:00 GMT', '16', 'DET', 'Detroit', 'Red Wings', '13', 'OTT', 'Ottawa', 'Senators', '23', 'Canadian Tire Centre', '16', 'DET', 'Detroit', 'Red Wings', '1', '0', '0', '0', '2', '29', '36', '44.6', '4', '0', '0.0', '7', '0', '100.0', '0', '0', '1', '1', '30', '13', '7', '14', '25']"
"['', '40816', '2017-10-10', '00:30:00 GMT', '16', 'DET', 'Detroit', 'Red Wings', '27', 'DAL', 'Dallas', 'Stars', '2', 'American Airlines Center', '16', 'DET', 'Detroit', 'Red Wings', '0', '1', '0', '0', '0', '34', '47', '42.0', '6', '1', '16.7', '3', '1', '66.7', '0', '0', '2', '4', '25', '18', '4', '8', '19']"
"['', '40828', '2017-10-12', '02:00:00 GMT', '16', 'DET', 'Detroit', 'Red Wings', '30', 'ARI', 'Arizona', 'Coyotes', '6', 'Gila River Arena', '16', 'DET', 'Detroit', 'Red Wings', '1', '0', '0', '0', '2', '32', '43', '42.7', '3', '1', '33.3', '6', '1', '83.3', '1', '0', '4', '2', '33', '17', '7', '17', '26']"
"['', '40835', '2017-10-13', '02:30:00 GMT', '16', 'DET', 'Detroit', 'Red Wings', '142', 'VGK', 'Vegas', 'Golden Knights', '139', 'T-Mobile Arena', '16', 'DET', 'Detroit', 'Red Wings', '1', '0', '0', '0', '2', '31', '22', '58.5', '1', '0', '0.0', '3', '0', '100.0', '0', '0', '6', '3', '27', '10', '5', '13', '17']"
"['', '40853', '2017-10-16', '23:30:00 GMT', '1', 'TBL', 'Tampa Bay', 'Lightning', '16', 'DET', 'Detroit', 'Red Wings', '145', 'Little Caesars Arena', '16', 'DET', 'Detroit', 'Red Wings', '0', '1', '0', '0', '0', '34', '26', '56.7', '6', '0', '0.0', '5', '1', '80.0', '0', '1', '2', '3', '31', '6', '5', '10', '15']"
"['', '40865', '2017-10-18', '23:30:00 GMT', '16', 'DET', 'Detroit', 'Red Wings', '12', 'TOR', 'Toronto', 'Maple Leafs', '1', 'Air Canada Center', '16', 'DET', 'Detroit', 'Red Wings', '0', '1', '0', '0', '0', '24', '36', '40.0', '3', '0', '0.0', '2', '1', '50.0', '0', '0', '3', '6', '33', '4', '3', '6', '30']"
"['', '40880', '2017-10-20', '23:30:00 GMT', '5', 'WSH', 'Washington', 'Capitals', '16', 'DET', 'Detroit', 'Red Wings', '145', 'Little Caesars Arena', '16', 'DET', 'Detroit', 'Red Wings', '0', '0', '0', '1', '1', '27', '33', '45.0', '5', '1', '20.0', '5', '2', '60.0', '1', '1', '3', '4', '37', '17', '5', '10', '21']"
"['', '43364', '2017-10-22', '23:00:00 GMT', '21', 'VAN', 'Vancouver', 'Canucks', '16', 'DET', 'Detroit', 'Red Wings', '145', 'Little Caesars Arena', '16', 'DET', 'Detroit', 'Red Wings', '0', '1', '0', '0', '0', '28', '28', '50.0', '1', '0', '0.0', '2', '0', '100.0', '0', '0', '1', '4', '21', '10', '2', '4', '18']"
"['', '40901', '2017-10-24', '23:30:00 GMT', '16', 'DET', 'Detroit', 'Red Wings', '15', 'BUF', 'Buffalo', 'Sabres', '10', 'KeyBank Center', '16', 'DET', 'Detroit', 'Red Wings', '0', '1', '0', '0', '0', '30', '36', '45.5', '2', '0', '0.0', '4', '0', '100.0', '0', '0', '0', '1', '32', '6', '5', '10', '19']"
"['', '40916', '2017-10-26', '23:30:00 GMT', '16', 'DET', 'Detroit', 'Red Wings', '1', 'TBL', 'Tampa Bay', 'Lightning', '26', 'Amalie Arena', '16', 'DET', 'Detroit', 'Red Wings', '0', '1', '0', '0', '0', '25', '24', '51.0', '5', '1', '20.0', '6', '2', '66.7', '1', '0', '2', '3', '31', '14', '7', '14', '22']"
"['', '40932', '2017-10-28', '23:00:00 GMT', '16', 'DET', 'Detroit', 'Red Wings', '4', 'FLO', 'Florida', 'Panthers', '3', 'BB&T Center', '16', 'DET', 'Detroit', 'Red Wings', '1', '0', '0', '0', '2', '37', '45', '45.1', '2', '0', '0.0', '6', '1', '83.3', '0', '0', '2', '2', '38', '13', '7', '17', '18']"
"['', '40952', '2017-10-31', '23:30:00 GMT', '30', 'ARI', 'Arizona', 'Coyotes', '16', 'DET', 'Detroit', 'Red Wings', '145', 'Little Caesars Arena', '16', 'DET', 'Detroit', 'Red Wings', '1', '0', '0', '0', '2', '35', '31', '53.0', '1', '0', '0.0', '2', '0', '100.0', '0', '0', '5', '3', '40', '13', '2', '4', '19']"
"['', '40962', '2017-11-02', '23:30:00 GMT', '16', 'DET', 'Detroit', 'Red Wings', '13', 'OTT', 'Ottawa', 'Senators', '23', 'Canadian Tire Centre', '16', 'DET', 'Detroit', 'Red Wings', '0', '1', '0', '0', '0', '33', '29', '53.2', '2', '1', '50.0', '2', '1', '50.0', '0', '0', '1', '3', '25', '9', '3', '6', '24']"
"['', '40986', '2017-11-05', '21:00:00 GMT', '16', 'DET', 'Detroit', 'Red Wings', '24', 'EDM', 'Edmonton', 'Oilers', '22', 'Rogers Place', '16', 'DET', 'Detroit', 'Red Wings', '1', '0', '0', '0', '2', '27', '38', '41.5', '2', '1', '50.0', '2', '0', '100.0', '0', '0', '4', '0', '35', '20', '2', '4', '19']"
"['', '40995', '2017-11-06', '03:00:00 GMT', '16', 'DET', 'Detroit', 'Red Wings', '21', 'VAN', 'Vancouver', 'Canucks', '7', 'Rogers Arena', '16', 'DET', 'Detroit', 'Red Wings', '1', '0', '0', '0', '2', '35', '34', '50.7', '2', '1', '50.0', '2', '0', '100.0', '0', '0', '3', '2', '30', '19', '3', '6', '12']"
"['', '41012', '2017-11-09', '02:00:00 GMT', '16', 'DET', 'Detroit', 'Red Wings', '23', 'CGY', 'Calgary', 'Flames', '18', 'Scotiabank Saddledome', '16', 'DET', 'Detroit', 'Red Wings', '0', '1', '0', '0', '0', '36', '28', '56.2', '3', '1', '33.3', '2', '0', '100.0', '0', '0', '3', '6', '42', '10', '3', '9', '12']"
"['', '41028', '2017-11-11', '00:00:00 GMT', '19', 'CBJ', 'Columbus', 'Blue Jackets', '16', 'DET', 'Detroit', 'Red Wings', '145', 'Little Caesars Arena', '16', 'DET', 'Detroit', 'Red Wings', '0', '0', '0', '1', '1', '23', '21', '52.3', '0', '0', '0.0', '2', '0', '100.0', '0', '0', '1', '1', '33', '10', '2', '4', '18']"
"['', '41048', '2017-11-15', '00:30:00 GMT', '23', 'CGY', 'Calgary', 'Flames', '16', 'DET', 'Detroit', 'Red Wings', '145', 'Little Caesars Arena', '16', 'DET', 'Detroit', 'Red Wings', '1', '0', '0', '0', '2', '30', '22', '57.7', '6', '4', '66.7', '5', '1', '80.0', '1', '0', '8', '2', '27', '16', '13', '64', '11']"
"['', '41064', '2017-11-17', '00:30:00 GMT', '15', 'BUF', 'Buffalo', 'Sabres', '16', 'DET', 'Detroit', 'Red Wings', '145', 'Little Caesars Arena', '16', 'DET', 'Detroit', 'Red Wings', '1', '0', '0', '0', '2', '24', '27', '47.1', '5', '0', '0.0', '2', '0', '100.0', '0', '0', '3', '1', '33', '11', '2', '4', '12']"
"['', '41079', '2017-11-19', '23:00:00 GMT', '22', 'COL', 'Colorado', 'Avalanche', '16', 'DET', 'Detroit', 'Red Wings', '145', 'Little Caesars Arena', '16', 'DET', 'Detroit', 'Red Wings', '0', '0', '0', '1', '1', '42', '24', '63.6', '3', '1', '33.3', '6', '1', '83.3', '0', '0', '3', '4', '24', '14', '6', '12', '18']"
"['', '43381', '2017-11-22', '00:00:00 GMT', '24', 'EDM', 'Edmonton', 'Oilers', '16', 'DET', 'Detroit', 'Red Wings', '145', 'Little Caesars Arena', '16', 'DET', 'Detroit', 'Red Wings', '0', '1', '0', '0', '0', '30', '29', '50.8', '2', '1', '50.0', '1', '0', '100.0', '0', '0', '2', '6', '22', '10', '1', '2', '16']"
"['', '41112', '2017-11-24', '00:00:00 GMT', '16', 'DET', 'Detroit', 'Red Wings', '9', 'NYR', 'New York', 'Rangers', '12', 'Madison Square Garden', '16', 'DET', 'Detroit', 'Red Wings', '0', '0', '0', '1', '1', '35', '42', '45.5', '4', '1', '25.0', '2', '0', '100.0', '0', '0', '1', '2', '41', '23', '2', '4', '16']"
"['', '41126', '2017-11-25', '00:00:00 GMT', '7', 'NJD', 'New Jersey', 'Devils', '16', 'DET', 'Detroit', 'Red Wings', '145', 'Little Caesars Arena', '16', 'DET', 'Detroit', 'Red Wings', '0', '0', '0', '1', '1', '34', '32', '51.5', '2', '0', '0.0', '3', '1', '66.7', '0', '0', '3', '4', '34', '9', '3', '6', '25']"
"['', '41145', '2017-11-28', '00:30:00 GMT', '28', 'LAK', 'Los Angeles', 'Kings', '16', 'DET', 'Detroit', 'Red Wings', '145', 'Little Caesars Arena', '16', 'DET', 'Detroit', 'Red Wings', '0', '1', '0', '0', '0', '30', '24', '55.6', '3', '0', '0.0', '4', '1', '75.0', '0', '0', '1', '4', '24', '7', '4', '8', '17']"
"['', '41155', '2017-11-30', '00:30:00 GMT', '14', 'MTL', 'Montreal', 'Canadiens', '16', 'DET', 'Detroit', 'Red Wings', '145', 'Little Caesars Arena', '16', 'DET', 'Detroit', 'Red Wings', '0', '1', '0', '0', '0', '31', '33', '48.4', '4', '2', '50.0', '4', '2', '50.0', '0', '0', '3', '6', '31', '13', '4', '8', '16']"
"['', '41175', '2017-12-02', '00:00:00 GMT', '16', 'DET', 'Detroit', 'Red Wings', '14', 'MTL', 'Montreal', 'Canadiens', '4', 'Bell Centre', '16', 'DET', 'Detroit', 'Red Wings', '0', '1', '0', '0', '0', '30', '31', '49.2', '1', '0', '0.0', '2', '1', '50.0', '0', '1', '1', '10', '23', '15', '3', '6', '36']"
"['', '41191', '2017-12-05', '00:30:00 GMT', '2', 'WPJ', 'Winnipeg', 'Jets', '16', 'DET', 'Detroit', 'Red Wings', '145', 'Little Caesars Arena', '16', 'DET', 'Detroit', 'Red Wings', '1', '0', '0', '0', '2', '23', '35', '39.7', '6', '0', '0.0', '6', '1', '83.3', '0', '0', '5', '1', '32', '12', '6', '12', '24']"
"['', '41217', '2017-12-09', '18:00:00 GMT', '17', 'STL', 'St. Louis', 'Blues', '16', 'DET', 'Detroit', 'Red Wings', '145', 'Little Caesars Arena', '16', 'DET', 'Detroit', 'Red Wings', '0', '1', '0', '0', '0', '28', '28', '50.0', '3', '0', '0.0', '3', '0', '100.0', '0', '0', '1', '6', '29', '7', '3', '6', '26']"
"['', '41236', '2017-12-11', '00:30:00 GMT', '4', 'FLO', 'Florida', 'Panthers', '16', 'DET', 'Detroit', 'Red Wings', '145', 'Little Caesars Arena', '16', 'DET', 'Detroit', 'Red Wings', '0', '0', '0', '1', '1', '32', '36', '47.1', '4', '0', '0.0', '2', '1', '50.0', '0', '0', '1', '2', '35', '17', '6', '21', '24']"
"['', '41250', '2017-12-13', '01:00:00 GMT', '11', 'BOS', 'Boston', 'Bruins', '16', 'DET', 'Detroit', 'Red Wings', '145', 'Little Caesars Arena', '16', 'DET', 'Detroit', 'Red Wings', '0', '0', '0', '1', '1', '34', '33', '50.7', '3', '1', '33.3', '3', '0', '100.0', '1', '0', '2', '3', '33', '20', '3', '6', '25']"
"['', '41267', '2017-12-15', '00:30:00 GMT', '12', 'TOR', 'Toronto', 'Maple Leafs', '16', 'DET', 'Detroit', 'Red Wings', '145', 'Little Caesars Arena', '16', 'DET', 'Detroit', 'Red Wings', '1', '0', '0', '0', '2', '30', '28', '51.7', '4', '1', '25.0', '3', '0', '100.0', '1', '0', '3', '1', '29', '14', '3', '6', '20']"
"['', '41292', '2017-12-19', '00:00:00 GMT', '16', 'DET', 'Detroit', 'Red Wings', '8', 'NYI', 'New York', 'Islanders', '16', 'Nassau Veterans Memorial Coliseum', '16', 'DET', 'Detroit', 'Red Wings', '1', '0', '0', '0', '2', '33', '31', '51.6', '1', '1', '100.0', '3', '2', '33.3', '0', '0', '6', '3', '22', '10', '3', '6', '24']"
"['', '41300', '2017-12-20', '01:00:00 GMT', '16', 'DET', 'Detroit', 'Red Wings', '6', 'PHI', 'Philadelphia', 'Flyers', '29', 'Wells Fargo Center', '16', 'DET', 'Detroit', 'Red Wings', '0', '1', '0', '0', '0', '30', '39', '43.5', '3', '2', '66.7', '1', '1', '0.0', '0', '0', '3', '4', '28', '26', '2', '4', '21']"
"['', '41317', '2017-12-23', '18:00:00 GMT', '16', 'DET', 'Detroit', 'Red Wings', '11', 'BOS', 'Boston', 'Bruins', '27', 'TD Garden', '16', 'DET', 'Detroit', 'Red Wings', '0', '1', '0', '0', '0', '24', '38', '38.7', '2', '0', '0.0', '2', '1', '50.0', '1', '0', '1', '3', '31', '16', '2', '4', '27']"
"['', '41335', '2017-12-27', '00:00:00 GMT', '16', 'DET', 'Detroit', 'Red Wings', '7', 'NJD', 'New Jersey', 'Devils', '37', 'Prudential Center', '16', 'DET', 'Detroit', 'Red Wings', '0', '1', '0', '0', '0', '28', '32', '46.7', '5', '0', '0.0', '2', '0', '100.0', '0', '0', '1', '3', '32', '13', '2', '4', '25']"
"['', '41352', '2017-12-29', '00:30:00 GMT', '9', 'NYR', 'New York', 'Rangers', '16', 'DET', 'Detroit', 'Red Wings', '145', 'Little Caesars Arena', '16', 'DET', 'Detroit', 'Red Wings', '1', '0', '0', '0', '2', '36', '39', '48.0', '5', '0', '0.0', '4', '0', '100.0', '0', '0', '2', '2', '35', '12', '4', '8', '15']"
"['', '43413', '2017-12-31', '00:00:00 GMT', '10', 'PIT', 'Pittsburgh', 'Penguins', '16', 'DET', 'Detroit', 'Red Wings', '145', 'Little Caesars Arena', '16', 'DET', 'Detroit', 'Red Wings', '1', '0', '0', '0', '2', '30', '37', '44.8', '1', '0', '0.0', '3', '1', '66.7', '0', '0', '4', '1', '23', '12', '2', '6', '28']"
"['', '41387', '2018-01-03', '00:30:00 GMT', '13', 'OTT', 'Ottawa', 'Senators', '16', 'DET', 'Detroit', 'Red Wings', '145', 'Little Caesars Arena', '16', 'DET', 'Detroit', 'Red Wings', '1', '0', '0', '0', '2', '26', '39', '40.0', '1', '0', '0.0', '1', '0', '100.0', '0', '0', '2', '1', '34', '11', '2', '4', '18']"
"['', '41402', '2018-01-05', '00:30:00 GMT', '4', 'FLO', 'Florida', 'Panthers', '16', 'DET', 'Detroit', 'Red Wings', '145', 'Little Caesars Arena', '16', 'DET', 'Detroit', 'Red Wings', '1', '0', '0', '0', '2', '34', '26', '56.7', '2', '1', '50.0', '1', '0', '100.0', '0', '0', '4', '2', '19', '12', '2', '4', '25']"
"['', '41422', '2018-01-07', '00:00:00 GMT', '1', 'TBL', 'Tampa Bay', 'Lightning', '16', 'DET', 'Detroit', 'Red Wings', '145', 'Little Caesars Arena', '16', 'DET', 'Detroit', 'Red Wings', '0', '1', '0', '0', '0', '33', '27', '55.0', '4', '0', '0.0', '0', '0', '0.0', '0', '0', '2', '5', '36', '13', '3', '12', '26']"
"['', '41443', '2018-01-13', '18:00:00 GMT', '16', 'DET', 'Detroit', 'Red Wings', '10', 'PIT', 'Pittsburgh', 'Penguins', '40', 'PPG Paints Arena', '16', 'DET', 'Detroit', 'Red Wings', '0', '1', '0', '0', '0', '27', '33', '45.0', '7', '1', '14.3', '5', '2', '60.0', '0', '0', '1', '4', '30', '16', '5', '10', '21']"
"['', '41454', '2018-01-14', '17:30:00 GMT', '16', 'DET', 'Detroit', 'Red Wings', '20', 'CHI', 'Chicago', 'Blackhawks', '28', 'United Center', '16', 'DET', 'Detroit', 'Red Wings', '1', '0', '0', '0', '2', '23', '24', '48.9', '4', '0', '0.0', '3', '0', '100.0', '0', '0', '4', '0', '26', '26', '3', '6', '17']"
"['', '41463', '2018-01-16', '00:30:00 GMT', '27', 'DAL', 'Dallas', 'Stars', '16', 'DET', 'Detroit', 'Red Wings', '145', 'Little Caesars Arena', '16', 'DET', 'Detroit', 'Red Wings', '0', '1', '0', '0', '0', '27', '32', '45.8', '2', '0', '0.0', '3', '2', '33.3', '0', '0', '2', '4', '15', '15', '4', '11', '19']"
"['', '41485', '2018-01-20', '00:00:00 GMT', '3', 'CAR', 'Carolina', 'Hurricanes', '16', 'DET', 'Detroit', 'Red Wings', '145', 'Little Caesars Arena', '16', 'DET', 'Detroit', 'Red Wings', '0', '1', '0', '0', '0', '27', '33', '45.0', '2', '1', '50.0', '3', '2', '33.3', '0', '0', '1', '3', '24', '15', '3', '6', '21']"
"['', '41500', '2018-01-22', '00:00:00 GMT', '16', 'DET', 'Detroit', 'Red Wings', '7', 'NJD', 'New Jersey', 'Devils', '37', 'Prudential Center', '16', 'DET', 'Detroit', 'Red Wings', '1', '0', '0', '0', '2', '23', '36', '39.0', '2', '0', '0.0', '5', '0', '100.0', '0', '0', '3', '0', '30', '13', '5', '10', '11']"
"['', '41508', '2018-01-23', '00:30:00 GMT', '6', 'PHI', 'Philadelphia', 'Flyers', '16', 'DET', 'Detroit', 'Red Wings', '145', 'Little Caesars Arena', '16', 'DET', 'Detroit', 'Red Wings', '0', '0', '0', '1', '1', '24', '27', '47.1', '2', '0', '0.0', '2', '1', '50.0', '0', '0', '2', '3', '21', '7', '2', '4', '20']"
"['', '41523', '2018-01-25', '00:30:00 GMT', '20', 'CHI', 'Chicago', 'Blackhawks', '16', 'DET', 'Detroit', 'Red Wings', '145', 'Little Caesars Arena', '16', 'DET', 'Detroit', 'Red Wings', '0', '1', '0', '0', '0', '25', '21', '54.3', '1', '1', '100.0', '2', '0', '100.0', '0', '0', '1', '5', '24', '19', '2', '4', '26']"
"['', '41548', '2018-01-31', '01:00:00 GMT', '26', 'SJS', 'San Jose', 'Sharks', '16', 'DET', 'Detroit', 'Red Wings', '145', 'Little Caesars Arena', '16', 'DET', 'Detroit', 'Red Wings', '1', '0', '0', '0', '2', '29', '33', '46.8', '3', '0', '0.0', '2', '0', '100.0', '0', '0', '1', '1', '44', '13', '2', '4', '32']"
"['', '41563', '2018-02-02', '00:00:00 GMT', '16', 'DET', 'Detroit', 'Red Wings', '3', 'CAR', 'Carolina', 'Hurricanes', '21', 'PNC Arena', '16', 'DET', 'Detroit', 'Red Wings', '1', '0', '0', '0', '2', '20', '31', '39.2', '3', '0', '0.0', '2', '1', '50.0', '0', '0', '4', '1', '38', '18', '2', '4', '25']"
"['', '41569', '2018-02-03', '00:00:00 GMT', '16', 'DET', 'Detroit', 'Red Wings', '4', 'FLO', 'Florida', 'Panthers', '3', 'BB&T Center', '16', 'DET', 'Detroit', 'Red Wings', '0', '1', '0', '0', '0', '33', '32', '50.8', '2', '0', '0.0', '4', '0', '100.0', '0', '0', '2', '3', '28', '14', '5', '13', '18']"
"['', '41589', '2018-02-06', '00:30:00 GMT', '11', 'BOS', 'Boston', 'Bruins', '16', 'DET', 'Detroit', 'Red Wings', '145', 'Little Caesars Arena', '16', 'DET', 'Detroit', 'Red Wings', '0', '1', '0', '0', '0', '32', '24', '57.1', '2', '1', '50.0', '2', '0', '100.0', '0', '0', '2', '3', '28', '15', '3', '6', '28']"
"['', '41609', '2018-02-09', '00:00:00 GMT', '16', 'DET', 'Detroit', 'Red Wings', '8', 'NYI', 'New York', 'Islanders', '16', 'Nassau Veterans Memorial Coliseum', '16', 'DET', 'Detroit', 'Red Wings', '0', '0', '0', '1', '1', '33', '27', '55.0', '2', '1', '50.0', '3', '4', '1.0', '0', '0', '6', '7', '39', '11', '4', '19', '17']"
"['', '41626', '2018-02-11', '20:00:00 GMT', '16', 'DET', 'Detroit', 'Red Wings', '5', 'WSH', 'Washington', 'Capitals', '13', 'Capital One Arena', '16', 'DET', 'Detroit', 'Red Wings', '1', '0', '0', '0', '2', '29', '30', '49.2', '3', '0', '0.0', '3', '2', '33.3', '0', '0', '5', '4', '29', '10', '3', '6', '12']"
"['', '41643', '2018-02-13', '00:30:00 GMT', '29', 'ANA', 'Anaheim', 'Ducks', '16', 'DET', 'Detroit', 'Red Wings', '145', 'Little Caesars Arena', '16', 'DET', 'Detroit', 'Red Wings', '1', '0', '0', '0', '2', '18', '33', '35.3', '2', '0', '0.0', '4', '0', '100.0', '0', '0', '2', '1', '16', '20', '4', '8', '17']"
"['', '41656', '2018-02-15', '00:30:00 GMT', '16', 'DET', 'Detroit', 'Red Wings', '1', 'TBL', 'Tampa Bay', 'Lightning', '26', 'Amalie Arena', '16', 'DET', 'Detroit', 'Red Wings', '0', '1', '0', '0', '0', '31', '35', '47.0', '3', '1', '33.3', '4', '2', '50.0', '0', '0', '1', '4', '39', '16', '4', '8', '26']"
"['', '41674', '2018-02-17', '01:00:00 GMT', '16', 'DET', 'Detroit', 'Red Wings', '18', 'NSH', 'Nashville', 'Predators', '15', 'Bridgestone Arena', '16', 'DET', 'Detroit', 'Red Wings', '1', '0', '0', '0', '2', '29', '35', '45.3', '2', '0', '0.0', '5', '1', '80.0', '0', '0', '3', '1', '34', '26', '6', '12', '13']"
"['', '41682', '2018-02-18', '00:00:00 GMT', '12', 'TOR', 'Toronto', 'Maple Leafs', '16', 'DET', 'Detroit', 'Red Wings', '145', 'Little Caesars Arena', '16', 'DET', 'Detroit', 'Red Wings', '0', '1', '0', '0', '0', '29', '32', '47.5', '1', '1', '100.0', '2', '0', '100.0', '0', '0', '2', '3', '29', '13', '2', '4', '29']"
"['', '41694', '2018-02-20', '00:30:00 GMT', '18', 'NSH', 'Nashville', 'Predators', '16', 'DET', 'Detroit', 'Red Wings', '145', 'Little Caesars Arena', '16', 'DET', 'Detroit', 'Red Wings', '0', '1', '0', '0', '0', '26', '33', '44.1', '3', '0', '0.0', '1', '0', '100.0', '0', '0', '2', '3', '36', '17', '1', '2', '20']"
"['', '41705', '2018-02-22', '00:30:00 GMT', '15', 'BUF', 'Buffalo', 'Sabres', '16', 'DET', 'Detroit', 'Red Wings', '145', 'Little Caesars Arena', '16', 'DET', 'Detroit', 'Red Wings', '0', '0', '0', '1', '1', '35', '27', '56.5', '3', '1', '33.3', '3', '1', '66.7', '0', '0', '2', '3', '37', '8', '3', '6', '13']"
"['', '41720', '2018-02-24', '00:00:00 GMT', '3', 'CAR', 'Carolina', 'Hurricanes', '16', 'DET', 'Detroit', 'Red Wings', '145', 'Little Caesars Arena', '16', 'DET', 'Detroit', 'Red Wings', '1', '0', '0', '0', '2', '33', '35', '48.5', '4', '1', '25.0', '4', '0', '100.0', '0', '0', '3', '1', '22', '31', '4', '8', '21']"
"['', '41732', '2018-02-25', '00:30:00 GMT', '16', 'DET', 'Detroit', 'Red Wings', '9', 'NYR', 'New York', 'Rangers', '12', 'Madison Square Garden', '16', 'DET', 'Detroit', 'Red Wings', '1', '0', '0', '0', '2', '32', '36', '47.1', '3', '0', '0.0', '2', '1', '50.0', '0', '0', '3', '2', '34', '17', '4', '8', '16']"
"['', '41752', '2018-02-28', '01:00:00 GMT', '16', 'DET', 'Detroit', 'Red Wings', '17', 'STL', 'St. Louis', 'Blues', '24', 'Scottrade Center', '16', 'DET', 'Detroit', 'Red Wings', '0', '1', '0', '0', '0', '31', '29', '51.7', '2', '0', '0.0', '1', '0', '100.0', '0', '0', '1', '2', '36', '11', '3', '6', '7']"
"['', '41766', '2018-03-02', '01:00:00 GMT', '16', 'DET', 'Detroit', 'Red Wings', '2', 'WPJ', 'Winnipeg', 'Jets', '39', 'Bell MTS Place', '16', 'DET', 'Detroit', 'Red Wings', '0', '1', '0', '0', '0', '27', '44', '38.0', '1', '1', '100.0', '3', '0', '100.0', '0', '0', '3', '4', '33', '21', '3', '6', '17']"
"['', '41785', '2018-03-04', '00:00:00 GMT', '16', 'DET', 'Detroit', 'Red Wings', '25', 'MIN', 'Minnesota', 'Wild', '30', 'Xcel Energy Center', '16', 'DET', 'Detroit', 'Red Wings', '0', '1', '0', '0', '0', '30', '27', '52.6', '2', '0', '0.0', '3', '1', '66.7', '0', '0', '1', '4', '29', '15', '5', '13', '17']"
"['', '41792', '2018-03-06', '00:00:00 GMT', '16', 'DET', 'Detroit', 'Red Wings', '11', 'BOS', 'Boston', 'Bruins', '27', 'TD Garden', '16', 'DET', 'Detroit', 'Red Wings', '0', '0', '0', '1', '1', '42', '21', '66.7', '5', '1', '20.0', '4', '2', '50.0', '0', '0', '5', '6', '35', '12', '6', '15', '30']"
"['', '41807', '2018-03-08', '00:30:00 GMT', '142', 'VGK', 'Vegas', 'Golden Knights', '16', 'DET', 'Detroit', 'Red Wings', '145', 'Little Caesars Arena', '16', 'DET', 'Detroit', 'Red Wings', '0', '1', '0', '0', '0', '21', '27', '43.8', '3', '0', '0.0', '4', '0', '100.0', '0', '1', '0', '4', '28', '10', '4', '8', '20']"
"['', '41816', '2018-03-09', '00:00:00 GMT', '16', 'DET', 'Detroit', 'Red Wings', '19', 'CBJ', 'Columbus', 'Blue Jackets', '17', 'Nationwide Arena', '16', 'DET', 'Detroit', 'Red Wings', '0', '1', '0', '0', '0', '24', '28', '46.2', '2', '0', '0.0', '2', '0', '100.0', '0', '1', '2', '3', '24', '14', '2', '4', '10']"
"['', '41842', '2018-03-12', '02:30:00 GMT', '16', 'DET', 'Detroit', 'Red Wings', '26', 'SJS', 'San Jose', 'Sharks', '9', 'SAP Center at San Jose', '16', 'DET', 'Detroit', 'Red Wings', '0', '1', '0', '0', '0', '30', '27', '52.6', '2', '0', '0.0', '3', '1', '66.7', '0', '0', '3', '5', '26', '11', '3', '6', '16']"
"['', '41863', '2018-03-15', '02:00:00 GMT', '16', 'DET', 'Detroit', 'Red Wings', '28', 'LAK', 'Los Angeles', 'Kings', '25', 'Staples Center', '16', 'DET', 'Detroit', 'Red Wings', '0', '1', '0', '0', '0', '24', '23', '51.1', '2', '1', '50.0', '4', '1', '75.0', '0', '0', '1', '4', '21', '13', '5', '10', '25']"
"['', '41868', '2018-03-16', '02:00:00 GMT', '16', 'DET', 'Detroit', 'Red Wings', '29', 'ANA', 'Anaheim', 'Ducks', '8', 'Honda Center', '16', 'DET', 'Detroit', 'Red Wings', '0', '1', '0', '0', '0', '27', '35', '43.5', '5', '0', '0.0', '2', '0', '100.0', '0', '0', '2', '4', '30', '11', '5', '19', '21']"
"['', '41880', '2018-03-18', '19:00:00 GMT', '16', 'DET', 'Detroit', 'Red Wings', '22', 'COL', 'Colorado', 'Avalanche', '19', 'Pepsi Center', '16', 'DET', 'Detroit', 'Red Wings', '0', '1', '0', '0', '0', '39', '27', '59.1', '3', '0', '0.0', '5', '1', '80.0', '0', '0', '1', '5', '38', '14', '5', '18', '19']"
"['', '41898', '2018-03-20', '23:30:00 GMT', '6', 'PHI', 'Philadelphia', 'Flyers', '16', 'DET', 'Detroit', 'Red Wings', '145', 'Little Caesars Arena', '16', 'DET', 'Detroit', 'Red Wings', '1', '0', '0', '0', '2', '34', '25', '57.6', '1', '0', '0.0', '4', '2', '50.0', '1', '0', '4', '4', '31', '25', '4', '8', '19']"
"['', '41912', '2018-03-22', '23:30:00 GMT', '5', 'WSH', 'Washington', 'Capitals', '16', 'DET', 'Detroit', 'Red Wings', '145', 'Little Caesars Arena', '16', 'DET', 'Detroit', 'Red Wings', '0', '1', '0', '0', '0', '32', '31', '50.8', '3', '0', '0.0', '3', '0', '100.0', '0', '0', '0', '1', '39', '9', '3', '6', '14']"
"['', '41929', '2018-03-24', '23:00:00 GMT', '16', 'DET', 'Detroit', 'Red Wings', '12', 'TOR', 'Toronto', 'Maple Leafs', '1', 'Air Canada Center', '16', 'DET', 'Detroit', 'Red Wings', '0', '1', '0', '0', '0', '33', '37', '47.1', '1', '0', '0.0', '4', '0', '100.0', '0', '0', '3', '4', '40', '19', '5', '13', '19']"
"['', '41945', '2018-03-26', '23:30:00 GMT', '16', 'DET', 'Detroit', 'Red Wings', '14', 'MTL', 'Montreal', 'Canadiens', '4', 'Bell Centre', '16', 'DET', 'Detroit', 'Red Wings', '0', '1', '0', '0', '0', '28', '24', '53.8', '1', '0', '0.0', '4', '2', '50.0', '0', '0', '2', '4', '28', '20', '8', '32', '25']"
"['', '41951', '2018-03-27', '23:30:00 GMT', '10', 'PIT', 'Pittsburgh', 'Penguins', '16', 'DET', 'Detroit', 'Red Wings', '145', 'Little Caesars Arena', '16', 'DET', 'Detroit', 'Red Wings', '1', '0', '0', '0', '2', '27', '31', '46.6', '2', '1', '50.0', '2', '0', '100.0', '0', '0', '5', '2', '26', '25', '2', '4', '15']"
"['', '41962', '2018-03-29', '23:00:00 GMT', '16', 'DET', 'Detroit', 'Red Wings', '15', 'BUF', 'Buffalo', 'Sabres', '10', 'KeyBank Center', '16', 'DET', 'Detroit', 'Red Wings', '1', '0', '0', '0', '2', '33', '38', '46.5', '5', '0', '0.0', '4', '1', '75.0', '1', '0', '6', '3', '32', '13', '4', '8', '10']"
"['', '41979', '2018-03-31', '18:00:00 GMT', '13', 'OTT', 'Ottawa', 'Senators', '16', 'DET', 'Detroit', 'Red Wings', '145', 'Little Caesars Arena', '16', 'DET', 'Detroit', 'Red Wings', '1', '0', '0', '0', '2', '30', '27', '52.6', '4', '0', '0.0', '5', '0', '100.0', '0', '0', '2', '0', '27', '14', '5', '10', '13']"
"['', '42002', '2018-04-03', '23:00:00 GMT', '16', 'DET', 'Detroit', 'Red Wings', '19', 'CBJ', 'Columbus', 'Blue Jackets', '17', 'Nationwide Arena', '16', 'DET', 'Detroit', 'Red Wings', '0', '0', '0', '1', '1', '33', '39', '45.8', '3', '2', '66.7', '5', '3', '40.0', '0', '0', '4', '5', '27', '14', '5', '10', '13']"
"['', '42018', '2018-04-05', '23:30:00 GMT', '14', 'MTL', 'Montreal', 'Canadiens', '16', 'DET', 'Detroit', 'Red Wings', '145', 'Little Caesars Arena', '16', 'DET', 'Detroit', 'Red Wings', '0', '1', '0', '0', '0', '36', '24', '60.0', '3', '0', '0.0', '1', '0', '100.0', '0', '0', '3', '4', '26', '12', '1', '2', '16']"
"['', '42032', '2018-04-07', '23:00:00 GMT', '8', 'NYI', 'New York', 'Islanders', '16', 'DET', 'Detroit', 'Red Wings', '145', 'Little Caesars Arena', '16', 'DET', 'Detroit', 'Red Wings', '0', '0', '0', '1', '1', '28', '29', '49.1', '1', '1', '100.0', '2', '1', '50.0', '0', '0', '3', '4', '39', '12', '2', '4', '16']"
