"['#Date/Time of Update: 2018-11-28 15:52:23 GMT', '#Game ID', '#Game Date', '#Game Time', '#Away Team ID', '#Away Team Abbr.', '#Away Team City', '#Away Team Name', '#Home Team ID', '#Home Team Abbr.', '#Home Team City', '#Home Team Name', '#Venue ID', '#Venue Name', '#Team ID', '#Team Abbr.', '#Team City', '#Team Name', '#Wins', '#Losses', '#OvertimeWins', '#OvertimeLosses', '#ShootoutWins', '#ShootoutLosses', '#Rows', '#Points', '#FaceoffWins', '#FaceoffLosses', '#FaceoffPercent', '#Powerplays', '#PowerplayGoals', '#PowerplayPercent', '#PenaltyKills', '#PenaltyKillGoalsAllowed', '#PenaltyKillPercent', '#ShorthandedGoalsFor', '#ShorthandedGoalsAgainst', '#GoalsFor', '#GoalsAgainst', '#Shots', '#Penalties', '#PenaltyMinutes', '#Hits']"
"['', '29019', '2015-10-07', '23:00:00 GMT', '14', 'MTL', 'Montreal', 'Canadiens', '12', 'TOR', 'Toronto', 'Maple Leafs', '1', 'Air Canada Center', '12', 'TOR', 'Toronto', 'Maple Leafs', '0', '1', '0', '0', '0', '0', '0', '0', '34', '30', '53.1', '3', '1', '33.3', '1', '0', '100.0', '0', '0', '1', '3', '37', '2', '4', '26']"
"['', '29032', '2015-10-09', '23:30:00 GMT', '12', 'TOR', 'Toronto', 'Maple Leafs', '16', 'DET', 'Detroit', 'Red Wings', '11', 'Joe Louis Arena', '12', 'TOR', 'Toronto', 'Maple Leafs', '0', '1', '0', '0', '0', '0', '0', '0', '33', '28', '54.1', '2', '0', '0.0', '4', '1', '75.0', '0', '0', '0', '4', '22', '5', '10', '20']"
"['', '29041', '2015-10-10', '23:00:00 GMT', '13', 'OTT', 'Ottawa', 'Senators', '12', 'TOR', 'Toronto', 'Maple Leafs', '1', 'Air Canada Center', '12', 'TOR', 'Toronto', 'Maple Leafs', '0', '0', '0', '1', '0', '0', '0', '1', '35', '34', '50.7', '4', '1', '25.0', '5', '3', '40.0', '0', '0', '4', '4', '41', '7', '14', '27']"
"['', '29077', '2015-10-16', '23:00:00 GMT', '12', 'TOR', 'Toronto', 'Maple Leafs', '19', 'CBJ', 'Columbus', 'Blue Jackets', '17', 'Nationwide Arena', '12', 'TOR', 'Toronto', 'Maple Leafs', '1', '0', '0', '0', '0', '0', '1', '2', '43', '30', '58.9', '1', '0', '0.0', '4', '1', '75.0', '0', '0', '6', '3', '34', '5', '10', '29']"
"['', '29087', '2015-10-17', '23:00:00 GMT', '12', 'TOR', 'Toronto', 'Maple Leafs', '10', 'PIT', 'Pittsburgh', 'Penguins', '40', 'Consol Energy Center', '12', 'TOR', 'Toronto', 'Maple Leafs', '0', '1', '0', '0', '0', '0', '0', '0', '34', '27', '55.7', '3', '0', '0.0', '5', '0', '100.0', '0', '0', '1', '2', '27', '6', '12', '32']"
"['', '29106', '2015-10-21', '23:00:00 GMT', '12', 'TOR', 'Toronto', 'Maple Leafs', '15', 'BUF', 'Buffalo', 'Sabres', '10', 'First Niagara Center', '12', 'TOR', 'Toronto', 'Maple Leafs', '0', '0', '0', '1', '0', '0', '0', '1', '28', '39', '41.8', '1', '0', '0.0', '4', '0', '100.0', '0', '0', '1', '1', '24', '4', '8', '20']"
"['', '29126', '2015-10-24', '23:00:00 GMT', '12', 'TOR', 'Toronto', 'Maple Leafs', '14', 'MTL', 'Montreal', 'Canadiens', '4', 'Bell Centre', '12', 'TOR', 'Toronto', 'Maple Leafs', '0', '1', '0', '0', '0', '0', '0', '0', '41', '34', '54.7', '5', '0', '0.0', '4', '2', '50.0', '0', '1', '3', '5', '52', '5', '10', '26']"
"['', '29140', '2015-10-26', '23:30:00 GMT', '30', 'ARI', 'Arizona', 'Coyotes', '12', 'TOR', 'Toronto', 'Maple Leafs', '1', 'Air Canada Center', '12', 'TOR', 'Toronto', 'Maple Leafs', '0', '1', '0', '0', '0', '0', '0', '0', '26', '39', '40.0', '2', '0', '0.0', '4', '2', '50.0', '0', '0', '3', '4', '27', '5', '10', '27']"
"['', '29164', '2015-10-30', '23:00:00 GMT', '12', 'TOR', 'Toronto', 'Maple Leafs', '9', 'NYR', 'New York', 'Rangers', '12', 'Madison Square Garden', '12', 'TOR', 'Toronto', 'Maple Leafs', '0', '1', '0', '0', '0', '0', '0', '0', '33', '22', '60.0', '0', '0', '0.0', '3', '0', '100.0', '0', '0', '1', '3', '25', '3', '6', '25']"
"['', '29175', '2015-10-31', '23:00:00 GMT', '10', 'PIT', 'Pittsburgh', 'Penguins', '12', 'TOR', 'Toronto', 'Maple Leafs', '1', 'Air Canada Center', '12', 'TOR', 'Toronto', 'Maple Leafs', '0', '1', '0', '0', '0', '0', '0', '0', '25', '35', '41.7', '4', '0', '0.0', '3', '1', '66.7', '0', '1', '0', '4', '21', '4', '11', '19']"
"['', '29187', '2015-11-02', '00:30:00 GMT', '27', 'DAL', 'Dallas', 'Stars', '12', 'TOR', 'Toronto', 'Maple Leafs', '1', 'Air Canada Center', '12', 'TOR', 'Toronto', 'Maple Leafs', '1', '0', '0', '0', '0', '0', '1', '2', '43', '39', '52.4', '5', '2', '40.0', '2', '0', '100.0', '0', '0', '4', '1', '26', '2', '4', '30']"
"['', '29199', '2015-11-04', '00:00:00 GMT', '2', 'WPJ', 'Winnipeg', 'Jets', '12', 'TOR', 'Toronto', 'Maple Leafs', '1', 'Air Canada Center', '12', 'TOR', 'Toronto', 'Maple Leafs', '0', '1', '0', '0', '0', '0', '0', '0', '37', '32', '53.6', '3', '1', '33.3', '2', '0', '100.0', '0', '1', '2', '4', '26', '2', '4', '42']"
"['', '29212', '2015-11-06', '00:00:00 GMT', '16', 'DET', 'Detroit', 'Red Wings', '12', 'TOR', 'Toronto', 'Maple Leafs', '1', 'Air Canada Center', '12', 'TOR', 'Toronto', 'Maple Leafs', '0', '0', '0', '1', '0', '0', '0', '1', '37', '28', '56.9', '4', '0', '0.0', '3', '0', '100.0', '0', '0', '1', '2', '33', '3', '6', '25']"
"['', '29221', '2015-11-07', '00:00:00 GMT', '12', 'TOR', 'Toronto', 'Maple Leafs', '5', 'WSH', 'Washington', 'Capitals', '13', 'Verizon Center', '12', 'TOR', 'Toronto', 'Maple Leafs', '0', '0', '0', '1', '0', '0', '0', '1', '22', '34', '39.3', '3', '1', '33.3', '6', '1', '83.3', '0', '0', '2', '2', '25', '8', '16', '26']"
"['', '29243', '2015-11-10', '01:30:00 GMT', '12', 'TOR', 'Toronto', 'Maple Leafs', '27', 'DAL', 'Dallas', 'Stars', '2', 'American Airlines Center', '12', 'TOR', 'Toronto', 'Maple Leafs', '1', '0', '0', '0', '0', '0', '1', '2', '36', '31', '53.7', '1', '1', '100.0', '1', '0', '100.0', '0', '0', '3', '2', '30', '1', '2', '21']"
"['', '29255', '2015-11-12', '01:00:00 GMT', '12', 'TOR', 'Toronto', 'Maple Leafs', '18', 'NSH', 'Nashville', 'Predators', '15', 'Bridgestone Arena', '12', 'TOR', 'Toronto', 'Maple Leafs', '1', '0', '0', '0', '0', '0', '0', '2', '21', '30', '41.2', '3', '0', '0.0', '4', '1', '75.0', '0', '0', '1', '1', '23', '4', '8', '17']"
"['', '29267', '2015-11-14', '00:00:00 GMT', '21', 'VAN', 'Vancouver', 'Canucks', '12', 'TOR', 'Toronto', 'Maple Leafs', '1', 'Air Canada Center', '12', 'TOR', 'Toronto', 'Maple Leafs', '1', '0', '0', '0', '0', '0', '1', '2', '41', '27', '60.3', '4', '1', '25.0', '3', '1', '66.7', '0', '0', '4', '2', '39', '4', '8', '22']"
"['', '29277', '2015-11-15', '00:00:00 GMT', '12', 'TOR', 'Toronto', 'Maple Leafs', '9', 'NYR', 'New York', 'Rangers', '12', 'Madison Square Garden', '12', 'TOR', 'Toronto', 'Maple Leafs', '0', '1', '0', '0', '0', '0', '0', '0', '37', '39', '48.7', '3', '0', '0.0', '1', '0', '100.0', '0', '0', '3', '4', '26', '2', '4', '23']"
"['', '29290', '2015-11-17', '00:30:00 GMT', '22', 'COL', 'Colorado', 'Avalanche', '12', 'TOR', 'Toronto', 'Maple Leafs', '1', 'Air Canada Center', '12', 'TOR', 'Toronto', 'Maple Leafs', '1', '0', '0', '0', '0', '0', '1', '2', '27', '33', '45.0', '5', '4', '80.0', '4', '0', '100.0', '1', '0', '5', '1', '30', '4', '8', '31']"
"['', '29305', '2015-11-20', '00:00:00 GMT', '12', 'TOR', 'Toronto', 'Maple Leafs', '3', 'CAR', 'Carolina', 'Hurricanes', '21', 'RBC Center', '12', 'TOR', 'Toronto', 'Maple Leafs', '1', '0', '0', '0', '0', '0', '0', '2', '29', '42', '40.8', '4', '1', '25.0', '2', '0', '100.0', '0', '0', '1', '1', '25', '4', '8', '31']"
"['', '29311', '2015-11-21', '00:00:00 GMT', '12', 'TOR', 'Toronto', 'Maple Leafs', '11', 'BOS', 'Boston', 'Bruins', '27', 'TD Garden', '12', 'TOR', 'Toronto', 'Maple Leafs', '0', '1', '0', '0', '0', '0', '0', '0', '29', '35', '45.3', '1', '0', '0.0', '1', '0', '100.0', '0', '0', '0', '2', '22', '1', '2', '29']"
"['', '29330', '2015-11-23', '00:30:00 GMT', '11', 'BOS', 'Boston', 'Bruins', '12', 'TOR', 'Toronto', 'Maple Leafs', '1', 'Air Canada Center', '12', 'TOR', 'Toronto', 'Maple Leafs', '0', '0', '0', '1', '0', '0', '0', '1', '44', '33', '57.1', '6', '0', '0.0', '3', '0', '100.0', '0', '1', '3', '3', '42', '5', '10', '41']"
"['', '29361', '2015-11-28', '00:00:00 GMT', '5', 'WSH', 'Washington', 'Capitals', '12', 'TOR', 'Toronto', 'Maple Leafs', '1', 'Air Canada Center', '12', 'TOR', 'Toronto', 'Maple Leafs', '0', '1', '0', '0', '0', '0', '0', '0', '31', '29', '51.7', '2', '1', '50.0', '3', '2', '33.3', '0', '0', '2', '4', '34', '3', '6', '44']"
"['', '29375', '2015-11-30', '00:30:00 GMT', '24', 'EDM', 'Edmonton', 'Oilers', '12', 'TOR', 'Toronto', 'Maple Leafs', '1', 'Air Canada Center', '12', 'TOR', 'Toronto', 'Maple Leafs', '1', '0', '0', '0', '0', '0', '1', '2', '29', '23', '55.8', '3', '1', '33.3', '3', '0', '100.0', '0', '0', '3', '0', '26', '3', '6', '33']"
"['', '29387', '2015-12-02', '00:30:00 GMT', '12', 'TOR', 'Toronto', 'Maple Leafs', '2', 'WPJ', 'Winnipeg', 'Jets', '39', 'MTS Centre', '12', 'TOR', 'Toronto', 'Maple Leafs', '0', '1', '0', '0', '0', '0', '0', '0', '32', '23', '58.2', '3', '0', '0.0', '5', '1', '80.0', '0', '0', '1', '6', '33', '5', '10', '16']"
"['', '29397', '2015-12-03', '01:00:00 GMT', '12', 'TOR', 'Toronto', 'Maple Leafs', '25', 'MIN', 'Minnesota', 'Wild', '30', 'Xcel Energy Center', '12', 'TOR', 'Toronto', 'Maple Leafs', '0', '1', '0', '0', '0', '0', '0', '0', '29', '29', '50.0', '2', '0', '0.0', '3', '1', '66.7', '0', '0', '0', '1', '28', '3', '6', '14']"
"['', '29411', '2015-12-05', '00:00:00 GMT', '12', 'TOR', 'Toronto', 'Maple Leafs', '17', 'STL', 'St. Louis', 'Blues', '24', 'Scottrade Center', '12', 'TOR', 'Toronto', 'Maple Leafs', '1', '0', '0', '0', '0', '0', '1', '2', '34', '32', '51.5', '4', '0', '0.0', '1', '0', '100.0', '0', '0', '4', '1', '29', '4', '11', '27']"
"['', '29429', '2015-12-08', '00:30:00 GMT', '7', 'NJD', 'New Jersey', 'Devils', '12', 'TOR', 'Toronto', 'Maple Leafs', '1', 'Air Canada Center', '12', 'TOR', 'Toronto', 'Maple Leafs', '1', '0', '0', '0', '0', '0', '0', '2', '41', '29', '58.6', '5', '1', '20.0', '5', '2', '60.0', '0', '0', '2', '2', '37', '5', '10', '33']"
"['', '29475', '2015-12-15', '00:30:00 GMT', '1', 'TBL', 'Tampa Bay', 'Lightning', '12', 'TOR', 'Toronto', 'Maple Leafs', '1', 'Air Canada Center', '12', 'TOR', 'Toronto', 'Maple Leafs', '0', '0', '0', '1', '0', '0', '0', '1', '44', '26', '62.9', '3', '1', '33.3', '3', '0', '100.0', '0', '0', '4', '5', '37', '3', '6', '29']"
"['', '29487', '2015-12-17', '00:30:00 GMT', '26', 'SJS', 'San Jose', 'Sharks', '12', 'TOR', 'Toronto', 'Maple Leafs', '1', 'Air Canada Center', '12', 'TOR', 'Toronto', 'Maple Leafs', '0', '0', '0', '1', '0', '0', '0', '1', '41', '31', '56.9', '3', '0', '0.0', '3', '2', '33.3', '0', '0', '4', '5', '31', '3', '6', '34']"
"['', '29503', '2015-12-19', '00:00:00 GMT', '28', 'LAK', 'Los Angeles', 'Kings', '12', 'TOR', 'Toronto', 'Maple Leafs', '1', 'Air Canada Center', '12', 'TOR', 'Toronto', 'Maple Leafs', '1', '0', '0', '0', '0', '0', '1', '2', '26', '31', '45.6', '0', '0', '0.0', '1', '0', '100.0', '0', '0', '5', '0', '34', '1', '2', '33']"
"['', '29523', '2015-12-21', '02:00:00 GMT', '12', 'TOR', 'Toronto', 'Maple Leafs', '22', 'COL', 'Colorado', 'Avalanche', '19', 'Pepsi Center', '12', 'TOR', 'Toronto', 'Maple Leafs', '1', '0', '0', '0', '0', '0', '1', '2', '33', '37', '47.1', '3', '3', '100.0', '4', '1', '75.0', '0', '0', '7', '4', '22', '4', '8', '23']"
"['', '29533', '2015-12-22', '02:00:00 GMT', '12', 'TOR', 'Toronto', 'Maple Leafs', '30', 'ARI', 'Arizona', 'Coyotes', '6', 'Gila River Arena', '12', 'TOR', 'Toronto', 'Maple Leafs', '0', '1', '0', '0', '0', '0', '0', '0', '28', '47', '37.3', '2', '1', '50.0', '4', '0', '100.0', '0', '0', '2', '3', '38', '5', '13', '22']"
"['', '29546', '2015-12-27', '23:00:00 GMT', '12', 'TOR', 'Toronto', 'Maple Leafs', '8', 'NYI', 'New York', 'Islanders', '16', 'Nassau Veterans Memorial Coliseum', '12', 'TOR', 'Toronto', 'Maple Leafs', '1', '0', '0', '0', '0', '0', '1', '2', '17', '32', '34.7', '2', '0', '0.0', '1', '0', '100.0', '0', '0', '3', '1', '38', '1', '2', '21']"
"['', '29560', '2015-12-29', '00:00:00 GMT', '8', 'NYI', 'New York', 'Islanders', '12', 'TOR', 'Toronto', 'Maple Leafs', '1', 'Air Canada Center', '12', 'TOR', 'Toronto', 'Maple Leafs', '0', '1', '0', '0', '0', '0', '0', '0', '26', '32', '44.8', '4', '0', '0.0', '4', '0', '100.0', '0', '0', '3', '6', '33', '4', '8', '25']"
"['', '29569', '2015-12-30', '00:00:00 GMT', '12', 'TOR', 'Toronto', 'Maple Leafs', '10', 'PIT', 'Pittsburgh', 'Penguins', '40', 'Consol Energy Center', '12', 'TOR', 'Toronto', 'Maple Leafs', '1', '0', '0', '0', '0', '0', '0', '2', '37', '30', '55.2', '2', '0', '0.0', '5', '1', '80.0', '0', '0', '2', '2', '36', '8', '16', '32']"
"['', '29588', '2016-01-02', '00:00:00 GMT', '17', 'STL', 'St. Louis', 'Blues', '12', 'TOR', 'Toronto', 'Maple Leafs', '1', 'Air Canada Center', '12', 'TOR', 'Toronto', 'Maple Leafs', '1', '0', '0', '0', '0', '0', '1', '2', '38', '32', '54.3', '5', '1', '20.0', '2', '1', '50.0', '0', '0', '4', '1', '33', '2', '4', '35']"
"['', '29618', '2016-01-06', '03:00:00 GMT', '12', 'TOR', 'Toronto', 'Maple Leafs', '29', 'ANA', 'Anaheim', 'Ducks', '8', 'Honda Center', '12', 'TOR', 'Toronto', 'Maple Leafs', '1', '0', '0', '0', '0', '0', '1', '2', '30', '34', '46.9', '6', '0', '0.0', '1', '0', '100.0', '0', '0', '4', '0', '38', '5', '13', '22']"
"['', '29624', '2016-01-07', '03:30:00 GMT', '12', 'TOR', 'Toronto', 'Maple Leafs', '28', 'LAK', 'Los Angeles', 'Kings', '25', 'Staples Center', '12', 'TOR', 'Toronto', 'Maple Leafs', '0', '1', '0', '0', '0', '0', '0', '0', '37', '28', '56.9', '5', '1', '20.0', '2', '0', '100.0', '0', '0', '1', '2', '26', '4', '19', '24']"
"['', '29637', '2016-01-09', '00:00:00 GMT', '12', 'TOR', 'Toronto', 'Maple Leafs', '26', 'SJS', 'San Jose', 'Sharks', '9', 'SAP Center at San Jose', '12', 'TOR', 'Toronto', 'Maple Leafs', '0', '1', '0', '0', '0', '0', '0', '0', '25', '27', '48.1', '3', '0', '0.0', '4', '0', '100.0', '0', '1', '0', '7', '28', '5', '13', '24']"
"['', '29660', '2016-01-13', '00:00:00 GMT', '19', 'CBJ', 'Columbus', 'Blue Jackets', '12', 'TOR', 'Toronto', 'Maple Leafs', '1', 'Air Canada Center', '12', 'TOR', 'Toronto', 'Maple Leafs', '0', '1', '0', '0', '0', '0', '0', '0', '36', '27', '57.1', '3', '0', '0.0', '2', '1', '50.0', '0', '0', '1', '3', '42', '2', '4', '34']"
"['', '29673', '2016-01-15', '00:00:00 GMT', '20', 'CHI', 'Chicago', 'Blackhawks', '12', 'TOR', 'Toronto', 'Maple Leafs', '1', 'Air Canada Center', '12', 'TOR', 'Toronto', 'Maple Leafs', '0', '1', '0', '0', '0', '0', '0', '0', '28', '23', '54.9', '3', '0', '0.0', '6', '2', '66.7', '0', '0', '1', '4', '29', '6', '12', '26']"
"['', '29680', '2016-01-16', '00:00:00 GMT', '12', 'TOR', 'Toronto', 'Maple Leafs', '11', 'BOS', 'Boston', 'Bruins', '27', 'TD Garden', '12', 'TOR', 'Toronto', 'Maple Leafs', '0', '1', '0', '0', '0', '0', '0', '0', '40', '30', '57.1', '5', '0', '0.0', '1', '0', '100.0', '0', '0', '2', '3', '29', '4', '11', '30']"
"['', '29702', '2016-01-19', '00:00:00 GMT', '12', 'TOR', 'Toronto', 'Maple Leafs', '6', 'PHI', 'Philadelphia', 'Flyers', '29', 'Wells Fargo Center', '12', 'TOR', 'Toronto', 'Maple Leafs', '1', '0', '0', '0', '0', '0', '1', '2', '38', '31', '55.1', '3', '0', '0.0', '3', '1', '66.7', '0', '0', '3', '2', '35', '5', '13', '20']"
"['', '29715', '2016-01-21', '00:30:00 GMT', '3', 'CAR', 'Carolina', 'Hurricanes', '12', 'TOR', 'Toronto', 'Maple Leafs', '1', 'Air Canada Center', '12', 'TOR', 'Toronto', 'Maple Leafs', '0', '0', '0', '1', '0', '0', '0', '1', '27', '26', '50.9', '2', '0', '0.0', '4', '0', '100.0', '0', '0', '0', '1', '32', '5', '10', '19']"
"['', '29730', '2016-01-23', '00:00:00 GMT', '14', 'MTL', 'Montreal', 'Canadiens', '12', 'TOR', 'Toronto', 'Maple Leafs', '1', 'Air Canada Center', '12', 'TOR', 'Toronto', 'Maple Leafs', '0', '0', '0', '1', '0', '0', '0', '1', '30', '25', '54.5', '2', '0', '0.0', '4', '0', '100.0', '0', '0', '2', '2', '19', '4', '8', '46']"
"['', '29754', '2016-01-26', '00:30:00 GMT', '12', 'TOR', 'Toronto', 'Maple Leafs', '4', 'FLO', 'Florida', 'Panthers', '3', 'BB&T Center', '12', 'TOR', 'Toronto', 'Maple Leafs', '0', '1', '0', '0', '0', '0', '0', '0', '31', '29', '51.7', '2', '0', '0.0', '5', '2', '60.0', '0', '0', '1', '5', '23', '8', '22', '36']"
"['', '29758', '2016-01-27', '00:00:00 GMT', '12', 'TOR', 'Toronto', 'Maple Leafs', '1', 'TBL', 'Tampa Bay', 'Lightning', '26', 'Amalie Arena', '12', 'TOR', 'Toronto', 'Maple Leafs', '0', '1', '0', '0', '0', '0', '0', '0', '28', '31', '47.5', '3', '0', '0.0', '6', '1', '83.3', '0', '0', '0', '1', '30', '7', '14', '41']"
"['', '29762', '2016-02-02', '00:00:00 GMT', '12', 'TOR', 'Toronto', 'Maple Leafs', '11', 'BOS', 'Boston', 'Bruins', '27', 'TD Garden', '12', 'TOR', 'Toronto', 'Maple Leafs', '1', '0', '0', '0', '0', '0', '1', '2', '27', '40', '40.3', '3', '1', '33.3', '4', '0', '100.0', '0', '0', '4', '3', '35', '5', '10', '29']"
"['', '29780', '2016-02-04', '00:30:00 GMT', '7', 'NJD', 'New Jersey', 'Devils', '12', 'TOR', 'Toronto', 'Maple Leafs', '1', 'Air Canada Center', '12', 'TOR', 'Toronto', 'Maple Leafs', '1', '0', '0', '0', '0', '0', '0', '2', '47', '27', '63.5', '4', '0', '0.0', '6', '1', '83.3', '0', '0', '2', '2', '39', '6', '12', '38']"
"['', '29798', '2016-02-06', '00:00:00 GMT', '12', 'TOR', 'Toronto', 'Maple Leafs', '13', 'OTT', 'Ottawa', 'Senators', '23', 'Canadian Tire Centre', '12', 'TOR', 'Toronto', 'Maple Leafs', '0', '1', '0', '0', '0', '0', '0', '0', '28', '27', '50.9', '4', '0', '0.0', '3', '0', '100.0', '0', '0', '1', '6', '27', '5', '10', '33']"
"['', '29823', '2016-02-09', '02:00:00 GMT', '12', 'TOR', 'Toronto', 'Maple Leafs', '23', 'CGY', 'Calgary', 'Flames', '18', 'Scotiabank Saddledome', '12', 'TOR', 'Toronto', 'Maple Leafs', '0', '1', '0', '0', '0', '0', '0', '0', '38', '36', '51.4', '3', '1', '33.3', '3', '1', '66.7', '0', '1', '3', '4', '36', '4', '8', '15']"
"['', '29834', '2016-02-11', '02:00:00 GMT', '12', 'TOR', 'Toronto', 'Maple Leafs', '24', 'EDM', 'Edmonton', 'Oilers', '22', 'Rogers Place', '12', 'TOR', 'Toronto', 'Maple Leafs', '0', '1', '0', '0', '0', '0', '0', '0', '32', '28', '53.3', '5', '0', '0.0', '5', '1', '80.0', '0', '0', '2', '5', '36', '7', '22', '18']"
"['', '29848', '2016-02-13', '00:00:00 GMT', '12', 'TOR', 'Toronto', 'Maple Leafs', '21', 'VAN', 'Vancouver', 'Canucks', '7', 'Rogers Arena', '12', 'TOR', 'Toronto', 'Maple Leafs', '1', '0', '0', '0', '0', '0', '1', '2', '33', '34', '49.3', '4', '0', '0.0', '3', '0', '100.0', '0', '0', '5', '2', '38', '5', '10', '15']"
"['', '29862', '2016-02-15', '01:30:00 GMT', '12', 'TOR', 'Toronto', 'Maple Leafs', '20', 'CHI', 'Chicago', 'Blackhawks', '28', 'United Center', '12', 'TOR', 'Toronto', 'Maple Leafs', '0', '1', '0', '0', '0', '0', '0', '0', '31', '29', '51.7', '4', '1', '25.0', '6', '4', '33.3', '0', '0', '2', '7', '37', '6', '14', '33']"
"['', '29878', '2016-02-18', '00:30:00 GMT', '9', 'NYR', 'New York', 'Rangers', '12', 'TOR', 'Toronto', 'Maple Leafs', '1', 'Air Canada Center', '12', 'TOR', 'Toronto', 'Maple Leafs', '0', '1', '0', '0', '0', '0', '0', '0', '36', '25', '59.0', '5', '0', '0.0', '3', '1', '66.7', '0', '0', '2', '4', '37', '3', '16', '26']"
"['', '29893', '2016-02-20', '00:00:00 GMT', '6', 'PHI', 'Philadelphia', 'Flyers', '12', 'TOR', 'Toronto', 'Maple Leafs', '1', 'Air Canada Center', '12', 'TOR', 'Toronto', 'Maple Leafs', '0', '0', '0', '1', '0', '0', '0', '1', '35', '38', '47.9', '2', '0', '0.0', '1', '0', '100.0', '0', '0', '4', '5', '24', '1', '2', '46']"
"['', '29913', '2016-02-23', '00:30:00 GMT', '18', 'NSH', 'Nashville', 'Predators', '12', 'TOR', 'Toronto', 'Maple Leafs', '1', 'Air Canada Center', '12', 'TOR', 'Toronto', 'Maple Leafs', '0', '1', '0', '0', '0', '0', '0', '0', '28', '21', '57.1', '4', '1', '25.0', '2', '1', '50.0', '0', '0', '2', '3', '27', '2', '4', '21']"
"['', '29926', '2016-02-25', '00:30:00 GMT', '3', 'CAR', 'Carolina', 'Hurricanes', '12', 'TOR', 'Toronto', 'Maple Leafs', '1', 'Air Canada Center', '12', 'TOR', 'Toronto', 'Maple Leafs', '1', '0', '0', '0', '0', '0', '1', '2', '31', '35', '47.0', '4', '1', '25.0', '4', '0', '100.0', '0', '0', '3', '1', '29', '6', '12', '21']"
"['', '29944', '2016-02-27', '00:00:00 GMT', '12', 'TOR', 'Toronto', 'Maple Leafs', '14', 'MTL', 'Montreal', 'Canadiens', '4', 'Bell Centre', '12', 'TOR', 'Toronto', 'Maple Leafs', '0', '1', '0', '0', '0', '0', '0', '0', '35', '40', '46.7', '2', '0', '0.0', '4', '0', '100.0', '0', '0', '1', '4', '32', '4', '8', '32']"
"['', '29958', '2016-02-29', '00:30:00 GMT', '1', 'TBL', 'Tampa Bay', 'Lightning', '12', 'TOR', 'Toronto', 'Maple Leafs', '1', 'Air Canada Center', '12', 'TOR', 'Toronto', 'Maple Leafs', '0', '1', '0', '0', '0', '0', '0', '0', '31', '19', '62.0', '2', '0', '0.0', '1', '0', '100.0', '0', '0', '1', '2', '32', '3', '9', '22']"
"['', '29969', '2016-03-02', '00:00:00 GMT', '12', 'TOR', 'Toronto', 'Maple Leafs', '5', 'WSH', 'Washington', 'Capitals', '13', 'Verizon Center', '12', 'TOR', 'Toronto', 'Maple Leafs', '0', '1', '0', '0', '0', '0', '0', '0', '22', '36', '37.9', '4', '0', '0.0', '4', '1', '75.0', '0', '0', '2', '3', '29', '5', '10', '26']"
"['', '29976', '2016-03-03', '00:30:00 GMT', '25', 'MIN', 'Minnesota', 'Wild', '12', 'TOR', 'Toronto', 'Maple Leafs', '1', 'Air Canada Center', '12', 'TOR', 'Toronto', 'Maple Leafs', '0', '1', '0', '0', '0', '0', '0', '0', '27', '26', '50.9', '0', '0', '0.0', '4', '2', '50.0', '0', '0', '1', '2', '22', '4', '8', '30']"
"['', '29992', '2016-03-05', '00:00:00 GMT', '13', 'OTT', 'Ottawa', 'Senators', '12', 'TOR', 'Toronto', 'Maple Leafs', '1', 'Air Canada Center', '12', 'TOR', 'Toronto', 'Maple Leafs', '0', '1', '0', '0', '0', '0', '0', '0', '37', '29', '56.1', '3', '1', '33.3', '1', '0', '100.0', '0', '0', '2', '3', '43', '2', '7', '30']"
"['', '30005', '2016-03-07', '00:30:00 GMT', '15', 'BUF', 'Buffalo', 'Sabres', '12', 'TOR', 'Toronto', 'Maple Leafs', '1', 'Air Canada Center', '12', 'TOR', 'Toronto', 'Maple Leafs', '0', '0', '0', '1', '0', '0', '0', '1', '29', '30', '49.2', '3', '1', '33.3', '4', '0', '100.0', '0', '0', '3', '3', '33', '7', '14', '32']"
"['', '30019', '2016-03-09', '00:00:00 GMT', '8', 'NYI', 'New York', 'Islanders', '12', 'TOR', 'Toronto', 'Maple Leafs', '1', 'Air Canada Center', '12', 'TOR', 'Toronto', 'Maple Leafs', '1', '0', '0', '0', '0', '0', '0', '2', '32', '34', '48.5', '4', '2', '50.0', '1', '0', '100.0', '0', '0', '3', '3', '36', '3', '6', '22']"
"['', '30040', '2016-03-12', '00:00:00 GMT', '12', 'TOR', 'Toronto', 'Maple Leafs', '13', 'OTT', 'Ottawa', 'Senators', '23', 'Canadian Tire Centre', '12', 'TOR', 'Toronto', 'Maple Leafs', '0', '1', '0', '0', '0', '0', '0', '0', '34', '26', '56.7', '4', '0', '0.0', '4', '0', '100.0', '0', '0', '0', '4', '29', '3', '6', '26']"
"['', '30050', '2016-03-13', '23:30:00 GMT', '12', 'TOR', 'Toronto', 'Maple Leafs', '16', 'DET', 'Detroit', 'Red Wings', '11', 'Joe Louis Arena', '12', 'TOR', 'Toronto', 'Maple Leafs', '1', '0', '0', '0', '0', '0', '1', '2', '30', '33', '47.6', '2', '0', '0.0', '3', '0', '100.0', '0', '0', '1', '0', '27', '3', '6', '18']"
"['', '30060', '2016-03-15', '23:30:00 GMT', '1', 'TBL', 'Tampa Bay', 'Lightning', '12', 'TOR', 'Toronto', 'Maple Leafs', '1', 'Air Canada Center', '12', 'TOR', 'Toronto', 'Maple Leafs', '1', '0', '0', '0', '0', '0', '1', '2', '20', '33', '37.7', '3', '0', '0.0', '3', '0', '100.0', '0', '0', '4', '1', '24', '5', '10', '21']"
"['', '30074', '2016-03-17', '23:30:00 GMT', '4', 'FLO', 'Florida', 'Panthers', '12', 'TOR', 'Toronto', 'Maple Leafs', '1', 'Air Canada Center', '12', 'TOR', 'Toronto', 'Maple Leafs', '0', '1', '0', '0', '0', '0', '0', '0', '36', '27', '57.1', '2', '0', '0.0', '4', '1', '75.0', '0', '0', '1', '4', '33', '4', '8', '20']"
"['', '30088', '2016-03-19', '23:00:00 GMT', '15', 'BUF', 'Buffalo', 'Sabres', '12', 'TOR', 'Toronto', 'Maple Leafs', '1', 'Air Canada Center', '12', 'TOR', 'Toronto', 'Maple Leafs', '1', '0', '0', '0', '0', '0', '1', '2', '28', '28', '50.0', '2', '0', '0.0', '3', '0', '100.0', '0', '0', '4', '1', '31', '6', '20', '19']"
"['', '30105', '2016-03-21', '23:30:00 GMT', '23', 'CGY', 'Calgary', 'Flames', '12', 'TOR', 'Toronto', 'Maple Leafs', '1', 'Air Canada Center', '12', 'TOR', 'Toronto', 'Maple Leafs', '1', '0', '0', '0', '0', '0', '1', '2', '29', '38', '43.3', '6', '0', '0.0', '2', '0', '100.0', '0', '1', '5', '2', '26', '3', '6', '10']"
"['', '30122', '2016-03-24', '23:30:00 GMT', '29', 'ANA', 'Anaheim', 'Ducks', '12', 'TOR', 'Toronto', 'Maple Leafs', '1', 'Air Canada Center', '12', 'TOR', 'Toronto', 'Maple Leafs', '1', '0', '0', '0', '0', '0', '1', '2', '31', '29', '51.7', '5', '3', '60.0', '4', '2', '50.0', '0', '1', '6', '5', '26', '4', '8', '20']"
"['', '30137', '2016-03-26', '23:00:00 GMT', '11', 'BOS', 'Boston', 'Bruins', '12', 'TOR', 'Toronto', 'Maple Leafs', '1', 'Air Canada Center', '12', 'TOR', 'Toronto', 'Maple Leafs', '0', '1', '0', '0', '0', '0', '0', '0', '36', '29', '55.4', '2', '0', '0.0', '4', '2', '50.0', '0', '0', '1', '3', '26', '6', '12', '26']"
"['', '30153', '2016-03-28', '23:30:00 GMT', '12', 'TOR', 'Toronto', 'Maple Leafs', '1', 'TBL', 'Tampa Bay', 'Lightning', '26', 'Amalie Arena', '12', 'TOR', 'Toronto', 'Maple Leafs', '0', '1', '0', '0', '0', '0', '0', '0', '27', '25', '51.9', '8', '0', '0.0', '3', '0', '100.0', '0', '0', '0', '3', '34', '5', '10', '22']"
"['', '30162', '2016-03-29', '23:30:00 GMT', '12', 'TOR', 'Toronto', 'Maple Leafs', '4', 'FLO', 'Florida', 'Panthers', '3', 'BB&T Center', '12', 'TOR', 'Toronto', 'Maple Leafs', '1', '0', '0', '0', '0', '0', '1', '2', '28', '32', '46.7', '4', '3', '75.0', '3', '0', '100.0', '1', '0', '5', '2', '29', '4', '8', '10']"
"['', '30170', '2016-03-31', '23:00:00 GMT', '12', 'TOR', 'Toronto', 'Maple Leafs', '15', 'BUF', 'Buffalo', 'Sabres', '10', 'First Niagara Center', '12', 'TOR', 'Toronto', 'Maple Leafs', '0', '1', '0', '0', '0', '0', '0', '0', '26', '39', '40.0', '4', '0', '0.0', '4', '1', '75.0', '0', '0', '1', '4', '26', '5', '10', '14']"
"['', '30188', '2016-04-02', '23:00:00 GMT', '16', 'DET', 'Detroit', 'Red Wings', '12', 'TOR', 'Toronto', 'Maple Leafs', '1', 'Air Canada Center', '12', 'TOR', 'Toronto', 'Maple Leafs', '0', '1', '0', '0', '0', '0', '0', '0', '28', '34', '45.2', '3', '0', '0.0', '3', '1', '66.7', '0', '0', '2', '3', '34', '4', '8', '14']"
"['', '30203', '2016-04-04', '23:30:00 GMT', '4', 'FLO', 'Florida', 'Panthers', '12', 'TOR', 'Toronto', 'Maple Leafs', '1', 'Air Canada Center', '12', 'TOR', 'Toronto', 'Maple Leafs', '0', '1', '0', '0', '0', '0', '0', '0', '30', '46', '39.5', '2', '1', '50.0', '5', '0', '100.0', '0', '0', '3', '4', '26', '5', '10', '24']"
"['', '30217', '2016-04-06', '23:00:00 GMT', '19', 'CBJ', 'Columbus', 'Blue Jackets', '12', 'TOR', 'Toronto', 'Maple Leafs', '1', 'Air Canada Center', '12', 'TOR', 'Toronto', 'Maple Leafs', '0', '1', '0', '0', '0', '0', '0', '0', '32', '27', '54.2', '2', '0', '0.0', '2', '0', '100.0', '1', '0', '1', '5', '27', '2', '4', '20']"
"['', '30223', '2016-04-07', '23:00:00 GMT', '12', 'TOR', 'Toronto', 'Maple Leafs', '6', 'PHI', 'Philadelphia', 'Flyers', '29', 'Wells Fargo Center', '12', 'TOR', 'Toronto', 'Maple Leafs', '1', '0', '0', '0', '0', '0', '1', '2', '28', '41', '40.6', '2', '1', '50.0', '4', '0', '100.0', '0', '0', '4', '3', '26', '3', '8', '22']"
"['', '30240', '2016-04-09', '23:00:00 GMT', '12', 'TOR', 'Toronto', 'Maple Leafs', '7', 'NJD', 'New Jersey', 'Devils', '37', 'Prudential Center', '12', 'TOR', 'Toronto', 'Maple Leafs', '0', '1', '0', '0', '0', '0', '0', '0', '24', '20', '54.5', '3', '0', '0.0', '6', '0', '100.0', '0', '0', '1', '5', '20', '6', '12', '12']"
