"['#Date/Time of Update: 2018-12-06 22:31:34 GMT', '#Game ID', '#Game Date', '#Game Time', '#Away Team ID', '#Away Team Abbr.', '#Away Team City', '#Away Team Name', '#Home Team ID', '#Home Team Abbr.', '#Home Team City', '#Home Team Name', '#Venue ID', '#Venue Name', '#Team ID', '#Team Abbr.', '#Team City', '#Team Name', '#Wins', '#Losses', '#OvertimeWins', '#OvertimeLosses', '#ShootoutWins', '#ShootoutLosses', '#Points', '#FaceoffWins', '#FaceoffLosses', '#FaceoffPercent', '#Powerplays', '#PowerplayGoals', '#PowerplayPercent', '#PenaltyKills', '#PenaltyKillGoalsAllowed', '#PenaltyKillPercent', '#ShorthandedGoalsFor', '#ShorthandedGoalsAgainst', '#GoalsFor', '#GoalsAgainst', '#Shots', '#Penalties', '#PenaltyMinutes', '#Hits']"
"['', '8685', '2009-10-01', '23:00:00 GMT', '14', 'MTL', 'Montreal', 'Canadiens', '12', 'TOR', 'Toronto', 'Maple Leafs', '1', 'Air Canada Center', '12', 'TOR', 'Toronto', 'Maple Leafs', '0', '0', '0', '1', '0', '0', '1', '31', '31', '50.0', '3', '2', '66.7', '4', '2', '50.0', '0', '0', '3', '4', '43', '9', '27', '22']"
"['', '8700', '2009-10-03', '23:00:00 GMT', '12', 'TOR', 'Toronto', 'Maple Leafs', '5', 'WSH', 'Washington', 'Capitals', '13', 'Verizon Center', '12', 'TOR', 'Toronto', 'Maple Leafs', '0', '1', '0', '0', '0', '0', '0', '25', '31', '44.6', '3', '0', '0.0', '3', '1', '66.7', '0', '0', '4', '6', '27', '3', '6', '22']"
"['', '8711', '2009-10-06', '23:00:00 GMT', '13', 'OTT', 'Ottawa', 'Senators', '12', 'TOR', 'Toronto', 'Maple Leafs', '1', 'Air Canada Center', '12', 'TOR', 'Toronto', 'Maple Leafs', '0', '1', '0', '0', '0', '0', '0', '24', '27', '47.1', '3', '1', '33.3', '1', '0', '100.0', '0', '0', '1', '2', '26', '3', '6', '27']"
"['', '8736', '2009-10-10', '23:00:00 GMT', '10', 'PIT', 'Pittsburgh', 'Penguins', '12', 'TOR', 'Toronto', 'Maple Leafs', '1', 'Air Canada Center', '12', 'TOR', 'Toronto', 'Maple Leafs', '0', '1', '0', '0', '0', '0', '0', '29', '34', '46.0', '2', '0', '0.0', '6', '3', '50.0', '0', '0', '2', '5', '18', '9', '27', '32']"
"['', '8749', '2009-10-12', '23:00:00 GMT', '12', 'TOR', 'Toronto', 'Maple Leafs', '9', 'NYR', 'New York', 'Rangers', '12', 'Madison Square Garden', '12', 'TOR', 'Toronto', 'Maple Leafs', '0', '1', '0', '0', '0', '0', '0', '34', '22', '60.7', '3', '1', '33.3', '5', '2', '60.0', '0', '0', '2', '7', '27', '8', '19', '43']"
"['', '8758', '2009-10-13', '23:30:00 GMT', '22', 'COL', 'Colorado', 'Avalanche', '12', 'TOR', 'Toronto', 'Maple Leafs', '1', 'Air Canada Center', '12', 'TOR', 'Toronto', 'Maple Leafs', '0', '1', '0', '0', '0', '0', '0', '23', '30', '43.4', '3', '1', '33.3', '4', '2', '50.0', '0', '0', '1', '4', '30', '8', '22', '21']"
"['', '8781', '2009-10-17', '23:00:00 GMT', '9', 'NYR', 'New York', 'Rangers', '12', 'TOR', 'Toronto', 'Maple Leafs', '1', 'Air Canada Center', '12', 'TOR', 'Toronto', 'Maple Leafs', '0', '1', '0', '0', '0', '0', '0', '24', '37', '39.3', '6', '0', '0.0', '3', '1', '66.7', '0', '0', '1', '4', '34', '4', '8', '17']"
"['', '8817', '2009-10-24', '23:00:00 GMT', '12', 'TOR', 'Toronto', 'Maple Leafs', '21', 'VAN', 'Vancouver', 'Canucks', '7', 'General Motors Place', '12', 'TOR', 'Toronto', 'Maple Leafs', '0', '1', '0', '0', '0', '0', '0', '29', '25', '53.7', '4', '1', '25.0', '7', '2', '71.4', '0', '0', '1', '3', '35', '9', '21', '17']"
"['', '8834', '2009-10-26', '02:00:00 GMT', '12', 'TOR', 'Toronto', 'Maple Leafs', '29', 'ANA', 'Anaheim', 'Ducks', '8', 'Honda Center', '12', 'TOR', 'Toronto', 'Maple Leafs', '1', '0', '0', '0', '0', '0', '2', '33', '34', '49.3', '9', '4', '44.4', '3', '1', '66.7', '0', '0', '6', '3', '33', '10', '31', '18']"
"['', '8844', '2009-10-28', '00:00:00 GMT', '12', 'TOR', 'Toronto', 'Maple Leafs', '27', 'DAL', 'Dallas', 'Stars', '2', 'American Airlines Center', '12', 'TOR', 'Toronto', 'Maple Leafs', '0', '0', '0', '1', '0', '0', '1', '38', '27', '58.5', '2', '1', '50.0', '3', '1', '66.7', '0', '0', '3', '4', '33', '3', '6', '33']"
"['', '8857', '2009-10-30', '23:30:00 GMT', '12', 'TOR', 'Toronto', 'Maple Leafs', '15', 'BUF', 'Buffalo', 'Sabres', '10', 'HSBC Arena', '12', 'TOR', 'Toronto', 'Maple Leafs', '0', '0', '0', '1', '0', '0', '1', '33', '31', '51.6', '3', '0', '0.0', '7', '2', '71.4', '1', '0', '2', '3', '33', '8', '16', '13']"
"['', '8867', '2009-10-31', '23:00:00 GMT', '12', 'TOR', 'Toronto', 'Maple Leafs', '14', 'MTL', 'Montreal', 'Canadiens', '4', 'Bell Centre', '12', 'TOR', 'Toronto', 'Maple Leafs', '0', '0', '0', '1', '0', '0', '1', '26', '50', '34.2', '7', '2', '28.6', '4', '0', '100.0', '0', '0', '4', '4', '26', '7', '14', '17']"
"['', '8883', '2009-11-03', '00:30:00 GMT', '1', 'TBL', 'Tampa Bay', 'Lightning', '12', 'TOR', 'Toronto', 'Maple Leafs', '1', 'Air Canada Center', '12', 'TOR', 'Toronto', 'Maple Leafs', '0', '0', '0', '1', '0', '0', '1', '42', '27', '60.9', '7', '1', '14.3', '3', '0', '100.0', '0', '0', '1', '2', '40', '6', '15', '13']"
"['', '8902', '2009-11-06', '00:00:00 GMT', '12', 'TOR', 'Toronto', 'Maple Leafs', '3', 'CAR', 'Carolina', 'Hurricanes', '21', 'RBC Center', '12', 'TOR', 'Toronto', 'Maple Leafs', '1', '0', '0', '0', '0', '0', '2', '22', '33', '40.0', '2', '1', '50.0', '3', '0', '100.0', '0', '0', '3', '2', '23', '3', '6', '19']"
"['', '8914', '2009-11-07', '00:00:00 GMT', '16', 'DET', 'Detroit', 'Red Wings', '12', 'TOR', 'Toronto', 'Maple Leafs', '1', 'Air Canada Center', '12', 'TOR', 'Toronto', 'Maple Leafs', '1', '0', '0', '0', '0', '0', '2', '25', '25', '50.0', '4', '1', '25.0', '5', '0', '100.0', '0', '0', '5', '1', '23', '5', '10', '14']"
"['', '8925', '2009-11-10', '00:00:00 GMT', '25', 'MIN', 'Minnesota', 'Wild', '12', 'TOR', 'Toronto', 'Maple Leafs', '1', 'Air Canada Center', '12', 'TOR', 'Toronto', 'Maple Leafs', '0', '1', '0', '0', '0', '0', '0', '29', '24', '54.7', '4', '0', '0.0', '4', '2', '50.0', '0', '1', '2', '5', '37', '4', '8', '19']"
"['', '8950', '2009-11-13', '01:30:00 GMT', '12', 'TOR', 'Toronto', 'Maple Leafs', '20', 'CHI', 'Chicago', 'Blackhawks', '28', 'United Center', '12', 'TOR', 'Toronto', 'Maple Leafs', '0', '1', '0', '0', '0', '0', '0', '25', '36', '41.0', '2', '0', '0.0', '4', '1', '75.0', '0', '0', '2', '3', '29', '6', '15', '28']"
"['', '9917', '2009-11-14', '00:00:00 GMT', '23', 'CGY', 'Calgary', 'Flames', '12', 'TOR', 'Toronto', 'Maple Leafs', '1', 'Air Canada Center', '12', 'TOR', 'Toronto', 'Maple Leafs', '0', '1', '0', '0', '0', '0', '0', '35', '28', '55.6', '5', '2', '40.0', '2', '1', '50.0', '0', '0', '2', '5', '38', '5', '19', '33']"
"['', '8974', '2009-11-17', '00:30:00 GMT', '12', 'TOR', 'Toronto', 'Maple Leafs', '13', 'OTT', 'Ottawa', 'Senators', '23', 'Scotiabank Place', '12', 'TOR', 'Toronto', 'Maple Leafs', '0', '1', '0', '0', '0', '0', '0', '29', '28', '50.9', '1', '0', '0.0', '3', '1', '66.7', '0', '0', '2', '3', '30', '9', '38', '26']"
"['', '8982', '2009-11-19', '00:00:00 GMT', '12', 'TOR', 'Toronto', 'Maple Leafs', '3', 'CAR', 'Carolina', 'Hurricanes', '21', 'RBC Center', '12', 'TOR', 'Toronto', 'Maple Leafs', '0', '0', '0', '1', '0', '0', '1', '35', '37', '48.6', '4', '1', '25.0', '6', '1', '83.3', '0', '0', '5', '5', '27', '8', '22', '31']"
"['', '9001', '2009-11-21', '00:00:00 GMT', '5', 'WSH', 'Washington', 'Capitals', '12', 'TOR', 'Toronto', 'Maple Leafs', '1', 'Air Canada Center', '12', 'TOR', 'Toronto', 'Maple Leafs', '1', '0', '0', '0', '0', '0', '2', '31', '28', '52.5', '2', '0', '0.0', '4', '0', '100.0', '0', '0', '1', '1', '38', '4', '8', '18']"
"['', '9012', '2009-11-23', '00:00:00 GMT', '8', 'NYI', 'New York', 'Islanders', '12', 'TOR', 'Toronto', 'Maple Leafs', '1', 'Air Canada Center', '12', 'TOR', 'Toronto', 'Maple Leafs', '0', '0', '0', '1', '0', '0', '1', '42', '24', '63.6', '6', '0', '0.0', '2', '0', '100.0', '0', '1', '3', '4', '58', '2', '4', '7']"
"['', '9024', '2009-11-25', '00:00:00 GMT', '12', 'TOR', 'Toronto', 'Maple Leafs', '1', 'TBL', 'Tampa Bay', 'Lightning', '26', 'St. Pete Times Forum', '12', 'TOR', 'Toronto', 'Maple Leafs', '1', '0', '0', '0', '0', '0', '2', '38', '37', '50.7', '3', '0', '0.0', '2', '1', '50.0', '0', '0', '4', '3', '31', '3', '6', '15']"
"['', '9046', '2009-11-27', '00:30:00 GMT', '12', 'TOR', 'Toronto', 'Maple Leafs', '4', 'FLO', 'Florida', 'Panthers', '3', 'BankAtlantic Center', '12', 'TOR', 'Toronto', 'Maple Leafs', '1', '0', '0', '0', '0', '0', '2', '33', '33', '50.0', '5', '2', '40.0', '3', '2', '33.3', '0', '0', '6', '4', '27', '5', '13', '16']"
"['', '9067', '2009-11-30', '00:00:00 GMT', '15', 'BUF', 'Buffalo', 'Sabres', '12', 'TOR', 'Toronto', 'Maple Leafs', '1', 'Air Canada Center', '12', 'TOR', 'Toronto', 'Maple Leafs', '0', '1', '0', '0', '0', '0', '0', '23', '27', '46.0', '3', '0', '0.0', '2', '0', '100.0', '0', '0', '0', '3', '38', '3', '9', '25']"
"['', '9073', '2009-12-01', '00:30:00 GMT', '12', 'TOR', 'Toronto', 'Maple Leafs', '14', 'MTL', 'Montreal', 'Canadiens', '4', 'Bell Centre', '12', 'TOR', 'Toronto', 'Maple Leafs', '1', '0', '0', '0', '0', '0', '2', '29', '23', '55.8', '2', '0', '0.0', '2', '0', '100.0', '0', '0', '3', '0', '28', '2', '4', '14']"
"['', '9085', '2009-12-03', '00:00:00 GMT', '12', 'TOR', 'Toronto', 'Maple Leafs', '19', 'CBJ', 'Columbus', 'Blue Jackets', '17', 'Nationwide Arena', '12', 'TOR', 'Toronto', 'Maple Leafs', '1', '0', '0', '0', '0', '0', '2', '26', '31', '45.6', '3', '0', '0.0', '4', '2', '50.0', '1', '0', '6', '3', '19', '7', '17', '16']"
"['', '9099', '2009-12-05', '00:00:00 GMT', '12', 'TOR', 'Toronto', 'Maple Leafs', '11', 'BOS', 'Boston', 'Bruins', '27', 'TD Garden', '12', 'TOR', 'Toronto', 'Maple Leafs', '0', '1', '0', '0', '0', '0', '0', '27', '35', '43.5', '2', '0', '0.0', '3', '2', '33.3', '0', '0', '2', '7', '31', '10', '34', '28']"
"['', '9113', '2009-12-07', '00:00:00 GMT', '2', 'ATL', 'Atlanta', 'Thrashers', '12', 'TOR', 'Toronto', 'Maple Leafs', '1', 'Air Canada Center', '12', 'TOR', 'Toronto', 'Maple Leafs', '1', '0', '0', '0', '0', '0', '2', '28', '23', '54.9', '4', '0', '0.0', '2', '1', '50.0', '0', '0', '5', '2', '23', '2', '4', '33']"
"['', '9127', '2009-12-09', '00:00:00 GMT', '8', 'NYI', 'New York', 'Islanders', '12', 'TOR', 'Toronto', 'Maple Leafs', '1', 'Air Canada Center', '12', 'TOR', 'Toronto', 'Maple Leafs', '1', '0', '0', '0', '0', '0', '2', '35', '28', '55.6', '4', '1', '25.0', '4', '2', '50.0', '0', '0', '3', '2', '32', '5', '10', '19']"
"['', '9135', '2009-12-10', '00:00:00 GMT', '12', 'TOR', 'Toronto', 'Maple Leafs', '11', 'BOS', 'Boston', 'Bruins', '27', 'TD Garden', '12', 'TOR', 'Toronto', 'Maple Leafs', '0', '1', '0', '0', '0', '0', '0', '27', '22', '55.1', '2', '0', '0.0', '3', '2', '33.3', '0', '0', '2', '5', '32', '6', '15', '22']"
"['', '9153', '2009-12-12', '00:00:00 GMT', '5', 'WSH', 'Washington', 'Capitals', '12', 'TOR', 'Toronto', 'Maple Leafs', '1', 'Air Canada Center', '12', 'TOR', 'Toronto', 'Maple Leafs', '1', '0', '0', '0', '0', '0', '2', '29', '32', '47.5', '4', '2', '50.0', '2', '1', '50.0', '1', '0', '6', '3', '30', '3', '6', '17']"
"['', '9166', '2009-12-14', '00:00:00 GMT', '13', 'OTT', 'Ottawa', 'Senators', '12', 'TOR', 'Toronto', 'Maple Leafs', '1', 'Air Canada Center', '12', 'TOR', 'Toronto', 'Maple Leafs', '1', '0', '0', '0', '0', '0', '2', '29', '24', '54.7', '1', '0', '0.0', '3', '1', '66.7', '0', '0', '3', '2', '21', '5', '13', '19']"
"['', '9181', '2009-12-16', '00:30:00 GMT', '30', 'PHX', 'Phoenix', 'Coyotes', '12', 'TOR', 'Toronto', 'Maple Leafs', '1', 'Air Canada Center', '12', 'TOR', 'Toronto', 'Maple Leafs', '0', '1', '0', '0', '0', '0', '0', '28', '28', '50.0', '4', '1', '25.0', '2', '1', '50.0', '0', '0', '3', '6', '27', '2', '4', '21']"
"['', '9195', '2009-12-18', '00:30:00 GMT', '12', 'TOR', 'Toronto', 'Maple Leafs', '15', 'BUF', 'Buffalo', 'Sabres', '10', 'HSBC Arena', '12', 'TOR', 'Toronto', 'Maple Leafs', '0', '1', '0', '0', '0', '0', '0', '25', '28', '47.2', '1', '0', '0.0', '2', '0', '100.0', '0', '0', '2', '5', '40', '2', '4', '15']"
"['', '9208', '2009-12-19', '00:00:00 GMT', '11', 'BOS', 'Boston', 'Bruins', '12', 'TOR', 'Toronto', 'Maple Leafs', '1', 'Air Canada Center', '12', 'TOR', 'Toronto', 'Maple Leafs', '1', '0', '0', '0', '0', '0', '2', '32', '28', '53.3', '3', '0', '0.0', '3', '0', '100.0', '0', '0', '2', '0', '29', '3', '6', '13']"
"['', '9217', '2009-12-21', '00:00:00 GMT', '15', 'BUF', 'Buffalo', 'Sabres', '12', 'TOR', 'Toronto', 'Maple Leafs', '1', 'Air Canada Center', '12', 'TOR', 'Toronto', 'Maple Leafs', '0', '0', '0', '1', '0', '0', '1', '37', '22', '62.7', '0', '0', '0.0', '1', '0', '100.0', '0', '0', '2', '3', '34', '1', '2', '31']"
"['', '9230', '2009-12-23', '00:00:00 GMT', '12', 'TOR', 'Toronto', 'Maple Leafs', '8', 'NYI', 'New York', 'Islanders', '16', 'Nassau Veterans Memorial Coliseum', '12', 'TOR', 'Toronto', 'Maple Leafs', '0', '1', '0', '0', '0', '0', '0', '21', '24', '46.7', '2', '0', '0.0', '4', '0', '100.0', '0', '0', '1', '3', '26', '4', '8', '15']"
"['', '9244', '2009-12-26', '00:00:00 GMT', '14', 'MTL', 'Montreal', 'Canadiens', '12', 'TOR', 'Toronto', 'Maple Leafs', '1', 'Air Canada Center', '12', 'TOR', 'Toronto', 'Maple Leafs', '0', '0', '0', '1', '0', '0', '1', '39', '20', '66.1', '3', '0', '0.0', '2', '1', '50.0', '0', '0', '2', '3', '47', '2', '4', '19']"
"['', '9257', '2009-12-27', '00:00:00 GMT', '12', 'TOR', 'Toronto', 'Maple Leafs', '10', 'PIT', 'Pittsburgh', 'Penguins', '14', 'Mellon Arena', '12', 'TOR', 'Toronto', 'Maple Leafs', '1', '0', '0', '0', '0', '0', '2', '22', '36', '37.9', '4', '1', '25.0', '2', '1', '50.0', '0', '0', '4', '3', '23', '2', '4', '21']"
"['', '9279', '2009-12-30', '02:30:00 GMT', '12', 'TOR', 'Toronto', 'Maple Leafs', '24', 'EDM', 'Edmonton', 'Oilers', '22', 'Rogers Place', '12', 'TOR', 'Toronto', 'Maple Leafs', '0', '1', '0', '0', '0', '0', '0', '27', '32', '45.8', '2', '1', '50.0', '2', '2', '0.0', '0', '0', '1', '3', '27', '4', '11', '20']"
"['', '9298', '2010-01-02', '00:00:00 GMT', '12', 'TOR', 'Toronto', 'Maple Leafs', '23', 'CGY', 'Calgary', 'Flames', '18', 'Pengrowth Saddledome', '12', 'TOR', 'Toronto', 'Maple Leafs', '0', '1', '0', '0', '0', '0', '0', '36', '36', '50.0', '4', '0', '0.0', '3', '1', '66.7', '0', '0', '1', '3', '24', '4', '8', '11']"
"['', '9313', '2010-01-05', '00:00:00 GMT', '4', 'FLO', 'Florida', 'Panthers', '12', 'TOR', 'Toronto', 'Maple Leafs', '1', 'Air Canada Center', '12', 'TOR', 'Toronto', 'Maple Leafs', '1', '0', '0', '0', '0', '0', '2', '19', '35', '35.2', '1', '1', '100.0', '3', '1', '66.7', '0', '0', '3', '2', '28', '3', '6', '18']"
"['', '9324', '2010-01-06', '00:00:00 GMT', '12', 'TOR', 'Toronto', 'Maple Leafs', '6', 'PHI', 'Philadelphia', 'Flyers', '29', 'Wachovia Center', '12', 'TOR', 'Toronto', 'Maple Leafs', '0', '1', '0', '0', '0', '0', '0', '29', '33', '46.8', '4', '0', '0.0', '6', '3', '50.0', '0', '0', '2', '6', '30', '11', '42', '22']"
"['', '9340', '2010-01-08', '00:30:00 GMT', '12', 'TOR', 'Toronto', 'Maple Leafs', '15', 'BUF', 'Buffalo', 'Sabres', '10', 'HSBC Arena', '12', 'TOR', 'Toronto', 'Maple Leafs', '0', '1', '0', '0', '0', '0', '0', '28', '26', '51.9', '4', '0', '0.0', '2', '2', '0.0', '0', '0', '2', '3', '48', '3', '6', '26']"
"['', '9348', '2010-01-09', '00:00:00 GMT', '10', 'PIT', 'Pittsburgh', 'Penguins', '12', 'TOR', 'Toronto', 'Maple Leafs', '1', 'Air Canada Center', '12', 'TOR', 'Toronto', 'Maple Leafs', '0', '1', '0', '0', '0', '0', '0', '25', '34', '42.4', '3', '1', '33.3', '3', '1', '66.7', '0', '0', '1', '4', '42', '3', '6', '15']"
"['', '9366', '2010-01-12', '00:00:00 GMT', '3', 'CAR', 'Carolina', 'Hurricanes', '12', 'TOR', 'Toronto', 'Maple Leafs', '1', 'Air Canada Center', '12', 'TOR', 'Toronto', 'Maple Leafs', '0', '1', '0', '0', '0', '0', '0', '24', '16', '60.0', '3', '0', '0.0', '2', '1', '50.0', '0', '0', '2', '4', '38', '2', '4', '17']"
"['', '9377', '2010-01-14', '00:00:00 GMT', '6', 'PHI', 'Philadelphia', 'Flyers', '12', 'TOR', 'Toronto', 'Maple Leafs', '1', 'Air Canada Center', '12', 'TOR', 'Toronto', 'Maple Leafs', '1', '0', '0', '0', '0', '0', '2', '28', '30', '48.3', '3', '0', '0.0', '4', '0', '100.0', '0', '0', '4', '0', '31', '5', '10', '18']"
"['', '9388', '2010-01-15', '00:00:00 GMT', '12', 'TOR', 'Toronto', 'Maple Leafs', '5', 'WSH', 'Washington', 'Capitals', '13', 'Verizon Center', '12', 'TOR', 'Toronto', 'Maple Leafs', '0', '1', '0', '0', '0', '0', '0', '31', '24', '56.4', '6', '1', '16.7', '5', '2', '60.0', '0', '0', '1', '6', '28', '9', '24', '21']"
"['', '9413', '2010-01-18', '01:00:00 GMT', '12', 'TOR', 'Toronto', 'Maple Leafs', '18', 'NSH', 'Nashville', 'Predators', '15', 'Sommet Center', '12', 'TOR', 'Toronto', 'Maple Leafs', '1', '0', '0', '0', '0', '0', '2', '21', '24', '46.7', '3', '0', '0.0', '2', '0', '100.0', '0', '0', '4', '3', '18', '2', '4', '14']"
"['', '9419', '2010-01-19', '00:00:00 GMT', '12', 'TOR', 'Toronto', 'Maple Leafs', '2', 'ATL', 'Atlanta', 'Thrashers', '20', 'Philips Arena', '12', 'TOR', 'Toronto', 'Maple Leafs', '0', '1', '0', '0', '0', '0', '0', '27', '23', '54.0', '5', '0', '0.0', '7', '1', '85.7', '0', '0', '3', '4', '37', '8', '16', '10']"
"['', '9431', '2010-01-21', '00:00:00 GMT', '12', 'TOR', 'Toronto', 'Maple Leafs', '1', 'TBL', 'Tampa Bay', 'Lightning', '26', 'St. Pete Times Forum', '12', 'TOR', 'Toronto', 'Maple Leafs', '0', '0', '0', '1', '0', '0', '1', '29', '26', '52.7', '6', '2', '33.3', '6', '2', '66.7', '0', '0', '2', '3', '20', '12', '38', '21']"
"['', '9449', '2010-01-23', '00:00:00 GMT', '12', 'TOR', 'Toronto', 'Maple Leafs', '4', 'FLO', 'Florida', 'Panthers', '3', 'BankAtlantic Center', '12', 'TOR', 'Toronto', 'Maple Leafs', '0', '1', '0', '0', '0', '0', '0', '30', '24', '55.6', '3', '0', '0.0', '3', '1', '66.7', '0', '0', '0', '2', '39', '3', '6', '15']"
"['', '9463', '2010-01-26', '00:00:00 GMT', '28', 'LAK', 'Los Angeles', 'Kings', '12', 'TOR', 'Toronto', 'Maple Leafs', '1', 'Air Canada Center', '12', 'TOR', 'Toronto', 'Maple Leafs', '0', '1', '0', '0', '0', '0', '0', '34', '26', '56.7', '1', '0', '0.0', '2', '1', '50.0', '0', '0', '3', '5', '25', '2', '4', '25']"
"['', '9484', '2010-01-29', '00:00:00 GMT', '12', 'TOR', 'Toronto', 'Maple Leafs', '7', 'NJD', 'New Jersey', 'Devils', '5', 'Izod Center', '12', 'TOR', 'Toronto', 'Maple Leafs', '0', '0', '0', '1', '0', '0', '1', '27', '23', '54.0', '2', '0', '0.0', '2', '1', '50.0', '0', '0', '4', '5', '25', '2', '4', '23']"
"['', '9494', '2010-01-30', '00:00:00 GMT', '21', 'VAN', 'Vancouver', 'Canucks', '12', 'TOR', 'Toronto', 'Maple Leafs', '1', 'Air Canada Center', '12', 'TOR', 'Toronto', 'Maple Leafs', '0', '1', '0', '0', '0', '0', '0', '34', '29', '54.0', '5', '1', '20.0', '6', '0', '100.0', '0', '1', '3', '5', '18', '8', '27', '26']"
"['', '9511', '2010-02-02', '00:00:00 GMT', '7', 'NJD', 'New Jersey', 'Devils', '12', 'TOR', 'Toronto', 'Maple Leafs', '1', 'Air Canada Center', '12', 'TOR', 'Toronto', 'Maple Leafs', '1', '0', '0', '0', '0', '0', '2', '0', '0', '0.0', '4', '1', '25.0', '2', '0', '100.0', '0', '0', '3', '0', '0', '4', '14', '0']"
"['', '9533', '2010-02-05', '00:00:00 GMT', '12', 'TOR', 'Toronto', 'Maple Leafs', '7', 'NJD', 'New Jersey', 'Devils', '5', 'Izod Center', '12', 'TOR', 'Toronto', 'Maple Leafs', '0', '1', '0', '0', '0', '0', '0', '22', '24', '47.8', '3', '2', '66.7', '2', '1', '50.0', '0', '0', '3', '4', '17', '3', '6', '27']"
"['', '9545', '2010-02-06', '00:00:00 GMT', '13', 'OTT', 'Ottawa', 'Senators', '12', 'TOR', 'Toronto', 'Maple Leafs', '1', 'Air Canada Center', '12', 'TOR', 'Toronto', 'Maple Leafs', '1', '0', '0', '0', '0', '0', '2', '0', '0', '0.0', '6', '1', '16.7', '3', '0', '100.0', '0', '0', '5', '0', '0', '5', '13', '0']"
"['', '9555', '2010-02-08', '00:00:00 GMT', '26', 'SJS', 'San Jose', 'Sharks', '12', 'TOR', 'Toronto', 'Maple Leafs', '1', 'Air Canada Center', '12', 'TOR', 'Toronto', 'Maple Leafs', '0', '1', '0', '0', '0', '0', '0', '29', '30', '49.2', '3', '1', '33.3', '2', '0', '100.0', '0', '0', '2', '3', '32', '4', '14', '34']"
"['', '9585', '2010-02-12', '01:00:00 GMT', '12', 'TOR', 'Toronto', 'Maple Leafs', '17', 'STL', 'St. Louis', 'Blues', '24', 'Scottrade Center', '12', 'TOR', 'Toronto', 'Maple Leafs', '0', '1', '0', '0', '0', '0', '0', '27', '33', '45.0', '7', '0', '0.0', '2', '0', '100.0', '0', '2', '0', '4', '30', '8', '38', '20']"
"['', '9607', '2010-03-02', '00:00:00 GMT', '3', 'CAR', 'Carolina', 'Hurricanes', '12', 'TOR', 'Toronto', 'Maple Leafs', '1', 'Air Canada Center', '12', 'TOR', 'Toronto', 'Maple Leafs', '0', '1', '0', '0', '0', '0', '0', '33', '25', '56.9', '3', '0', '0.0', '1', '0', '100.0', '0', '1', '1', '5', '32', '1', '2', '15']"
"['', '9623', '2010-03-04', '00:00:00 GMT', '12', 'TOR', 'Toronto', 'Maple Leafs', '11', 'BOS', 'Boston', 'Bruins', '27', 'TD Garden', '12', 'TOR', 'Toronto', 'Maple Leafs', '0', '0', '0', '1', '0', '0', '1', '29', '30', '49.2', '3', '0', '0.0', '3', '0', '100.0', '0', '0', '2', '2', '24', '6', '18', '23']"
"['', '9639', '2010-03-06', '00:00:00 GMT', '12', 'TOR', 'Toronto', 'Maple Leafs', '13', 'OTT', 'Ottawa', 'Senators', '23', 'Scotiabank Place', '12', 'TOR', 'Toronto', 'Maple Leafs', '1', '0', '0', '0', '0', '0', '2', '28', '31', '47.5', '5', '0', '0.0', '4', '1', '75.0', '0', '0', '1', '1', '30', '8', '22', '20']"
"['', '9653', '2010-03-07', '00:00:00 GMT', '12', 'TOR', 'Toronto', 'Maple Leafs', '6', 'PHI', 'Philadelphia', 'Flyers', '29', 'Wachovia Center', '12', 'TOR', 'Toronto', 'Maple Leafs', '0', '1', '0', '0', '0', '0', '0', '37', '21', '63.8', '4', '0', '0.0', '5', '1', '80.0', '0', '0', '1', '3', '27', '11', '33', '19']"
"['', '9659', '2010-03-09', '00:00:00 GMT', '11', 'BOS', 'Boston', 'Bruins', '12', 'TOR', 'Toronto', 'Maple Leafs', '1', 'Air Canada Center', '12', 'TOR', 'Toronto', 'Maple Leafs', '1', '0', '0', '0', '0', '0', '2', '21', '33', '38.9', '3', '0', '0.0', '2', '1', '50.0', '0', '0', '4', '3', '26', '2', '4', '33']"
"['', '9675', '2010-03-11', '00:00:00 GMT', '1', 'TBL', 'Tampa Bay', 'Lightning', '12', 'TOR', 'Toronto', 'Maple Leafs', '1', 'Air Canada Center', '12', 'TOR', 'Toronto', 'Maple Leafs', '1', '0', '0', '0', '0', '0', '2', '34', '24', '58.6', '2', '0', '0.0', '2', '1', '50.0', '0', '0', '4', '3', '34', '3', '6', '23']"
"['', '9694', '2010-03-13', '00:00:00 GMT', '24', 'EDM', 'Edmonton', 'Oilers', '12', 'TOR', 'Toronto', 'Maple Leafs', '1', 'Air Canada Center', '12', 'TOR', 'Toronto', 'Maple Leafs', '1', '0', '0', '0', '0', '0', '2', '37', '22', '62.7', '7', '3', '42.9', '6', '2', '66.7', '0', '0', '6', '4', '41', '10', '28', '11']"
"['', '9700', '2010-03-14', '21:00:00 GMT', '12', 'TOR', 'Toronto', 'Maple Leafs', '8', 'NYI', 'New York', 'Islanders', '16', 'Nassau Veterans Memorial Coliseum', '12', 'TOR', 'Toronto', 'Maple Leafs', '0', '1', '0', '0', '0', '0', '0', '27', '34', '44.3', '7', '0', '0.0', '5', '1', '80.0', '0', '1', '1', '4', '26', '8', '16', '22']"
"['', '9713', '2010-03-16', '23:30:00 GMT', '12', 'TOR', 'Toronto', 'Maple Leafs', '13', 'OTT', 'Ottawa', 'Senators', '23', 'Scotiabank Place', '12', 'TOR', 'Toronto', 'Maple Leafs', '1', '0', '0', '0', '0', '0', '2', '24', '30', '44.4', '5', '0', '0.0', '3', '0', '100.0', '0', '0', '4', '1', '26', '7', '17', '14']"
"['', '9729', '2010-03-18', '23:30:00 GMT', '7', 'NJD', 'New Jersey', 'Devils', '12', 'TOR', 'Toronto', 'Maple Leafs', '1', 'Air Canada Center', '12', 'TOR', 'Toronto', 'Maple Leafs', '1', '0', '0', '0', '0', '0', '2', '22', '34', '39.3', '3', '0', '0.0', '4', '0', '100.0', '0', '0', '1', '1', '25', '5', '13', '24']"
"['', '9742', '2010-03-20', '23:00:00 GMT', '14', 'MTL', 'Montreal', 'Canadiens', '12', 'TOR', 'Toronto', 'Maple Leafs', '1', 'Air Canada Center', '12', 'TOR', 'Toronto', 'Maple Leafs', '1', '0', '0', '0', '0', '0', '2', '30', '23', '56.6', '1', '1', '100.0', '6', '1', '83.3', '0', '0', '2', '2', '31', '6', '12', '25']"
"['', '9763', '2010-03-23', '23:00:00 GMT', '4', 'FLO', 'Florida', 'Panthers', '12', 'TOR', 'Toronto', 'Maple Leafs', '1', 'Air Canada Center', '12', 'TOR', 'Toronto', 'Maple Leafs', '0', '1', '0', '0', '0', '0', '0', '46', '28', '62.2', '5', '0', '0.0', '3', '0', '100.0', '0', '0', '1', '4', '42', '4', '11', '29']"
"['', '9783', '2010-03-25', '23:00:00 GMT', '12', 'TOR', 'Toronto', 'Maple Leafs', '2', 'ATL', 'Atlanta', 'Thrashers', '20', 'Philips Arena', '12', 'TOR', 'Toronto', 'Maple Leafs', '1', '0', '0', '0', '0', '0', '2', '26', '27', '49.1', '2', '0', '0.0', '2', '1', '50.0', '0', '0', '2', '1', '28', '5', '10', '20']"
"['', '9798', '2010-03-27', '23:00:00 GMT', '9', 'NYR', 'New York', 'Rangers', '12', 'TOR', 'Toronto', 'Maple Leafs', '1', 'Air Canada Center', '12', 'TOR', 'Toronto', 'Maple Leafs', '1', '0', '0', '0', '0', '0', '2', '28', '24', '53.8', '2', '0', '0.0', '2', '0', '100.0', '0', '0', '3', '2', '29', '2', '4', '28']"
"['', '9805', '2010-03-28', '21:00:00 GMT', '12', 'TOR', 'Toronto', 'Maple Leafs', '10', 'PIT', 'Pittsburgh', 'Penguins', '14', 'Mellon Arena', '12', 'TOR', 'Toronto', 'Maple Leafs', '0', '0', '0', '1', '0', '0', '1', '31', '26', '54.4', '5', '1', '20.0', '3', '0', '100.0', '0', '0', '4', '4', '25', '3', '6', '16']"
"['', '9817', '2010-03-30', '23:00:00 GMT', '2', 'ATL', 'Atlanta', 'Thrashers', '12', 'TOR', 'Toronto', 'Maple Leafs', '1', 'Air Canada Center', '12', 'TOR', 'Toronto', 'Maple Leafs', '0', '1', '0', '0', '0', '0', '0', '24', '25', '49.0', '2', '0', '0.0', '2', '0', '100.0', '0', '0', '2', '3', '27', '2', '4', '15']"
"['', '9833', '2010-04-01', '23:00:00 GMT', '15', 'BUF', 'Buffalo', 'Sabres', '12', 'TOR', 'Toronto', 'Maple Leafs', '1', 'Air Canada Center', '12', 'TOR', 'Toronto', 'Maple Leafs', '1', '0', '0', '0', '0', '0', '2', '20', '26', '43.5', '6', '0', '0.0', '2', '1', '50.0', '0', '0', '4', '2', '30', '2', '4', '17']"
"['', '9851', '2010-04-03', '23:00:00 GMT', '11', 'BOS', 'Boston', 'Bruins', '12', 'TOR', 'Toronto', 'Maple Leafs', '1', 'Air Canada Center', '12', 'TOR', 'Toronto', 'Maple Leafs', '0', '0', '0', '1', '0', '0', '1', '24', '29', '45.3', '3', '0', '0.0', '2', '0', '100.0', '0', '0', '1', '2', '27', '2', '4', '28']"
"['', '9866', '2010-04-06', '23:00:00 GMT', '6', 'PHI', 'Philadelphia', 'Flyers', '12', 'TOR', 'Toronto', 'Maple Leafs', '1', 'Air Canada Center', '12', 'TOR', 'Toronto', 'Maple Leafs', '0', '1', '0', '0', '0', '0', '0', '28', '22', '56.0', '6', '0', '0.0', '4', '1', '75.0', '0', '0', '0', '2', '23', '10', '26', '29']"
"['', '9875', '2010-04-07', '23:00:00 GMT', '12', 'TOR', 'Toronto', 'Maple Leafs', '9', 'NYR', 'New York', 'Rangers', '12', 'Madison Square Garden', '12', 'TOR', 'Toronto', 'Maple Leafs', '0', '1', '0', '0', '0', '0', '0', '25', '20', '55.6', '3', '0', '0.0', '3', '0', '100.0', '0', '0', '1', '5', '26', '8', '27', '37']"
"['', '9896', '2010-04-10', '23:00:00 GMT', '12', 'TOR', 'Toronto', 'Maple Leafs', '14', 'MTL', 'Montreal', 'Canadiens', '4', 'Bell Centre', '12', 'TOR', 'Toronto', 'Maple Leafs', '1', '0', '0', '0', '0', '0', '2', '30', '31', '49.2', '1', '0', '0.0', '5', '1', '80.0', '1', '0', '4', '3', '24', '6', '12', '36']"
