"['#Date/Time of Update: 2018-11-16 21:14:56 GMT', '#Game ID', '#Game Date', '#Game Time', '#Away Team ID', '#Away Team Abbr.', '#Away Team City', '#Away Team Name', '#Home Team ID', '#Home Team Abbr.', '#Home Team City', '#Home Team Name', '#Venue ID', '#Venue Name', '#Team ID', '#Team Abbr.', '#Team City', '#Team Name', '#Wins', '#Losses', '#OvertimeWins', '#OvertimeLosses', '#Points', '#FaceoffWins', '#FaceoffLosses', '#FaceoffPercent', '#Powerplays', '#PowerplayGoals', '#PowerplayPercent', '#PenaltyKills', '#PenaltyKillGoalsAllowed', '#PenaltyKillPercent', '#ShorthandedGoalsFor', '#ShorthandedGoalsAgainst', '#GoalsFor', '#GoalsAgainst', '#Shots', '#BlockedShots', '#Penalties', '#PenaltyMinutes', '#Hits']"
"['', '40774', '2017-10-04', '23:00:00 GMT', '12', 'TOR', 'Toronto', 'Maple Leafs', '2', 'WPJ', 'Winnipeg', 'Jets', '39', 'Bell MTS Place', '12', 'TOR', 'Toronto', 'Maple Leafs', '1', '0', '0', '0', '2', '35', '28', '55.6', '4', '2', '50.0', '8', '0', '100.0', '0', '0', '7', '2', '31', '24', '8', '16', '16']"
"['', '40796', '2017-10-07', '23:00:00 GMT', '9', 'NYR', 'New York', 'Rangers', '12', 'TOR', 'Toronto', 'Maple Leafs', '1', 'Air Canada Center', '12', 'TOR', 'Toronto', 'Maple Leafs', '1', '0', '0', '0', '2', '46', '31', '59.7', '6', '3', '50.0', '3', '2', '33.3', '0', '0', '8', '5', '41', '7', '3', '6', '21']"
"['', '40808', '2017-10-09', '23:00:00 GMT', '20', 'CHI', 'Chicago', 'Blackhawks', '12', 'TOR', 'Toronto', 'Maple Leafs', '1', 'Air Canada Center', '12', 'TOR', 'Toronto', 'Maple Leafs', '1', '0', '0', '0', '2', '39', '25', '60.9', '7', '1', '14.3', '6', '1', '83.3', '0', '0', '4', '3', '43', '12', '7', '14', '25']"
"['', '40820', '2017-10-11', '23:30:00 GMT', '7', 'NJD', 'New Jersey', 'Devils', '12', 'TOR', 'Toronto', 'Maple Leafs', '1', 'Air Canada Center', '12', 'TOR', 'Toronto', 'Maple Leafs', '0', '1', '0', '0', '0', '43', '34', '55.8', '8', '2', '25.0', '4', '1', '75.0', '0', '1', '3', '6', '50', '8', '6', '15', '19']"
"['', '40840', '2017-10-14', '23:00:00 GMT', '12', 'TOR', 'Toronto', 'Maple Leafs', '14', 'MTL', 'Montreal', 'Canadiens', '4', 'Bell Centre', '12', 'TOR', 'Toronto', 'Maple Leafs', '1', '0', '0', '0', '2', '37', '28', '56.9', '2', '0', '0.0', '2', '1', '50.0', '0', '0', '4', '3', '22', '14', '2', '4', '33']"
"['', '40854', '2017-10-17', '23:00:00 GMT', '12', 'TOR', 'Toronto', 'Maple Leafs', '5', 'WSH', 'Washington', 'Capitals', '13', 'Capital One Arena', '12', 'TOR', 'Toronto', 'Maple Leafs', '1', '0', '0', '0', '2', '23', '28', '45.1', '2', '0', '0.0', '3', '0', '100.0', '0', '0', '2', '0', '30', '17', '3', '6', '24']"
"['', '40865', '2017-10-18', '23:30:00 GMT', '16', 'DET', 'Detroit', 'Red Wings', '12', 'TOR', 'Toronto', 'Maple Leafs', '1', 'Air Canada Center', '12', 'TOR', 'Toronto', 'Maple Leafs', '1', '0', '0', '0', '2', '36', '24', '60.0', '2', '1', '50.0', '3', '0', '100.0', '0', '0', '6', '3', '26', '12', '4', '8', '21']"
"['', '40885', '2017-10-21', '23:00:00 GMT', '12', 'TOR', 'Toronto', 'Maple Leafs', '13', 'OTT', 'Ottawa', 'Senators', '23', 'Canadian Tire Centre', '12', 'TOR', 'Toronto', 'Maple Leafs', '0', '1', '0', '0', '0', '35', '42', '45.5', '2', '1', '50.0', '1', '0', '100.0', '0', '0', '3', '6', '31', '11', '1', '2', '24']"
"['', '40896', '2017-10-23', '23:00:00 GMT', '28', 'LAK', 'Los Angeles', 'Kings', '12', 'TOR', 'Toronto', 'Maple Leafs', '1', 'Air Canada Center', '12', 'TOR', 'Toronto', 'Maple Leafs', '1', '0', '0', '0', '2', '34', '29', '54.0', '6', '1', '16.7', '2', '0', '100.0', '0', '1', '3', '2', '34', '12', '5', '13', '29']"
"['', '40913', '2017-10-26', '23:00:00 GMT', '3', 'CAR', 'Carolina', 'Hurricanes', '12', 'TOR', 'Toronto', 'Maple Leafs', '1', 'Air Canada Center', '12', 'TOR', 'Toronto', 'Maple Leafs', '0', '1', '0', '0', '0', '29', '33', '46.8', '2', '0', '0.0', '1', '0', '100.0', '0', '0', '3', '6', '34', '16', '2', '4', '16']"
"['', '40929', '2017-10-28', '23:00:00 GMT', '6', 'PHI', 'Philadelphia', 'Flyers', '12', 'TOR', 'Toronto', 'Maple Leafs', '1', 'Air Canada Center', '12', 'TOR', 'Toronto', 'Maple Leafs', '0', '1', '0', '0', '0', '34', '31', '52.3', '3', '0', '0.0', '1', '1', '0.0', '0', '0', '2', '4', '30', '8', '1', '2', '29']"
"['', '40950', '2017-10-30', '02:30:00 GMT', '12', 'TOR', 'Toronto', 'Maple Leafs', '26', 'SJS', 'San Jose', 'Sharks', '9', 'SAP Center at San Jose', '12', 'TOR', 'Toronto', 'Maple Leafs', '0', '1', '0', '0', '0', '29', '35', '45.3', '0', '0', '0.0', '4', '1', '75.0', '0', '0', '2', '3', '18', '21', '4', '8', '18']"
"['', '40957', '2017-11-01', '02:00:00 GMT', '12', 'TOR', 'Toronto', 'Maple Leafs', '29', 'ANA', 'Anaheim', 'Ducks', '8', 'Honda Center', '12', 'TOR', 'Toronto', 'Maple Leafs', '1', '0', '0', '0', '2', '26', '34', '43.3', '2', '0', '0.0', '4', '0', '100.0', '0', '0', '3', '1', '29', '14', '4', '8', '20']"
"['', '40970', '2017-11-02', '02:30:00 GMT', '12', 'TOR', 'Toronto', 'Maple Leafs', '28', 'LAK', 'Los Angeles', 'Kings', '25', 'Staples Center', '12', 'TOR', 'Toronto', 'Maple Leafs', '0', '1', '0', '0', '0', '35', '31', '53.0', '4', '1', '25.0', '4', '2', '50.0', '0', '0', '3', '5', '36', '6', '5', '10', '25']"
"['', '40974', '2017-11-04', '23:00:00 GMT', '12', 'TOR', 'Toronto', 'Maple Leafs', '17', 'STL', 'St. Louis', 'Blues', '24', 'Scottrade Center', '12', 'TOR', 'Toronto', 'Maple Leafs', '0', '1', '0', '0', '0', '30', '36', '45.5', '2', '0', '0.0', '5', '1', '80.0', '0', '0', '4', '6', '31', '20', '4', '8', '11']"
"['', '40992', '2017-11-06', '00:00:00 GMT', '142', 'VGK', 'Vegas', 'Golden Knights', '12', 'TOR', 'Toronto', 'Maple Leafs', '1', 'Air Canada Center', '12', 'TOR', 'Toronto', 'Maple Leafs', '1', '0', '0', '0', '2', '29', '30', '49.2', '4', '1', '25.0', '3', '1', '66.7', '0', '0', '3', '3', '25', '12', '3', '6', '29']"
"['', '41005', '2017-11-08', '00:30:00 GMT', '25', 'MIN', 'Minnesota', 'Wild', '12', 'TOR', 'Toronto', 'Maple Leafs', '1', 'Air Canada Center', '12', 'TOR', 'Toronto', 'Maple Leafs', '1', '0', '0', '0', '2', '22', '31', '41.5', '2', '0', '0.0', '4', '1', '75.0', '0', '0', '4', '2', '19', '18', '4', '8', '18']"
"['', '41019', '2017-11-10', '00:00:00 GMT', '11', 'BOS', 'Boston', 'Bruins', '12', 'TOR', 'Toronto', 'Maple Leafs', '1', 'Air Canada Center', '12', 'TOR', 'Toronto', 'Maple Leafs', '1', '0', '0', '0', '2', '33', '33', '50.0', '5', '1', '20.0', '4', '1', '75.0', '0', '0', '3', '2', '33', '15', '4', '8', '25']"
"['', '41024', '2017-11-11', '00:00:00 GMT', '12', 'TOR', 'Toronto', 'Maple Leafs', '11', 'BOS', 'Boston', 'Bruins', '27', 'TD Garden', '12', 'TOR', 'Toronto', 'Maple Leafs', '1', '0', '0', '0', '2', '28', '34', '45.2', '3', '1', '33.3', '4', '0', '100.0', '0', '0', '4', '1', '25', '11', '6', '15', '29']"
"['', '41051', '2017-11-16', '00:00:00 GMT', '7', 'NJD', 'New Jersey', 'Devils', '12', 'TOR', 'Toronto', 'Maple Leafs', '1', 'Air Canada Center', '12', 'TOR', 'Toronto', 'Maple Leafs', '1', '0', '0', '0', '2', '38', '31', '55.1', '2', '0', '0.0', '3', '0', '100.0', '0', '0', '1', '0', '25', '15', '3', '6', '29']"
"['', '41073', '2017-11-18', '00:00:00 GMT', '12', 'TOR', 'Toronto', 'Maple Leafs', '14', 'MTL', 'Montreal', 'Canadiens', '4', 'Bell Centre', '12', 'TOR', 'Toronto', 'Maple Leafs', '1', '0', '0', '0', '2', '35', '30', '53.8', '3', '0', '0.0', '1', '0', '100.0', '0', '0', '6', '0', '31', '19', '5', '13', '27']"
"['', '41083', '2017-11-20', '00:00:00 GMT', '30', 'ARI', 'Arizona', 'Coyotes', '12', 'TOR', 'Toronto', 'Maple Leafs', '1', 'Air Canada Center', '12', 'TOR', 'Toronto', 'Maple Leafs', '0', '1', '0', '0', '0', '26', '33', '44.1', '1', '1', '100.0', '4', '2', '50.0', '0', '0', '1', '4', '28', '9', '4', '8', '15']"
"['', '41098', '2017-11-22', '00:00:00 GMT', '12', 'TOR', 'Toronto', 'Maple Leafs', '4', 'FLO', 'Florida', 'Panthers', '3', 'BB&T Center', '12', 'TOR', 'Toronto', 'Maple Leafs', '0', '0', '0', '1', '1', '38', '30', '55.9', '3', '0', '0.0', '3', '0', '100.0', '0', '0', '1', '1', '44', '6', '3', '6', '14']"
"['', '41116', '2017-11-24', '00:30:00 GMT', '12', 'TOR', 'Toronto', 'Maple Leafs', '3', 'CAR', 'Carolina', 'Hurricanes', '21', 'PNC Arena', '12', 'TOR', 'Toronto', 'Maple Leafs', '1', '0', '0', '0', '2', '24', '29', '45.3', '2', '1', '50.0', '2', '0', '100.0', '0', '0', '5', '4', '25', '22', '2', '4', '27']"
"['', '41121', '2017-11-25', '00:00:00 GMT', '5', 'WSH', 'Washington', 'Capitals', '12', 'TOR', 'Toronto', 'Maple Leafs', '1', 'Air Canada Center', '12', 'TOR', 'Toronto', 'Maple Leafs', '0', '1', '0', '0', '0', '34', '25', '57.6', '1', '0', '0.0', '3', '1', '66.7', '0', '0', '2', '4', '29', '12', '3', '6', '26']"
"['', '41148', '2017-11-28', '02:00:00 GMT', '12', 'TOR', 'Toronto', 'Maple Leafs', '23', 'CGY', 'Calgary', 'Flames', '18', 'Scotiabank Saddledome', '12', 'TOR', 'Toronto', 'Maple Leafs', '1', '0', '0', '0', '2', '29', '33', '46.8', '2', '0', '0.0', '3', '0', '100.0', '0', '0', '4', '1', '30', '17', '3', '6', '8']"
"['', '41160', '2017-11-30', '02:00:00 GMT', '12', 'TOR', 'Toronto', 'Maple Leafs', '24', 'EDM', 'Edmonton', 'Oilers', '22', 'Rogers Place', '12', 'TOR', 'Toronto', 'Maple Leafs', '1', '0', '0', '0', '2', '36', '36', '50.0', '2', '2', '100.0', '2', '0', '100.0', '0', '0', '6', '4', '36', '18', '3', '9', '26']"
"['', '41172', '2017-12-02', '00:00:00 GMT', '12', 'TOR', 'Toronto', 'Maple Leafs', '21', 'VAN', 'Vancouver', 'Canucks', '7', 'Rogers Arena', '12', 'TOR', 'Toronto', 'Maple Leafs', '0', '1', '0', '0', '0', '34', '24', '58.6', '2', '0', '0.0', '1', '0', '100.0', '0', '0', '1', '2', '36', '10', '1', '2', '15']"
"['', '41199', '2017-12-06', '00:30:00 GMT', '23', 'CGY', 'Calgary', 'Flames', '12', 'TOR', 'Toronto', 'Maple Leafs', '1', 'Air Canada Center', '12', 'TOR', 'Toronto', 'Maple Leafs', '1', '0', '0', '0', '2', '39', '30', '56.5', '4', '0', '0.0', '2', '1', '50.0', '0', '0', '1', '1', '29', '12', '2', '4', '15']"
"['', '41220', '2017-12-09', '00:00:00 GMT', '12', 'TOR', 'Toronto', 'Maple Leafs', '10', 'PIT', 'Pittsburgh', 'Penguins', '40', 'PPG Paints Arena', '12', 'TOR', 'Toronto', 'Maple Leafs', '1', '0', '0', '0', '2', '29', '31', '48.3', '1', '0', '0.0', '4', '1', '75.0', '0', '0', '4', '3', '25', '23', '4', '8', '28']"
"['', '41230', '2017-12-10', '00:00:00 GMT', '24', 'EDM', 'Edmonton', 'Oilers', '12', 'TOR', 'Toronto', 'Maple Leafs', '1', 'Air Canada Center', '12', 'TOR', 'Toronto', 'Maple Leafs', '1', '0', '0', '0', '2', '22', '19', '53.7', '2', '0', '0.0', '3', '0', '100.0', '0', '0', '1', '0', '23', '20', '4', '8', '14']"
"['', '41240', '2017-12-12', '00:00:00 GMT', '12', 'TOR', 'Toronto', 'Maple Leafs', '6', 'PHI', 'Philadelphia', 'Flyers', '29', 'Wells Fargo Center', '12', 'TOR', 'Toronto', 'Maple Leafs', '0', '1', '0', '0', '0', '24', '31', '43.6', '1', '1', '100.0', '1', '0', '100.0', '0', '0', '2', '4', '22', '12', '1', '2', '18']"
"['', '41256', '2017-12-14', '01:00:00 GMT', '12', 'TOR', 'Toronto', 'Maple Leafs', '25', 'MIN', 'Minnesota', 'Wild', '30', 'Xcel Energy Center', '12', 'TOR', 'Toronto', 'Maple Leafs', '0', '1', '0', '0', '0', '33', '29', '53.2', '4', '0', '0.0', '1', '0', '100.0', '0', '0', '0', '2', '28', '8', '2', '4', '17']"
"['', '41267', '2017-12-15', '00:30:00 GMT', '12', 'TOR', 'Toronto', 'Maple Leafs', '16', 'DET', 'Detroit', 'Red Wings', '145', 'Little Caesars Arena', '12', 'TOR', 'Toronto', 'Maple Leafs', '0', '1', '0', '0', '0', '28', '30', '48.3', '3', '0', '0.0', '4', '1', '75.0', '0', '1', '1', '3', '26', '6', '4', '8', '17']"
"['', '41289', '2017-12-19', '19:00:00 GMT', '3', 'CAR', 'Carolina', 'Hurricanes', '12', 'TOR', 'Toronto', 'Maple Leafs', '1', 'Air Canada Center', '12', 'TOR', 'Toronto', 'Maple Leafs', '1', '0', '0', '0', '2', '27', '38', '41.5', '3', '3', '100.0', '4', '0', '100.0', '1', '0', '8', '1', '36', '21', '6', '15', '13']"
"['', '41299', '2017-12-20', '00:30:00 GMT', '12', 'TOR', 'Toronto', 'Maple Leafs', '19', 'CBJ', 'Columbus', 'Blue Jackets', '17', 'Nationwide Arena', '12', 'TOR', 'Toronto', 'Maple Leafs', '0', '1', '0', '0', '0', '32', '28', '53.3', '1', '0', '0.0', '2', '1', '50.0', '0', '0', '2', '4', '41', '8', '3', '6', '25']"
"['', '41318', '2017-12-23', '00:00:00 GMT', '12', 'TOR', 'Toronto', 'Maple Leafs', '9', 'NYR', 'New York', 'Rangers', '12', 'Madison Square Garden', '12', 'TOR', 'Toronto', 'Maple Leafs', '1', '0', '0', '0', '2', '25', '48', '34.2', '6', '1', '16.7', '2', '0', '100.0', '0', '0', '3', '2', '37', '14', '5', '10', '9']"
"['', '41345', '2017-12-28', '02:00:00 GMT', '12', 'TOR', 'Toronto', 'Maple Leafs', '30', 'ARI', 'Arizona', 'Coyotes', '6', 'Gila River Arena', '12', 'TOR', 'Toronto', 'Maple Leafs', '1', '0', '0', '0', '2', '38', '37', '50.7', '1', '1', '100.0', '6', '1', '83.3', '1', '0', '7', '4', '33', '21', '8', '16', '13']"
"['', '43412', '2017-12-29', '02:00:00 GMT', '12', 'TOR', 'Toronto', 'Maple Leafs', '22', 'COL', 'Colorado', 'Avalanche', '19', 'Pepsi Center', '12', 'TOR', 'Toronto', 'Maple Leafs', '0', '0', '0', '1', '1', '44', '26', '62.9', '2', '0', '0.0', '4', '1', '75.0', '0', '0', '3', '4', '34', '14', '4', '8', '21']"
"['', '41366', '2017-12-31', '20:30:00 GMT', '12', 'TOR', 'Toronto', 'Maple Leafs', '142', 'VGK', 'Vegas', 'Golden Knights', '139', 'T-Mobile Arena', '12', 'TOR', 'Toronto', 'Maple Leafs', '0', '1', '0', '0', '0', '29', '25', '53.7', '3', '0', '0.0', '3', '0', '100.0', '0', '0', '3', '6', '23', '15', '3', '6', '21']"
"['', '41378', '2018-01-02', '00:00:00 GMT', '1', 'TBL', 'Tampa Bay', 'Lightning', '12', 'TOR', 'Toronto', 'Maple Leafs', '1', 'Air Canada Center', '12', 'TOR', 'Toronto', 'Maple Leafs', '0', '1', '0', '0', '0', '29', '23', '55.8', '2', '0', '0.0', '3', '0', '100.0', '0', '0', '0', '2', '29', '14', '4', '8', '16']"
"['', '41390', '2018-01-04', '00:00:00 GMT', '26', 'SJS', 'San Jose', 'Sharks', '12', 'TOR', 'Toronto', 'Maple Leafs', '1', 'Air Canada Center', '12', 'TOR', 'Toronto', 'Maple Leafs', '1', '0', '0', '0', '2', '33', '35', '48.5', '4', '1', '25.0', '6', '0', '100.0', '0', '0', '2', '2', '28', '12', '6', '17', '16']"
"['', '41411', '2018-01-06', '00:00:00 GMT', '21', 'VAN', 'Vancouver', 'Canucks', '12', 'TOR', 'Toronto', 'Maple Leafs', '1', 'Air Canada Center', '12', 'TOR', 'Toronto', 'Maple Leafs', '1', '0', '0', '0', '2', '45', '26', '63.4', '4', '0', '0.0', '3', '1', '66.7', '0', '0', '2', '2', '36', '5', '3', '6', '20']"
"['', '41425', '2018-01-08', '00:00:00 GMT', '19', 'CBJ', 'Columbus', 'Blue Jackets', '12', 'TOR', 'Toronto', 'Maple Leafs', '1', 'Air Canada Center', '12', 'TOR', 'Toronto', 'Maple Leafs', '0', '0', '0', '1', '1', '29', '28', '50.9', '2', '1', '50.0', '3', '0', '100.0', '0', '0', '2', '3', '37', '14', '3', '6', '15']"
"['', '41433', '2018-01-10', '00:30:00 GMT', '13', 'OTT', 'Ottawa', 'Senators', '12', 'TOR', 'Toronto', 'Maple Leafs', '1', 'Air Canada Center', '12', 'TOR', 'Toronto', 'Maple Leafs', '0', '1', '0', '0', '0', '45', '30', '60.0', '3', '0', '0.0', '1', '0', '100.0', '0', '0', '3', '4', '48', '8', '1', '2', '11']"
"['', '41460', '2018-01-16', '00:00:00 GMT', '17', 'STL', 'St. Louis', 'Blues', '12', 'TOR', 'Toronto', 'Maple Leafs', '1', 'Air Canada Center', '12', 'TOR', 'Toronto', 'Maple Leafs', '0', '0', '0', '1', '1', '34', '23', '59.6', '1', '0', '0.0', '2', '0', '100.0', '1', '0', '1', '2', '31', '14', '3', '9', '25']"
"['', '41472', '2018-01-18', '00:00:00 GMT', '12', 'TOR', 'Toronto', 'Maple Leafs', '6', 'PHI', 'Philadelphia', 'Flyers', '29', 'Wells Fargo Center', '12', 'TOR', 'Toronto', 'Maple Leafs', '0', '0', '0', '1', '1', '28', '36', '43.8', '2', '0', '0.0', '2', '0', '100.0', '0', '1', '2', '3', '31', '15', '2', '4', '19']"
"['', '41486', '2018-01-20', '00:00:00 GMT', '12', 'TOR', 'Toronto', 'Maple Leafs', '13', 'OTT', 'Ottawa', 'Senators', '23', 'Canadian Tire Centre', '12', 'TOR', 'Toronto', 'Maple Leafs', '1', '0', '0', '0', '2', '36', '34', '51.4', '3', '1', '33.3', '2', '1', '50.0', '0', '1', '4', '3', '33', '25', '3', '6', '25']"
"['', '41499', '2018-01-22', '00:00:00 GMT', '22', 'COL', 'Colorado', 'Avalanche', '12', 'TOR', 'Toronto', 'Maple Leafs', '1', 'Air Canada Center', '12', 'TOR', 'Toronto', 'Maple Leafs', '0', '1', '0', '0', '0', '40', '23', '63.5', '3', '0', '0.0', '0', '0', '0.0', '0', '0', '2', '4', '31', '4', '0', '0', '26']"
"['', '41517', '2018-01-24', '01:00:00 GMT', '12', 'TOR', 'Toronto', 'Maple Leafs', '20', 'CHI', 'Chicago', 'Blackhawks', '28', 'United Center', '12', 'TOR', 'Toronto', 'Maple Leafs', '1', '0', '0', '0', '2', '33', '35', '48.5', '4', '1', '25.0', '4', '2', '50.0', '0', '0', '3', '2', '36', '20', '4', '8', '25']"
"['', '41527', '2018-01-25', '01:30:00 GMT', '12', 'TOR', 'Toronto', 'Maple Leafs', '27', 'DAL', 'Dallas', 'Stars', '2', 'American Airlines Center', '12', 'TOR', 'Toronto', 'Maple Leafs', '1', '0', '0', '0', '2', '31', '33', '48.4', '2', '1', '50.0', '3', '0', '100.0', '0', '0', '4', '1', '29', '15', '4', '11', '17']"
"['', '41546', '2018-01-31', '00:30:00 GMT', '8', 'NYI', 'New York', 'Islanders', '12', 'TOR', 'Toronto', 'Maple Leafs', '1', 'Air Canada Center', '12', 'TOR', 'Toronto', 'Maple Leafs', '1', '0', '0', '0', '2', '39', '28', '58.2', '2', '0', '0.0', '1', '0', '100.0', '0', '0', '5', '0', '50', '20', '1', '2', '19']"
"['', '41552', '2018-02-01', '00:00:00 GMT', '12', 'TOR', 'Toronto', 'Maple Leafs', '9', 'NYR', 'New York', 'Rangers', '12', 'Madison Square Garden', '12', 'TOR', 'Toronto', 'Maple Leafs', '1', '0', '0', '0', '2', '18', '27', '40.0', '1', '0', '0.0', '3', '0', '100.0', '0', '0', '4', '0', '32', '6', '3', '6', '10']"
"['', '41568', '2018-02-03', '00:00:00 GMT', '12', 'TOR', 'Toronto', 'Maple Leafs', '11', 'BOS', 'Boston', 'Bruins', '27', 'TD Garden', '12', 'TOR', 'Toronto', 'Maple Leafs', '0', '1', '0', '0', '0', '33', '27', '55.0', '4', '1', '25.0', '3', '2', '33.3', '0', '0', '1', '4', '24', '15', '3', '6', '29']"
"['', '41581', '2018-02-05', '00:00:00 GMT', '29', 'ANA', 'Anaheim', 'Ducks', '12', 'TOR', 'Toronto', 'Maple Leafs', '1', 'Air Canada Center', '12', 'TOR', 'Toronto', 'Maple Leafs', '1', '0', '0', '0', '2', '38', '33', '53.5', '3', '1', '33.3', '3', '1', '66.7', '0', '0', '7', '4', '40', '23', '3', '6', '10']"
"['', '41596', '2018-02-07', '00:30:00 GMT', '18', 'NSH', 'Nashville', 'Predators', '12', 'TOR', 'Toronto', 'Maple Leafs', '1', 'Air Canada Center', '12', 'TOR', 'Toronto', 'Maple Leafs', '1', '0', '0', '0', '2', '29', '44', '39.7', '2', '0', '0.0', '2', '0', '100.0', '1', '0', '2', '2', '32', '13', '2', '4', '29']"
"['', '41620', '2018-02-10', '00:00:00 GMT', '13', 'OTT', 'Ottawa', 'Senators', '12', 'TOR', 'Toronto', 'Maple Leafs', '1', 'Air Canada Center', '12', 'TOR', 'Toronto', 'Maple Leafs', '1', '0', '0', '0', '2', '31', '28', '52.5', '5', '1', '20.0', '2', '0', '100.0', '0', '0', '6', '3', '41', '13', '2', '4', '21']"
"['', '41634', '2018-02-12', '00:00:00 GMT', '1', 'TBL', 'Tampa Bay', 'Lightning', '12', 'TOR', 'Toronto', 'Maple Leafs', '1', 'Air Canada Center', '12', 'TOR', 'Toronto', 'Maple Leafs', '1', '0', '0', '0', '2', '29', '31', '48.3', '1', '0', '0.0', '2', '0', '100.0', '0', '0', '4', '3', '23', '15', '2', '4', '20']"
"['', '41649', '2018-02-14', '00:00:00 GMT', '19', 'CBJ', 'Columbus', 'Blue Jackets', '12', 'TOR', 'Toronto', 'Maple Leafs', '1', 'Air Canada Center', '12', 'TOR', 'Toronto', 'Maple Leafs', '1', '0', '0', '0', '2', '43', '27', '61.4', '3', '0', '0.0', '2', '0', '100.0', '0', '0', '6', '3', '28', '14', '2', '4', '18']"
"['', '41671', '2018-02-17', '00:00:00 GMT', '12', 'TOR', 'Toronto', 'Maple Leafs', '10', 'PIT', 'Pittsburgh', 'Penguins', '40', 'PPG Paints Arena', '12', 'TOR', 'Toronto', 'Maple Leafs', '0', '1', '0', '0', '0', '35', '35', '50.0', '2', '1', '50.0', '1', '0', '100.0', '0', '0', '3', '5', '32', '13', '1', '2', '22']"
"['', '41682', '2018-02-18', '00:00:00 GMT', '12', 'TOR', 'Toronto', 'Maple Leafs', '16', 'DET', 'Detroit', 'Red Wings', '145', 'Little Caesars Arena', '12', 'TOR', 'Toronto', 'Maple Leafs', '1', '0', '0', '0', '2', '32', '29', '52.5', '2', '0', '0.0', '1', '1', '0.0', '0', '0', '3', '2', '34', '6', '1', '2', '16']"
"['', '41692', '2018-02-20', '00:00:00 GMT', '4', 'FLO', 'Florida', 'Panthers', '12', 'TOR', 'Toronto', 'Maple Leafs', '1', 'Air Canada Center', '12', 'TOR', 'Toronto', 'Maple Leafs', '1', '0', '0', '0', '2', '40', '20', '66.7', '2', '0', '0.0', '2', '0', '100.0', '0', '0', '1', '0', '31', '14', '2', '4', '20']"
"['', '41704', '2018-02-22', '00:00:00 GMT', '8', 'NYI', 'New York', 'Islanders', '12', 'TOR', 'Toronto', 'Maple Leafs', '1', 'Air Canada Center', '12', 'TOR', 'Toronto', 'Maple Leafs', '1', '0', '0', '0', '2', '34', '29', '54.0', '3', '0', '0.0', '2', '0', '100.0', '0', '0', '3', '3', '31', '14', '2', '4', '18']"
"['', '41727', '2018-02-24', '00:00:00 GMT', '11', 'BOS', 'Boston', 'Bruins', '12', 'TOR', 'Toronto', 'Maple Leafs', '1', 'Air Canada Center', '12', 'TOR', 'Toronto', 'Maple Leafs', '1', '0', '0', '0', '2', '30', '29', '50.8', '3', '2', '66.7', '2', '0', '100.0', '0', '0', '4', '3', '36', '11', '2', '4', '23']"
"['', '41737', '2018-02-26', '00:30:00 GMT', '12', 'TOR', 'Toronto', 'Maple Leafs', '1', 'TBL', 'Tampa Bay', 'Lightning', '26', 'Amalie Arena', '12', 'TOR', 'Toronto', 'Maple Leafs', '0', '0', '0', '1', '1', '33', '32', '50.8', '4', '1', '25.0', '4', '0', '100.0', '0', '0', '3', '3', '29', '14', '4', '8', '24']"
"['', '41744', '2018-02-27', '00:30:00 GMT', '12', 'TOR', 'Toronto', 'Maple Leafs', '4', 'FLO', 'Florida', 'Panthers', '3', 'BB&T Center', '12', 'TOR', 'Toronto', 'Maple Leafs', '0', '0', '0', '1', '1', '32', '29', '52.5', '2', '0', '0.0', '4', '1', '75.0', '0', '0', '2', '3', '39', '7', '4', '8', '11']"
"['', '41778', '2018-03-03', '01:00:00 GMT', '12', 'TOR', 'Toronto', 'Maple Leafs', '5', 'WSH', 'Washington', 'Capitals', '13', 'Capital One Arena', '12', 'TOR', 'Toronto', 'Maple Leafs', '0', '1', '0', '0', '0', '29', '38', '43.3', '2', '0', '0.0', '2', '2', '0.0', '0', '0', '2', '5', '29', '11', '3', '6', '26']"
"['', '41788', '2018-03-05', '00:30:00 GMT', '12', 'TOR', 'Toronto', 'Maple Leafs', '15', 'BUF', 'Buffalo', 'Sabres', '10', 'KeyBank Center', '12', 'TOR', 'Toronto', 'Maple Leafs', '0', '1', '0', '0', '0', '28', '37', '43.1', '2', '2', '100.0', '2', '1', '50.0', '0', '0', '3', '5', '41', '5', '3', '9', '23']"
"['', '41827', '2018-03-10', '00:00:00 GMT', '10', 'PIT', 'Pittsburgh', 'Penguins', '12', 'TOR', 'Toronto', 'Maple Leafs', '1', 'Air Canada Center', '12', 'TOR', 'Toronto', 'Maple Leafs', '1', '0', '0', '0', '2', '38', '31', '55.1', '2', '2', '100.0', '3', '0', '100.0', '0', '0', '5', '2', '26', '17', '4', '8', '19']"
"['', '41850', '2018-03-14', '23:00:00 GMT', '27', 'DAL', 'Dallas', 'Stars', '12', 'TOR', 'Toronto', 'Maple Leafs', '1', 'Air Canada Center', '12', 'TOR', 'Toronto', 'Maple Leafs', '1', '0', '0', '0', '2', '39', '36', '52.0', '1', '1', '100.0', '1', '0', '100.0', '0', '0', '5', '5', '33', '14', '2', '4', '20']"
"['', '41856', '2018-03-15', '23:00:00 GMT', '12', 'TOR', 'Toronto', 'Maple Leafs', '15', 'BUF', 'Buffalo', 'Sabres', '10', 'KeyBank Center', '12', 'TOR', 'Toronto', 'Maple Leafs', '1', '0', '0', '0', '2', '28', '30', '48.3', '3', '1', '33.3', '5', '2', '60.0', '0', '0', '5', '2', '39', '18', '6', '15', '16']"
"['', '41875', '2018-03-17', '23:00:00 GMT', '14', 'MTL', 'Montreal', 'Canadiens', '12', 'TOR', 'Toronto', 'Maple Leafs', '1', 'Air Canada Center', '12', 'TOR', 'Toronto', 'Maple Leafs', '1', '0', '0', '0', '2', '33', '30', '52.4', '4', '2', '50.0', '1', '0', '100.0', '0', '0', '4', '0', '49', '19', '1', '2', '16']"
"['', '41899', '2018-03-20', '23:30:00 GMT', '12', 'TOR', 'Toronto', 'Maple Leafs', '1', 'TBL', 'Tampa Bay', 'Lightning', '26', 'Amalie Arena', '12', 'TOR', 'Toronto', 'Maple Leafs', '0', '1', '0', '0', '0', '29', '29', '50.0', '3', '1', '33.3', '1', '0', '100.0', '0', '0', '3', '4', '30', '10', '2', '4', '20']"
"['', '41914', '2018-03-22', '00:00:00 GMT', '12', 'TOR', 'Toronto', 'Maple Leafs', '18', 'NSH', 'Nashville', 'Predators', '15', 'Bridgestone Arena', '12', 'TOR', 'Toronto', 'Maple Leafs', '1', '0', '0', '0', '2', '29', '35', '45.3', '3', '2', '66.7', '5', '1', '80.0', '0', '0', '5', '2', '28', '13', '6', '12', '12']"
"['', '41929', '2018-03-24', '23:00:00 GMT', '16', 'DET', 'Detroit', 'Red Wings', '12', 'TOR', 'Toronto', 'Maple Leafs', '1', 'Air Canada Center', '12', 'TOR', 'Toronto', 'Maple Leafs', '1', '0', '0', '0', '2', '37', '33', '52.9', '4', '0', '0.0', '1', '0', '100.0', '0', '0', '4', '3', '29', '11', '2', '7', '13']"
"['', '41942', '2018-03-26', '23:00:00 GMT', '15', 'BUF', 'Buffalo', 'Sabres', '12', 'TOR', 'Toronto', 'Maple Leafs', '1', 'Air Canada Center', '12', 'TOR', 'Toronto', 'Maple Leafs', '0', '1', '0', '0', '0', '26', '22', '54.2', '1', '1', '100.0', '0', '0', '0.0', '0', '0', '2', '3', '41', '8', '0', '0', '21']"
"['', '41958', '2018-03-28', '23:30:00 GMT', '4', 'FLO', 'Florida', 'Panthers', '12', 'TOR', 'Toronto', 'Maple Leafs', '1', 'Air Canada Center', '12', 'TOR', 'Toronto', 'Maple Leafs', '1', '0', '0', '0', '2', '35', '36', '49.3', '1', '0', '0.0', '3', '0', '100.0', '0', '0', '4', '3', '35', '22', '3', '6', '22']"
"['', '41972', '2018-03-30', '23:00:00 GMT', '12', 'TOR', 'Toronto', 'Maple Leafs', '8', 'NYI', 'New York', 'Islanders', '16', 'Nassau Veterans Memorial Coliseum', '12', 'TOR', 'Toronto', 'Maple Leafs', '1', '0', '0', '0', '2', '30', '25', '54.5', '2', '1', '50.0', '3', '2', '33.3', '0', '0', '5', '4', '32', '8', '4', '8', '13']"
"['', '41982', '2018-03-31', '23:00:00 GMT', '2', 'WPJ', 'Winnipeg', 'Jets', '12', 'TOR', 'Toronto', 'Maple Leafs', '1', 'Air Canada Center', '12', 'TOR', 'Toronto', 'Maple Leafs', '0', '1', '0', '0', '0', '36', '24', '60.0', '4', '1', '25.0', '3', '1', '66.7', '0', '0', '1', '3', '29', '7', '3', '6', '11']"
"['', '41995', '2018-04-02', '23:00:00 GMT', '15', 'BUF', 'Buffalo', 'Sabres', '12', 'TOR', 'Toronto', 'Maple Leafs', '1', 'Air Canada Center', '12', 'TOR', 'Toronto', 'Maple Leafs', '1', '0', '0', '0', '2', '35', '27', '56.5', '3', '2', '66.7', '5', '2', '60.0', '0', '0', '5', '2', '36', '15', '4', '10', '32']"
"['', '42017', '2018-04-05', '23:00:00 GMT', '12', 'TOR', 'Toronto', 'Maple Leafs', '7', 'NJD', 'New Jersey', 'Devils', '37', 'Prudential Center', '12', 'TOR', 'Toronto', 'Maple Leafs', '0', '1', '0', '0', '0', '33', '29', '53.2', '2', '1', '50.0', '2', '0', '100.0', '0', '0', '1', '2', '32', '9', '2', '4', '17']"
"['', '42034', '2018-04-07', '23:00:00 GMT', '14', 'MTL', 'Montreal', 'Canadiens', '12', 'TOR', 'Toronto', 'Maple Leafs', '1', 'Air Canada Center', '12', 'TOR', 'Toronto', 'Maple Leafs', '1', '0', '0', '0', '2', '37', '23', '61.7', '5', '2', '40.0', '4', '1', '75.0', '0', '0', '4', '2', '30', '13', '4', '8', '16']"
