"['#Date/Time of Update: 2018-12-10 19:03:26 GMT', '#Game ID', '#Game Date', '#Game Time', '#Away Team ID', '#Away Team Abbr.', '#Away Team City', '#Away Team Name', '#Home Team ID', '#Home Team Abbr.', '#Home Team City', '#Home Team Name', '#Venue ID', '#Venue Name', '#Team ID', '#Team Abbr.', '#Team City', '#Team Name', '#Wins', '#Losses', '#OvertimeWins', '#OvertimeLosses', '#Points', '#FaceoffWins', '#FaceoffLosses', '#FaceoffPercent', '#Powerplays', '#PowerplayGoals', '#PowerplayPercent', '#PenaltyKills', '#PenaltyKillGoalsAllowed', '#PenaltyKillPercent', '#ShorthandedGoalsFor', '#ShorthandedGoalsAgainst', '#GoalsFor', '#GoalsAgainst', '#Shots', '#Penalties', '#PenaltyMinutes', '#Hits']"
"['', '46306', '2018-10-04', '23:00:00 GMT', '8', 'NYI', 'New York', 'Islanders', '3', 'CAR', 'Carolina', 'Hurricanes', '21', 'PNC Arena', '8', 'NYI', 'New York', 'Islanders', '1', '0', '0', '0', '2', '22', '33', '40.0', '3', '1', '33.3', '3', '0', '100.0', '0', '0', '2', '1', '20', '3', '6', '32']"
"['', '46319', '2018-10-06', '23:00:00 GMT', '18', 'NSH', 'Nashville', 'Predators', '8', 'NYI', 'New York', 'Islanders', '78', 'Barclays Center', '8', 'NYI', 'New York', 'Islanders', '0', '1', '0', '0', '0', '31', '25', '55.4', '4', '1', '25.0', '1', '0', '100.0', '0', '0', '3', '4', '29', '2', '4', '18']"
"['', '46331', '2018-10-08', '17:00:00 GMT', '26', 'SJS', 'San Jose', 'Sharks', '8', 'NYI', 'New York', 'Islanders', '78', 'Barclays Center', '8', 'NYI', 'New York', 'Islanders', '1', '0', '0', '0', '2', '22', '35', '38.6', '4', '1', '25.0', '4', '0', '100.0', '1', '0', '4', '0', '30', '4', '8', '21']"
"['', '46364', '2018-10-13', '00:00:00 GMT', '8', 'NYI', 'New York', 'Islanders', '18', 'NSH', 'Nashville', 'Predators', '15', 'Bridgestone Arena', '8', 'NYI', 'New York', 'Islanders', '0', '1', '0', '0', '0', '29', '33', '46.8', '1', '0', '0.0', '2', '2', '0.0', '0', '0', '2', '5', '22', '2', '4', '24']"
"['', '46387', '2018-10-17', '02:00:00 GMT', '8', 'NYI', 'New York', 'Islanders', '29', 'ANA', 'Anaheim', 'Ducks', '8', 'Honda Center', '8', 'NYI', 'New York', 'Islanders', '0', '1', '0', '0', '0', '26', '23', '53.1', '4', '0', '0.0', '3', '1', '66.7', '0', '0', '1', '4', '35', '5', '13', '13']"
"['', '46395', '2018-10-18', '02:30:00 GMT', '8', 'NYI', 'New York', 'Islanders', '28', 'LAK', 'Los Angeles', 'Kings', '25', 'Staples Center', '8', 'NYI', 'New York', 'Islanders', '1', '0', '0', '0', '2', '29', '35', '45.3', '3', '1', '33.3', '4', '2', '50.0', '1', '0', '7', '2', '32', '4', '8', '13']"
"['', '46412', '2018-10-20', '02:30:00 GMT', '8', 'NYI', 'New York', 'Islanders', '26', 'SJS', 'San Jose', 'Sharks', '9', 'SAP Center at San Jose', '8', 'NYI', 'New York', 'Islanders', '0', '1', '0', '0', '0', '24', '30', '44.4', '1', '0', '0.0', '2', '0', '100.0', '0', '0', '1', '4', '25', '11', '52', '29']"
"['', '46428', '2018-10-24', '23:00:00 GMT', '4', 'FLO', 'Florida', 'Panthers', '8', 'NYI', 'New York', 'Islanders', '78', 'Barclays Center', '8', 'NYI', 'New York', 'Islanders', '0', '0', '0', '1', '1', '35', '35', '50.0', '3', '1', '33.3', '5', '2', '60.0', '0', '0', '2', '3', '22', '6', '12', '20']"
"['', '46447', '2018-10-27', '17:00:00 GMT', '8', 'NYI', 'New York', 'Islanders', '6', 'PHI', 'Philadelphia', 'Flyers', '29', 'Wells Fargo Center', '8', 'NYI', 'New York', 'Islanders', '1', '0', '0', '0', '2', '21', '36', '36.8', '3', '1', '33.3', '3', '0', '100.0', '0', '0', '6', '1', '22', '3', '6', '27']"
"['', '46459', '2018-10-28', '21:00:00 GMT', '8', 'NYI', 'New York', 'Islanders', '3', 'CAR', 'Carolina', 'Hurricanes', '21', 'PNC Arena', '8', 'NYI', 'New York', 'Islanders', '1', '0', '0', '0', '2', '24', '36', '40.0', '4', '1', '25.0', '3', '0', '100.0', '0', '0', '2', '1', '20', '3', '6', '31']"
"['', '46466', '2018-10-30', '23:00:00 GMT', '8', 'NYI', 'New York', 'Islanders', '10', 'PIT', 'Pittsburgh', 'Penguins', '40', 'PPG Paints Arena', '8', 'NYI', 'New York', 'Islanders', '1', '0', '0', '0', '2', '25', '28', '47.2', '4', '1', '25.0', '3', '0', '100.0', '0', '0', '6', '3', '25', '3', '6', '27']"
"['', '46479', '2018-11-01', '23:00:00 GMT', '10', 'PIT', 'Pittsburgh', 'Penguins', '8', 'NYI', 'New York', 'Islanders', '78', 'Barclays Center', '8', 'NYI', 'New York', 'Islanders', '1', '0', '0', '0', '2', '31', '33', '48.4', '2', '0', '0.0', '4', '2', '50.0', '1', '0', '2', '2', '26', '5', '10', '27']"
"['', '46496', '2018-11-03', '23:00:00 GMT', '7', 'NJD', 'New Jersey', 'Devils', '8', 'NYI', 'New York', 'Islanders', '78', 'Barclays Center', '8', 'NYI', 'New York', 'Islanders', '1', '0', '0', '0', '2', '25', '31', '44.6', '4', '1', '25.0', '4', '0', '100.0', '1', '0', '3', '0', '33', '4', '8', '21']"
"['', '46509', '2018-11-05', '00:00:00 GMT', '14', 'MTL', 'Montreal', 'Canadiens', '8', 'NYI', 'New York', 'Islanders', '78', 'Barclays Center', '8', 'NYI', 'New York', 'Islanders', '0', '0', '0', '1', '1', '28', '26', '51.9', '4', '0', '0.0', '3', '1', '66.7', '0', '0', '3', '3', '24', '4', '8', '23']"
"['', '46530', '2018-11-08', '00:30:00 GMT', '8', 'NYI', 'New York', 'Islanders', '1', 'TBL', 'Tampa Bay', 'Lightning', '26', 'Amalie Arena', '8', 'NYI', 'New York', 'Islanders', '0', '1', '0', '0', '0', '22', '30', '42.3', '5', '0', '0.0', '4', '0', '100.0', '0', '0', '2', '4', '37', '4', '8', '24']"
"['', '46546', '2018-11-10', '00:00:00 GMT', '8', 'NYI', 'New York', 'Islanders', '4', 'FLO', 'Florida', 'Panthers', '3', 'BB&T Center', '8', 'NYI', 'New York', 'Islanders', '0', '1', '0', '0', '0', '30', '28', '51.7', '4', '0', '0.0', '5', '1', '80.0', '0', '0', '2', '4', '31', '6', '12', '16']"
"['', '46564', '2018-11-13', '00:00:00 GMT', '21', 'VAN', 'Vancouver', 'Canucks', '8', 'NYI', 'New York', 'Islanders', '78', 'Barclays Center', '8', 'NYI', 'New York', 'Islanders', '1', '0', '0', '0', '2', '30', '23', '56.6', '5', '1', '20.0', '5', '1', '80.0', '0', '0', '5', '2', '34', '6', '20', '15']"
"['', '46575', '2018-11-15', '00:00:00 GMT', '9', 'NYR', 'New York', 'Rangers', '8', 'NYI', 'New York', 'Islanders', '78', 'Barclays Center', '8', 'NYI', 'New York', 'Islanders', '1', '0', '0', '0', '2', '37', '34', '52.1', '4', '2', '50.0', '4', '2', '50.0', '0', '1', '7', '5', '24', '4', '8', '22']"
"['', '46601', '2018-11-18', '18:00:00 GMT', '27', 'DAL', 'Dallas', 'Stars', '8', 'NYI', 'New York', 'Islanders', '78', 'Barclays Center', '8', 'NYI', 'New York', 'Islanders', '0', '1', '0', '0', '0', '33', '21', '61.1', '2', '0', '0.0', '3', '0', '100.0', '0', '0', '2', '6', '39', '2', '6', '24']"
"['', '46618', '2018-11-21', '00:00:00 GMT', '8', 'NYI', 'New York', 'Islanders', '9', 'NYR', 'New York', 'Rangers', '12', 'Madison Square Garden', '8', 'NYI', 'New York', 'Islanders', '0', '1', '0', '0', '0', '27', '26', '50.9', '1', '0', '0.0', '3', '1', '66.7', '0', '0', '0', '5', '29', '5', '13', '38']"
"['', '46632', '2018-11-23', '21:00:00 GMT', '8', 'NYI', 'New York', 'Islanders', '7', 'NJD', 'New Jersey', 'Devils', '37', 'Prudential Center', '8', 'NYI', 'New York', 'Islanders', '1', '0', '0', '0', '2', '30', '30', '50.0', '3', '0', '0.0', '3', '0', '100.0', '0', '0', '4', '3', '35', '4', '8', '28']"
"['', '46650', '2018-11-24', '00:00:00 GMT', '3', 'CAR', 'Carolina', 'Hurricanes', '8', 'NYI', 'New York', 'Islanders', '78', 'Barclays Center', '8', 'NYI', 'New York', 'Islanders', '1', '0', '0', '0', '2', '24', '30', '44.4', '1', '0', '0.0', '3', '1', '66.7', '0', '0', '4', '1', '19', '4', '11', '26']"
"['', '46662', '2018-11-26', '00:00:00 GMT', '5', 'WSH', 'Washington', 'Capitals', '8', 'NYI', 'New York', 'Islanders', '78', 'Barclays Center', '8', 'NYI', 'New York', 'Islanders', '0', '1', '0', '0', '0', '27', '20', '57.4', '4', '0', '0.0', '2', '1', '50.0', '0', '0', '1', '4', '33', '2', '4', '30']"
"['', '46680', '2018-11-29', '00:00:00 GMT', '8', 'NYI', 'New York', 'Islanders', '11', 'BOS', 'Boston', 'Bruins', '27', 'TD Garden', '8', 'NYI', 'New York', 'Islanders', '0', '0', '0', '1', '1', '20', '32', '38.5', '1', '0', '0.0', '1', '1', '0.0', '0', '0', '1', '1', '29', '1', '2', '35']"
"['', '46699', '2018-12-01', '00:00:00 GMT', '19', 'CBJ', 'Columbus', 'Blue Jackets', '8', 'NYI', 'New York', 'Islanders', '78', 'Barclays Center', '8', 'NYI', 'New York', 'Islanders', '1', '0', '0', '0', '2', '24', '26', '48.0', '3', '0', '0.0', '2', '0', '100.0', '0', '0', '3', '2', '29', '3', '6', '35']"
"['', '46716', '2018-12-04', '00:00:00 GMT', '2', 'WPJ', 'Winnipeg', 'Jets', '8', 'NYI', 'New York', 'Islanders', '78', 'Barclays Center', '8', 'NYI', 'New York', 'Islanders', '0', '1', '0', '0', '0', '21', '32', '39.6', '2', '0', '0.0', '3', '1', '66.7', '0', '0', '1', '3', '28', '3', '6', '24']"
"['', '46730', '2018-12-06', '00:00:00 GMT', '8', 'NYI', 'New York', 'Islanders', '10', 'PIT', 'Pittsburgh', 'Penguins', '40', 'PPG Paints Arena', '8', 'NYI', 'New York', 'Islanders', '0', '1', '0', '0', '0', '25', '32', '43.9', '2', '0', '0.0', '3', '1', '66.7', '1', '0', '2', '6', '24', '4', '8', '46']"
"['', '46746', '2018-12-08', '00:00:00 GMT', '8', 'NYI', 'New York', 'Islanders', '16', 'DET', 'Detroit', 'Red Wings', '145', 'Little Caesars Arena', '8', 'NYI', 'New York', 'Islanders', '1', '0', '0', '0', '2', '32', '28', '53.3', '4', '1', '25.0', '3', '0', '100.0', '0', '0', '3', '2', '19', '6', '18', '24']"
