"['#Date/Time of Update: 2018-12-10 19:03:10 GMT', '#Game ID', '#Game Date', '#Game Time', '#Away Team ID', '#Away Team Abbr.', '#Away Team City', '#Away Team Name', '#Home Team ID', '#Home Team Abbr.', '#Home Team City', '#Home Team Name', '#Venue ID', '#Venue Name', '#Team ID', '#Team Abbr.', '#Team City', '#Team Name', '#Wins', '#Losses', '#OvertimeWins', '#OvertimeLosses', '#ShootoutWins', '#ShootoutLosses', '#Rows', '#Points', '#FaceoffWins', '#FaceoffLosses', '#FaceoffPercent', '#Powerplays', '#PowerplayGoals', '#PowerplayPercent', '#PenaltyKills', '#PenaltyKillGoalsAllowed', '#PenaltyKillPercent', '#ShorthandedGoalsFor', '#ShorthandedGoalsAgainst', '#GoalsFor', '#GoalsAgainst', '#Shots', '#Penalties', '#PenaltyMinutes', '#Hits']"
"['', '26360', '2013-10-02', '01:30:00 GMT', '29', 'ANA', 'Anaheim', 'Ducks', '22', 'COL', 'Colorado', 'Avalanche', '19', 'Pepsi Center', '22', 'COL', 'Colorado', 'Avalanche', '1', '0', '0', '0', '0', '0', '1', '2', '27', '37', '42.2', '4', '2', '50.0', '2', '0', '100.0', '0', '0', '6', '1', '23', '7', '20', '21']"
"['', '26374', '2013-10-04', '01:00:00 GMT', '18', 'NSH', 'Nashville', 'Predators', '22', 'COL', 'Colorado', 'Avalanche', '19', 'Pepsi Center', '22', 'COL', 'Colorado', 'Avalanche', '1', '0', '0', '0', '0', '0', '1', '2', '23', '31', '42.6', '5', '0', '0.0', '3', '0', '100.0', '0', '0', '3', '1', '33', '6', '12', '19']"
"['', '26391', '2013-10-08', '23:00:00 GMT', '22', 'COL', 'Colorado', 'Avalanche', '12', 'TOR', 'Toronto', 'Maple Leafs', '1', 'Air Canada Center', '22', 'COL', 'Colorado', 'Avalanche', '1', '0', '0', '0', '0', '0', '1', '2', '41', '27', '60.3', '3', '0', '0.0', '2', '0', '100.0', '0', '0', '2', '1', '31', '3', '9', '44']"
"['', '26402', '2013-10-10', '23:00:00 GMT', '22', 'COL', 'Colorado', 'Avalanche', '11', 'BOS', 'Boston', 'Bruins', '27', 'TD Garden', '22', 'COL', 'Colorado', 'Avalanche', '1', '0', '0', '0', '0', '0', '1', '2', '32', '32', '50.0', '4', '1', '25.0', '3', '0', '100.0', '0', '0', '2', '0', '28', '8', '19', '25']"
"['', '26421', '2013-10-12', '23:00:00 GMT', '22', 'COL', 'Colorado', 'Avalanche', '5', 'WSH', 'Washington', 'Capitals', '13', 'Verizon Center', '22', 'COL', 'Colorado', 'Avalanche', '1', '0', '0', '0', '0', '0', '1', '2', '35', '35', '50.0', '3', '1', '33.3', '2', '0', '100.0', '1', '0', '5', '1', '23', '2', '4', '32']"
"['', '26446', '2013-10-15', '01:00:00 GMT', '27', 'DAL', 'Dallas', 'Stars', '22', 'COL', 'Colorado', 'Avalanche', '19', 'Pepsi Center', '22', 'COL', 'Colorado', 'Avalanche', '1', '0', '0', '0', '0', '0', '1', '2', '32', '33', '49.2', '2', '0', '0.0', '4', '1', '75.0', '0', '0', '3', '2', '23', '5', '10', '16']"
"['', '26461', '2013-10-17', '01:00:00 GMT', '16', 'DET', 'Detroit', 'Red Wings', '22', 'COL', 'Colorado', 'Avalanche', '19', 'Pepsi Center', '22', 'COL', 'Colorado', 'Avalanche', '0', '1', '0', '0', '0', '0', '0', '0', '29', '25', '53.7', '4', '2', '50.0', '3', '2', '33.3', '0', '0', '2', '4', '38', '6', '26', '24']"
"['', '26466', '2013-10-19', '23:00:00 GMT', '22', 'COL', 'Colorado', 'Avalanche', '15', 'BUF', 'Buffalo', 'Sabres', '10', 'First Niagara Center', '22', 'COL', 'Colorado', 'Avalanche', '1', '0', '0', '0', '0', '0', '1', '2', '31', '34', '47.7', '3', '1', '33.3', '3', '0', '100.0', '0', '0', '4', '2', '22', '5', '21', '18']"
"['', '26481', '2013-10-21', '23:30:00 GMT', '22', 'COL', 'Colorado', 'Avalanche', '10', 'PIT', 'Pittsburgh', 'Penguins', '40', 'Consol Energy Center', '22', 'COL', 'Colorado', 'Avalanche', '1', '0', '0', '0', '0', '0', '1', '2', '19', '32', '37.3', '3', '0', '0.0', '5', '0', '100.0', '0', '0', '1', '0', '13', '8', '16', '28']"
"['', '26508', '2013-10-25', '01:00:00 GMT', '3', 'CAR', 'Carolina', 'Hurricanes', '22', 'COL', 'Colorado', 'Avalanche', '19', 'Pepsi Center', '22', 'COL', 'Colorado', 'Avalanche', '1', '0', '0', '0', '0', '0', '1', '2', '33', '33', '50.0', '3', '1', '33.3', '3', '0', '100.0', '0', '0', '4', '2', '30', '3', '6', '11']"
"['', '26523', '2013-10-27', '00:00:00 GMT', '2', 'WPJ', 'Winnipeg', 'Jets', '22', 'COL', 'Colorado', 'Avalanche', '19', 'Pepsi Center', '22', 'COL', 'Colorado', 'Avalanche', '1', '0', '0', '0', '0', '0', '1', '2', '30', '21', '58.8', '1', '0', '0.0', '5', '0', '100.0', '0', '0', '3', '2', '33', '6', '12', '15']"
"['', '26551', '2013-11-01', '00:30:00 GMT', '22', 'COL', 'Colorado', 'Avalanche', '27', 'DAL', 'Dallas', 'Stars', '2', 'American Airlines Center', '22', 'COL', 'Colorado', 'Avalanche', '1', '0', '0', '0', '0', '0', '1', '2', '38', '27', '58.5', '4', '0', '0.0', '2', '0', '100.0', '0', '0', '3', '2', '26', '3', '9', '28']"
"['', '26562', '2013-11-02', '02:00:00 GMT', '14', 'MTL', 'Montreal', 'Canadiens', '22', 'COL', 'Colorado', 'Avalanche', '19', 'Pepsi Center', '22', 'COL', 'Colorado', 'Avalanche', '1', '0', '0', '0', '0', '0', '1', '2', '35', '39', '47.3', '2', '0', '0.0', '3', '1', '66.7', '0', '0', '4', '1', '27', '5', '16', '27']"
"['', '26582', '2013-11-06', '02:30:00 GMT', '18', 'NSH', 'Nashville', 'Predators', '22', 'COL', 'Colorado', 'Avalanche', '19', 'Pepsi Center', '22', 'COL', 'Colorado', 'Avalanche', '0', '1', '0', '0', '0', '0', '0', '0', '23', '34', '40.4', '2', '0', '0.0', '2', '2', '0.0', '0', '0', '4', '6', '27', '4', '16', '24']"
"['', '26597', '2013-11-08', '02:00:00 GMT', '23', 'CGY', 'Calgary', 'Flames', '22', 'COL', 'Colorado', 'Avalanche', '19', 'Pepsi Center', '22', 'COL', 'Colorado', 'Avalanche', '1', '0', '0', '0', '0', '0', '1', '2', '27', '29', '48.2', '3', '1', '33.3', '1', '0', '100.0', '0', '0', '4', '2', '23', '3', '9', '19']"
"['', '26614', '2013-11-10', '01:00:00 GMT', '5', 'WSH', 'Washington', 'Capitals', '22', 'COL', 'Colorado', 'Avalanche', '19', 'Pepsi Center', '22', 'COL', 'Colorado', 'Avalanche', '1', '0', '0', '0', '0', '0', '1', '2', '24', '31', '43.6', '2', '0', '0.0', '4', '0', '100.0', '0', '0', '4', '1', '33', '4', '8', '21']"
"['', '26621', '2013-11-12', '00:00:00 GMT', '22', 'COL', 'Colorado', 'Avalanche', '3', 'CAR', 'Carolina', 'Hurricanes', '21', 'RBC Center', '22', 'COL', 'Colorado', 'Avalanche', '0', '1', '0', '0', '0', '0', '0', '0', '26', '36', '41.9', '2', '1', '50.0', '1', '0', '100.0', '0', '0', '1', '2', '33', '1', '2', '38']"
"['', '26635', '2013-11-14', '01:00:00 GMT', '22', 'COL', 'Colorado', 'Avalanche', '17', 'STL', 'St. Louis', 'Blues', '24', 'Scottrade Center', '22', 'COL', 'Colorado', 'Avalanche', '0', '1', '0', '0', '0', '0', '0', '0', '30', '34', '46.9', '5', '1', '20.0', '4', '3', '25.0', '0', '0', '3', '7', '21', '11', '55', '21']"
"['', '26655', '2013-11-16', '02:00:00 GMT', '4', 'FLO', 'Florida', 'Panthers', '22', 'COL', 'Colorado', 'Avalanche', '19', 'Pepsi Center', '22', 'COL', 'Colorado', 'Avalanche', '0', '1', '0', '0', '0', '0', '0', '0', '28', '26', '51.9', '1', '0', '0.0', '5', '1', '80.0', '0', '0', '1', '4', '32', '5', '10', '37']"
"['', '26672', '2013-11-19', '02:00:00 GMT', '20', 'CHI', 'Chicago', 'Blackhawks', '22', 'COL', 'Colorado', 'Avalanche', '19', 'Pepsi Center', '22', 'COL', 'Colorado', 'Avalanche', '1', '0', '0', '0', '0', '0', '1', '2', '21', '30', '41.2', '1', '0', '0.0', '1', '0', '100.0', '0', '0', '5', '1', '18', '1', '2', '28']"
"['', '26686', '2013-11-21', '02:00:00 GMT', '22', 'COL', 'Colorado', 'Avalanche', '30', 'PHX', 'Phoenix', 'Coyotes', '6', 'Jobing.com Arena', '22', 'COL', 'Colorado', 'Avalanche', '1', '0', '0', '0', '0', '0', '1', '2', '29', '38', '43.3', '5', '2', '40.0', '3', '1', '66.7', '0', '0', '4', '3', '26', '3', '6', '28']"
"['', '26705', '2013-11-23', '03:30:00 GMT', '22', 'COL', 'Colorado', 'Avalanche', '28', 'LAK', 'Los Angeles', 'Kings', '25', 'Staples Center', '22', 'COL', 'Colorado', 'Avalanche', '1', '0', '0', '0', '0', '0', '1', '2', '24', '23', '51.1', '3', '0', '0.0', '4', '0', '100.0', '0', '0', '1', '0', '32', '4', '8', '34']"
"['', '26729', '2013-11-27', '02:00:00 GMT', '17', 'STL', 'St. Louis', 'Blues', '22', 'COL', 'Colorado', 'Avalanche', '19', 'Pepsi Center', '22', 'COL', 'Colorado', 'Avalanche', '0', '1', '0', '0', '0', '0', '0', '0', '26', '24', '52.0', '4', '0', '0.0', '1', '1', '0.0', '0', '1', '1', '4', '25', '2', '4', '35']"
"['', '26741', '2013-11-29', '23:00:00 GMT', '22', 'COL', 'Colorado', 'Avalanche', '25', 'MIN', 'Minnesota', 'Wild', '30', 'Xcel Energy Center', '22', 'COL', 'Colorado', 'Avalanche', '1', '0', '0', '0', '0', '0', '1', '2', '26', '21', '55.3', '2', '0', '0.0', '2', '0', '100.0', '0', '0', '3', '1', '18', '4', '19', '19']"
"['', '26754', '2013-11-30', '02:00:00 GMT', '25', 'MIN', 'Minnesota', 'Wild', '22', 'COL', 'Colorado', 'Avalanche', '19', 'Pepsi Center', '22', 'COL', 'Colorado', 'Avalanche', '1', '0', '0', '0', '0', '0', '0', '2', '38', '31', '55.1', '0', '0', '0.0', '0', '0', '0.0', '0', '0', '2', '2', '23', '0', '0', '30']"
"['', '26785', '2013-12-05', '02:30:00 GMT', '22', 'COL', 'Colorado', 'Avalanche', '24', 'EDM', 'Edmonton', 'Oilers', '22', 'Rogers Place', '22', 'COL', 'Colorado', 'Avalanche', '0', '1', '0', '0', '0', '0', '0', '0', '39', '31', '55.7', '6', '0', '0.0', '5', '0', '100.0', '0', '0', '2', '8', '33', '10', '23', '20']"
"['', '26790', '2013-12-06', '02:00:00 GMT', '22', 'COL', 'Colorado', 'Avalanche', '23', 'CGY', 'Calgary', 'Flames', '18', 'Scotiabank Saddledome', '22', 'COL', 'Colorado', 'Avalanche', '1', '0', '0', '0', '0', '0', '1', '2', '25', '34', '42.4', '2', '0', '0.0', '4', '1', '75.0', '0', '0', '3', '2', '22', '6', '15', '10']"
"['', '26807', '2013-12-08', '01:00:00 GMT', '22', 'COL', 'Colorado', 'Avalanche', '21', 'VAN', 'Vancouver', 'Canucks', '7', 'Rogers Arena', '22', 'COL', 'Colorado', 'Avalanche', '0', '1', '0', '0', '0', '0', '0', '0', '30', '31', '49.2', '1', '0', '0.0', '2', '0', '100.0', '0', '0', '1', '3', '28', '3', '6', '12']"
"['', '26820', '2013-12-10', '02:00:00 GMT', '30', 'PHX', 'Phoenix', 'Coyotes', '22', 'COL', 'Colorado', 'Avalanche', '19', 'Pepsi Center', '22', 'COL', 'Colorado', 'Avalanche', '0', '1', '0', '0', '0', '0', '0', '0', '19', '27', '41.3', '2', '0', '0.0', '2', '1', '50.0', '0', '0', '1', '3', '29', '2', '4', '24']"
"['', '26833', '2013-12-12', '01:00:00 GMT', '22', 'COL', 'Colorado', 'Avalanche', '2', 'WPJ', 'Winnipeg', 'Jets', '39', 'MTS Centre', '22', 'COL', 'Colorado', 'Avalanche', '1', '0', '0', '0', '0', '0', '0', '2', '34', '25', '57.6', '2', '0', '0.0', '6', '2', '66.7', '0', '0', '3', '3', '23', '6', '12', '34']"
"['', '26851', '2013-12-14', '02:00:00 GMT', '25', 'MIN', 'Minnesota', 'Wild', '22', 'COL', 'Colorado', 'Avalanche', '19', 'Pepsi Center', '22', 'COL', 'Colorado', 'Avalanche', '0', '0', '0', '1', '0', '0', '0', '1', '26', '24', '52.0', '2', '0', '0.0', '1', '0', '100.0', '0', '0', '1', '1', '26', '1', '2', '23']"
"['', '26862', '2013-12-16', '02:00:00 GMT', '27', 'DAL', 'Dallas', 'Stars', '22', 'COL', 'Colorado', 'Avalanche', '19', 'Pepsi Center', '22', 'COL', 'Colorado', 'Avalanche', '1', '0', '0', '0', '0', '0', '1', '2', '28', '24', '53.8', '5', '0', '0.0', '4', '0', '100.0', '0', '0', '6', '2', '42', '5', '10', '22']"
"['', '26873', '2013-12-17', '01:30:00 GMT', '22', 'COL', 'Colorado', 'Avalanche', '27', 'DAL', 'Dallas', 'Stars', '2', 'American Airlines Center', '22', 'COL', 'Colorado', 'Avalanche', '0', '1', '0', '0', '0', '0', '0', '0', '30', '30', '50.0', '5', '1', '20.0', '4', '1', '75.0', '1', '0', '2', '3', '25', '7', '17', '20']"
"['', '26886', '2013-12-19', '02:00:00 GMT', '24', 'EDM', 'Edmonton', 'Oilers', '22', 'COL', 'Colorado', 'Avalanche', '19', 'Pepsi Center', '22', 'COL', 'Colorado', 'Avalanche', '1', '0', '0', '0', '0', '0', '1', '2', '34', '35', '49.3', '2', '1', '50.0', '1', '0', '100.0', '1', '0', '4', '2', '35', '1', '2', '23']"
"['', '26894', '2013-12-21', '21:00:00 GMT', '22', 'COL', 'Colorado', 'Avalanche', '28', 'LAK', 'Los Angeles', 'Kings', '25', 'Staples Center', '22', 'COL', 'Colorado', 'Avalanche', '0', '0', '0', '1', '0', '0', '0', '1', '25', '39', '39.1', '4', '2', '50.0', '2', '0', '100.0', '0', '0', '2', '2', '23', '2', '4', '30']"
"['', '26920', '2013-12-23', '03:30:00 GMT', '22', 'COL', 'Colorado', 'Avalanche', '26', 'SJS', 'San Jose', 'Sharks', '9', 'SAP Center at San Jose', '22', 'COL', 'Colorado', 'Avalanche', '0', '0', '0', '1', '0', '0', '0', '1', '30', '42', '41.7', '2', '1', '50.0', '4', '2', '50.0', '0', '0', '4', '4', '29', '6', '18', '21']"
"['', '26926', '2013-12-27', '01:00:00 GMT', '22', 'COL', 'Colorado', 'Avalanche', '20', 'CHI', 'Chicago', 'Blackhawks', '28', 'United Center', '22', 'COL', 'Colorado', 'Avalanche', '0', '1', '0', '0', '0', '0', '0', '0', '30', '26', '53.6', '2', '0', '0.0', '2', '1', '50.0', '0', '0', '2', '7', '16', '3', '6', '42']"
"['', '26947', '2013-12-29', '01:00:00 GMT', '2', 'WPJ', 'Winnipeg', 'Jets', '22', 'COL', 'Colorado', 'Avalanche', '19', 'Pepsi Center', '22', 'COL', 'Colorado', 'Avalanche', '0', '0', '0', '1', '0', '0', '0', '1', '30', '27', '52.6', '1', '0', '0.0', '2', '0', '100.0', '0', '0', '1', '2', '33', '2', '4', '46']"
"['', '26960', '2013-12-31', '01:00:00 GMT', '19', 'CBJ', 'Columbus', 'Blue Jackets', '22', 'COL', 'Colorado', 'Avalanche', '19', 'Pepsi Center', '22', 'COL', 'Colorado', 'Avalanche', '1', '0', '0', '0', '0', '0', '1', '2', '31', '30', '50.8', '3', '3', '100.0', '3', '0', '100.0', '0', '0', '5', '3', '18', '3', '6', '27']"
"['', '26973', '2014-01-02', '02:00:00 GMT', '6', 'PHI', 'Philadelphia', 'Flyers', '22', 'COL', 'Colorado', 'Avalanche', '19', 'Pepsi Center', '22', 'COL', 'Colorado', 'Avalanche', '1', '0', '0', '0', '0', '0', '1', '2', '35', '26', '57.4', '2', '0', '0.0', '3', '0', '100.0', '0', '0', '2', '1', '29', '3', '6', '34']"
"['', '26981', '2014-01-04', '20:00:00 GMT', '26', 'SJS', 'San Jose', 'Sharks', '22', 'COL', 'Colorado', 'Avalanche', '19', 'Pepsi Center', '22', 'COL', 'Colorado', 'Avalanche', '1', '0', '0', '0', '0', '0', '1', '2', '28', '38', '42.4', '4', '2', '50.0', '2', '1', '50.0', '0', '0', '4', '3', '17', '5', '13', '31']"
"['', '27000', '2014-01-06', '02:00:00 GMT', '23', 'CGY', 'Calgary', 'Flames', '22', 'COL', 'Colorado', 'Avalanche', '19', 'Pepsi Center', '22', 'COL', 'Colorado', 'Avalanche', '0', '1', '0', '0', '0', '0', '0', '0', '33', '34', '49.3', '4', '2', '50.0', '3', '1', '66.7', '0', '0', '3', '4', '22', '3', '6', '17']"
"['', '27013', '2014-01-08', '02:30:00 GMT', '13', 'OTT', 'Ottawa', 'Senators', '22', 'COL', 'Colorado', 'Avalanche', '19', 'Pepsi Center', '22', 'COL', 'Colorado', 'Avalanche', '1', '0', '0', '0', '0', '0', '1', '2', '27', '26', '50.9', '1', '1', '100.0', '3', '1', '66.7', '0', '0', '4', '3', '27', '3', '6', '26']"
"['', '27026', '2014-01-10', '02:00:00 GMT', '8', 'NYI', 'New York', 'Islanders', '22', 'COL', 'Colorado', 'Avalanche', '19', 'Pepsi Center', '22', 'COL', 'Colorado', 'Avalanche', '0', '0', '0', '1', '0', '0', '0', '1', '35', '25', '58.3', '2', '0', '0.0', '2', '0', '100.0', '0', '0', '1', '2', '30', '2', '4', '32']"
"['', '27034', '2014-01-11', '01:00:00 GMT', '22', 'COL', 'Colorado', 'Avalanche', '25', 'MIN', 'Minnesota', 'Wild', '30', 'Xcel Energy Center', '22', 'COL', 'Colorado', 'Avalanche', '1', '0', '0', '0', '0', '0', '1', '2', '26', '29', '47.3', '3', '0', '0.0', '2', '0', '100.0', '0', '0', '4', '2', '14', '2', '4', '19']"
"['', '27056', '2014-01-14', '01:00:00 GMT', '22', 'COL', 'Colorado', 'Avalanche', '20', 'CHI', 'Chicago', 'Blackhawks', '28', 'United Center', '22', 'COL', 'Colorado', 'Avalanche', '1', '0', '0', '0', '0', '0', '1', '2', '28', '39', '41.8', '4', '2', '50.0', '5', '0', '100.0', '0', '0', '3', '2', '23', '5', '10', '31']"
"['', '27072', '2014-01-16', '02:00:00 GMT', '7', 'NJD', 'New Jersey', 'Devils', '22', 'COL', 'Colorado', 'Avalanche', '19', 'Pepsi Center', '22', 'COL', 'Colorado', 'Avalanche', '1', '0', '0', '0', '0', '0', '0', '2', '41', '24', '63.1', '2', '0', '0.0', '2', '0', '100.0', '0', '0', '1', '1', '37', '2', '4', '28']"
"['', '27086', '2014-01-18', '01:00:00 GMT', '22', 'COL', 'Colorado', 'Avalanche', '18', 'NSH', 'Nashville', 'Predators', '15', 'Bridgestone Arena', '22', 'COL', 'Colorado', 'Avalanche', '1', '0', '0', '0', '0', '0', '1', '2', '33', '29', '53.2', '1', '1', '100.0', '3', '1', '66.7', '0', '0', '5', '4', '24', '6', '18', '24']"
"['', '27107', '2014-01-21', '02:00:00 GMT', '12', 'TOR', 'Toronto', 'Maple Leafs', '22', 'COL', 'Colorado', 'Avalanche', '19', 'Pepsi Center', '22', 'COL', 'Colorado', 'Avalanche', '0', '1', '0', '0', '0', '0', '0', '0', '33', '27', '55.0', '2', '0', '0.0', '4', '1', '75.0', '0', '0', '2', '5', '35', '4', '8', '25']"
"['', '27126', '2014-01-24', '00:30:00 GMT', '22', 'COL', 'Colorado', 'Avalanche', '4', 'FLO', 'Florida', 'Panthers', '3', 'BB&T Center', '22', 'COL', 'Colorado', 'Avalanche', '1', '0', '0', '0', '0', '0', '1', '2', '23', '29', '44.2', '2', '0', '0.0', '2', '0', '100.0', '0', '0', '3', '2', '22', '2', '4', '24']"
"['', '27132', '2014-01-25', '00:00:00 GMT', '22', 'COL', 'Colorado', 'Avalanche', '1', 'TBL', 'Tampa Bay', 'Lightning', '26', 'Tampa Bay Times Forum', '22', 'COL', 'Colorado', 'Avalanche', '0', '1', '0', '0', '0', '0', '0', '0', '33', '29', '53.2', '3', '0', '0.0', '3', '0', '100.0', '0', '0', '2', '5', '25', '3', '6', '16']"
"['', '27145', '2014-01-27', '01:30:00 GMT', '22', 'COL', 'Colorado', 'Avalanche', '27', 'DAL', 'Dallas', 'Stars', '2', 'American Airlines Center', '22', 'COL', 'Colorado', 'Avalanche', '1', '0', '0', '0', '0', '0', '1', '2', '26', '29', '47.3', '2', '1', '50.0', '4', '1', '75.0', '0', '0', '4', '3', '17', '4', '8', '25']"
"['', '27167', '2014-01-30', '02:00:00 GMT', '25', 'MIN', 'Minnesota', 'Wild', '22', 'COL', 'Colorado', 'Avalanche', '19', 'Pepsi Center', '22', 'COL', 'Colorado', 'Avalanche', '1', '0', '0', '0', '0', '0', '1', '2', '32', '33', '49.2', '4', '0', '0.0', '3', '1', '66.7', '0', '0', '5', '4', '27', '8', '30', '20']"
"['', '27179', '2014-02-01', '20:00:00 GMT', '15', 'BUF', 'Buffalo', 'Sabres', '22', 'COL', 'Colorado', 'Avalanche', '19', 'Pepsi Center', '22', 'COL', 'Colorado', 'Avalanche', '1', '0', '0', '0', '0', '0', '1', '2', '36', '27', '57.1', '6', '2', '33.3', '5', '1', '80.0', '0', '0', '7', '1', '32', '6', '15', '13']"
"['', '27192', '2014-02-03', '00:30:00 GMT', '22', 'COL', 'Colorado', 'Avalanche', '7', 'NJD', 'New Jersey', 'Devils', '37', 'Prudential Center', '22', 'COL', 'Colorado', 'Avalanche', '1', '0', '0', '0', '0', '0', '1', '2', '24', '26', '48.0', '5', '1', '20.0', '3', '0', '100.0', '0', '0', '2', '1', '23', '4', '8', '19']"
"['', '27197', '2014-02-04', '00:00:00 GMT', '22', 'COL', 'Colorado', 'Avalanche', '9', 'NYR', 'New York', 'Rangers', '12', 'Madison Square Garden', '22', 'COL', 'Colorado', 'Avalanche', '0', '1', '0', '0', '0', '0', '0', '0', '30', '26', '53.6', '3', '1', '33.3', '3', '0', '100.0', '0', '0', '1', '5', '27', '3', '6', '31']"
"['', '27210', '2014-02-06', '00:00:00 GMT', '22', 'COL', 'Colorado', 'Avalanche', '6', 'PHI', 'Philadelphia', 'Flyers', '29', 'Wells Fargo Center', '22', 'COL', 'Colorado', 'Avalanche', '0', '1', '0', '0', '0', '0', '0', '0', '35', '36', '49.3', '3', '0', '0.0', '3', '1', '66.7', '0', '0', '1', '3', '38', '5', '21', '26']"
"['', '27230', '2014-02-08', '00:00:00 GMT', '22', 'COL', 'Colorado', 'Avalanche', '8', 'NYI', 'New York', 'Islanders', '16', 'Nassau Veterans Memorial Coliseum', '22', 'COL', 'Colorado', 'Avalanche', '1', '0', '0', '0', '0', '0', '1', '2', '17', '30', '36.2', '3', '0', '0.0', '5', '2', '60.0', '0', '0', '5', '2', '22', '6', '12', '5']"
"['', '27236', '2014-02-26', '03:00:00 GMT', '28', 'LAK', 'Los Angeles', 'Kings', '22', 'COL', 'Colorado', 'Avalanche', '19', 'Pepsi Center', '22', 'COL', 'Colorado', 'Avalanche', '0', '1', '0', '0', '0', '0', '0', '0', '34', '30', '53.1', '5', '3', '60.0', '3', '1', '66.7', '0', '0', '4', '6', '25', '3', '6', '16']"
"['', '27251', '2014-02-28', '02:00:00 GMT', '30', 'PHX', 'Phoenix', 'Coyotes', '22', 'COL', 'Colorado', 'Avalanche', '19', 'Pepsi Center', '22', 'COL', 'Colorado', 'Avalanche', '1', '0', '0', '0', '0', '0', '1', '2', '33', '25', '56.9', '4', '2', '50.0', '3', '2', '33.3', '0', '0', '4', '2', '29', '5', '10', '20']"
"['', '27268', '2014-03-02', '01:00:00 GMT', '1', 'TBL', 'Tampa Bay', 'Lightning', '22', 'COL', 'Colorado', 'Avalanche', '19', 'Pepsi Center', '22', 'COL', 'Colorado', 'Avalanche', '1', '0', '0', '0', '0', '0', '1', '2', '29', '27', '51.8', '4', '1', '25.0', '2', '0', '100.0', '0', '0', '6', '3', '29', '2', '4', '18']"
"['', '27278', '2014-03-04', '01:00:00 GMT', '22', 'COL', 'Colorado', 'Avalanche', '20', 'CHI', 'Chicago', 'Blackhawks', '28', 'United Center', '22', 'COL', 'Colorado', 'Avalanche', '1', '0', '0', '0', '0', '0', '1', '2', '26', '25', '51.0', '3', '1', '33.3', '3', '1', '66.7', '0', '0', '4', '2', '17', '4', '8', '31']"
"['', '27291', '2014-03-06', '00:30:00 GMT', '22', 'COL', 'Colorado', 'Avalanche', '16', 'DET', 'Detroit', 'Red Wings', '11', 'Joe Louis Arena', '22', 'COL', 'Colorado', 'Avalanche', '1', '0', '0', '0', '0', '0', '1', '2', '29', '26', '52.7', '2', '0', '0.0', '1', '1', '0.0', '0', '0', '3', '2', '22', '2', '4', '22']"
"['', '27305', '2014-03-08', '20:00:00 GMT', '17', 'STL', 'St. Louis', 'Blues', '22', 'COL', 'Colorado', 'Avalanche', '19', 'Pepsi Center', '22', 'COL', 'Colorado', 'Avalanche', '0', '1', '0', '0', '0', '0', '0', '0', '30', '33', '47.6', '3', '0', '0.0', '1', '0', '100.0', '0', '0', '1', '2', '26', '1', '2', '32']"
"['', '27323', '2014-03-10', '01:00:00 GMT', '2', 'WPJ', 'Winnipeg', 'Jets', '22', 'COL', 'Colorado', 'Avalanche', '19', 'Pepsi Center', '22', 'COL', 'Colorado', 'Avalanche', '1', '0', '0', '0', '0', '0', '1', '2', '27', '37', '42.2', '6', '0', '0.0', '1', '1', '0.0', '0', '0', '3', '2', '31', '4', '16', '24']"
"['', '27338', '2014-03-12', '01:30:00 GMT', '20', 'CHI', 'Chicago', 'Blackhawks', '22', 'COL', 'Colorado', 'Avalanche', '19', 'Pepsi Center', '22', 'COL', 'Colorado', 'Avalanche', '1', '0', '0', '0', '0', '0', '1', '2', '26', '35', '42.6', '4', '1', '25.0', '3', '0', '100.0', '0', '0', '3', '2', '26', '4', '11', '30']"
"['', '27354', '2014-03-14', '01:00:00 GMT', '29', 'ANA', 'Anaheim', 'Ducks', '22', 'COL', 'Colorado', 'Avalanche', '19', 'Pepsi Center', '22', 'COL', 'Colorado', 'Avalanche', '0', '1', '0', '0', '0', '0', '0', '0', '34', '36', '48.6', '6', '2', '33.3', '2', '0', '100.0', '0', '0', '4', '6', '34', '4', '24', '20']"
"['', '27368', '2014-03-16', '21:00:00 GMT', '22', 'COL', 'Colorado', 'Avalanche', '13', 'OTT', 'Ottawa', 'Senators', '23', 'Canadian Tire Centre', '22', 'COL', 'Colorado', 'Avalanche', '1', '0', '0', '0', '0', '0', '1', '2', '32', '33', '49.2', '1', '1', '100.0', '2', '0', '100.0', '0', '0', '3', '1', '19', '2', '4', '22']"
"['', '27381', '2014-03-18', '23:30:00 GMT', '22', 'COL', 'Colorado', 'Avalanche', '14', 'MTL', 'Montreal', 'Canadiens', '4', 'Bell Centre', '22', 'COL', 'Colorado', 'Avalanche', '0', '1', '0', '0', '0', '0', '0', '0', '30', '25', '54.5', '3', '0', '0.0', '3', '2', '33.3', '0', '0', '3', '6', '25', '4', '11', '37']"
"['', '27391', '2014-03-19', '00:00:00 GMT', '22', 'COL', 'Colorado', 'Avalanche', '2', 'WPJ', 'Winnipeg', 'Jets', '39', 'MTS Centre', '22', 'COL', 'Colorado', 'Avalanche', '0', '0', '0', '1', '0', '0', '0', '1', '28', '30', '48.3', '1', '0', '0.0', '2', '1', '50.0', '0', '0', '4', '5', '23', '3', '9', '33']"
"['', '27404', '2014-03-21', '01:00:00 GMT', '11', 'BOS', 'Boston', 'Bruins', '22', 'COL', 'Colorado', 'Avalanche', '19', 'Pepsi Center', '22', 'COL', 'Colorado', 'Avalanche', '0', '1', '0', '0', '0', '0', '0', '0', '21', '29', '42.0', '3', '0', '0.0', '1', '1', '0.0', '0', '0', '0', '2', '31', '2', '7', '29']"
"['', '27438', '2014-03-25', '00:00:00 GMT', '22', 'COL', 'Colorado', 'Avalanche', '18', 'NSH', 'Nashville', 'Predators', '15', 'Bridgestone Arena', '22', 'COL', 'Colorado', 'Avalanche', '1', '0', '0', '0', '0', '0', '0', '2', '38', '33', '53.5', '0', '0', '0.0', '2', '0', '100.0', '0', '0', '4', '4', '24', '2', '4', '12']"
"['', '27451', '2014-03-27', '01:00:00 GMT', '21', 'VAN', 'Vancouver', 'Canucks', '22', 'COL', 'Colorado', 'Avalanche', '19', 'Pepsi Center', '22', 'COL', 'Colorado', 'Avalanche', '1', '0', '0', '0', '0', '0', '1', '2', '30', '31', '49.2', '3', '0', '0.0', '4', '1', '75.0', '0', '0', '3', '2', '25', '6', '15', '32']"
"['', '27459', '2014-03-29', '19:00:00 GMT', '26', 'SJS', 'San Jose', 'Sharks', '22', 'COL', 'Colorado', 'Avalanche', '19', 'Pepsi Center', '22', 'COL', 'Colorado', 'Avalanche', '1', '0', '0', '0', '0', '0', '1', '2', '29', '34', '46.0', '4', '1', '25.0', '4', '1', '75.0', '1', '0', '3', '2', '19', '5', '10', '24']"
"['', '27484', '2014-04-01', '23:00:00 GMT', '22', 'COL', 'Colorado', 'Avalanche', '19', 'CBJ', 'Columbus', 'Blue Jackets', '17', 'Nationwide Arena', '22', 'COL', 'Colorado', 'Avalanche', '1', '0', '0', '0', '0', '0', '1', '2', '24', '28', '46.2', '1', '1', '100.0', '2', '0', '100.0', '0', '0', '3', '2', '25', '3', '9', '31']"
"['', '27501', '2014-04-03', '01:00:00 GMT', '9', 'NYR', 'New York', 'Rangers', '22', 'COL', 'Colorado', 'Avalanche', '19', 'Pepsi Center', '22', 'COL', 'Colorado', 'Avalanche', '1', '0', '0', '0', '0', '0', '0', '2', '34', '31', '52.3', '4', '0', '0.0', '4', '0', '100.0', '0', '0', '2', '2', '35', '5', '10', '31']"
"['', '27511', '2014-04-05', '18:00:00 GMT', '22', 'COL', 'Colorado', 'Avalanche', '17', 'STL', 'St. Louis', 'Blues', '24', 'Scottrade Center', '22', 'COL', 'Colorado', 'Avalanche', '1', '0', '0', '0', '0', '0', '1', '2', '29', '34', '46.0', '6', '2', '33.3', '4', '0', '100.0', '0', '0', '4', '0', '25', '14', '68', '18']"
"['', '27525', '2014-04-06', '00:00:00 GMT', '10', 'PIT', 'Pittsburgh', 'Penguins', '22', 'COL', 'Colorado', 'Avalanche', '19', 'Pepsi Center', '22', 'COL', 'Colorado', 'Avalanche', '0', '0', '0', '1', '0', '0', '0', '1', '36', '22', '62.1', '5', '0', '0.0', '2', '1', '50.0', '0', '0', '2', '2', '39', '2', '4', '24']"
"['', '27539', '2014-04-08', '01:30:00 GMT', '22', 'COL', 'Colorado', 'Avalanche', '24', 'EDM', 'Edmonton', 'Oilers', '22', 'Rogers Place', '22', 'COL', 'Colorado', 'Avalanche', '1', '0', '0', '0', '0', '0', '1', '2', '25', '22', '53.2', '2', '1', '50.0', '2', '1', '50.0', '0', '0', '4', '1', '29', '3', '6', '14']"
"['', '27554', '2014-04-10', '02:00:00 GMT', '22', 'COL', 'Colorado', 'Avalanche', '21', 'VAN', 'Vancouver', 'Canucks', '7', 'Rogers Arena', '22', 'COL', 'Colorado', 'Avalanche', '1', '0', '0', '0', '0', '0', '1', '2', '30', '36', '45.5', '4', '1', '25.0', '0', '0', '0.0', '0', '0', '4', '2', '24', '2', '4', '15']"
"['', '27561', '2014-04-11', '02:00:00 GMT', '22', 'COL', 'Colorado', 'Avalanche', '26', 'SJS', 'San Jose', 'Sharks', '9', 'SAP Center at San Jose', '22', 'COL', 'Colorado', 'Avalanche', '0', '1', '0', '0', '0', '0', '0', '0', '31', '35', '47.0', '2', '0', '0.0', '2', '0', '100.0', '0', '0', '1', '5', '32', '3', '14', '34']"
"['', '27578', '2014-04-13', '00:00:00 GMT', '22', 'COL', 'Colorado', 'Avalanche', '29', 'ANA', 'Anaheim', 'Ducks', '8', 'Honda Center', '22', 'COL', 'Colorado', 'Avalanche', '0', '0', '0', '1', '0', '0', '0', '1', '30', '32', '48.4', '1', '0', '0.0', '2', '0', '100.0', '0', '0', '2', '3', '29', '2', '4', '24']"
