"['#Date/Time of Update: 2018-12-10 19:03:20 GMT', '#Game ID', '#Game Date', '#Game Time', '#Away Team ID', '#Away Team Abbr.', '#Away Team City', '#Away Team Name', '#Home Team ID', '#Home Team Abbr.', '#Home Team City', '#Home Team Name', '#Venue ID', '#Venue Name', '#Team ID', '#Team Abbr.', '#Team City', '#Team Name', '#Wins', '#Losses', '#OvertimeWins', '#OvertimeLosses', '#Points', '#FaceoffWins', '#FaceoffLosses', '#FaceoffPercent', '#Powerplays', '#PowerplayGoals', '#PowerplayPercent', '#PenaltyKills', '#PenaltyKillGoalsAllowed', '#PenaltyKillPercent', '#ShorthandedGoalsFor', '#ShorthandedGoalsAgainst', '#GoalsFor', '#GoalsAgainst', '#Shots', '#Penalties', '#PenaltyMinutes', '#Hits']"
"['', '32641', '2016-10-13', '00:30:00 GMT', '29', 'ANA', 'Anaheim', 'Ducks', '27', 'DAL', 'Dallas', 'Stars', '2', 'American Airlines Center', '27', 'DAL', 'Dallas', 'Stars', '1', '0', '0', '0', '2', '21', '37', '36.2', '4', '0', '0.0', '4', '0', '100.0', '0', '1', '4', '2', '20', '5', '10', '20']"
"['', '32655', '2016-10-15', '01:00:00 GMT', '27', 'DAL', 'Dallas', 'Stars', '22', 'COL', 'Colorado', 'Avalanche', '19', 'Pepsi Center', '27', 'DAL', 'Dallas', 'Stars', '0', '1', '0', '0', '0', '25', '40', '38.5', '4', '2', '50.0', '3', '2', '33.3', '0', '0', '5', '6', '28', '3', '6', '23']"
"['', '32670', '2016-10-18', '00:00:00 GMT', '27', 'DAL', 'Dallas', 'Stars', '18', 'NSH', 'Nashville', 'Predators', '15', 'Bridgestone Arena', '27', 'DAL', 'Dallas', 'Stars', '1', '0', '0', '0', '2', '33', '31', '51.6', '2', '0', '0.0', '3', '1', '66.7', '0', '0', '2', '1', '37', '4', '8', '18']"
"['', '32685', '2016-10-20', '00:30:00 GMT', '28', 'LAK', 'Los Angeles', 'Kings', '27', 'DAL', 'Dallas', 'Stars', '2', 'American Airlines Center', '27', 'DAL', 'Dallas', 'Stars', '0', '0', '0', '1', '1', '41', '26', '61.2', '4', '1', '25.0', '5', '1', '80.0', '0', '0', '3', '4', '20', '9', '29', '10']"
"['', '32701', '2016-10-22', '00:00:00 GMT', '19', 'CBJ', 'Columbus', 'Blue Jackets', '27', 'DAL', 'Dallas', 'Stars', '2', 'American Airlines Center', '27', 'DAL', 'Dallas', 'Stars', '0', '1', '0', '0', '0', '42', '22', '65.6', '5', '0', '0.0', '2', '0', '100.0', '0', '0', '0', '3', '32', '3', '9', '11']"
"['', '32717', '2016-10-25', '00:30:00 GMT', '2', 'WPJ', 'Winnipeg', 'Jets', '27', 'DAL', 'Dallas', 'Stars', '2', 'American Airlines Center', '27', 'DAL', 'Dallas', 'Stars', '1', '0', '0', '0', '2', '38', '30', '55.9', '6', '1', '16.7', '4', '1', '75.0', '0', '0', '3', '2', '26', '5', '10', '23']"
"['', '32731', '2016-10-27', '00:00:00 GMT', '27', 'DAL', 'Dallas', 'Stars', '2', 'WPJ', 'Winnipeg', 'Jets', '39', 'MTS Centre', '27', 'DAL', 'Dallas', 'Stars', '0', '1', '0', '0', '0', '33', '33', '50.0', '6', '1', '16.7', '7', '2', '71.4', '0', '0', '1', '4', '39', '7', '14', '13']"
"['', '32746', '2016-10-29', '00:00:00 GMT', '27', 'DAL', 'Dallas', 'Stars', '25', 'MIN', 'Minnesota', 'Wild', '30', 'Xcel Energy Center', '27', 'DAL', 'Dallas', 'Stars', '0', '1', '0', '0', '0', '29', '32', '47.5', '3', '0', '0.0', '2', '1', '50.0', '0', '1', '0', '4', '29', '2', '4', '21']"
"['', '32760', '2016-11-01', '23:00:00 GMT', '27', 'DAL', 'Dallas', 'Stars', '19', 'CBJ', 'Columbus', 'Blue Jackets', '17', 'Nationwide Arena', '27', 'DAL', 'Dallas', 'Stars', '0', '0', '0', '1', '1', '28', '34', '45.2', '4', '0', '0.0', '2', '1', '50.0', '0', '0', '2', '3', '38', '3', '9', '13']"
"['', '32781', '2016-11-03', '00:30:00 GMT', '17', 'STL', 'St. Louis', 'Blues', '27', 'DAL', 'Dallas', 'Stars', '2', 'American Airlines Center', '27', 'DAL', 'Dallas', 'Stars', '1', '0', '0', '0', '2', '40', '30', '57.1', '4', '1', '25.0', '4', '0', '100.0', '0', '0', '6', '2', '27', '9', '24', '28']"
"['', '32798', '2016-11-05', '00:00:00 GMT', '20', 'CHI', 'Chicago', 'Blackhawks', '27', 'DAL', 'Dallas', 'Stars', '2', 'American Airlines Center', '27', 'DAL', 'Dallas', 'Stars', '0', '1', '0', '0', '0', '38', '38', '50.0', '3', '0', '0.0', '6', '1', '83.3', '0', '0', '2', '3', '33', '8', '16', '30']"
"['', '32805', '2016-11-06', '00:00:00 GMT', '27', 'DAL', 'Dallas', 'Stars', '20', 'CHI', 'Chicago', 'Blackhawks', '28', 'United Center', '27', 'DAL', 'Dallas', 'Stars', '0', '0', '0', '1', '1', '35', '47', '42.7', '4', '1', '25.0', '4', '0', '100.0', '1', '0', '3', '4', '35', '4', '8', '29']"
"['', '32818', '2016-11-08', '01:00:00 GMT', '27', 'DAL', 'Dallas', 'Stars', '2', 'WPJ', 'Winnipeg', 'Jets', '39', 'MTS Centre', '27', 'DAL', 'Dallas', 'Stars', '0', '1', '0', '0', '0', '30', '31', '49.2', '5', '2', '40.0', '5', '3', '40.0', '0', '1', '2', '8', '30', '12', '52', '18']"
"['', '32830', '2016-11-10', '02:00:00 GMT', '27', 'DAL', 'Dallas', 'Stars', '23', 'CGY', 'Calgary', 'Flames', '18', 'Scotiabank Saddledome', '27', 'DAL', 'Dallas', 'Stars', '1', '0', '0', '0', '2', '33', '33', '50.0', '3', '1', '33.3', '2', '0', '100.0', '0', '0', '4', '2', '22', '4', '11', '20']"
"['', '32837', '2016-11-11', '02:00:00 GMT', '27', 'DAL', 'Dallas', 'Stars', '24', 'EDM', 'Edmonton', 'Oilers', '22', 'Rogers Place', '27', 'DAL', 'Dallas', 'Stars', '1', '0', '0', '0', '2', '26', '37', '41.3', '4', '1', '25.0', '3', '0', '100.0', '0', '0', '3', '2', '30', '4', '11', '21']"
"['', '32850', '2016-11-13', '21:00:00 GMT', '27', 'DAL', 'Dallas', 'Stars', '21', 'VAN', 'Vancouver', 'Canucks', '7', 'Rogers Arena', '27', 'DAL', 'Dallas', 'Stars', '0', '0', '0', '1', '1', '28', '31', '47.5', '2', '0', '0.0', '3', '1', '66.7', '0', '0', '4', '5', '21', '3', '6', '24']"
"['', '32865', '2016-11-15', '01:30:00 GMT', '7', 'NJD', 'New Jersey', 'Devils', '27', 'DAL', 'Dallas', 'Stars', '2', 'American Airlines Center', '27', 'DAL', 'Dallas', 'Stars', '0', '0', '0', '1', '1', '28', '25', '52.8', '2', '0', '0.0', '1', '0', '100.0', '0', '0', '1', '2', '24', '1', '2', '22']"
"['', '32877', '2016-11-17', '01:30:00 GMT', '22', 'COL', 'Colorado', 'Avalanche', '27', 'DAL', 'Dallas', 'Stars', '2', 'American Airlines Center', '27', 'DAL', 'Dallas', 'Stars', '1', '0', '0', '0', '2', '41', '39', '51.2', '7', '2', '28.6', '2', '0', '100.0', '0', '1', '3', '2', '22', '2', '4', '7']"
"['', '32892', '2016-11-19', '00:00:00 GMT', '24', 'EDM', 'Edmonton', 'Oilers', '27', 'DAL', 'Dallas', 'Stars', '2', 'American Airlines Center', '27', 'DAL', 'Dallas', 'Stars', '0', '1', '0', '0', '0', '28', '29', '49.1', '5', '2', '40.0', '3', '0', '100.0', '0', '0', '2', '5', '33', '3', '6', '17']"
"['', '32906', '2016-11-21', '01:30:00 GMT', '25', 'MIN', 'Minnesota', 'Wild', '27', 'DAL', 'Dallas', 'Stars', '2', 'American Airlines Center', '27', 'DAL', 'Dallas', 'Stars', '1', '0', '0', '0', '2', '34', '40', '45.9', '2', '0', '0.0', '3', '1', '66.7', '0', '0', '3', '2', '32', '4', '11', '22']"
"['', '32921', '2016-11-23', '01:00:00 GMT', '27', 'DAL', 'Dallas', 'Stars', '18', 'NSH', 'Nashville', 'Predators', '15', 'Bridgestone Arena', '27', 'DAL', 'Dallas', 'Stars', '0', '1', '0', '0', '0', '29', '27', '51.8', '2', '0', '0.0', '4', '1', '75.0', '1', '0', '2', '5', '35', '4', '8', '19']"
"['', '32937', '2016-11-25', '01:30:00 GMT', '21', 'VAN', 'Vancouver', 'Canucks', '27', 'DAL', 'Dallas', 'Stars', '2', 'American Airlines Center', '27', 'DAL', 'Dallas', 'Stars', '1', '0', '0', '0', '2', '31', '32', '49.2', '1', '0', '0.0', '2', '0', '100.0', '0', '0', '2', '1', '28', '3', '9', '22']"
"['', '32955', '2016-11-28', '01:00:00 GMT', '27', 'DAL', 'Dallas', 'Stars', '17', 'STL', 'St. Louis', 'Blues', '24', 'Scottrade Center', '27', 'DAL', 'Dallas', 'Stars', '0', '0', '0', '1', '1', '32', '29', '52.5', '3', '1', '33.3', '4', '1', '75.0', '0', '0', '3', '4', '21', '4', '8', '21']"
"['', '32960', '2016-11-29', '00:30:00 GMT', '27', 'DAL', 'Dallas', 'Stars', '16', 'DET', 'Detroit', 'Red Wings', '11', 'Joe Louis Arena', '27', 'DAL', 'Dallas', 'Stars', '0', '1', '0', '0', '0', '32', '30', '51.6', '5', '0', '0.0', '4', '2', '50.0', '0', '0', '1', '3', '35', '6', '15', '21']"
"['', '32973', '2016-12-01', '00:00:00 GMT', '27', 'DAL', 'Dallas', 'Stars', '10', 'PIT', 'Pittsburgh', 'Penguins', '40', 'PPG Paints Arena', '27', 'DAL', 'Dallas', 'Stars', '0', '1', '0', '0', '0', '25', '35', '41.7', '3', '1', '33.3', '5', '1', '80.0', '0', '0', '2', '6', '35', '5', '10', '25']"
"['', '32995', '2016-12-03', '02:00:00 GMT', '27', 'DAL', 'Dallas', 'Stars', '22', 'COL', 'Colorado', 'Avalanche', '19', 'Pepsi Center', '27', 'DAL', 'Dallas', 'Stars', '1', '0', '0', '0', '2', '22', '31', '41.5', '4', '1', '25.0', '4', '0', '100.0', '0', '0', '3', '0', '33', '4', '8', '6']"
"['', '33016', '2016-12-06', '01:30:00 GMT', '23', 'CGY', 'Calgary', 'Flames', '27', 'DAL', 'Dallas', 'Stars', '2', 'American Airlines Center', '27', 'DAL', 'Dallas', 'Stars', '0', '1', '0', '0', '0', '33', '28', '54.1', '2', '0', '0.0', '2', '1', '50.0', '0', '0', '1', '2', '30', '2', '4', '20']"
"['', '33028', '2016-12-08', '01:30:00 GMT', '18', 'NSH', 'Nashville', 'Predators', '27', 'DAL', 'Dallas', 'Stars', '2', 'American Airlines Center', '27', 'DAL', 'Dallas', 'Stars', '1', '0', '0', '0', '2', '32', '43', '42.7', '5', '1', '20.0', '3', '0', '100.0', '0', '1', '5', '2', '37', '5', '10', '17']"
"['', '33037', '2016-12-10', '18:00:00 GMT', '27', 'DAL', 'Dallas', 'Stars', '6', 'PHI', 'Philadelphia', 'Flyers', '29', 'Wells Fargo Center', '27', 'DAL', 'Dallas', 'Stars', '0', '1', '0', '0', '0', '31', '40', '43.7', '4', '0', '0.0', '6', '3', '50.0', '0', '0', '2', '4', '23', '9', '32', '38']"
"['', '33053', '2016-12-11', '00:00:00 GMT', '27', 'DAL', 'Dallas', 'Stars', '20', 'CHI', 'Chicago', 'Blackhawks', '28', 'United Center', '27', 'DAL', 'Dallas', 'Stars', '0', '1', '0', '0', '0', '28', '22', '56.0', '2', '0', '0.0', '3', '1', '66.7', '0', '0', '1', '3', '24', '3', '6', '27']"
"['', '33065', '2016-12-13', '01:30:00 GMT', '29', 'ANA', 'Anaheim', 'Ducks', '27', 'DAL', 'Dallas', 'Stars', '2', 'American Airlines Center', '27', 'DAL', 'Dallas', 'Stars', '1', '0', '0', '0', '2', '34', '30', '53.1', '4', '1', '25.0', '5', '1', '80.0', '0', '0', '6', '2', '27', '6', '12', '13']"
"['', '33078', '2016-12-15', '01:30:00 GMT', '9', 'NYR', 'New York', 'Rangers', '27', 'DAL', 'Dallas', 'Stars', '2', 'American Airlines Center', '27', 'DAL', 'Dallas', 'Stars', '0', '1', '0', '0', '0', '27', '30', '47.4', '5', '0', '0.0', '3', '0', '100.0', '0', '1', '0', '2', '27', '5', '21', '15']"
"['', '33086', '2016-12-17', '19:00:00 GMT', '6', 'PHI', 'Philadelphia', 'Flyers', '27', 'DAL', 'Dallas', 'Stars', '2', 'American Airlines Center', '27', 'DAL', 'Dallas', 'Stars', '1', '0', '0', '0', '2', '26', '28', '48.1', '1', '0', '0.0', '1', '0', '100.0', '0', '0', '3', '1', '28', '2', '7', '28']"
"['', '33116', '2016-12-20', '01:30:00 GMT', '17', 'STL', 'St. Louis', 'Blues', '27', 'DAL', 'Dallas', 'Stars', '2', 'American Airlines Center', '27', 'DAL', 'Dallas', 'Stars', '0', '0', '0', '1', '1', '35', '33', '51.5', '2', '1', '50.0', '1', '0', '100.0', '0', '0', '2', '3', '38', '3', '9', '14']"
"['', '33139', '2016-12-23', '01:30:00 GMT', '28', 'LAK', 'Los Angeles', 'Kings', '27', 'DAL', 'Dallas', 'Stars', '2', 'American Airlines Center', '27', 'DAL', 'Dallas', 'Stars', '1', '0', '0', '0', '2', '34', '23', '59.6', '3', '0', '0.0', '3', '1', '66.7', '0', '0', '3', '2', '31', '3', '6', '13']"
"['', '33151', '2016-12-27', '02:00:00 GMT', '27', 'DAL', 'Dallas', 'Stars', '30', 'ARI', 'Arizona', 'Coyotes', '6', 'Gila River Arena', '27', 'DAL', 'Dallas', 'Stars', '1', '0', '0', '0', '2', '32', '33', '49.2', '2', '1', '50.0', '2', '0', '100.0', '1', '0', '3', '2', '29', '5', '13', '22']"
"['', '33166', '2016-12-29', '01:30:00 GMT', '22', 'COL', 'Colorado', 'Avalanche', '27', 'DAL', 'Dallas', 'Stars', '2', 'American Airlines Center', '27', 'DAL', 'Dallas', 'Stars', '1', '0', '0', '0', '2', '31', '27', '53.4', '6', '0', '0.0', '4', '0', '100.0', '0', '0', '4', '2', '34', '5', '10', '8']"
"['', '33180', '2016-12-31', '01:00:00 GMT', '4', 'FLO', 'Florida', 'Panthers', '27', 'DAL', 'Dallas', 'Stars', '2', 'American Airlines Center', '27', 'DAL', 'Dallas', 'Stars', '0', '1', '0', '0', '0', '28', '34', '45.2', '4', '1', '25.0', '2', '2', '0.0', '0', '0', '1', '3', '36', '2', '4', '21']"
"['', '33200', '2017-01-04', '01:00:00 GMT', '14', 'MTL', 'Montreal', 'Canadiens', '27', 'DAL', 'Dallas', 'Stars', '2', 'American Airlines Center', '27', 'DAL', 'Dallas', 'Stars', '0', '0', '0', '1', '1', '39', '35', '52.7', '2', '1', '50.0', '3', '2', '33.3', '0', '0', '3', '4', '42', '4', '11', '30']"
"['', '33225', '2017-01-07', '01:00:00 GMT', '27', 'DAL', 'Dallas', 'Stars', '17', 'STL', 'St. Louis', 'Blues', '24', 'Scottrade Center', '27', 'DAL', 'Dallas', 'Stars', '0', '1', '0', '0', '0', '36', '31', '53.7', '4', '1', '25.0', '3', '2', '33.3', '0', '0', '3', '4', '28', '4', '8', '18']"
"['', '33238', '2017-01-09', '03:30:00 GMT', '27', 'DAL', 'Dallas', 'Stars', '28', 'LAK', 'Los Angeles', 'Kings', '25', 'Staples Center', '27', 'DAL', 'Dallas', 'Stars', '1', '0', '0', '0', '2', '36', '34', '51.4', '1', '0', '0.0', '3', '2', '33.3', '0', '1', '6', '4', '26', '3', '6', '29']"
"['', '33245', '2017-01-10', '03:00:00 GMT', '27', 'DAL', 'Dallas', 'Stars', '29', 'ANA', 'Anaheim', 'Ducks', '8', 'Honda Center', '27', 'DAL', 'Dallas', 'Stars', '0', '1', '0', '0', '0', '23', '33', '41.1', '3', '0', '0.0', '4', '1', '75.0', '0', '0', '0', '2', '34', '4', '8', '21']"
"['', '33255', '2017-01-12', '01:30:00 GMT', '16', 'DET', 'Detroit', 'Red Wings', '27', 'DAL', 'Dallas', 'Stars', '2', 'American Airlines Center', '27', 'DAL', 'Dallas', 'Stars', '1', '0', '0', '0', '2', '27', '31', '46.6', '1', '0', '0.0', '5', '1', '80.0', '0', '0', '5', '2', '21', '5', '10', '17']"
"['', '33274', '2017-01-14', '01:00:00 GMT', '25', 'MIN', 'Minnesota', 'Wild', '27', 'DAL', 'Dallas', 'Stars', '2', 'American Airlines Center', '27', 'DAL', 'Dallas', 'Stars', '0', '1', '0', '0', '0', '26', '28', '48.1', '3', '1', '33.3', '4', '0', '100.0', '0', '0', '4', '5', '38', '4', '8', '20']"
"['', '33283', '2017-01-16', '18:00:00 GMT', '27', 'DAL', 'Dallas', 'Stars', '15', 'BUF', 'Buffalo', 'Sabres', '10', 'KeyBank Center', '27', 'DAL', 'Dallas', 'Stars', '0', '1', '0', '0', '0', '26', '37', '41.3', '1', '0', '0.0', '3', '2', '33.3', '0', '0', '1', '4', '32', '3', '6', '12']"
"['', '33289', '2017-01-17', '00:00:00 GMT', '27', 'DAL', 'Dallas', 'Stars', '9', 'NYR', 'New York', 'Rangers', '12', 'Madison Square Garden', '27', 'DAL', 'Dallas', 'Stars', '1', '0', '0', '0', '2', '32', '34', '48.5', '1', '1', '100.0', '2', '1', '50.0', '0', '0', '7', '6', '31', '4', '11', '23']"
"['', '33303', '2017-01-19', '00:00:00 GMT', '27', 'DAL', 'Dallas', 'Stars', '8', 'NYI', 'New York', 'Islanders', '35', 'Ericsson Globe', '27', 'DAL', 'Dallas', 'Stars', '0', '1', '0', '0', '0', '26', '27', '49.1', '3', '0', '0.0', '7', '0', '100.0', '0', '1', '0', '3', '23', '9', '23', '14']"
"['', '33323', '2017-01-21', '01:00:00 GMT', '5', 'WSH', 'Washington', 'Capitals', '27', 'DAL', 'Dallas', 'Stars', '2', 'American Airlines Center', '27', 'DAL', 'Dallas', 'Stars', '0', '0', '0', '1', '1', '31', '32', '49.2', '5', '1', '20.0', '2', '2', '0.0', '0', '0', '3', '4', '35', '5', '16', '18']"
"['', '33349', '2017-01-24', '01:30:00 GMT', '25', 'MIN', 'Minnesota', 'Wild', '27', 'DAL', 'Dallas', 'Stars', '2', 'American Airlines Center', '27', 'DAL', 'Dallas', 'Stars', '0', '0', '0', '1', '1', '33', '27', '55.0', '5', '1', '20.0', '4', '1', '75.0', '0', '0', '2', '2', '37', '4', '8', '13']"
"['', '33364', '2017-01-26', '01:30:00 GMT', '15', 'BUF', 'Buffalo', 'Sabres', '27', 'DAL', 'Dallas', 'Stars', '2', 'American Airlines Center', '27', 'DAL', 'Dallas', 'Stars', '1', '0', '0', '0', '2', '34', '39', '46.6', '5', '1', '20.0', '2', '1', '50.0', '0', '0', '4', '3', '38', '2', '4', '19']"
"['', '33376', '2017-01-31', '01:30:00 GMT', '12', 'TOR', 'Toronto', 'Maple Leafs', '27', 'DAL', 'Dallas', 'Stars', '2', 'American Airlines Center', '27', 'DAL', 'Dallas', 'Stars', '1', '0', '0', '0', '2', '22', '36', '37.9', '1', '1', '100.0', '2', '1', '50.0', '0', '0', '6', '3', '20', '2', '4', '20']"
"['', '33389', '2017-02-02', '01:30:00 GMT', '2', 'WPJ', 'Winnipeg', 'Jets', '27', 'DAL', 'Dallas', 'Stars', '2', 'American Airlines Center', '27', 'DAL', 'Dallas', 'Stars', '0', '1', '0', '0', '0', '33', '26', '55.9', '2', '1', '50.0', '2', '1', '50.0', '0', '0', '3', '4', '42', '2', '4', '26']"
"['', '33407', '2017-02-04', '01:00:00 GMT', '20', 'CHI', 'Chicago', 'Blackhawks', '27', 'DAL', 'Dallas', 'Stars', '2', 'American Airlines Center', '27', 'DAL', 'Dallas', 'Stars', '0', '1', '0', '0', '0', '32', '26', '55.2', '3', '0', '0.0', '2', '1', '50.0', '0', '0', '3', '5', '34', '3', '9', '27']"
"['', '33420', '2017-02-07', '00:30:00 GMT', '27', 'DAL', 'Dallas', 'Stars', '12', 'TOR', 'Toronto', 'Maple Leafs', '1', 'Air Canada Center', '27', 'DAL', 'Dallas', 'Stars', '0', '1', '0', '0', '0', '31', '33', '48.4', '3', '1', '33.3', '5', '1', '80.0', '0', '0', '1', '3', '40', '5', '10', '30']"
"['', '33435', '2017-02-09', '00:30:00 GMT', '27', 'DAL', 'Dallas', 'Stars', '13', 'OTT', 'Ottawa', 'Senators', '23', 'Canadian Tire Centre', '27', 'DAL', 'Dallas', 'Stars', '0', '1', '0', '0', '0', '27', '40', '40.3', '6', '0', '0.0', '3', '0', '100.0', '0', '1', '2', '3', '33', '4', '11', '11']"
"['', '33445', '2017-02-11', '19:00:00 GMT', '3', 'CAR', 'Carolina', 'Hurricanes', '27', 'DAL', 'Dallas', 'Stars', '2', 'American Airlines Center', '27', 'DAL', 'Dallas', 'Stars', '1', '0', '0', '0', '2', '27', '31', '46.6', '4', '1', '25.0', '2', '1', '50.0', '0', '0', '5', '2', '27', '3', '9', '15']"
"['', '33457', '2017-02-12', '23:00:00 GMT', '27', 'DAL', 'Dallas', 'Stars', '18', 'NSH', 'Nashville', 'Predators', '15', 'Bridgestone Arena', '27', 'DAL', 'Dallas', 'Stars', '0', '1', '0', '0', '0', '28', '30', '48.3', '8', '3', '37.5', '5', '1', '80.0', '0', '1', '3', '5', '21', '8', '25', '9']"
"['', '33467', '2017-02-14', '01:00:00 GMT', '27', 'DAL', 'Dallas', 'Stars', '2', 'WPJ', 'Winnipeg', 'Jets', '39', 'MTS Centre', '27', 'DAL', 'Dallas', 'Stars', '0', '1', '0', '0', '0', '39', '25', '60.9', '4', '1', '25.0', '3', '0', '100.0', '0', '0', '2', '5', '36', '5', '13', '16']"
"['', '33478', '2017-02-16', '01:00:00 GMT', '27', 'DAL', 'Dallas', 'Stars', '25', 'MIN', 'Minnesota', 'Wild', '30', 'Xcel Energy Center', '27', 'DAL', 'Dallas', 'Stars', '0', '1', '0', '0', '0', '36', '33', '52.2', '2', '0', '0.0', '1', '1', '0.0', '0', '0', '1', '3', '35', '4', '16', '9']"
"['', '33490', '2017-02-18', '01:00:00 GMT', '1', 'TBL', 'Tampa Bay', 'Lightning', '27', 'DAL', 'Dallas', 'Stars', '2', 'American Airlines Center', '27', 'DAL', 'Dallas', 'Stars', '1', '0', '0', '0', '2', '32', '23', '58.2', '2', '0', '0.0', '2', '2', '0.0', '0', '0', '4', '3', '28', '2', '4', '20']"
"['', '33529', '2017-02-24', '01:30:00 GMT', '30', 'ARI', 'Arizona', 'Coyotes', '27', 'DAL', 'Dallas', 'Stars', '2', 'American Airlines Center', '27', 'DAL', 'Dallas', 'Stars', '1', '0', '0', '0', '2', '44', '30', '59.5', '6', '1', '16.7', '3', '0', '100.0', '0', '0', '5', '2', '37', '4', '8', '13']"
"['', '33538', '2017-02-26', '17:30:00 GMT', '11', 'BOS', 'Boston', 'Bruins', '27', 'DAL', 'Dallas', 'Stars', '2', 'American Airlines Center', '27', 'DAL', 'Dallas', 'Stars', '0', '1', '0', '0', '0', '27', '39', '40.9', '2', '1', '50.0', '2', '1', '50.0', '0', '0', '3', '6', '36', '4', '14', '31']"
"['', '33556', '2017-02-28', '01:30:00 GMT', '10', 'PIT', 'Pittsburgh', 'Penguins', '27', 'DAL', 'Dallas', 'Stars', '2', 'American Airlines Center', '27', 'DAL', 'Dallas', 'Stars', '1', '0', '0', '0', '2', '30', '34', '46.9', '1', '0', '0.0', '1', '0', '100.0', '0', '0', '3', '2', '32', '1', '2', '21']"
"['', '33569', '2017-03-02', '01:30:00 GMT', '8', 'NYI', 'New York', 'Islanders', '27', 'DAL', 'Dallas', 'Stars', '2', 'American Airlines Center', '27', 'DAL', 'Dallas', 'Stars', '0', '1', '0', '0', '0', '29', '27', '51.8', '1', '1', '100.0', '2', '0', '100.0', '1', '0', '4', '5', '25', '2', '4', '28']"
"['', '33581', '2017-03-04', '00:00:00 GMT', '27', 'DAL', 'Dallas', 'Stars', '4', 'FLO', 'Florida', 'Panthers', '3', 'BB&T Center', '27', 'DAL', 'Dallas', 'Stars', '1', '0', '0', '0', '2', '27', '31', '46.6', '3', '0', '0.0', '3', '1', '66.7', '0', '0', '2', '1', '34', '3', '6', '11']"
"['', '33595', '2017-03-06', '00:30:00 GMT', '27', 'DAL', 'Dallas', 'Stars', '5', 'WSH', 'Washington', 'Capitals', '13', 'Verizon Center', '27', 'DAL', 'Dallas', 'Stars', '1', '0', '0', '0', '2', '23', '42', '35.4', '2', '0', '0.0', '4', '0', '100.0', '0', '0', '4', '2', '22', '4', '8', '13']"
"['', '33609', '2017-03-08', '01:00:00 GMT', '13', 'OTT', 'Ottawa', 'Senators', '27', 'DAL', 'Dallas', 'Stars', '2', 'American Airlines Center', '27', 'DAL', 'Dallas', 'Stars', '0', '1', '0', '0', '0', '31', '36', '46.3', '4', '1', '25.0', '3', '2', '33.3', '0', '0', '2', '5', '37', '5', '10', '20']"
"['', '33641', '2017-03-12', '02:00:00 GMT', '27', 'DAL', 'Dallas', 'Stars', '26', 'SJS', 'San Jose', 'Sharks', '9', 'SAP Center at San Jose', '27', 'DAL', 'Dallas', 'Stars', '0', '1', '0', '0', '0', '29', '24', '54.7', '2', '0', '0.0', '5', '0', '100.0', '0', '1', '1', '5', '30', '5', '10', '18']"
"['', '33656', '2017-03-14', '01:00:00 GMT', '27', 'DAL', 'Dallas', 'Stars', '24', 'EDM', 'Edmonton', 'Oilers', '22', 'Rogers Place', '27', 'DAL', 'Dallas', 'Stars', '0', '1', '0', '0', '0', '38', '23', '62.3', '1', '0', '0.0', '2', '1', '50.0', '0', '0', '1', '7', '23', '2', '4', '15']"
"['', '33671', '2017-03-16', '02:00:00 GMT', '27', 'DAL', 'Dallas', 'Stars', '21', 'VAN', 'Vancouver', 'Canucks', '7', 'Rogers Arena', '27', 'DAL', 'Dallas', 'Stars', '1', '0', '0', '0', '2', '32', '35', '47.8', '1', '1', '100.0', '3', '1', '66.7', '0', '0', '4', '2', '36', '3', '11', '18']"
"['', '33677', '2017-03-17', '01:00:00 GMT', '27', 'DAL', 'Dallas', 'Stars', '23', 'CGY', 'Calgary', 'Flames', '18', 'Scotiabank Saddledome', '27', 'DAL', 'Dallas', 'Stars', '0', '1', '0', '0', '0', '31', '20', '60.8', '2', '0', '0.0', '0', '0', '0.0', '0', '0', '1', '3', '25', '0', '0', '5']"
"['', '33699', '2017-03-20', '00:30:00 GMT', '26', 'SJS', 'San Jose', 'Sharks', '27', 'DAL', 'Dallas', 'Stars', '2', 'American Airlines Center', '27', 'DAL', 'Dallas', 'Stars', '1', '0', '0', '0', '2', '28', '26', '51.9', '2', '0', '0.0', '2', '0', '100.0', '0', '0', '1', '0', '20', '2', '4', '25']"
"['', '33724', '2017-03-23', '00:30:00 GMT', '27', 'DAL', 'Dallas', 'Stars', '20', 'CHI', 'Chicago', 'Blackhawks', '28', 'United Center', '27', 'DAL', 'Dallas', 'Stars', '0', '0', '0', '1', '1', '36', '30', '54.5', '3', '0', '0.0', '4', '1', '75.0', '0', '0', '2', '2', '44', '5', '13', '19']"
"['', '33729', '2017-03-24', '00:30:00 GMT', '26', 'SJS', 'San Jose', 'Sharks', '27', 'DAL', 'Dallas', 'Stars', '2', 'American Airlines Center', '27', 'DAL', 'Dallas', 'Stars', '1', '0', '0', '0', '2', '33', '30', '52.4', '2', '0', '0.0', '3', '1', '66.7', '1', '0', '6', '1', '29', '3', '6', '17']"
"['', '33744', '2017-03-26', '21:00:00 GMT', '27', 'DAL', 'Dallas', 'Stars', '7', 'NJD', 'New Jersey', 'Devils', '37', 'Prudential Center', '27', 'DAL', 'Dallas', 'Stars', '1', '0', '0', '0', '2', '29', '28', '50.9', '4', '2', '50.0', '0', '0', '0.0', '0', '0', '2', '1', '32', '1', '5', '19']"
"['', '33758', '2017-03-28', '23:30:00 GMT', '27', 'DAL', 'Dallas', 'Stars', '14', 'MTL', 'Montreal', 'Canadiens', '4', 'Bell Centre', '27', 'DAL', 'Dallas', 'Stars', '0', '1', '0', '0', '0', '30', '33', '47.6', '1', '0', '0.0', '1', '0', '100.0', '0', '0', '1', '4', '28', '2', '7', '35']"
"['', '33767', '2017-03-30', '23:30:00 GMT', '27', 'DAL', 'Dallas', 'Stars', '11', 'BOS', 'Boston', 'Bruins', '27', 'TD Garden', '27', 'DAL', 'Dallas', 'Stars', '0', '1', '0', '0', '0', '29', '30', '49.2', '3', '0', '0.0', '3', '1', '66.7', '0', '0', '0', '2', '27', '3', '6', '25']"
"['', '33788', '2017-04-01', '23:00:00 GMT', '27', 'DAL', 'Dallas', 'Stars', '3', 'CAR', 'Carolina', 'Hurricanes', '21', 'RBC Center', '27', 'DAL', 'Dallas', 'Stars', '1', '0', '0', '0', '2', '22', '32', '40.7', '0', '0', '0.0', '1', '0', '100.0', '0', '0', '3', '0', '24', '1', '2', '15']"
"['', '33794', '2017-04-02', '22:00:00 GMT', '27', 'DAL', 'Dallas', 'Stars', '1', 'TBL', 'Tampa Bay', 'Lightning', '26', 'Amalie Arena', '27', 'DAL', 'Dallas', 'Stars', '0', '1', '0', '0', '0', '39', '21', '65.0', '1', '1', '100.0', '2', '1', '50.0', '0', '0', '3', '6', '26', '3', '6', '11']"
"['', '33813', '2017-04-04', '00:30:00 GMT', '30', 'ARI', 'Arizona', 'Coyotes', '27', 'DAL', 'Dallas', 'Stars', '2', 'American Airlines Center', '27', 'DAL', 'Dallas', 'Stars', '1', '0', '0', '0', '2', '30', '19', '61.2', '3', '0', '0.0', '3', '0', '100.0', '0', '0', '3', '2', '31', '3', '6', '8']"
"['', '33826', '2017-04-06', '00:30:00 GMT', '18', 'NSH', 'Nashville', 'Predators', '27', 'DAL', 'Dallas', 'Stars', '2', 'American Airlines Center', '27', 'DAL', 'Dallas', 'Stars', '0', '1', '0', '0', '0', '30', '30', '50.0', '1', '0', '0.0', '3', '1', '66.7', '0', '0', '3', '7', '33', '5', '10', '17']"
"['', '33842', '2017-04-08', '00:00:00 GMT', '22', 'COL', 'Colorado', 'Avalanche', '27', 'DAL', 'Dallas', 'Stars', '2', 'American Airlines Center', '27', 'DAL', 'Dallas', 'Stars', '1', '0', '0', '0', '2', '35', '29', '54.7', '1', '1', '100.0', '1', '1', '0.0', '0', '0', '3', '3', '45', '1', '2', '11']"
