"['#Date/Time of Update: 2018-12-10 19:03:10 GMT', '#Game ID', '#Game Date', '#Game Time', '#Away Team ID', '#Away Team Abbr.', '#Away Team City', '#Away Team Name', '#Home Team ID', '#Home Team Abbr.', '#Home Team City', '#Home Team Name', '#Venue ID', '#Venue Name', '#Team ID', '#Team Abbr.', '#Team City', '#Team Name', '#Wins', '#Losses', '#OvertimeWins', '#OvertimeLosses', '#ShootoutWins', '#ShootoutLosses', '#Rows', '#Points', '#FaceoffWins', '#FaceoffLosses', '#FaceoffPercent', '#Powerplays', '#PowerplayGoals', '#PowerplayPercent', '#PenaltyKills', '#PenaltyKillGoalsAllowed', '#PenaltyKillPercent', '#ShorthandedGoalsFor', '#ShorthandedGoalsAgainst', '#GoalsFor', '#GoalsAgainst', '#Shots', '#Penalties', '#PenaltyMinutes', '#Hits']"
"['', '26357', '2013-10-01', '02:00:00 GMT', '2', 'WPJ', 'Winnipeg', 'Jets', '24', 'EDM', 'Edmonton', 'Oilers', '22', 'Rogers Place', '24', 'EDM', 'Edmonton', 'Oilers', '0', '1', '0', '0', '0', '0', '0', '0', '41', '34', '54.7', '5', '2', '40.0', '4', '1', '75.0', '0', '0', '4', '5', '34', '6', '15', '20']"
"['', '26384', '2013-10-05', '02:00:00 GMT', '24', 'EDM', 'Edmonton', 'Oilers', '21', 'VAN', 'Vancouver', 'Canucks', '7', 'Rogers Arena', '24', 'EDM', 'Edmonton', 'Oilers', '0', '1', '0', '0', '0', '0', '0', '0', '31', '26', '54.4', '3', '0', '0.0', '6', '1', '83.3', '0', '2', '2', '6', '21', '13', '40', '38']"
"['', '26389', '2013-10-07', '01:30:00 GMT', '7', 'NJD', 'New Jersey', 'Devils', '24', 'EDM', 'Edmonton', 'Oilers', '22', 'Rogers Place', '24', 'EDM', 'Edmonton', 'Oilers', '1', '0', '0', '0', '0', '0', '0', '2', '43', '25', '63.2', '4', '1', '25.0', '3', '1', '66.7', '0', '1', '4', '4', '23', '4', '11', '24']"
"['', '26409', '2013-10-10', '01:30:00 GMT', '14', 'MTL', 'Montreal', 'Canadiens', '24', 'EDM', 'Edmonton', 'Oilers', '22', 'Rogers Place', '24', 'EDM', 'Edmonton', 'Oilers', '0', '1', '0', '0', '0', '0', '0', '0', '36', '30', '54.5', '4', '1', '25.0', '2', '1', '50.0', '0', '0', '1', '4', '27', '3', '9', '29']"
"['', '26418', '2013-10-12', '23:00:00 GMT', '24', 'EDM', 'Edmonton', 'Oilers', '12', 'TOR', 'Toronto', 'Maple Leafs', '1', 'Air Canada Center', '24', 'EDM', 'Edmonton', 'Oilers', '0', '0', '0', '1', '0', '0', '0', '1', '36', '24', '60.0', '3', '1', '33.3', '3', '1', '66.7', '0', '0', '5', '6', '26', '3', '6', '41']"
"['', '26434', '2013-10-14', '23:00:00 GMT', '24', 'EDM', 'Edmonton', 'Oilers', '5', 'WSH', 'Washington', 'Capitals', '13', 'Verizon Center', '24', 'EDM', 'Edmonton', 'Oilers', '0', '1', '0', '0', '0', '0', '0', '0', '26', '28', '48.1', '3', '0', '0.0', '3', '2', '33.3', '0', '0', '2', '4', '28', '6', '12', '29']"
"['', '26439', '2013-10-15', '23:00:00 GMT', '24', 'EDM', 'Edmonton', 'Oilers', '10', 'PIT', 'Pittsburgh', 'Penguins', '40', 'Consol Energy Center', '24', 'EDM', 'Edmonton', 'Oilers', '0', '1', '0', '0', '0', '0', '0', '0', '26', '24', '52.0', '1', '0', '0.0', '3', '1', '66.7', '0', '0', '2', '3', '20', '3', '6', '21']"
"['', '26452', '2013-10-17', '23:00:00 GMT', '24', 'EDM', 'Edmonton', 'Oilers', '8', 'NYI', 'New York', 'Islanders', '16', 'Nassau Veterans Memorial Coliseum', '24', 'EDM', 'Edmonton', 'Oilers', '0', '1', '0', '0', '0', '0', '0', '0', '33', '22', '60.0', '3', '0', '0.0', '5', '1', '80.0', '0', '0', '2', '3', '27', '5', '10', '18']"
"['', '26465', '2013-10-19', '18:00:00 GMT', '24', 'EDM', 'Edmonton', 'Oilers', '13', 'OTT', 'Ottawa', 'Senators', '23', 'Canadian Tire Centre', '24', 'EDM', 'Edmonton', 'Oilers', '1', '0', '0', '0', '0', '0', '1', '2', '24', '34', '41.4', '5', '0', '0.0', '5', '0', '100.0', '0', '0', '3', '1', '18', '6', '12', '16']"
"['', '26486', '2013-10-22', '23:30:00 GMT', '24', 'EDM', 'Edmonton', 'Oilers', '14', 'MTL', 'Montreal', 'Canadiens', '4', 'Bell Centre', '24', 'EDM', 'Edmonton', 'Oilers', '1', '0', '0', '0', '0', '0', '1', '2', '20', '39', '33.9', '1', '0', '0.0', '2', '1', '50.0', '0', '0', '4', '3', '28', '5', '10', '32']"
"['', '26501', '2013-10-24', '01:30:00 GMT', '5', 'WSH', 'Washington', 'Capitals', '24', 'EDM', 'Edmonton', 'Oilers', '22', 'Rogers Place', '24', 'EDM', 'Edmonton', 'Oilers', '0', '1', '0', '0', '0', '0', '0', '0', '32', '21', '60.4', '3', '0', '0.0', '1', '0', '100.0', '0', '0', '1', '4', '30', '3', '6', '21']"
"['', '26518', '2013-10-26', '01:00:00 GMT', '24', 'EDM', 'Edmonton', 'Oilers', '30', 'PHX', 'Phoenix', 'Coyotes', '6', 'Jobing.com Arena', '24', 'EDM', 'Edmonton', 'Oilers', '0', '1', '0', '0', '0', '0', '0', '0', '26', '34', '43.3', '1', '0', '0.0', '6', '2', '66.7', '0', '0', '4', '5', '25', '6', '12', '29']"
"['', '26524', '2013-10-27', '01:00:00 GMT', '24', 'EDM', 'Edmonton', 'Oilers', '28', 'LAK', 'Los Angeles', 'Kings', '25', 'Staples Center', '24', 'EDM', 'Edmonton', 'Oilers', '0', '0', '0', '1', '0', '0', '0', '1', '34', '38', '47.2', '4', '1', '25.0', '5', '0', '100.0', '0', '0', '1', '1', '17', '7', '20', '30']"
"['', '26536', '2013-10-29', '01:30:00 GMT', '12', 'TOR', 'Toronto', 'Maple Leafs', '24', 'EDM', 'Edmonton', 'Oilers', '22', 'Rogers Place', '24', 'EDM', 'Edmonton', 'Oilers', '0', '1', '0', '0', '0', '0', '0', '0', '37', '24', '60.7', '1', '0', '0.0', '1', '0', '100.0', '0', '0', '0', '4', '43', '3', '14', '24']"
"['', '26563', '2013-11-02', '02:00:00 GMT', '16', 'DET', 'Detroit', 'Red Wings', '24', 'EDM', 'Edmonton', 'Oilers', '22', 'Rogers Place', '24', 'EDM', 'Edmonton', 'Oilers', '0', '1', '0', '0', '0', '0', '0', '0', '22', '40', '35.5', '3', '0', '0.0', '5', '1', '80.0', '0', '0', '0', '5', '14', '6', '15', '29']"
"['', '26575', '2013-11-05', '00:30:00 GMT', '24', 'EDM', 'Edmonton', 'Oilers', '4', 'FLO', 'Florida', 'Panthers', '3', 'BB&T Center', '24', 'EDM', 'Edmonton', 'Oilers', '1', '0', '0', '0', '0', '0', '1', '2', '25', '30', '45.5', '3', '1', '33.3', '1', '0', '100.0', '0', '0', '4', '3', '23', '2', '4', '41']"
"['', '26591', '2013-11-07', '00:30:00 GMT', '24', 'EDM', 'Edmonton', 'Oilers', '1', 'TBL', 'Tampa Bay', 'Lightning', '26', 'Tampa Bay Times Forum', '24', 'EDM', 'Edmonton', 'Oilers', '0', '1', '0', '0', '0', '0', '0', '0', '26', '21', '55.3', '2', '1', '50.0', '2', '0', '100.0', '0', '0', '2', '4', '38', '3', '6', '18']"
"['', '26599', '2013-11-09', '18:00:00 GMT', '24', 'EDM', 'Edmonton', 'Oilers', '6', 'PHI', 'Philadelphia', 'Flyers', '29', 'Wells Fargo Center', '24', 'EDM', 'Edmonton', 'Oilers', '0', '1', '0', '0', '0', '0', '0', '0', '36', '31', '53.7', '5', '1', '20.0', '2', '0', '100.0', '0', '1', '2', '4', '24', '5', '21', '26']"
"['', '26612', '2013-11-10', '00:00:00 GMT', '24', 'EDM', 'Edmonton', 'Oilers', '20', 'CHI', 'Chicago', 'Blackhawks', '28', 'United Center', '24', 'EDM', 'Edmonton', 'Oilers', '0', '1', '0', '0', '0', '0', '0', '0', '23', '50', '31.5', '2', '2', '100.0', '4', '1', '75.0', '1', '0', '4', '5', '19', '5', '10', '38']"
"['', '26630', '2013-11-13', '03:00:00 GMT', '27', 'DAL', 'Dallas', 'Stars', '24', 'EDM', 'Edmonton', 'Oilers', '22', 'Rogers Place', '24', 'EDM', 'Edmonton', 'Oilers', '0', '1', '0', '0', '0', '0', '0', '0', '27', '32', '45.8', '5', '0', '0.0', '5', '0', '100.0', '0', '0', '0', '3', '22', '7', '22', '18']"
"['', '26647', '2013-11-15', '02:30:00 GMT', '26', 'SJS', 'San Jose', 'Sharks', '24', 'EDM', 'Edmonton', 'Oilers', '22', 'Rogers Place', '24', 'EDM', 'Edmonton', 'Oilers', '0', '1', '0', '0', '0', '0', '0', '0', '27', '32', '45.8', '3', '1', '33.3', '4', '1', '75.0', '0', '0', '1', '3', '30', '6', '12', '22']"
"['', '26656', '2013-11-16', '03:00:00 GMT', '24', 'EDM', 'Edmonton', 'Oilers', '23', 'CGY', 'Calgary', 'Flames', '18', 'Scotiabank Saddledome', '24', 'EDM', 'Edmonton', 'Oilers', '1', '0', '0', '0', '0', '0', '1', '2', '25', '30', '45.5', '1', '0', '0.0', '3', '0', '100.0', '0', '0', '4', '2', '20', '5', '16', '21']"
"['', '26673', '2013-11-19', '02:30:00 GMT', '19', 'CBJ', 'Columbus', 'Blue Jackets', '24', 'EDM', 'Edmonton', 'Oilers', '22', 'Rogers Place', '24', 'EDM', 'Edmonton', 'Oilers', '1', '0', '0', '0', '0', '0', '1', '2', '28', '30', '48.3', '4', '3', '75.0', '0', '0', '0.0', '0', '0', '7', '0', '25', '3', '9', '19']"
"['', '26687', '2013-11-21', '02:30:00 GMT', '4', 'FLO', 'Florida', 'Panthers', '24', 'EDM', 'Edmonton', 'Oilers', '22', 'Rogers Place', '24', 'EDM', 'Edmonton', 'Oilers', '1', '0', '0', '0', '0', '0', '1', '2', '28', '24', '53.8', '4', '2', '50.0', '4', '0', '100.0', '0', '0', '4', '1', '31', '6', '15', '21']"
"['', '26716', '2013-11-25', '02:30:00 GMT', '20', 'CHI', 'Chicago', 'Blackhawks', '24', 'EDM', 'Edmonton', 'Oilers', '22', 'Rogers Place', '24', 'EDM', 'Edmonton', 'Oilers', '0', '1', '0', '0', '0', '0', '0', '0', '28', '31', '47.5', '3', '0', '0.0', '4', '1', '75.0', '0', '1', '1', '5', '24', '4', '8', '22']"
"['', '26733', '2013-11-28', '01:00:00 GMT', '24', 'EDM', 'Edmonton', 'Oilers', '18', 'NSH', 'Nashville', 'Predators', '15', 'Bridgestone Arena', '24', 'EDM', 'Edmonton', 'Oilers', '1', '0', '0', '0', '0', '0', '1', '2', '24', '29', '45.3', '2', '0', '0.0', '2', '0', '100.0', '0', '0', '3', '0', '25', '4', '8', '14']"
"['', '26743', '2013-11-29', '00:00:00 GMT', '24', 'EDM', 'Edmonton', 'Oilers', '19', 'CBJ', 'Columbus', 'Blue Jackets', '17', 'Nationwide Arena', '24', 'EDM', 'Edmonton', 'Oilers', '0', '1', '0', '0', '0', '0', '0', '0', '21', '30', '41.2', '6', '1', '16.7', '4', '2', '50.0', '0', '0', '2', '4', '25', '5', '10', '16']"
"['', '26759', '2013-12-01', '23:00:00 GMT', '24', 'EDM', 'Edmonton', 'Oilers', '27', 'DAL', 'Dallas', 'Stars', '2', 'American Airlines Center', '24', 'EDM', 'Edmonton', 'Oilers', '1', '0', '0', '0', '0', '0', '0', '2', '22', '35', '38.6', '6', '0', '0.0', '4', '0', '100.0', '0', '1', '2', '2', '30', '4', '8', '15']"
"['', '26771', '2013-12-03', '02:30:00 GMT', '30', 'PHX', 'Phoenix', 'Coyotes', '24', 'EDM', 'Edmonton', 'Oilers', '22', 'Rogers Place', '24', 'EDM', 'Edmonton', 'Oilers', '0', '1', '0', '0', '0', '0', '0', '0', '28', '36', '43.8', '6', '1', '16.7', '2', '1', '50.0', '0', '0', '2', '6', '31', '6', '15', '10']"
"['', '26785', '2013-12-05', '02:30:00 GMT', '22', 'COL', 'Colorado', 'Avalanche', '24', 'EDM', 'Edmonton', 'Oilers', '22', 'Rogers Place', '24', 'EDM', 'Edmonton', 'Oilers', '1', '0', '0', '0', '0', '0', '1', '2', '31', '39', '44.3', '5', '0', '0.0', '6', '0', '100.0', '0', '0', '8', '2', '20', '9', '21', '23']"
"['', '26801', '2013-12-07', '03:00:00 GMT', '23', 'CGY', 'Calgary', 'Flames', '24', 'EDM', 'Edmonton', 'Oilers', '22', 'Rogers Place', '24', 'EDM', 'Edmonton', 'Oilers', '0', '0', '0', '1', '0', '0', '0', '1', '39', '26', '60.0', '6', '0', '0.0', '0', '0', '0.0', '0', '0', '1', '2', '30', '2', '4', '18']"
"['', '26822', '2013-12-10', '02:30:00 GMT', '3', 'CAR', 'Carolina', 'Hurricanes', '24', 'EDM', 'Edmonton', 'Oilers', '22', 'Rogers Place', '24', 'EDM', 'Edmonton', 'Oilers', '1', '0', '0', '0', '0', '0', '1', '2', '34', '36', '48.6', '3', '1', '33.3', '1', '1', '0.0', '0', '1', '5', '4', '24', '2', '4', '22']"
"['', '26836', '2013-12-12', '02:30:00 GMT', '11', 'BOS', 'Boston', 'Bruins', '24', 'EDM', 'Edmonton', 'Oilers', '22', 'Rogers Place', '24', 'EDM', 'Edmonton', 'Oilers', '0', '1', '0', '0', '0', '0', '0', '0', '31', '28', '52.5', '3', '0', '0.0', '1', '0', '100.0', '0', '1', '2', '4', '39', '2', '7', '30']"
"['', '26840', '2013-12-13', '02:00:00 GMT', '24', 'EDM', 'Edmonton', 'Oilers', '21', 'VAN', 'Vancouver', 'Canucks', '7', 'Rogers Arena', '24', 'EDM', 'Edmonton', 'Oilers', '0', '1', '0', '0', '0', '0', '0', '0', '21', '32', '39.6', '2', '0', '0.0', '2', '2', '0.0', '0', '0', '0', '4', '19', '3', '6', '24']"
"['', '26858', '2013-12-15', '01:00:00 GMT', '24', 'EDM', 'Edmonton', 'Oilers', '29', 'ANA', 'Anaheim', 'Ducks', '8', 'Honda Center', '24', 'EDM', 'Edmonton', 'Oilers', '0', '1', '0', '0', '0', '0', '0', '0', '31', '25', '55.4', '2', '0', '0.0', '2', '0', '100.0', '0', '0', '2', '3', '23', '3', '17', '23']"
"['', '26874', '2013-12-17', '03:30:00 GMT', '24', 'EDM', 'Edmonton', 'Oilers', '28', 'LAK', 'Los Angeles', 'Kings', '25', 'Staples Center', '24', 'EDM', 'Edmonton', 'Oilers', '0', '1', '0', '0', '0', '0', '0', '0', '25', '25', '50.0', '2', '0', '0.0', '2', '0', '100.0', '0', '0', '0', '3', '24', '2', '4', '27']"
"['', '26886', '2013-12-19', '02:00:00 GMT', '24', 'EDM', 'Edmonton', 'Oilers', '22', 'COL', 'Colorado', 'Avalanche', '19', 'Pepsi Center', '24', 'EDM', 'Edmonton', 'Oilers', '0', '1', '0', '0', '0', '0', '0', '0', '35', '34', '50.7', '1', '0', '0.0', '2', '1', '50.0', '0', '1', '2', '4', '27', '3', '17', '22']"
"['', '26903', '2013-12-21', '03:00:00 GMT', '17', 'STL', 'St. Louis', 'Blues', '24', 'EDM', 'Edmonton', 'Oilers', '22', 'Rogers Place', '24', 'EDM', 'Edmonton', 'Oilers', '0', '1', '0', '0', '0', '0', '0', '0', '30', '27', '52.6', '2', '0', '0.0', '5', '1', '80.0', '0', '0', '0', '6', '23', '7', '14', '21']"
"['', '26918', '2013-12-23', '02:30:00 GMT', '2', 'WPJ', 'Winnipeg', 'Jets', '24', 'EDM', 'Edmonton', 'Oilers', '22', 'Rogers Place', '24', 'EDM', 'Edmonton', 'Oilers', '1', '0', '0', '0', '0', '0', '1', '2', '36', '24', '60.0', '6', '2', '33.3', '3', '1', '66.7', '0', '0', '6', '2', '24', '7', '25', '19']"
"['', '26929', '2013-12-27', '02:00:00 GMT', '24', 'EDM', 'Edmonton', 'Oilers', '23', 'CGY', 'Calgary', 'Flames', '18', 'Scotiabank Saddledome', '24', 'EDM', 'Edmonton', 'Oilers', '1', '0', '0', '0', '0', '0', '1', '2', '29', '30', '49.2', '4', '1', '25.0', '2', '0', '100.0', '0', '0', '2', '0', '26', '2', '4', '9']"
"['', '26938', '2013-12-28', '03:00:00 GMT', '6', 'PHI', 'Philadelphia', 'Flyers', '24', 'EDM', 'Edmonton', 'Oilers', '22', 'Rogers Place', '24', 'EDM', 'Edmonton', 'Oilers', '0', '0', '0', '1', '0', '0', '0', '1', '35', '39', '47.3', '5', '1', '20.0', '5', '3', '40.0', '0', '0', '3', '3', '13', '5', '10', '16']"
"['', '26963', '2013-12-31', '02:00:00 GMT', '24', 'EDM', 'Edmonton', 'Oilers', '30', 'PHX', 'Phoenix', 'Coyotes', '6', 'Jobing.com Arena', '24', 'EDM', 'Edmonton', 'Oilers', '0', '0', '0', '1', '0', '0', '0', '1', '32', '27', '54.2', '1', '0', '0.0', '2', '0', '100.0', '0', '0', '3', '4', '22', '2', '4', '24']"
"['', '26975', '2014-01-02', '03:30:00 GMT', '24', 'EDM', 'Edmonton', 'Oilers', '26', 'SJS', 'San Jose', 'Sharks', '9', 'SAP Center at San Jose', '24', 'EDM', 'Edmonton', 'Oilers', '0', '1', '0', '0', '0', '0', '0', '0', '18', '38', '32.1', '3', '0', '0.0', '3', '0', '100.0', '0', '0', '1', '5', '23', '3', '6', '10']"
"['', '26979', '2014-01-03', '03:00:00 GMT', '24', 'EDM', 'Edmonton', 'Oilers', '29', 'ANA', 'Anaheim', 'Ducks', '8', 'Honda Center', '24', 'EDM', 'Edmonton', 'Oilers', '0', '1', '0', '0', '0', '0', '0', '0', '24', '28', '46.2', '3', '0', '0.0', '8', '0', '100.0', '0', '0', '2', '5', '16', '8', '16', '25']"
"['', '26995', '2014-01-05', '01:00:00 GMT', '1', 'TBL', 'Tampa Bay', 'Lightning', '24', 'EDM', 'Edmonton', 'Oilers', '22', 'Rogers Place', '24', 'EDM', 'Edmonton', 'Oilers', '1', '0', '0', '0', '0', '0', '1', '2', '27', '24', '52.9', '3', '1', '33.3', '1', '1', '0.0', '0', '0', '5', '3', '21', '2', '4', '10']"
"['', '27007', '2014-01-07', '02:30:00 GMT', '17', 'STL', 'St. Louis', 'Blues', '24', 'EDM', 'Edmonton', 'Oilers', '22', 'Rogers Place', '24', 'EDM', 'Edmonton', 'Oilers', '0', '1', '0', '0', '0', '0', '0', '0', '29', '32', '47.5', '0', '0', '0.0', '3', '2', '33.3', '0', '0', '2', '5', '16', '3', '6', '21']"
"['', '27027', '2014-01-10', '02:30:00 GMT', '10', 'PIT', 'Pittsburgh', 'Penguins', '24', 'EDM', 'Edmonton', 'Oilers', '22', 'Rogers Place', '24', 'EDM', 'Edmonton', 'Oilers', '1', '0', '0', '0', '0', '0', '1', '2', '32', '28', '53.3', '2', '2', '100.0', '4', '1', '75.0', '0', '0', '4', '3', '27', '6', '12', '15']"
"['', '27043', '2014-01-12', '00:00:00 GMT', '24', 'EDM', 'Edmonton', 'Oilers', '20', 'CHI', 'Chicago', 'Blackhawks', '28', 'United Center', '24', 'EDM', 'Edmonton', 'Oilers', '0', '1', '0', '0', '0', '0', '0', '0', '22', '34', '39.3', '1', '0', '0.0', '5', '1', '80.0', '1', '0', '3', '5', '18', '5', '10', '28']"
"['', '27060', '2014-01-14', '01:30:00 GMT', '24', 'EDM', 'Edmonton', 'Oilers', '27', 'DAL', 'Dallas', 'Stars', '2', 'American Airlines Center', '24', 'EDM', 'Edmonton', 'Oilers', '0', '1', '0', '0', '0', '0', '0', '0', '24', '28', '46.2', '2', '1', '50.0', '1', '1', '0.0', '0', '0', '2', '5', '31', '2', '7', '25']"
"['', '27070', '2014-01-16', '01:00:00 GMT', '24', 'EDM', 'Edmonton', 'Oilers', '25', 'MIN', 'Minnesota', 'Wild', '30', 'Xcel Energy Center', '24', 'EDM', 'Edmonton', 'Oilers', '0', '1', '0', '0', '0', '0', '0', '0', '36', '25', '59.0', '4', '0', '0.0', '3', '0', '100.0', '0', '0', '1', '4', '20', '5', '13', '14']"
"['', '27079', '2014-01-18', '19:00:00 GMT', '24', 'EDM', 'Edmonton', 'Oilers', '2', 'WPJ', 'Winnipeg', 'Jets', '39', 'MTS Centre', '24', 'EDM', 'Edmonton', 'Oilers', '0', '0', '0', '1', '0', '0', '0', '1', '23', '25', '47.9', '5', '1', '20.0', '4', '0', '100.0', '0', '1', '2', '3', '20', '6', '15', '23']"
"['', '27108', '2014-01-21', '02:30:00 GMT', '21', 'VAN', 'Vancouver', 'Canucks', '24', 'EDM', 'Edmonton', 'Oilers', '22', 'Rogers Place', '24', 'EDM', 'Edmonton', 'Oilers', '0', '1', '0', '0', '0', '0', '0', '0', '36', '24', '60.0', '4', '0', '0.0', '4', '0', '100.0', '0', '0', '1', '2', '28', '5', '13', '28']"
"['', '27128', '2014-01-24', '02:30:00 GMT', '30', 'PHX', 'Phoenix', 'Coyotes', '24', 'EDM', 'Edmonton', 'Oilers', '22', 'Rogers Place', '24', 'EDM', 'Edmonton', 'Oilers', '0', '1', '0', '0', '0', '0', '0', '0', '28', '30', '48.3', '5', '0', '0.0', '2', '1', '50.0', '0', '0', '3', '4', '36', '3', '6', '17']"
"['', '27140', '2014-01-26', '01:00:00 GMT', '18', 'NSH', 'Nashville', 'Predators', '24', 'EDM', 'Edmonton', 'Oilers', '22', 'Rogers Place', '24', 'EDM', 'Edmonton', 'Oilers', '1', '0', '0', '0', '0', '0', '1', '2', '34', '27', '55.7', '3', '2', '66.7', '3', '0', '100.0', '0', '0', '5', '1', '22', '3', '6', '18']"
"['', '27146', '2014-01-27', '03:00:00 GMT', '24', 'EDM', 'Edmonton', 'Oilers', '21', 'VAN', 'Vancouver', 'Canucks', '7', 'Rogers Arena', '24', 'EDM', 'Edmonton', 'Oilers', '1', '0', '0', '0', '0', '0', '1', '2', '30', '36', '45.5', '3', '0', '0.0', '1', '0', '100.0', '0', '0', '4', '2', '16', '3', '6', '23']"
"['', '27160', '2014-01-29', '02:30:00 GMT', '26', 'SJS', 'San Jose', 'Sharks', '24', 'EDM', 'Edmonton', 'Oilers', '22', 'Rogers Place', '24', 'EDM', 'Edmonton', 'Oilers', '1', '0', '0', '0', '0', '0', '1', '2', '36', '34', '51.4', '2', '1', '50.0', '3', '0', '100.0', '0', '0', '3', '0', '24', '5', '13', '14']"
"['', '27177', '2014-02-01', '18:00:00 GMT', '24', 'EDM', 'Edmonton', 'Oilers', '11', 'BOS', 'Boston', 'Bruins', '27', 'TD Garden', '24', 'EDM', 'Edmonton', 'Oilers', '0', '1', '0', '0', '0', '0', '0', '0', '22', '27', '44.9', '4', '0', '0.0', '4', '2', '50.0', '0', '0', '0', '4', '22', '7', '17', '19']"
"['', '27189', '2014-02-03', '00:00:00 GMT', '24', 'EDM', 'Edmonton', 'Oilers', '15', 'BUF', 'Buffalo', 'Sabres', '10', 'First Niagara Center', '24', 'EDM', 'Edmonton', 'Oilers', '1', '0', '0', '0', '0', '0', '1', '2', '29', '41', '41.4', '3', '0', '0.0', '5', '1', '80.0', '1', '1', '3', '2', '25', '7', '14', '15']"
"['', '27209', '2014-02-06', '00:00:00 GMT', '24', 'EDM', 'Edmonton', 'Oilers', '9', 'NYR', 'New York', 'Rangers', '12', 'Madison Square Garden', '24', 'EDM', 'Edmonton', 'Oilers', '1', '0', '0', '0', '0', '0', '1', '2', '26', '32', '44.8', '1', '0', '0.0', '0', '0', '0.0', '0', '0', '2', '1', '29', '0', '0', '23']"
"['', '27219', '2014-02-07', '00:00:00 GMT', '24', 'EDM', 'Edmonton', 'Oilers', '7', 'NJD', 'New Jersey', 'Devils', '37', 'Prudential Center', '24', 'EDM', 'Edmonton', 'Oilers', '0', '0', '0', '1', '0', '0', '0', '1', '27', '12', '69.2', '2', '0', '0.0', '2', '0', '100.0', '0', '0', '1', '2', '19', '3', '6', '16']"
"['', '27249', '2014-02-27', '02:30:00 GMT', '25', 'MIN', 'Minnesota', 'Wild', '24', 'EDM', 'Edmonton', 'Oilers', '22', 'Rogers Place', '24', 'EDM', 'Edmonton', 'Oilers', '0', '1', '0', '0', '0', '0', '0', '0', '31', '24', '56.4', '4', '0', '0.0', '2', '0', '100.0', '0', '0', '0', '3', '21', '6', '15', '13']"
"['', '27263', '2014-03-01', '03:00:00 GMT', '23', 'CGY', 'Calgary', 'Flames', '24', 'EDM', 'Edmonton', 'Oilers', '22', 'Rogers Place', '24', 'EDM', 'Edmonton', 'Oilers', '0', '0', '0', '1', '0', '0', '0', '1', '38', '27', '58.5', '2', '0', '0.0', '3', '0', '100.0', '0', '0', '1', '2', '21', '5', '13', '25']"
"['', '27283', '2014-03-04', '02:30:00 GMT', '13', 'OTT', 'Ottawa', 'Senators', '24', 'EDM', 'Edmonton', 'Oilers', '22', 'Rogers Place', '24', 'EDM', 'Edmonton', 'Oilers', '1', '0', '0', '0', '0', '0', '1', '2', '34', '29', '54.0', '2', '1', '50.0', '1', '0', '100.0', '0', '0', '3', '2', '27', '3', '6', '28']"
"['', '27297', '2014-03-06', '02:30:00 GMT', '8', 'NYI', 'New York', 'Islanders', '24', 'EDM', 'Edmonton', 'Oilers', '22', 'Rogers Place', '24', 'EDM', 'Edmonton', 'Oilers', '1', '0', '0', '0', '0', '0', '1', '2', '34', '34', '50.0', '3', '1', '33.3', '2', '0', '100.0', '0', '1', '3', '2', '26', '5', '13', '21']"
"['', '27318', '2014-03-09', '00:00:00 GMT', '28', 'LAK', 'Los Angeles', 'Kings', '24', 'EDM', 'Edmonton', 'Oilers', '22', 'Rogers Place', '24', 'EDM', 'Edmonton', 'Oilers', '0', '1', '0', '0', '0', '0', '0', '0', '28', '30', '48.3', '3', '0', '0.0', '2', '1', '50.0', '0', '0', '2', '4', '25', '4', '8', '28']"
"['', '27334', '2014-03-11', '00:00:00 GMT', '24', 'EDM', 'Edmonton', 'Oilers', '25', 'MIN', 'Minnesota', 'Wild', '30', 'Xcel Energy Center', '24', 'EDM', 'Edmonton', 'Oilers', '1', '0', '0', '0', '0', '0', '0', '2', '26', '42', '38.2', '3', '0', '0.0', '4', '1', '75.0', '0', '0', '3', '3', '23', '4', '8', '9']"
"['', '27344', '2014-03-13', '00:00:00 GMT', '24', 'EDM', 'Edmonton', 'Oilers', '17', 'STL', 'St. Louis', 'Blues', '24', 'Scottrade Center', '24', 'EDM', 'Edmonton', 'Oilers', '0', '1', '0', '0', '0', '0', '0', '0', '22', '39', '36.1', '3', '0', '0.0', '5', '1', '80.0', '0', '0', '2', '6', '23', '11', '46', '16']"
"['', '27349', '2014-03-14', '23:30:00 GMT', '24', 'EDM', 'Edmonton', 'Oilers', '16', 'DET', 'Detroit', 'Red Wings', '11', 'Joe Louis Arena', '24', 'EDM', 'Edmonton', 'Oilers', '0', '0', '0', '1', '0', '0', '0', '1', '27', '29', '48.2', '2', '0', '0.0', '4', '0', '100.0', '0', '0', '1', '1', '21', '5', '10', '23']"
"['', '27366', '2014-03-16', '19:00:00 GMT', '24', 'EDM', 'Edmonton', 'Oilers', '3', 'CAR', 'Carolina', 'Hurricanes', '21', 'RBC Center', '24', 'EDM', 'Edmonton', 'Oilers', '1', '0', '0', '0', '0', '0', '1', '2', '28', '30', '48.3', '4', '1', '25.0', '3', '0', '100.0', '0', '0', '2', '1', '31', '5', '10', '16']"
"['', '27386', '2014-03-18', '01:30:00 GMT', '18', 'NSH', 'Nashville', 'Predators', '24', 'EDM', 'Edmonton', 'Oilers', '22', 'Rogers Place', '24', 'EDM', 'Edmonton', 'Oilers', '1', '0', '0', '0', '0', '0', '1', '2', '27', '36', '42.9', '4', '1', '25.0', '4', '0', '100.0', '0', '0', '5', '1', '25', '6', '12', '9']"
"['', '27398', '2014-03-20', '01:30:00 GMT', '15', 'BUF', 'Buffalo', 'Sabres', '24', 'EDM', 'Edmonton', 'Oilers', '22', 'Rogers Place', '24', 'EDM', 'Edmonton', 'Oilers', '0', '1', '0', '0', '0', '0', '0', '0', '34', '35', '49.3', '6', '1', '16.7', '2', '1', '50.0', '0', '0', '1', '3', '35', '5', '16', '13']"
"['', '27415', '2014-03-22', '02:00:00 GMT', '23', 'CGY', 'Calgary', 'Flames', '24', 'EDM', 'Edmonton', 'Oilers', '22', 'Rogers Place', '24', 'EDM', 'Edmonton', 'Oilers', '0', '1', '0', '0', '0', '0', '0', '0', '26', '26', '50.0', '1', '1', '100.0', '3', '0', '100.0', '0', '0', '1', '8', '24', '6', '23', '22']"
"['', '27439', '2014-03-25', '01:30:00 GMT', '26', 'SJS', 'San Jose', 'Sharks', '24', 'EDM', 'Edmonton', 'Oilers', '22', 'Rogers Place', '24', 'EDM', 'Edmonton', 'Oilers', '0', '1', '0', '0', '0', '0', '0', '0', '27', '32', '45.8', '2', '0', '0.0', '3', '3', '0.0', '0', '0', '2', '5', '28', '3', '6', '21']"
"['', '27458', '2014-03-28', '01:30:00 GMT', '29', 'ANA', 'Anaheim', 'Ducks', '24', 'EDM', 'Edmonton', 'Oilers', '22', 'Rogers Place', '24', 'EDM', 'Edmonton', 'Oilers', '1', '0', '0', '0', '0', '0', '1', '2', '39', '33', '54.2', '1', '0', '0.0', '4', '0', '100.0', '0', '0', '4', '3', '19', '8', '22', '24']"
"['', '27474', '2014-03-30', '00:00:00 GMT', '9', 'NYR', 'New York', 'Rangers', '24', 'EDM', 'Edmonton', 'Oilers', '22', 'Rogers Place', '24', 'EDM', 'Edmonton', 'Oilers', '0', '1', '0', '0', '0', '0', '0', '0', '33', '22', '60.0', '4', '0', '0.0', '5', '1', '80.0', '0', '2', '0', '5', '26', '7', '14', '24']"
"['', '27489', '2014-04-01', '02:30:00 GMT', '24', 'EDM', 'Edmonton', 'Oilers', '26', 'SJS', 'San Jose', 'Sharks', '9', 'SAP Center at San Jose', '24', 'EDM', 'Edmonton', 'Oilers', '0', '1', '0', '0', '0', '0', '0', '0', '32', '37', '46.4', '3', '1', '33.3', '7', '1', '85.7', '0', '0', '4', '5', '25', '10', '23', '20']"
"['', '27492', '2014-04-02', '02:00:00 GMT', '24', 'EDM', 'Edmonton', 'Oilers', '29', 'ANA', 'Anaheim', 'Ducks', '8', 'Honda Center', '24', 'EDM', 'Edmonton', 'Oilers', '0', '1', '0', '0', '0', '0', '0', '0', '27', '35', '43.5', '3', '1', '33.3', '3', '0', '100.0', '0', '0', '2', '3', '30', '6', '15', '22']"
"['', '27508', '2014-04-04', '02:00:00 GMT', '24', 'EDM', 'Edmonton', 'Oilers', '30', 'PHX', 'Phoenix', 'Coyotes', '6', 'Jobing.com Arena', '24', 'EDM', 'Edmonton', 'Oilers', '1', '0', '0', '0', '0', '0', '0', '2', '27', '41', '39.7', '1', '0', '0.0', '2', '1', '50.0', '0', '0', '2', '2', '24', '2', '4', '20']"
"['', '27526', '2014-04-06', '00:00:00 GMT', '29', 'ANA', 'Anaheim', 'Ducks', '24', 'EDM', 'Edmonton', 'Oilers', '22', 'Rogers Place', '24', 'EDM', 'Edmonton', 'Oilers', '1', '0', '0', '0', '0', '0', '1', '2', '38', '31', '55.1', '4', '1', '25.0', '4', '1', '75.0', '1', '0', '4', '2', '24', '9', '35', '16']"
"['', '27539', '2014-04-08', '01:30:00 GMT', '22', 'COL', 'Colorado', 'Avalanche', '24', 'EDM', 'Edmonton', 'Oilers', '22', 'Rogers Place', '24', 'EDM', 'Edmonton', 'Oilers', '0', '1', '0', '0', '0', '0', '0', '0', '22', '25', '46.8', '2', '1', '50.0', '2', '1', '50.0', '0', '0', '1', '4', '22', '2', '4', '15']"
"['', '27553', '2014-04-10', '01:30:00 GMT', '28', 'LAK', 'Los Angeles', 'Kings', '24', 'EDM', 'Edmonton', 'Oilers', '22', 'Rogers Place', '24', 'EDM', 'Edmonton', 'Oilers', '0', '1', '0', '0', '0', '0', '0', '0', '22', '28', '44.0', '0', '0', '0.0', '4', '0', '100.0', '0', '0', '0', '3', '17', '4', '8', '31']"
"['', '27568', '2014-04-12', '02:00:00 GMT', '21', 'VAN', 'Vancouver', 'Canucks', '24', 'EDM', 'Edmonton', 'Oilers', '22', 'Rogers Place', '24', 'EDM', 'Edmonton', 'Oilers', '1', '0', '0', '0', '0', '0', '1', '2', '26', '25', '51.0', '5', '1', '20.0', '1', '0', '100.0', '0', '0', '5', '2', '17', '3', '6', '12']"
