"['#Date/Time of Update: 2018-12-10 19:03:14 GMT', '#Game ID', '#Game Date', '#Game Time', '#Away Team ID', '#Away Team Abbr.', '#Away Team City', '#Away Team Name', '#Home Team ID', '#Home Team Abbr.', '#Home Team City', '#Home Team Name', '#Venue ID', '#Venue Name', '#Team ID', '#Team Abbr.', '#Team City', '#Team Name', '#Wins', '#Losses', '#OvertimeWins', '#OvertimeLosses', '#ShootoutWins', '#ShootoutLosses', '#Rows', '#Points', '#FaceoffWins', '#FaceoffLosses', '#FaceoffPercent', '#Powerplays', '#PowerplayGoals', '#PowerplayPercent', '#PenaltyKills', '#PenaltyKillGoalsAllowed', '#PenaltyKillPercent', '#ShorthandedGoalsFor', '#ShorthandedGoalsAgainst', '#GoalsFor', '#GoalsAgainst', '#Shots', '#Penalties', '#PenaltyMinutes', '#Hits']"
"['', '27699', '2014-10-09', '23:00:00 GMT', '19', 'CBJ', 'Columbus', 'Blue Jackets', '15', 'BUF', 'Buffalo', 'Sabres', '10', 'First Niagara Center', '15', 'BUF', 'Buffalo', 'Sabres', '0', '1', '0', '0', '0', '0', '0', '0', '29', '28', '50.9', '1', '0', '0.0', '3', '1', '66.7', '0', '0', '1', '3', '21', '5', '10', '16']"
"['', '27722', '2014-10-11', '00:30:00 GMT', '15', 'BUF', 'Buffalo', 'Sabres', '20', 'CHI', 'Chicago', 'Blackhawks', '28', 'United Center', '15', 'BUF', 'Buffalo', 'Sabres', '0', '1', '0', '0', '0', '0', '0', '0', '20', '28', '41.7', '4', '0', '0.0', '4', '1', '75.0', '1', '1', '2', '6', '21', '4', '8', '32']"
"['', '27730', '2014-10-13', '19:00:00 GMT', '29', 'ANA', 'Anaheim', 'Ducks', '15', 'BUF', 'Buffalo', 'Sabres', '10', 'First Niagara Center', '15', 'BUF', 'Buffalo', 'Sabres', '0', '1', '0', '0', '0', '0', '0', '0', '21', '45', '31.8', '2', '0', '0.0', '6', '1', '83.3', '0', '0', '1', '5', '11', '10', '39', '17']"
"['', '27732', '2014-10-14', '23:00:00 GMT', '15', 'BUF', 'Buffalo', 'Sabres', '3', 'CAR', 'Carolina', 'Hurricanes', '21', 'RBC Center', '15', 'BUF', 'Buffalo', 'Sabres', '1', '0', '0', '0', '0', '0', '0', '2', '19', '41', '31.7', '2', '0', '0.0', '3', '0', '100.0', '0', '0', '3', '3', '23', '3', '6', '34']"
"['', '27750', '2014-10-17', '23:00:00 GMT', '4', 'FLO', 'Florida', 'Panthers', '15', 'BUF', 'Buffalo', 'Sabres', '10', 'First Niagara Center', '15', 'BUF', 'Buffalo', 'Sabres', '0', '1', '0', '0', '0', '0', '0', '0', '27', '30', '47.4', '3', '0', '0.0', '4', '0', '100.0', '0', '0', '0', '1', '26', '6', '12', '27']"
"['', '27757', '2014-10-18', '23:00:00 GMT', '11', 'BOS', 'Boston', 'Bruins', '15', 'BUF', 'Buffalo', 'Sabres', '10', 'First Niagara Center', '15', 'BUF', 'Buffalo', 'Sabres', '0', '1', '0', '0', '0', '0', '0', '0', '30', '32', '48.4', '7', '0', '0.0', '2', '0', '100.0', '0', '0', '0', '4', '32', '4', '11', '13']"
"['', '27786', '2014-10-22', '02:30:00 GMT', '15', 'BUF', 'Buffalo', 'Sabres', '29', 'ANA', 'Anaheim', 'Ducks', '8', 'Honda Center', '15', 'BUF', 'Buffalo', 'Sabres', '0', '1', '0', '0', '0', '0', '0', '0', '21', '36', '36.8', '2', '0', '0.0', '4', '0', '100.0', '0', '0', '1', '4', '22', '6', '23', '32']"
"['', '27793', '2014-10-23', '02:30:00 GMT', '15', 'BUF', 'Buffalo', 'Sabres', '28', 'LAK', 'Los Angeles', 'Kings', '25', 'Staples Center', '15', 'BUF', 'Buffalo', 'Sabres', '0', '1', '0', '0', '0', '0', '0', '0', '25', '28', '47.2', '3', '0', '0.0', '3', '2', '33.3', '0', '0', '0', '2', '29', '7', '28', '27']"
"['', '27800', '2014-10-25', '20:00:00 GMT', '15', 'BUF', 'Buffalo', 'Sabres', '26', 'SJS', 'San Jose', 'Sharks', '9', 'SAP Center at San Jose', '15', 'BUF', 'Buffalo', 'Sabres', '1', '0', '0', '0', '0', '0', '1', '2', '16', '33', '32.7', '3', '0', '0.0', '1', '0', '100.0', '0', '0', '2', '1', '13', '2', '4', '25']"
"['', '27823', '2014-10-28', '23:30:00 GMT', '15', 'BUF', 'Buffalo', 'Sabres', '12', 'TOR', 'Toronto', 'Maple Leafs', '1', 'Air Canada Center', '15', 'BUF', 'Buffalo', 'Sabres', '0', '1', '0', '0', '0', '0', '0', '0', '24', '33', '42.1', '2', '0', '0.0', '5', '1', '80.0', '0', '0', '0', '4', '10', '8', '19', '41']"
"['', '27832', '2014-10-30', '23:00:00 GMT', '11', 'BOS', 'Boston', 'Bruins', '15', 'BUF', 'Buffalo', 'Sabres', '10', 'First Niagara Center', '15', 'BUF', 'Buffalo', 'Sabres', '0', '0', '0', '1', '0', '0', '0', '1', '26', '32', '44.8', '2', '1', '50.0', '2', '0', '100.0', '0', '0', '2', '3', '13', '3', '9', '33']"
"['', '27848', '2014-11-01', '23:00:00 GMT', '15', 'BUF', 'Buffalo', 'Sabres', '10', 'PIT', 'Pittsburgh', 'Penguins', '40', 'Consol Energy Center', '15', 'BUF', 'Buffalo', 'Sabres', '0', '1', '0', '0', '0', '0', '0', '0', '28', '30', '48.3', '4', '0', '0.0', '3', '3', '0.0', '0', '0', '0', '5', '18', '5', '10', '31']"
"['', '27858', '2014-11-02', '22:00:00 GMT', '16', 'DET', 'Detroit', 'Red Wings', '15', 'BUF', 'Buffalo', 'Sabres', '10', 'First Niagara Center', '15', 'BUF', 'Buffalo', 'Sabres', '1', '0', '0', '0', '0', '0', '0', '2', '28', '36', '43.8', '0', '0', '0.0', '0', '0', '0.0', '0', '0', '2', '2', '19', '5', '10', '14']"
"['', '27878', '2014-11-05', '00:30:00 GMT', '14', 'MTL', 'Montreal', 'Canadiens', '15', 'BUF', 'Buffalo', 'Sabres', '10', 'First Niagara Center', '15', 'BUF', 'Buffalo', 'Sabres', '0', '0', '0', '1', '0', '0', '0', '1', '26', '36', '41.9', '0', '1', '0.0', '0', '0', '0.0', '0', '0', '1', '1', '31', '2', '7', '28']"
"['', '27891', '2014-11-07', '00:00:00 GMT', '24', 'EDM', 'Edmonton', 'Oilers', '15', 'BUF', 'Buffalo', 'Sabres', '10', 'First Niagara Center', '15', 'BUF', 'Buffalo', 'Sabres', '0', '1', '0', '0', '0', '0', '0', '0', '30', '48', '38.5', '1', '0', '0.0', '2', '0', '100.0', '0', '0', '2', '3', '29', '5', '19', '30']"
"['', '27897', '2014-11-08', '00:00:00 GMT', '10', 'PIT', 'Pittsburgh', 'Penguins', '15', 'BUF', 'Buffalo', 'Sabres', '10', 'First Niagara Center', '15', 'BUF', 'Buffalo', 'Sabres', '0', '1', '0', '0', '0', '0', '0', '0', '26', '19', '57.8', '3', '0', '0.0', '5', '2', '60.0', '0', '0', '1', '6', '20', '7', '17', '36']"
"['', '27920', '2014-11-11', '01:00:00 GMT', '15', 'BUF', 'Buffalo', 'Sabres', '17', 'STL', 'St. Louis', 'Blues', '24', 'Scottrade Center', '15', 'BUF', 'Buffalo', 'Sabres', '0', '1', '0', '0', '0', '0', '0', '0', '30', '38', '44.1', '3', '1', '33.3', '3', '3', '0.0', '0', '1', '1', '6', '28', '9', '32', '29']"
"['', '27931', '2014-11-13', '01:00:00 GMT', '15', 'BUF', 'Buffalo', 'Sabres', '25', 'MIN', 'Minnesota', 'Wild', '30', 'Xcel Energy Center', '15', 'BUF', 'Buffalo', 'Sabres', '0', '1', '0', '0', '0', '0', '0', '0', '25', '31', '44.6', '2', '0', '0.0', '4', '2', '50.0', '0', '0', '3', '6', '25', '4', '8', '22']"
"['', '27945', '2014-11-15', '00:00:00 GMT', '12', 'TOR', 'Toronto', 'Maple Leafs', '15', 'BUF', 'Buffalo', 'Sabres', '10', 'First Niagara Center', '15', 'BUF', 'Buffalo', 'Sabres', '1', '0', '0', '0', '0', '0', '1', '2', '27', '47', '36.5', '3', '1', '33.3', '4', '0', '100.0', '1', '0', '6', '2', '29', '5', '10', '40']"
"['', '27962', '2014-11-18', '00:00:00 GMT', '26', 'SJS', 'San Jose', 'Sharks', '15', 'BUF', 'Buffalo', 'Sabres', '10', 'First Niagara Center', '15', 'BUF', 'Buffalo', 'Sabres', '1', '0', '0', '0', '0', '0', '1', '2', '20', '34', '37.0', '2', '0', '0.0', '4', '1', '75.0', '0', '0', '4', '1', '10', '5', '10', '18']"
"['', '27991', '2014-11-22', '00:00:00 GMT', '15', 'BUF', 'Buffalo', 'Sabres', '5', 'WSH', 'Washington', 'Capitals', '13', 'Verizon Center', '15', 'BUF', 'Buffalo', 'Sabres', '1', '0', '0', '0', '0', '0', '1', '2', '24', '36', '40.0', '1', '0', '0.0', '1', '1', '0.0', '0', '0', '2', '1', '24', '2', '7', '32']"
"['', '28017', '2014-11-26', '00:00:00 GMT', '2', 'WPJ', 'Winnipeg', 'Jets', '15', 'BUF', 'Buffalo', 'Sabres', '10', 'First Niagara Center', '15', 'BUF', 'Buffalo', 'Sabres', '0', '1', '0', '0', '0', '0', '0', '0', '18', '23', '43.9', '4', '0', '0.0', '3', '1', '66.7', '0', '1', '1', '2', '19', '5', '13', '31']"
"['', '28031', '2014-11-28', '00:00:00 GMT', '14', 'MTL', 'Montreal', 'Canadiens', '15', 'BUF', 'Buffalo', 'Sabres', '10', 'First Niagara Center', '15', 'BUF', 'Buffalo', 'Sabres', '1', '0', '0', '0', '0', '0', '1', '2', '21', '43', '32.8', '4', '1', '25.0', '2', '1', '50.0', '0', '0', '2', '1', '23', '4', '11', '21']"
"['', '28038', '2014-11-29', '00:00:00 GMT', '15', 'BUF', 'Buffalo', 'Sabres', '14', 'MTL', 'Montreal', 'Canadiens', '4', 'Bell Centre', '15', 'BUF', 'Buffalo', 'Sabres', '1', '0', '0', '0', '0', '0', '0', '2', '19', '49', '27.9', '1', '0', '0.0', '2', '0', '100.0', '0', '0', '3', '3', '23', '2', '4', '31']"
"['', '28056', '2014-12-02', '00:00:00 GMT', '1', 'TBL', 'Tampa Bay', 'Lightning', '15', 'BUF', 'Buffalo', 'Sabres', '10', 'First Niagara Center', '15', 'BUF', 'Buffalo', 'Sabres', '1', '0', '0', '0', '0', '0', '0', '2', '32', '23', '58.2', '2', '0', '0.0', '2', '0', '100.0', '0', '0', '1', '1', '21', '2', '4', '19']"
"['', '28072', '2014-12-04', '00:30:00 GMT', '15', 'BUF', 'Buffalo', 'Sabres', '1', 'TBL', 'Tampa Bay', 'Lightning', '26', 'Amalie Arena', '15', 'BUF', 'Buffalo', 'Sabres', '0', '1', '0', '0', '0', '0', '0', '0', '25', '26', '49.0', '3', '0', '0.0', '6', '1', '83.3', '0', '0', '0', '5', '13', '14', '58', '26']"
"['', '28087', '2014-12-06', '00:00:00 GMT', '15', 'BUF', 'Buffalo', 'Sabres', '4', 'FLO', 'Florida', 'Panthers', '3', 'BB&T Center', '15', 'BUF', 'Buffalo', 'Sabres', '0', '1', '0', '0', '0', '0', '0', '0', '28', '26', '51.9', '2', '0', '0.0', '1', '0', '100.0', '0', '0', '2', '3', '26', '2', '7', '40']"
"['', '28103', '2014-12-09', '00:00:00 GMT', '28', 'LAK', 'Los Angeles', 'Kings', '15', 'BUF', 'Buffalo', 'Sabres', '10', 'First Niagara Center', '15', 'BUF', 'Buffalo', 'Sabres', '1', '0', '0', '0', '0', '0', '1', '2', '27', '26', '50.9', '4', '1', '25.0', '2', '0', '100.0', '0', '0', '1', '0', '15', '2', '4', '31']"
"['', '28116', '2014-12-11', '00:00:00 GMT', '23', 'CGY', 'Calgary', 'Flames', '15', 'BUF', 'Buffalo', 'Sabres', '10', 'First Niagara Center', '15', 'BUF', 'Buffalo', 'Sabres', '1', '0', '0', '0', '0', '0', '1', '2', '38', '32', '54.3', '2', '0', '0.0', '3', '1', '66.7', '0', '0', '4', '3', '15', '5', '13', '17']"
"['', '28131', '2014-12-13', '00:00:00 GMT', '4', 'FLO', 'Florida', 'Panthers', '15', 'BUF', 'Buffalo', 'Sabres', '10', 'First Niagara Center', '15', 'BUF', 'Buffalo', 'Sabres', '1', '0', '0', '0', '0', '0', '1', '2', '37', '33', '52.9', '2', '0', '0.0', '1', '0', '100.0', '0', '0', '4', '3', '28', '1', '2', '14']"
"['', '28560', '2014-12-15', '00:00:00 GMT', '13', 'OTT', 'Ottawa', 'Senators', '15', 'BUF', 'Buffalo', 'Sabres', '10', 'First Niagara Center', '15', 'BUF', 'Buffalo', 'Sabres', '1', '0', '0', '0', '0', '0', '0', '2', '29', '34', '46.0', '3', '1', '33.3', '5', '0', '100.0', '0', '0', '4', '4', '29', '9', '29', '29']"
"['', '28153', '2014-12-16', '01:00:00 GMT', '15', 'BUF', 'Buffalo', 'Sabres', '2', 'WPJ', 'Winnipeg', 'Jets', '39', 'MTS Centre', '15', 'BUF', 'Buffalo', 'Sabres', '0', '1', '0', '0', '0', '0', '0', '0', '27', '30', '47.4', '4', '1', '25.0', '4', '2', '50.0', '0', '1', '1', '5', '27', '6', '15', '23']"
"['', '28174', '2014-12-20', '00:00:00 GMT', '22', 'COL', 'Colorado', 'Avalanche', '15', 'BUF', 'Buffalo', 'Sabres', '10', 'First Niagara Center', '15', 'BUF', 'Buffalo', 'Sabres', '0', '1', '0', '0', '0', '0', '0', '0', '25', '31', '44.6', '4', '0', '0.0', '3', '1', '66.7', '0', '1', '1', '5', '28', '3', '6', '25']"
"['', '28187', '2014-12-21', '00:00:00 GMT', '15', 'BUF', 'Buffalo', 'Sabres', '11', 'BOS', 'Boston', 'Bruins', '27', 'TD Garden', '15', 'BUF', 'Buffalo', 'Sabres', '0', '0', '0', '1', '0', '0', '0', '1', '24', '35', '40.7', '1', '1', '100.0', '1', '1', '0.0', '0', '0', '3', '4', '25', '4', '19', '29']"
"['', '28203', '2014-12-23', '00:30:00 GMT', '15', 'BUF', 'Buffalo', 'Sabres', '16', 'DET', 'Detroit', 'Red Wings', '11', 'Joe Louis Arena', '15', 'BUF', 'Buffalo', 'Sabres', '0', '1', '0', '0', '0', '0', '0', '0', '23', '38', '37.7', '1', '0', '0.0', '6', '4', '33.3', '1', '0', '3', '6', '13', '6', '12', '33']"
"['', '28209', '2014-12-27', '00:00:00 GMT', '8', 'NYI', 'New York', 'Islanders', '15', 'BUF', 'Buffalo', 'Sabres', '10', 'First Niagara Center', '15', 'BUF', 'Buffalo', 'Sabres', '1', '0', '0', '0', '0', '0', '0', '2', '41', '23', '64.1', '3', '0', '0.0', '2', '0', '100.0', '1', '0', '3', '3', '23', '4', '8', '28']"
"['', '28227', '2014-12-29', '00:30:00 GMT', '15', 'BUF', 'Buffalo', 'Sabres', '13', 'OTT', 'Ottawa', 'Senators', '23', 'Canadian Tire Centre', '15', 'BUF', 'Buffalo', 'Sabres', '0', '1', '0', '0', '0', '0', '0', '0', '28', '32', '46.7', '4', '0', '0.0', '3', '0', '100.0', '0', '0', '2', '5', '19', '5', '13', '36']"
"['', '28240', '2014-12-31', '23:00:00 GMT', '1', 'TBL', 'Tampa Bay', 'Lightning', '15', 'BUF', 'Buffalo', 'Sabres', '10', 'First Niagara Center', '15', 'BUF', 'Buffalo', 'Sabres', '0', '1', '0', '0', '0', '0', '0', '0', '37', '23', '61.7', '2', '1', '50.0', '3', '1', '66.7', '0', '0', '1', '5', '10', '3', '6', '24']"
"['', '28252', '2015-01-02', '00:00:00 GMT', '4', 'FLO', 'Florida', 'Panthers', '15', 'BUF', 'Buffalo', 'Sabres', '10', 'First Niagara Center', '15', 'BUF', 'Buffalo', 'Sabres', '0', '1', '0', '0', '0', '0', '0', '0', '37', '28', '56.9', '1', '0', '0.0', '1', '1', '0.0', '0', '0', '0', '2', '30', '1', '2', '31']"
"['', '28262', '2015-01-03', '00:00:00 GMT', '15', 'BUF', 'Buffalo', 'Sabres', '9', 'NYR', 'New York', 'Rangers', '12', 'Madison Square Garden', '15', 'BUF', 'Buffalo', 'Sabres', '0', '1', '0', '0', '0', '0', '0', '0', '36', '23', '61.0', '3', '0', '0.0', '4', '3', '25.0', '0', '0', '1', '6', '24', '5', '10', '17']"
"['', '28278', '2015-01-06', '00:00:00 GMT', '15', 'BUF', 'Buffalo', 'Sabres', '7', 'NJD', 'New Jersey', 'Devils', '37', 'Prudential Center', '15', 'BUF', 'Buffalo', 'Sabres', '0', '1', '0', '0', '0', '0', '0', '0', '23', '27', '46.0', '2', '1', '50.0', '2', '0', '100.0', '0', '1', '1', '4', '20', '3', '9', '28']"
"['', '28293', '2015-01-08', '00:00:00 GMT', '15', 'BUF', 'Buffalo', 'Sabres', '3', 'CAR', 'Carolina', 'Hurricanes', '21', 'RBC Center', '15', 'BUF', 'Buffalo', 'Sabres', '0', '1', '0', '0', '0', '0', '0', '0', '28', '37', '43.1', '4', '0', '0.0', '3', '1', '66.7', '0', '0', '2', '5', '18', '3', '6', '45']"
"['', '28303', '2015-01-09', '00:30:00 GMT', '15', 'BUF', 'Buffalo', 'Sabres', '1', 'TBL', 'Tampa Bay', 'Lightning', '26', 'Amalie Arena', '15', 'BUF', 'Buffalo', 'Sabres', '0', '1', '0', '0', '0', '0', '0', '0', '22', '36', '37.9', '3', '0', '0.0', '4', '0', '100.0', '1', '0', '1', '2', '20', '4', '8', '13']"
"['', '28325', '2015-01-13', '00:00:00 GMT', '16', 'DET', 'Detroit', 'Red Wings', '15', 'BUF', 'Buffalo', 'Sabres', '10', 'First Niagara Center', '15', 'BUF', 'Buffalo', 'Sabres', '0', '1', '0', '0', '0', '0', '0', '0', '26', '32', '44.8', '2', '0', '0.0', '4', '1', '75.0', '0', '1', '1', '3', '25', '4', '10', '20']"
"['', '28339', '2015-01-15', '00:00:00 GMT', '25', 'MIN', 'Minnesota', 'Wild', '15', 'BUF', 'Buffalo', 'Sabres', '10', 'First Niagara Center', '15', 'BUF', 'Buffalo', 'Sabres', '0', '1', '0', '0', '0', '0', '0', '0', '25', '34', '42.4', '2', '0', '0.0', '6', '2', '66.7', '0', '1', '0', '7', '18', '7', '17', '30']"
"['', '28355', '2015-01-17', '00:00:00 GMT', '6', 'PHI', 'Philadelphia', 'Flyers', '15', 'BUF', 'Buffalo', 'Sabres', '10', 'First Niagara Center', '15', 'BUF', 'Buffalo', 'Sabres', '0', '1', '0', '0', '0', '0', '0', '0', '38', '34', '52.8', '3', '1', '33.3', '3', '2', '33.3', '0', '0', '3', '4', '24', '4', '8', '21']"
"['', '28369', '2015-01-18', '00:30:00 GMT', '15', 'BUF', 'Buffalo', 'Sabres', '16', 'DET', 'Detroit', 'Red Wings', '11', 'Joe Louis Arena', '15', 'BUF', 'Buffalo', 'Sabres', '0', '1', '0', '0', '0', '0', '0', '0', '30', '29', '50.8', '2', '1', '50.0', '4', '2', '50.0', '0', '0', '4', '6', '11', '4', '8', '24']"
"['', '28399', '2015-01-27', '02:00:00 GMT', '15', 'BUF', 'Buffalo', 'Sabres', '23', 'CGY', 'Calgary', 'Flames', '18', 'Scotiabank Saddledome', '15', 'BUF', 'Buffalo', 'Sabres', '0', '1', '0', '0', '0', '0', '0', '0', '26', '33', '44.1', '2', '1', '50.0', '3', '2', '33.3', '0', '0', '1', '4', '17', '4', '8', '16']"
"['', '28414', '2015-01-29', '02:30:00 GMT', '15', 'BUF', 'Buffalo', 'Sabres', '24', 'EDM', 'Edmonton', 'Oilers', '22', 'Rogers Place', '15', 'BUF', 'Buffalo', 'Sabres', '0', '1', '0', '0', '0', '0', '0', '0', '23', '23', '50.0', '1', '0', '0.0', '3', '0', '100.0', '0', '0', '2', '3', '18', '4', '11', '33']"
"['', '28419', '2015-01-30', '03:00:00 GMT', '15', 'BUF', 'Buffalo', 'Sabres', '21', 'VAN', 'Vancouver', 'Canucks', '7', 'Rogers Arena', '15', 'BUF', 'Buffalo', 'Sabres', '0', '1', '0', '0', '0', '0', '0', '0', '24', '36', '40.0', '5', '2', '40.0', '3', '2', '33.3', '0', '0', '2', '5', '20', '4', '8', '23']"
"['', '28443', '2015-02-03', '00:30:00 GMT', '15', 'BUF', 'Buffalo', 'Sabres', '14', 'MTL', 'Montreal', 'Canadiens', '4', 'Bell Centre', '15', 'BUF', 'Buffalo', 'Sabres', '1', '0', '0', '0', '0', '0', '1', '2', '29', '35', '45.3', '1', '0', '0.0', '2', '0', '100.0', '0', '0', '3', '2', '15', '2', '4', '23']"
"['', '28453', '2015-02-05', '00:00:00 GMT', '17', 'STL', 'St. Louis', 'Blues', '15', 'BUF', 'Buffalo', 'Sabres', '10', 'First Niagara Center', '15', 'BUF', 'Buffalo', 'Sabres', '0', '1', '0', '0', '0', '0', '0', '0', '16', '33', '32.7', '2', '0', '0.0', '1', '0', '100.0', '0', '0', '0', '3', '23', '1', '2', '22']"
"['', '28470', '2015-02-07', '00:00:00 GMT', '27', 'DAL', 'Dallas', 'Stars', '15', 'BUF', 'Buffalo', 'Sabres', '10', 'First Niagara Center', '15', 'BUF', 'Buffalo', 'Sabres', '1', '0', '0', '0', '0', '0', '1', '2', '33', '33', '50.0', '2', '1', '50.0', '2', '1', '50.0', '0', '0', '3', '2', '21', '2', '4', '20']"
"['', '28481', '2015-02-08', '22:00:00 GMT', '8', 'NYI', 'New York', 'Islanders', '15', 'BUF', 'Buffalo', 'Sabres', '10', 'First Niagara Center', '15', 'BUF', 'Buffalo', 'Sabres', '0', '1', '0', '0', '0', '0', '0', '0', '21', '27', '43.8', '3', '0', '0.0', '1', '1', '0.0', '0', '0', '2', '3', '8', '3', '6', '27']"
"['', '28492', '2015-02-10', '00:00:00 GMT', '13', 'OTT', 'Ottawa', 'Senators', '15', 'BUF', 'Buffalo', 'Sabres', '10', 'First Niagara Center', '15', 'BUF', 'Buffalo', 'Sabres', '0', '1', '0', '0', '0', '0', '0', '0', '25', '30', '45.5', '4', '1', '25.0', '4', '1', '75.0', '0', '0', '1', '2', '35', '6', '18', '32']"
"['', '28529', '2015-02-15', '00:30:00 GMT', '6', 'PHI', 'Philadelphia', 'Flyers', '15', 'BUF', 'Buffalo', 'Sabres', '10', 'First Niagara Center', '15', 'BUF', 'Buffalo', 'Sabres', '0', '1', '0', '0', '0', '0', '0', '0', '34', '34', '50.0', '2', '1', '50.0', '2', '0', '100.0', '0', '0', '1', '2', '21', '2', '4', '39']"
"['', '28540', '2015-02-17', '00:00:00 GMT', '15', 'BUF', 'Buffalo', 'Sabres', '7', 'NJD', 'New Jersey', 'Devils', '37', 'Prudential Center', '15', 'BUF', 'Buffalo', 'Sabres', '0', '0', '0', '1', '0', '0', '0', '1', '35', '28', '55.6', '3', '0', '0.0', '4', '1', '75.0', '0', '0', '1', '1', '24', '5', '18', '35']"
"['', '28553', '2015-02-19', '00:00:00 GMT', '15', 'BUF', 'Buffalo', 'Sabres', '6', 'PHI', 'Philadelphia', 'Flyers', '29', 'Wells Fargo Center', '15', 'BUF', 'Buffalo', 'Sabres', '1', '0', '0', '0', '0', '0', '0', '2', '32', '33', '49.2', '2', '0', '0.0', '4', '1', '75.0', '0', '0', '2', '2', '30', '5', '10', '36']"
"['', '28926', '2015-02-20', '00:00:00 GMT', '9', 'NYR', 'New York', 'Rangers', '15', 'BUF', 'Buffalo', 'Sabres', '10', 'First Niagara Center', '15', 'BUF', 'Buffalo', 'Sabres', '0', '1', '0', '0', '0', '0', '0', '0', '27', '43', '38.6', '2', '0', '0.0', '4', '0', '100.0', '0', '0', '1', '3', '24', '6', '23', '18']"
"['', '28580', '2015-02-22', '23:00:00 GMT', '18', 'NSH', 'Nashville', 'Predators', '15', 'BUF', 'Buffalo', 'Sabres', '10', 'First Niagara Center', '15', 'BUF', 'Buffalo', 'Sabres', '0', '0', '0', '1', '0', '0', '0', '1', '36', '25', '59.0', '3', '0', '0.0', '8', '1', '87.5', '0', '0', '1', '1', '16', '10', '20', '31']"
"['', '28589', '2015-02-24', '00:00:00 GMT', '15', 'BUF', 'Buffalo', 'Sabres', '19', 'CBJ', 'Columbus', 'Blue Jackets', '17', 'Nationwide Arena', '15', 'BUF', 'Buffalo', 'Sabres', '1', '0', '0', '0', '0', '0', '1', '2', '28', '40', '41.2', '3', '1', '33.3', '4', '0', '100.0', '1', '0', '4', '2', '27', '5', '10', '22']"
"['', '28602', '2015-02-26', '00:00:00 GMT', '21', 'VAN', 'Vancouver', 'Canucks', '15', 'BUF', 'Buffalo', 'Sabres', '10', 'First Niagara Center', '15', 'BUF', 'Buffalo', 'Sabres', '1', '0', '0', '0', '0', '0', '1', '2', '26', '35', '42.6', '1', '0', '0.0', '0', '0', '0.0', '0', '0', '6', '3', '18', '0', '0', '23']"
"['', '28617', '2015-02-28', '20:00:00 GMT', '15', 'BUF', 'Buffalo', 'Sabres', '4', 'FLO', 'Florida', 'Panthers', '3', 'BB&T Center', '15', 'BUF', 'Buffalo', 'Sabres', '0', '1', '0', '0', '0', '0', '0', '0', '30', '33', '47.6', '3', '0', '0.0', '6', '2', '66.7', '0', '0', '3', '5', '11', '7', '14', '28']"
"['', '28639', '2015-03-03', '00:30:00 GMT', '15', 'BUF', 'Buffalo', 'Sabres', '1', 'TBL', 'Tampa Bay', 'Lightning', '26', 'Amalie Arena', '15', 'BUF', 'Buffalo', 'Sabres', '0', '1', '0', '0', '0', '0', '0', '0', '28', '32', '46.7', '2', '0', '0.0', '2', '2', '0.0', '0', '0', '0', '3', '28', '3', '9', '28']"
"['', '28660', '2015-03-06', '00:30:00 GMT', '15', 'BUF', 'Buffalo', 'Sabres', '13', 'OTT', 'Ottawa', 'Senators', '23', 'Canadian Tire Centre', '15', 'BUF', 'Buffalo', 'Sabres', '0', '1', '0', '0', '0', '0', '0', '0', '32', '28', '53.3', '0', '0', '0.0', '3', '0', '100.0', '0', '0', '2', '3', '24', '4', '8', '43']"
"['', '28665', '2015-03-07', '00:00:00 GMT', '15', 'BUF', 'Buffalo', 'Sabres', '5', 'WSH', 'Washington', 'Capitals', '13', 'Verizon Center', '15', 'BUF', 'Buffalo', 'Sabres', '0', '1', '0', '0', '0', '0', '0', '0', '23', '40', '36.5', '3', '0', '0.0', '3', '2', '33.3', '0', '0', '1', '6', '16', '5', '21', '28']"
"['', '28693', '2015-03-11', '23:00:00 GMT', '15', 'BUF', 'Buffalo', 'Sabres', '12', 'TOR', 'Toronto', 'Maple Leafs', '1', 'Air Canada Center', '15', 'BUF', 'Buffalo', 'Sabres', '0', '0', '0', '1', '0', '0', '0', '1', '25', '37', '40.3', '2', '0', '0.0', '4', '1', '75.0', '0', '0', '3', '3', '30', '5', '10', '45']"
"['', '28715', '2015-03-14', '23:00:00 GMT', '9', 'NYR', 'New York', 'Rangers', '15', 'BUF', 'Buffalo', 'Sabres', '10', 'First Niagara Center', '15', 'BUF', 'Buffalo', 'Sabres', '0', '1', '0', '0', '0', '0', '0', '0', '19', '34', '35.8', '3', '0', '0.0', '3', '0', '100.0', '0', '0', '0', '2', '20', '4', '11', '22']"
"['', '28731', '2015-03-16', '23:00:00 GMT', '5', 'WSH', 'Washington', 'Capitals', '15', 'BUF', 'Buffalo', 'Sabres', '10', 'First Niagara Center', '15', 'BUF', 'Buffalo', 'Sabres', '0', '0', '0', '1', '0', '0', '0', '1', '31', '27', '53.4', '3', '1', '33.3', '2', '2', '0.0', '0', '0', '3', '3', '30', '3', '6', '23']"
"['', '28735', '2015-03-17', '23:00:00 GMT', '15', 'BUF', 'Buffalo', 'Sabres', '11', 'BOS', 'Boston', 'Bruins', '27', 'TD Garden', '15', 'BUF', 'Buffalo', 'Sabres', '1', '0', '0', '0', '0', '0', '0', '2', '24', '33', '42.1', '2', '1', '50.0', '2', '0', '100.0', '0', '0', '1', '1', '23', '2', '4', '34']"
"['', '28757', '2015-03-20', '23:00:00 GMT', '7', 'NJD', 'New Jersey', 'Devils', '15', 'BUF', 'Buffalo', 'Sabres', '10', 'First Niagara Center', '15', 'BUF', 'Buffalo', 'Sabres', '0', '1', '0', '0', '0', '0', '0', '0', '21', '25', '45.7', '3', '1', '33.3', '2', '0', '100.0', '0', '0', '1', '3', '28', '2', '4', '29']"
"['', '28769', '2015-03-21', '00:00:00 GMT', '15', 'BUF', 'Buffalo', 'Sabres', '18', 'NSH', 'Nashville', 'Predators', '15', 'Bridgestone Arena', '15', 'BUF', 'Buffalo', 'Sabres', '0', '1', '0', '0', '0', '0', '0', '0', '22', '37', '37.3', '4', '0', '0.0', '1', '1', '0.0', '0', '0', '0', '3', '24', '1', '2', '17']"
"['', '28781', '2015-03-23', '00:30:00 GMT', '15', 'BUF', 'Buffalo', 'Sabres', '27', 'DAL', 'Dallas', 'Stars', '2', 'American Airlines Center', '15', 'BUF', 'Buffalo', 'Sabres', '0', '1', '0', '0', '0', '0', '0', '0', '25', '40', '38.5', '3', '1', '33.3', '3', '1', '66.7', '0', '0', '3', '4', '25', '3', '6', '25']"
"['', '28796', '2015-03-26', '23:00:00 GMT', '30', 'ARI', 'Arizona', 'Coyotes', '15', 'BUF', 'Buffalo', 'Sabres', '10', 'First Niagara Center', '15', 'BUF', 'Buffalo', 'Sabres', '0', '0', '0', '1', '0', '0', '0', '1', '31', '32', '49.2', '5', '2', '40.0', '3', '1', '66.7', '0', '0', '3', '4', '32', '5', '10', '15']"
"['', '28820', '2015-03-28', '01:00:00 GMT', '15', 'BUF', 'Buffalo', 'Sabres', '22', 'COL', 'Colorado', 'Avalanche', '19', 'Pepsi Center', '15', 'BUF', 'Buffalo', 'Sabres', '0', '1', '0', '0', '0', '0', '0', '0', '33', '25', '56.9', '3', '0', '0.0', '1', '0', '100.0', '0', '0', '3', '5', '35', '2', '4', '26']"
"['', '28835', '2015-03-30', '02:00:00 GMT', '15', 'BUF', 'Buffalo', 'Sabres', '30', 'ARI', 'Arizona', 'Coyotes', '6', 'Gila River Arena', '15', 'BUF', 'Buffalo', 'Sabres', '1', '0', '0', '0', '0', '0', '1', '2', '20', '36', '35.7', '1', '1', '100.0', '2', '0', '100.0', '1', '0', '4', '1', '32', '3', '6', '41']"
"['', '28843', '2015-04-01', '23:30:00 GMT', '12', 'TOR', 'Toronto', 'Maple Leafs', '15', 'BUF', 'Buffalo', 'Sabres', '10', 'First Niagara Center', '15', 'BUF', 'Buffalo', 'Sabres', '1', '0', '0', '0', '0', '0', '1', '2', '31', '27', '53.4', '5', '1', '20.0', '4', '0', '100.0', '0', '0', '4', '3', '27', '4', '8', '16']"
"['', '28856', '2015-04-03', '23:00:00 GMT', '20', 'CHI', 'Chicago', 'Blackhawks', '15', 'BUF', 'Buffalo', 'Sabres', '10', 'First Niagara Center', '15', 'BUF', 'Buffalo', 'Sabres', '0', '1', '0', '0', '0', '0', '0', '0', '31', '38', '44.9', '3', '1', '33.3', '3', '0', '100.0', '0', '0', '3', '4', '35', '5', '13', '20']"
"['', '28865', '2015-04-04', '23:00:00 GMT', '15', 'BUF', 'Buffalo', 'Sabres', '8', 'NYI', 'New York', 'Islanders', '16', 'Nassau Veterans Memorial Coliseum', '15', 'BUF', 'Buffalo', 'Sabres', '0', '1', '0', '0', '0', '0', '0', '0', '20', '23', '46.5', '4', '0', '0.0', '2', '1', '50.0', '0', '0', '0', '3', '21', '3', '6', '27']"
"['', '28879', '2015-04-06', '23:00:00 GMT', '3', 'CAR', 'Carolina', 'Hurricanes', '15', 'BUF', 'Buffalo', 'Sabres', '10', 'First Niagara Center', '15', 'BUF', 'Buffalo', 'Sabres', '1', '0', '0', '0', '0', '0', '1', '2', '19', '44', '30.2', '0', '0', '0.0', '0', '0', '0.0', '0', '0', '4', '3', '21', '0', '0', '10']"
"['', '28908', '2015-04-10', '23:00:00 GMT', '15', 'BUF', 'Buffalo', 'Sabres', '19', 'CBJ', 'Columbus', 'Blue Jackets', '17', 'Nationwide Arena', '15', 'BUF', 'Buffalo', 'Sabres', '0', '1', '0', '0', '0', '0', '0', '0', '24', '37', '39.3', '3', '1', '33.3', '1', '0', '100.0', '0', '0', '2', '4', '23', '1', '2', '30']"
"['', '28914', '2015-04-11', '23:00:00 GMT', '10', 'PIT', 'Pittsburgh', 'Penguins', '15', 'BUF', 'Buffalo', 'Sabres', '10', 'First Niagara Center', '15', 'BUF', 'Buffalo', 'Sabres', '0', '1', '0', '0', '0', '0', '0', '0', '25', '45', '35.7', '0', '0', '0.0', '0', '0', '0.0', '0', '0', '0', '2', '28', '1', '2', '34']"
