"['#Date/Time of Update: 2018-12-10 19:03:07 GMT', '#Game ID', '#Game Date', '#Game Time', '#Away Team ID', '#Away Team Abbr.', '#Away Team City', '#Away Team Name', '#Home Team ID', '#Home Team Abbr.', '#Home Team City', '#Home Team Name', '#Venue ID', '#Venue Name', '#Team ID', '#Team Abbr.', '#Team City', '#Team Name', '#Wins', '#Losses', '#OvertimeWins', '#OvertimeLosses', '#ShootoutWins', '#ShootoutLosses', '#Rows', '#Points', '#FaceoffWins', '#FaceoffLosses', '#FaceoffPercent', '#Powerplays', '#PowerplayGoals', '#PowerplayPercent', '#PenaltyKills', '#PenaltyKillGoalsAllowed', '#PenaltyKillPercent', '#ShorthandedGoalsFor', '#ShorthandedGoalsAgainst', '#GoalsFor', '#GoalsAgainst', '#Shots', '#Penalties', '#PenaltyMinutes', '#Hits']"
"['', '19732', '2013-01-19', '01:00:00 GMT', '30', 'PHX', 'Phoenix', 'Coyotes', '27', 'DAL', 'Dallas', 'Stars', '2', 'American Airlines Center', '27', 'DAL', 'Dallas', 'Stars', '1', '0', '0', '0', '0', '0', '1', '2', '33', '35', '48.5', '4', '2', '50.0', '5', '2', '60.0', '0', '0', '4', '3', '22', '6', '12', '22']"
"['', '19738', '2013-01-20', '01:00:00 GMT', '27', 'DAL', 'Dallas', 'Stars', '25', 'MIN', 'Minnesota', 'Wild', '30', 'Xcel Energy Center', '27', 'DAL', 'Dallas', 'Stars', '0', '1', '0', '0', '0', '0', '0', '0', '24', '26', '48.0', '3', '0', '0.0', '3', '0', '100.0', '0', '0', '0', '1', '23', '4', '8', '21']"
"['', '19752', '2013-01-22', '00:30:00 GMT', '27', 'DAL', 'Dallas', 'Stars', '16', 'DET', 'Detroit', 'Red Wings', '11', 'Joe Louis Arena', '27', 'DAL', 'Dallas', 'Stars', '1', '0', '0', '0', '0', '0', '1', '2', '25', '35', '41.7', '2', '0', '0.0', '4', '0', '100.0', '0', '0', '2', '1', '29', '5', '10', '25']"
"['', '19767', '2013-01-24', '01:30:00 GMT', '20', 'CHI', 'Chicago', 'Blackhawks', '27', 'DAL', 'Dallas', 'Stars', '2', 'American Airlines Center', '27', 'DAL', 'Dallas', 'Stars', '0', '0', '0', '1', '0', '0', '0', '1', '23', '35', '39.7', '2', '0', '0.0', '6', '3', '50.0', '1', '0', '2', '3', '19', '7', '14', '20']"
"['', '19782', '2013-01-26', '01:00:00 GMT', '17', 'STL', 'St. Louis', 'Blues', '27', 'DAL', 'Dallas', 'Stars', '2', 'American Airlines Center', '27', 'DAL', 'Dallas', 'Stars', '0', '1', '0', '0', '0', '0', '0', '0', '33', '27', '55.0', '4', '1', '25.0', '3', '0', '100.0', '0', '0', '3', '4', '19', '3', '6', '18']"
"['', '19795', '2013-01-28', '00:00:00 GMT', '27', 'DAL', 'Dallas', 'Stars', '19', 'CBJ', 'Columbus', 'Blue Jackets', '17', 'Nationwide Arena', '27', 'DAL', 'Dallas', 'Stars', '0', '1', '0', '0', '0', '0', '0', '0', '28', '29', '49.1', '4', '1', '25.0', '6', '0', '100.0', '0', '0', '1', '2', '24', '8', '16', '18']"
"['', '19806', '2013-01-29', '00:30:00 GMT', '27', 'DAL', 'Dallas', 'Stars', '16', 'DET', 'Detroit', 'Red Wings', '11', 'Joe Louis Arena', '27', 'DAL', 'Dallas', 'Stars', '0', '1', '0', '0', '0', '0', '0', '0', '24', '36', '40.0', '5', '0', '0.0', '6', '1', '83.3', '0', '0', '1', '4', '25', '8', '22', '17']"
"['', '19826', '2013-02-01', '01:30:00 GMT', '30', 'PHX', 'Phoenix', 'Coyotes', '27', 'DAL', 'Dallas', 'Stars', '2', 'American Airlines Center', '27', 'DAL', 'Dallas', 'Stars', '1', '0', '0', '0', '0', '0', '0', '2', '30', '27', '52.6', '2', '0', '0.0', '3', '0', '100.0', '0', '0', '3', '3', '21', '5', '13', '21']"
"['', '19836', '2013-02-02', '01:00:00 GMT', '27', 'DAL', 'Dallas', 'Stars', '30', 'PHX', 'Phoenix', 'Coyotes', '6', 'Jobing.com Arena', '27', 'DAL', 'Dallas', 'Stars', '0', '1', '0', '0', '0', '0', '0', '0', '28', '31', '47.5', '0', '0', '0.0', '7', '1', '85.7', '0', '0', '0', '2', '17', '8', '16', '22']"
"['', '19845', '2013-02-04', '02:00:00 GMT', '27', 'DAL', 'Dallas', 'Stars', '22', 'COL', 'Colorado', 'Avalanche', '19', 'Pepsi Center', '27', 'DAL', 'Dallas', 'Stars', '1', '0', '0', '0', '0', '0', '1', '2', '25', '34', '42.4', '3', '0', '0.0', '5', '1', '80.0', '0', '0', '3', '2', '23', '5', '10', '10']"
"['', '19861', '2013-02-06', '02:30:00 GMT', '27', 'DAL', 'Dallas', 'Stars', '24', 'EDM', 'Edmonton', 'Oilers', '22', 'Rogers Place', '27', 'DAL', 'Dallas', 'Stars', '1', '0', '0', '0', '0', '0', '1', '2', '24', '18', '57.1', '3', '1', '33.3', '4', '1', '75.0', '0', '0', '3', '2', '25', '4', '8', '12']"
"['', '19874', '2013-02-08', '01:30:00 GMT', '29', 'ANA', 'Anaheim', 'Ducks', '27', 'DAL', 'Dallas', 'Stars', '2', 'American Airlines Center', '27', 'DAL', 'Dallas', 'Stars', '1', '0', '0', '0', '0', '0', '1', '2', '27', '26', '50.9', '4', '2', '50.0', '3', '0', '100.0', '0', '0', '3', '1', '25', '6', '15', '20']"
"['', '19907', '2013-02-12', '02:30:00 GMT', '27', 'DAL', 'Dallas', 'Stars', '24', 'EDM', 'Edmonton', 'Oilers', '22', 'Rogers Place', '27', 'DAL', 'Dallas', 'Stars', '1', '0', '0', '0', '0', '0', '1', '2', '27', '30', '47.4', '2', '0', '0.0', '5', '0', '100.0', '0', '0', '4', '1', '25', '7', '14', '25']"
"['', '20442', '2013-02-13', '02:30:00 GMT', '27', 'DAL', 'Dallas', 'Stars', '23', 'CGY', 'Calgary', 'Flames', '18', 'Scotiabank Saddledome', '27', 'DAL', 'Dallas', 'Stars', '0', '1', '0', '0', '0', '0', '0', '0', '40', '37', '51.9', '4', '2', '50.0', '2', '2', '0.0', '0', '0', '4', '7', '30', '4', '11', '20']"
"['', '19924', '2013-02-15', '03:00:00 GMT', '27', 'DAL', 'Dallas', 'Stars', '21', 'VAN', 'Vancouver', 'Canucks', '7', 'Rogers Arena', '27', 'DAL', 'Dallas', 'Stars', '1', '0', '0', '0', '0', '0', '1', '2', '26', '29', '47.3', '4', '0', '0.0', '2', '0', '100.0', '0', '0', '4', '3', '25', '6', '21', '22']"
"['', '19936', '2013-02-17', '20:00:00 GMT', '23', 'CGY', 'Calgary', 'Flames', '27', 'DAL', 'Dallas', 'Stars', '2', 'American Airlines Center', '27', 'DAL', 'Dallas', 'Stars', '0', '1', '0', '0', '0', '0', '0', '0', '32', '32', '50.0', '3', '0', '0.0', '5', '1', '80.0', '0', '0', '3', '4', '27', '6', '15', '25']"
"['', '19966', '2013-02-21', '01:30:00 GMT', '21', 'VAN', 'Vancouver', 'Canucks', '27', 'DAL', 'Dallas', 'Stars', '2', 'American Airlines Center', '27', 'DAL', 'Dallas', 'Stars', '0', '1', '0', '0', '0', '0', '0', '0', '26', '33', '44.1', '3', '0', '0.0', '5', '1', '80.0', '0', '0', '3', '4', '22', '6', '15', '23']"
"['', '19981', '2013-02-23', '01:00:00 GMT', '26', 'SJS', 'San Jose', 'Sharks', '27', 'DAL', 'Dallas', 'Stars', '2', 'American Airlines Center', '27', 'DAL', 'Dallas', 'Stars', '1', '0', '0', '0', '0', '0', '1', '2', '33', '34', '49.3', '6', '2', '33.3', '6', '1', '83.3', '0', '0', '3', '1', '25', '9', '21', '29']"
"['', '19993', '2013-02-25', '01:00:00 GMT', '27', 'DAL', 'Dallas', 'Stars', '18', 'NSH', 'Nashville', 'Predators', '15', 'Bridgestone Arena', '27', 'DAL', 'Dallas', 'Stars', '0', '0', '0', '1', '0', '0', '0', '1', '26', '31', '45.6', '4', '2', '50.0', '4', '1', '75.0', '0', '0', '4', '5', '20', '6', '15', '15']"
"['', '19998', '2013-02-26', '00:00:00 GMT', '27', 'DAL', 'Dallas', 'Stars', '19', 'CBJ', 'Columbus', 'Blue Jackets', '17', 'Nationwide Arena', '27', 'DAL', 'Dallas', 'Stars', '1', '0', '0', '0', '0', '0', '1', '2', '29', '27', '51.8', '1', '0', '0.0', '1', '0', '100.0', '0', '0', '5', '4', '34', '2', '4', '22']"
"['', '20016', '2013-02-28', '01:30:00 GMT', '24', 'EDM', 'Edmonton', 'Oilers', '27', 'DAL', 'Dallas', 'Stars', '2', 'American Airlines Center', '27', 'DAL', 'Dallas', 'Stars', '0', '1', '0', '0', '0', '0', '0', '0', '32', '39', '45.1', '4', '0', '0.0', '7', '1', '85.7', '0', '0', '1', '5', '33', '12', '38', '28']"
"['', '20035', '2013-03-03', '20:00:00 GMT', '17', 'STL', 'St. Louis', 'Blues', '27', 'DAL', 'Dallas', 'Stars', '2', 'American Airlines Center', '27', 'DAL', 'Dallas', 'Stars', '1', '0', '0', '0', '0', '0', '1', '2', '31', '33', '48.4', '3', '1', '33.3', '1', '0', '100.0', '0', '0', '4', '1', '23', '2', '7', '45']"
"['', '20070', '2013-03-07', '03:30:00 GMT', '27', 'DAL', 'Dallas', 'Stars', '28', 'LAK', 'Los Angeles', 'Kings', '25', 'Staples Center', '27', 'DAL', 'Dallas', 'Stars', '1', '0', '0', '0', '0', '0', '1', '2', '19', '41', '31.7', '3', '2', '66.7', '1', '0', '100.0', '0', '0', '5', '2', '17', '1', '2', '24']"
"['', '20084', '2013-03-09', '01:00:00 GMT', '27', 'DAL', 'Dallas', 'Stars', '30', 'PHX', 'Phoenix', 'Coyotes', '6', 'Jobing.com Arena', '27', 'DAL', 'Dallas', 'Stars', '0', '1', '0', '0', '0', '0', '0', '0', '24', '30', '44.4', '5', '1', '20.0', '2', '0', '100.0', '0', '0', '1', '2', '20', '2', '4', '27']"
"['', '20106', '2013-03-12', '00:30:00 GMT', '18', 'NSH', 'Nashville', 'Predators', '27', 'DAL', 'Dallas', 'Stars', '2', 'American Airlines Center', '27', 'DAL', 'Dallas', 'Stars', '0', '1', '0', '0', '0', '0', '0', '0', '32', '35', '47.8', '4', '0', '0.0', '5', '2', '60.0', '0', '0', '0', '4', '32', '11', '55', '22']"
"['', '20120', '2013-03-14', '00:30:00 GMT', '29', 'ANA', 'Anaheim', 'Ducks', '27', 'DAL', 'Dallas', 'Stars', '2', 'American Airlines Center', '27', 'DAL', 'Dallas', 'Stars', '0', '0', '0', '1', '0', '0', '0', '1', '37', '29', '56.1', '5', '0', '0.0', '2', '0', '100.0', '0', '0', '1', '1', '33', '4', '11', '31']"
"['', '20136', '2013-03-16', '00:00:00 GMT', '20', 'CHI', 'Chicago', 'Blackhawks', '27', 'DAL', 'Dallas', 'Stars', '2', 'American Airlines Center', '27', 'DAL', 'Dallas', 'Stars', '0', '1', '0', '0', '0', '0', '0', '0', '27', '30', '47.4', '2', '1', '50.0', '6', '2', '66.7', '0', '0', '1', '8', '18', '8', '19', '33']"
"['', '20145', '2013-03-18', '00:30:00 GMT', '23', 'CGY', 'Calgary', 'Flames', '27', 'DAL', 'Dallas', 'Stars', '2', 'American Airlines Center', '27', 'DAL', 'Dallas', 'Stars', '1', '0', '0', '0', '0', '0', '1', '2', '32', '30', '51.6', '3', '0', '0.0', '4', '2', '50.0', '0', '0', '4', '3', '20', '6', '15', '30']"
"['', '20161', '2013-03-20', '01:30:00 GMT', '27', 'DAL', 'Dallas', 'Stars', '22', 'COL', 'Colorado', 'Avalanche', '19', 'Pepsi Center', '27', 'DAL', 'Dallas', 'Stars', '0', '1', '0', '0', '0', '0', '0', '0', '29', '27', '51.8', '4', '0', '0.0', '2', '0', '100.0', '0', '1', '3', '4', '29', '4', '11', '11']"
"['', '20172', '2013-03-21', '02:30:00 GMT', '27', 'DAL', 'Dallas', 'Stars', '28', 'LAK', 'Los Angeles', 'Kings', '25', 'Staples Center', '27', 'DAL', 'Dallas', 'Stars', '1', '0', '0', '0', '0', '0', '1', '2', '24', '37', '39.3', '2', '0', '0.0', '3', '0', '100.0', '0', '0', '2', '0', '19', '3', '6', '33']"
"['', '20184', '2013-03-23', '00:00:00 GMT', '22', 'COL', 'Colorado', 'Avalanche', '27', 'DAL', 'Dallas', 'Stars', '2', 'American Airlines Center', '27', 'DAL', 'Dallas', 'Stars', '1', '0', '0', '0', '0', '0', '1', '2', '34', '31', '52.3', '4', '1', '25.0', '3', '1', '66.7', '0', '0', '5', '2', '26', '4', '16', '28']"
"['', '20197', '2013-03-25', '00:30:00 GMT', '25', 'MIN', 'Minnesota', 'Wild', '27', 'DAL', 'Dallas', 'Stars', '2', 'American Airlines Center', '27', 'DAL', 'Dallas', 'Stars', '0', '1', '0', '0', '0', '0', '0', '0', '29', '28', '50.9', '2', '1', '50.0', '2', '0', '100.0', '0', '1', '4', '7', '22', '4', '16', '36']"
"['', '20225', '2013-03-29', '00:30:00 GMT', '25', 'MIN', 'Minnesota', 'Wild', '27', 'DAL', 'Dallas', 'Stars', '2', 'American Airlines Center', '27', 'DAL', 'Dallas', 'Stars', '1', '0', '0', '0', '0', '0', '1', '2', '35', '27', '56.5', '5', '3', '60.0', '3', '1', '66.7', '0', '0', '5', '3', '28', '7', '25', '26']"
"['', '20240', '2013-03-31', '22:00:00 GMT', '28', 'LAK', 'Los Angeles', 'Kings', '27', 'DAL', 'Dallas', 'Stars', '2', 'American Airlines Center', '27', 'DAL', 'Dallas', 'Stars', '0', '1', '0', '0', '0', '0', '0', '0', '17', '31', '35.4', '2', '1', '50.0', '1', '0', '100.0', '0', '0', '2', '3', '13', '1', '2', '34']"
"['', '20249', '2013-04-01', '00:30:00 GMT', '29', 'ANA', 'Anaheim', 'Ducks', '27', 'DAL', 'Dallas', 'Stars', '2', 'American Airlines Center', '27', 'DAL', 'Dallas', 'Stars', '0', '1', '0', '0', '0', '0', '0', '0', '28', '30', '48.3', '4', '0', '0.0', '1', '1', '0.0', '0', '0', '0', '4', '26', '2', '4', '30']"
"['', '20262', '2013-04-03', '02:00:00 GMT', '27', 'DAL', 'Dallas', 'Stars', '29', 'ANA', 'Anaheim', 'Ducks', '8', 'Honda Center', '27', 'DAL', 'Dallas', 'Stars', '0', '1', '0', '0', '0', '0', '0', '0', '31', '30', '50.8', '0', '0', '0.0', '1', '1', '0.0', '0', '0', '2', '5', '23', '1', '2', '24']"
"['', '20278', '2013-04-05', '02:00:00 GMT', '27', 'DAL', 'Dallas', 'Stars', '29', 'ANA', 'Anaheim', 'Ducks', '8', 'Honda Center', '27', 'DAL', 'Dallas', 'Stars', '1', '0', '0', '0', '0', '0', '1', '2', '32', '24', '57.1', '5', '0', '0.0', '4', '0', '100.0', '1', '0', '3', '1', '22', '5', '13', '19']"
"['', '20291', '2013-04-07', '20:00:00 GMT', '27', 'DAL', 'Dallas', 'Stars', '26', 'SJS', 'San Jose', 'Sharks', '9', 'SAP Center at San Jose', '27', 'DAL', 'Dallas', 'Stars', '1', '0', '0', '0', '0', '0', '0', '2', '30', '42', '41.7', '3', '0', '0.0', '3', '0', '100.0', '0', '0', '4', '4', '30', '3', '6', '30']"
"['', '20311', '2013-04-09', '00:30:00 GMT', '28', 'LAK', 'Los Angeles', 'Kings', '27', 'DAL', 'Dallas', 'Stars', '2', 'American Airlines Center', '27', 'DAL', 'Dallas', 'Stars', '1', '0', '0', '0', '0', '0', '1', '2', '33', '32', '50.8', '4', '0', '0.0', '3', '1', '66.7', '0', '0', '5', '1', '26', '6', '12', '34']"
"['', '20328', '2013-04-12', '00:00:00 GMT', '27', 'DAL', 'Dallas', 'Stars', '18', 'NSH', 'Nashville', 'Predators', '15', 'Bridgestone Arena', '27', 'DAL', 'Dallas', 'Stars', '1', '0', '0', '0', '0', '0', '1', '2', '26', '31', '45.6', '3', '1', '33.3', '3', '1', '66.7', '0', '0', '5', '2', '13', '4', '11', '20']"
"['', '20339', '2013-04-13', '00:00:00 GMT', '26', 'SJS', 'San Jose', 'Sharks', '27', 'DAL', 'Dallas', 'Stars', '2', 'American Airlines Center', '27', 'DAL', 'Dallas', 'Stars', '1', '0', '0', '0', '0', '0', '1', '2', '23', '31', '42.6', '4', '1', '25.0', '2', '1', '50.0', '0', '0', '2', '1', '17', '2', '4', '33']"
"['', '20348', '2013-04-15', '00:00:00 GMT', '27', 'DAL', 'Dallas', 'Stars', '20', 'CHI', 'Chicago', 'Blackhawks', '28', 'United Center', '27', 'DAL', 'Dallas', 'Stars', '0', '1', '0', '0', '0', '0', '0', '0', '29', '37', '43.9', '2', '0', '0.0', '4', '0', '100.0', '0', '0', '2', '5', '16', '5', '10', '46']"
"['', '20372', '2013-04-18', '00:30:00 GMT', '21', 'VAN', 'Vancouver', 'Canucks', '27', 'DAL', 'Dallas', 'Stars', '2', 'American Airlines Center', '27', 'DAL', 'Dallas', 'Stars', '1', '0', '0', '0', '0', '0', '1', '2', '33', '40', '45.2', '4', '1', '25.0', '2', '0', '100.0', '0', '0', '5', '1', '25', '5', '18', '25']"
"['', '20377', '2013-04-19', '00:00:00 GMT', '27', 'DAL', 'Dallas', 'Stars', '17', 'STL', 'St. Louis', 'Blues', '24', 'Scottrade Center', '27', 'DAL', 'Dallas', 'Stars', '0', '1', '0', '0', '0', '0', '0', '0', '29', '26', '52.7', '2', '0', '0.0', '3', '1', '66.7', '0', '0', '1', '2', '21', '3', '6', '9']"
"['', '20395', '2013-04-21', '01:00:00 GMT', '27', 'DAL', 'Dallas', 'Stars', '28', 'LAK', 'Los Angeles', 'Kings', '25', 'Staples Center', '27', 'DAL', 'Dallas', 'Stars', '0', '0', '0', '1', '0', '0', '0', '1', '13', '42', '23.6', '4', '0', '0.0', '5', '1', '80.0', '0', '0', '3', '4', '24', '8', '16', '32']"
"['', '20409', '2013-04-23', '02:00:00 GMT', '27', 'DAL', 'Dallas', 'Stars', '26', 'SJS', 'San Jose', 'Sharks', '9', 'SAP Center at San Jose', '27', 'DAL', 'Dallas', 'Stars', '0', '1', '0', '0', '0', '0', '0', '0', '22', '31', '41.5', '3', '1', '33.3', '3', '1', '66.7', '0', '0', '2', '3', '24', '3', '6', '27']"
"['', '20422', '2013-04-25', '00:30:00 GMT', '19', 'CBJ', 'Columbus', 'Blue Jackets', '27', 'DAL', 'Dallas', 'Stars', '2', 'American Airlines Center', '27', 'DAL', 'Dallas', 'Stars', '0', '1', '0', '0', '0', '0', '0', '0', '36', '36', '50.0', '3', '1', '33.3', '4', '2', '50.0', '0', '0', '1', '3', '31', '7', '20', '29']"
"['', '20436', '2013-04-27', '00:00:00 GMT', '16', 'DET', 'Detroit', 'Red Wings', '27', 'DAL', 'Dallas', 'Stars', '2', 'American Airlines Center', '27', 'DAL', 'Dallas', 'Stars', '0', '1', '0', '0', '0', '0', '0', '0', '26', '27', '49.1', '3', '0', '0.0', '3', '0', '100.0', '0', '1', '0', '3', '17', '6', '12', '30']"
