"['#Date/Time of Update: 2018-12-10 19:03:26 GMT', '#Game ID', '#Game Date', '#Game Time', '#Away Team ID', '#Away Team Abbr.', '#Away Team City', '#Away Team Name', '#Home Team ID', '#Home Team Abbr.', '#Home Team City', '#Home Team Name', '#Venue ID', '#Venue Name', '#Team ID', '#Team Abbr.', '#Team City', '#Team Name', '#Wins', '#Losses', '#OvertimeWins', '#OvertimeLosses', '#Points', '#FaceoffWins', '#FaceoffLosses', '#FaceoffPercent', '#Powerplays', '#PowerplayGoals', '#PowerplayPercent', '#PenaltyKills', '#PenaltyKillGoalsAllowed', '#PenaltyKillPercent', '#ShorthandedGoalsFor', '#ShorthandedGoalsAgainst', '#GoalsFor', '#GoalsAgainst', '#Shots', '#Penalties', '#PenaltyMinutes', '#Hits']"
"['', '46300', '2018-10-03', '23:30:00 GMT', '11', 'BOS', 'Boston', 'Bruins', '5', 'WSH', 'Washington', 'Capitals', '13', 'Capital One Arena', '5', 'WSH', 'Washington', 'Capitals', '1', '0', '0', '0', '2', '19', '41', '31.7', '6', '4', '66.7', '2', '0', '100.0', '0', '0', '7', '0', '37', '4', '14', '16']"
"['', '46305', '2018-10-04', '23:00:00 GMT', '5', 'WSH', 'Washington', 'Capitals', '10', 'PIT', 'Pittsburgh', 'Penguins', '40', 'PPG Paints Arena', '5', 'WSH', 'Washington', 'Capitals', '0', '0', '0', '1', '1', '33', '37', '47.1', '2', '0', '0.0', '6', '2', '66.7', '0', '0', '6', '7', '36', '6', '12', '32']"
"['', '46341', '2018-10-10', '00:00:00 GMT', '142', 'VGK', 'Vegas', 'Golden Knights', '5', 'WSH', 'Washington', 'Capitals', '13', 'Capital One Arena', '5', 'WSH', 'Washington', 'Capitals', '1', '0', '0', '0', '2', '36', '38', '48.6', '4', '2', '50.0', '3', '0', '100.0', '0', '0', '5', '2', '29', '3', '6', '31']"
"['', '46346', '2018-10-11', '23:00:00 GMT', '5', 'WSH', 'Washington', 'Capitals', '7', 'NJD', 'New Jersey', 'Devils', '37', 'Prudential Center', '5', 'WSH', 'Washington', 'Capitals', '0', '1', '0', '0', '0', '23', '37', '38.3', '4', '0', '0.0', '4', '1', '75.0', '0', '0', '0', '6', '21', '5', '10', '30']"
"['', '46363', '2018-10-13', '23:00:00 GMT', '12', 'TOR', 'Toronto', 'Maple Leafs', '5', 'WSH', 'Washington', 'Capitals', '13', 'Capital One Arena', '5', 'WSH', 'Washington', 'Capitals', '0', '1', '0', '0', '0', '26', '23', '53.1', '3', '1', '33.3', '4', '1', '75.0', '0', '0', '2', '4', '27', '4', '8', '28']"
"['', '46385', '2018-10-17', '23:00:00 GMT', '9', 'NYR', 'New York', 'Rangers', '5', 'WSH', 'Washington', 'Capitals', '13', 'Capital One Arena', '5', 'WSH', 'Washington', 'Capitals', '1', '0', '0', '0', '2', '35', '31', '53.0', '4', '2', '50.0', '4', '2', '50.0', '0', '0', '4', '3', '38', '4', '8', '23']"
"['', '46397', '2018-10-19', '23:00:00 GMT', '4', 'FLO', 'Florida', 'Panthers', '5', 'WSH', 'Washington', 'Capitals', '13', 'Capital One Arena', '5', 'WSH', 'Washington', 'Capitals', '0', '0', '0', '1', '1', '32', '33', '49.2', '3', '1', '33.3', '7', '2', '71.4', '0', '0', '5', '5', '31', '8', '16', '28']"
"['', '46419', '2018-10-22', '02:00:00 GMT', '5', 'WSH', 'Washington', 'Capitals', '21', 'VAN', 'Vancouver', 'Canucks', '7', 'Rogers Arena', '5', 'WSH', 'Washington', 'Capitals', '1', '0', '0', '0', '2', '25', '28', '47.2', '5', '2', '40.0', '3', '1', '66.7', '0', '0', '5', '2', '33', '4', '8', '19']"
"['', '46440', '2018-10-25', '01:00:00 GMT', '5', 'WSH', 'Washington', 'Capitals', '24', 'EDM', 'Edmonton', 'Oilers', '22', 'Rogers Place', '5', 'WSH', 'Washington', 'Capitals', '0', '1', '0', '0', '0', '34', '26', '56.7', '1', '0', '0.0', '4', '1', '75.0', '0', '1', '1', '4', '32', '4', '8', '28']"
"['', '46449', '2018-10-27', '20:00:00 GMT', '5', 'WSH', 'Washington', 'Capitals', '23', 'CGY', 'Calgary', 'Flames', '18', 'Scotiabank Saddledome', '5', 'WSH', 'Washington', 'Capitals', '1', '0', '0', '0', '2', '27', '33', '45.0', '3', '1', '33.3', '4', '1', '75.0', '0', '0', '3', '3', '27', '4', '8', '21']"
"['', '46480', '2018-11-01', '23:30:00 GMT', '5', 'WSH', 'Washington', 'Capitals', '14', 'MTL', 'Montreal', 'Canadiens', '4', 'Bell Centre', '5', 'WSH', 'Washington', 'Capitals', '0', '1', '0', '0', '0', '36', '23', '61.0', '1', '0', '0.0', '2', '0', '100.0', '0', '0', '4', '6', '31', '3', '6', '25']"
"['', '46498', '2018-11-03', '23:00:00 GMT', '27', 'DAL', 'Dallas', 'Stars', '5', 'WSH', 'Washington', 'Capitals', '13', 'Capital One Arena', '5', 'WSH', 'Washington', 'Capitals', '0', '0', '0', '1', '1', '31', '27', '53.4', '3', '1', '33.3', '3', '0', '100.0', '0', '0', '3', '4', '32', '4', '24', '25']"
"['', '46511', '2018-11-05', '00:00:00 GMT', '24', 'EDM', 'Edmonton', 'Oilers', '5', 'WSH', 'Washington', 'Capitals', '13', 'Capital One Arena', '5', 'WSH', 'Washington', 'Capitals', '1', '0', '0', '0', '2', '26', '36', '41.9', '2', '1', '50.0', '4', '1', '75.0', '0', '0', '4', '2', '23', '4', '8', '25']"
"['', '46522', '2018-11-07', '00:30:00 GMT', '10', 'PIT', 'Pittsburgh', 'Penguins', '5', 'WSH', 'Washington', 'Capitals', '13', 'Capital One Arena', '5', 'WSH', 'Washington', 'Capitals', '1', '0', '0', '0', '2', '28', '31', '47.5', '6', '1', '16.7', '3', '1', '66.7', '0', '0', '2', '1', '22', '3', '6', '22']"
"['', '46535', '2018-11-09', '00:00:00 GMT', '19', 'CBJ', 'Columbus', 'Blue Jackets', '5', 'WSH', 'Washington', 'Capitals', '13', 'Capital One Arena', '5', 'WSH', 'Washington', 'Capitals', '0', '1', '0', '0', '0', '32', '29', '52.5', '5', '1', '20.0', '3', '2', '33.3', '0', '0', '1', '2', '34', '3', '6', '19']"
"['', '46553', '2018-11-11', '22:00:00 GMT', '30', 'ARI', 'Arizona', 'Coyotes', '5', 'WSH', 'Washington', 'Capitals', '13', 'Capital One Arena', '5', 'WSH', 'Washington', 'Capitals', '0', '1', '0', '0', '0', '32', '30', '51.6', '2', '0', '0.0', '5', '2', '60.0', '0', '0', '1', '4', '39', '6', '12', '20']"
"['', '46567', '2018-11-13', '01:00:00 GMT', '5', 'WSH', 'Washington', 'Capitals', '25', 'MIN', 'Minnesota', 'Wild', '30', 'Xcel Energy Center', '5', 'WSH', 'Washington', 'Capitals', '1', '0', '0', '0', '2', '30', '29', '50.8', '2', '0', '0.0', '7', '1', '85.7', '0', '0', '5', '2', '33', '8', '19', '9']"
"['', '46572', '2018-11-14', '01:00:00 GMT', '5', 'WSH', 'Washington', 'Capitals', '2', 'WPJ', 'Winnipeg', 'Jets', '39', 'Bell MTS Place', '5', 'WSH', 'Washington', 'Capitals', '0', '1', '0', '0', '0', '24', '24', '50.0', '3', '0', '0.0', '3', '1', '66.7', '0', '0', '1', '3', '28', '3', '6', '13']"
"['', '46587', '2018-11-16', '02:00:00 GMT', '5', 'WSH', 'Washington', 'Capitals', '22', 'COL', 'Colorado', 'Avalanche', '19', 'Pepsi Center', '5', 'WSH', 'Washington', 'Capitals', '1', '0', '0', '0', '2', '31', '34', '47.7', '3', '1', '33.3', '2', '0', '100.0', '0', '0', '3', '2', '29', '2', '4', '17']"
"['', '46609', '2018-11-19', '00:30:00 GMT', '5', 'WSH', 'Washington', 'Capitals', '14', 'MTL', 'Montreal', 'Canadiens', '4', 'Bell Centre', '5', 'WSH', 'Washington', 'Capitals', '1', '0', '0', '0', '2', '38', '36', '51.4', '3', '1', '33.3', '3', '1', '66.7', '0', '0', '5', '4', '34', '5', '15', '27']"
"['', '46620', '2018-11-21', '00:00:00 GMT', '20', 'CHI', 'Chicago', 'Blackhawks', '5', 'WSH', 'Washington', 'Capitals', '13', 'Capital One Arena', '5', 'WSH', 'Washington', 'Capitals', '1', '0', '0', '0', '2', '27', '28', '49.1', '3', '1', '33.3', '3', '0', '100.0', '0', '0', '4', '2', '27', '3', '6', '8']"
"['', '46633', '2018-11-23', '21:00:00 GMT', '16', 'DET', 'Detroit', 'Red Wings', '5', 'WSH', 'Washington', 'Capitals', '13', 'Capital One Arena', '5', 'WSH', 'Washington', 'Capitals', '1', '0', '0', '0', '2', '34', '25', '57.6', '3', '0', '0.0', '3', '0', '100.0', '0', '0', '3', '1', '20', '3', '6', '23']"
"['', '46645', '2018-11-24', '19:00:00 GMT', '5', 'WSH', 'Washington', 'Capitals', '9', 'NYR', 'New York', 'Rangers', '12', 'Madison Square Garden', '5', 'WSH', 'Washington', 'Capitals', '1', '0', '0', '0', '2', '15', '27', '35.7', '2', '0', '0.0', '2', '0', '100.0', '0', '0', '5', '3', '28', '2', '4', '33']"
"['', '46662', '2018-11-26', '00:00:00 GMT', '5', 'WSH', 'Washington', 'Capitals', '8', 'NYI', 'New York', 'Islanders', '78', 'Barclays Center', '5', 'WSH', 'Washington', 'Capitals', '1', '0', '0', '0', '2', '20', '27', '42.6', '2', '1', '50.0', '4', '0', '100.0', '0', '0', '4', '1', '24', '4', '8', '19']"
"['', '46689', '2018-11-30', '00:00:00 GMT', '7', 'NJD', 'New Jersey', 'Devils', '5', 'WSH', 'Washington', 'Capitals', '13', 'Capital One Arena', '5', 'WSH', 'Washington', 'Capitals', '1', '0', '0', '0', '2', '27', '30', '47.4', '3', '1', '33.3', '5', '0', '100.0', '1', '1', '6', '3', '31', '5', '18', '6']"
"['', '46705', '2018-12-02', '20:00:00 GMT', '29', 'ANA', 'Anaheim', 'Ducks', '5', 'WSH', 'Washington', 'Capitals', '13', 'Capital One Arena', '5', 'WSH', 'Washington', 'Capitals', '0', '1', '0', '0', '0', '35', '27', '56.5', '5', '1', '20.0', '3', '2', '33.3', '0', '0', '5', '6', '32', '3', '6', '9']"
"['', '46722', '2018-12-04', '03:00:00 GMT', '5', 'WSH', 'Washington', 'Capitals', '142', 'VGK', 'Vegas', 'Golden Knights', '139', 'T-Mobile Arena', '5', 'WSH', 'Washington', 'Capitals', '0', '1', '0', '0', '0', '26', '37', '41.3', '4', '0', '0.0', '6', '2', '66.7', '0', '0', '3', '5', '26', '5', '12', '40']"
"['', '46734', '2018-12-06', '02:00:00 GMT', '5', 'WSH', 'Washington', 'Capitals', '30', 'ARI', 'Arizona', 'Coyotes', '6', 'Gila River Arena', '5', 'WSH', 'Washington', 'Capitals', '1', '0', '0', '0', '2', '20', '31', '39.2', '2', '0', '0.0', '3', '0', '100.0', '0', '0', '4', '2', '28', '72', '704', '25']"
"['', '46749', '2018-12-08', '00:00:00 GMT', '5', 'WSH', 'Washington', 'Capitals', '19', 'CBJ', 'Columbus', 'Blue Jackets', '17', 'Nationwide Arena', '5', 'WSH', 'Washington', 'Capitals', '1', '0', '0', '0', '2', '27', '34', '44.3', '3', '0', '0.0', '4', '0', '100.0', '0', '0', '4', '0', '28', '4', '8', '5']"
