"['#Date/Time of Update: 2018-12-10 19:03:10 GMT', '#Game ID', '#Game Date', '#Game Time', '#Away Team ID', '#Away Team Abbr.', '#Away Team City', '#Away Team Name', '#Home Team ID', '#Home Team Abbr.', '#Home Team City', '#Home Team Name', '#Venue ID', '#Venue Name', '#Team ID', '#Team Abbr.', '#Team City', '#Team Name', '#Wins', '#Losses', '#OvertimeWins', '#OvertimeLosses', '#ShootoutWins', '#ShootoutLosses', '#Rows', '#Points', '#FaceoffWins', '#FaceoffLosses', '#FaceoffPercent', '#Powerplays', '#PowerplayGoals', '#PowerplayPercent', '#PenaltyKills', '#PenaltyKillGoalsAllowed', '#PenaltyKillPercent', '#ShorthandedGoalsFor', '#ShorthandedGoalsAgainst', '#GoalsFor', '#GoalsAgainst', '#Shots', '#Penalties', '#PenaltyMinutes', '#Hits']"
"['', '26355', '2013-10-01', '23:00:00 GMT', '12', 'TOR', 'Toronto', 'Maple Leafs', '14', 'MTL', 'Montreal', 'Canadiens', '4', 'Bell Centre', '14', 'MTL', 'Montreal', 'Canadiens', '0', '1', '0', '0', '0', '0', '0', '0', '26', '29', '47.3', '3', '0', '0.0', '7', '1', '85.7', '0', '1', '3', '4', '34', '15', '53', '21']"
"['', '26377', '2013-10-05', '23:00:00 GMT', '6', 'PHI', 'Philadelphia', 'Flyers', '14', 'MTL', 'Montreal', 'Canadiens', '4', 'Bell Centre', '14', 'MTL', 'Montreal', 'Canadiens', '1', '0', '0', '0', '0', '0', '1', '2', '38', '40', '48.7', '7', '2', '28.6', '4', '1', '75.0', '0', '0', '4', '1', '30', '9', '24', '20']"
"['', '26400', '2013-10-09', '00:00:00 GMT', '14', 'MTL', 'Montreal', 'Canadiens', '23', 'CGY', 'Calgary', 'Flames', '18', 'Scotiabank Saddledome', '14', 'MTL', 'Montreal', 'Canadiens', '0', '1', '0', '0', '0', '0', '0', '0', '31', '28', '52.5', '2', '1', '50.0', '3', '1', '66.7', '0', '0', '2', '3', '33', '3', '6', '14']"
"['', '26409', '2013-10-10', '01:30:00 GMT', '14', 'MTL', 'Montreal', 'Canadiens', '24', 'EDM', 'Edmonton', 'Oilers', '22', 'Rogers Place', '14', 'MTL', 'Montreal', 'Canadiens', '1', '0', '0', '0', '0', '0', '1', '2', '30', '36', '45.5', '2', '1', '50.0', '4', '1', '75.0', '0', '0', '4', '1', '23', '5', '13', '13']"
"['', '26427', '2013-10-12', '02:00:00 GMT', '14', 'MTL', 'Montreal', 'Canadiens', '21', 'VAN', 'Vancouver', 'Canucks', '7', 'Rogers Arena', '14', 'MTL', 'Montreal', 'Canadiens', '1', '0', '0', '0', '0', '0', '1', '2', '38', '33', '53.5', '3', '2', '66.7', '3', '0', '100.0', '1', '0', '4', '1', '34', '3', '6', '14']"
"['', '26445', '2013-10-15', '00:00:00 GMT', '14', 'MTL', 'Montreal', 'Canadiens', '2', 'WPJ', 'Winnipeg', 'Jets', '39', 'MTS Centre', '14', 'MTL', 'Montreal', 'Canadiens', '1', '0', '0', '0', '0', '0', '1', '2', '39', '32', '54.9', '5', '1', '20.0', '2', '0', '100.0', '0', '0', '3', '0', '22', '5', '13', '11']"
"['', '26454', '2013-10-17', '23:30:00 GMT', '19', 'CBJ', 'Columbus', 'Blue Jackets', '14', 'MTL', 'Montreal', 'Canadiens', '4', 'Bell Centre', '14', 'MTL', 'Montreal', 'Canadiens', '1', '0', '0', '0', '0', '0', '1', '2', '28', '37', '43.1', '2', '1', '50.0', '6', '2', '66.7', '2', '0', '5', '3', '31', '6', '12', '19']"
"['', '26467', '2013-10-19', '23:00:00 GMT', '18', 'NSH', 'Nashville', 'Predators', '14', 'MTL', 'Montreal', 'Canadiens', '4', 'Bell Centre', '14', 'MTL', 'Montreal', 'Canadiens', '0', '1', '0', '0', '0', '0', '0', '0', '30', '35', '46.2', '5', '0', '0.0', '5', '1', '80.0', '0', '0', '1', '2', '28', '7', '14', '23']"
"['', '26486', '2013-10-22', '23:30:00 GMT', '24', 'EDM', 'Edmonton', 'Oilers', '14', 'MTL', 'Montreal', 'Canadiens', '4', 'Bell Centre', '14', 'MTL', 'Montreal', 'Canadiens', '0', '1', '0', '0', '0', '0', '0', '0', '39', '20', '66.1', '2', '1', '50.0', '1', '0', '100.0', '0', '0', '3', '4', '29', '4', '8', '25']"
"['', '26496', '2013-10-24', '23:30:00 GMT', '29', 'ANA', 'Anaheim', 'Ducks', '14', 'MTL', 'Montreal', 'Canadiens', '4', 'Bell Centre', '14', 'MTL', 'Montreal', 'Canadiens', '1', '0', '0', '0', '0', '0', '1', '2', '39', '30', '56.5', '5', '2', '40.0', '3', '0', '100.0', '0', '0', '4', '1', '21', '4', '11', '15']"
"['', '26511', '2013-10-26', '23:00:00 GMT', '26', 'SJS', 'San Jose', 'Sharks', '14', 'MTL', 'Montreal', 'Canadiens', '4', 'Bell Centre', '14', 'MTL', 'Montreal', 'Canadiens', '0', '1', '0', '0', '0', '0', '0', '0', '29', '30', '49.2', '1', '0', '0.0', '4', '1', '75.0', '0', '0', '0', '2', '22', '4', '8', '15']"
"['', '26527', '2013-10-28', '23:30:00 GMT', '14', 'MTL', 'Montreal', 'Canadiens', '9', 'NYR', 'New York', 'Rangers', '12', 'Madison Square Garden', '14', 'MTL', 'Montreal', 'Canadiens', '1', '0', '0', '0', '0', '0', '1', '2', '32', '27', '54.2', '5', '1', '20.0', '5', '0', '100.0', '0', '0', '2', '0', '25', '6', '12', '12']"
"['', '26532', '2013-10-29', '23:30:00 GMT', '27', 'DAL', 'Dallas', 'Stars', '14', 'MTL', 'Montreal', 'Canadiens', '4', 'Bell Centre', '14', 'MTL', 'Montreal', 'Canadiens', '1', '0', '0', '0', '0', '0', '1', '2', '34', '33', '50.7', '3', '0', '0.0', '1', '0', '100.0', '0', '0', '2', '1', '22', '3', '9', '22']"
"['', '26550', '2013-11-01', '00:00:00 GMT', '14', 'MTL', 'Montreal', 'Canadiens', '25', 'MIN', 'Minnesota', 'Wild', '30', 'Xcel Energy Center', '14', 'MTL', 'Montreal', 'Canadiens', '0', '1', '0', '0', '0', '0', '0', '0', '30', '31', '49.2', '2', '1', '50.0', '1', '0', '100.0', '0', '0', '3', '4', '28', '1', '2', '16']"
"['', '26562', '2013-11-02', '02:00:00 GMT', '14', 'MTL', 'Montreal', 'Canadiens', '22', 'COL', 'Colorado', 'Avalanche', '19', 'Pepsi Center', '14', 'MTL', 'Montreal', 'Canadiens', '0', '1', '0', '0', '0', '0', '0', '0', '39', '35', '52.7', '3', '1', '33.3', '2', '0', '100.0', '0', '0', '1', '4', '29', '4', '14', '25']"
"['', '26574', '2013-11-05', '00:30:00 GMT', '17', 'STL', 'St. Louis', 'Blues', '14', 'MTL', 'Montreal', 'Canadiens', '4', 'Bell Centre', '14', 'MTL', 'Montreal', 'Canadiens', '0', '0', '0', '1', '0', '0', '0', '1', '27', '48', '36.0', '1', '0', '0.0', '4', '0', '100.0', '0', '0', '2', '2', '24', '5', '13', '15']"
"['', '26585', '2013-11-07', '00:00:00 GMT', '14', 'MTL', 'Montreal', 'Canadiens', '13', 'OTT', 'Ottawa', 'Senators', '23', 'Canadian Tire Centre', '14', 'MTL', 'Montreal', 'Canadiens', '0', '1', '0', '0', '0', '0', '0', '0', '23', '38', '37.7', '5', '1', '20.0', '3', '0', '100.0', '0', '0', '1', '4', '33', '7', '14', '20']"
"['', '26609', '2013-11-10', '23:00:00 GMT', '8', 'NYI', 'New York', 'Islanders', '14', 'MTL', 'Montreal', 'Canadiens', '4', 'Bell Centre', '14', 'MTL', 'Montreal', 'Canadiens', '1', '0', '0', '0', '0', '0', '1', '2', '34', '31', '52.3', '5', '2', '40.0', '4', '2', '50.0', '0', '0', '4', '2', '27', '4', '8', '18']"
"['', '26622', '2013-11-12', '00:30:00 GMT', '1', 'TBL', 'Tampa Bay', 'Lightning', '14', 'MTL', 'Montreal', 'Canadiens', '4', 'Bell Centre', '14', 'MTL', 'Montreal', 'Canadiens', '0', '0', '0', '1', '0', '0', '0', '1', '31', '33', '48.4', '3', '0', '0.0', '4', '0', '100.0', '0', '0', '1', '1', '28', '4', '8', '18']"
"['', '26642', '2013-11-15', '00:00:00 GMT', '14', 'MTL', 'Montreal', 'Canadiens', '19', 'CBJ', 'Columbus', 'Blue Jackets', '17', 'Nationwide Arena', '14', 'MTL', 'Montreal', 'Canadiens', '1', '0', '0', '0', '0', '0', '0', '2', '31', '27', '53.4', '4', '1', '25.0', '3', '0', '100.0', '0', '0', '2', '2', '38', '5', '13', '25']"
"['', '26649', '2013-11-16', '00:00:00 GMT', '9', 'NYR', 'New York', 'Rangers', '14', 'MTL', 'Montreal', 'Canadiens', '4', 'Bell Centre', '14', 'MTL', 'Montreal', 'Canadiens', '0', '1', '0', '0', '0', '0', '0', '0', '27', '27', '50.0', '2', '0', '0.0', '3', '1', '66.7', '0', '0', '0', '1', '22', '3', '6', '24']"
"['', '26669', '2013-11-19', '00:30:00 GMT', '25', 'MIN', 'Minnesota', 'Wild', '14', 'MTL', 'Montreal', 'Canadiens', '4', 'Bell Centre', '14', 'MTL', 'Montreal', 'Canadiens', '1', '0', '0', '0', '0', '0', '1', '2', '28', '35', '44.4', '5', '2', '40.0', '2', '1', '50.0', '0', '0', '6', '2', '22', '4', '11', '21']"
"['', '26691', '2013-11-22', '00:00:00 GMT', '14', 'MTL', 'Montreal', 'Canadiens', '5', 'WSH', 'Washington', 'Capitals', '13', 'Verizon Center', '14', 'MTL', 'Montreal', 'Canadiens', '1', '0', '0', '0', '0', '0', '1', '2', '32', '45', '41.6', '5', '1', '20.0', '1', '1', '0.0', '0', '0', '3', '2', '28', '3', '9', '20']"
"['', '26698', '2013-11-23', '00:00:00 GMT', '10', 'PIT', 'Pittsburgh', 'Penguins', '14', 'MTL', 'Montreal', 'Canadiens', '4', 'Bell Centre', '14', 'MTL', 'Montreal', 'Canadiens', '1', '0', '0', '0', '0', '0', '1', '2', '39', '23', '62.9', '4', '0', '0.0', '3', '1', '66.7', '0', '0', '3', '2', '26', '4', '8', '17']"
"['', '26719', '2013-11-27', '00:00:00 GMT', '14', 'MTL', 'Montreal', 'Canadiens', '15', 'BUF', 'Buffalo', 'Sabres', '10', 'First Niagara Center', '14', 'MTL', 'Montreal', 'Canadiens', '1', '0', '0', '0', '0', '0', '1', '2', '31', '26', '54.4', '4', '2', '50.0', '2', '0', '100.0', '0', '0', '3', '1', '28', '3', '9', '18']"
"['', '26740', '2013-11-29', '22:00:00 GMT', '14', 'MTL', 'Montreal', 'Canadiens', '5', 'WSH', 'Washington', 'Capitals', '13', 'Verizon Center', '14', 'MTL', 'Montreal', 'Canadiens', '0', '0', '0', '1', '0', '0', '0', '1', '36', '33', '52.2', '2', '0', '0.0', '4', '0', '100.0', '0', '0', '2', '2', '35', '5', '10', '18']"
"['', '26748', '2013-11-30', '00:00:00 GMT', '12', 'TOR', 'Toronto', 'Maple Leafs', '14', 'MTL', 'Montreal', 'Canadiens', '4', 'Bell Centre', '14', 'MTL', 'Montreal', 'Canadiens', '1', '0', '0', '0', '0', '0', '1', '2', '40', '36', '52.6', '2', '1', '50.0', '4', '0', '100.0', '1', '0', '4', '2', '35', '6', '15', '14']"
"['', '26761', '2013-12-02', '00:30:00 GMT', '7', 'NJD', 'New Jersey', 'Devils', '14', 'MTL', 'Montreal', 'Canadiens', '4', 'Bell Centre', '14', 'MTL', 'Montreal', 'Canadiens', '1', '0', '0', '0', '0', '0', '1', '2', '30', '24', '55.6', '2', '1', '50.0', '3', '0', '100.0', '0', '0', '3', '2', '14', '3', '6', '21']"
"['', '26773', '2013-12-04', '00:00:00 GMT', '14', 'MTL', 'Montreal', 'Canadiens', '7', 'NJD', 'New Jersey', 'Devils', '37', 'Prudential Center', '14', 'MTL', 'Montreal', 'Canadiens', '1', '0', '0', '0', '0', '0', '0', '2', '28', '24', '53.8', '3', '0', '0.0', '2', '0', '100.0', '0', '0', '3', '3', '27', '3', '9', '15']"
"['', '26779', '2013-12-05', '00:30:00 GMT', '11', 'BOS', 'Boston', 'Bruins', '14', 'MTL', 'Montreal', 'Canadiens', '4', 'Bell Centre', '14', 'MTL', 'Montreal', 'Canadiens', '1', '0', '0', '0', '0', '0', '1', '2', '41', '32', '56.2', '4', '0', '0.0', '2', '0', '100.0', '0', '0', '2', '1', '25', '3', '9', '30']"
"['', '26794', '2013-12-07', '00:00:00 GMT', '15', 'BUF', 'Buffalo', 'Sabres', '14', 'MTL', 'Montreal', 'Canadiens', '4', 'Bell Centre', '14', 'MTL', 'Montreal', 'Canadiens', '1', '0', '0', '0', '0', '0', '1', '2', '25', '29', '46.3', '1', '0', '0.0', '1', '0', '100.0', '0', '0', '3', '2', '16', '1', '2', '26']"
"['', '26815', '2013-12-10', '00:00:00 GMT', '28', 'LAK', 'Los Angeles', 'Kings', '14', 'MTL', 'Montreal', 'Canadiens', '4', 'Bell Centre', '14', 'MTL', 'Montreal', 'Canadiens', '0', '1', '0', '0', '0', '0', '0', '0', '25', '31', '44.6', '4', '0', '0.0', '2', '1', '50.0', '0', '0', '0', '6', '31', '3', '6', '32']"
"['', '26828', '2013-12-12', '00:00:00 GMT', '14', 'MTL', 'Montreal', 'Canadiens', '6', 'PHI', 'Philadelphia', 'Flyers', '29', 'Wells Fargo Center', '14', 'MTL', 'Montreal', 'Canadiens', '0', '1', '0', '0', '0', '0', '0', '0', '32', '25', '56.1', '1', '0', '0.0', '4', '0', '100.0', '0', '0', '1', '2', '20', '7', '25', '23']"
"['', '26847', '2013-12-14', '00:00:00 GMT', '14', 'MTL', 'Montreal', 'Canadiens', '8', 'NYI', 'New York', 'Islanders', '16', 'Nassau Veterans Memorial Coliseum', '14', 'MTL', 'Montreal', 'Canadiens', '1', '0', '0', '0', '0', '0', '1', '2', '31', '25', '55.4', '2', '0', '0.0', '3', '0', '100.0', '0', '0', '1', '0', '24', '5', '13', '17']"
"['', '26855', '2013-12-15', '23:00:00 GMT', '4', 'FLO', 'Florida', 'Panthers', '14', 'MTL', 'Montreal', 'Canadiens', '4', 'Bell Centre', '14', 'MTL', 'Montreal', 'Canadiens', '0', '1', '0', '0', '0', '0', '0', '0', '30', '29', '50.8', '4', '1', '25.0', '2', '0', '100.0', '0', '0', '1', '2', '17', '2', '4', '26']"
"['', '26867', '2013-12-17', '00:30:00 GMT', '30', 'PHX', 'Phoenix', 'Coyotes', '14', 'MTL', 'Montreal', 'Canadiens', '4', 'Bell Centre', '14', 'MTL', 'Montreal', 'Canadiens', '1', '0', '0', '0', '0', '0', '1', '2', '22', '34', '39.3', '4', '2', '50.0', '3', '0', '100.0', '0', '0', '3', '1', '25', '4', '8', '16']"
"['', '26884', '2013-12-19', '01:00:00 GMT', '14', 'MTL', 'Montreal', 'Canadiens', '17', 'STL', 'St. Louis', 'Blues', '24', 'Scottrade Center', '14', 'MTL', 'Montreal', 'Canadiens', '0', '1', '0', '0', '0', '0', '0', '0', '29', '31', '48.3', '4', '0', '0.0', '5', '0', '100.0', '0', '1', '1', '5', '25', '7', '14', '29']"
"['', '26902', '2013-12-21', '00:00:00 GMT', '14', 'MTL', 'Montreal', 'Canadiens', '18', 'NSH', 'Nashville', 'Predators', '15', 'Bridgestone Arena', '14', 'MTL', 'Montreal', 'Canadiens', '1', '0', '0', '0', '0', '0', '1', '2', '25', '40', '38.5', '2', '0', '0.0', '2', '2', '0.0', '0', '0', '4', '3', '19', '4', '19', '16']"
"['', '26932', '2013-12-28', '00:00:00 GMT', '14', 'MTL', 'Montreal', 'Canadiens', '1', 'TBL', 'Tampa Bay', 'Lightning', '26', 'Tampa Bay Times Forum', '14', 'MTL', 'Montreal', 'Canadiens', '1', '0', '0', '0', '0', '0', '0', '2', '26', '34', '43.3', '3', '0', '0.0', '3', '0', '100.0', '0', '0', '1', '1', '20', '3', '6', '18']"
"['', '26940', '2013-12-29', '22:00:00 GMT', '14', 'MTL', 'Montreal', 'Canadiens', '4', 'FLO', 'Florida', 'Panthers', '3', 'BB&T Center', '14', 'MTL', 'Montreal', 'Canadiens', '0', '1', '0', '0', '0', '0', '0', '0', '33', '22', '60.0', '2', '0', '0.0', '2', '0', '100.0', '0', '0', '1', '4', '21', '4', '8', '32']"
"['', '26957', '2013-12-31', '00:00:00 GMT', '14', 'MTL', 'Montreal', 'Canadiens', '3', 'CAR', 'Carolina', 'Hurricanes', '21', 'RBC Center', '14', 'MTL', 'Montreal', 'Canadiens', '0', '0', '0', '1', '0', '0', '0', '1', '29', '58', '33.3', '3', '2', '66.7', '10', '2', '80.0', '0', '0', '4', '5', '21', '10', '20', '13']"
"['', '26972', '2014-01-02', '01:30:00 GMT', '14', 'MTL', 'Montreal', 'Canadiens', '27', 'DAL', 'Dallas', 'Stars', '2', 'American Airlines Center', '14', 'MTL', 'Montreal', 'Canadiens', '1', '0', '0', '0', '0', '0', '1', '2', '21', '42', '33.3', '4', '1', '25.0', '3', '1', '66.7', '0', '0', '6', '4', '22', '7', '28', '23']"
"['', '26984', '2014-01-04', '00:00:00 GMT', '13', 'OTT', 'Ottawa', 'Senators', '14', 'MTL', 'Montreal', 'Canadiens', '4', 'Bell Centre', '14', 'MTL', 'Montreal', 'Canadiens', '0', '0', '0', '1', '0', '0', '0', '1', '33', '33', '50.0', '5', '0', '0.0', '2', '1', '50.0', '0', '0', '3', '4', '26', '4', '8', '31']"
"['', '26999', '2014-01-06', '00:30:00 GMT', '4', 'FLO', 'Florida', 'Panthers', '14', 'MTL', 'Montreal', 'Canadiens', '4', 'Bell Centre', '14', 'MTL', 'Montreal', 'Canadiens', '1', '0', '0', '0', '0', '0', '1', '2', '26', '38', '40.6', '2', '0', '0.0', '2', '0', '100.0', '0', '0', '2', '1', '33', '3', '6', '20']"
"['', '27011', '2014-01-08', '00:30:00 GMT', '14', 'MTL', 'Montreal', 'Canadiens', '6', 'PHI', 'Philadelphia', 'Flyers', '29', 'Wells Fargo Center', '14', 'MTL', 'Montreal', 'Canadiens', '0', '1', '0', '0', '0', '0', '0', '0', '25', '26', '49.0', '4', '0', '0.0', '4', '0', '100.0', '1', '0', '1', '3', '19', '5', '13', '23']"
"['', '27030', '2014-01-11', '00:00:00 GMT', '20', 'CHI', 'Chicago', 'Blackhawks', '14', 'MTL', 'Montreal', 'Canadiens', '4', 'Bell Centre', '14', 'MTL', 'Montreal', 'Canadiens', '1', '0', '0', '0', '0', '0', '1', '2', '29', '24', '54.7', '3', '0', '0.0', '1', '0', '100.0', '0', '0', '2', '1', '36', '2', '7', '28']"
"['', '27054', '2014-01-14', '00:30:00 GMT', '7', 'NJD', 'New Jersey', 'Devils', '14', 'MTL', 'Montreal', 'Canadiens', '4', 'Bell Centre', '14', 'MTL', 'Montreal', 'Canadiens', '0', '1', '0', '0', '0', '0', '0', '0', '22', '25', '46.8', '3', '0', '0.0', '3', '1', '66.7', '0', '0', '1', '4', '29', '3', '6', '24']"
"['', '27066', '2014-01-16', '00:30:00 GMT', '14', 'MTL', 'Montreal', 'Canadiens', '13', 'OTT', 'Ottawa', 'Senators', '23', 'Canadian Tire Centre', '14', 'MTL', 'Montreal', 'Canadiens', '1', '0', '0', '0', '0', '0', '1', '2', '26', '36', '41.9', '1', '1', '100.0', '1', '0', '100.0', '1', '0', '5', '4', '18', '1', '2', '36']"
"['', '27081', '2014-01-18', '00:00:00 GMT', '14', 'MTL', 'Montreal', 'Canadiens', '12', 'TOR', 'Toronto', 'Maple Leafs', '1', 'Air Canada Center', '14', 'MTL', 'Montreal', 'Canadiens', '0', '1', '0', '0', '0', '0', '0', '0', '32', '33', '49.2', '3', '1', '33.3', '2', '1', '50.0', '0', '0', '3', '5', '30', '3', '6', '32']"
"['', '27110', '2014-01-22', '00:00:00 GMT', '14', 'MTL', 'Montreal', 'Canadiens', '10', 'PIT', 'Pittsburgh', 'Penguins', '40', 'Consol Energy Center', '14', 'MTL', 'Montreal', 'Canadiens', '0', '1', '0', '0', '0', '0', '0', '0', '32', '30', '51.6', '3', '0', '0.0', '5', '2', '60.0', '0', '0', '1', '5', '23', '8', '24', '23']"
"['', '27125', '2014-01-24', '00:30:00 GMT', '14', 'MTL', 'Montreal', 'Canadiens', '16', 'DET', 'Detroit', 'Red Wings', '11', 'Joe Louis Arena', '14', 'MTL', 'Montreal', 'Canadiens', '0', '1', '0', '0', '0', '0', '0', '0', '25', '43', '36.8', '4', '1', '25.0', '5', '1', '80.0', '0', '0', '1', '4', '30', '7', '14', '24']"
"['', '27131', '2014-01-25', '00:00:00 GMT', '5', 'WSH', 'Washington', 'Capitals', '14', 'MTL', 'Montreal', 'Canadiens', '4', 'Bell Centre', '14', 'MTL', 'Montreal', 'Canadiens', '0', '1', '0', '0', '0', '0', '0', '0', '36', '25', '59.0', '3', '0', '0.0', '7', '1', '85.7', '0', '0', '0', '5', '21', '11', '41', '29']"
"['', '27153', '2014-01-28', '00:30:00 GMT', '3', 'CAR', 'Carolina', 'Hurricanes', '14', 'MTL', 'Montreal', 'Canadiens', '4', 'Bell Centre', '14', 'MTL', 'Montreal', 'Canadiens', '1', '0', '0', '0', '0', '0', '1', '2', '35', '27', '56.5', '2', '0', '0.0', '3', '0', '100.0', '0', '0', '3', '0', '27', '3', '6', '17']"
"['', '27162', '2014-01-30', '00:00:00 GMT', '14', 'MTL', 'Montreal', 'Canadiens', '11', 'BOS', 'Boston', 'Bruins', '27', 'TD Garden', '14', 'MTL', 'Montreal', 'Canadiens', '1', '0', '0', '0', '0', '0', '1', '2', '32', '30', '51.6', '4', '1', '25.0', '3', '0', '100.0', '0', '0', '4', '1', '29', '4', '8', '23']"
"['', '27178', '2014-02-01', '18:00:00 GMT', '1', 'TBL', 'Tampa Bay', 'Lightning', '14', 'MTL', 'Montreal', 'Canadiens', '4', 'Bell Centre', '14', 'MTL', 'Montreal', 'Canadiens', '0', '0', '0', '1', '0', '0', '0', '1', '37', '29', '56.1', '4', '0', '0.0', '3', '0', '100.0', '0', '1', '1', '2', '28', '8', '35', '14']"
"['', '27188', '2014-02-02', '18:00:00 GMT', '2', 'WPJ', 'Winnipeg', 'Jets', '14', 'MTL', 'Montreal', 'Canadiens', '4', 'Bell Centre', '14', 'MTL', 'Montreal', 'Canadiens', '0', '1', '0', '0', '0', '0', '0', '0', '34', '21', '61.8', '3', '0', '0.0', '3', '0', '100.0', '0', '0', '1', '2', '30', '8', '16', '26']"
"['', '27199', '2014-02-04', '00:30:00 GMT', '23', 'CGY', 'Calgary', 'Flames', '14', 'MTL', 'Montreal', 'Canadiens', '4', 'Bell Centre', '14', 'MTL', 'Montreal', 'Canadiens', '1', '0', '0', '0', '0', '0', '1', '2', '32', '28', '53.3', '1', '1', '100.0', '1', '0', '100.0', '0', '0', '2', '0', '25', '4', '8', '27']"
"['', '27212', '2014-02-06', '00:30:00 GMT', '21', 'VAN', 'Vancouver', 'Canucks', '14', 'MTL', 'Montreal', 'Canadiens', '4', 'Bell Centre', '14', 'MTL', 'Montreal', 'Canadiens', '1', '0', '0', '0', '0', '0', '1', '2', '33', '36', '47.8', '1', '1', '100.0', '5', '2', '60.0', '0', '0', '5', '2', '23', '5', '10', '21']"
"['', '27228', '2014-02-08', '23:00:00 GMT', '14', 'MTL', 'Montreal', 'Canadiens', '3', 'CAR', 'Carolina', 'Hurricanes', '21', 'RBC Center', '14', 'MTL', 'Montreal', 'Canadiens', '1', '0', '0', '0', '0', '0', '1', '2', '27', '34', '44.3', '1', '0', '0.0', '2', '0', '100.0', '0', '0', '4', '1', '20', '2', '4', '21']"
"['', '27235', '2014-02-26', '00:30:00 GMT', '16', 'DET', 'Detroit', 'Red Wings', '14', 'MTL', 'Montreal', 'Canadiens', '4', 'Bell Centre', '14', 'MTL', 'Montreal', 'Canadiens', '0', '0', '0', '1', '0', '0', '0', '1', '25', '29', '46.3', '2', '0', '0.0', '0', '1', '0.0', '0', '0', '1', '2', '19', '2', '4', '26']"
"['', '27242', '2014-02-27', '00:00:00 GMT', '14', 'MTL', 'Montreal', 'Canadiens', '10', 'PIT', 'Pittsburgh', 'Penguins', '40', 'Consol Energy Center', '14', 'MTL', 'Montreal', 'Canadiens', '1', '0', '0', '0', '0', '0', '0', '2', '34', '32', '51.5', '2', '2', '100.0', '5', '2', '60.0', '0', '1', '5', '5', '24', '6', '12', '18']"
"['', '27261', '2014-03-01', '00:00:00 GMT', '12', 'TOR', 'Toronto', 'Maple Leafs', '14', 'MTL', 'Montreal', 'Canadiens', '4', 'Bell Centre', '14', 'MTL', 'Montreal', 'Canadiens', '1', '0', '0', '0', '0', '0', '1', '2', '40', '37', '51.9', '5', '2', '40.0', '3', '0', '100.0', '0', '1', '4', '3', '26', '4', '8', '22']"
"['', '27274', '2014-03-03', '03:30:00 GMT', '14', 'MTL', 'Montreal', 'Canadiens', '28', 'LAK', 'Los Angeles', 'Kings', '25', 'Staples Center', '14', 'MTL', 'Montreal', 'Canadiens', '0', '1', '0', '0', '0', '0', '0', '0', '31', '19', '62.0', '2', '0', '0.0', '4', '1', '75.0', '0', '0', '1', '2', '17', '5', '13', '42']"
"['', '27288', '2014-03-05', '03:00:00 GMT', '14', 'MTL', 'Montreal', 'Canadiens', '29', 'ANA', 'Anaheim', 'Ducks', '8', 'Honda Center', '14', 'MTL', 'Montreal', 'Canadiens', '1', '0', '0', '0', '0', '0', '0', '2', '38', '37', '50.7', '4', '0', '0.0', '6', '1', '83.3', '0', '0', '3', '3', '28', '7', '17', '33']"
"['', '27296', '2014-03-06', '02:00:00 GMT', '14', 'MTL', 'Montreal', 'Canadiens', '30', 'PHX', 'Phoenix', 'Coyotes', '6', 'Jobing.com Arena', '14', 'MTL', 'Montreal', 'Canadiens', '0', '1', '0', '0', '0', '0', '0', '0', '24', '25', '49.0', '5', '1', '20.0', '3', '2', '33.3', '0', '0', '2', '5', '24', '3', '6', '24']"
"['', '27313', '2014-03-08', '03:00:00 GMT', '14', 'MTL', 'Montreal', 'Canadiens', '26', 'SJS', 'San Jose', 'Sharks', '9', 'SAP Center at San Jose', '14', 'MTL', 'Montreal', 'Canadiens', '0', '1', '0', '0', '0', '0', '0', '0', '29', '35', '45.3', '4', '0', '0.0', '5', '0', '100.0', '0', '1', '0', '4', '27', '14', '63', '18']"
"['', '27336', '2014-03-12', '23:30:00 GMT', '11', 'BOS', 'Boston', 'Bruins', '14', 'MTL', 'Montreal', 'Canadiens', '4', 'Bell Centre', '14', 'MTL', 'Montreal', 'Canadiens', '0', '1', '0', '0', '0', '0', '0', '0', '40', '25', '61.5', '3', '0', '0.0', '2', '0', '100.0', '0', '0', '1', '4', '35', '4', '11', '26']"
"['', '27357', '2014-03-15', '23:00:00 GMT', '13', 'OTT', 'Ottawa', 'Senators', '14', 'MTL', 'Montreal', 'Canadiens', '4', 'Bell Centre', '14', 'MTL', 'Montreal', 'Canadiens', '1', '0', '0', '0', '0', '0', '1', '2', '46', '25', '64.8', '6', '1', '16.7', '3', '0', '100.0', '0', '0', '5', '4', '43', '7', '33', '24']"
"['', '27369', '2014-03-16', '23:00:00 GMT', '14', 'MTL', 'Montreal', 'Canadiens', '15', 'BUF', 'Buffalo', 'Sabres', '10', 'First Niagara Center', '14', 'MTL', 'Montreal', 'Canadiens', '1', '0', '0', '0', '0', '0', '1', '2', '24', '27', '47.1', '3', '0', '0.0', '1', '0', '100.0', '0', '0', '2', '0', '30', '3', '6', '10']"
"['', '27381', '2014-03-18', '23:30:00 GMT', '22', 'COL', 'Colorado', 'Avalanche', '14', 'MTL', 'Montreal', 'Canadiens', '4', 'Bell Centre', '14', 'MTL', 'Montreal', 'Canadiens', '1', '0', '0', '0', '0', '0', '1', '2', '25', '30', '45.5', '3', '2', '66.7', '3', '0', '100.0', '0', '0', '6', '3', '30', '4', '11', '17']"
"['', '27395', '2014-03-20', '23:30:00 GMT', '19', 'CBJ', 'Columbus', 'Blue Jackets', '14', 'MTL', 'Montreal', 'Canadiens', '4', 'Bell Centre', '14', 'MTL', 'Montreal', 'Canadiens', '0', '1', '0', '0', '0', '0', '0', '0', '32', '39', '45.1', '3', '1', '33.3', '8', '0', '100.0', '0', '1', '2', '3', '24', '9', '21', '17']"
"['', '27411', '2014-03-22', '23:00:00 GMT', '14', 'MTL', 'Montreal', 'Canadiens', '12', 'TOR', 'Toronto', 'Maple Leafs', '1', 'Air Canada Center', '14', 'MTL', 'Montreal', 'Canadiens', '1', '0', '0', '0', '0', '0', '1', '2', '27', '31', '46.6', '2', '0', '0.0', '2', '1', '50.0', '0', '0', '4', '3', '32', '2', '4', '18']"
"['', '27426', '2014-03-24', '23:30:00 GMT', '14', 'MTL', 'Montreal', 'Canadiens', '11', 'BOS', 'Boston', 'Bruins', '27', 'TD Garden', '14', 'MTL', 'Montreal', 'Canadiens', '1', '0', '0', '0', '0', '0', '0', '2', '29', '34', '46.0', '5', '1', '20.0', '6', '1', '83.3', '0', '0', '1', '1', '21', '7', '17', '24']"
"['', '27434', '2014-03-25', '23:30:00 GMT', '15', 'BUF', 'Buffalo', 'Sabres', '14', 'MTL', 'Montreal', 'Canadiens', '4', 'Bell Centre', '14', 'MTL', 'Montreal', 'Canadiens', '1', '0', '0', '0', '0', '0', '1', '2', '35', '22', '61.4', '5', '1', '20.0', '3', '0', '100.0', '0', '0', '2', '0', '33', '4', '8', '17']"
"['', '27446', '2014-03-27', '23:30:00 GMT', '14', 'MTL', 'Montreal', 'Canadiens', '16', 'DET', 'Detroit', 'Red Wings', '11', 'Joe Louis Arena', '14', 'MTL', 'Montreal', 'Canadiens', '1', '0', '0', '0', '0', '0', '1', '2', '28', '38', '42.4', '3', '0', '0.0', '2', '0', '100.0', '0', '0', '5', '4', '24', '3', '6', '15']"
"['', '27462', '2014-03-29', '23:00:00 GMT', '14', 'MTL', 'Montreal', 'Canadiens', '4', 'FLO', 'Florida', 'Panthers', '3', 'BB&T Center', '14', 'MTL', 'Montreal', 'Canadiens', '1', '0', '0', '0', '0', '0', '1', '2', '24', '27', '47.1', '5', '0', '0.0', '4', '0', '100.0', '0', '0', '4', '1', '15', '6', '15', '21']"
"['', '27485', '2014-04-01', '23:30:00 GMT', '14', 'MTL', 'Montreal', 'Canadiens', '1', 'TBL', 'Tampa Bay', 'Lightning', '26', 'Tampa Bay Times Forum', '14', 'MTL', 'Montreal', 'Canadiens', '0', '1', '0', '0', '0', '0', '0', '0', '37', '32', '53.6', '3', '0', '0.0', '5', '1', '80.0', '0', '1', '1', '3', '25', '9', '26', '11']"
"['', '27503', '2014-04-04', '23:00:00 GMT', '14', 'MTL', 'Montreal', 'Canadiens', '13', 'OTT', 'Ottawa', 'Senators', '23', 'Canadian Tire Centre', '14', 'MTL', 'Montreal', 'Canadiens', '1', '0', '0', '0', '0', '0', '1', '2', '23', '44', '34.3', '3', '0', '0.0', '4', '0', '100.0', '0', '0', '7', '4', '16', '9', '29', '21']"
"['', '27514', '2014-04-05', '23:00:00 GMT', '16', 'DET', 'Detroit', 'Red Wings', '14', 'MTL', 'Montreal', 'Canadiens', '4', 'Bell Centre', '14', 'MTL', 'Montreal', 'Canadiens', '1', '0', '0', '0', '0', '0', '1', '2', '26', '30', '46.4', '3', '0', '0.0', '5', '2', '60.0', '0', '0', '5', '3', '21', '6', '12', '19']"
"['', '27540', '2014-04-09', '23:30:00 GMT', '14', 'MTL', 'Montreal', 'Canadiens', '20', 'CHI', 'Chicago', 'Blackhawks', '28', 'United Center', '14', 'MTL', 'Montreal', 'Canadiens', '0', '0', '0', '1', '0', '0', '0', '1', '29', '31', '48.3', '0', '0', '0.0', '2', '0', '100.0', '0', '0', '2', '3', '28', '2', '4', '25']"
"['', '27546', '2014-04-10', '23:30:00 GMT', '8', 'NYI', 'New York', 'Islanders', '14', 'MTL', 'Montreal', 'Canadiens', '4', 'Bell Centre', '14', 'MTL', 'Montreal', 'Canadiens', '0', '1', '0', '0', '0', '0', '0', '0', '33', '14', '70.2', '3', '0', '0.0', '1', '2', '1.0', '0', '0', '0', '2', '19', '4', '22', '8']"
"['', '27563', '2014-04-12', '23:00:00 GMT', '9', 'NYR', 'New York', 'Rangers', '14', 'MTL', 'Montreal', 'Canadiens', '4', 'Bell Centre', '14', 'MTL', 'Montreal', 'Canadiens', '1', '0', '0', '0', '0', '0', '1', '2', '29', '37', '43.9', '3', '0', '0.0', '3', '0', '100.0', '0', '0', '1', '0', '26', '6', '15', '17']"
