"['#Date/Time of Update: 2018-12-10 19:03:20 GMT', '#Game ID', '#Game Date', '#Game Time', '#Away Team ID', '#Away Team Abbr.', '#Away Team City', '#Away Team Name', '#Home Team ID', '#Home Team Abbr.', '#Home Team City', '#Home Team Name', '#Venue ID', '#Venue Name', '#Team ID', '#Team Abbr.', '#Team City', '#Team Name', '#Wins', '#Losses', '#OvertimeWins', '#OvertimeLosses', '#Points', '#FaceoffWins', '#FaceoffLosses', '#FaceoffPercent', '#Powerplays', '#PowerplayGoals', '#PowerplayPercent', '#PenaltyKills', '#PenaltyKillGoalsAllowed', '#PenaltyKillPercent', '#ShorthandedGoalsFor', '#ShorthandedGoalsAgainst', '#GoalsFor', '#GoalsAgainst', '#Shots', '#Penalties', '#PenaltyMinutes', '#Hits']"
"['', '32657', '2016-10-15', '02:00:00 GMT', '23', 'CGY', 'Calgary', 'Flames', '21', 'VAN', 'Vancouver', 'Canucks', '7', 'Rogers Arena', '21', 'VAN', 'Vancouver', 'Canucks', '1', '0', '0', '0', '2', '31', '30', '50.8', '4', '0', '0.0', '2', '0', '100.0', '0', '0', '1', '1', '31', '3', '6', '11']"
"['', '32660', '2016-10-16', '02:00:00 GMT', '3', 'CAR', 'Carolina', 'Hurricanes', '21', 'VAN', 'Vancouver', 'Canucks', '7', 'Rogers Arena', '21', 'VAN', 'Vancouver', 'Canucks', '1', '0', '0', '0', '2', '28', '30', '48.3', '2', '0', '0.0', '2', '1', '50.0', '0', '0', '4', '3', '31', '2', '4', '16']"
"['', '32675', '2016-10-18', '02:00:00 GMT', '17', 'STL', 'St. Louis', 'Blues', '21', 'VAN', 'Vancouver', 'Canucks', '7', 'Rogers Arena', '21', 'VAN', 'Vancouver', 'Canucks', '1', '0', '0', '0', '2', '27', '29', '48.2', '4', '0', '0.0', '3', '0', '100.0', '0', '0', '2', '1', '26', '3', '6', '13']"
"['', '32688', '2016-10-20', '02:00:00 GMT', '15', 'BUF', 'Buffalo', 'Sabres', '21', 'VAN', 'Vancouver', 'Canucks', '7', 'Rogers Arena', '21', 'VAN', 'Vancouver', 'Canucks', '1', '0', '0', '0', '2', '30', '33', '47.6', '5', '1', '20.0', '5', '0', '100.0', '0', '0', '2', '1', '20', '5', '10', '13']"
"['', '32703', '2016-10-22', '02:00:00 GMT', '21', 'VAN', 'Vancouver', 'Canucks', '28', 'LAK', 'Los Angeles', 'Kings', '25', 'Staples Center', '21', 'VAN', 'Vancouver', 'Canucks', '0', '0', '0', '1', '1', '29', '39', '42.6', '6', '2', '33.3', '3', '1', '66.7', '0', '1', '3', '3', '25', '4', '11', '20']"
"['', '32707', '2016-10-23', '00:00:00 GMT', '21', 'VAN', 'Vancouver', 'Canucks', '29', 'ANA', 'Anaheim', 'Ducks', '8', 'Honda Center', '21', 'VAN', 'Vancouver', 'Canucks', '0', '1', '0', '0', '0', '20', '37', '35.1', '2', '0', '0.0', '2', '1', '50.0', '1', '0', '2', '4', '19', '2', '4', '23']"
"['', '32718', '2016-10-25', '02:00:00 GMT', '13', 'OTT', 'Ottawa', 'Senators', '21', 'VAN', 'Vancouver', 'Canucks', '7', 'Rogers Arena', '21', 'VAN', 'Vancouver', 'Canucks', '0', '1', '0', '0', '0', '36', '23', '61.0', '1', '0', '0.0', '1', '0', '100.0', '0', '0', '0', '3', '22', '1', '2', '19']"
"['', '32738', '2016-10-28', '02:00:00 GMT', '24', 'EDM', 'Edmonton', 'Oilers', '21', 'VAN', 'Vancouver', 'Canucks', '7', 'Rogers Arena', '21', 'VAN', 'Vancouver', 'Canucks', '0', '1', '0', '0', '0', '34', '25', '57.6', '1', '0', '0.0', '1', '0', '100.0', '0', '0', '0', '2', '26', '2', '7', '21']"
"['', '32748', '2016-10-29', '02:00:00 GMT', '5', 'WSH', 'Washington', 'Capitals', '21', 'VAN', 'Vancouver', 'Canucks', '7', 'Rogers Arena', '21', 'VAN', 'Vancouver', 'Canucks', '0', '1', '0', '0', '0', '32', '37', '46.4', '3', '0', '0.0', '2', '1', '50.0', '0', '0', '2', '5', '25', '3', '6', '17']"
"['', '32770', '2016-11-02', '23:30:00 GMT', '21', 'VAN', 'Vancouver', 'Canucks', '14', 'MTL', 'Montreal', 'Canadiens', '4', 'Bell Centre', '21', 'VAN', 'Vancouver', 'Canucks', '0', '1', '0', '0', '0', '31', '29', '51.7', '5', '0', '0.0', '3', '0', '100.0', '0', '0', '0', '3', '42', '3', '6', '26']"
"['', '32777', '2016-11-03', '23:30:00 GMT', '21', 'VAN', 'Vancouver', 'Canucks', '13', 'OTT', 'Ottawa', 'Senators', '23', 'Canadian Tire Centre', '21', 'VAN', 'Vancouver', 'Canucks', '0', '1', '0', '0', '0', '39', '24', '61.9', '3', '0', '0.0', '3', '0', '100.0', '0', '0', '0', '1', '27', '8', '22', '27']"
"['', '32790', '2016-11-05', '23:00:00 GMT', '21', 'VAN', 'Vancouver', 'Canucks', '12', 'TOR', 'Toronto', 'Maple Leafs', '1', 'Air Canada Center', '21', 'VAN', 'Vancouver', 'Canucks', '0', '1', '0', '0', '0', '27', '42', '39.1', '3', '0', '0.0', '8', '1', '87.5', '0', '0', '3', '6', '29', '19', '101', '24']"
"['', '32808', '2016-11-07', '00:00:00 GMT', '21', 'VAN', 'Vancouver', 'Canucks', '8', 'NYI', 'New York', 'Islanders', '35', 'Ericsson Globe', '21', 'VAN', 'Vancouver', 'Canucks', '0', '1', '0', '0', '0', '38', '25', '60.3', '2', '1', '50.0', '2', '0', '100.0', '0', '0', '2', '4', '32', '2', '4', '21']"
"['', '32811', '2016-11-08', '00:00:00 GMT', '21', 'VAN', 'Vancouver', 'Canucks', '9', 'NYR', 'New York', 'Rangers', '12', 'Madison Square Garden', '21', 'VAN', 'Vancouver', 'Canucks', '1', '0', '0', '0', '2', '39', '21', '65.0', '2', '0', '0.0', '5', '1', '80.0', '0', '0', '5', '3', '29', '5', '10', '17']"
"['', '32826', '2016-11-10', '00:30:00 GMT', '21', 'VAN', 'Vancouver', 'Canucks', '16', 'DET', 'Detroit', 'Red Wings', '11', 'Joe Louis Arena', '21', 'VAN', 'Vancouver', 'Canucks', '0', '1', '0', '0', '0', '30', '33', '47.6', '3', '0', '0.0', '4', '0', '100.0', '0', '0', '1', '3', '37', '4', '8', '26']"
"['', '32850', '2016-11-13', '21:00:00 GMT', '27', 'DAL', 'Dallas', 'Stars', '21', 'VAN', 'Vancouver', 'Canucks', '7', 'Rogers Arena', '21', 'VAN', 'Vancouver', 'Canucks', '1', '0', '0', '0', '2', '31', '28', '52.5', '3', '1', '33.3', '2', '0', '100.0', '0', '0', '5', '4', '30', '2', '4', '29']"
"['', '32867', '2016-11-15', '03:00:00 GMT', '9', 'NYR', 'New York', 'Rangers', '21', 'VAN', 'Vancouver', 'Canucks', '7', 'Rogers Arena', '21', 'VAN', 'Vancouver', 'Canucks', '0', '1', '0', '0', '0', '34', '33', '50.7', '4', '0', '0.0', '3', '2', '33.3', '0', '0', '2', '7', '38', '3', '6', '13']"
"['', '32878', '2016-11-17', '03:00:00 GMT', '30', 'ARI', 'Arizona', 'Coyotes', '21', 'VAN', 'Vancouver', 'Canucks', '7', 'Rogers Arena', '21', 'VAN', 'Vancouver', 'Canucks', '1', '0', '0', '0', '2', '48', '27', '64.0', '2', '1', '50.0', '2', '1', '50.0', '0', '0', '3', '2', '42', '2', '4', '23']"
"['', '32896', '2016-11-19', '03:00:00 GMT', '20', 'CHI', 'Chicago', 'Blackhawks', '21', 'VAN', 'Vancouver', 'Canucks', '7', 'Rogers Arena', '21', 'VAN', 'Vancouver', 'Canucks', '0', '0', '0', '1', '1', '27', '32', '45.8', '2', '1', '50.0', '3', '0', '100.0', '1', '0', '3', '4', '27', '3', '6', '13']"
"['', '32923', '2016-11-23', '03:00:00 GMT', '21', 'VAN', 'Vancouver', 'Canucks', '30', 'ARI', 'Arizona', 'Coyotes', '6', 'Gila River Arena', '21', 'VAN', 'Vancouver', 'Canucks', '1', '0', '0', '0', '2', '35', '27', '56.5', '2', '0', '0.0', '2', '0', '100.0', '0', '0', '4', '1', '27', '2', '4', '23']"
"['', '32937', '2016-11-25', '01:30:00 GMT', '21', 'VAN', 'Vancouver', 'Canucks', '27', 'DAL', 'Dallas', 'Stars', '2', 'American Airlines Center', '21', 'VAN', 'Vancouver', 'Canucks', '0', '1', '0', '0', '0', '32', '31', '50.8', '2', '0', '0.0', '1', '0', '100.0', '0', '0', '1', '2', '31', '2', '7', '18']"
"['', '32945', '2016-11-26', '03:00:00 GMT', '21', 'VAN', 'Vancouver', 'Canucks', '22', 'COL', 'Colorado', 'Avalanche', '19', 'Pepsi Center', '21', 'VAN', 'Vancouver', 'Canucks', '1', '0', '0', '0', '2', '23', '35', '39.7', '3', '1', '33.3', '4', '0', '100.0', '0', '0', '2', '2', '31', '5', '13', '15']"
"['', '32965', '2016-11-29', '03:00:00 GMT', '25', 'MIN', 'Minnesota', 'Wild', '21', 'VAN', 'Vancouver', 'Canucks', '7', 'Rogers Arena', '21', 'VAN', 'Vancouver', 'Canucks', '1', '0', '0', '0', '2', '31', '24', '56.4', '3', '2', '66.7', '2', '0', '100.0', '0', '0', '5', '4', '35', '2', '4', '23']"
"['', '32982', '2016-12-01', '03:00:00 GMT', '29', 'ANA', 'Anaheim', 'Ducks', '21', 'VAN', 'Vancouver', 'Canucks', '7', 'Rogers Arena', '21', 'VAN', 'Vancouver', 'Canucks', '0', '1', '0', '0', '0', '23', '38', '37.7', '3', '0', '0.0', '1', '0', '100.0', '0', '0', '1', '3', '28', '1', '2', '17']"
"['', '32993', '2016-12-03', '00:00:00 GMT', '12', 'TOR', 'Toronto', 'Maple Leafs', '21', 'VAN', 'Vancouver', 'Canucks', '7', 'Rogers Arena', '21', 'VAN', 'Vancouver', 'Canucks', '1', '0', '0', '0', '2', '36', '28', '56.2', '2', '0', '0.0', '4', '1', '75.0', '0', '0', '2', '2', '24', '5', '13', '25']"
"['', '33009', '2016-12-06', '00:00:00 GMT', '21', 'VAN', 'Vancouver', 'Canucks', '7', 'NJD', 'New Jersey', 'Devils', '37', 'Prudential Center', '21', 'VAN', 'Vancouver', 'Canucks', '0', '1', '0', '0', '0', '32', '28', '53.3', '2', '1', '50.0', '2', '1', '50.0', '0', '0', '2', '3', '24', '5', '16', '21']"
"['', '33025', '2016-12-08', '00:30:00 GMT', '21', 'VAN', 'Vancouver', 'Canucks', '1', 'TBL', 'Tampa Bay', 'Lightning', '26', 'Amalie Arena', '21', 'VAN', 'Vancouver', 'Canucks', '1', '0', '0', '0', '2', '28', '30', '48.3', '3', '0', '0.0', '3', '0', '100.0', '0', '0', '5', '1', '30', '3', '6', '16']"
"['', '33042', '2016-12-10', '00:00:00 GMT', '21', 'VAN', 'Vancouver', 'Canucks', '4', 'FLO', 'Florida', 'Panthers', '3', 'BB&T Center', '21', 'VAN', 'Vancouver', 'Canucks', '0', '1', '0', '0', '0', '35', '34', '50.7', '4', '1', '25.0', '2', '0', '100.0', '0', '0', '2', '4', '39', '2', '4', '15']"
"['', '33049', '2016-12-11', '22:00:00 GMT', '21', 'VAN', 'Vancouver', 'Canucks', '5', 'WSH', 'Washington', 'Capitals', '13', 'Verizon Center', '21', 'VAN', 'Vancouver', 'Canucks', '0', '1', '0', '0', '0', '34', '31', '52.3', '5', '0', '0.0', '4', '1', '75.0', '0', '0', '0', '3', '20', '4', '8', '15']"
"['', '33060', '2016-12-13', '00:00:00 GMT', '21', 'VAN', 'Vancouver', 'Canucks', '3', 'CAR', 'Carolina', 'Hurricanes', '21', 'RBC Center', '21', 'VAN', 'Vancouver', 'Canucks', '0', '1', '0', '0', '0', '32', '32', '50.0', '2', '0', '0.0', '3', '2', '33.3', '0', '0', '6', '8', '34', '4', '11', '15']"
"['', '33085', '2016-12-16', '03:00:00 GMT', '1', 'TBL', 'Tampa Bay', 'Lightning', '21', 'VAN', 'Vancouver', 'Canucks', '7', 'Rogers Arena', '21', 'VAN', 'Vancouver', 'Canucks', '1', '0', '0', '0', '2', '34', '21', '61.8', '2', '1', '50.0', '2', '1', '50.0', '0', '0', '4', '2', '24', '2', '4', '14']"
"['', '33098', '2016-12-18', '21:00:00 GMT', '19', 'CBJ', 'Columbus', 'Blue Jackets', '21', 'VAN', 'Vancouver', 'Canucks', '7', 'Rogers Arena', '21', 'VAN', 'Vancouver', 'Canucks', '0', '0', '0', '1', '1', '31', '21', '59.6', '4', '1', '25.0', '2', '2', '0.0', '0', '0', '3', '4', '17', '2', '4', '10']"
"['', '33117', '2016-12-20', '03:00:00 GMT', '2', 'WPJ', 'Winnipeg', 'Jets', '21', 'VAN', 'Vancouver', 'Canucks', '7', 'Rogers Arena', '21', 'VAN', 'Vancouver', 'Canucks', '1', '0', '0', '0', '2', '32', '31', '50.8', '3', '0', '0.0', '5', '1', '80.0', '0', '0', '4', '1', '24', '5', '10', '14']"
"['', '33130', '2016-12-22', '03:00:00 GMT', '2', 'WPJ', 'Winnipeg', 'Jets', '21', 'VAN', 'Vancouver', 'Canucks', '7', 'Rogers Arena', '21', 'VAN', 'Vancouver', 'Canucks', '0', '1', '0', '0', '0', '35', '18', '66.0', '4', '0', '0.0', '4', '1', '75.0', '0', '0', '1', '4', '23', '5', '10', '18']"
"['', '33140', '2016-12-23', '02:00:00 GMT', '21', 'VAN', 'Vancouver', 'Canucks', '23', 'CGY', 'Calgary', 'Flames', '18', 'Scotiabank Saddledome', '21', 'VAN', 'Vancouver', 'Canucks', '0', '1', '0', '0', '0', '31', '29', '51.7', '2', '0', '0.0', '4', '1', '75.0', '0', '1', '1', '4', '14', '4', '8', '9']"
"['', '33157', '2016-12-28', '03:00:00 GMT', '28', 'LAK', 'Los Angeles', 'Kings', '21', 'VAN', 'Vancouver', 'Canucks', '7', 'Rogers Arena', '21', 'VAN', 'Vancouver', 'Canucks', '1', '0', '0', '0', '2', '24', '23', '51.1', '3', '1', '33.3', '2', '0', '100.0', '0', '0', '2', '1', '20', '2', '4', '16']"
"['', '33172', '2016-12-30', '03:00:00 GMT', '29', 'ANA', 'Anaheim', 'Ducks', '21', 'VAN', 'Vancouver', 'Canucks', '7', 'Rogers Arena', '21', 'VAN', 'Vancouver', 'Canucks', '1', '0', '0', '0', '2', '28', '29', '49.1', '7', '1', '14.3', '1', '0', '100.0', '0', '1', '3', '2', '26', '1', '2', '23']"
"['', '33183', '2016-12-31', '03:00:00 GMT', '21', 'VAN', 'Vancouver', 'Canucks', '24', 'EDM', 'Edmonton', 'Oilers', '22', 'Rogers Place', '21', 'VAN', 'Vancouver', 'Canucks', '1', '0', '0', '0', '2', '35', '21', '62.5', '2', '0', '0.0', '5', '1', '80.0', '0', '0', '2', '2', '32', '5', '10', '24']"
"['', '33190', '2017-01-02', '03:00:00 GMT', '22', 'COL', 'Colorado', 'Avalanche', '21', 'VAN', 'Vancouver', 'Canucks', '7', 'Rogers Arena', '21', 'VAN', 'Vancouver', 'Canucks', '1', '0', '0', '0', '2', '34', '21', '61.8', '4', '1', '25.0', '3', '1', '66.7', '0', '0', '3', '2', '24', '3', '6', '5']"
"['', '33202', '2017-01-04', '03:00:00 GMT', '30', 'ARI', 'Arizona', 'Coyotes', '21', 'VAN', 'Vancouver', 'Canucks', '7', 'Rogers Arena', '21', 'VAN', 'Vancouver', 'Canucks', '1', '0', '0', '0', '2', '35', '25', '58.3', '2', '0', '0.0', '2', '0', '100.0', '0', '0', '3', '0', '24', '2', '4', '11']"
"['', '33215', '2017-01-06', '03:00:00 GMT', '23', 'CGY', 'Calgary', 'Flames', '21', 'VAN', 'Vancouver', 'Canucks', '7', 'Rogers Arena', '21', 'VAN', 'Vancouver', 'Canucks', '1', '0', '0', '0', '2', '34', '29', '54.0', '3', '1', '33.3', '4', '1', '75.0', '0', '0', '4', '2', '13', '4', '8', '13']"
"['', '33227', '2017-01-07', '03:00:00 GMT', '21', 'VAN', 'Vancouver', 'Canucks', '23', 'CGY', 'Calgary', 'Flames', '18', 'Scotiabank Saddledome', '21', 'VAN', 'Vancouver', 'Canucks', '0', '1', '0', '0', '0', '28', '24', '53.8', '3', '0', '0.0', '1', '0', '100.0', '0', '0', '1', '3', '29', '1', '2', '10']"
"['', '33242', '2017-01-10', '01:00:00 GMT', '21', 'VAN', 'Vancouver', 'Canucks', '18', 'NSH', 'Nashville', 'Predators', '15', 'Bridgestone Arena', '21', 'VAN', 'Vancouver', 'Canucks', '0', '0', '0', '1', '1', '29', '34', '46.0', '3', '0', '0.0', '2', '0', '100.0', '0', '1', '1', '2', '30', '2', '4', '32']"
"['', '33250', '2017-01-12', '00:00:00 GMT', '21', 'VAN', 'Vancouver', 'Canucks', '6', 'PHI', 'Philadelphia', 'Flyers', '29', 'Wells Fargo Center', '21', 'VAN', 'Vancouver', 'Canucks', '0', '0', '0', '1', '1', '38', '37', '50.7', '8', '1', '12.5', '4', '2', '50.0', '0', '0', '4', '4', '38', '4', '8', '23']"
"['', '33280', '2017-01-15', '00:00:00 GMT', '7', 'NJD', 'New Jersey', 'Devils', '21', 'VAN', 'Vancouver', 'Canucks', '7', 'Rogers Arena', '21', 'VAN', 'Vancouver', 'Canucks', '0', '0', '0', '1', '1', '27', '25', '51.9', '3', '0', '0.0', '1', '0', '100.0', '0', '0', '1', '2', '22', '2', '4', '21']"
"['', '33296', '2017-01-17', '03:00:00 GMT', '18', 'NSH', 'Nashville', 'Predators', '21', 'VAN', 'Vancouver', 'Canucks', '7', 'Rogers Arena', '21', 'VAN', 'Vancouver', 'Canucks', '1', '0', '0', '0', '2', '34', '30', '53.1', '1', '0', '0.0', '1', '0', '100.0', '0', '0', '1', '0', '26', '1', '2', '27']"
"['', '33316', '2017-01-20', '03:00:00 GMT', '4', 'FLO', 'Florida', 'Panthers', '21', 'VAN', 'Vancouver', 'Canucks', '7', 'Rogers Arena', '21', 'VAN', 'Vancouver', 'Canucks', '1', '0', '0', '0', '2', '29', '32', '47.5', '1', '0', '0.0', '3', '1', '66.7', '0', '0', '2', '1', '32', '3', '6', '20']"
"['', '33332', '2017-01-22', '00:30:00 GMT', '21', 'VAN', 'Vancouver', 'Canucks', '20', 'CHI', 'Chicago', 'Blackhawks', '28', 'United Center', '21', 'VAN', 'Vancouver', 'Canucks', '0', '1', '0', '0', '0', '31', '24', '56.4', '3', '1', '33.3', '1', '0', '100.0', '0', '0', '2', '4', '28', '1', '2', '24']"
"['', '33352', '2017-01-25', '02:30:00 GMT', '21', 'VAN', 'Vancouver', 'Canucks', '22', 'COL', 'Colorado', 'Avalanche', '19', 'Pepsi Center', '21', 'VAN', 'Vancouver', 'Canucks', '1', '0', '0', '0', '2', '28', '36', '43.8', '2', '1', '50.0', '2', '0', '100.0', '0', '0', '3', '2', '41', '2', '4', '14']"
"['', '33365', '2017-01-26', '02:00:00 GMT', '21', 'VAN', 'Vancouver', 'Canucks', '30', 'ARI', 'Arizona', 'Coyotes', '6', 'Gila River Arena', '21', 'VAN', 'Vancouver', 'Canucks', '0', '1', '0', '0', '0', '26', '35', '42.6', '0', '0', '0.0', '3', '1', '66.7', '0', '0', '0', '3', '19', '2', '6', '18']"
"['', '40231', '2017-02-02', '03:00:00 GMT', '26', 'SJS', 'San Jose', 'Sharks', '21', 'VAN', 'Vancouver', 'Canucks', '7', 'Rogers Arena', '21', 'VAN', 'Vancouver', 'Canucks', '0', '1', '0', '0', '0', '40', '23', '63.5', '2', '0', '0.0', '3', '2', '33.3', '0', '0', '1', '4', '33', '3', '6', '7']"
"['', '33408', '2017-02-04', '03:00:00 GMT', '25', 'MIN', 'Minnesota', 'Wild', '21', 'VAN', 'Vancouver', 'Canucks', '7', 'Rogers Arena', '21', 'VAN', 'Vancouver', 'Canucks', '0', '1', '0', '0', '0', '41', '36', '53.2', '2', '1', '50.0', '1', '0', '100.0', '0', '1', '3', '6', '27', '3', '6', '26']"
"['', '33424', '2017-02-07', '01:00:00 GMT', '21', 'VAN', 'Vancouver', 'Canucks', '18', 'NSH', 'Nashville', 'Predators', '15', 'Bridgestone Arena', '21', 'VAN', 'Vancouver', 'Canucks', '0', '1', '0', '0', '0', '37', '37', '50.0', '3', '1', '33.3', '4', '1', '75.0', '0', '0', '2', '4', '33', '4', '16', '11']"
"['', '33433', '2017-02-09', '00:00:00 GMT', '21', 'VAN', 'Vancouver', 'Canucks', '19', 'CBJ', 'Columbus', 'Blue Jackets', '17', 'Nationwide Arena', '21', 'VAN', 'Vancouver', 'Canucks', '1', '0', '0', '0', '2', '29', '28', '50.9', '2', '1', '50.0', '2', '0', '100.0', '0', '0', '3', '0', '24', '4', '8', '6']"
"['', '33441', '2017-02-11', '18:00:00 GMT', '21', 'VAN', 'Vancouver', 'Canucks', '11', 'BOS', 'Boston', 'Bruins', '27', 'TD Garden', '21', 'VAN', 'Vancouver', 'Canucks', '0', '1', '0', '0', '0', '28', '27', '50.9', '3', '1', '33.3', '2', '1', '50.0', '0', '0', '3', '4', '32', '2', '4', '23']"
"['', '33459', '2017-02-12', '00:30:00 GMT', '21', 'VAN', 'Vancouver', 'Canucks', '15', 'BUF', 'Buffalo', 'Sabres', '10', 'KeyBank Center', '21', 'VAN', 'Vancouver', 'Canucks', '1', '0', '0', '0', '2', '25', '29', '46.3', '6', '1', '16.7', '3', '0', '100.0', '0', '0', '4', '2', '31', '4', '8', '12']"
"['', '33463', '2017-02-14', '00:00:00 GMT', '21', 'VAN', 'Vancouver', 'Canucks', '10', 'PIT', 'Pittsburgh', 'Penguins', '40', 'PPG Paints Arena', '21', 'VAN', 'Vancouver', 'Canucks', '0', '1', '0', '0', '0', '24', '34', '41.4', '1', '0', '0.0', '2', '0', '100.0', '0', '0', '0', '4', '29', '2', '4', '23']"
"['', '33477', '2017-02-16', '01:00:00 GMT', '21', 'VAN', 'Vancouver', 'Canucks', '17', 'STL', 'St. Louis', 'Blues', '24', 'Scottrade Center', '21', 'VAN', 'Vancouver', 'Canucks', '0', '1', '0', '0', '0', '24', '31', '43.6', '2', '0', '0.0', '4', '2', '50.0', '0', '0', '3', '4', '21', '3', '8', '9']"
"['', '33493', '2017-02-18', '03:00:00 GMT', '23', 'CGY', 'Calgary', 'Flames', '21', 'VAN', 'Vancouver', 'Canucks', '7', 'Rogers Arena', '21', 'VAN', 'Vancouver', 'Canucks', '1', '0', '0', '0', '2', '30', '32', '48.4', '4', '0', '0.0', '4', '0', '100.0', '0', '0', '2', '1', '19', '4', '8', '19']"
"['', '33505', '2017-02-19', '03:00:00 GMT', '6', 'PHI', 'Philadelphia', 'Flyers', '21', 'VAN', 'Vancouver', 'Canucks', '7', 'Rogers Arena', '21', 'VAN', 'Vancouver', 'Canucks', '0', '1', '0', '0', '0', '31', '29', '51.7', '4', '0', '0.0', '3', '2', '33.3', '0', '0', '2', '3', '20', '3', '6', '18']"
"['', '33537', '2017-02-25', '03:00:00 GMT', '26', 'SJS', 'San Jose', 'Sharks', '21', 'VAN', 'Vancouver', 'Canucks', '7', 'Rogers Arena', '21', 'VAN', 'Vancouver', 'Canucks', '0', '1', '0', '0', '0', '32', '31', '50.8', '2', '0', '0.0', '1', '1', '0.0', '0', '0', '1', '4', '36', '2', '7', '13']"
"['', '33558', '2017-02-28', '03:00:00 GMT', '16', 'DET', 'Detroit', 'Red Wings', '21', 'VAN', 'Vancouver', 'Canucks', '7', 'Rogers Arena', '21', 'VAN', 'Vancouver', 'Canucks', '0', '0', '0', '1', '1', '28', '28', '50.0', '3', '0', '0.0', '4', '2', '50.0', '0', '0', '2', '3', '27', '4', '8', '11']"
"['', '33571', '2017-03-02', '03:30:00 GMT', '21', 'VAN', 'Vancouver', 'Canucks', '26', 'SJS', 'San Jose', 'Sharks', '9', 'SAP Center at San Jose', '21', 'VAN', 'Vancouver', 'Canucks', '0', '1', '0', '0', '0', '27', '24', '52.9', '3', '1', '33.3', '2', '0', '100.0', '0', '0', '1', '3', '18', '3', '9', '21']"
"['', '33587', '2017-03-04', '03:00:00 GMT', '21', 'VAN', 'Vancouver', 'Canucks', '28', 'LAK', 'Los Angeles', 'Kings', '25', 'Staples Center', '21', 'VAN', 'Vancouver', 'Canucks', '1', '0', '0', '0', '2', '31', '34', '47.7', '2', '0', '0.0', '8', '2', '75.0', '0', '1', '4', '3', '21', '7', '14', '25']"
"['', '33593', '2017-03-05', '01:00:00 GMT', '21', 'VAN', 'Vancouver', 'Canucks', '29', 'ANA', 'Anaheim', 'Ducks', '8', 'Honda Center', '21', 'VAN', 'Vancouver', 'Canucks', '1', '0', '0', '0', '2', '23', '26', '46.9', '2', '0', '0.0', '2', '0', '100.0', '0', '0', '2', '1', '27', '2', '4', '18']"
"['', '33606', '2017-03-07', '03:00:00 GMT', '14', 'MTL', 'Montreal', 'Canadiens', '21', 'VAN', 'Vancouver', 'Canucks', '7', 'Rogers Arena', '21', 'VAN', 'Vancouver', 'Canucks', '0', '0', '0', '1', '1', '28', '36', '43.8', '1', '0', '0.0', '3', '0', '100.0', '0', '0', '1', '2', '28', '3', '6', '15']"
"['', '33618', '2017-03-09', '03:00:00 GMT', '8', 'NYI', 'New York', 'Islanders', '21', 'VAN', 'Vancouver', 'Canucks', '7', 'Rogers Arena', '21', 'VAN', 'Vancouver', 'Canucks', '0', '0', '0', '1', '1', '37', '22', '62.7', '3', '0', '0.0', '3', '0', '100.0', '0', '0', '3', '4', '39', '3', '6', '26']"
"['', '33635', '2017-03-11', '03:00:00 GMT', '10', 'PIT', 'Pittsburgh', 'Penguins', '21', 'VAN', 'Vancouver', 'Canucks', '7', 'Rogers Arena', '21', 'VAN', 'Vancouver', 'Canucks', '0', '1', '0', '0', '0', '25', '32', '43.9', '1', '0', '0.0', '3', '0', '100.0', '0', '0', '0', '3', '27', '3', '6', '18']"
"['', '33647', '2017-03-13', '02:00:00 GMT', '11', 'BOS', 'Boston', 'Bruins', '21', 'VAN', 'Vancouver', 'Canucks', '7', 'Rogers Arena', '21', 'VAN', 'Vancouver', 'Canucks', '0', '1', '0', '0', '0', '34', '38', '47.2', '2', '0', '0.0', '2', '1', '50.0', '0', '0', '3', '6', '29', '2', '4', '31']"
"['', '33671', '2017-03-16', '02:00:00 GMT', '27', 'DAL', 'Dallas', 'Stars', '21', 'VAN', 'Vancouver', 'Canucks', '7', 'Rogers Arena', '21', 'VAN', 'Vancouver', 'Canucks', '0', '1', '0', '0', '0', '35', '32', '52.2', '3', '1', '33.3', '1', '1', '0.0', '0', '0', '2', '4', '28', '2', '7', '24']"
"['', '33687', '2017-03-18', '02:00:00 GMT', '21', 'VAN', 'Vancouver', 'Canucks', '24', 'EDM', 'Edmonton', 'Oilers', '22', 'Rogers Place', '21', 'VAN', 'Vancouver', 'Canucks', '0', '1', '0', '0', '0', '31', '21', '59.6', '2', '0', '0.0', '3', '1', '66.7', '0', '0', '0', '2', '33', '3', '6', '14']"
"['', '33710', '2017-03-21', '00:30:00 GMT', '21', 'VAN', 'Vancouver', 'Canucks', '20', 'CHI', 'Chicago', 'Blackhawks', '28', 'United Center', '21', 'VAN', 'Vancouver', 'Canucks', '1', '0', '0', '0', '2', '28', '37', '43.1', '2', '1', '50.0', '6', '2', '66.7', '0', '0', '5', '4', '15', '6', '12', '17']"
"['', '33721', '2017-03-23', '00:00:00 GMT', '21', 'VAN', 'Vancouver', 'Canucks', '17', 'STL', 'St. Louis', 'Blues', '24', 'Scottrade Center', '21', 'VAN', 'Vancouver', 'Canucks', '0', '1', '0', '0', '0', '34', '29', '54.0', '5', '0', '0.0', '3', '0', '100.0', '0', '0', '1', '4', '28', '4', '11', '13']"
"['', '33732', '2017-03-25', '18:00:00 GMT', '21', 'VAN', 'Vancouver', 'Canucks', '25', 'MIN', 'Minnesota', 'Wild', '30', 'Xcel Energy Center', '21', 'VAN', 'Vancouver', 'Canucks', '1', '0', '0', '0', '2', '21', '36', '36.8', '2', '1', '50.0', '3', '0', '100.0', '0', '0', '4', '2', '21', '3', '6', '19']"
"['', '33746', '2017-03-26', '00:00:00 GMT', '21', 'VAN', 'Vancouver', 'Canucks', '2', 'WPJ', 'Winnipeg', 'Jets', '39', 'MTS Centre', '21', 'VAN', 'Vancouver', 'Canucks', '0', '1', '0', '0', '0', '28', '34', '45.2', '1', '0', '0.0', '2', '2', '0.0', '0', '0', '1', '2', '29', '2', '4', '11']"
"['', '33761', '2017-03-28', '02:00:00 GMT', '29', 'ANA', 'Anaheim', 'Ducks', '21', 'VAN', 'Vancouver', 'Canucks', '7', 'Rogers Arena', '21', 'VAN', 'Vancouver', 'Canucks', '0', '1', '0', '0', '0', '33', '32', '50.8', '2', '0', '0.0', '4', '0', '100.0', '0', '0', '1', '4', '35', '4', '8', '28']"
"['', '33781', '2017-03-31', '02:00:00 GMT', '28', 'LAK', 'Los Angeles', 'Kings', '21', 'VAN', 'Vancouver', 'Canucks', '7', 'Rogers Arena', '21', 'VAN', 'Vancouver', 'Canucks', '0', '1', '0', '0', '0', '26', '29', '47.3', '2', '0', '0.0', '1', '1', '0.0', '0', '0', '0', '2', '35', '1', '2', '16']"
"['', '33798', '2017-04-02', '23:00:00 GMT', '26', 'SJS', 'San Jose', 'Sharks', '21', 'VAN', 'Vancouver', 'Canucks', '7', 'Rogers Arena', '21', 'VAN', 'Vancouver', 'Canucks', '0', '1', '0', '0', '0', '24', '20', '54.5', '1', '0', '0.0', '1', '0', '100.0', '0', '0', '1', '3', '30', '1', '2', '18']"
"['', '33817', '2017-04-04', '02:30:00 GMT', '21', 'VAN', 'Vancouver', 'Canucks', '26', 'SJS', 'San Jose', 'Sharks', '9', 'SAP Center at San Jose', '21', 'VAN', 'Vancouver', 'Canucks', '0', '1', '0', '0', '0', '33', '33', '50.0', '3', '0', '0.0', '1', '0', '100.0', '0', '0', '1', '3', '34', '1', '2', '18']"
"['', '33828', '2017-04-06', '02:00:00 GMT', '21', 'VAN', 'Vancouver', 'Canucks', '30', 'ARI', 'Arizona', 'Coyotes', '6', 'Gila River Arena', '21', 'VAN', 'Vancouver', 'Canucks', '0', '1', '0', '0', '0', '32', '23', '58.2', '3', '1', '33.3', '3', '2', '33.3', '0', '0', '3', '4', '29', '4', '8', '13']"
"['', '33844', '2017-04-08', '02:00:00 GMT', '24', 'EDM', 'Edmonton', 'Oilers', '21', 'VAN', 'Vancouver', 'Canucks', '7', 'Rogers Arena', '21', 'VAN', 'Vancouver', 'Canucks', '0', '1', '0', '0', '0', '26', '27', '49.1', '3', '1', '33.3', '2', '1', '50.0', '0', '0', '2', '3', '31', '2', '9', '13']"
"['', '33856', '2017-04-09', '01:00:00 GMT', '21', 'VAN', 'Vancouver', 'Canucks', '24', 'EDM', 'Edmonton', 'Oilers', '22', 'Rogers Place', '21', 'VAN', 'Vancouver', 'Canucks', '0', '1', '0', '0', '0', '37', '33', '52.9', '1', '0', '0.0', '5', '1', '80.0', '0', '0', '2', '5', '17', '6', '15', '14']"
