"['#Date/Time of Update: 2018-12-10 19:03:10 GMT', '#Game ID', '#Game Date', '#Game Time', '#Away Team ID', '#Away Team Abbr.', '#Away Team City', '#Away Team Name', '#Home Team ID', '#Home Team Abbr.', '#Home Team City', '#Home Team Name', '#Venue ID', '#Venue Name', '#Team ID', '#Team Abbr.', '#Team City', '#Team Name', '#Wins', '#Losses', '#OvertimeWins', '#OvertimeLosses', '#ShootoutWins', '#ShootoutLosses', '#Rows', '#Points', '#FaceoffWins', '#FaceoffLosses', '#FaceoffPercent', '#Powerplays', '#PowerplayGoals', '#PowerplayPercent', '#PenaltyKills', '#PenaltyKillGoalsAllowed', '#PenaltyKillPercent', '#ShorthandedGoalsFor', '#ShorthandedGoalsAgainst', '#GoalsFor', '#GoalsAgainst', '#Shots', '#Penalties', '#PenaltyMinutes', '#Hits']"
"['', '26369', '2013-10-04', '23:00:00 GMT', '13', 'OTT', 'Ottawa', 'Senators', '15', 'BUF', 'Buffalo', 'Sabres', '10', 'First Niagara Center', '13', 'OTT', 'Ottawa', 'Senators', '1', '0', '0', '0', '0', '0', '1', '2', '37', '34', '52.1', '2', '0', '0.0', '3', '0', '100.0', '0', '0', '1', '0', '45', '4', '8', '14']"
"['', '26376', '2013-10-05', '23:00:00 GMT', '13', 'OTT', 'Ottawa', 'Senators', '12', 'TOR', 'Toronto', 'Maple Leafs', '1', 'Air Canada Center', '13', 'OTT', 'Ottawa', 'Senators', '0', '0', '0', '1', '0', '0', '0', '1', '37', '37', '50.0', '1', '0', '0.0', '5', '2', '60.0', '0', '0', '4', '4', '32', '7', '14', '41']"
"['', '26401', '2013-10-09', '02:30:00 GMT', '13', 'OTT', 'Ottawa', 'Senators', '28', 'LAK', 'Los Angeles', 'Kings', '25', 'Staples Center', '13', 'OTT', 'Ottawa', 'Senators', '0', '0', '0', '1', '0', '0', '0', '1', '28', '43', '39.4', '2', '1', '50.0', '6', '2', '66.7', '0', '0', '3', '4', '22', '7', '14', '41']"
"['', '26428', '2013-10-12', '02:00:00 GMT', '13', 'OTT', 'Ottawa', 'Senators', '26', 'SJS', 'San Jose', 'Sharks', '9', 'SAP Center at San Jose', '13', 'OTT', 'Ottawa', 'Senators', '0', '1', '0', '0', '0', '0', '0', '0', '30', '39', '43.5', '3', '1', '33.3', '4', '1', '75.0', '0', '0', '2', '3', '21', '7', '17', '24']"
"['', '26432', '2013-10-13', '00:00:00 GMT', '13', 'OTT', 'Ottawa', 'Senators', '29', 'ANA', 'Anaheim', 'Ducks', '8', 'Honda Center', '13', 'OTT', 'Ottawa', 'Senators', '0', '1', '0', '0', '0', '0', '0', '0', '24', '38', '38.7', '1', '0', '0.0', '5', '0', '100.0', '0', '0', '1', '4', '30', '6', '12', '28']"
"['', '26447', '2013-10-15', '02:00:00 GMT', '13', 'OTT', 'Ottawa', 'Senators', '30', 'PHX', 'Phoenix', 'Coyotes', '6', 'Jobing.com Arena', '13', 'OTT', 'Ottawa', 'Senators', '1', '0', '0', '0', '0', '0', '1', '2', '32', '40', '44.4', '3', '1', '33.3', '3', '1', '66.7', '0', '0', '4', '3', '28', '4', '8', '27']"
"['', '26455', '2013-10-17', '23:30:00 GMT', '7', 'NJD', 'New Jersey', 'Devils', '13', 'OTT', 'Ottawa', 'Senators', '23', 'Canadian Tire Centre', '13', 'OTT', 'Ottawa', 'Senators', '1', '0', '0', '0', '0', '0', '1', '2', '36', '28', '56.2', '4', '0', '0.0', '7', '1', '85.7', '0', '0', '5', '2', '18', '7', '14', '32']"
"['', '26465', '2013-10-19', '18:00:00 GMT', '24', 'EDM', 'Edmonton', 'Oilers', '13', 'OTT', 'Ottawa', 'Senators', '23', 'Canadian Tire Centre', '13', 'OTT', 'Ottawa', 'Senators', '0', '1', '0', '0', '0', '0', '0', '0', '34', '24', '58.6', '5', '0', '0.0', '5', '0', '100.0', '0', '0', '1', '3', '35', '7', '14', '32']"
"['', '26491', '2013-10-23', '23:30:00 GMT', '13', 'OTT', 'Ottawa', 'Senators', '16', 'DET', 'Detroit', 'Red Wings', '11', 'Joe Louis Arena', '13', 'OTT', 'Ottawa', 'Senators', '1', '0', '0', '0', '0', '0', '1', '2', '28', '37', '43.1', '3', '2', '66.7', '2', '1', '50.0', '0', '0', '6', '1', '22', '3', '6', '25']"
"['', '26505', '2013-10-25', '23:30:00 GMT', '29', 'ANA', 'Anaheim', 'Ducks', '13', 'OTT', 'Ottawa', 'Senators', '23', 'Canadian Tire Centre', '13', 'OTT', 'Ottawa', 'Senators', '0', '1', '0', '0', '0', '0', '0', '0', '27', '38', '41.5', '3', '1', '33.3', '4', '0', '100.0', '0', '0', '1', '2', '26', '5', '10', '40']"
"['', '26520', '2013-10-27', '21:00:00 GMT', '26', 'SJS', 'San Jose', 'Sharks', '13', 'OTT', 'Ottawa', 'Senators', '23', 'Canadian Tire Centre', '13', 'OTT', 'Ottawa', 'Senators', '0', '1', '0', '0', '0', '0', '0', '0', '29', '34', '46.0', '2', '0', '0.0', '3', '0', '100.0', '0', '1', '2', '5', '38', '3', '6', '27']"
"['', '26534', '2013-10-29', '00:00:00 GMT', '13', 'OTT', 'Ottawa', 'Senators', '20', 'CHI', 'Chicago', 'Blackhawks', '28', 'United Center', '13', 'OTT', 'Ottawa', 'Senators', '0', '1', '0', '0', '0', '0', '0', '0', '37', '29', '56.1', '1', '1', '100.0', '2', '1', '50.0', '0', '0', '5', '6', '32', '3', '6', '36']"
"['', '26548', '2013-11-01', '23:30:00 GMT', '8', 'NYI', 'New York', 'Islanders', '13', 'OTT', 'Ottawa', 'Senators', '23', 'Canadian Tire Centre', '13', 'OTT', 'Ottawa', 'Senators', '0', '0', '0', '1', '0', '0', '0', '1', '38', '32', '54.3', '2', '0', '0.0', '4', '0', '100.0', '0', '0', '4', '4', '27', '5', '10', '42']"
"['', '26566', '2013-11-03', '18:00:00 GMT', '27', 'DAL', 'Dallas', 'Stars', '13', 'OTT', 'Ottawa', 'Senators', '23', 'Canadian Tire Centre', '13', 'OTT', 'Ottawa', 'Senators', '0', '0', '0', '1', '0', '0', '0', '1', '39', '24', '61.9', '3', '1', '33.3', '5', '0', '100.0', '0', '0', '3', '3', '33', '5', '10', '29']"
"['', '26573', '2013-11-05', '00:00:00 GMT', '13', 'OTT', 'Ottawa', 'Senators', '19', 'CBJ', 'Columbus', 'Blue Jackets', '17', 'Nationwide Arena', '13', 'OTT', 'Ottawa', 'Senators', '1', '0', '0', '0', '0', '0', '1', '2', '32', '25', '56.1', '4', '0', '0.0', '4', '1', '75.0', '0', '0', '4', '1', '20', '8', '28', '23']"
"['', '26585', '2013-11-07', '00:00:00 GMT', '14', 'MTL', 'Montreal', 'Canadiens', '13', 'OTT', 'Ottawa', 'Senators', '23', 'Canadian Tire Centre', '13', 'OTT', 'Ottawa', 'Senators', '1', '0', '0', '0', '0', '0', '1', '2', '38', '23', '62.3', '3', '0', '0.0', '5', '1', '80.0', '0', '0', '4', '1', '20', '7', '14', '38']"
"['', '26600', '2013-11-09', '19:00:00 GMT', '4', 'FLO', 'Florida', 'Panthers', '13', 'OTT', 'Ottawa', 'Senators', '23', 'Canadian Tire Centre', '13', 'OTT', 'Ottawa', 'Senators', '1', '0', '0', '0', '0', '0', '1', '2', '30', '28', '51.7', '3', '1', '33.3', '5', '0', '100.0', '0', '0', '3', '2', '29', '8', '22', '39']"
"['', '26623', '2013-11-12', '00:30:00 GMT', '6', 'PHI', 'Philadelphia', 'Flyers', '13', 'OTT', 'Ottawa', 'Senators', '23', 'Canadian Tire Centre', '13', 'OTT', 'Ottawa', 'Senators', '0', '1', '0', '0', '0', '0', '0', '0', '26', '32', '44.8', '1', '0', '0.0', '3', '2', '33.3', '0', '0', '0', '5', '24', '3', '6', '40']"
"['', '26643', '2013-11-15', '00:30:00 GMT', '11', 'BOS', 'Boston', 'Bruins', '13', 'OTT', 'Ottawa', 'Senators', '23', 'Canadian Tire Centre', '13', 'OTT', 'Ottawa', 'Senators', '1', '0', '0', '0', '0', '0', '1', '2', '38', '26', '59.4', '2', '0', '0.0', '1', '0', '100.0', '0', '0', '4', '2', '27', '1', '2', '36']"
"['', '26657', '2013-11-17', '18:00:00 GMT', '19', 'CBJ', 'Columbus', 'Blue Jackets', '13', 'OTT', 'Ottawa', 'Senators', '23', 'Canadian Tire Centre', '13', 'OTT', 'Ottawa', 'Senators', '0', '1', '0', '0', '0', '0', '0', '0', '32', '34', '48.5', '6', '1', '16.7', '4', '3', '25.0', '0', '0', '1', '4', '29', '7', '28', '39']"
"['', '26668', '2013-11-19', '00:00:00 GMT', '13', 'OTT', 'Ottawa', 'Senators', '6', 'PHI', 'Philadelphia', 'Flyers', '29', 'Wells Fargo Center', '13', 'OTT', 'Ottawa', 'Senators', '0', '1', '0', '0', '0', '0', '0', '0', '31', '32', '49.2', '6', '2', '33.3', '4', '1', '75.0', '0', '1', '2', '5', '31', '6', '15', '25']"
"['', '26676', '2013-11-20', '00:30:00 GMT', '25', 'MIN', 'Minnesota', 'Wild', '13', 'OTT', 'Ottawa', 'Senators', '23', 'Canadian Tire Centre', '13', 'OTT', 'Ottawa', 'Senators', '0', '1', '0', '0', '0', '0', '0', '0', '35', '26', '57.4', '2', '1', '50.0', '3', '1', '66.7', '1', '0', '3', '4', '34', '5', '13', '44']"
"['', '26699', '2013-11-23', '00:00:00 GMT', '13', 'OTT', 'Ottawa', 'Senators', '16', 'DET', 'Detroit', 'Red Wings', '11', 'Joe Louis Arena', '13', 'OTT', 'Ottawa', 'Senators', '1', '0', '0', '0', '0', '0', '1', '2', '42', '40', '51.2', '7', '2', '28.6', '8', '2', '75.0', '0', '0', '4', '2', '25', '10', '23', '27']"
"['', '26708', '2013-11-24', '22:00:00 GMT', '13', 'OTT', 'Ottawa', 'Senators', '3', 'CAR', 'Carolina', 'Hurricanes', '21', 'RBC Center', '13', 'OTT', 'Ottawa', 'Senators', '0', '1', '0', '0', '0', '0', '0', '0', '34', '34', '50.0', '2', '0', '0.0', '3', '1', '66.7', '0', '0', '1', '4', '35', '4', '8', '34']"
"['', '26722', '2013-11-27', '00:00:00 GMT', '13', 'OTT', 'Ottawa', 'Senators', '5', 'WSH', 'Washington', 'Capitals', '13', 'Verizon Center', '13', 'OTT', 'Ottawa', 'Senators', '1', '0', '0', '0', '0', '0', '1', '2', '44', '32', '57.9', '5', '3', '60.0', '2', '2', '0.0', '0', '0', '6', '4', '35', '9', '24', '18']"
"['', '26732', '2013-11-28', '00:30:00 GMT', '21', 'VAN', 'Vancouver', 'Canucks', '13', 'OTT', 'Ottawa', 'Senators', '23', 'Canadian Tire Centre', '13', 'OTT', 'Ottawa', 'Senators', '0', '1', '0', '0', '0', '0', '0', '0', '36', '32', '52.9', '2', '0', '0.0', '2', '1', '50.0', '0', '0', '2', '5', '37', '6', '18', '47']"
"['', '26758', '2013-12-01', '22:30:00 GMT', '16', 'DET', 'Detroit', 'Red Wings', '13', 'OTT', 'Ottawa', 'Senators', '23', 'Canadian Tire Centre', '13', 'OTT', 'Ottawa', 'Senators', '0', '1', '0', '0', '0', '0', '0', '0', '29', '33', '46.8', '4', '0', '0.0', '1', '0', '100.0', '0', '0', '2', '4', '30', '1', '2', '28']"
"['', '26768', '2013-12-03', '00:30:00 GMT', '13', 'OTT', 'Ottawa', 'Senators', '4', 'FLO', 'Florida', 'Panthers', '3', 'BB&T Center', '13', 'OTT', 'Ottawa', 'Senators', '1', '0', '0', '0', '0', '0', '1', '2', '44', '27', '62.0', '7', '1', '14.3', '1', '1', '0.0', '0', '0', '4', '2', '41', '4', '8', '26']"
"['', '26780', '2013-12-05', '00:30:00 GMT', '13', 'OTT', 'Ottawa', 'Senators', '1', 'TBL', 'Tampa Bay', 'Lightning', '26', 'Tampa Bay Times Forum', '13', 'OTT', 'Ottawa', 'Senators', '0', '1', '0', '0', '0', '0', '0', '0', '31', '22', '58.5', '5', '1', '20.0', '3', '0', '100.0', '0', '0', '1', '3', '33', '4', '8', '18']"
"['', '26795', '2013-12-07', '00:00:00 GMT', '12', 'TOR', 'Toronto', 'Maple Leafs', '13', 'OTT', 'Ottawa', 'Senators', '23', 'Canadian Tire Centre', '13', 'OTT', 'Ottawa', 'Senators', '0', '0', '0', '1', '0', '0', '0', '1', '47', '27', '63.5', '6', '2', '33.3', '6', '1', '83.3', '0', '0', '3', '3', '47', '9', '37', '46']"
"['', '26808', '2013-12-09', '00:30:00 GMT', '6', 'PHI', 'Philadelphia', 'Flyers', '13', 'OTT', 'Ottawa', 'Senators', '23', 'Canadian Tire Centre', '13', 'OTT', 'Ottawa', 'Senators', '1', '0', '0', '0', '0', '0', '0', '2', '35', '23', '60.3', '3', '1', '33.3', '2', '1', '50.0', '0', '0', '4', '4', '30', '4', '14', '49']"
"['', '26812', '2013-12-10', '00:00:00 GMT', '13', 'OTT', 'Ottawa', 'Senators', '15', 'BUF', 'Buffalo', 'Sabres', '10', 'First Niagara Center', '13', 'OTT', 'Ottawa', 'Senators', '0', '0', '0', '1', '0', '0', '0', '1', '33', '31', '51.6', '3', '0', '0.0', '3', '0', '100.0', '0', '0', '1', '1', '35', '3', '6', '13']"
"['', '26829', '2013-12-12', '00:30:00 GMT', '15', 'BUF', 'Buffalo', 'Sabres', '13', 'OTT', 'Ottawa', 'Senators', '23', 'Canadian Tire Centre', '13', 'OTT', 'Ottawa', 'Senators', '1', '0', '0', '0', '0', '0', '1', '2', '39', '21', '65.0', '3', '0', '0.0', '5', '1', '80.0', '0', '0', '2', '1', '30', '6', '15', '29']"
"['', '26842', '2013-12-14', '19:00:00 GMT', '28', 'LAK', 'Los Angeles', 'Kings', '13', 'OTT', 'Ottawa', 'Senators', '23', 'Canadian Tire Centre', '13', 'OTT', 'Ottawa', 'Senators', '0', '1', '0', '0', '0', '0', '0', '0', '30', '33', '47.6', '4', '0', '0.0', '3', '1', '66.7', '0', '0', '2', '5', '37', '4', '8', '33']"
"['', '26861', '2013-12-16', '00:30:00 GMT', '17', 'STL', 'St. Louis', 'Blues', '13', 'OTT', 'Ottawa', 'Senators', '23', 'Canadian Tire Centre', '13', 'OTT', 'Ottawa', 'Senators', '1', '0', '0', '0', '0', '0', '1', '2', '37', '24', '60.7', '3', '0', '0.0', '2', '0', '100.0', '0', '0', '3', '2', '29', '4', '11', '38']"
"['', '26875', '2013-12-18', '00:30:00 GMT', '13', 'OTT', 'Ottawa', 'Senators', '7', 'NJD', 'New Jersey', 'Devils', '37', 'Prudential Center', '13', 'OTT', 'Ottawa', 'Senators', '0', '1', '0', '0', '0', '0', '0', '0', '33', '22', '60.0', '3', '2', '66.7', '3', '1', '66.7', '0', '1', '2', '5', '23', '6', '20', '17']"
"['', '26881', '2013-12-19', '00:30:00 GMT', '4', 'FLO', 'Florida', 'Panthers', '13', 'OTT', 'Ottawa', 'Senators', '23', 'Canadian Tire Centre', '13', 'OTT', 'Ottawa', 'Senators', '0', '1', '0', '0', '0', '0', '0', '0', '39', '32', '54.9', '3', '1', '33.3', '3', '1', '66.7', '0', '1', '2', '4', '32', '4', '8', '33']"
"['', '26893', '2013-12-21', '19:00:00 GMT', '30', 'PHX', 'Phoenix', 'Coyotes', '13', 'OTT', 'Ottawa', 'Senators', '23', 'Canadian Tire Centre', '13', 'OTT', 'Ottawa', 'Senators', '0', '0', '0', '1', '0', '0', '0', '1', '30', '33', '47.6', '7', '1', '14.3', '5', '2', '60.0', '0', '0', '3', '4', '37', '10', '20', '37']"
"['', '26911', '2013-12-23', '00:30:00 GMT', '10', 'PIT', 'Pittsburgh', 'Penguins', '13', 'OTT', 'Ottawa', 'Senators', '23', 'Canadian Tire Centre', '13', 'OTT', 'Ottawa', 'Senators', '1', '0', '0', '0', '0', '0', '1', '2', '27', '28', '49.1', '2', '1', '50.0', '8', '0', '100.0', '0', '0', '5', '0', '24', '8', '16', '25']"
"['', '26921', '2013-12-27', '00:00:00 GMT', '13', 'OTT', 'Ottawa', 'Senators', '11', 'BOS', 'Boston', 'Bruins', '27', 'TD Garden', '13', 'OTT', 'Ottawa', 'Senators', '0', '1', '0', '0', '0', '0', '0', '0', '30', '34', '46.9', '3', '0', '0.0', '2', '1', '50.0', '0', '1', '0', '5', '33', '3', '6', '17']"
"['', '26931', '2013-12-28', '00:00:00 GMT', '11', 'BOS', 'Boston', 'Bruins', '13', 'OTT', 'Ottawa', 'Senators', '23', 'Canadian Tire Centre', '13', 'OTT', 'Ottawa', 'Senators', '1', '0', '0', '0', '0', '0', '1', '2', '29', '36', '44.6', '2', '0', '0.0', '4', '0', '100.0', '1', '0', '4', '3', '26', '5', '13', '37']"
"['', '26949', '2013-12-30', '00:30:00 GMT', '5', 'WSH', 'Washington', 'Capitals', '13', 'OTT', 'Ottawa', 'Senators', '23', 'Canadian Tire Centre', '13', 'OTT', 'Ottawa', 'Senators', '1', '0', '0', '0', '0', '0', '1', '2', '32', '27', '54.2', '4', '0', '0.0', '2', '0', '100.0', '0', '0', '3', '1', '35', '2', '4', '28']"
"['', '26969', '2014-01-02', '00:30:00 GMT', '2', 'WPJ', 'Winnipeg', 'Jets', '13', 'OTT', 'Ottawa', 'Senators', '23', 'Canadian Tire Centre', '13', 'OTT', 'Ottawa', 'Senators', '1', '0', '0', '0', '0', '0', '1', '2', '34', '25', '57.6', '2', '0', '0.0', '0', '0', '0.0', '0', '0', '4', '3', '25', '2', '7', '36']"
"['', '26984', '2014-01-04', '00:00:00 GMT', '13', 'OTT', 'Ottawa', 'Senators', '14', 'MTL', 'Montreal', 'Canadiens', '4', 'Bell Centre', '13', 'OTT', 'Ottawa', 'Senators', '1', '0', '0', '0', '0', '0', '1', '2', '33', '33', '50.0', '2', '1', '50.0', '5', '0', '100.0', '0', '0', '4', '3', '30', '6', '12', '21']"
"['', '27013', '2014-01-08', '02:30:00 GMT', '13', 'OTT', 'Ottawa', 'Senators', '22', 'COL', 'Colorado', 'Avalanche', '19', 'Pepsi Center', '13', 'OTT', 'Ottawa', 'Senators', '0', '0', '0', '1', '0', '0', '0', '1', '26', '27', '49.1', '3', '1', '33.3', '1', '1', '0.0', '0', '0', '3', '4', '29', '1', '2', '17']"
"['', '27032', '2014-01-11', '00:00:00 GMT', '13', 'OTT', 'Ottawa', 'Senators', '18', 'NSH', 'Nashville', 'Predators', '15', 'Bridgestone Arena', '13', 'OTT', 'Ottawa', 'Senators', '1', '0', '0', '0', '0', '0', '0', '2', '26', '27', '49.1', '1', '0', '0.0', '2', '0', '100.0', '0', '0', '1', '1', '20', '4', '11', '24']"
"['', '27059', '2014-01-14', '01:00:00 GMT', '13', 'OTT', 'Ottawa', 'Senators', '25', 'MIN', 'Minnesota', 'Wild', '30', 'Xcel Energy Center', '13', 'OTT', 'Ottawa', 'Senators', '1', '0', '0', '0', '0', '0', '1', '2', '28', '35', '44.4', '4', '2', '50.0', '2', '0', '100.0', '0', '0', '3', '0', '29', '3', '6', '15']"
"['', '27066', '2014-01-16', '00:30:00 GMT', '14', 'MTL', 'Montreal', 'Canadiens', '13', 'OTT', 'Ottawa', 'Senators', '23', 'Canadian Tire Centre', '13', 'OTT', 'Ottawa', 'Senators', '0', '0', '0', '1', '0', '0', '0', '1', '36', '26', '58.1', '1', '0', '0.0', '1', '1', '0.0', '0', '1', '4', '5', '40', '1', '2', '44']"
"['', '27077', '2014-01-18', '19:00:00 GMT', '9', 'NYR', 'New York', 'Rangers', '13', 'OTT', 'Ottawa', 'Senators', '23', 'Canadian Tire Centre', '13', 'OTT', 'Ottawa', 'Senators', '0', '1', '0', '0', '0', '0', '0', '0', '30', '31', '49.2', '2', '0', '0.0', '3', '1', '66.7', '0', '0', '1', '4', '29', '5', '10', '26']"
"['', '27104', '2014-01-21', '00:00:00 GMT', '13', 'OTT', 'Ottawa', 'Senators', '5', 'WSH', 'Washington', 'Capitals', '13', 'Verizon Center', '13', 'OTT', 'Ottawa', 'Senators', '1', '0', '0', '0', '0', '0', '1', '2', '31', '29', '51.7', '4', '1', '25.0', '3', '0', '100.0', '0', '0', '2', '0', '24', '5', '10', '38']"
"['', '27116', '2014-01-23', '00:30:00 GMT', '13', 'OTT', 'Ottawa', 'Senators', '1', 'TBL', 'Tampa Bay', 'Lightning', '26', 'Tampa Bay Times Forum', '13', 'OTT', 'Ottawa', 'Senators', '0', '0', '0', '1', '0', '0', '0', '1', '30', '47', '39.0', '3', '2', '66.7', '2', '0', '100.0', '0', '1', '3', '3', '33', '3', '9', '26']"
"['', '27124', '2014-01-26', '05:00:00 GMT', '13', 'OTT', 'Ottawa', 'Senators', '3', 'CAR', 'Carolina', 'Hurricanes', '21', 'RBC Center', '13', 'OTT', 'Ottawa', 'Senators', '0', '1', '0', '0', '0', '0', '0', '0', '33', '36', '47.8', '2', '0', '0.0', '4', '1', '75.0', '1', '0', '3', '6', '23', '5', '10', '18']"
"['', '27151', '2014-01-28', '00:00:00 GMT', '13', 'OTT', 'Ottawa', 'Senators', '19', 'CBJ', 'Columbus', 'Blue Jackets', '17', 'Nationwide Arena', '13', 'OTT', 'Ottawa', 'Senators', '1', '0', '0', '0', '0', '0', '1', '2', '25', '43', '36.8', '4', '2', '50.0', '5', '2', '60.0', '0', '0', '3', '2', '25', '7', '14', '20']"
"['', '27165', '2014-01-30', '00:30:00 GMT', '1', 'TBL', 'Tampa Bay', 'Lightning', '13', 'OTT', 'Ottawa', 'Senators', '23', 'Canadian Tire Centre', '13', 'OTT', 'Ottawa', 'Senators', '1', '0', '0', '0', '0', '0', '1', '2', '37', '22', '62.7', '2', '0', '0.0', '2', '0', '100.0', '0', '1', '5', '3', '23', '2', '4', '33']"
"['', '27181', '2014-02-01', '00:00:00 GMT', '13', 'OTT', 'Ottawa', 'Senators', '12', 'TOR', 'Toronto', 'Maple Leafs', '1', 'Air Canada Center', '13', 'OTT', 'Ottawa', 'Senators', '0', '1', '0', '0', '0', '0', '0', '0', '36', '25', '59.0', '1', '0', '0.0', '4', '1', '75.0', '0', '0', '3', '6', '23', '7', '17', '38']"
"['', '27190', '2014-02-03', '00:00:00 GMT', '13', 'OTT', 'Ottawa', 'Senators', '10', 'PIT', 'Pittsburgh', 'Penguins', '40', 'Consol Energy Center', '13', 'OTT', 'Ottawa', 'Senators', '0', '0', '0', '1', '0', '0', '0', '1', '30', '30', '50.0', '2', '0', '0.0', '2', '1', '50.0', '0', '0', '1', '2', '24', '6', '15', '22']"
"['', '27202', '2014-02-04', '01:00:00 GMT', '13', 'OTT', 'Ottawa', 'Senators', '17', 'STL', 'St. Louis', 'Blues', '24', 'Scottrade Center', '13', 'OTT', 'Ottawa', 'Senators', '1', '0', '0', '0', '0', '0', '0', '2', '32', '38', '45.7', '0', '0', '0.0', '7', '0', '100.0', '0', '0', '4', '4', '27', '10', '28', '20']"
"['', '27213', '2014-02-06', '00:30:00 GMT', '15', 'BUF', 'Buffalo', 'Sabres', '13', 'OTT', 'Ottawa', 'Senators', '23', 'Canadian Tire Centre', '13', 'OTT', 'Ottawa', 'Senators', '1', '0', '0', '0', '0', '0', '1', '2', '26', '29', '47.3', '3', '0', '0.0', '5', '0', '100.0', '0', '0', '3', '2', '33', '7', '14', '37']"
"['', '27588', '2014-02-08', '20:00:00 GMT', '13', 'OTT', 'Ottawa', 'Senators', '11', 'BOS', 'Boston', 'Bruins', '27', 'TD Garden', '13', 'OTT', 'Ottawa', 'Senators', '0', '1', '0', '0', '0', '0', '0', '0', '27', '31', '46.6', '3', '1', '33.3', '4', '1', '75.0', '0', '0', '2', '7', '26', '5', '13', '22']"
"['', '27243', '2014-02-27', '00:30:00 GMT', '16', 'DET', 'Detroit', 'Red Wings', '13', 'OTT', 'Ottawa', 'Senators', '23', 'Canadian Tire Centre', '13', 'OTT', 'Ottawa', 'Senators', '0', '1', '0', '0', '0', '0', '0', '0', '31', '27', '53.4', '5', '0', '0.0', '2', '1', '50.0', '0', '0', '1', '6', '37', '6', '20', '18']"
"['', '27266', '2014-03-02', '21:00:00 GMT', '13', 'OTT', 'Ottawa', 'Senators', '21', 'VAN', 'Vancouver', 'Canucks', '7', 'Rogers Arena', '13', 'OTT', 'Ottawa', 'Senators', '1', '0', '0', '0', '0', '0', '1', '2', '29', '36', '44.6', '2', '1', '50.0', '3', '1', '66.7', '0', '0', '4', '2', '24', '6', '12', '17']"
"['', '27283', '2014-03-04', '02:30:00 GMT', '13', 'OTT', 'Ottawa', 'Senators', '24', 'EDM', 'Edmonton', 'Oilers', '22', 'Rogers Place', '13', 'OTT', 'Ottawa', 'Senators', '0', '1', '0', '0', '0', '0', '0', '0', '29', '34', '46.0', '1', '0', '0.0', '2', '1', '50.0', '0', '0', '2', '3', '34', '3', '6', '16']"
"['', '27287', '2014-03-05', '02:30:00 GMT', '13', 'OTT', 'Ottawa', 'Senators', '23', 'CGY', 'Calgary', 'Flames', '18', 'Scotiabank Saddledome', '13', 'OTT', 'Ottawa', 'Senators', '0', '1', '0', '0', '0', '0', '0', '0', '33', '37', '47.1', '5', '0', '0.0', '6', '2', '66.7', '0', '0', '1', '4', '30', '10', '23', '11']"
"['', '27304', '2014-03-08', '20:00:00 GMT', '13', 'OTT', 'Ottawa', 'Senators', '2', 'WPJ', 'Winnipeg', 'Jets', '39', 'MTS Centre', '13', 'OTT', 'Ottawa', 'Senators', '1', '0', '0', '0', '0', '0', '1', '2', '28', '37', '43.1', '3', '2', '66.7', '7', '2', '71.4', '0', '0', '5', '3', '27', '10', '23', '31']"
"['', '27320', '2014-03-10', '23:30:00 GMT', '18', 'NSH', 'Nashville', 'Predators', '13', 'OTT', 'Ottawa', 'Senators', '23', 'Canadian Tire Centre', '13', 'OTT', 'Ottawa', 'Senators', '0', '0', '0', '1', '0', '0', '0', '1', '35', '37', '48.6', '1', '0', '0.0', '3', '0', '100.0', '0', '0', '3', '4', '34', '4', '11', '43']"
"['', '27357', '2014-03-15', '23:00:00 GMT', '13', 'OTT', 'Ottawa', 'Senators', '14', 'MTL', 'Montreal', 'Canadiens', '4', 'Bell Centre', '13', 'OTT', 'Ottawa', 'Senators', '0', '0', '0', '1', '0', '0', '0', '1', '25', '46', '35.2', '3', '0', '0.0', '6', '1', '83.3', '0', '0', '4', '5', '30', '11', '41', '31']"
"['', '27368', '2014-03-16', '21:00:00 GMT', '22', 'COL', 'Colorado', 'Avalanche', '13', 'OTT', 'Ottawa', 'Senators', '23', 'Canadian Tire Centre', '13', 'OTT', 'Ottawa', 'Senators', '0', '1', '0', '0', '0', '0', '0', '0', '33', '32', '50.8', '2', '0', '0.0', '1', '1', '0.0', '0', '0', '1', '3', '38', '1', '2', '26']"
"['', '27382', '2014-03-18', '23:30:00 GMT', '9', 'NYR', 'New York', 'Rangers', '13', 'OTT', 'Ottawa', 'Senators', '23', 'Canadian Tire Centre', '13', 'OTT', 'Ottawa', 'Senators', '0', '1', '0', '0', '0', '0', '0', '0', '34', '22', '60.7', '1', '1', '100.0', '3', '0', '100.0', '0', '1', '4', '8', '35', '3', '6', '26']"
"['', '27396', '2014-03-20', '23:30:00 GMT', '1', 'TBL', 'Tampa Bay', 'Lightning', '13', 'OTT', 'Ottawa', 'Senators', '23', 'Canadian Tire Centre', '13', 'OTT', 'Ottawa', 'Senators', '0', '1', '0', '0', '0', '0', '0', '0', '27', '30', '47.4', '4', '1', '25.0', '5', '2', '60.0', '1', '0', '4', '5', '27', '7', '14', '35']"
"['', '27409', '2014-03-22', '19:00:00 GMT', '13', 'OTT', 'Ottawa', 'Senators', '27', 'DAL', 'Dallas', 'Stars', '2', 'American Airlines Center', '13', 'OTT', 'Ottawa', 'Senators', '0', '1', '0', '0', '0', '0', '0', '0', '30', '29', '50.8', '5', '0', '0.0', '4', '0', '100.0', '0', '0', '1', '3', '26', '11', '28', '23']"
"['', '27427', '2014-03-24', '23:30:00 GMT', '13', 'OTT', 'Ottawa', 'Senators', '1', 'TBL', 'Tampa Bay', 'Lightning', '26', 'Tampa Bay Times Forum', '13', 'OTT', 'Ottawa', 'Senators', '1', '0', '0', '0', '0', '0', '0', '2', '38', '22', '63.3', '2', '0', '0.0', '7', '2', '71.4', '0', '0', '3', '3', '29', '9', '18', '15']"
"['', '27435', '2014-03-25', '23:30:00 GMT', '13', 'OTT', 'Ottawa', 'Senators', '4', 'FLO', 'Florida', 'Panthers', '3', 'BB&T Center', '13', 'OTT', 'Ottawa', 'Senators', '0', '0', '0', '1', '0', '0', '0', '1', '36', '25', '59.0', '2', '1', '50.0', '2', '0', '100.0', '0', '0', '2', '2', '37', '3', '9', '33']"
"['', '27455', '2014-03-28', '23:30:00 GMT', '20', 'CHI', 'Chicago', 'Blackhawks', '13', 'OTT', 'Ottawa', 'Senators', '23', 'Canadian Tire Centre', '13', 'OTT', 'Ottawa', 'Senators', '1', '0', '0', '0', '0', '0', '1', '2', '21', '44', '32.3', '1', '1', '100.0', '6', '1', '83.3', '1', '1', '5', '3', '24', '8', '19', '38']"
"['', '27469', '2014-03-30', '21:00:00 GMT', '23', 'CGY', 'Calgary', 'Flames', '13', 'OTT', 'Ottawa', 'Senators', '23', 'Canadian Tire Centre', '13', 'OTT', 'Ottawa', 'Senators', '1', '0', '0', '0', '0', '0', '1', '2', '30', '28', '51.7', '2', '0', '0.0', '3', '0', '100.0', '0', '0', '6', '3', '31', '5', '21', '31']"
"['', '27475', '2014-03-31', '23:30:00 GMT', '3', 'CAR', 'Carolina', 'Hurricanes', '13', 'OTT', 'Ottawa', 'Senators', '23', 'Canadian Tire Centre', '13', 'OTT', 'Ottawa', 'Senators', '1', '0', '0', '0', '0', '0', '0', '2', '31', '31', '50.0', '2', '0', '0.0', '3', '0', '100.0', '0', '0', '1', '1', '28', '4', '8', '29']"
"['', '27490', '2014-04-02', '23:00:00 GMT', '8', 'NYI', 'New York', 'Islanders', '13', 'OTT', 'Ottawa', 'Senators', '23', 'Canadian Tire Centre', '13', 'OTT', 'Ottawa', 'Senators', '0', '1', '0', '0', '0', '0', '0', '0', '34', '19', '64.2', '5', '1', '20.0', '2', '2', '0.0', '0', '0', '1', '2', '35', '4', '8', '21']"
"['', '27503', '2014-04-04', '23:00:00 GMT', '14', 'MTL', 'Montreal', 'Canadiens', '13', 'OTT', 'Ottawa', 'Senators', '23', 'Canadian Tire Centre', '13', 'OTT', 'Ottawa', 'Senators', '0', '1', '0', '0', '0', '0', '0', '0', '44', '23', '65.7', '4', '0', '0.0', '3', '0', '100.0', '0', '0', '4', '7', '39', '10', '47', '34']"
"['', '27516', '2014-04-05', '23:00:00 GMT', '13', 'OTT', 'Ottawa', 'Senators', '9', 'NYR', 'New York', 'Rangers', '12', 'Madison Square Garden', '13', 'OTT', 'Ottawa', 'Senators', '1', '0', '0', '0', '0', '0', '1', '2', '27', '34', '44.3', '1', '0', '0.0', '2', '0', '100.0', '0', '0', '3', '2', '31', '4', '8', '14']"
"['', '27531', '2014-04-08', '23:00:00 GMT', '13', 'OTT', 'Ottawa', 'Senators', '8', 'NYI', 'New York', 'Islanders', '16', 'Nassau Veterans Memorial Coliseum', '13', 'OTT', 'Ottawa', 'Senators', '1', '0', '0', '0', '0', '0', '1', '2', '34', '32', '51.5', '5', '1', '20.0', '2', '0', '100.0', '0', '0', '4', '1', '28', '6', '15', '8']"
"['', '27547', '2014-04-10', '23:30:00 GMT', '7', 'NJD', 'New Jersey', 'Devils', '13', 'OTT', 'Ottawa', 'Senators', '23', 'Canadian Tire Centre', '13', 'OTT', 'Ottawa', 'Senators', '1', '0', '0', '0', '0', '0', '0', '2', '27', '20', '57.4', '3', '0', '0.0', '2', '0', '100.0', '0', '0', '1', '1', '30', '2', '4', '28']"
"['', '27564', '2014-04-12', '23:00:00 GMT', '12', 'TOR', 'Toronto', 'Maple Leafs', '13', 'OTT', 'Ottawa', 'Senators', '23', 'Canadian Tire Centre', '13', 'OTT', 'Ottawa', 'Senators', '1', '0', '0', '0', '0', '0', '1', '2', '32', '23', '58.2', '3', '1', '33.3', '4', '0', '100.0', '0', '0', '1', '0', '36', '4', '8', '20']"
"['', '27575', '2014-04-13', '23:00:00 GMT', '13', 'OTT', 'Ottawa', 'Senators', '10', 'PIT', 'Pittsburgh', 'Penguins', '40', 'Consol Energy Center', '13', 'OTT', 'Ottawa', 'Senators', '1', '0', '0', '0', '0', '0', '0', '2', '32', '34', '48.5', '5', '2', '40.0', '4', '1', '75.0', '0', '0', '2', '2', '31', '5', '13', '24']"
