"['#Date/Time of Update: 2018-12-10 19:03:00 GMT', '#Game ID', '#Game Date', '#Game Time', '#Away Team ID', '#Away Team Abbr.', '#Away Team City', '#Away Team Name', '#Home Team ID', '#Home Team Abbr.', '#Home Team City', '#Home Team Name', '#Venue ID', '#Venue Name', '#Team ID', '#Team Abbr.', '#Team City', '#Team Name', '#Wins', '#Losses', '#OvertimeWins', '#OvertimeLosses', '#ShootoutWins', '#ShootoutLosses', '#Rows', '#Points', '#FaceoffWins', '#FaceoffLosses', '#FaceoffPercent', '#Powerplays', '#PowerplayGoals', '#PowerplayPercent', '#PenaltyKills', '#PenaltyKillGoalsAllowed', '#PenaltyKillPercent', '#ShorthandedGoalsFor', '#ShorthandedGoalsAgainst', '#GoalsFor', '#GoalsAgainst', '#Shots', '#Penalties', '#PenaltyMinutes', '#Hits']"
"['', '11251', '2010-10-08', '23:00:00 GMT', '27', 'DAL', 'Dallas', 'Stars', '7', 'NJD', 'New Jersey', 'Devils', '37', 'Prudential Center', '27', 'DAL', 'Dallas', 'Stars', '1', '0', '0', '0', '0', '0', '1', '2', '24', '15', '61.5', '1', '0', '0.0', '1', '1', '0.0', '0', '0', '4', '3', '24', '3', '6', '23']"
"['', '11257', '2010-10-09', '23:00:00 GMT', '27', 'DAL', 'Dallas', 'Stars', '8', 'NYI', 'New York', 'Islanders', '16', 'Nassau Veterans Memorial Coliseum', '27', 'DAL', 'Dallas', 'Stars', '1', '0', '0', '0', '0', '0', '0', '2', '23', '31', '42.6', '7', '1', '14.3', '7', '3', '57.1', '0', '0', '4', '4', '18', '8', '16', '21']"
"['', '11287', '2010-10-14', '00:30:00 GMT', '16', 'DET', 'Detroit', 'Red Wings', '27', 'DAL', 'Dallas', 'Stars', '2', 'American Airlines Center', '27', 'DAL', 'Dallas', 'Stars', '1', '0', '0', '0', '0', '0', '1', '2', '29', '31', '48.3', '3', '1', '33.3', '5', '1', '80.0', '0', '0', '4', '1', '11', '5', '10', '30']"
"['', '11302', '2010-10-16', '00:00:00 GMT', '17', 'STL', 'St. Louis', 'Blues', '27', 'DAL', 'Dallas', 'Stars', '2', 'American Airlines Center', '27', 'DAL', 'Dallas', 'Stars', '1', '0', '0', '0', '0', '0', '0', '2', '34', '22', '60.7', '4', '0', '0.0', '5', '1', '80.0', '0', '0', '2', '2', '23', '6', '12', '49']"
"['', '11314', '2010-10-18', '23:30:00 GMT', '27', 'DAL', 'Dallas', 'Stars', '1', 'TBL', 'Tampa Bay', 'Lightning', '26', 'St. Pete Times Forum', '27', 'DAL', 'Dallas', 'Stars', '0', '1', '0', '0', '0', '0', '0', '0', '29', '37', '43.9', '5', '0', '0.0', '5', '4', '20.0', '1', '0', '4', '5', '15', '5', '10', '16']"
"['', '11330', '2010-10-21', '23:30:00 GMT', '27', 'DAL', 'Dallas', 'Stars', '4', 'FLO', 'Florida', 'Panthers', '3', 'BankAtlantic Center', '27', 'DAL', 'Dallas', 'Stars', '1', '0', '0', '0', '0', '0', '1', '2', '26', '29', '47.3', '2', '0', '0.0', '3', '0', '100.0', '0', '0', '4', '1', '25', '5', '21', '22']"
"['', '11347', '2010-10-23', '00:00:00 GMT', '18', 'NSH', 'Nashville', 'Predators', '27', 'DAL', 'Dallas', 'Stars', '2', 'American Airlines Center', '27', 'DAL', 'Dallas', 'Stars', '0', '1', '0', '0', '0', '0', '0', '0', '33', '24', '57.9', '3', '0', '0.0', '2', '0', '100.0', '0', '0', '0', '1', '30', '2', '4', '22']"
"['', '11363', '2010-10-26', '01:00:00 GMT', '29', 'ANA', 'Anaheim', 'Ducks', '27', 'DAL', 'Dallas', 'Stars', '2', 'American Airlines Center', '27', 'DAL', 'Dallas', 'Stars', '0', '1', '0', '0', '0', '0', '0', '0', '27', '29', '48.2', '5', '1', '20.0', '2', '1', '50.0', '0', '0', '2', '5', '35', '4', '19', '23']"
"['', '11377', '2010-10-28', '00:30:00 GMT', '28', 'LAK', 'Los Angeles', 'Kings', '27', 'DAL', 'Dallas', 'Stars', '2', 'American Airlines Center', '27', 'DAL', 'Dallas', 'Stars', '0', '1', '0', '0', '0', '0', '0', '0', '33', '35', '48.5', '7', '1', '14.3', '2', '1', '50.0', '0', '1', '2', '5', '30', '5', '13', '38']"
"['', '11391', '2010-10-30', '00:00:00 GMT', '15', 'BUF', 'Buffalo', 'Sabres', '27', 'DAL', 'Dallas', 'Stars', '2', 'American Airlines Center', '27', 'DAL', 'Dallas', 'Stars', '1', '0', '0', '0', '0', '0', '1', '2', '31', '24', '56.4', '6', '2', '33.3', '2', '0', '100.0', '1', '0', '4', '0', '37', '2', '4', '30']"
"['', '11411', '2010-11-03', '00:30:00 GMT', '10', 'PIT', 'Pittsburgh', 'Penguins', '27', 'DAL', 'Dallas', 'Stars', '2', 'American Airlines Center', '27', 'DAL', 'Dallas', 'Stars', '1', '0', '0', '0', '0', '0', '1', '2', '28', '30', '48.3', '5', '0', '0.0', '3', '0', '100.0', '0', '0', '5', '2', '24', '10', '32', '23']"
"['', '11426', '2010-11-05', '00:30:00 GMT', '30', 'PHX', 'Phoenix', 'Coyotes', '27', 'DAL', 'Dallas', 'Stars', '2', 'American Airlines Center', '27', 'DAL', 'Dallas', 'Stars', '1', '0', '0', '0', '0', '0', '1', '2', '30', '37', '44.8', '6', '4', '66.7', '6', '1', '83.3', '0', '0', '6', '3', '25', '6', '12', '20']"
"['', '11437', '2010-11-06', '01:00:00 GMT', '27', 'DAL', 'Dallas', 'Stars', '22', 'COL', 'Colorado', 'Avalanche', '19', 'Pepsi Center', '27', 'DAL', 'Dallas', 'Stars', '0', '1', '0', '0', '0', '0', '0', '0', '20', '32', '38.5', '3', '0', '0.0', '2', '0', '100.0', '0', '1', '0', '5', '31', '7', '17', '23']"
"['', '11467', '2010-11-11', '03:30:00 GMT', '27', 'DAL', 'Dallas', 'Stars', '28', 'LAK', 'Los Angeles', 'Kings', '25', 'Staples Center', '27', 'DAL', 'Dallas', 'Stars', '0', '1', '0', '0', '0', '0', '0', '0', '36', '26', '58.1', '5', '0', '0.0', '7', '2', '71.4', '0', '0', '1', '3', '27', '13', '49', '29']"
"['', '11474', '2010-11-12', '03:00:00 GMT', '27', 'DAL', 'Dallas', 'Stars', '29', 'ANA', 'Anaheim', 'Ducks', '8', 'Honda Center', '27', 'DAL', 'Dallas', 'Stars', '0', '1', '0', '0', '0', '0', '0', '0', '33', '35', '48.5', '2', '0', '0.0', '3', '1', '66.7', '0', '0', '2', '4', '26', '3', '6', '24']"
"['', '11498', '2010-11-16', '02:00:00 GMT', '29', 'ANA', 'Anaheim', 'Ducks', '27', 'DAL', 'Dallas', 'Stars', '2', 'American Airlines Center', '27', 'DAL', 'Dallas', 'Stars', '1', '0', '0', '0', '0', '0', '1', '2', '29', '21', '58.0', '4', '1', '25.0', '6', '1', '83.3', '0', '0', '2', '1', '24', '9', '24', '30']"
"['', '11515', '2010-11-18', '01:30:00 GMT', '26', 'SJS', 'San Jose', 'Sharks', '27', 'DAL', 'Dallas', 'Stars', '2', 'American Airlines Center', '27', 'DAL', 'Dallas', 'Stars', '1', '0', '0', '0', '0', '0', '1', '2', '28', '49', '36.4', '5', '1', '20.0', '3', '0', '100.0', '0', '0', '5', '4', '36', '9', '35', '31']"
"['', '11531', '2010-11-20', '01:00:00 GMT', '22', 'COL', 'Colorado', 'Avalanche', '27', 'DAL', 'Dallas', 'Stars', '2', 'American Airlines Center', '27', 'DAL', 'Dallas', 'Stars', '0', '0', '0', '1', '0', '0', '0', '1', '30', '28', '51.7', '5', '1', '20.0', '3', '1', '66.7', '0', '0', '3', '3', '26', '5', '10', '40']"
"['', '11543', '2010-11-22', '00:00:00 GMT', '27', 'DAL', 'Dallas', 'Stars', '12', 'TOR', 'Toronto', 'Maple Leafs', '1', 'Air Canada Center', '27', 'DAL', 'Dallas', 'Stars', '0', '1', '0', '0', '0', '0', '0', '0', '28', '33', '45.9', '2', '0', '0.0', '1', '0', '100.0', '0', '0', '1', '4', '21', '2', '7', '29']"
"['', '11555', '2010-11-24', '00:30:00 GMT', '27', 'DAL', 'Dallas', 'Stars', '13', 'OTT', 'Ottawa', 'Senators', '23', 'Scotiabank Place', '27', 'DAL', 'Dallas', 'Stars', '1', '0', '0', '0', '0', '0', '1', '2', '23', '32', '41.8', '4', '0', '0.0', '2', '0', '100.0', '0', '0', '2', '1', '24', '3', '6', '18']"
"['', '11574', '2010-11-26', '01:30:00 GMT', '17', 'STL', 'St. Louis', 'Blues', '27', 'DAL', 'Dallas', 'Stars', '2', 'American Airlines Center', '27', 'DAL', 'Dallas', 'Stars', '1', '0', '0', '0', '0', '0', '1', '2', '27', '25', '51.9', '3', '0', '0.0', '1', '0', '100.0', '1', '1', '3', '2', '19', '3', '12', '38']"
"['', '11581', '2010-11-27', '01:00:00 GMT', '27', 'DAL', 'Dallas', 'Stars', '17', 'STL', 'St. Louis', 'Blues', '24', 'Scottrade Center', '27', 'DAL', 'Dallas', 'Stars', '1', '0', '0', '0', '0', '0', '1', '2', '23', '32', '41.8', '3', '1', '33.3', '2', '0', '100.0', '0', '0', '2', '1', '21', '4', '11', '17']"
"['', '11591', '2010-11-29', '00:30:00 GMT', '27', 'DAL', 'Dallas', 'Stars', '3', 'CAR', 'Carolina', 'Hurricanes', '21', 'RBC Center', '27', 'DAL', 'Dallas', 'Stars', '1', '0', '0', '0', '0', '0', '1', '2', '35', '33', '51.5', '3', '0', '0.0', '4', '0', '100.0', '0', '0', '4', '1', '29', '8', '16', '20']"
"['', '11613', '2010-12-02', '01:30:00 GMT', '5', 'WSH', 'Washington', 'Capitals', '27', 'DAL', 'Dallas', 'Stars', '2', 'American Airlines Center', '27', 'DAL', 'Dallas', 'Stars', '1', '0', '0', '0', '0', '0', '1', '2', '28', '30', '48.3', '6', '1', '16.7', '3', '1', '66.7', '0', '0', '2', '1', '19', '4', '11', '33']"
"['', '11628', '2010-12-04', '01:00:00 GMT', '25', 'MIN', 'Minnesota', 'Wild', '27', 'DAL', 'Dallas', 'Stars', '2', 'American Airlines Center', '27', 'DAL', 'Dallas', 'Stars', '1', '0', '0', '0', '0', '0', '1', '2', '30', '31', '49.2', '5', '2', '40.0', '3', '0', '100.0', '0', '0', '4', '3', '29', '4', '8', '39']"
"['', '11642', '2010-12-06', '00:00:00 GMT', '27', 'DAL', 'Dallas', 'Stars', '19', 'CBJ', 'Columbus', 'Blue Jackets', '17', 'Nationwide Arena', '27', 'DAL', 'Dallas', 'Stars', '0', '0', '0', '1', '0', '0', '0', '1', '31', '30', '50.8', '4', '0', '0.0', '3', '1', '66.7', '0', '0', '2', '2', '16', '3', '6', '18']"
"['', '11651', '2010-12-08', '01:30:00 GMT', '27', 'DAL', 'Dallas', 'Stars', '20', 'CHI', 'Chicago', 'Blackhawks', '28', 'United Center', '27', 'DAL', 'Dallas', 'Stars', '0', '1', '0', '0', '0', '0', '0', '0', '21', '32', '39.6', '1', '0', '0.0', '6', '1', '83.3', '0', '0', '3', '5', '28', '7', '17', '36']"
"['', '11664', '2010-12-10', '01:30:00 GMT', '3', 'CAR', 'Carolina', 'Hurricanes', '27', 'DAL', 'Dallas', 'Stars', '2', 'American Airlines Center', '27', 'DAL', 'Dallas', 'Stars', '1', '0', '0', '0', '0', '0', '0', '2', '29', '29', '50.0', '4', '0', '0.0', '5', '0', '100.0', '0', '0', '1', '1', '28', '5', '10', '31']"
"['', '11675', '2010-12-11', '01:00:00 GMT', '27', 'DAL', 'Dallas', 'Stars', '30', 'PHX', 'Phoenix', 'Coyotes', '6', 'Jobing.com Arena', '27', 'DAL', 'Dallas', 'Stars', '0', '1', '0', '0', '0', '0', '0', '0', '31', '43', '41.9', '7', '1', '14.3', '4', '1', '75.0', '0', '1', '2', '5', '33', '5', '13', '19']"
"['', '11688', '2010-12-13', '03:30:00 GMT', '27', 'DAL', 'Dallas', 'Stars', '26', 'SJS', 'San Jose', 'Sharks', '9', 'HP Pavilion at San Jose', '27', 'DAL', 'Dallas', 'Stars', '1', '0', '0', '0', '0', '0', '0', '2', '28', '25', '52.8', '3', '1', '33.3', '1', '0', '100.0', '0', '0', '2', '2', '29', '1', '2', '16']"
"['', '11708', '2010-12-16', '01:30:00 GMT', '26', 'SJS', 'San Jose', 'Sharks', '27', 'DAL', 'Dallas', 'Stars', '2', 'American Airlines Center', '27', 'DAL', 'Dallas', 'Stars', '0', '0', '0', '1', '0', '0', '0', '1', '33', '20', '62.3', '2', '2', '100.0', '7', '1', '85.7', '0', '0', '3', '4', '15', '7', '14', '47']"
"['', '11720', '2010-12-18', '00:00:00 GMT', '27', 'DAL', 'Dallas', 'Stars', '19', 'CBJ', 'Columbus', 'Blue Jackets', '17', 'Nationwide Arena', '27', 'DAL', 'Dallas', 'Stars', '1', '0', '0', '0', '0', '0', '1', '2', '35', '35', '50.0', '6', '1', '16.7', '4', '0', '100.0', '0', '0', '2', '1', '21', '12', '38', '22']"
"['', '11726', '2010-12-19', '22:00:00 GMT', '27', 'DAL', 'Dallas', 'Stars', '16', 'DET', 'Detroit', 'Red Wings', '11', 'Joe Louis Arena', '27', 'DAL', 'Dallas', 'Stars', '1', '0', '0', '0', '0', '0', '1', '2', '28', '33', '45.9', '6', '1', '16.7', '3', '1', '66.7', '0', '0', '4', '3', '28', '5', '13', '22']"
"['', '11741', '2010-12-21', '02:00:00 GMT', '14', 'MTL', 'Montreal', 'Canadiens', '27', 'DAL', 'Dallas', 'Stars', '2', 'American Airlines Center', '27', 'DAL', 'Dallas', 'Stars', '1', '0', '0', '0', '0', '0', '1', '2', '24', '34', '41.4', '2', '1', '50.0', '4', '0', '100.0', '1', '1', '5', '2', '12', '6', '15', '28']"
"['', '11757', '2010-12-23', '01:30:00 GMT', '23', 'CGY', 'Calgary', 'Flames', '27', 'DAL', 'Dallas', 'Stars', '2', 'American Airlines Center', '27', 'DAL', 'Dallas', 'Stars', '0', '0', '0', '1', '0', '0', '0', '1', '28', '29', '49.1', '2', '1', '50.0', '4', '1', '75.0', '0', '0', '2', '2', '14', '6', '18', '35']"
"['', '11769', '2010-12-26', '01:00:00 GMT', '30', 'PHX', 'Phoenix', 'Coyotes', '27', 'DAL', 'Dallas', 'Stars', '2', 'American Airlines Center', '27', 'DAL', 'Dallas', 'Stars', '0', '1', '0', '0', '0', '0', '0', '0', '21', '36', '36.8', '2', '0', '0.0', '4', '0', '100.0', '0', '0', '0', '1', '29', '5', '13', '27']"
"['', '11783', '2010-12-28', '01:00:00 GMT', '27', 'DAL', 'Dallas', 'Stars', '18', 'NSH', 'Nashville', 'Predators', '15', 'Sommet Center', '27', 'DAL', 'Dallas', 'Stars', '1', '0', '0', '0', '0', '0', '1', '2', '29', '26', '52.7', '2', '0', '0.0', '6', '1', '83.3', '0', '0', '4', '2', '21', '9', '24', '24']"
"['', '11791', '2010-12-29', '01:30:00 GMT', '16', 'DET', 'Detroit', 'Red Wings', '27', 'DAL', 'Dallas', 'Stars', '2', 'American Airlines Center', '27', 'DAL', 'Dallas', 'Stars', '0', '1', '0', '0', '0', '0', '0', '0', '22', '36', '37.9', '3', '0', '0.0', '2', '2', '0.0', '0', '0', '3', '7', '28', '3', '6', '35']"
"['', '11806', '2010-12-31', '01:00:00 GMT', '21', 'VAN', 'Vancouver', 'Canucks', '27', 'DAL', 'Dallas', 'Stars', '2', 'American Airlines Center', '27', 'DAL', 'Dallas', 'Stars', '0', '1', '0', '0', '0', '0', '0', '0', '35', '23', '60.3', '4', '1', '25.0', '6', '3', '50.0', '0', '0', '1', '4', '43', '8', '24', '24']"
"['', '11818', '2011-01-02', '23:00:00 GMT', '27', 'DAL', 'Dallas', 'Stars', '17', 'STL', 'St. Louis', 'Blues', '24', 'Scottrade Center', '27', 'DAL', 'Dallas', 'Stars', '1', '0', '0', '0', '0', '0', '1', '2', '40', '27', '59.7', '2', '1', '50.0', '1', '0', '100.0', '0', '0', '4', '2', '23', '4', '14', '20']"
"['', '11836', '2011-01-05', '01:30:00 GMT', '27', 'DAL', 'Dallas', 'Stars', '20', 'CHI', 'Chicago', 'Blackhawks', '28', 'United Center', '27', 'DAL', 'Dallas', 'Stars', '1', '0', '0', '0', '0', '0', '1', '2', '28', '29', '49.1', '3', '3', '100.0', '4', '0', '100.0', '1', '0', '4', '2', '18', '5', '18', '26']"
"['', '11850', '2011-01-07', '01:30:00 GMT', '9', 'NYR', 'New York', 'Rangers', '27', 'DAL', 'Dallas', 'Stars', '2', 'American Airlines Center', '27', 'DAL', 'Dallas', 'Stars', '0', '0', '0', '1', '0', '0', '0', '1', '36', '21', '63.2', '4', '1', '25.0', '4', '1', '75.0', '0', '1', '2', '2', '28', '5', '13', '24']"
"['', '11867', '2011-01-09', '23:00:00 GMT', '27', 'DAL', 'Dallas', 'Stars', '25', 'MIN', 'Minnesota', 'Wild', '30', 'Xcel Energy Center', '27', 'DAL', 'Dallas', 'Stars', '1', '0', '0', '0', '0', '0', '1', '2', '23', '19', '54.8', '3', '0', '0.0', '2', '0', '100.0', '0', '0', '4', '0', '24', '2', '4', '19']"
"['', '11882', '2011-01-11', '01:30:00 GMT', '24', 'EDM', 'Edmonton', 'Oilers', '27', 'DAL', 'Dallas', 'Stars', '2', 'American Airlines Center', '27', 'DAL', 'Dallas', 'Stars', '1', '0', '0', '0', '0', '0', '1', '2', '35', '23', '60.3', '3', '0', '0.0', '3', '0', '100.0', '0', '0', '3', '2', '17', '6', '15', '32']"
"['', '11909', '2011-01-15', '01:00:00 GMT', '2', 'ATL', 'Atlanta', 'Thrashers', '27', 'DAL', 'Dallas', 'Stars', '2', 'American Airlines Center', '27', 'DAL', 'Dallas', 'Stars', '1', '0', '0', '0', '0', '0', '1', '2', '40', '22', '64.5', '6', '4', '66.7', '3', '0', '100.0', '0', '0', '6', '1', '21', '5', '16', '35']"
"['', '11924', '2011-01-17', '01:30:00 GMT', '28', 'LAK', 'Los Angeles', 'Kings', '27', 'DAL', 'Dallas', 'Stars', '2', 'American Airlines Center', '27', 'DAL', 'Dallas', 'Stars', '1', '0', '0', '0', '0', '0', '1', '2', '25', '31', '44.6', '5', '2', '40.0', '1', '0', '100.0', '0', '0', '2', '1', '25', '2', '4', '37']"
"['', '11946', '2011-01-20', '02:00:00 GMT', '27', 'DAL', 'Dallas', 'Stars', '24', 'EDM', 'Edmonton', 'Oilers', '22', 'Rogers Place', '27', 'DAL', 'Dallas', 'Stars', '1', '0', '0', '0', '0', '0', '1', '2', '26', '26', '50.0', '3', '1', '33.3', '4', '0', '100.0', '0', '1', '4', '2', '20', '4', '8', '23']"
"['', '11953', '2011-01-21', '02:00:00 GMT', '27', 'DAL', 'Dallas', 'Stars', '23', 'CGY', 'Calgary', 'Flames', '18', 'Scotiabank Saddledome', '27', 'DAL', 'Dallas', 'Stars', '0', '1', '0', '0', '0', '0', '0', '0', '35', '28', '55.6', '2', '0', '0.0', '3', '1', '66.7', '0', '0', '4', '7', '17', '4', '11', '22']"
"['', '11974', '2011-01-24', '03:00:00 GMT', '27', 'DAL', 'Dallas', 'Stars', '21', 'VAN', 'Vancouver', 'Canucks', '7', 'Canada Hockey Place', '27', 'DAL', 'Dallas', 'Stars', '0', '1', '0', '0', '0', '0', '0', '0', '25', '40', '38.5', '3', '0', '0.0', '6', '3', '50.0', '0', '0', '1', '7', '25', '12', '32', '30']"
"['', '11988', '2011-01-26', '00:30:00 GMT', '24', 'EDM', 'Edmonton', 'Oilers', '27', 'DAL', 'Dallas', 'Stars', '2', 'American Airlines Center', '27', 'DAL', 'Dallas', 'Stars', '1', '0', '0', '0', '0', '0', '1', '2', '35', '16', '68.6', '3', '1', '33.3', '3', '1', '66.7', '0', '0', '3', '1', '18', '13', '54', '31']"
"['', '12004', '2011-02-01', '01:30:00 GMT', '21', 'VAN', 'Vancouver', 'Canucks', '27', 'DAL', 'Dallas', 'Stars', '2', 'American Airlines Center', '27', 'DAL', 'Dallas', 'Stars', '0', '1', '0', '0', '0', '0', '0', '0', '47', '27', '63.5', '4', '0', '0.0', '3', '2', '33.3', '0', '1', '1', '4', '25', '3', '6', '48']"
"['', '12012', '2011-02-03', '00:00:00 GMT', '27', 'DAL', 'Dallas', 'Stars', '11', 'BOS', 'Boston', 'Bruins', '27', 'TD Garden', '27', 'DAL', 'Dallas', 'Stars', '0', '1', '0', '0', '0', '0', '0', '0', '42', '22', '65.6', '6', '0', '0.0', '5', '0', '100.0', '1', '0', '3', '6', '30', '10', '40', '27']"
"['', '12030', '2011-02-05', '00:00:00 GMT', '27', 'DAL', 'Dallas', 'Stars', '6', 'PHI', 'Philadelphia', 'Flyers', '29', 'Wells Fargo Center', '27', 'DAL', 'Dallas', 'Stars', '0', '1', '0', '0', '0', '0', '0', '0', '33', '33', '50.0', '3', '0', '0.0', '3', '0', '100.0', '0', '1', '1', '3', '30', '3', '6', '21']"
"['', '12054', '2011-02-09', '01:30:00 GMT', '30', 'PHX', 'Phoenix', 'Coyotes', '27', 'DAL', 'Dallas', 'Stars', '2', 'American Airlines Center', '27', 'DAL', 'Dallas', 'Stars', '0', '0', '0', '1', '0', '0', '0', '1', '27', '25', '51.9', '1', '0', '0.0', '3', '2', '33.3', '0', '0', '2', '3', '16', '6', '12', '31']"
"['', '12069', '2011-02-11', '01:30:00 GMT', '20', 'CHI', 'Chicago', 'Blackhawks', '27', 'DAL', 'Dallas', 'Stars', '2', 'American Airlines Center', '27', 'DAL', 'Dallas', 'Stars', '1', '0', '0', '0', '0', '0', '0', '2', '27', '29', '48.2', '5', '1', '20.0', '5', '1', '80.0', '0', '0', '3', '3', '32', '7', '14', '39']"
"['', '12080', '2011-02-13', '20:00:00 GMT', '19', 'CBJ', 'Columbus', 'Blue Jackets', '27', 'DAL', 'Dallas', 'Stars', '2', 'American Airlines Center', '27', 'DAL', 'Dallas', 'Stars', '0', '1', '0', '0', '0', '0', '0', '0', '25', '33', '43.1', '6', '1', '16.7', '1', '0', '100.0', '0', '0', '1', '2', '29', '2', '4', '36']"
"['', '12095', '2011-02-15', '02:00:00 GMT', '27', 'DAL', 'Dallas', 'Stars', '24', 'EDM', 'Edmonton', 'Oilers', '22', 'Rogers Place', '27', 'DAL', 'Dallas', 'Stars', '0', '1', '0', '0', '0', '0', '0', '0', '30', '22', '57.7', '3', '1', '33.3', '5', '2', '60.0', '0', '0', '1', '4', '24', '6', '12', '16']"
"['', '12102', '2011-02-16', '02:30:00 GMT', '27', 'DAL', 'Dallas', 'Stars', '23', 'CGY', 'Calgary', 'Flames', '18', 'Scotiabank Saddledome', '27', 'DAL', 'Dallas', 'Stars', '0', '1', '0', '0', '0', '0', '0', '0', '32', '23', '58.2', '2', '0', '0.0', '3', '1', '66.7', '0', '1', '2', '4', '22', '3', '6', '10']"
"['', '12125', '2011-02-19', '03:00:00 GMT', '27', 'DAL', 'Dallas', 'Stars', '21', 'VAN', 'Vancouver', 'Canucks', '7', 'Canada Hockey Place', '27', 'DAL', 'Dallas', 'Stars', '0', '1', '0', '0', '0', '0', '0', '0', '33', '29', '53.2', '3', '0', '0.0', '2', '0', '100.0', '0', '0', '2', '5', '22', '4', '11', '21']"
"['', '12140', '2011-02-22', '01:30:00 GMT', '7', 'NJD', 'New Jersey', 'Devils', '27', 'DAL', 'Dallas', 'Stars', '2', 'American Airlines Center', '27', 'DAL', 'Dallas', 'Stars', '0', '1', '0', '0', '0', '0', '0', '0', '21', '24', '46.7', '3', '0', '0.0', '4', '1', '75.0', '0', '0', '0', '1', '19', '4', '8', '25']"
"['', '12149', '2011-02-24', '00:30:00 GMT', '27', 'DAL', 'Dallas', 'Stars', '16', 'DET', 'Detroit', 'Red Wings', '11', 'Joe Louis Arena', '27', 'DAL', 'Dallas', 'Stars', '1', '0', '0', '0', '0', '0', '1', '2', '27', '30', '47.4', '3', '0', '0.0', '6', '1', '83.3', '1', '0', '4', '1', '21', '11', '33', '23']"
"['', '12164', '2011-02-26', '19:00:00 GMT', '18', 'NSH', 'Nashville', 'Predators', '27', 'DAL', 'Dallas', 'Stars', '2', 'American Airlines Center', '27', 'DAL', 'Dallas', 'Stars', '1', '0', '0', '0', '0', '0', '1', '2', '36', '28', '56.2', '6', '1', '16.7', '2', '0', '100.0', '0', '0', '3', '2', '22', '3', '6', '37']"
"['', '12188', '2011-03-01', '02:00:00 GMT', '27', 'DAL', 'Dallas', 'Stars', '30', 'PHX', 'Phoenix', 'Coyotes', '6', 'Jobing.com Arena', '27', 'DAL', 'Dallas', 'Stars', '1', '0', '0', '0', '0', '0', '1', '2', '34', '30', '53.1', '5', '1', '20.0', '2', '0', '100.0', '0', '0', '3', '2', '27', '2', '4', '24']"
"['', '12212', '2011-03-04', '03:00:00 GMT', '27', 'DAL', 'Dallas', 'Stars', '29', 'ANA', 'Anaheim', 'Ducks', '8', 'Honda Center', '27', 'DAL', 'Dallas', 'Stars', '0', '0', '0', '1', '0', '0', '0', '1', '29', '28', '50.9', '2', '1', '50.0', '3', '2', '33.3', '0', '0', '3', '4', '23', '5', '10', '22']"
"['', '12222', '2011-03-05', '03:30:00 GMT', '27', 'DAL', 'Dallas', 'Stars', '26', 'SJS', 'San Jose', 'Sharks', '9', 'HP Pavilion at San Jose', '27', 'DAL', 'Dallas', 'Stars', '1', '0', '0', '0', '0', '0', '1', '2', '29', '34', '46.0', '2', '0', '0.0', '4', '0', '100.0', '1', '0', '3', '2', '25', '6', '12', '23']"
"['', '12230', '2011-03-07', '03:30:00 GMT', '27', 'DAL', 'Dallas', 'Stars', '28', 'LAK', 'Los Angeles', 'Kings', '25', 'Staples Center', '27', 'DAL', 'Dallas', 'Stars', '1', '0', '0', '0', '0', '0', '1', '2', '22', '28', '44.0', '3', '0', '0.0', '3', '0', '100.0', '1', '0', '4', '3', '18', '6', '23', '28']"
"['', '12245', '2011-03-09', '02:00:00 GMT', '23', 'CGY', 'Calgary', 'Flames', '27', 'DAL', 'Dallas', 'Stars', '2', 'American Airlines Center', '27', 'DAL', 'Dallas', 'Stars', '0', '0', '0', '1', '0', '0', '0', '1', '37', '33', '52.9', '3', '1', '33.3', '1', '0', '100.0', '0', '0', '3', '3', '31', '1', '2', '27']"
"['', '12260', '2011-03-11', '01:30:00 GMT', '25', 'MIN', 'Minnesota', 'Wild', '27', 'DAL', 'Dallas', 'Stars', '2', 'American Airlines Center', '27', 'DAL', 'Dallas', 'Stars', '1', '0', '0', '0', '0', '0', '1', '2', '27', '24', '52.9', '3', '0', '0.0', '2', '0', '100.0', '0', '0', '4', '0', '27', '3', '6', '18']"
"['', '12273', '2011-03-13', '19:00:00 GMT', '28', 'LAK', 'Los Angeles', 'Kings', '27', 'DAL', 'Dallas', 'Stars', '2', 'American Airlines Center', '27', 'DAL', 'Dallas', 'Stars', '0', '1', '0', '0', '0', '0', '0', '0', '25', '28', '47.2', '3', '0', '0.0', '3', '1', '66.7', '0', '0', '2', '3', '21', '4', '8', '31']"
"['', '12288', '2011-03-15', '00:30:00 GMT', '26', 'SJS', 'San Jose', 'Sharks', '27', 'DAL', 'Dallas', 'Stars', '2', 'American Airlines Center', '27', 'DAL', 'Dallas', 'Stars', '0', '1', '0', '0', '0', '0', '0', '0', '27', '41', '39.7', '4', '1', '25.0', '3', '1', '66.7', '1', '2', '3', '6', '34', '5', '21', '34']"
"['', '12300', '2011-03-17', '00:30:00 GMT', '20', 'CHI', 'Chicago', 'Blackhawks', '27', 'DAL', 'Dallas', 'Stars', '2', 'American Airlines Center', '27', 'DAL', 'Dallas', 'Stars', '1', '0', '0', '0', '0', '0', '1', '2', '25', '34', '42.4', '4', '0', '0.0', '3', '0', '100.0', '0', '0', '5', '0', '22', '5', '13', '26']"
"['', '12314', '2011-03-19', '00:00:00 GMT', '6', 'PHI', 'Philadelphia', 'Flyers', '27', 'DAL', 'Dallas', 'Stars', '2', 'American Airlines Center', '27', 'DAL', 'Dallas', 'Stars', '0', '0', '0', '1', '0', '0', '0', '1', '31', '39', '44.3', '4', '0', '0.0', '1', '0', '100.0', '0', '0', '2', '2', '28', '2', '4', '34']"
"['', '12339', '2011-03-23', '00:30:00 GMT', '29', 'ANA', 'Anaheim', 'Ducks', '27', 'DAL', 'Dallas', 'Stars', '2', 'American Airlines Center', '27', 'DAL', 'Dallas', 'Stars', '0', '0', '0', '1', '0', '0', '0', '1', '30', '29', '50.8', '3', '1', '33.3', '3', '1', '66.7', '0', '0', '3', '4', '23', '4', '8', '33']"
"['', '12362', '2011-03-26', '00:00:00 GMT', '27', 'DAL', 'Dallas', 'Stars', '18', 'NSH', 'Nashville', 'Predators', '15', 'Sommet Center', '27', 'DAL', 'Dallas', 'Stars', '0', '1', '0', '0', '0', '0', '0', '0', '25', '33', '43.1', '3', '1', '33.3', '0', '0', '0.0', '0', '1', '2', '4', '28', '2', '4', '13']"
"['', '12383', '2011-03-29', '02:00:00 GMT', '27', 'DAL', 'Dallas', 'Stars', '30', 'PHX', 'Phoenix', 'Coyotes', '6', 'Jobing.com Arena', '27', 'DAL', 'Dallas', 'Stars', '0', '0', '0', '1', '0', '0', '0', '1', '27', '34', '44.3', '2', '1', '50.0', '1', '0', '100.0', '0', '0', '1', '1', '44', '1', '2', '28']"
"['', '12398', '2011-03-31', '02:30:00 GMT', '27', 'DAL', 'Dallas', 'Stars', '26', 'SJS', 'San Jose', 'Sharks', '9', 'HP Pavilion at San Jose', '27', 'DAL', 'Dallas', 'Stars', '0', '1', '0', '0', '0', '0', '0', '0', '22', '31', '41.5', '3', '0', '0.0', '3', '1', '66.7', '0', '0', '0', '6', '29', '3', '6', '21']"
"['', '12406', '2011-04-02', '20:00:00 GMT', '27', 'DAL', 'Dallas', 'Stars', '28', 'LAK', 'Los Angeles', 'Kings', '25', 'Staples Center', '27', 'DAL', 'Dallas', 'Stars', '0', '1', '0', '0', '0', '0', '0', '0', '22', '33', '40.0', '0', '0', '0.0', '0', '0', '0.0', '0', '0', '1', '3', '24', '1', '2', '30']"
"['', '12420', '2011-04-03', '00:00:00 GMT', '27', 'DAL', 'Dallas', 'Stars', '29', 'ANA', 'Anaheim', 'Ducks', '8', 'Honda Center', '27', 'DAL', 'Dallas', 'Stars', '1', '0', '0', '0', '0', '0', '1', '2', '32', '30', '51.6', '6', '1', '16.7', '3', '0', '100.0', '0', '1', '4', '3', '27', '3', '6', '18']"
"['', '12430', '2011-04-05', '00:30:00 GMT', '19', 'CBJ', 'Columbus', 'Blue Jackets', '27', 'DAL', 'Dallas', 'Stars', '2', 'American Airlines Center', '27', 'DAL', 'Dallas', 'Stars', '1', '0', '0', '0', '0', '0', '1', '2', '21', '21', '50.0', '5', '1', '20.0', '2', '0', '100.0', '0', '0', '3', '0', '27', '3', '6', '24']"
"['', '12442', '2011-04-07', '00:30:00 GMT', '22', 'COL', 'Colorado', 'Avalanche', '27', 'DAL', 'Dallas', 'Stars', '2', 'American Airlines Center', '27', 'DAL', 'Dallas', 'Stars', '1', '0', '0', '0', '0', '0', '1', '2', '28', '26', '51.9', '5', '1', '20.0', '1', '0', '100.0', '0', '0', '4', '2', '33', '1', '2', '39']"
"['', '12451', '2011-04-08', '01:00:00 GMT', '27', 'DAL', 'Dallas', 'Stars', '22', 'COL', 'Colorado', 'Avalanche', '19', 'Pepsi Center', '27', 'DAL', 'Dallas', 'Stars', '1', '0', '0', '0', '0', '0', '1', '2', '24', '21', '53.3', '3', '0', '0.0', '1', '0', '100.0', '0', '1', '3', '2', '25', '1', '2', '14']"
"['', '12469', '2011-04-10', '22:00:00 GMT', '27', 'DAL', 'Dallas', 'Stars', '25', 'MIN', 'Minnesota', 'Wild', '30', 'Xcel Energy Center', '27', 'DAL', 'Dallas', 'Stars', '0', '1', '0', '0', '0', '0', '0', '0', '29', '24', '54.7', '5', '2', '40.0', '2', '1', '50.0', '0', '0', '3', '5', '26', '2', '4', '20']"
