"['#Date/Time of Update: 2018-12-10 19:03:20 GMT', '#Game ID', '#Game Date', '#Game Time', '#Away Team ID', '#Away Team Abbr.', '#Away Team City', '#Away Team Name', '#Home Team ID', '#Home Team Abbr.', '#Home Team City', '#Home Team Name', '#Venue ID', '#Venue Name', '#Team ID', '#Team Abbr.', '#Team City', '#Team Name', '#Wins', '#Losses', '#OvertimeWins', '#OvertimeLosses', '#Points', '#FaceoffWins', '#FaceoffLosses', '#FaceoffPercent', '#Powerplays', '#PowerplayGoals', '#PowerplayPercent', '#PenaltyKills', '#PenaltyKillGoalsAllowed', '#PenaltyKillPercent', '#ShorthandedGoalsFor', '#ShorthandedGoalsAgainst', '#GoalsFor', '#GoalsAgainst', '#Shots', '#Penalties', '#PenaltyMinutes', '#Hits']"
"['', '32629', '2016-10-12', '23:00:00 GMT', '12', 'TOR', 'Toronto', 'Maple Leafs', '13', 'OTT', 'Ottawa', 'Senators', '23', 'Canadian Tire Centre', '13', 'OTT', 'Ottawa', 'Senators', '1', '0', '0', '0', '2', '32', '34', '48.5', '2', '0', '0.0', '4', '0', '100.0', '0', '0', '5', '4', '30', '7', '17', '30']"
"['', '32646', '2016-10-15', '23:00:00 GMT', '14', 'MTL', 'Montreal', 'Canadiens', '13', 'OTT', 'Ottawa', 'Senators', '23', 'Canadian Tire Centre', '13', 'OTT', 'Ottawa', 'Senators', '1', '0', '0', '0', '2', '38', '22', '63.3', '4', '0', '0.0', '4', '1', '75.0', '0', '0', '3', '3', '38', '5', '10', '31']"
"['', '32663', '2016-10-17', '23:30:00 GMT', '13', 'OTT', 'Ottawa', 'Senators', '16', 'DET', 'Detroit', 'Red Wings', '11', 'Joe Louis Arena', '13', 'OTT', 'Ottawa', 'Senators', '0', '1', '0', '0', '0', '27', '26', '50.9', '3', '0', '0.0', '4', '2', '50.0', '1', '0', '1', '5', '32', '8', '22', '21']"
"['', '32668', '2016-10-18', '23:30:00 GMT', '30', 'ARI', 'Arizona', 'Coyotes', '13', 'OTT', 'Ottawa', 'Senators', '23', 'Canadian Tire Centre', '13', 'OTT', 'Ottawa', 'Senators', '1', '0', '0', '0', '2', '35', '35', '50.0', '2', '1', '50.0', '5', '1', '80.0', '1', '0', '7', '4', '42', '7', '14', '20']"
"['', '32693', '2016-10-22', '23:00:00 GMT', '1', 'TBL', 'Tampa Bay', 'Lightning', '13', 'OTT', 'Ottawa', 'Senators', '23', 'Canadian Tire Centre', '13', 'OTT', 'Ottawa', 'Senators', '0', '1', '0', '0', '0', '29', '33', '46.8', '3', '0', '0.0', '4', '2', '50.0', '0', '0', '1', '4', '28', '4', '8', '18']"
"['', '32718', '2016-10-25', '02:00:00 GMT', '13', 'OTT', 'Ottawa', 'Senators', '21', 'VAN', 'Vancouver', 'Canucks', '7', 'Rogers Arena', '13', 'OTT', 'Ottawa', 'Senators', '1', '0', '0', '0', '2', '23', '36', '39.0', '1', '0', '0.0', '1', '0', '100.0', '0', '0', '3', '0', '28', '1', '2', '18']"
"['', '32737', '2016-10-28', '01:00:00 GMT', '13', 'OTT', 'Ottawa', 'Senators', '23', 'CGY', 'Calgary', 'Flames', '18', 'Scotiabank Saddledome', '13', 'OTT', 'Ottawa', 'Senators', '0', '1', '0', '0', '0', '33', '42', '44.0', '4', '2', '50.0', '2', '0', '100.0', '0', '0', '2', '5', '33', '2', '4', '12']"
"['', '32756', '2016-10-30', '01:00:00 GMT', '13', 'OTT', 'Ottawa', 'Senators', '24', 'EDM', 'Edmonton', 'Oilers', '22', 'Rogers Place', '13', 'OTT', 'Ottawa', 'Senators', '1', '0', '0', '0', '2', '29', '35', '45.3', '2', '0', '0.0', '4', '0', '100.0', '0', '0', '2', '0', '22', '5', '13', '21']"
"['', '32762', '2016-11-01', '23:30:00 GMT', '3', 'CAR', 'Carolina', 'Hurricanes', '13', 'OTT', 'Ottawa', 'Senators', '23', 'Canadian Tire Centre', '13', 'OTT', 'Ottawa', 'Senators', '1', '0', '0', '0', '2', '37', '33', '52.9', '2', '0', '0.0', '3', '0', '100.0', '0', '0', '2', '1', '32', '6', '15', '27']"
"['', '32777', '2016-11-03', '23:30:00 GMT', '21', 'VAN', 'Vancouver', 'Canucks', '13', 'OTT', 'Ottawa', 'Senators', '23', 'Canadian Tire Centre', '13', 'OTT', 'Ottawa', 'Senators', '1', '0', '0', '0', '2', '24', '39', '38.1', '3', '0', '0.0', '3', '0', '100.0', '0', '0', '1', '0', '24', '7', '20', '26']"
"['', '32792', '2016-11-05', '23:00:00 GMT', '15', 'BUF', 'Buffalo', 'Sabres', '13', 'OTT', 'Ottawa', 'Senators', '23', 'Canadian Tire Centre', '13', 'OTT', 'Ottawa', 'Senators', '0', '1', '0', '0', '0', '30', '24', '55.6', '4', '1', '25.0', '1', '0', '100.0', '0', '0', '1', '2', '33', '1', '2', '24']"
"['', '32817', '2016-11-08', '01:00:00 GMT', '13', 'OTT', 'Ottawa', 'Senators', '18', 'NSH', 'Nashville', 'Predators', '15', 'Bridgestone Arena', '13', 'OTT', 'Ottawa', 'Senators', '0', '1', '0', '0', '0', '36', '23', '61.0', '2', '0', '0.0', '3', '0', '100.0', '0', '0', '1', '3', '34', '5', '13', '16']"
"['', '32820', '2016-11-09', '00:30:00 GMT', '13', 'OTT', 'Ottawa', 'Senators', '15', 'BUF', 'Buffalo', 'Sabres', '10', 'KeyBank Center', '13', 'OTT', 'Ottawa', 'Senators', '1', '0', '0', '0', '2', '29', '34', '46.0', '3', '0', '0.0', '2', '0', '100.0', '0', '0', '1', '1', '29', '2', '4', '29']"
"['', '32834', '2016-11-11', '00:30:00 GMT', '28', 'LAK', 'Los Angeles', 'Kings', '13', 'OTT', 'Ottawa', 'Senators', '23', 'Canadian Tire Centre', '13', 'OTT', 'Ottawa', 'Senators', '1', '0', '0', '0', '2', '36', '31', '53.7', '3', '0', '0.0', '2', '0', '100.0', '0', '0', '2', '1', '33', '2', '4', '22']"
"['', '32851', '2016-11-13', '22:00:00 GMT', '25', 'MIN', 'Minnesota', 'Wild', '13', 'OTT', 'Ottawa', 'Senators', '23', 'Canadian Tire Centre', '13', 'OTT', 'Ottawa', 'Senators', '0', '0', '0', '1', '1', '29', '32', '47.5', '4', '0', '0.0', '3', '0', '100.0', '0', '1', '1', '2', '36', '3', '6', '25']"
"['', '32856', '2016-11-15', '00:00:00 GMT', '13', 'OTT', 'Ottawa', 'Senators', '6', 'PHI', 'Philadelphia', 'Flyers', '29', 'Wells Fargo Center', '13', 'OTT', 'Ottawa', 'Senators', '1', '0', '0', '0', '2', '32', '40', '44.4', '2', '0', '0.0', '4', '0', '100.0', '0', '0', '2', '2', '26', '4', '8', '39']"
"['', '32874', '2016-11-17', '00:30:00 GMT', '18', 'NSH', 'Nashville', 'Predators', '13', 'OTT', 'Ottawa', 'Senators', '23', 'Canadian Tire Centre', '13', 'OTT', 'Ottawa', 'Senators', '0', '1', '0', '0', '0', '28', '26', '51.9', '6', '1', '16.7', '4', '0', '100.0', '0', '0', '1', '5', '31', '7', '14', '29']"
"['', '32891', '2016-11-19', '00:00:00 GMT', '4', 'FLO', 'Florida', 'Panthers', '13', 'OTT', 'Ottawa', 'Senators', '23', 'Canadian Tire Centre', '13', 'OTT', 'Ottawa', 'Senators', '0', '1', '0', '0', '0', '36', '25', '59.0', '2', '0', '0.0', '0', '0', '0.0', '0', '0', '1', '4', '40', '0', '0', '28']"
"['', '32911', '2016-11-22', '00:30:00 GMT', '13', 'OTT', 'Ottawa', 'Senators', '14', 'MTL', 'Montreal', 'Canadiens', '4', 'Bell Centre', '13', 'OTT', 'Ottawa', 'Senators', '1', '0', '0', '0', '2', '32', '39', '45.1', '4', '1', '25.0', '7', '2', '71.4', '0', '0', '4', '3', '23', '11', '25', '33']"
"['', '32927', '2016-11-24', '00:30:00 GMT', '11', 'BOS', 'Boston', 'Bruins', '13', 'OTT', 'Ottawa', 'Senators', '23', 'Canadian Tire Centre', '13', 'OTT', 'Ottawa', 'Senators', '1', '0', '0', '0', '2', '34', '23', '59.6', '2', '0', '0.0', '1', '1', '0.0', '0', '0', '3', '1', '26', '2', '4', '36']"
"['', '32940', '2016-11-26', '00:00:00 GMT', '3', 'CAR', 'Carolina', 'Hurricanes', '13', 'OTT', 'Ottawa', 'Senators', '23', 'Canadian Tire Centre', '13', 'OTT', 'Ottawa', 'Senators', '1', '0', '0', '0', '2', '27', '23', '54.0', '1', '0', '0.0', '1', '0', '100.0', '0', '0', '2', '1', '24', '1', '2', '26']"
"['', '32952', '2016-11-27', '00:00:00 GMT', '13', 'OTT', 'Ottawa', 'Senators', '9', 'NYR', 'New York', 'Rangers', '12', 'Madison Square Garden', '13', 'OTT', 'Ottawa', 'Senators', '1', '0', '0', '0', '2', '25', '30', '45.5', '2', '1', '50.0', '4', '0', '100.0', '0', '0', '2', '0', '20', '5', '10', '18']"
"['', '32959', '2016-11-29', '00:30:00 GMT', '15', 'BUF', 'Buffalo', 'Sabres', '13', 'OTT', 'Ottawa', 'Senators', '23', 'Canadian Tire Centre', '13', 'OTT', 'Ottawa', 'Senators', '0', '1', '0', '0', '0', '36', '24', '60.0', '4', '2', '50.0', '5', '3', '40.0', '0', '0', '4', '5', '35', '6', '15', '28']"
"['', '32975', '2016-12-01', '00:30:00 GMT', '6', 'PHI', 'Philadelphia', 'Flyers', '13', 'OTT', 'Ottawa', 'Senators', '23', 'Canadian Tire Centre', '13', 'OTT', 'Ottawa', 'Senators', '0', '0', '0', '1', '1', '37', '31', '54.4', '2', '1', '50.0', '4', '0', '100.0', '0', '0', '2', '3', '21', '6', '12', '32']"
"['', '32989', '2016-12-03', '00:00:00 GMT', '4', 'FLO', 'Florida', 'Panthers', '13', 'OTT', 'Ottawa', 'Senators', '23', 'Canadian Tire Centre', '13', 'OTT', 'Ottawa', 'Senators', '1', '0', '0', '0', '2', '29', '31', '48.3', '7', '0', '0.0', '4', '0', '100.0', '0', '0', '2', '0', '21', '5', '10', '28']"
"['', '33005', '2016-12-05', '00:00:00 GMT', '13', 'OTT', 'Ottawa', 'Senators', '10', 'PIT', 'Pittsburgh', 'Penguins', '40', 'PPG Paints Arena', '13', 'OTT', 'Ottawa', 'Senators', '0', '1', '0', '0', '0', '29', '36', '44.6', '5', '3', '60.0', '4', '0', '100.0', '0', '1', '5', '8', '34', '5', '10', '51']"
"['', '33020', '2016-12-07', '03:30:00 GMT', '13', 'OTT', 'Ottawa', 'Senators', '26', 'SJS', 'San Jose', 'Sharks', '9', 'SAP Center at San Jose', '13', 'OTT', 'Ottawa', 'Senators', '1', '0', '0', '0', '2', '29', '36', '44.6', '4', '1', '25.0', '6', '1', '83.3', '0', '0', '4', '2', '17', '6', '12', '21']"
"['', '33038', '2016-12-10', '21:00:00 GMT', '13', 'OTT', 'Ottawa', 'Senators', '28', 'LAK', 'Los Angeles', 'Kings', '25', 'Staples Center', '13', 'OTT', 'Ottawa', 'Senators', '0', '1', '0', '0', '0', '30', '34', '46.9', '4', '0', '0.0', '2', '3', '1.0', '0', '0', '1', '4', '20', '4', '17', '30']"
"['', '33047', '2016-12-11', '21:00:00 GMT', '13', 'OTT', 'Ottawa', 'Senators', '29', 'ANA', 'Anaheim', 'Ducks', '8', 'Honda Center', '13', 'OTT', 'Ottawa', 'Senators', '0', '1', '0', '0', '0', '29', '32', '47.5', '4', '1', '25.0', '4', '3', '25.0', '0', '0', '1', '5', '22', '5', '10', '29']"
"['', '33067', '2016-12-14', '00:00:00 GMT', '26', 'SJS', 'San Jose', 'Sharks', '13', 'OTT', 'Ottawa', 'Senators', '23', 'Canadian Tire Centre', '13', 'OTT', 'Ottawa', 'Senators', '0', '0', '0', '1', '1', '35', '33', '51.5', '5', '1', '20.0', '8', '0', '100.0', '0', '0', '3', '3', '31', '10', '42', '24']"
"['', '33089', '2016-12-17', '00:00:00 GMT', '7', 'NJD', 'New Jersey', 'Devils', '13', 'OTT', 'Ottawa', 'Senators', '23', 'Canadian Tire Centre', '13', 'OTT', 'Ottawa', 'Senators', '1', '0', '0', '0', '2', '27', '28', '49.1', '1', '0', '0.0', '1', '0', '100.0', '0', '0', '3', '1', '31', '3', '9', '29']"
"['', '33099', '2016-12-18', '00:00:00 GMT', '13', 'OTT', 'Ottawa', 'Senators', '8', 'NYI', 'New York', 'Islanders', '35', 'Ericsson Globe', '13', 'OTT', 'Ottawa', 'Senators', '1', '0', '0', '0', '2', '23', '35', '39.7', '2', '1', '50.0', '4', '0', '100.0', '1', '0', '6', '2', '34', '4', '8', '25']"
"['', '33115', '2016-12-20', '01:30:00 GMT', '13', 'OTT', 'Ottawa', 'Senators', '20', 'CHI', 'Chicago', 'Blackhawks', '28', 'United Center', '13', 'OTT', 'Ottawa', 'Senators', '1', '0', '0', '0', '2', '22', '29', '43.1', '5', '1', '20.0', '3', '1', '66.7', '0', '0', '4', '3', '30', '3', '6', '22']"
"['', '33125', '2016-12-22', '00:30:00 GMT', '29', 'ANA', 'Anaheim', 'Ducks', '13', 'OTT', 'Ottawa', 'Senators', '23', 'Canadian Tire Centre', '13', 'OTT', 'Ottawa', 'Senators', '1', '0', '0', '0', '2', '27', '30', '47.4', '2', '1', '50.0', '4', '1', '75.0', '0', '0', '2', '1', '18', '5', '15', '29']"
"['', '33145', '2016-12-27', '00:00:00 GMT', '13', 'OTT', 'Ottawa', 'Senators', '9', 'NYR', 'New York', 'Rangers', '12', 'Madison Square Garden', '13', 'OTT', 'Ottawa', 'Senators', '0', '1', '0', '0', '0', '41', '29', '58.6', '4', '0', '0.0', '4', '1', '75.0', '0', '0', '3', '4', '36', '8', '19', '19']"
"['', '33160', '2016-12-29', '01:00:00 GMT', '16', 'DET', 'Detroit', 'Red Wings', '13', 'OTT', 'Ottawa', 'Senators', '23', 'Canadian Tire Centre', '13', 'OTT', 'Ottawa', 'Senators', '0', '0', '0', '1', '1', '28', '27', '50.9', '3', '0', '0.0', '5', '0', '100.0', '0', '0', '2', '3', '28', '5', '10', '30']"
"['', '33186', '2017-01-01', '00:30:00 GMT', '13', 'OTT', 'Ottawa', 'Senators', '5', 'WSH', 'Washington', 'Capitals', '13', 'Verizon Center', '13', 'OTT', 'Ottawa', 'Senators', '0', '1', '0', '0', '0', '33', '21', '61.1', '3', '0', '0.0', '2', '0', '100.0', '0', '0', '1', '2', '24', '2', '4', '22']"
"['', '33221', '2017-01-07', '00:00:00 GMT', '5', 'WSH', 'Washington', 'Capitals', '13', 'OTT', 'Ottawa', 'Senators', '23', 'Canadian Tire Centre', '13', 'OTT', 'Ottawa', 'Senators', '0', '1', '0', '0', '0', '27', '30', '47.4', '3', '0', '0.0', '2', '0', '100.0', '0', '0', '0', '1', '30', '2', '4', '25']"
"['', '33232', '2017-01-08', '00:00:00 GMT', '24', 'EDM', 'Edmonton', 'Oilers', '13', 'OTT', 'Ottawa', 'Senators', '23', 'Canadian Tire Centre', '13', 'OTT', 'Ottawa', 'Senators', '1', '0', '0', '0', '2', '31', '23', '57.4', '1', '1', '100.0', '1', '0', '100.0', '0', '0', '5', '3', '18', '3', '9', '31']"
"['', '33251', '2017-01-12', '00:30:00 GMT', '10', 'PIT', 'Pittsburgh', 'Penguins', '13', 'OTT', 'Ottawa', 'Senators', '23', 'Canadian Tire Centre', '13', 'OTT', 'Ottawa', 'Senators', '1', '0', '0', '0', '2', '32', '32', '50.0', '5', '2', '40.0', '3', '0', '100.0', '0', '0', '4', '1', '33', '3', '6', '29']"
"['', '33269', '2017-01-14', '00:00:00 GMT', '12', 'TOR', 'Toronto', 'Maple Leafs', '13', 'OTT', 'Ottawa', 'Senators', '23', 'Canadian Tire Centre', '13', 'OTT', 'Ottawa', 'Senators', '0', '1', '0', '0', '0', '43', '28', '60.6', '1', '0', '0.0', '1', '1', '0.0', '0', '0', '2', '4', '37', '3', '9', '38']"
"['', '33292', '2017-01-17', '01:00:00 GMT', '13', 'OTT', 'Ottawa', 'Senators', '17', 'STL', 'St. Louis', 'Blues', '24', 'Scottrade Center', '13', 'OTT', 'Ottawa', 'Senators', '1', '0', '0', '0', '2', '37', '37', '50.0', '2', '1', '50.0', '2', '1', '50.0', '0', '0', '6', '4', '24', '4', '11', '30']"
"['', '33304', '2017-01-19', '00:00:00 GMT', '13', 'OTT', 'Ottawa', 'Senators', '19', 'CBJ', 'Columbus', 'Blue Jackets', '17', 'Nationwide Arena', '13', 'OTT', 'Ottawa', 'Senators', '1', '0', '0', '0', '2', '38', '32', '54.3', '4', '0', '0.0', '3', '0', '100.0', '0', '0', '2', '0', '28', '5', '10', '14']"
"['', '33319', '2017-01-21', '00:00:00 GMT', '13', 'OTT', 'Ottawa', 'Senators', '12', 'TOR', 'Toronto', 'Maple Leafs', '1', 'Air Canada Center', '13', 'OTT', 'Ottawa', 'Senators', '1', '0', '0', '0', '2', '44', '31', '58.7', '4', '1', '25.0', '4', '1', '75.0', '0', '0', '2', '2', '27', '3', '8', '29']"
"['', '33330', '2017-01-22', '22:00:00 GMT', '19', 'CBJ', 'Columbus', 'Blue Jackets', '13', 'OTT', 'Ottawa', 'Senators', '23', 'Canadian Tire Centre', '13', 'OTT', 'Ottawa', 'Senators', '0', '0', '0', '1', '1', '44', '31', '58.7', '3', '1', '33.3', '4', '2', '50.0', '0', '0', '6', '7', '34', '5', '10', '18']"
"['', '33345', '2017-01-24', '00:30:00 GMT', '5', 'WSH', 'Washington', 'Capitals', '13', 'OTT', 'Ottawa', 'Senators', '23', 'Canadian Tire Centre', '13', 'OTT', 'Ottawa', 'Senators', '1', '0', '0', '0', '2', '33', '27', '55.0', '4', '1', '25.0', '6', '0', '100.0', '1', '0', '3', '0', '34', '8', '16', '22']"
"['', '33359', '2017-01-26', '00:30:00 GMT', '23', 'CGY', 'Calgary', 'Flames', '13', 'OTT', 'Ottawa', 'Senators', '23', 'Canadian Tire Centre', '13', 'OTT', 'Ottawa', 'Senators', '0', '0', '0', '1', '1', '35', '35', '50.0', '4', '0', '0.0', '2', '0', '100.0', '0', '0', '2', '3', '27', '2', '4', '26']"
"['', '33374', '2017-01-31', '00:30:00 GMT', '13', 'OTT', 'Ottawa', 'Senators', '4', 'FLO', 'Florida', 'Panthers', '3', 'BB&T Center', '13', 'OTT', 'Ottawa', 'Senators', '0', '1', '0', '0', '0', '37', '30', '55.2', '5', '0', '0.0', '3', '0', '100.0', '0', '0', '5', '6', '41', '7', '14', '13']"
"['', '33386', '2017-02-02', '00:30:00 GMT', '13', 'OTT', 'Ottawa', 'Senators', '1', 'TBL', 'Tampa Bay', 'Lightning', '26', 'Amalie Arena', '13', 'OTT', 'Ottawa', 'Senators', '1', '0', '0', '0', '2', '24', '34', '41.4', '5', '2', '40.0', '3', '0', '100.0', '0', '0', '5', '2', '29', '3', '6', '25']"
"['', '33401', '2017-02-04', '00:00:00 GMT', '13', 'OTT', 'Ottawa', 'Senators', '15', 'BUF', 'Buffalo', 'Sabres', '10', 'KeyBank Center', '13', 'OTT', 'Ottawa', 'Senators', '0', '1', '0', '0', '0', '26', '26', '50.0', '2', '0', '0.0', '0', '0', '0.0', '0', '0', '0', '4', '37', '3', '17', '26']"
"['', '33421', '2017-02-07', '00:30:00 GMT', '17', 'STL', 'St. Louis', 'Blues', '13', 'OTT', 'Ottawa', 'Senators', '23', 'Canadian Tire Centre', '13', 'OTT', 'Ottawa', 'Senators', '0', '1', '0', '0', '0', '34', '28', '54.8', '2', '0', '0.0', '3', '1', '66.7', '0', '0', '0', '6', '30', '4', '8', '28']"
"['', '33435', '2017-02-09', '00:30:00 GMT', '27', 'DAL', 'Dallas', 'Stars', '13', 'OTT', 'Ottawa', 'Senators', '23', 'Canadian Tire Centre', '13', 'OTT', 'Ottawa', 'Senators', '1', '0', '0', '0', '2', '40', '27', '59.7', '3', '0', '0.0', '6', '0', '100.0', '1', '0', '3', '2', '27', '7', '17', '26']"
"['', '33442', '2017-02-11', '18:00:00 GMT', '8', 'NYI', 'New York', 'Islanders', '13', 'OTT', 'Ottawa', 'Senators', '23', 'Canadian Tire Centre', '13', 'OTT', 'Ottawa', 'Senators', '1', '0', '0', '0', '2', '31', '26', '54.4', '3', '0', '0.0', '2', '0', '100.0', '0', '0', '3', '0', '24', '2', '4', '27']"
"['', '33465', '2017-02-14', '00:30:00 GMT', '15', 'BUF', 'Buffalo', 'Sabres', '13', 'OTT', 'Ottawa', 'Senators', '23', 'Canadian Tire Centre', '13', 'OTT', 'Ottawa', 'Senators', '0', '1', '0', '0', '0', '32', '22', '59.3', '2', '0', '0.0', '2', '0', '100.0', '0', '0', '2', '3', '41', '3', '6', '40']"
"['', '40254', '2017-02-16', '00:00:00 GMT', '13', 'OTT', 'Ottawa', 'Senators', '7', 'NJD', 'New Jersey', 'Devils', '37', 'Prudential Center', '13', 'OTT', 'Ottawa', 'Senators', '1', '0', '0', '0', '2', '34', '28', '54.8', '2', '1', '50.0', '1', '0', '100.0', '0', '0', '3', '0', '35', '1', '2', '22']"
"['', '33487', '2017-02-18', '00:00:00 GMT', '13', 'OTT', 'Ottawa', 'Senators', '12', 'TOR', 'Toronto', 'Maple Leafs', '1', 'Air Canada Center', '13', 'OTT', 'Ottawa', 'Senators', '1', '0', '0', '0', '2', '36', '31', '53.7', '4', '1', '25.0', '4', '1', '75.0', '0', '0', '6', '3', '42', '5', '10', '32']"
"['', '33497', '2017-02-19', '22:00:00 GMT', '2', 'WPJ', 'Winnipeg', 'Jets', '13', 'OTT', 'Ottawa', 'Senators', '23', 'Canadian Tire Centre', '13', 'OTT', 'Ottawa', 'Senators', '0', '1', '0', '0', '0', '26', '30', '46.4', '4', '1', '25.0', '1', '0', '100.0', '0', '0', '2', '3', '34', '1', '2', '38']"
"['', '33508', '2017-02-21', '00:00:00 GMT', '13', 'OTT', 'Ottawa', 'Senators', '7', 'NJD', 'New Jersey', 'Devils', '37', 'Prudential Center', '13', 'OTT', 'Ottawa', 'Senators', '1', '0', '0', '0', '2', '16', '25', '39.0', '2', '1', '50.0', '1', '1', '0.0', '0', '0', '2', '1', '23', '2', '7', '28']"
"['', '33528', '2017-02-24', '00:30:00 GMT', '13', 'OTT', 'Ottawa', 'Senators', '3', 'CAR', 'Carolina', 'Hurricanes', '21', 'RBC Center', '13', 'OTT', 'Ottawa', 'Senators', '0', '1', '0', '0', '0', '24', '42', '36.4', '2', '0', '0.0', '2', '0', '100.0', '0', '0', '0', '3', '34', '2', '4', '26']"
"['', '33542', '2017-02-26', '00:30:00 GMT', '13', 'OTT', 'Ottawa', 'Senators', '4', 'FLO', 'Florida', 'Panthers', '3', 'BB&T Center', '13', 'OTT', 'Ottawa', 'Senators', '1', '0', '0', '0', '2', '29', '29', '50.0', '3', '0', '0.0', '5', '1', '80.0', '1', '0', '2', '1', '33', '10', '29', '23']"
"['', '33546', '2017-02-27', '00:30:00 GMT', '13', 'OTT', 'Ottawa', 'Senators', '1', 'TBL', 'Tampa Bay', 'Lightning', '26', 'Amalie Arena', '13', 'OTT', 'Ottawa', 'Senators', '0', '1', '0', '0', '0', '36', '31', '53.7', '5', '1', '20.0', '4', '3', '25.0', '0', '0', '1', '5', '40', '10', '34', '16']"
"['', '33568', '2017-03-02', '00:30:00 GMT', '22', 'COL', 'Colorado', 'Avalanche', '13', 'OTT', 'Ottawa', 'Senators', '23', 'Canadian Tire Centre', '13', 'OTT', 'Ottawa', 'Senators', '1', '0', '0', '0', '2', '25', '20', '55.6', '4', '0', '0.0', '2', '0', '100.0', '0', '0', '2', '1', '42', '2', '4', '20']"
"['', '33580', '2017-03-04', '00:00:00 GMT', '19', 'CBJ', 'Columbus', 'Blue Jackets', '13', 'OTT', 'Ottawa', 'Senators', '23', 'Canadian Tire Centre', '13', 'OTT', 'Ottawa', 'Senators', '1', '0', '0', '0', '2', '30', '25', '54.5', '1', '0', '0.0', '5', '1', '80.0', '1', '0', '3', '2', '27', '8', '27', '23']"
"['', '33596', '2017-03-06', '00:30:00 GMT', '11', 'BOS', 'Boston', 'Bruins', '13', 'OTT', 'Ottawa', 'Senators', '23', 'Canadian Tire Centre', '13', 'OTT', 'Ottawa', 'Senators', '1', '0', '0', '0', '2', '34', '24', '58.6', '2', '1', '50.0', '1', '1', '0.0', '0', '0', '4', '2', '29', '2', '4', '26']"
"['', '33609', '2017-03-08', '01:00:00 GMT', '13', 'OTT', 'Ottawa', 'Senators', '27', 'DAL', 'Dallas', 'Stars', '2', 'American Airlines Center', '13', 'OTT', 'Ottawa', 'Senators', '1', '0', '0', '0', '2', '36', '31', '53.7', '3', '2', '66.7', '4', '1', '75.0', '0', '0', '5', '2', '23', '6', '12', '16']"
"['', '33617', '2017-03-09', '02:00:00 GMT', '13', 'OTT', 'Ottawa', 'Senators', '30', 'ARI', 'Arizona', 'Coyotes', '6', 'Gila River Arena', '13', 'OTT', 'Ottawa', 'Senators', '1', '0', '0', '0', '2', '27', '31', '46.6', '3', '0', '0.0', '4', '0', '100.0', '0', '0', '3', '2', '31', '4', '8', '23']"
"['', '33632', '2017-03-11', '00:00:00 GMT', '13', 'OTT', 'Ottawa', 'Senators', '22', 'COL', 'Colorado', 'Avalanche', '19', 'Pepsi Center', '13', 'OTT', 'Ottawa', 'Senators', '1', '0', '0', '0', '2', '21', '35', '37.5', '4', '1', '25.0', '5', '1', '80.0', '0', '0', '4', '2', '31', '6', '15', '15']"
"['', '33654', '2017-03-14', '23:30:00 GMT', '1', 'TBL', 'Tampa Bay', 'Lightning', '13', 'OTT', 'Ottawa', 'Senators', '23', 'Canadian Tire Centre', '13', 'OTT', 'Ottawa', 'Senators', '0', '0', '0', '1', '1', '34', '23', '59.6', '2', '0', '0.0', '1', '0', '100.0', '0', '0', '1', '2', '32', '1', '2', '29']"
"['', '33668', '2017-03-16', '23:30:00 GMT', '20', 'CHI', 'Chicago', 'Blackhawks', '13', 'OTT', 'Ottawa', 'Senators', '23', 'Canadian Tire Centre', '13', 'OTT', 'Ottawa', 'Senators', '0', '1', '0', '0', '0', '37', '21', '63.8', '4', '1', '25.0', '4', '1', '75.0', '0', '0', '1', '2', '34', '5', '10', '22']"
"['', '33682', '2017-03-18', '23:00:00 GMT', '14', 'MTL', 'Montreal', 'Canadiens', '13', 'OTT', 'Ottawa', 'Senators', '23', 'Canadian Tire Centre', '13', 'OTT', 'Ottawa', 'Senators', '0', '0', '0', '1', '1', '34', '22', '60.7', '4', '1', '25.0', '2', '0', '100.0', '0', '0', '3', '3', '31', '2', '4', '30']"
"['', '33694', '2017-03-19', '23:30:00 GMT', '13', 'OTT', 'Ottawa', 'Senators', '14', 'MTL', 'Montreal', 'Canadiens', '4', 'Bell Centre', '13', 'OTT', 'Ottawa', 'Senators', '0', '1', '0', '0', '0', '27', '35', '43.5', '2', '0', '0.0', '3', '1', '66.7', '0', '0', '1', '4', '31', '8', '19', '49']"
"['', '33701', '2017-03-21', '23:00:00 GMT', '13', 'OTT', 'Ottawa', 'Senators', '11', 'BOS', 'Boston', 'Bruins', '27', 'TD Garden', '13', 'OTT', 'Ottawa', 'Senators', '1', '0', '0', '0', '2', '31', '36', '46.3', '5', '1', '20.0', '5', '2', '60.0', '0', '0', '3', '2', '22', '6', '12', '31']"
"['', '33719', '2017-03-23', '23:30:00 GMT', '10', 'PIT', 'Pittsburgh', 'Penguins', '13', 'OTT', 'Ottawa', 'Senators', '23', 'Canadian Tire Centre', '13', 'OTT', 'Ottawa', 'Senators', '1', '0', '0', '0', '2', '42', '23', '64.6', '2', '1', '50.0', '3', '1', '66.7', '0', '0', '1', '1', '30', '4', '10', '30']"
"['', '33734', '2017-03-25', '23:00:00 GMT', '13', 'OTT', 'Ottawa', 'Senators', '14', 'MTL', 'Montreal', 'Canadiens', '4', 'Bell Centre', '13', 'OTT', 'Ottawa', 'Senators', '0', '1', '0', '0', '0', '23', '32', '41.8', '3', '0', '0.0', '4', '2', '50.0', '0', '0', '1', '3', '32', '8', '19', '35']"
"['', '33754', '2017-03-28', '23:00:00 GMT', '13', 'OTT', 'Ottawa', 'Senators', '6', 'PHI', 'Philadelphia', 'Flyers', '29', 'Wells Fargo Center', '13', 'OTT', 'Ottawa', 'Senators', '0', '0', '0', '1', '1', '27', '27', '50.0', '3', '1', '33.3', '4', '1', '75.0', '0', '0', '2', '2', '28', '5', '13', '31']"
"['', '33773', '2017-03-30', '00:00:00 GMT', '13', 'OTT', 'Ottawa', 'Senators', '25', 'MIN', 'Minnesota', 'Wild', '30', 'Xcel Energy Center', '13', 'OTT', 'Ottawa', 'Senators', '0', '1', '0', '0', '0', '25', '34', '42.4', '4', '0', '0.0', '2', '1', '50.0', '0', '0', '1', '5', '19', '2', '4', '15']"
"['', '33789', '2017-04-01', '23:00:00 GMT', '13', 'OTT', 'Ottawa', 'Senators', '2', 'WPJ', 'Winnipeg', 'Jets', '39', 'MTS Centre', '13', 'OTT', 'Ottawa', 'Senators', '0', '1', '0', '0', '0', '26', '32', '44.8', '2', '0', '0.0', '2', '0', '100.0', '0', '0', '2', '4', '31', '2', '4', '10']"
"['', '33803', '2017-04-03', '23:00:00 GMT', '13', 'OTT', 'Ottawa', 'Senators', '16', 'DET', 'Detroit', 'Red Wings', '11', 'Joe Louis Arena', '13', 'OTT', 'Ottawa', 'Senators', '0', '0', '0', '1', '1', '37', '29', '56.1', '2', '1', '50.0', '2', '2', '0.0', '0', '1', '4', '4', '45', '2', '4', '31']"
"['', '33809', '2017-04-04', '23:30:00 GMT', '16', 'DET', 'Detroit', 'Red Wings', '13', 'OTT', 'Ottawa', 'Senators', '23', 'Canadian Tire Centre', '13', 'OTT', 'Ottawa', 'Senators', '1', '0', '0', '0', '2', '26', '31', '45.6', '3', '0', '0.0', '1', '0', '100.0', '0', '0', '2', '0', '24', '5', '10', '14']"
"['', '33820', '2017-04-06', '23:00:00 GMT', '13', 'OTT', 'Ottawa', 'Senators', '11', 'BOS', 'Boston', 'Bruins', '27', 'TD Garden', '13', 'OTT', 'Ottawa', 'Senators', '1', '0', '0', '0', '2', '20', '32', '38.5', '2', '0', '0.0', '1', '1', '0.0', '0', '0', '1', '1', '26', '3', '6', '28']"
"['', '33833', '2017-04-08', '16:30:00 GMT', '9', 'NYR', 'New York', 'Rangers', '13', 'OTT', 'Ottawa', 'Senators', '23', 'Canadian Tire Centre', '13', 'OTT', 'Ottawa', 'Senators', '1', '0', '0', '0', '2', '40', '22', '64.5', '3', '0', '0.0', '2', '0', '100.0', '0', '0', '3', '1', '33', '4', '11', '14']"
"['', '33849', '2017-04-09', '21:00:00 GMT', '13', 'OTT', 'Ottawa', 'Senators', '8', 'NYI', 'New York', 'Islanders', '35', 'Ericsson Globe', '13', 'OTT', 'Ottawa', 'Senators', '0', '1', '0', '0', '0', '22', '29', '43.1', '3', '0', '0.0', '0', '0', '0.0', '0', '0', '2', '4', '34', '0', '0', '20']"
