"['#Date/Time of Update: 2018-12-10 19:03:07 GMT', '#Game ID', '#Game Date', '#Game Time', '#Away Team ID', '#Away Team Abbr.', '#Away Team City', '#Away Team Name', '#Home Team ID', '#Home Team Abbr.', '#Home Team City', '#Home Team Name', '#Venue ID', '#Venue Name', '#Team ID', '#Team Abbr.', '#Team City', '#Team Name', '#Wins', '#Losses', '#OvertimeWins', '#OvertimeLosses', '#ShootoutWins', '#ShootoutLosses', '#Rows', '#Points', '#FaceoffWins', '#FaceoffLosses', '#FaceoffPercent', '#Powerplays', '#PowerplayGoals', '#PowerplayPercent', '#PenaltyKills', '#PenaltyKillGoalsAllowed', '#PenaltyKillPercent', '#ShorthandedGoalsFor', '#ShorthandedGoalsAgainst', '#GoalsFor', '#GoalsAgainst', '#Shots', '#Penalties', '#PenaltyMinutes', '#Hits']"
"['', '19731', '2013-01-19', '01:00:00 GMT', '19', 'CBJ', 'Columbus', 'Blue Jackets', '18', 'NSH', 'Nashville', 'Predators', '15', 'Bridgestone Arena', '19', 'CBJ', 'Columbus', 'Blue Jackets', '1', '0', '0', '0', '0', '0', '0', '2', '32', '37', '46.4', '3', '1', '33.3', '0', '1', '0.0', '0', '0', '2', '2', '26', '4', '14', '21']"
"['', '19746', '2013-01-21', '00:30:00 GMT', '16', 'DET', 'Detroit', 'Red Wings', '19', 'CBJ', 'Columbus', 'Blue Jackets', '17', 'Nationwide Arena', '19', 'CBJ', 'Columbus', 'Blue Jackets', '0', '0', '0', '1', '0', '0', '0', '1', '35', '32', '52.2', '5', '2', '40.0', '6', '0', '100.0', '0', '0', '3', '3', '30', '10', '23', '23']"
"['', '19760', '2013-01-23', '03:00:00 GMT', '19', 'CBJ', 'Columbus', 'Blue Jackets', '30', 'PHX', 'Phoenix', 'Coyotes', '6', 'Jobing.com Arena', '19', 'CBJ', 'Columbus', 'Blue Jackets', '0', '1', '0', '0', '0', '0', '0', '0', '24', '42', '36.4', '3', '0', '0.0', '4', '1', '75.0', '0', '0', '1', '5', '25', '6', '12', '46']"
"['', '19768', '2013-01-24', '02:00:00 GMT', '19', 'CBJ', 'Columbus', 'Blue Jackets', '22', 'COL', 'Colorado', 'Avalanche', '19', 'Pepsi Center', '19', 'CBJ', 'Columbus', 'Blue Jackets', '0', '1', '0', '0', '0', '0', '0', '0', '31', '36', '46.3', '4', '0', '0.0', '3', '0', '100.0', '0', '0', '0', '4', '33', '9', '24', '19']"
"['', '19780', '2013-01-26', '00:00:00 GMT', '20', 'CHI', 'Chicago', 'Blackhawks', '19', 'CBJ', 'Columbus', 'Blue Jackets', '17', 'Nationwide Arena', '19', 'CBJ', 'Columbus', 'Blue Jackets', '0', '1', '0', '0', '0', '0', '0', '0', '30', '27', '52.6', '5', '0', '0.0', '2', '0', '100.0', '0', '0', '2', '3', '24', '6', '15', '22']"
"['', '19795', '2013-01-28', '00:00:00 GMT', '27', 'DAL', 'Dallas', 'Stars', '19', 'CBJ', 'Columbus', 'Blue Jackets', '17', 'Nationwide Arena', '19', 'CBJ', 'Columbus', 'Blue Jackets', '1', '0', '0', '0', '0', '0', '1', '2', '29', '28', '50.9', '6', '0', '0.0', '4', '1', '75.0', '0', '0', '2', '1', '25', '5', '10', '22']"
"['', '19807', '2013-01-29', '01:00:00 GMT', '19', 'CBJ', 'Columbus', 'Blue Jackets', '25', 'MIN', 'Minnesota', 'Wild', '30', 'Xcel Energy Center', '19', 'CBJ', 'Columbus', 'Blue Jackets', '0', '1', '0', '0', '0', '0', '0', '0', '23', '28', '45.1', '4', '1', '25.0', '2', '0', '100.0', '0', '0', '2', '3', '17', '5', '24', '22']"
"['', '19817', '2013-01-31', '00:00:00 GMT', '17', 'STL', 'St. Louis', 'Blues', '19', 'CBJ', 'Columbus', 'Blue Jackets', '17', 'Nationwide Arena', '19', 'CBJ', 'Columbus', 'Blue Jackets', '0', '1', '0', '0', '0', '0', '0', '0', '24', '29', '45.3', '4', '1', '25.0', '5', '2', '60.0', '0', '0', '1', '4', '24', '10', '40', '13']"
"['', '19835', '2013-02-02', '00:00:00 GMT', '16', 'DET', 'Detroit', 'Red Wings', '19', 'CBJ', 'Columbus', 'Blue Jackets', '17', 'Nationwide Arena', '19', 'CBJ', 'Columbus', 'Blue Jackets', '1', '0', '0', '0', '0', '0', '1', '2', '24', '33', '42.1', '3', '1', '33.3', '5', '0', '100.0', '1', '0', '4', '2', '24', '5', '10', '29']"
"['', '19852', '2013-02-05', '00:00:00 GMT', '28', 'LAK', 'Los Angeles', 'Kings', '19', 'CBJ', 'Columbus', 'Blue Jackets', '17', 'Nationwide Arena', '19', 'CBJ', 'Columbus', 'Blue Jackets', '0', '1', '0', '0', '0', '0', '0', '0', '34', '22', '60.7', '4', '0', '0.0', '3', '1', '66.7', '0', '0', '2', '4', '18', '6', '29', '27']"
"['', '19867', '2013-02-07', '00:00:00 GMT', '23', 'CGY', 'Calgary', 'Flames', '19', 'CBJ', 'Columbus', 'Blue Jackets', '17', 'Nationwide Arena', '19', 'CBJ', 'Columbus', 'Blue Jackets', '0', '0', '0', '1', '0', '0', '0', '1', '38', '31', '55.1', '3', '1', '33.3', '4', '1', '75.0', '0', '0', '3', '4', '26', '4', '8', '22']"
"['', '19888', '2013-02-10', '23:00:00 GMT', '24', 'EDM', 'Edmonton', 'Oilers', '19', 'CBJ', 'Columbus', 'Blue Jackets', '17', 'Nationwide Arena', '19', 'CBJ', 'Columbus', 'Blue Jackets', '0', '1', '0', '0', '0', '0', '0', '0', '26', '26', '50.0', '7', '0', '0.0', '3', '0', '100.0', '0', '1', '1', '3', '39', '5', '18', '13']"
"['', '19895', '2013-02-11', '00:00:00 GMT', '26', 'SJS', 'San Jose', 'Sharks', '19', 'CBJ', 'Columbus', 'Blue Jackets', '17', 'Nationwide Arena', '19', 'CBJ', 'Columbus', 'Blue Jackets', '1', '0', '0', '0', '0', '0', '1', '2', '31', '24', '56.4', '4', '2', '50.0', '3', '1', '66.7', '0', '0', '6', '2', '30', '5', '16', '22']"
"['', '19925', '2013-02-15', '03:30:00 GMT', '19', 'CBJ', 'Columbus', 'Blue Jackets', '28', 'LAK', 'Los Angeles', 'Kings', '25', 'Staples Center', '19', 'CBJ', 'Columbus', 'Blue Jackets', '0', '1', '0', '0', '0', '0', '0', '0', '24', '23', '51.1', '4', '0', '0.0', '5', '1', '80.0', '0', '0', '1', '2', '12', '5', '10', '31']"
"['', '19931', '2013-02-16', '01:00:00 GMT', '19', 'CBJ', 'Columbus', 'Blue Jackets', '30', 'PHX', 'Phoenix', 'Coyotes', '6', 'Jobing.com Arena', '19', 'CBJ', 'Columbus', 'Blue Jackets', '0', '1', '0', '0', '0', '0', '0', '0', '27', '27', '50.0', '3', '0', '0.0', '7', '1', '85.7', '0', '0', '3', '5', '17', '8', '19', '36']"
"['', '19946', '2013-02-18', '03:00:00 GMT', '19', 'CBJ', 'Columbus', 'Blue Jackets', '29', 'ANA', 'Anaheim', 'Ducks', '8', 'Honda Center', '19', 'CBJ', 'Columbus', 'Blue Jackets', '0', '1', '0', '0', '0', '0', '0', '0', '30', '33', '47.6', '3', '0', '0.0', '2', '2', '0.0', '0', '0', '2', '3', '25', '3', '6', '22']"
"['', '19965', '2013-02-21', '00:30:00 GMT', '19', 'CBJ', 'Columbus', 'Blue Jackets', '16', 'DET', 'Detroit', 'Red Wings', '11', 'Joe Louis Arena', '19', 'CBJ', 'Columbus', 'Blue Jackets', '1', '0', '0', '0', '0', '0', '1', '2', '22', '27', '44.9', '2', '1', '50.0', '4', '0', '100.0', '0', '0', '3', '2', '21', '6', '15', '25']"
"['', '19980', '2013-02-23', '01:00:00 GMT', '19', 'CBJ', 'Columbus', 'Blue Jackets', '17', 'STL', 'St. Louis', 'Blues', '24', 'Scottrade Center', '19', 'CBJ', 'Columbus', 'Blue Jackets', '0', '1', '0', '0', '0', '0', '0', '0', '23', '21', '52.3', '4', '0', '0.0', '1', '0', '100.0', '1', '0', '1', '2', '19', '4', '8', '20']"
"['', '19987', '2013-02-24', '00:00:00 GMT', '19', 'CBJ', 'Columbus', 'Blue Jackets', '20', 'CHI', 'Chicago', 'Blackhawks', '28', 'United Center', '19', 'CBJ', 'Columbus', 'Blue Jackets', '0', '1', '0', '0', '0', '0', '0', '0', '26', '24', '52.0', '5', '0', '0.0', '3', '0', '100.0', '0', '0', '0', '1', '28', '5', '10', '33']"
"['', '19998', '2013-02-26', '00:00:00 GMT', '27', 'DAL', 'Dallas', 'Stars', '19', 'CBJ', 'Columbus', 'Blue Jackets', '17', 'Nationwide Arena', '19', 'CBJ', 'Columbus', 'Blue Jackets', '0', '0', '0', '1', '0', '0', '0', '1', '27', '29', '48.2', '1', '0', '0.0', '1', '0', '100.0', '0', '0', '4', '5', '16', '2', '4', '22']"
"['', '20021', '2013-03-01', '01:30:00 GMT', '19', 'CBJ', 'Columbus', 'Blue Jackets', '20', 'CHI', 'Chicago', 'Blackhawks', '28', 'United Center', '19', 'CBJ', 'Columbus', 'Blue Jackets', '0', '0', '0', '1', '0', '0', '0', '1', '32', '25', '56.1', '1', '0', '0.0', '2', '0', '100.0', '0', '0', '3', '4', '19', '4', '14', '38']"
"['', '20034', '2013-03-03', '20:00:00 GMT', '22', 'COL', 'Colorado', 'Avalanche', '19', 'CBJ', 'Columbus', 'Blue Jackets', '17', 'Nationwide Arena', '19', 'CBJ', 'Columbus', 'Blue Jackets', '1', '0', '0', '0', '0', '0', '1', '2', '35', '34', '50.7', '5', '2', '40.0', '2', '0', '100.0', '0', '0', '2', '1', '32', '5', '16', '25']"
"['', '20049', '2013-03-05', '00:00:00 GMT', '24', 'EDM', 'Edmonton', 'Oilers', '19', 'CBJ', 'Columbus', 'Blue Jackets', '17', 'Nationwide Arena', '19', 'CBJ', 'Columbus', 'Blue Jackets', '1', '0', '0', '0', '0', '0', '0', '2', '38', '24', '61.3', '3', '1', '33.3', '3', '0', '100.0', '0', '0', '3', '3', '35', '5', '21', '22']"
"['', '20066', '2013-03-07', '00:00:00 GMT', '21', 'VAN', 'Vancouver', 'Canucks', '19', 'CBJ', 'Columbus', 'Blue Jackets', '17', 'Nationwide Arena', '19', 'CBJ', 'Columbus', 'Blue Jackets', '1', '0', '0', '0', '0', '0', '1', '2', '33', '29', '53.2', '3', '0', '0.0', '1', '0', '100.0', '0', '0', '2', '1', '25', '1', '2', '21']"
"['', '20078', '2013-03-09', '19:00:00 GMT', '16', 'DET', 'Detroit', 'Red Wings', '19', 'CBJ', 'Columbus', 'Blue Jackets', '17', 'Nationwide Arena', '19', 'CBJ', 'Columbus', 'Blue Jackets', '1', '0', '0', '0', '0', '0', '1', '2', '34', '17', '66.7', '6', '1', '16.7', '3', '0', '100.0', '0', '0', '3', '0', '21', '5', '18', '25']"
"['', '20087', '2013-03-10', '21:00:00 GMT', '19', 'CBJ', 'Columbus', 'Blue Jackets', '16', 'DET', 'Detroit', 'Red Wings', '11', 'Joe Louis Arena', '19', 'CBJ', 'Columbus', 'Blue Jackets', '1', '0', '0', '0', '0', '0', '0', '2', '33', '28', '54.1', '5', '0', '0.0', '5', '1', '80.0', '0', '0', '2', '2', '19', '7', '17', '25']"
"['', '20100', '2013-03-12', '23:00:00 GMT', '21', 'VAN', 'Vancouver', 'Canucks', '19', 'CBJ', 'Columbus', 'Blue Jackets', '17', 'Nationwide Arena', '19', 'CBJ', 'Columbus', 'Blue Jackets', '0', '0', '0', '1', '0', '0', '0', '1', '28', '23', '54.9', '2', '0', '0.0', '2', '0', '100.0', '0', '0', '1', '1', '26', '2', '4', '29']"
"['', '20115', '2013-03-14', '23:00:00 GMT', '20', 'CHI', 'Chicago', 'Blackhawks', '19', 'CBJ', 'Columbus', 'Blue Jackets', '17', 'Nationwide Arena', '19', 'CBJ', 'Columbus', 'Blue Jackets', '0', '0', '0', '1', '0', '0', '0', '1', '30', '33', '47.6', '2', '1', '50.0', '1', '0', '100.0', '0', '0', '1', '1', '29', '2', '7', '19']"
"['', '20133', '2013-03-16', '23:00:00 GMT', '30', 'PHX', 'Phoenix', 'Coyotes', '19', 'CBJ', 'Columbus', 'Blue Jackets', '17', 'Nationwide Arena', '19', 'CBJ', 'Columbus', 'Blue Jackets', '1', '0', '0', '0', '0', '0', '0', '2', '28', '27', '50.9', '2', '0', '0.0', '2', '0', '100.0', '0', '0', '0', '0', '23', '3', '9', '25']"
"['', '20153', '2013-03-19', '23:00:00 GMT', '18', 'NSH', 'Nashville', 'Predators', '19', 'CBJ', 'Columbus', 'Blue Jackets', '17', 'Nationwide Arena', '19', 'CBJ', 'Columbus', 'Blue Jackets', '1', '0', '0', '0', '0', '0', '1', '2', '36', '23', '61.0', '3', '1', '33.3', '1', '0', '100.0', '0', '0', '4', '3', '27', '1', '2', '24']"
"['', '20174', '2013-03-22', '23:00:00 GMT', '23', 'CGY', 'Calgary', 'Flames', '19', 'CBJ', 'Columbus', 'Blue Jackets', '17', 'Nationwide Arena', '19', 'CBJ', 'Columbus', 'Blue Jackets', '1', '0', '0', '0', '0', '0', '1', '2', '31', '36', '46.3', '4', '0', '0.0', '2', '0', '100.0', '0', '0', '5', '1', '23', '2', '4', '20']"
"['', '20183', '2013-03-23', '00:00:00 GMT', '19', 'CBJ', 'Columbus', 'Blue Jackets', '18', 'NSH', 'Nashville', 'Predators', '15', 'Bridgestone Arena', '19', 'CBJ', 'Columbus', 'Blue Jackets', '0', '1', '0', '0', '0', '0', '0', '0', '28', '40', '41.2', '2', '1', '50.0', '2', '2', '0.0', '0', '0', '2', '5', '21', '3', '9', '17']"
"['', '20208', '2013-03-26', '02:00:00 GMT', '19', 'CBJ', 'Columbus', 'Blue Jackets', '21', 'VAN', 'Vancouver', 'Canucks', '7', 'Rogers Arena', '19', 'CBJ', 'Columbus', 'Blue Jackets', '0', '0', '0', '1', '0', '0', '0', '1', '30', '32', '48.4', '1', '0', '0.0', '3', '0', '100.0', '0', '0', '0', '0', '17', '3', '6', '36']"
"['', '20220', '2013-03-28', '01:30:00 GMT', '19', 'CBJ', 'Columbus', 'Blue Jackets', '24', 'EDM', 'Edmonton', 'Oilers', '22', 'Rogers Place', '19', 'CBJ', 'Columbus', 'Blue Jackets', '0', '1', '0', '0', '0', '0', '0', '0', '36', '28', '56.2', '2', '0', '0.0', '2', '0', '100.0', '0', '0', '4', '6', '26', '3', '9', '24']"
"['', '20226', '2013-03-29', '01:00:00 GMT', '19', 'CBJ', 'Columbus', 'Blue Jackets', '23', 'CGY', 'Calgary', 'Flames', '18', 'Scotiabank Saddledome', '19', 'CBJ', 'Columbus', 'Blue Jackets', '1', '0', '0', '0', '0', '0', '1', '2', '39', '20', '66.1', '1', '0', '0.0', '4', '1', '75.0', '1', '0', '6', '4', '19', '5', '13', '13']"
"['', '20239', '2013-03-31', '22:00:00 GMT', '29', 'ANA', 'Anaheim', 'Ducks', '19', 'CBJ', 'Columbus', 'Blue Jackets', '17', 'Nationwide Arena', '19', 'CBJ', 'Columbus', 'Blue Jackets', '1', '0', '0', '0', '0', '0', '1', '2', '34', '29', '54.0', '1', '0', '0.0', '2', '0', '100.0', '0', '0', '2', '1', '16', '2', '4', '21']"
"['', '20269', '2013-04-04', '00:00:00 GMT', '19', 'CBJ', 'Columbus', 'Blue Jackets', '18', 'NSH', 'Nashville', 'Predators', '15', 'Bridgestone Arena', '19', 'CBJ', 'Columbus', 'Blue Jackets', '1', '0', '0', '0', '0', '0', '1', '2', '32', '27', '54.2', '2', '1', '50.0', '2', '0', '100.0', '0', '0', '3', '1', '35', '3', '6', '17']"
"['', '20276', '2013-04-05', '00:00:00 GMT', '19', 'CBJ', 'Columbus', 'Blue Jackets', '17', 'STL', 'St. Louis', 'Blues', '24', 'Scottrade Center', '19', 'CBJ', 'Columbus', 'Blue Jackets', '0', '1', '0', '0', '0', '0', '0', '0', '33', '26', '55.9', '2', '0', '0.0', '4', '1', '75.0', '0', '1', '1', '3', '26', '7', '14', '20']"
"['', '20293', '2013-04-07', '22:00:00 GMT', '25', 'MIN', 'Minnesota', 'Wild', '19', 'CBJ', 'Columbus', 'Blue Jackets', '17', 'Nationwide Arena', '19', 'CBJ', 'Columbus', 'Blue Jackets', '0', '1', '0', '0', '0', '0', '0', '0', '25', '27', '48.1', '4', '0', '0.0', '3', '2', '33.3', '0', '0', '0', '3', '24', '3', '6', '22']"
"['', '20305', '2013-04-09', '23:00:00 GMT', '26', 'SJS', 'San Jose', 'Sharks', '19', 'CBJ', 'Columbus', 'Blue Jackets', '17', 'Nationwide Arena', '19', 'CBJ', 'Columbus', 'Blue Jackets', '1', '0', '0', '0', '0', '0', '1', '2', '32', '30', '51.6', '2', '0', '0.0', '1', '0', '100.0', '0', '0', '4', '0', '26', '2', '4', '23']"
"['', '20327', '2013-04-12', '23:00:00 GMT', '17', 'STL', 'St. Louis', 'Blues', '19', 'CBJ', 'Columbus', 'Blue Jackets', '17', 'Nationwide Arena', '19', 'CBJ', 'Columbus', 'Blue Jackets', '1', '0', '0', '0', '0', '0', '1', '2', '25', '23', '52.1', '2', '0', '0.0', '4', '0', '100.0', '0', '0', '4', '1', '15', '6', '20', '31']"
"['', '20338', '2013-04-13', '00:00:00 GMT', '19', 'CBJ', 'Columbus', 'Blue Jackets', '25', 'MIN', 'Minnesota', 'Wild', '30', 'Xcel Energy Center', '19', 'CBJ', 'Columbus', 'Blue Jackets', '1', '0', '0', '0', '0', '0', '0', '2', '23', '30', '43.4', '1', '0', '0.0', '5', '1', '80.0', '0', '0', '2', '2', '20', '8', '30', '21']"
"['', '20350', '2013-04-15', '01:00:00 GMT', '19', 'CBJ', 'Columbus', 'Blue Jackets', '22', 'COL', 'Colorado', 'Avalanche', '19', 'Pepsi Center', '19', 'CBJ', 'Columbus', 'Blue Jackets', '1', '0', '0', '0', '0', '0', '1', '2', '40', '25', '61.5', '0', '0', '0.0', '3', '1', '66.7', '0', '0', '4', '3', '26', '4', '11', '18']"
"['', '20364', '2013-04-17', '02:00:00 GMT', '19', 'CBJ', 'Columbus', 'Blue Jackets', '29', 'ANA', 'Anaheim', 'Ducks', '8', 'Honda Center', '19', 'CBJ', 'Columbus', 'Blue Jackets', '1', '0', '0', '0', '0', '0', '1', '2', '34', '33', '50.7', '2', '0', '0.0', '3', '1', '66.7', '0', '0', '3', '2', '25', '5', '10', '20']"
"['', '20373', '2013-04-18', '02:30:00 GMT', '19', 'CBJ', 'Columbus', 'Blue Jackets', '28', 'LAK', 'Los Angeles', 'Kings', '25', 'Staples Center', '19', 'CBJ', 'Columbus', 'Blue Jackets', '0', '1', '0', '0', '0', '0', '0', '0', '25', '22', '53.2', '2', '0', '0.0', '2', '1', '50.0', '0', '0', '1', '2', '20', '5', '18', '50']"
"['', '20394', '2013-04-21', '00:00:00 GMT', '19', 'CBJ', 'Columbus', 'Blue Jackets', '26', 'SJS', 'San Jose', 'Sharks', '9', 'SAP Center at San Jose', '19', 'CBJ', 'Columbus', 'Blue Jackets', '1', '0', '0', '0', '0', '0', '1', '2', '26', '22', '54.2', '2', '1', '50.0', '3', '1', '66.7', '0', '0', '4', '3', '18', '3', '6', '29']"
"['', '20422', '2013-04-25', '00:30:00 GMT', '19', 'CBJ', 'Columbus', 'Blue Jackets', '27', 'DAL', 'Dallas', 'Stars', '2', 'American Airlines Center', '19', 'CBJ', 'Columbus', 'Blue Jackets', '1', '0', '0', '0', '0', '0', '1', '2', '36', '36', '50.0', '4', '2', '50.0', '3', '1', '66.7', '0', '0', '3', '1', '32', '6', '18', '35']"
"['', '20433', '2013-04-27', '23:00:00 GMT', '18', 'NSH', 'Nashville', 'Predators', '19', 'CBJ', 'Columbus', 'Blue Jackets', '17', 'Nationwide Arena', '19', 'CBJ', 'Columbus', 'Blue Jackets', '1', '0', '0', '0', '0', '0', '1', '2', '41', '17', '70.7', '2', '1', '50.0', '0', '0', '0.0', '0', '0', '3', '1', '44', '1', '2', '28']"
