"['#Date/Time of Update: 2018-12-10 19:03:17 GMT', '#Game ID', '#Game Date', '#Game Time', '#Away Team ID', '#Away Team Abbr.', '#Away Team City', '#Away Team Name', '#Home Team ID', '#Home Team Abbr.', '#Home Team City', '#Home Team Name', '#Venue ID', '#Venue Name', '#Team ID', '#Team Abbr.', '#Team City', '#Team Name', '#Wins', '#Losses', '#OvertimeWins', '#OvertimeLosses', '#ShootoutWins', '#ShootoutLosses', '#Rows', '#Points', '#FaceoffWins', '#FaceoffLosses', '#FaceoffPercent', '#Powerplays', '#PowerplayGoals', '#PowerplayPercent', '#PenaltyKills', '#PenaltyKillGoalsAllowed', '#PenaltyKillPercent', '#ShorthandedGoalsFor', '#ShorthandedGoalsAgainst', '#GoalsFor', '#GoalsAgainst', '#Shots', '#Penalties', '#PenaltyMinutes', '#Hits']"
"['', '29021', '2015-10-07', '02:00:00 GMT', '21', 'VAN', 'Vancouver', 'Canucks', '23', 'CGY', 'Calgary', 'Flames', '18', 'Scotiabank Saddledome', '23', 'CGY', 'Calgary', 'Flames', '0', '1', '0', '0', '0', '0', '0', '0', '35', '32', '52.2', '1', '0', '0.0', '3', '0', '100.0', '0', '0', '1', '5', '30', '8', '38', '28']"
"['', '29047', '2015-10-10', '02:00:00 GMT', '23', 'CGY', 'Calgary', 'Flames', '21', 'VAN', 'Vancouver', 'Canucks', '7', 'Rogers Arena', '23', 'CGY', 'Calgary', 'Flames', '1', '0', '0', '0', '0', '0', '1', '2', '35', '34', '50.7', '2', '1', '50.0', '4', '1', '75.0', '0', '0', '3', '2', '38', '6', '12', '23']"
"['', '29062', '2015-10-13', '01:00:00 GMT', '17', 'STL', 'St. Louis', 'Blues', '23', 'CGY', 'Calgary', 'Flames', '18', 'Scotiabank Saddledome', '23', 'CGY', 'Calgary', 'Flames', '0', '1', '0', '0', '0', '0', '0', '0', '20', '36', '35.7', '4', '1', '25.0', '1', '1', '0.0', '0', '0', '3', '4', '18', '1', '2', '14']"
"['', '29079', '2015-10-16', '00:00:00 GMT', '23', 'CGY', 'Calgary', 'Flames', '2', 'WPJ', 'Winnipeg', 'Jets', '39', 'MTS Centre', '23', 'CGY', 'Calgary', 'Flames', '0', '1', '0', '0', '0', '0', '0', '0', '28', '31', '47.5', '2', '0', '0.0', '4', '0', '100.0', '0', '0', '1', '3', '20', '3', '8', '15']"
"['', '29091', '2015-10-17', '02:00:00 GMT', '24', 'EDM', 'Edmonton', 'Oilers', '23', 'CGY', 'Calgary', 'Flames', '18', 'Scotiabank Saddledome', '23', 'CGY', 'Calgary', 'Flames', '0', '1', '0', '0', '0', '0', '0', '0', '33', '43', '43.4', '4', '1', '25.0', '4', '1', '75.0', '0', '0', '2', '5', '24', '5', '13', '21']"
"['', '29105', '2015-10-20', '01:00:00 GMT', '5', 'WSH', 'Washington', 'Capitals', '23', 'CGY', 'Calgary', 'Flames', '18', 'Scotiabank Saddledome', '23', 'CGY', 'Calgary', 'Flames', '0', '1', '0', '0', '0', '0', '0', '0', '30', '34', '46.9', '2', '0', '0.0', '3', '0', '100.0', '0', '0', '2', '6', '19', '3', '6', '15']"
"['', '29121', '2015-10-23', '01:00:00 GMT', '16', 'DET', 'Detroit', 'Red Wings', '23', 'CGY', 'Calgary', 'Flames', '18', 'Scotiabank Saddledome', '23', 'CGY', 'Calgary', 'Flames', '1', '0', '0', '0', '0', '0', '1', '2', '30', '32', '48.4', '2', '0', '0.0', '4', '2', '50.0', '0', '0', '3', '2', '40', '6', '15', '11']"
"['', '29137', '2015-10-25', '23:00:00 GMT', '23', 'CGY', 'Calgary', 'Flames', '9', 'NYR', 'New York', 'Rangers', '12', 'Madison Square Garden', '23', 'CGY', 'Calgary', 'Flames', '0', '1', '0', '0', '0', '0', '0', '0', '24', '23', '51.1', '2', '0', '0.0', '2', '0', '100.0', '0', '0', '1', '4', '23', '3', '6', '23']"
"['', '29139', '2015-10-26', '23:00:00 GMT', '23', 'CGY', 'Calgary', 'Flames', '8', 'NYI', 'New York', 'Islanders', '16', 'Nassau Veterans Memorial Coliseum', '23', 'CGY', 'Calgary', 'Flames', '0', '1', '0', '0', '0', '0', '0', '0', '28', '31', '47.5', '3', '0', '0.0', '3', '1', '66.7', '0', '0', '0', '4', '29', '4', '16', '38']"
"['', '29152', '2015-10-28', '23:30:00 GMT', '23', 'CGY', 'Calgary', 'Flames', '13', 'OTT', 'Ottawa', 'Senators', '23', 'Canadian Tire Centre', '23', 'CGY', 'Calgary', 'Flames', '0', '0', '0', '1', '0', '0', '0', '1', '31', '42', '42.5', '4', '1', '25.0', '3', '0', '100.0', '0', '0', '4', '4', '38', '4', '8', '28']"
"['', '29170', '2015-10-30', '01:00:00 GMT', '14', 'MTL', 'Montreal', 'Canadiens', '23', 'CGY', 'Calgary', 'Flames', '18', 'Scotiabank Saddledome', '23', 'CGY', 'Calgary', 'Flames', '0', '1', '0', '0', '0', '0', '0', '0', '35', '34', '50.7', '3', '0', '0.0', '3', '1', '66.7', '0', '1', '2', '6', '32', '4', '8', '21']"
"['', '29181', '2015-10-31', '02:00:00 GMT', '23', 'CGY', 'Calgary', 'Flames', '24', 'EDM', 'Edmonton', 'Oilers', '22', 'Rogers Place', '23', 'CGY', 'Calgary', 'Flames', '1', '0', '0', '0', '0', '0', '1', '2', '26', '40', '39.4', '2', '1', '50.0', '4', '2', '50.0', '0', '0', '5', '4', '32', '5', '10', '31']"
"['', '29196', '2015-11-03', '02:00:00 GMT', '23', 'CGY', 'Calgary', 'Flames', '22', 'COL', 'Colorado', 'Avalanche', '19', 'Pepsi Center', '23', 'CGY', 'Calgary', 'Flames', '0', '1', '0', '0', '0', '0', '0', '0', '28', '27', '50.9', '2', '0', '0.0', '3', '1', '66.7', '0', '1', '3', '6', '25', '3', '6', '6']"
"['', '29208', '2015-11-05', '02:00:00 GMT', '6', 'PHI', 'Philadelphia', 'Flyers', '23', 'CGY', 'Calgary', 'Flames', '18', 'Scotiabank Saddledome', '23', 'CGY', 'Calgary', 'Flames', '1', '0', '0', '0', '0', '0', '1', '2', '34', '30', '53.1', '2', '0', '0.0', '2', '0', '100.0', '0', '0', '2', '1', '30', '2', '4', '16']"
"['', '29227', '2015-11-07', '03:00:00 GMT', '10', 'PIT', 'Pittsburgh', 'Penguins', '23', 'CGY', 'Calgary', 'Flames', '18', 'Scotiabank Saddledome', '23', 'CGY', 'Calgary', 'Flames', '1', '0', '0', '0', '0', '0', '1', '2', '31', '38', '44.9', '3', '1', '33.3', '2', '1', '50.0', '0', '0', '5', '2', '31', '2', '4', '25']"
"['', '29240', '2015-11-10', '00:30:00 GMT', '23', 'CGY', 'Calgary', 'Flames', '4', 'FLO', 'Florida', 'Panthers', '3', 'BB&T Center', '23', 'CGY', 'Calgary', 'Flames', '0', '1', '0', '0', '0', '0', '0', '0', '33', '23', '58.9', '1', '1', '100.0', '2', '1', '50.0', '0', '0', '3', '4', '28', '3', '9', '24']"
"['', '29253', '2015-11-12', '00:30:00 GMT', '23', 'CGY', 'Calgary', 'Flames', '1', 'TBL', 'Tampa Bay', 'Lightning', '26', 'Amalie Arena', '23', 'CGY', 'Calgary', 'Flames', '0', '1', '0', '0', '0', '0', '0', '0', '44', '34', '56.4', '4', '1', '25.0', '2', '1', '50.0', '0', '0', '1', '3', '31', '2', '4', '19']"
"['', '29261', '2015-11-13', '00:00:00 GMT', '23', 'CGY', 'Calgary', 'Flames', '5', 'WSH', 'Washington', 'Capitals', '13', 'Verizon Center', '23', 'CGY', 'Calgary', 'Flames', '1', '0', '0', '0', '0', '0', '1', '2', '32', '33', '49.2', '1', '0', '0.0', '2', '0', '100.0', '0', '0', '3', '2', '29', '3', '9', '19']"
"['', '29278', '2015-11-15', '01:30:00 GMT', '23', 'CGY', 'Calgary', 'Flames', '20', 'CHI', 'Chicago', 'Blackhawks', '28', 'United Center', '23', 'CGY', 'Calgary', 'Flames', '0', '1', '0', '0', '0', '0', '0', '0', '25', '32', '43.9', '2', '0', '0.0', '1', '0', '100.0', '0', '0', '1', '4', '26', '1', '2', '39']"
"['', '29292', '2015-11-17', '02:00:00 GMT', '7', 'NJD', 'New Jersey', 'Devils', '23', 'CGY', 'Calgary', 'Flames', '18', 'Scotiabank Saddledome', '23', 'CGY', 'Calgary', 'Flames', '1', '0', '0', '0', '0', '0', '1', '2', '33', '30', '52.4', '2', '0', '0.0', '3', '1', '66.7', '0', '0', '3', '2', '30', '3', '6', '16']"
"['', '29309', '2015-11-20', '02:00:00 GMT', '20', 'CHI', 'Chicago', 'Blackhawks', '23', 'CGY', 'Calgary', 'Flames', '18', 'Scotiabank Saddledome', '23', 'CGY', 'Calgary', 'Flames', '1', '0', '0', '0', '0', '0', '1', '2', '26', '27', '49.1', '1', '0', '0.0', '3', '1', '66.7', '0', '0', '2', '1', '37', '3', '6', '18']"
"['', '29334', '2015-11-24', '03:00:00 GMT', '23', 'CGY', 'Calgary', 'Flames', '29', 'ANA', 'Anaheim', 'Ducks', '8', 'Honda Center', '23', 'CGY', 'Calgary', 'Flames', '0', '1', '0', '0', '0', '0', '0', '0', '23', '34', '40.4', '2', '0', '0.0', '2', '2', '0.0', '0', '0', '3', '5', '25', '3', '9', '31']"
"['', '29359', '2015-11-27', '02:00:00 GMT', '23', 'CGY', 'Calgary', 'Flames', '30', 'ARI', 'Arizona', 'Coyotes', '6', 'Gila River Arena', '23', 'CGY', 'Calgary', 'Flames', '0', '0', '0', '1', '0', '0', '0', '1', '20', '38', '34.5', '5', '1', '20.0', '2', '0', '100.0', '0', '0', '1', '2', '26', '3', '6', '16']"
"['', '29370', '2015-11-28', '03:00:00 GMT', '23', 'CGY', 'Calgary', 'Flames', '26', 'SJS', 'San Jose', 'Sharks', '9', 'SAP Center at San Jose', '23', 'CGY', 'Calgary', 'Flames', '0', '1', '0', '0', '0', '0', '0', '0', '26', '24', '52.0', '3', '0', '0.0', '2', '2', '0.0', '0', '0', '2', '5', '27', '3', '9', '27']"
"['', '29384', '2015-12-01', '02:00:00 GMT', '27', 'DAL', 'Dallas', 'Stars', '23', 'CGY', 'Calgary', 'Flames', '18', 'Scotiabank Saddledome', '23', 'CGY', 'Calgary', 'Flames', '1', '0', '0', '0', '0', '0', '0', '2', '28', '27', '50.9', '3', '0', '0.0', '1', '0', '100.0', '0', '0', '3', '3', '32', '2', '4', '14']"
"['', '29403', '2015-12-04', '02:00:00 GMT', '11', 'BOS', 'Boston', 'Bruins', '23', 'CGY', 'Calgary', 'Flames', '18', 'Scotiabank Saddledome', '23', 'CGY', 'Calgary', 'Flames', '1', '0', '0', '0', '0', '0', '1', '2', '29', '29', '50.0', '4', '0', '0.0', '1', '0', '100.0', '0', '0', '5', '4', '37', '2', '4', '11']"
"['', '29434', '2015-12-08', '02:00:00 GMT', '26', 'SJS', 'San Jose', 'Sharks', '23', 'CGY', 'Calgary', 'Flames', '18', 'Scotiabank Saddledome', '23', 'CGY', 'Calgary', 'Flames', '1', '0', '0', '0', '0', '0', '1', '2', '27', '38', '41.5', '6', '1', '16.7', '3', '1', '66.7', '0', '0', '4', '2', '33', '4', '8', '14']"
"['', '29445', '2015-12-10', '02:00:00 GMT', '15', 'BUF', 'Buffalo', 'Sabres', '23', 'CGY', 'Calgary', 'Flames', '18', 'Scotiabank Saddledome', '23', 'CGY', 'Calgary', 'Flames', '1', '0', '0', '0', '0', '0', '1', '2', '33', '33', '50.0', '2', '0', '0.0', '3', '2', '33.3', '0', '0', '4', '3', '32', '3', '6', '14']"
"['', '29461', '2015-12-12', '03:00:00 GMT', '9', 'NYR', 'New York', 'Rangers', '23', 'CGY', 'Calgary', 'Flames', '18', 'Scotiabank Saddledome', '23', 'CGY', 'Calgary', 'Flames', '1', '0', '0', '0', '0', '0', '1', '2', '27', '29', '48.2', '3', '0', '0.0', '4', '1', '75.0', '0', '0', '5', '4', '27', '5', '10', '6']"
"['', '29477', '2015-12-15', '01:00:00 GMT', '23', 'CGY', 'Calgary', 'Flames', '18', 'NSH', 'Nashville', 'Predators', '15', 'Bridgestone Arena', '23', 'CGY', 'Calgary', 'Flames', '1', '0', '0', '0', '0', '0', '1', '2', '19', '24', '44.2', '3', '0', '0.0', '2', '0', '100.0', '0', '0', '2', '1', '21', '2', '4', '17']"
"['', '29492', '2015-12-17', '01:30:00 GMT', '23', 'CGY', 'Calgary', 'Flames', '27', 'DAL', 'Dallas', 'Stars', '2', 'American Airlines Center', '23', 'CGY', 'Calgary', 'Flames', '1', '0', '0', '0', '0', '0', '1', '2', '32', '29', '52.5', '3', '0', '0.0', '3', '0', '100.0', '0', '1', '3', '1', '27', '4', '11', '19']"
"['', '29502', '2015-12-19', '20:00:00 GMT', '23', 'CGY', 'Calgary', 'Flames', '17', 'STL', 'St. Louis', 'Blues', '24', 'Scottrade Center', '23', 'CGY', 'Calgary', 'Flames', '0', '1', '0', '0', '0', '0', '0', '0', '28', '36', '43.8', '4', '0', '0.0', '0', '0', '0.0', '0', '0', '2', '3', '38', '1', '5', '27']"
"['', '29514', '2015-12-20', '00:00:00 GMT', '23', 'CGY', 'Calgary', 'Flames', '16', 'DET', 'Detroit', 'Red Wings', '11', 'Joe Louis Arena', '23', 'CGY', 'Calgary', 'Flames', '0', '1', '0', '0', '0', '0', '0', '0', '16', '39', '29.1', '3', '1', '33.3', '3', '0', '100.0', '0', '0', '2', '4', '28', '4', '8', '31']"
"['', '29532', '2015-12-22', '02:00:00 GMT', '2', 'WPJ', 'Winnipeg', 'Jets', '23', 'CGY', 'Calgary', 'Flames', '18', 'Scotiabank Saddledome', '23', 'CGY', 'Calgary', 'Flames', '1', '0', '0', '0', '0', '0', '1', '2', '39', '38', '50.6', '5', '1', '20.0', '1', '0', '100.0', '0', '0', '4', '1', '33', '1', '2', '24']"
"['', '29552', '2015-12-27', '02:00:00 GMT', '24', 'EDM', 'Edmonton', 'Oilers', '23', 'CGY', 'Calgary', 'Flames', '18', 'Scotiabank Saddledome', '23', 'CGY', 'Calgary', 'Flames', '1', '0', '0', '0', '0', '0', '1', '2', '33', '28', '54.1', '3', '2', '66.7', '1', '0', '100.0', '1', '0', '5', '3', '37', '1', '2', '18']"
"['', '29566', '2015-12-29', '02:00:00 GMT', '29', 'ANA', 'Anaheim', 'Ducks', '23', 'CGY', 'Calgary', 'Flames', '18', 'Scotiabank Saddledome', '23', 'CGY', 'Calgary', 'Flames', '0', '1', '0', '0', '0', '0', '0', '0', '26', '18', '59.1', '3', '0', '0.0', '2', '0', '100.0', '0', '0', '0', '1', '14', '4', '13', '24']"
"['', '29580', '2015-12-31', '02:00:00 GMT', '28', 'LAK', 'Los Angeles', 'Kings', '23', 'CGY', 'Calgary', 'Flames', '18', 'Scotiabank Saddledome', '23', 'CGY', 'Calgary', 'Flames', '0', '1', '0', '0', '0', '0', '0', '0', '30', '25', '54.5', '4', '0', '0.0', '1', '1', '0.0', '0', '0', '1', '4', '24', '2', '7', '18']"
"['', '29595', '2016-01-02', '03:00:00 GMT', '23', 'CGY', 'Calgary', 'Flames', '22', 'COL', 'Colorado', 'Avalanche', '19', 'Pepsi Center', '23', 'CGY', 'Calgary', 'Flames', '1', '0', '0', '0', '0', '0', '1', '2', '33', '25', '56.9', '7', '1', '14.3', '2', '0', '100.0', '0', '0', '4', '0', '34', '2', '4', '13']"
"['', '29613', '2016-01-05', '02:00:00 GMT', '1', 'TBL', 'Tampa Bay', 'Lightning', '23', 'CGY', 'Calgary', 'Flames', '18', 'Scotiabank Saddledome', '23', 'CGY', 'Calgary', 'Flames', '1', '0', '0', '0', '0', '0', '1', '2', '23', '28', '45.1', '1', '0', '0.0', '0', '0', '0.0', '0', '0', '3', '1', '24', '0', '0', '24']"
"['', '29623', '2016-01-07', '02:00:00 GMT', '30', 'ARI', 'Arizona', 'Coyotes', '23', 'CGY', 'Calgary', 'Flames', '18', 'Scotiabank Saddledome', '23', 'CGY', 'Calgary', 'Flames', '0', '1', '0', '0', '0', '0', '0', '0', '24', '35', '40.7', '3', '1', '33.3', '3', '1', '66.7', '0', '0', '1', '2', '26', '3', '6', '14']"
"['', '29649', '2016-01-11', '02:00:00 GMT', '26', 'SJS', 'San Jose', 'Sharks', '23', 'CGY', 'Calgary', 'Flames', '18', 'Scotiabank Saddledome', '23', 'CGY', 'Calgary', 'Flames', '0', '1', '0', '0', '0', '0', '0', '0', '44', '29', '60.3', '3', '3', '100.0', '1', '1', '0.0', '0', '0', '4', '5', '35', '2', '7', '22']"
"['', '29662', '2016-01-13', '02:30:00 GMT', '4', 'FLO', 'Florida', 'Panthers', '23', 'CGY', 'Calgary', 'Flames', '18', 'Scotiabank Saddledome', '23', 'CGY', 'Calgary', 'Flames', '1', '0', '0', '0', '0', '0', '1', '2', '29', '25', '53.7', '2', '0', '0.0', '2', '0', '100.0', '0', '0', '6', '0', '36', '2', '4', '14']"
"['', '29686', '2016-01-16', '03:00:00 GMT', '23', 'CGY', 'Calgary', 'Flames', '24', 'EDM', 'Edmonton', 'Oilers', '22', 'Rogers Place', '23', 'CGY', 'Calgary', 'Flames', '0', '0', '0', '1', '0', '0', '0', '1', '30', '45', '40.0', '5', '0', '0.0', '1', '0', '100.0', '0', '0', '1', '1', '32', '1', '2', '32']"
"['', '29700', '2016-01-19', '00:00:00 GMT', '23', 'CGY', 'Calgary', 'Flames', '7', 'NJD', 'New Jersey', 'Devils', '37', 'Prudential Center', '23', 'CGY', 'Calgary', 'Flames', '0', '1', '0', '0', '0', '0', '0', '0', '26', '24', '52.0', '4', '2', '50.0', '2', '0', '100.0', '0', '0', '2', '4', '28', '2', '4', '24']"
"['', '29714', '2016-01-21', '00:00:00 GMT', '23', 'CGY', 'Calgary', 'Flames', '19', 'CBJ', 'Columbus', 'Blue Jackets', '17', 'Nationwide Arena', '23', 'CGY', 'Calgary', 'Flames', '1', '0', '0', '0', '0', '0', '1', '2', '22', '23', '48.9', '0', '0', '0.0', '1', '0', '100.0', '0', '0', '4', '2', '27', '2', '4', '11']"
"['', '29740', '2016-01-24', '23:00:00 GMT', '23', 'CGY', 'Calgary', 'Flames', '3', 'CAR', 'Carolina', 'Hurricanes', '21', 'RBC Center', '23', 'CGY', 'Calgary', 'Flames', '0', '1', '0', '0', '0', '0', '0', '0', '29', '38', '43.3', '5', '0', '0.0', '5', '1', '80.0', '0', '0', '2', '5', '35', '5', '10', '18']"
"['', '29747', '2016-01-25', '01:30:00 GMT', '23', 'CGY', 'Calgary', 'Flames', '27', 'DAL', 'Dallas', 'Stars', '2', 'American Airlines Center', '23', 'CGY', 'Calgary', 'Flames', '0', '1', '0', '0', '0', '0', '0', '0', '26', '28', '48.1', '5', '0', '0.0', '2', '0', '100.0', '0', '0', '1', '2', '24', '3', '6', '16']"
"['', '29760', '2016-01-27', '02:30:00 GMT', '18', 'NSH', 'Nashville', 'Predators', '23', 'CGY', 'Calgary', 'Flames', '18', 'Scotiabank Saddledome', '23', 'CGY', 'Calgary', 'Flames', '0', '1', '0', '0', '0', '0', '0', '0', '30', '25', '54.5', '4', '0', '0.0', '4', '1', '75.0', '0', '0', '1', '2', '27', '4', '8', '19']"
"['', '29776', '2016-02-03', '02:30:00 GMT', '3', 'CAR', 'Carolina', 'Hurricanes', '23', 'CGY', 'Calgary', 'Flames', '18', 'Scotiabank Saddledome', '23', 'CGY', 'Calgary', 'Flames', '1', '0', '0', '0', '0', '0', '1', '2', '22', '28', '44.0', '4', '2', '50.0', '5', '0', '100.0', '0', '0', '4', '1', '24', '5', '10', '12']"
"['', '29791', '2016-02-05', '02:00:00 GMT', '19', 'CBJ', 'Columbus', 'Blue Jackets', '23', 'CGY', 'Calgary', 'Flames', '18', 'Scotiabank Saddledome', '23', 'CGY', 'Calgary', 'Flames', '0', '1', '0', '0', '0', '0', '0', '0', '38', '33', '53.5', '1', '0', '0.0', '0', '0', '0.0', '0', '0', '1', '2', '31', '1', '2', '12']"
"['', '29804', '2016-02-06', '03:00:00 GMT', '23', 'CGY', 'Calgary', 'Flames', '21', 'VAN', 'Vancouver', 'Canucks', '7', 'Rogers Arena', '23', 'CGY', 'Calgary', 'Flames', '1', '0', '0', '0', '0', '0', '1', '2', '32', '17', '65.3', '2', '0', '0.0', '1', '0', '100.0', '0', '0', '4', '1', '30', '2', '7', '20']"
"['', '29823', '2016-02-09', '02:00:00 GMT', '12', 'TOR', 'Toronto', 'Maple Leafs', '23', 'CGY', 'Calgary', 'Flames', '18', 'Scotiabank Saddledome', '23', 'CGY', 'Calgary', 'Flames', '1', '0', '0', '0', '0', '0', '1', '2', '36', '38', '48.6', '3', '1', '33.3', '3', '1', '66.7', '1', '0', '4', '3', '22', '3', '6', '15']"
"['', '29835', '2016-02-11', '03:30:00 GMT', '23', 'CGY', 'Calgary', 'Flames', '26', 'SJS', 'San Jose', 'Sharks', '9', 'SAP Center at San Jose', '23', 'CGY', 'Calgary', 'Flames', '1', '0', '0', '0', '0', '0', '0', '2', '34', '32', '51.5', '5', '2', '40.0', '7', '3', '57.1', '0', '0', '5', '5', '22', '9', '18', '36']"
"['', '29842', '2016-02-12', '02:00:00 GMT', '23', 'CGY', 'Calgary', 'Flames', '30', 'ARI', 'Arizona', 'Coyotes', '6', 'Gila River Arena', '23', 'CGY', 'Calgary', 'Flames', '0', '1', '0', '0', '0', '0', '0', '0', '23', '39', '37.1', '5', '0', '0.0', '8', '3', '62.5', '0', '0', '1', '4', '27', '10', '20', '22']"
"['', '29859', '2016-02-15', '21:00:00 GMT', '29', 'ANA', 'Anaheim', 'Ducks', '23', 'CGY', 'Calgary', 'Flames', '18', 'Scotiabank Saddledome', '23', 'CGY', 'Calgary', 'Flames', '0', '1', '0', '0', '0', '0', '0', '0', '27', '30', '47.4', '5', '2', '40.0', '3', '3', '0.0', '0', '0', '4', '6', '37', '4', '8', '17']"
"['', '29875', '2016-02-17', '03:00:00 GMT', '25', 'MIN', 'Minnesota', 'Wild', '23', 'CGY', 'Calgary', 'Flames', '18', 'Scotiabank Saddledome', '23', 'CGY', 'Calgary', 'Flames', '0', '1', '0', '0', '0', '0', '0', '0', '30', '29', '50.8', '5', '1', '20.0', '3', '1', '66.7', '0', '1', '3', '5', '28', '3', '6', '16']"
"['', '29891', '2016-02-19', '02:00:00 GMT', '21', 'VAN', 'Vancouver', 'Canucks', '23', 'CGY', 'Calgary', 'Flames', '18', 'Scotiabank Saddledome', '23', 'CGY', 'Calgary', 'Flames', '1', '0', '0', '0', '0', '0', '1', '2', '33', '32', '50.8', '2', '0', '0.0', '2', '0', '100.0', '0', '0', '5', '2', '33', '3', '14', '19']"
"['', '29905', '2016-02-21', '00:00:00 GMT', '23', 'CGY', 'Calgary', 'Flames', '29', 'ANA', 'Anaheim', 'Ducks', '8', 'Honda Center', '23', 'CGY', 'Calgary', 'Flames', '0', '1', '0', '0', '0', '0', '0', '0', '28', '29', '49.1', '5', '1', '20.0', '4', '2', '50.0', '0', '0', '2', '5', '24', '6', '12', '27']"
"['', '29919', '2016-02-23', '03:30:00 GMT', '23', 'CGY', 'Calgary', 'Flames', '28', 'LAK', 'Los Angeles', 'Kings', '25', 'Staples Center', '23', 'CGY', 'Calgary', 'Flames', '0', '1', '0', '0', '0', '0', '0', '0', '35', '37', '48.6', '2', '1', '50.0', '4', '1', '75.0', '0', '0', '1', '2', '23', '5', '10', '24']"
"['', '29931', '2016-02-25', '02:00:00 GMT', '8', 'NYI', 'New York', 'Islanders', '23', 'CGY', 'Calgary', 'Flames', '18', 'Scotiabank Saddledome', '23', 'CGY', 'Calgary', 'Flames', '0', '0', '0', '1', '0', '0', '0', '1', '32', '27', '54.2', '2', '0', '0.0', '2', '0', '100.0', '0', '0', '1', '2', '32', '5', '19', '13']"
"['', '29946', '2016-02-27', '03:00:00 GMT', '13', 'OTT', 'Ottawa', 'Senators', '23', 'CGY', 'Calgary', 'Flames', '18', 'Scotiabank Saddledome', '23', 'CGY', 'Calgary', 'Flames', '0', '1', '0', '0', '0', '0', '0', '0', '29', '36', '44.6', '3', '1', '33.3', '3', '1', '66.7', '0', '0', '4', '6', '38', '3', '6', '29']"
"['', '29956', '2016-02-29', '00:00:00 GMT', '23', 'CGY', 'Calgary', 'Flames', '6', 'PHI', 'Philadelphia', 'Flyers', '29', 'Wells Fargo Center', '23', 'CGY', 'Calgary', 'Flames', '0', '1', '0', '0', '0', '0', '0', '0', '28', '29', '49.1', '4', '1', '25.0', '3', '2', '33.3', '0', '0', '3', '5', '32', '4', '8', '34']"
"['', '29961', '2016-03-01', '00:00:00 GMT', '23', 'CGY', 'Calgary', 'Flames', '11', 'BOS', 'Boston', 'Bruins', '27', 'TD Garden', '23', 'CGY', 'Calgary', 'Flames', '0', '1', '0', '0', '0', '0', '0', '0', '23', '35', '39.7', '4', '0', '0.0', '5', '1', '80.0', '0', '0', '1', '2', '25', '5', '10', '27']"
"['', '29973', '2016-03-03', '00:00:00 GMT', '23', 'CGY', 'Calgary', 'Flames', '15', 'BUF', 'Buffalo', 'Sabres', '10', 'First Niagara Center', '23', 'CGY', 'Calgary', 'Flames', '0', '1', '0', '0', '0', '0', '0', '0', '31', '29', '51.7', '3', '1', '33.3', '8', '1', '87.5', '0', '1', '3', '6', '29', '8', '16', '23']"
"['', '29988', '2016-03-05', '20:00:00 GMT', '23', 'CGY', 'Calgary', 'Flames', '10', 'PIT', 'Pittsburgh', 'Penguins', '40', 'Consol Energy Center', '23', 'CGY', 'Calgary', 'Flames', '1', '0', '0', '0', '0', '0', '1', '2', '29', '35', '45.3', '3', '0', '0.0', '2', '0', '100.0', '0', '0', '4', '2', '30', '2', '4', '32']"
"['', '30008', '2016-03-07', '02:00:00 GMT', '26', 'SJS', 'San Jose', 'Sharks', '23', 'CGY', 'Calgary', 'Flames', '18', 'Scotiabank Saddledome', '23', 'CGY', 'Calgary', 'Flames', '0', '0', '0', '1', '0', '0', '0', '1', '31', '26', '54.4', '6', '1', '16.7', '2', '0', '100.0', '0', '0', '1', '2', '48', '4', '19', '13']"
"['', '30021', '2016-03-09', '02:30:00 GMT', '18', 'NSH', 'Nashville', 'Predators', '23', 'CGY', 'Calgary', 'Flames', '18', 'Scotiabank Saddledome', '23', 'CGY', 'Calgary', 'Flames', '1', '0', '0', '0', '0', '0', '1', '2', '30', '25', '54.5', '3', '0', '0.0', '2', '0', '100.0', '0', '0', '3', '2', '34', '3', '6', '17']"
"['', '30035', '2016-03-11', '02:00:00 GMT', '30', 'ARI', 'Arizona', 'Coyotes', '23', 'CGY', 'Calgary', 'Flames', '18', 'Scotiabank Saddledome', '23', 'CGY', 'Calgary', 'Flames', '0', '1', '0', '0', '0', '0', '0', '0', '32', '33', '49.2', '3', '0', '0.0', '4', '1', '75.0', '1', '1', '1', '4', '25', '4', '8', '29']"
"['', '30053', '2016-03-14', '01:00:00 GMT', '17', 'STL', 'St. Louis', 'Blues', '23', 'CGY', 'Calgary', 'Flames', '18', 'Scotiabank Saddledome', '23', 'CGY', 'Calgary', 'Flames', '1', '0', '0', '0', '0', '0', '1', '2', '35', '48', '42.2', '3', '1', '33.3', '4', '1', '75.0', '2', '0', '7', '4', '32', '5', '10', '16']"
"['', '30852', '2016-03-16', '02:00:00 GMT', '2', 'WPJ', 'Winnipeg', 'Jets', '23', 'CGY', 'Calgary', 'Flames', '18', 'Scotiabank Saddledome', '23', 'CGY', 'Calgary', 'Flames', '1', '0', '0', '0', '0', '0', '1', '2', '39', '20', '66.1', '3', '1', '33.3', '2', '0', '100.0', '0', '0', '4', '1', '21', '3', '9', '16']"
"['', '30082', '2016-03-18', '01:00:00 GMT', '22', 'COL', 'Colorado', 'Avalanche', '23', 'CGY', 'Calgary', 'Flames', '18', 'Scotiabank Saddledome', '23', 'CGY', 'Calgary', 'Flames', '0', '0', '0', '1', '0', '0', '0', '1', '34', '24', '58.6', '2', '0', '0.0', '2', '0', '100.0', '2', '0', '3', '3', '33', '3', '14', '20']"
"['', '30099', '2016-03-20', '23:00:00 GMT', '23', 'CGY', 'Calgary', 'Flames', '14', 'MTL', 'Montreal', 'Canadiens', '4', 'Bell Centre', '23', 'CGY', 'Calgary', 'Flames', '1', '0', '0', '0', '0', '0', '1', '2', '24', '35', '40.7', '3', '1', '33.3', '1', '0', '100.0', '0', '0', '4', '1', '35', '2', '4', '46']"
"['', '30105', '2016-03-21', '23:30:00 GMT', '23', 'CGY', 'Calgary', 'Flames', '12', 'TOR', 'Toronto', 'Maple Leafs', '1', 'Air Canada Center', '23', 'CGY', 'Calgary', 'Flames', '0', '1', '0', '0', '0', '0', '0', '0', '38', '29', '56.7', '2', '0', '0.0', '6', '0', '100.0', '1', '0', '2', '5', '25', '7', '14', '32']"
"['', '30125', '2016-03-24', '00:00:00 GMT', '23', 'CGY', 'Calgary', 'Flames', '25', 'MIN', 'Minnesota', 'Wild', '30', 'Xcel Energy Center', '23', 'CGY', 'Calgary', 'Flames', '0', '1', '0', '0', '0', '0', '0', '0', '30', '33', '47.6', '5', '1', '20.0', '5', '3', '40.0', '0', '0', '2', '6', '33', '5', '10', '14']"
"['', '30144', '2016-03-26', '02:00:00 GMT', '20', 'CHI', 'Chicago', 'Blackhawks', '23', 'CGY', 'Calgary', 'Flames', '18', 'Scotiabank Saddledome', '23', 'CGY', 'Calgary', 'Flames', '0', '1', '0', '0', '0', '0', '0', '0', '28', '26', '51.9', '2', '0', '0.0', '2', '0', '100.0', '0', '0', '1', '4', '32', '4', '8', '18']"
"['', '30156', '2016-03-28', '02:00:00 GMT', '23', 'CGY', 'Calgary', 'Flames', '30', 'ARI', 'Arizona', 'Coyotes', '6', 'Gila River Arena', '23', 'CGY', 'Calgary', 'Flames', '1', '0', '0', '0', '0', '0', '1', '2', '26', '38', '40.6', '3', '2', '66.7', '5', '2', '60.0', '0', '0', '5', '2', '21', '7', '38', '30']"
"['', '30169', '2016-03-30', '02:00:00 GMT', '23', 'CGY', 'Calgary', 'Flames', '29', 'ANA', 'Anaheim', 'Ducks', '8', 'Honda Center', '23', 'CGY', 'Calgary', 'Flames', '0', '1', '0', '0', '0', '0', '0', '0', '25', '38', '39.7', '3', '1', '33.3', '3', '1', '66.7', '0', '0', '3', '8', '26', '6', '28', '20']"
"['', '30178', '2016-03-31', '02:30:00 GMT', '23', 'CGY', 'Calgary', 'Flames', '28', 'LAK', 'Los Angeles', 'Kings', '25', 'Staples Center', '23', 'CGY', 'Calgary', 'Flames', '0', '1', '0', '0', '0', '0', '0', '0', '25', '24', '51.0', '2', '0', '0.0', '3', '1', '66.7', '0', '0', '0', '3', '21', '3', '6', '28']"
"['', '30194', '2016-04-02', '02:00:00 GMT', '23', 'CGY', 'Calgary', 'Flames', '24', 'EDM', 'Edmonton', 'Oilers', '22', 'Rogers Place', '23', 'CGY', 'Calgary', 'Flames', '1', '0', '0', '0', '0', '0', '1', '2', '27', '23', '54.0', '6', '1', '16.7', '2', '0', '100.0', '1', '0', '5', '0', '35', '3', '14', '23']"
"['', '30215', '2016-04-05', '01:00:00 GMT', '28', 'LAK', 'Los Angeles', 'Kings', '23', 'CGY', 'Calgary', 'Flames', '18', 'Scotiabank Saddledome', '23', 'CGY', 'Calgary', 'Flames', '0', '0', '0', '1', '0', '0', '0', '1', '35', '29', '54.7', '4', '1', '25.0', '3', '0', '100.0', '0', '0', '4', '5', '23', '3', '6', '17']"
"['', '30230', '2016-04-07', '01:00:00 GMT', '21', 'VAN', 'Vancouver', 'Canucks', '23', 'CGY', 'Calgary', 'Flames', '18', 'Scotiabank Saddledome', '23', 'CGY', 'Calgary', 'Flames', '1', '0', '0', '0', '0', '0', '1', '2', '27', '26', '50.9', '4', '2', '50.0', '5', '1', '80.0', '1', '0', '7', '3', '43', '6', '15', '7']"
"['', '30242', '2016-04-09', '23:00:00 GMT', '23', 'CGY', 'Calgary', 'Flames', '25', 'MIN', 'Minnesota', 'Wild', '30', 'Xcel Energy Center', '23', 'CGY', 'Calgary', 'Flames', '1', '0', '0', '0', '0', '0', '1', '2', '22', '38', '36.7', '2', '0', '0.0', '5', '0', '100.0', '0', '0', '2', '1', '25', '7', '14', '8']"
