"['#Date/Time of Update: 2018-12-10 19:03:04 GMT', '#Game ID', '#Game Date', '#Game Time', '#Away Team ID', '#Away Team Abbr.', '#Away Team City', '#Away Team Name', '#Home Team ID', '#Home Team Abbr.', '#Home Team City', '#Home Team Name', '#Venue ID', '#Venue Name', '#Team ID', '#Team Abbr.', '#Team City', '#Team Name', '#Wins', '#Losses', '#OvertimeWins', '#OvertimeLosses', '#ShootoutWins', '#ShootoutLosses', '#Rows', '#Points', '#FaceoffWins', '#FaceoffLosses', '#FaceoffPercent', '#Powerplays', '#PowerplayGoals', '#PowerplayPercent', '#PenaltyKills', '#PenaltyKillGoalsAllowed', '#PenaltyKillPercent', '#ShorthandedGoalsFor', '#ShorthandedGoalsAgainst', '#GoalsFor', '#GoalsAgainst', '#Shots', '#Penalties', '#PenaltyMinutes', '#Hits']"
"['', '14892', '2011-10-07', '23:00:00 GMT', '13', 'OTT', 'Ottawa', 'Senators', '16', 'DET', 'Detroit', 'Red Wings', '11', 'Joe Louis Arena', '16', 'DET', 'Detroit', 'Red Wings', '1', '0', '0', '0', '0', '0', '1', '2', '33', '32', '50.8', '4', '0', '0.0', '2', '2', '0.0', '0', '0', '5', '3', '34', '3', '6', '27']"
"['', '14905', '2011-10-08', '01:00:00 GMT', '16', 'DET', 'Detroit', 'Red Wings', '22', 'COL', 'Colorado', 'Avalanche', '19', 'Pepsi Center', '16', 'DET', 'Detroit', 'Red Wings', '1', '0', '0', '0', '0', '0', '1', '2', '21', '34', '38.2', '3', '0', '0.0', '2', '0', '100.0', '0', '0', '3', '0', '36', '3', '6', '15']"
"['', '14927', '2011-10-13', '23:30:00 GMT', '21', 'VAN', 'Vancouver', 'Canucks', '16', 'DET', 'Detroit', 'Red Wings', '11', 'Joe Louis Arena', '16', 'DET', 'Detroit', 'Red Wings', '1', '0', '0', '0', '0', '0', '1', '2', '24', '26', '48.0', '7', '0', '0.0', '3', '0', '100.0', '0', '0', '2', '0', '35', '6', '15', '31']"
"['', '14943', '2011-10-15', '00:00:00 GMT', '16', 'DET', 'Detroit', 'Red Wings', '25', 'MIN', 'Minnesota', 'Wild', '30', 'Xcel Energy Center', '16', 'DET', 'Detroit', 'Red Wings', '1', '0', '0', '0', '0', '0', '1', '2', '26', '31', '45.6', '3', '1', '33.3', '1', '0', '100.0', '0', '0', '3', '2', '38', '1', '2', '30']"
"['', '14977', '2011-10-21', '23:30:00 GMT', '19', 'CBJ', 'Columbus', 'Blue Jackets', '16', 'DET', 'Detroit', 'Red Wings', '11', 'Joe Louis Arena', '16', 'DET', 'Detroit', 'Red Wings', '1', '0', '0', '0', '0', '0', '1', '2', '34', '27', '55.7', '5', '3', '60.0', '4', '1', '75.0', '0', '0', '5', '2', '28', '7', '17', '22']"
"['', '14987', '2011-10-22', '23:00:00 GMT', '16', 'DET', 'Detroit', 'Red Wings', '5', 'WSH', 'Washington', 'Capitals', '13', 'Verizon Center', '16', 'DET', 'Detroit', 'Red Wings', '0', '1', '0', '0', '0', '0', '0', '0', '34', '29', '54.0', '4', '1', '25.0', '4', '2', '50.0', '0', '0', '1', '7', '32', '4', '8', '22']"
"['', '15001', '2011-10-25', '23:00:00 GMT', '16', 'DET', 'Detroit', 'Red Wings', '19', 'CBJ', 'Columbus', 'Blue Jackets', '17', 'Nationwide Arena', '16', 'DET', 'Detroit', 'Red Wings', '0', '1', '0', '0', '0', '0', '0', '0', '26', '29', '47.3', '3', '0', '0.0', '6', '1', '83.3', '0', '1', '1', '4', '30', '7', '14', '20']"
"['', '15022', '2011-10-28', '23:30:00 GMT', '26', 'SJS', 'San Jose', 'Sharks', '16', 'DET', 'Detroit', 'Red Wings', '11', 'Joe Louis Arena', '16', 'DET', 'Detroit', 'Red Wings', '0', '1', '0', '0', '0', '0', '0', '0', '34', '20', '63.0', '4', '1', '25.0', '3', '1', '66.7', '0', '0', '2', '4', '30', '4', '8', '28']"
"['', '15033', '2011-10-29', '00:00:00 GMT', '16', 'DET', 'Detroit', 'Red Wings', '25', 'MIN', 'Minnesota', 'Wild', '30', 'Xcel Energy Center', '16', 'DET', 'Detroit', 'Red Wings', '0', '1', '0', '0', '0', '0', '0', '0', '28', '23', '54.9', '2', '0', '0.0', '4', '0', '100.0', '0', '0', '0', '1', '36', '5', '10', '21']"
"['', '15048', '2011-11-01', '23:30:00 GMT', '25', 'MIN', 'Minnesota', 'Wild', '16', 'DET', 'Detroit', 'Red Wings', '11', 'Joe Louis Arena', '16', 'DET', 'Detroit', 'Red Wings', '0', '0', '0', '1', '0', '0', '0', '1', '28', '30', '48.3', '3', '0', '0.0', '7', '1', '85.7', '0', '0', '1', '2', '36', '9', '18', '30']"
"['', '15058', '2011-11-03', '23:30:00 GMT', '23', 'CGY', 'Calgary', 'Flames', '16', 'DET', 'Detroit', 'Red Wings', '11', 'Joe Louis Arena', '16', 'DET', 'Detroit', 'Red Wings', '0', '1', '0', '0', '0', '0', '0', '0', '26', '26', '50.0', '3', '1', '33.3', '4', '2', '50.0', '0', '0', '1', '4', '28', '4', '8', '23']"
"['', '15075', '2011-11-05', '23:00:00 GMT', '29', 'ANA', 'Anaheim', 'Ducks', '16', 'DET', 'Detroit', 'Red Wings', '11', 'Joe Louis Arena', '16', 'DET', 'Detroit', 'Red Wings', '1', '0', '0', '0', '0', '0', '1', '2', '38', '25', '60.3', '4', '1', '25.0', '4', '0', '100.0', '0', '0', '5', '0', '45', '5', '10', '23']"
"['', '15092', '2011-11-08', '00:30:00 GMT', '22', 'COL', 'Colorado', 'Avalanche', '16', 'DET', 'Detroit', 'Red Wings', '11', 'Joe Louis Arena', '16', 'DET', 'Detroit', 'Red Wings', '1', '0', '0', '0', '0', '0', '1', '2', '27', '29', '48.2', '5', '2', '40.0', '2', '2', '0.0', '0', '0', '5', '2', '25', '3', '6', '18']"
"['', '15111', '2011-11-11', '00:30:00 GMT', '24', 'EDM', 'Edmonton', 'Oilers', '16', 'DET', 'Detroit', 'Red Wings', '11', 'Joe Louis Arena', '16', 'DET', 'Detroit', 'Red Wings', '1', '0', '0', '0', '0', '0', '1', '2', '21', '19', '52.5', '5', '0', '0.0', '3', '0', '100.0', '0', '0', '3', '0', '27', '4', '11', '21']"
"['', '15118', '2011-11-12', '00:00:00 GMT', '27', 'DAL', 'Dallas', 'Stars', '16', 'DET', 'Detroit', 'Red Wings', '11', 'Joe Louis Arena', '16', 'DET', 'Detroit', 'Red Wings', '1', '0', '0', '0', '0', '0', '1', '2', '37', '27', '57.8', '4', '0', '0.0', '2', '1', '50.0', '0', '0', '5', '2', '35', '3', '9', '24']"
"['', '15137', '2011-11-15', '01:00:00 GMT', '16', 'DET', 'Detroit', 'Red Wings', '17', 'STL', 'St. Louis', 'Blues', '24', 'Scottrade Center', '16', 'DET', 'Detroit', 'Red Wings', '0', '1', '0', '0', '0', '0', '0', '0', '20', '26', '43.5', '5', '0', '0.0', '4', '1', '75.0', '0', '0', '1', '2', '21', '4', '8', '13']"
"['', '15155', '2011-11-17', '03:30:00 GMT', '16', 'DET', 'Detroit', 'Red Wings', '26', 'SJS', 'San Jose', 'Sharks', '9', 'HP Pavilion at San Jose', '16', 'DET', 'Detroit', 'Red Wings', '0', '1', '0', '0', '0', '0', '0', '0', '21', '32', '39.6', '3', '2', '66.7', '1', '0', '100.0', '0', '1', '2', '5', '40', '1', '2', '15']"
"['', '15160', '2011-11-19', '21:00:00 GMT', '16', 'DET', 'Detroit', 'Red Wings', '28', 'LAK', 'Los Angeles', 'Kings', '25', 'Staples Center', '16', 'DET', 'Detroit', 'Red Wings', '1', '0', '0', '0', '0', '0', '1', '2', '31', '27', '53.4', '5', '2', '40.0', '5', '0', '100.0', '0', '1', '4', '1', '34', '5', '10', '18']"
"['', '15173', '2011-11-20', '01:00:00 GMT', '16', 'DET', 'Detroit', 'Red Wings', '29', 'ANA', 'Anaheim', 'Ducks', '8', 'Honda Center', '16', 'DET', 'Detroit', 'Red Wings', '1', '0', '0', '0', '0', '0', '1', '2', '19', '36', '34.5', '5', '0', '0.0', '5', '1', '80.0', '1', '0', '4', '2', '26', '5', '10', '16']"
"['', '15191', '2011-11-23', '00:00:00 GMT', '23', 'CGY', 'Calgary', 'Flames', '16', 'DET', 'Detroit', 'Red Wings', '11', 'Joe Louis Arena', '16', 'DET', 'Detroit', 'Red Wings', '1', '0', '0', '0', '0', '0', '1', '2', '36', '22', '62.1', '3', '3', '100.0', '4', '1', '75.0', '0', '0', '5', '3', '25', '5', '10', '14']"
"['', '15198', '2011-11-25', '18:00:00 GMT', '16', 'DET', 'Detroit', 'Red Wings', '11', 'BOS', 'Boston', 'Bruins', '27', 'TD Garden', '16', 'DET', 'Detroit', 'Red Wings', '1', '0', '0', '0', '0', '0', '0', '2', '28', '27', '50.9', '3', '0', '0.0', '2', '0', '100.0', '0', '0', '2', '2', '29', '3', '6', '22']"
"['', '15218', '2011-11-26', '00:00:00 GMT', '18', 'NSH', 'Nashville', 'Predators', '16', 'DET', 'Detroit', 'Red Wings', '11', 'Joe Louis Arena', '16', 'DET', 'Detroit', 'Red Wings', '1', '0', '0', '0', '0', '0', '1', '2', '22', '22', '50.0', '2', '1', '50.0', '3', '0', '100.0', '0', '0', '4', '1', '33', '3', '6', '22']"
"['', '15239', '2011-11-30', '00:30:00 GMT', '1', 'TBL', 'Tampa Bay', 'Lightning', '16', 'DET', 'Detroit', 'Red Wings', '11', 'Joe Louis Arena', '16', 'DET', 'Detroit', 'Red Wings', '1', '0', '0', '0', '0', '0', '1', '2', '44', '25', '63.8', '5', '1', '20.0', '4', '1', '75.0', '0', '0', '4', '2', '31', '4', '8', '14']"
"['', '15251', '2011-12-02', '00:30:00 GMT', '16', 'DET', 'Detroit', 'Red Wings', '15', 'BUF', 'Buffalo', 'Sabres', '10', 'First Niagara Center', '16', 'DET', 'Detroit', 'Red Wings', '1', '0', '0', '0', '0', '0', '1', '2', '24', '35', '40.7', '5', '1', '20.0', '4', '0', '100.0', '0', '0', '4', '1', '32', '4', '8', '6']"
"['', '15269', '2011-12-04', '01:00:00 GMT', '16', 'DET', 'Detroit', 'Red Wings', '22', 'COL', 'Colorado', 'Avalanche', '19', 'Pepsi Center', '16', 'DET', 'Detroit', 'Red Wings', '0', '1', '0', '0', '0', '0', '0', '0', '29', '23', '55.8', '5', '1', '20.0', '3', '1', '66.7', '0', '1', '2', '4', '27', '3', '6', '9']"
"['', '15280', '2011-12-06', '00:30:00 GMT', '16', 'DET', 'Detroit', 'Red Wings', '17', 'STL', 'St. Louis', 'Blues', '24', 'Scottrade Center', '16', 'DET', 'Detroit', 'Red Wings', '0', '1', '0', '0', '0', '0', '0', '0', '35', '24', '59.3', '6', '2', '33.3', '8', '2', '75.0', '0', '0', '2', '3', '27', '9', '18', '13']"
"['', '15297', '2011-12-08', '00:30:00 GMT', '30', 'PHX', 'Phoenix', 'Coyotes', '16', 'DET', 'Detroit', 'Red Wings', '11', 'Joe Louis Arena', '16', 'DET', 'Detroit', 'Red Wings', '1', '0', '0', '0', '0', '0', '1', '2', '30', '30', '50.0', '5', '1', '20.0', '5', '1', '80.0', '0', '0', '5', '2', '27', '5', '10', '17']"
"['', '15311', '2011-12-10', '00:00:00 GMT', '2', 'WPJ', 'Winnipeg', 'Jets', '16', 'DET', 'Detroit', 'Red Wings', '11', 'Joe Louis Arena', '16', 'DET', 'Detroit', 'Red Wings', '1', '0', '0', '0', '0', '0', '1', '2', '34', '21', '61.8', '3', '0', '0.0', '1', '0', '100.0', '0', '0', '7', '1', '22', '2', '4', '20']"
"['', '15325', '2011-12-13', '00:00:00 GMT', '16', 'DET', 'Detroit', 'Red Wings', '10', 'PIT', 'Pittsburgh', 'Penguins', '14', 'Civic Arena', '16', 'DET', 'Detroit', 'Red Wings', '1', '0', '0', '0', '0', '0', '1', '2', '27', '25', '51.9', '1', '1', '100.0', '3', '0', '100.0', '0', '0', '4', '1', '21', '4', '8', '19']"
"['', '15342', '2011-12-15', '01:00:00 GMT', '16', 'DET', 'Detroit', 'Red Wings', '18', 'NSH', 'Nashville', 'Predators', '15', 'Bridgestone Arena', '16', 'DET', 'Detroit', 'Red Wings', '0', '1', '0', '0', '0', '0', '0', '0', '26', '20', '56.5', '2', '2', '100.0', '1', '1', '0.0', '0', '0', '3', '4', '37', '1', '2', '16']"
"['', '15356', '2011-12-17', '00:00:00 GMT', '28', 'LAK', 'Los Angeles', 'Kings', '16', 'DET', 'Detroit', 'Red Wings', '11', 'Joe Louis Arena', '16', 'DET', 'Detroit', 'Red Wings', '1', '0', '0', '0', '0', '0', '1', '2', '29', '30', '49.2', '3', '1', '33.3', '4', '0', '100.0', '0', '0', '8', '2', '19', '4', '8', '16']"
"['', '15370', '2011-12-19', '02:30:00 GMT', '16', 'DET', 'Detroit', 'Red Wings', '24', 'EDM', 'Edmonton', 'Oilers', '22', 'Rogers Place', '16', 'DET', 'Detroit', 'Red Wings', '1', '0', '0', '0', '0', '0', '1', '2', '28', '26', '51.9', '2', '0', '0.0', '5', '1', '80.0', '0', '0', '3', '2', '25', '5', '10', '17']"
"['', '15383', '2011-12-21', '03:00:00 GMT', '16', 'DET', 'Detroit', 'Red Wings', '21', 'VAN', 'Vancouver', 'Canucks', '7', 'Rogers Arena', '16', 'DET', 'Detroit', 'Red Wings', '0', '1', '0', '0', '0', '0', '0', '0', '27', '32', '45.8', '4', '0', '0.0', '0', '0', '0.0', '0', '1', '2', '4', '38', '0', '0', '19']"
"['', '15390', '2011-12-22', '02:30:00 GMT', '16', 'DET', 'Detroit', 'Red Wings', '23', 'CGY', 'Calgary', 'Flames', '18', 'Scotiabank Saddledome', '16', 'DET', 'Detroit', 'Red Wings', '0', '1', '0', '0', '0', '0', '0', '0', '28', '18', '60.9', '2', '0', '0.0', '2', '1', '50.0', '0', '0', '2', '3', '29', '3', '6', '8']"
"['', '15409', '2011-12-26', '01:00:00 GMT', '16', 'DET', 'Detroit', 'Red Wings', '18', 'NSH', 'Nashville', 'Predators', '15', 'Bridgestone Arena', '16', 'DET', 'Detroit', 'Red Wings', '1', '0', '0', '0', '0', '0', '1', '2', '22', '32', '40.7', '2', '0', '0.0', '5', '0', '100.0', '0', '0', '4', '1', '18', '5', '10', '15']"
"['', '15419', '2011-12-27', '00:30:00 GMT', '17', 'STL', 'St. Louis', 'Blues', '16', 'DET', 'Detroit', 'Red Wings', '11', 'Joe Louis Arena', '16', 'DET', 'Detroit', 'Red Wings', '1', '0', '0', '0', '0', '0', '1', '2', '28', '33', '45.9', '3', '1', '33.3', '4', '2', '50.0', '0', '0', '3', '2', '29', '6', '12', '34']"
"['', '15440', '2011-12-30', '01:30:00 GMT', '16', 'DET', 'Detroit', 'Red Wings', '20', 'CHI', 'Chicago', 'Blackhawks', '28', 'United Center', '16', 'DET', 'Detroit', 'Red Wings', '0', '1', '0', '0', '0', '0', '0', '0', '30', '29', '50.8', '1', '0', '0.0', '5', '0', '100.0', '0', '0', '2', '3', '26', '7', '25', '24']"
"['', '15448', '2011-12-31', '00:00:00 GMT', '17', 'STL', 'St. Louis', 'Blues', '16', 'DET', 'Detroit', 'Red Wings', '11', 'Joe Louis Arena', '16', 'DET', 'Detroit', 'Red Wings', '1', '0', '0', '0', '0', '0', '1', '2', '28', '21', '57.1', '4', '0', '0.0', '3', '0', '100.0', '0', '0', '3', '0', '28', '4', '11', '18']"
"['', '15464', '2012-01-03', '01:00:00 GMT', '16', 'DET', 'Detroit', 'Red Wings', '27', 'DAL', 'Dallas', 'Stars', '2', 'American Airlines Center', '16', 'DET', 'Detroit', 'Red Wings', '1', '0', '0', '0', '0', '0', '1', '2', '23', '34', '40.4', '0', '0', '0.0', '1', '0', '100.0', '0', '0', '5', '4', '26', '1', '2', '19']"
"['', '15488', '2012-01-07', '00:00:00 GMT', '16', 'DET', 'Detroit', 'Red Wings', '12', 'TOR', 'Toronto', 'Maple Leafs', '1', 'Air Canada Center', '16', 'DET', 'Detroit', 'Red Wings', '0', '1', '0', '0', '0', '0', '0', '0', '22', '19', '53.7', '1', '0', '0.0', '1', '1', '0.0', '0', '0', '3', '4', '37', '1', '2', '19']"
"['', '15497', '2012-01-08', '00:30:00 GMT', '16', 'DET', 'Detroit', 'Red Wings', '20', 'CHI', 'Chicago', 'Blackhawks', '28', 'United Center', '16', 'DET', 'Detroit', 'Red Wings', '1', '0', '0', '0', '0', '0', '1', '2', '20', '32', '38.5', '2', '1', '50.0', '5', '1', '80.0', '0', '0', '3', '2', '24', '6', '20', '37']"
"['', '15503', '2012-01-10', '00:00:00 GMT', '16', 'DET', 'Detroit', 'Red Wings', '8', 'NYI', 'New York', 'Islanders', '16', 'Nassau Veterans Memorial Coliseum', '16', 'DET', 'Detroit', 'Red Wings', '0', '1', '0', '0', '0', '0', '0', '0', '19', '31', '38.0', '2', '0', '0.0', '3', '1', '66.7', '0', '0', '1', '5', '23', '3', '6', '10']"
"['', '15520', '2012-01-12', '00:30:00 GMT', '30', 'PHX', 'Phoenix', 'Coyotes', '16', 'DET', 'Detroit', 'Red Wings', '11', 'Joe Louis Arena', '16', 'DET', 'Detroit', 'Red Wings', '1', '0', '0', '0', '0', '0', '0', '2', '20', '27', '42.6', '2', '0', '0.0', '1', '0', '100.0', '0', '0', '2', '2', '40', '2', '4', '28']"
"['', '15532', '2012-01-14', '17:30:00 GMT', '20', 'CHI', 'Chicago', 'Blackhawks', '16', 'DET', 'Detroit', 'Red Wings', '11', 'Joe Louis Arena', '16', 'DET', 'Detroit', 'Red Wings', '1', '0', '0', '0', '0', '0', '1', '2', '31', '28', '52.5', '1', '1', '100.0', '3', '0', '100.0', '0', '0', '3', '2', '40', '3', '6', '30']"
"['', '15553', '2012-01-16', '00:30:00 GMT', '15', 'BUF', 'Buffalo', 'Sabres', '16', 'DET', 'Detroit', 'Red Wings', '11', 'Joe Louis Arena', '16', 'DET', 'Detroit', 'Red Wings', '1', '0', '0', '0', '0', '0', '1', '2', '34', '27', '55.7', '4', '0', '0.0', '2', '0', '100.0', '0', '0', '5', '0', '21', '4', '8', '22']"
"['', '15563', '2012-01-17', '01:30:00 GMT', '16', 'DET', 'Detroit', 'Red Wings', '27', 'DAL', 'Dallas', 'Stars', '2', 'American Airlines Center', '16', 'DET', 'Detroit', 'Red Wings', '1', '0', '0', '0', '0', '0', '0', '2', '27', '34', '44.3', '3', '0', '0.0', '2', '1', '50.0', '0', '0', '2', '2', '30', '2', '4', '9']"
"['', '15577', '2012-01-19', '02:00:00 GMT', '16', 'DET', 'Detroit', 'Red Wings', '30', 'PHX', 'Phoenix', 'Coyotes', '6', 'Jobing.com Arena', '16', 'DET', 'Detroit', 'Red Wings', '1', '0', '0', '0', '0', '0', '0', '2', '32', '24', '57.1', '5', '0', '0.0', '2', '0', '100.0', '0', '0', '2', '2', '33', '4', '8', '20']"
"['', '15589', '2012-01-21', '00:00:00 GMT', '19', 'CBJ', 'Columbus', 'Blue Jackets', '16', 'DET', 'Detroit', 'Red Wings', '11', 'Joe Louis Arena', '16', 'DET', 'Detroit', 'Red Wings', '1', '0', '0', '0', '0', '0', '0', '2', '28', '30', '48.3', '4', '1', '25.0', '2', '1', '50.0', '0', '0', '2', '2', '29', '4', '19', '19']"
"['', '15603', '2012-01-23', '00:30:00 GMT', '17', 'STL', 'St. Louis', 'Blues', '16', 'DET', 'Detroit', 'Red Wings', '11', 'Joe Louis Arena', '16', 'DET', 'Detroit', 'Red Wings', '1', '0', '0', '0', '0', '0', '1', '2', '26', '15', '63.4', '5', '2', '40.0', '1', '0', '100.0', '0', '0', '3', '1', '25', '4', '11', '29']"
"['', '15620', '2012-01-25', '00:30:00 GMT', '16', 'DET', 'Detroit', 'Red Wings', '14', 'MTL', 'Montreal', 'Canadiens', '4', 'Bell Centre', '16', 'DET', 'Detroit', 'Red Wings', '0', '1', '0', '0', '0', '0', '0', '0', '33', '17', '66.0', '3', '0', '0.0', '3', '1', '66.7', '0', '0', '2', '7', '26', '3', '6', '27']"
"['', '15629', '2012-01-31', '02:00:00 GMT', '16', 'DET', 'Detroit', 'Red Wings', '23', 'CGY', 'Calgary', 'Flames', '18', 'Scotiabank Saddledome', '16', 'DET', 'Detroit', 'Red Wings', '1', '0', '0', '0', '0', '0', '1', '2', '27', '21', '56.2', '3', '0', '0.0', '2', '1', '50.0', '0', '0', '3', '1', '22', '5', '13', '8']"
"['', '15645', '2012-02-02', '03:00:00 GMT', '16', 'DET', 'Detroit', 'Red Wings', '21', 'VAN', 'Vancouver', 'Canucks', '7', 'Rogers Arena', '16', 'DET', 'Detroit', 'Red Wings', '1', '0', '0', '0', '0', '0', '0', '2', '28', '27', '50.9', '4', '0', '0.0', '1', '0', '100.0', '0', '0', '3', '3', '40', '3', '12', '21']"
"['', '15663', '2012-02-04', '03:00:00 GMT', '16', 'DET', 'Detroit', 'Red Wings', '24', 'EDM', 'Edmonton', 'Oilers', '22', 'Rogers Place', '16', 'DET', 'Detroit', 'Red Wings', '0', '0', '0', '1', '0', '0', '0', '1', '40', '34', '54.1', '3', '0', '0.0', '3', '2', '33.3', '1', '0', '4', '4', '35', '5', '13', '10']"
"['', '15669', '2012-02-06', '01:00:00 GMT', '16', 'DET', 'Detroit', 'Red Wings', '30', 'PHX', 'Phoenix', 'Coyotes', '6', 'Jobing.com Arena', '16', 'DET', 'Detroit', 'Red Wings', '0', '1', '0', '0', '0', '0', '0', '0', '28', '21', '57.1', '3', '1', '33.3', '4', '1', '75.0', '0', '1', '1', '3', '30', '4', '8', '20']"
"['', '15683', '2012-02-08', '00:30:00 GMT', '24', 'EDM', 'Edmonton', 'Oilers', '16', 'DET', 'Detroit', 'Red Wings', '11', 'Joe Louis Arena', '16', 'DET', 'Detroit', 'Red Wings', '1', '0', '0', '0', '0', '0', '1', '2', '31', '26', '54.4', '4', '1', '25.0', '6', '1', '83.3', '0', '0', '4', '2', '26', '8', '19', '19']"
"['', '15698', '2012-02-10', '00:30:00 GMT', '29', 'ANA', 'Anaheim', 'Ducks', '16', 'DET', 'Detroit', 'Red Wings', '11', 'Joe Louis Arena', '16', 'DET', 'Detroit', 'Red Wings', '1', '0', '0', '0', '0', '0', '0', '2', '41', '25', '62.1', '3', '0', '0.0', '7', '0', '100.0', '0', '0', '1', '1', '23', '7', '14', '20']"
"['', '15714', '2012-02-12', '21:00:00 GMT', '6', 'PHI', 'Philadelphia', 'Flyers', '16', 'DET', 'Detroit', 'Red Wings', '11', 'Joe Louis Arena', '16', 'DET', 'Detroit', 'Red Wings', '1', '0', '0', '0', '0', '0', '1', '2', '25', '24', '51.0', '5', '2', '40.0', '2', '0', '100.0', '0', '0', '4', '3', '21', '3', '6', '18']"
"['', '15726', '2012-02-14', '00:30:00 GMT', '27', 'DAL', 'Dallas', 'Stars', '16', 'DET', 'Detroit', 'Red Wings', '11', 'Joe Louis Arena', '16', 'DET', 'Detroit', 'Red Wings', '1', '0', '0', '0', '0', '0', '1', '2', '22', '27', '44.9', '5', '1', '20.0', '2', '0', '100.0', '0', '0', '3', '1', '34', '3', '6', '15']"
"['', '15747', '2012-02-17', '00:30:00 GMT', '18', 'NSH', 'Nashville', 'Predators', '16', 'DET', 'Detroit', 'Red Wings', '11', 'Joe Louis Arena', '16', 'DET', 'Detroit', 'Red Wings', '1', '0', '0', '0', '0', '0', '1', '2', '30', '33', '47.6', '1', '0', '0.0', '1', '0', '100.0', '0', '0', '2', '1', '29', '2', '4', '22']"
"['', '15759', '2012-02-19', '17:30:00 GMT', '26', 'SJS', 'San Jose', 'Sharks', '16', 'DET', 'Detroit', 'Red Wings', '11', 'Joe Louis Arena', '16', 'DET', 'Detroit', 'Red Wings', '1', '0', '0', '0', '0', '0', '1', '2', '34', '29', '54.0', '3', '0', '0.0', '3', '1', '66.7', '0', '0', '3', '2', '25', '5', '13', '20']"
"['', '15778', '2012-02-21', '01:00:00 GMT', '16', 'DET', 'Detroit', 'Red Wings', '20', 'CHI', 'Chicago', 'Blackhawks', '28', 'United Center', '16', 'DET', 'Detroit', 'Red Wings', '0', '1', '0', '0', '0', '0', '0', '0', '26', '28', '48.1', '3', '1', '33.3', '3', '0', '100.0', '0', '0', '1', '2', '31', '3', '6', '17']"
"['', '15787', '2012-02-23', '00:30:00 GMT', '21', 'VAN', 'Vancouver', 'Canucks', '16', 'DET', 'Detroit', 'Red Wings', '11', 'Joe Louis Arena', '16', 'DET', 'Detroit', 'Red Wings', '0', '0', '0', '1', '0', '0', '0', '1', '31', '36', '46.3', '4', '0', '0.0', '4', '0', '100.0', '0', '0', '3', '3', '33', '4', '8', '25']"
"['', '15807', '2012-02-25', '00:00:00 GMT', '22', 'COL', 'Colorado', 'Avalanche', '16', 'DET', 'Detroit', 'Red Wings', '11', 'Joe Louis Arena', '16', 'DET', 'Detroit', 'Red Wings', '0', '1', '0', '0', '0', '0', '0', '0', '30', '22', '57.7', '3', '1', '33.3', '2', '0', '100.0', '0', '1', '3', '4', '28', '3', '9', '25']"
"['', '15826', '2012-02-28', '00:00:00 GMT', '16', 'DET', 'Detroit', 'Red Wings', '19', 'CBJ', 'Columbus', 'Blue Jackets', '17', 'Nationwide Arena', '16', 'DET', 'Detroit', 'Red Wings', '1', '0', '0', '0', '0', '0', '1', '2', '29', '32', '47.5', '5', '1', '20.0', '4', '1', '75.0', '0', '1', '5', '2', '20', '5', '10', '2']"
"['', '15847', '2012-03-02', '00:30:00 GMT', '25', 'MIN', 'Minnesota', 'Wild', '16', 'DET', 'Detroit', 'Red Wings', '11', 'Joe Louis Arena', '16', 'DET', 'Detroit', 'Red Wings', '1', '0', '0', '0', '0', '0', '1', '2', '25', '37', '40.3', '5', '0', '0.0', '2', '0', '100.0', '0', '0', '6', '0', '29', '4', '8', '23']"
"['', '15861', '2012-03-04', '21:00:00 GMT', '20', 'CHI', 'Chicago', 'Blackhawks', '16', 'DET', 'Detroit', 'Red Wings', '11', 'Joe Louis Arena', '16', 'DET', 'Detroit', 'Red Wings', '0', '1', '0', '0', '0', '0', '0', '0', '30', '23', '56.6', '4', '0', '0.0', '3', '1', '66.7', '0', '0', '1', '2', '23', '4', '11', '24']"
"['', '15871', '2012-03-06', '00:00:00 GMT', '16', 'DET', 'Detroit', 'Red Wings', '6', 'PHI', 'Philadelphia', 'Flyers', '29', 'Wells Fargo Center', '16', 'DET', 'Detroit', 'Red Wings', '0', '1', '0', '0', '0', '0', '0', '0', '36', '19', '65.5', '4', '0', '0.0', '2', '0', '100.0', '0', '1', '2', '3', '37', '2', '4', '20']"
"['', '15896', '2012-03-09', '00:30:00 GMT', '28', 'LAK', 'Los Angeles', 'Kings', '16', 'DET', 'Detroit', 'Red Wings', '11', 'Joe Louis Arena', '16', 'DET', 'Detroit', 'Red Wings', '1', '0', '0', '0', '0', '0', '1', '2', '26', '29', '47.3', '3', '0', '0.0', '4', '1', '75.0', '0', '0', '4', '3', '11', '4', '8', '21']"
"['', '15906', '2012-03-10', '01:00:00 GMT', '16', 'DET', 'Detroit', 'Red Wings', '18', 'NSH', 'Nashville', 'Predators', '15', 'Bridgestone Arena', '16', 'DET', 'Detroit', 'Red Wings', '0', '1', '0', '0', '0', '0', '0', '0', '32', '34', '48.5', '4', '0', '0.0', '4', '2', '50.0', '0', '0', '2', '3', '35', '4', '8', '15']"
"['', '15930', '2012-03-13', '02:30:00 GMT', '16', 'DET', 'Detroit', 'Red Wings', '28', 'LAK', 'Los Angeles', 'Kings', '25', 'Staples Center', '16', 'DET', 'Detroit', 'Red Wings', '0', '1', '0', '0', '0', '0', '0', '0', '26', '25', '51.0', '4', '0', '0.0', '1', '1', '0.0', '0', '1', '2', '5', '22', '2', '4', '20']"
"['', '15936', '2012-03-14', '02:00:00 GMT', '16', 'DET', 'Detroit', 'Red Wings', '29', 'ANA', 'Anaheim', 'Ducks', '8', 'Honda Center', '16', 'DET', 'Detroit', 'Red Wings', '0', '1', '0', '0', '0', '0', '0', '0', '24', '22', '52.2', '3', '0', '0.0', '2', '0', '100.0', '0', '0', '0', '4', '23', '2', '4', '26']"
"['', '15960', '2012-03-17', '02:30:00 GMT', '16', 'DET', 'Detroit', 'Red Wings', '26', 'SJS', 'San Jose', 'Sharks', '9', 'HP Pavilion at San Jose', '16', 'DET', 'Detroit', 'Red Wings', '0', '0', '0', '1', '0', '0', '0', '1', '25', '25', '50.0', '2', '0', '0.0', '3', '0', '100.0', '0', '0', '2', '3', '26', '3', '6', '23']"
"['', '15969', '2012-03-19', '23:30:00 GMT', '5', 'WSH', 'Washington', 'Capitals', '16', 'DET', 'Detroit', 'Red Wings', '11', 'Joe Louis Arena', '16', 'DET', 'Detroit', 'Red Wings', '0', '1', '0', '0', '0', '0', '0', '0', '32', '24', '57.1', '3', '1', '33.3', '3', '3', '0.0', '0', '0', '3', '5', '30', '4', '8', '32']"
"['', '15983', '2012-03-21', '23:30:00 GMT', '16', 'DET', 'Detroit', 'Red Wings', '9', 'NYR', 'New York', 'Rangers', '12', 'Madison Square Garden', '16', 'DET', 'Detroit', 'Red Wings', '0', '0', '0', '1', '0', '0', '0', '1', '37', '17', '68.5', '1', '0', '0.0', '3', '1', '66.7', '0', '0', '1', '2', '26', '3', '6', '14']"
"['', '16007', '2012-03-24', '23:00:00 GMT', '3', 'CAR', 'Carolina', 'Hurricanes', '16', 'DET', 'Detroit', 'Red Wings', '11', 'Joe Louis Arena', '16', 'DET', 'Detroit', 'Red Wings', '1', '0', '0', '0', '0', '0', '1', '2', '32', '34', '48.5', '2', '0', '0.0', '2', '2', '0.0', '0', '0', '5', '4', '45', '3', '6', '21']"
"['', '16019', '2012-03-26', '23:30:00 GMT', '19', 'CBJ', 'Columbus', 'Blue Jackets', '16', 'DET', 'Detroit', 'Red Wings', '11', 'Joe Louis Arena', '16', 'DET', 'Detroit', 'Red Wings', '1', '0', '0', '0', '0', '0', '1', '2', '28', '34', '45.2', '6', '2', '33.3', '4', '0', '100.0', '0', '0', '7', '2', '32', '4', '8', '20']"
"['', '16033', '2012-03-28', '23:30:00 GMT', '16', 'DET', 'Detroit', 'Red Wings', '19', 'CBJ', 'Columbus', 'Blue Jackets', '17', 'Nationwide Arena', '16', 'DET', 'Detroit', 'Red Wings', '0', '1', '0', '0', '0', '0', '0', '0', '36', '33', '52.2', '3', '2', '66.7', '3', '0', '100.0', '0', '0', '2', '4', '29', '4', '8', '13']"
"['', '16049', '2012-03-30', '23:30:00 GMT', '18', 'NSH', 'Nashville', 'Predators', '16', 'DET', 'Detroit', 'Red Wings', '11', 'Joe Louis Arena', '16', 'DET', 'Detroit', 'Red Wings', '0', '1', '0', '0', '0', '0', '0', '0', '36', '27', '57.1', '3', '0', '0.0', '2', '0', '100.0', '0', '0', '1', '4', '31', '2', '4', '14']"
"['', '16067', '2012-04-01', '20:00:00 GMT', '4', 'FLO', 'Florida', 'Panthers', '16', 'DET', 'Detroit', 'Red Wings', '11', 'Joe Louis Arena', '16', 'DET', 'Detroit', 'Red Wings', '1', '0', '0', '0', '0', '0', '0', '2', '34', '23', '59.6', '2', '0', '0.0', '5', '0', '100.0', '0', '0', '1', '1', '31', '6', '23', '21']"
"['', '16084', '2012-04-04', '23:30:00 GMT', '16', 'DET', 'Detroit', 'Red Wings', '17', 'STL', 'St. Louis', 'Blues', '24', 'Scottrade Center', '16', 'DET', 'Detroit', 'Red Wings', '1', '0', '0', '0', '0', '0', '0', '2', '29', '29', '50.0', '4', '0', '0.0', '1', '0', '100.0', '0', '1', '2', '2', '26', '2', '4', '12']"
"['', '16092', '2012-04-05', '23:30:00 GMT', '7', 'NJD', 'New Jersey', 'Devils', '16', 'DET', 'Detroit', 'Red Wings', '11', 'Joe Louis Arena', '16', 'DET', 'Detroit', 'Red Wings', '0', '1', '0', '0', '0', '0', '0', '0', '22', '25', '46.8', '1', '1', '100.0', '2', '0', '100.0', '0', '0', '1', '2', '23', '2', '4', '25']"
"['', '16104', '2012-04-07', '20:00:00 GMT', '20', 'CHI', 'Chicago', 'Blackhawks', '16', 'DET', 'Detroit', 'Red Wings', '11', 'Joe Louis Arena', '16', 'DET', 'Detroit', 'Red Wings', '0', '0', '0', '1', '0', '0', '0', '1', '27', '26', '50.9', '2', '0', '0.0', '5', '1', '80.0', '0', '0', '2', '2', '30', '6', '12', '17']"
