"['#Date/Time of Update: 2018-12-10 19:03:24 GMT', '#Game ID', '#Game Date', '#Game Time', '#Away Team ID', '#Away Team Abbr.', '#Away Team City', '#Away Team Name', '#Home Team ID', '#Home Team Abbr.', '#Home Team City', '#Home Team Name', '#Venue ID', '#Venue Name', '#Team ID', '#Team Abbr.', '#Team City', '#Team Name', '#Wins', '#Losses', '#OvertimeWins', '#OvertimeLosses', '#Points', '#FaceoffWins', '#FaceoffLosses', '#FaceoffPercent', '#Powerplays', '#PowerplayGoals', '#PowerplayPercent', '#PenaltyKills', '#PenaltyKillGoalsAllowed', '#PenaltyKillPercent', '#ShorthandedGoalsFor', '#ShorthandedGoalsAgainst', '#GoalsFor', '#GoalsAgainst', '#Shots', '#BlockedShots', '#Penalties', '#PenaltyMinutes', '#Hits']"
"['', '40784', '2017-10-05', '02:00:00 GMT', '30', 'ARI', 'Arizona', 'Coyotes', '29', 'ANA', 'Anaheim', 'Ducks', '8', 'Honda Center', '30', 'ARI', 'Arizona', 'Coyotes', '0', '1', '0', '0', '0', '30', '40', '42.9', '4', '2', '50.0', '4', '0', '100.0', '0', '0', '4', '5', '30', '11', '3', '8', '18']"
"['', '40799', '2017-10-07', '01:00:00 GMT', '142', 'VGK', 'Vegas', 'Golden Knights', '30', 'ARI', 'Arizona', 'Coyotes', '6', 'Gila River Arena', '30', 'ARI', 'Arizona', 'Coyotes', '0', '0', '0', '1', '1', '24', '37', '39.3', '3', '0', '0.0', '4', '0', '100.0', '0', '0', '1', '2', '28', '24', '4', '8', '23']"
"['', '40817', '2017-10-10', '02:00:00 GMT', '30', 'ARI', 'Arizona', 'Coyotes', '142', 'VGK', 'Vegas', 'Golden Knights', '139', 'T-Mobile Arena', '30', 'ARI', 'Arizona', 'Coyotes', '0', '1', '0', '0', '0', '22', '47', '31.9', '3', '0', '0.0', '3', '1', '66.7', '0', '0', '2', '5', '33', '16', '3', '6', '36']"
"['', '40828', '2017-10-12', '02:00:00 GMT', '16', 'DET', 'Detroit', 'Red Wings', '30', 'ARI', 'Arizona', 'Coyotes', '6', 'Gila River Arena', '30', 'ARI', 'Arizona', 'Coyotes', '0', '1', '0', '0', '0', '43', '32', '57.3', '6', '1', '16.7', '3', '1', '66.7', '0', '1', '2', '4', '35', '6', '4', '11', '24']"
"['', '40845', '2017-10-14', '01:00:00 GMT', '11', 'BOS', 'Boston', 'Bruins', '30', 'ARI', 'Arizona', 'Coyotes', '6', 'Gila River Arena', '30', 'ARI', 'Arizona', 'Coyotes', '0', '1', '0', '0', '0', '34', '36', '48.6', '3', '1', '33.3', '3', '2', '33.3', '0', '0', '2', '6', '31', '17', '3', '6', '34']"
"['', '40861', '2017-10-17', '00:30:00 GMT', '30', 'ARI', 'Arizona', 'Coyotes', '27', 'DAL', 'Dallas', 'Stars', '2', 'American Airlines Center', '30', 'ARI', 'Arizona', 'Coyotes', '0', '1', '0', '0', '0', '25', '32', '43.9', '2', '0', '0.0', '1', '0', '100.0', '0', '0', '1', '3', '28', '12', '2', '7', '29']"
"['', '40876', '2017-10-19', '02:00:00 GMT', '27', 'DAL', 'Dallas', 'Stars', '30', 'ARI', 'Arizona', 'Coyotes', '6', 'Gila River Arena', '30', 'ARI', 'Arizona', 'Coyotes', '0', '1', '0', '0', '0', '29', '29', '50.0', '4', '0', '0.0', '2', '1', '50.0', '0', '0', '4', '5', '31', '12', '2', '4', '24']"
"['', '40892', '2017-10-21', '01:00:00 GMT', '20', 'CHI', 'Chicago', 'Blackhawks', '30', 'ARI', 'Arizona', 'Coyotes', '6', 'Gila River Arena', '30', 'ARI', 'Arizona', 'Coyotes', '0', '1', '0', '0', '0', '41', '37', '52.6', '5', '0', '0.0', '2', '1', '50.0', '0', '0', '2', '4', '29', '18', '4', '8', '21']"
"['', '40898', '2017-10-24', '23:00:00 GMT', '30', 'ARI', 'Arizona', 'Coyotes', '8', 'NYI', 'New York', 'Islanders', '16', 'Nassau Veterans Memorial Coliseum', '30', 'ARI', 'Arizona', 'Coyotes', '0', '1', '0', '0', '0', '40', '33', '54.8', '3', '1', '33.3', '3', '1', '66.7', '0', '0', '3', '5', '35', '16', '3', '6', '21']"
"['', '40912', '2017-10-26', '23:00:00 GMT', '30', 'ARI', 'Arizona', 'Coyotes', '9', 'NYR', 'New York', 'Rangers', '12', 'Madison Square Garden', '30', 'ARI', 'Arizona', 'Coyotes', '0', '1', '0', '0', '0', '24', '36', '40.0', '3', '1', '33.3', '2', '0', '100.0', '0', '0', '2', '5', '29', '14', '4', '11', '28']"
"['', '40934', '2017-10-28', '23:00:00 GMT', '30', 'ARI', 'Arizona', 'Coyotes', '7', 'NJD', 'New Jersey', 'Devils', '37', 'Prudential Center', '30', 'ARI', 'Arizona', 'Coyotes', '0', '1', '0', '0', '0', '39', '34', '53.4', '5', '1', '20.0', '2', '2', '0.0', '0', '0', '3', '4', '37', '9', '2', '4', '10']"
"['', '40945', '2017-10-30', '23:00:00 GMT', '30', 'ARI', 'Arizona', 'Coyotes', '6', 'PHI', 'Philadelphia', 'Flyers', '29', 'Wells Fargo Center', '30', 'ARI', 'Arizona', 'Coyotes', '1', '0', '0', '0', '2', '31', '41', '43.1', '3', '1', '33.3', '1', '1', '0.0', '0', '0', '4', '3', '34', '12', '3', '6', '34']"
"['', '40952', '2017-10-31', '23:30:00 GMT', '30', 'ARI', 'Arizona', 'Coyotes', '16', 'DET', 'Detroit', 'Red Wings', '145', 'Little Caesars Arena', '30', 'ARI', 'Arizona', 'Coyotes', '0', '1', '0', '0', '0', '31', '35', '47.0', '2', '0', '0.0', '1', '0', '100.0', '0', '0', '3', '5', '33', '10', '1', '2', '32']"
"['', '40969', '2017-11-02', '02:00:00 GMT', '15', 'BUF', 'Buffalo', 'Sabres', '30', 'ARI', 'Arizona', 'Coyotes', '6', 'Gila River Arena', '30', 'ARI', 'Arizona', 'Coyotes', '0', '1', '0', '0', '0', '26', '27', '49.1', '2', '0', '0.0', '2', '0', '100.0', '0', '1', '4', '5', '29', '13', '2', '4', '26']"
"['', '40982', '2017-11-04', '01:00:00 GMT', '3', 'CAR', 'Carolina', 'Hurricanes', '30', 'ARI', 'Arizona', 'Coyotes', '6', 'Gila River Arena', '30', 'ARI', 'Arizona', 'Coyotes', '1', '0', '0', '0', '2', '25', '30', '45.5', '2', '0', '0.0', '3', '0', '100.0', '0', '0', '1', '1', '24', '23', '3', '6', '32']"
"['', '40993', '2017-11-06', '00:00:00 GMT', '30', 'ARI', 'Arizona', 'Coyotes', '5', 'WSH', 'Washington', 'Capitals', '13', 'Capital One Arena', '30', 'ARI', 'Arizona', 'Coyotes', '0', '0', '0', '1', '1', '24', '34', '41.4', '3', '0', '0.0', '6', '1', '83.3', '0', '0', '2', '3', '26', '15', '7', '17', '14']"
"['', '40997', '2017-11-07', '00:00:00 GMT', '30', 'ARI', 'Arizona', 'Coyotes', '10', 'PIT', 'Pittsburgh', 'Penguins', '40', 'PPG Paints Arena', '30', 'ARI', 'Arizona', 'Coyotes', '0', '1', '0', '0', '0', '29', '36', '44.6', '1', '0', '0.0', '6', '1', '83.3', '0', '0', '1', '3', '25', '7', '7', '14', '28']"
"['', '41011', '2017-11-09', '01:00:00 GMT', '30', 'ARI', 'Arizona', 'Coyotes', '17', 'STL', 'St. Louis', 'Blues', '24', 'Scottrade Center', '30', 'ARI', 'Arizona', 'Coyotes', '0', '0', '0', '1', '1', '29', '40', '42.0', '3', '1', '33.3', '3', '0', '100.0', '0', '0', '2', '2', '29', '12', '3', '6', '25']"
"['', '41033', '2017-11-11', '03:00:00 GMT', '2', 'WPJ', 'Winnipeg', 'Jets', '30', 'ARI', 'Arizona', 'Coyotes', '6', 'Gila River Arena', '30', 'ARI', 'Arizona', 'Coyotes', '0', '1', '0', '0', '0', '25', '26', '49.0', '4', '0', '0.0', '2', '1', '50.0', '0', '0', '1', '4', '30', '12', '2', '4', '28']"
"['', '41045', '2017-11-14', '01:00:00 GMT', '30', 'ARI', 'Arizona', 'Coyotes', '2', 'WPJ', 'Winnipeg', 'Jets', '39', 'Bell MTS Place', '30', 'ARI', 'Arizona', 'Coyotes', '0', '1', '0', '0', '0', '29', '31', '48.3', '5', '0', '0.0', '3', '0', '100.0', '0', '0', '1', '4', '34', '7', '5', '10', '20']"
"['', '41053', '2017-11-16', '00:30:00 GMT', '30', 'ARI', 'Arizona', 'Coyotes', '14', 'MTL', 'Montreal', 'Canadiens', '4', 'Bell Centre', '30', 'ARI', 'Arizona', 'Coyotes', '1', '0', '0', '0', '2', '36', '29', '55.4', '5', '2', '40.0', '4', '0', '100.0', '0', '0', '5', '4', '32', '20', '8', '22', '19']"
"['', '41066', '2017-11-18', '19:00:00 GMT', '30', 'ARI', 'Arizona', 'Coyotes', '13', 'OTT', 'Ottawa', 'Senators', '23', 'Canadian Tire Centre', '30', 'ARI', 'Arizona', 'Coyotes', '1', '0', '0', '0', '2', '34', '26', '56.7', '3', '1', '33.3', '5', '0', '100.0', '0', '0', '3', '2', '28', '16', '5', '10', '30']"
"['', '41083', '2017-11-20', '00:00:00 GMT', '30', 'ARI', 'Arizona', 'Coyotes', '12', 'TOR', 'Toronto', 'Maple Leafs', '1', 'Air Canada Center', '30', 'ARI', 'Arizona', 'Coyotes', '1', '0', '0', '0', '2', '33', '26', '55.9', '4', '2', '50.0', '1', '1', '0.0', '0', '0', '4', '1', '31', '17', '1', '2', '21']"
"['', '41104', '2017-11-22', '02:00:00 GMT', '26', 'SJS', 'San Jose', 'Sharks', '30', 'ARI', 'Arizona', 'Coyotes', '6', 'Gila River Arena', '30', 'ARI', 'Arizona', 'Coyotes', '0', '1', '0', '0', '0', '33', '25', '56.9', '3', '0', '0.0', '1', '0', '100.0', '0', '0', '1', '3', '27', '11', '1', '2', '18']"
"['', '41118', '2017-11-24', '02:00:00 GMT', '28', 'LAK', 'Los Angeles', 'Kings', '30', 'ARI', 'Arizona', 'Coyotes', '6', 'Gila River Arena', '30', 'ARI', 'Arizona', 'Coyotes', '1', '0', '0', '0', '2', '26', '32', '44.8', '4', '1', '25.0', '1', '0', '100.0', '0', '0', '3', '2', '33', '21', '1', '2', '20']"
"['', '43384', '2017-11-25', '01:00:00 GMT', '142', 'VGK', 'Vegas', 'Golden Knights', '30', 'ARI', 'Arizona', 'Coyotes', '6', 'Gila River Arena', '30', 'ARI', 'Arizona', 'Coyotes', '0', '1', '0', '0', '0', '27', '32', '45.8', '5', '0', '0.0', '5', '1', '80.0', '0', '1', '2', '4', '26', '13', '4', '10', '16']"
"['', '41147', '2017-11-28', '02:00:00 GMT', '30', 'ARI', 'Arizona', 'Coyotes', '24', 'EDM', 'Edmonton', 'Oilers', '22', 'Rogers Place', '30', 'ARI', 'Arizona', 'Coyotes', '0', '0', '0', '1', '1', '40', '37', '51.9', '2', '1', '50.0', '3', '0', '100.0', '0', '0', '2', '3', '31', '25', '4', '8', '15']"
"['', '41159', '2017-11-30', '02:00:00 GMT', '30', 'ARI', 'Arizona', 'Coyotes', '23', 'CGY', 'Calgary', 'Flames', '18', 'Scotiabank Saddledome', '30', 'ARI', 'Arizona', 'Coyotes', '0', '1', '0', '0', '0', '29', '25', '53.7', '2', '0', '0.0', '1', '0', '100.0', '0', '0', '0', '3', '28', '14', '1', '2', '14']"
"['', '41177', '2017-12-02', '01:00:00 GMT', '7', 'NJD', 'New Jersey', 'Devils', '30', 'ARI', 'Arizona', 'Coyotes', '6', 'Gila River Arena', '30', 'ARI', 'Arizona', 'Coyotes', '1', '0', '0', '0', '2', '33', '29', '53.2', '2', '0', '0.0', '3', '0', '100.0', '0', '0', '5', '0', '27', '26', '3', '6', '28']"
"['', '41184', '2017-12-03', '01:00:00 GMT', '30', 'ARI', 'Arizona', 'Coyotes', '142', 'VGK', 'Vegas', 'Golden Knights', '139', 'T-Mobile Arena', '30', 'ARI', 'Arizona', 'Coyotes', '0', '0', '0', '1', '1', '28', '43', '39.4', '1', '1', '100.0', '0', '0', '0.0', '0', '0', '2', '3', '33', '22', '1', '2', '21']"
"['', '41204', '2017-12-07', '00:00:00 GMT', '30', 'ARI', 'Arizona', 'Coyotes', '11', 'BOS', 'Boston', 'Bruins', '27', 'TD Garden', '30', 'ARI', 'Arizona', 'Coyotes', '0', '1', '0', '0', '0', '34', '37', '47.9', '0', '0', '0.0', '4', '1', '75.0', '0', '0', '1', '6', '21', '6', '4', '8', '26']"
"['', '41223', '2017-12-09', '00:00:00 GMT', '30', 'ARI', 'Arizona', 'Coyotes', '19', 'CBJ', 'Columbus', 'Blue Jackets', '17', 'Nationwide Arena', '30', 'ARI', 'Arizona', 'Coyotes', '0', '1', '0', '0', '0', '24', '32', '42.9', '3', '0', '0.0', '2', '0', '100.0', '0', '0', '0', '1', '35', '15', '2', '4', '14']"
"['', '41231', '2017-12-10', '00:00:00 GMT', '30', 'ARI', 'Arizona', 'Coyotes', '20', 'CHI', 'Chicago', 'Blackhawks', '28', 'United Center', '30', 'ARI', 'Arizona', 'Coyotes', '0', '1', '0', '0', '0', '30', '34', '46.9', '1', '0', '0.0', '2', '0', '100.0', '0', '0', '1', '3', '32', '9', '2', '4', '30']"
"['', '41259', '2017-12-14', '02:00:00 GMT', '1', 'TBL', 'Tampa Bay', 'Lightning', '30', 'ARI', 'Arizona', 'Coyotes', '6', 'Gila River Arena', '30', 'ARI', 'Arizona', 'Coyotes', '0', '1', '0', '0', '0', '35', '28', '55.6', '3', '1', '33.3', '3', '1', '66.7', '0', '0', '1', '4', '33', '13', '7', '20', '16']"
"['', '41277', '2017-12-16', '01:00:00 GMT', '10', 'PIT', 'Pittsburgh', 'Penguins', '30', 'ARI', 'Arizona', 'Coyotes', '6', 'Gila River Arena', '30', 'ARI', 'Arizona', 'Coyotes', '0', '1', '0', '0', '0', '26', '28', '48.1', '2', '0', '0.0', '4', '0', '100.0', '0', '1', '2', '4', '17', '15', '5', '10', '31']"
"['', '41296', '2017-12-19', '02:00:00 GMT', '4', 'FLO', 'Florida', 'Panthers', '30', 'ARI', 'Arizona', 'Coyotes', '6', 'Gila River Arena', '30', 'ARI', 'Arizona', 'Coyotes', '0', '1', '0', '0', '0', '39', '39', '50.0', '5', '0', '0.0', '0', '0', '0.0', '0', '0', '2', '3', '41', '12', '2', '4', '32']"
"['', '43402', '2017-12-22', '02:00:00 GMT', '5', 'WSH', 'Washington', 'Capitals', '30', 'ARI', 'Arizona', 'Coyotes', '6', 'Gila River Arena', '30', 'ARI', 'Arizona', 'Coyotes', '1', '0', '0', '0', '2', '22', '29', '43.1', '2', '1', '50.0', '2', '0', '100.0', '0', '0', '3', '2', '27', '19', '2', '4', '33']"
"['', '41326', '2017-12-23', '01:00:00 GMT', '22', 'COL', 'Colorado', 'Avalanche', '30', 'ARI', 'Arizona', 'Coyotes', '6', 'Gila River Arena', '30', 'ARI', 'Arizona', 'Coyotes', '0', '1', '0', '0', '0', '27', '26', '50.9', '5', '0', '0.0', '5', '3', '40.0', '2', '0', '2', '6', '34', '11', '8', '40', '21']"
"['', '41340', '2017-12-27', '02:00:00 GMT', '30', 'ARI', 'Arizona', 'Coyotes', '22', 'COL', 'Colorado', 'Avalanche', '19', 'Pepsi Center', '30', 'ARI', 'Arizona', 'Coyotes', '1', '0', '0', '0', '2', '29', '32', '47.5', '4', '0', '0.0', '2', '0', '100.0', '0', '0', '3', '1', '27', '11', '2', '4', '14']"
"['', '41345', '2017-12-28', '02:00:00 GMT', '12', 'TOR', 'Toronto', 'Maple Leafs', '30', 'ARI', 'Arizona', 'Coyotes', '6', 'Gila River Arena', '30', 'ARI', 'Arizona', 'Coyotes', '0', '1', '0', '0', '0', '37', '38', '49.3', '6', '1', '16.7', '1', '1', '0.0', '0', '1', '4', '7', '34', '7', '3', '6', '28']"
"['', '41367', '2017-12-31', '21:00:00 GMT', '30', 'ARI', 'Arizona', 'Coyotes', '29', 'ANA', 'Anaheim', 'Ducks', '8', 'Honda Center', '30', 'ARI', 'Arizona', 'Coyotes', '0', '1', '0', '0', '0', '19', '41', '31.7', '4', '2', '50.0', '1', '0', '100.0', '0', '0', '2', '5', '25', '9', '1', '2', '28']"
"['', '41398', '2018-01-04', '02:00:00 GMT', '18', 'NSH', 'Nashville', 'Predators', '30', 'ARI', 'Arizona', 'Coyotes', '6', 'Gila River Arena', '30', 'ARI', 'Arizona', 'Coyotes', '1', '0', '0', '0', '2', '28', '25', '52.8', '2', '1', '50.0', '2', '0', '100.0', '0', '0', '3', '2', '25', '25', '2', '4', '30']"
"['', '41412', '2018-01-06', '01:00:00 GMT', '9', 'NYR', 'New York', 'Rangers', '30', 'ARI', 'Arizona', 'Coyotes', '6', 'Gila River Arena', '30', 'ARI', 'Arizona', 'Coyotes', '0', '0', '0', '1', '1', '22', '28', '44.0', '2', '1', '50.0', '1', '0', '100.0', '0', '0', '1', '1', '39', '14', '1', '2', '23']"
"['', '41442', '2018-01-12', '02:00:00 GMT', '24', 'EDM', 'Edmonton', 'Oilers', '30', 'ARI', 'Arizona', 'Coyotes', '6', 'Gila River Arena', '30', 'ARI', 'Arizona', 'Coyotes', '0', '1', '0', '0', '0', '28', '28', '50.0', '1', '0', '0.0', '1', '0', '100.0', '0', '0', '2', '4', '22', '10', '1', '2', '25']"
"['', '41450', '2018-01-13', '03:30:00 GMT', '30', 'ARI', 'Arizona', 'Coyotes', '26', 'SJS', 'San Jose', 'Sharks', '9', 'SAP Center at San Jose', '30', 'ARI', 'Arizona', 'Coyotes', '0', '0', '0', '1', '1', '27', '37', '42.2', '1', '0', '0.0', '1', '1', '0.0', '0', '0', '5', '6', '21', '21', '1', '2', '27']"
"['', '41465', '2018-01-16', '02:00:00 GMT', '26', 'SJS', 'San Jose', 'Sharks', '30', 'ARI', 'Arizona', 'Coyotes', '6', 'Gila River Arena', '30', 'ARI', 'Arizona', 'Coyotes', '0', '0', '0', '1', '1', '31', '26', '54.4', '2', '0', '0.0', '2', '1', '50.0', '0', '0', '2', '2', '32', '15', '2', '4', '25']"
"['', '41475', '2018-01-18', '01:00:00 GMT', '30', 'ARI', 'Arizona', 'Coyotes', '18', 'NSH', 'Nashville', 'Predators', '15', 'Bridgestone Arena', '30', 'ARI', 'Arizona', 'Coyotes', '0', '0', '0', '1', '1', '30', '44', '40.5', '2', '0', '0.0', '3', '0', '100.0', '0', '0', '2', '2', '29', '12', '2', '6', '15']"
"['', '41488', '2018-01-20', '01:00:00 GMT', '30', 'ARI', 'Arizona', 'Coyotes', '17', 'STL', 'St. Louis', 'Blues', '24', 'Scottrade Center', '30', 'ARI', 'Arizona', 'Coyotes', '1', '0', '0', '0', '2', '32', '27', '54.2', '3', '1', '33.3', '3', '2', '33.3', '0', '0', '5', '2', '44', '16', '4', '11', '25']"
"['', '41503', '2018-01-22', '02:00:00 GMT', '8', 'NYI', 'New York', 'Islanders', '30', 'ARI', 'Arizona', 'Coyotes', '6', 'Gila River Arena', '30', 'ARI', 'Arizona', 'Coyotes', '1', '0', '0', '0', '2', '26', '23', '53.1', '2', '0', '0.0', '2', '0', '100.0', '0', '0', '3', '2', '33', '8', '2', '4', '25']"
"['', '41529', '2018-01-25', '02:00:00 GMT', '19', 'CBJ', 'Columbus', 'Blue Jackets', '30', 'ARI', 'Arizona', 'Coyotes', '6', 'Gila River Arena', '30', 'ARI', 'Arizona', 'Coyotes', '0', '1', '0', '0', '0', '27', '28', '49.1', '1', '1', '100.0', '1', '1', '0.0', '0', '0', '1', '2', '39', '12', '2', '4', '37']"
"['', '41558', '2018-02-01', '02:00:00 GMT', '27', 'DAL', 'Dallas', 'Stars', '30', 'ARI', 'Arizona', 'Coyotes', '6', 'Gila River Arena', '30', 'ARI', 'Arizona', 'Coyotes', '0', '1', '0', '0', '0', '32', '36', '47.1', '6', '0', '0.0', '6', '1', '83.3', '0', '0', '1', '4', '18', '12', '7', '14', '30']"
"['', '41577', '2018-02-03', '03:30:00 GMT', '30', 'ARI', 'Arizona', 'Coyotes', '28', 'LAK', 'Los Angeles', 'Kings', '25', 'Staples Center', '30', 'ARI', 'Arizona', 'Coyotes', '0', '1', '0', '0', '0', '25', '36', '41.0', '2', '0', '0.0', '2', '1', '50.0', '0', '1', '0', '6', '27', '8', '3', '9', '28']"
"['', '41592', '2018-02-06', '01:00:00 GMT', '30', 'ARI', 'Arizona', 'Coyotes', '2', 'WPJ', 'Winnipeg', 'Jets', '39', 'Bell MTS Place', '30', 'ARI', 'Arizona', 'Coyotes', '0', '1', '0', '0', '0', '29', '26', '52.7', '4', '1', '25.0', '4', '0', '100.0', '0', '0', '3', '4', '24', '12', '4', '8', '23']"
"['', '41605', '2018-02-08', '01:00:00 GMT', '30', 'ARI', 'Arizona', 'Coyotes', '25', 'MIN', 'Minnesota', 'Wild', '30', 'Xcel Energy Center', '30', 'ARI', 'Arizona', 'Coyotes', '1', '0', '0', '0', '2', '32', '27', '54.2', '1', '0', '0.0', '1', '0', '100.0', '0', '0', '4', '3', '40', '9', '1', '2', '19']"
"['', '41623', '2018-02-10', '01:00:00 GMT', '6', 'PHI', 'Philadelphia', 'Flyers', '30', 'ARI', 'Arizona', 'Coyotes', '6', 'Gila River Arena', '30', 'ARI', 'Arizona', 'Coyotes', '0', '0', '0', '1', '1', '29', '32', '47.5', '2', '0', '0.0', '4', '2', '50.0', '0', '0', '3', '3', '27', '11', '5', '10', '30']"
"['', '41636', '2018-02-12', '02:00:00 GMT', '20', 'CHI', 'Chicago', 'Blackhawks', '30', 'ARI', 'Arizona', 'Coyotes', '6', 'Gila River Arena', '30', 'ARI', 'Arizona', 'Coyotes', '1', '0', '0', '0', '2', '27', '34', '44.3', '4', '1', '25.0', '6', '1', '83.3', '0', '0', '6', '1', '22', '18', '8', '16', '20']"
"['', '41648', '2018-02-13', '03:30:00 GMT', '30', 'ARI', 'Arizona', 'Coyotes', '26', 'SJS', 'San Jose', 'Sharks', '9', 'SAP Center at San Jose', '30', 'ARI', 'Arizona', 'Coyotes', '1', '0', '0', '0', '2', '29', '41', '41.4', '2', '1', '50.0', '4', '0', '100.0', '0', '0', '2', '1', '26', '16', '5', '10', '26']"
"['', '41660', '2018-02-15', '02:00:00 GMT', '14', 'MTL', 'Montreal', 'Canadiens', '30', 'ARI', 'Arizona', 'Coyotes', '6', 'Gila River Arena', '30', 'ARI', 'Arizona', 'Coyotes', '1', '0', '0', '0', '2', '31', '28', '52.5', '2', '2', '100.0', '3', '1', '66.7', '0', '0', '5', '2', '21', '24', '4', '8', '31']"
"['', '41670', '2018-02-17', '21:00:00 GMT', '24', 'EDM', 'Edmonton', 'Oilers', '30', 'ARI', 'Arizona', 'Coyotes', '6', 'Gila River Arena', '30', 'ARI', 'Arizona', 'Coyotes', '1', '0', '0', '0', '2', '27', '29', '48.2', '4', '0', '0.0', '2', '0', '100.0', '0', '0', '1', '0', '32', '12', '2', '4', '16']"
"['', '41711', '2018-02-22', '02:00:00 GMT', '23', 'CGY', 'Calgary', 'Flames', '30', 'ARI', 'Arizona', 'Coyotes', '6', 'Gila River Arena', '30', 'ARI', 'Arizona', 'Coyotes', '0', '1', '0', '0', '0', '29', '31', '48.3', '5', '0', '0.0', '4', '1', '75.0', '0', '1', '2', '5', '37', '12', '7', '25', '28']"
"['', '41728', '2018-02-24', '01:00:00 GMT', '29', 'ANA', 'Anaheim', 'Ducks', '30', 'ARI', 'Arizona', 'Coyotes', '6', 'Gila River Arena', '30', 'ARI', 'Arizona', 'Coyotes', '1', '0', '0', '0', '2', '18', '32', '36.0', '4', '0', '0.0', '2', '0', '100.0', '0', '0', '2', '0', '38', '17', '2', '4', '20']"
"['', '41735', '2018-02-25', '02:30:00 GMT', '21', 'VAN', 'Vancouver', 'Canucks', '30', 'ARI', 'Arizona', 'Coyotes', '6', 'Gila River Arena', '30', 'ARI', 'Arizona', 'Coyotes', '0', '1', '0', '0', '0', '24', '32', '42.9', '6', '1', '16.7', '4', '1', '75.0', '0', '1', '1', '3', '42', '10', '4', '8', '26']"
"['', '41760', '2018-03-01', '02:00:00 GMT', '25', 'MIN', 'Minnesota', 'Wild', '30', 'ARI', 'Arizona', 'Coyotes', '6', 'Gila River Arena', '30', 'ARI', 'Arizona', 'Coyotes', '1', '0', '0', '0', '2', '27', '31', '46.6', '2', '1', '50.0', '4', '1', '75.0', '0', '0', '5', '3', '25', '13', '5', '10', '21']"
"['', '41777', '2018-03-03', '01:00:00 GMT', '13', 'OTT', 'Ottawa', 'Senators', '30', 'ARI', 'Arizona', 'Coyotes', '6', 'Gila River Arena', '30', 'ARI', 'Arizona', 'Coyotes', '1', '0', '0', '0', '2', '35', '27', '56.5', '3', '0', '0.0', '2', '0', '100.0', '0', '0', '2', '1', '27', '15', '2', '4', '35']"
"['', '41790', '2018-03-05', '02:00:00 GMT', '30', 'ARI', 'Arizona', 'Coyotes', '24', 'EDM', 'Edmonton', 'Oilers', '22', 'Rogers Place', '30', 'ARI', 'Arizona', 'Coyotes', '0', '0', '0', '1', '1', '28', '33', '45.9', '3', '0', '0.0', '4', '1', '75.0', '0', '1', '3', '4', '35', '18', '6', '12', '30']"
"['', '41803', '2018-03-07', '03:00:00 GMT', '30', 'ARI', 'Arizona', 'Coyotes', '21', 'VAN', 'Vancouver', 'Canucks', '7', 'Rogers Arena', '30', 'ARI', 'Arizona', 'Coyotes', '1', '0', '0', '0', '2', '24', '24', '50.0', '3', '1', '33.3', '1', '0', '100.0', '0', '0', '2', '1', '34', '11', '1', '2', '19']"
"['', '41824', '2018-03-10', '20:00:00 GMT', '30', 'ARI', 'Arizona', 'Coyotes', '22', 'COL', 'Colorado', 'Avalanche', '19', 'Pepsi Center', '30', 'ARI', 'Arizona', 'Coyotes', '0', '1', '0', '0', '0', '27', '27', '50.0', '4', '0', '0.0', '4', '1', '75.0', '0', '0', '2', '5', '28', '13', '9', '29', '17']"
"['', '41834', '2018-03-11', '01:00:00 GMT', '21', 'VAN', 'Vancouver', 'Canucks', '30', 'ARI', 'Arizona', 'Coyotes', '6', 'Gila River Arena', '30', 'ARI', 'Arizona', 'Coyotes', '1', '0', '0', '0', '2', '22', '33', '40.0', '2', '1', '50.0', '1', '0', '100.0', '0', '0', '1', '0', '24', '18', '1', '2', '27']"
"['', '41849', '2018-03-13', '02:00:00 GMT', '28', 'LAK', 'Los Angeles', 'Kings', '30', 'ARI', 'Arizona', 'Coyotes', '6', 'Gila River Arena', '30', 'ARI', 'Arizona', 'Coyotes', '1', '0', '0', '0', '2', '39', '29', '57.4', '1', '0', '0.0', '4', '1', '75.0', '0', '0', '3', '3', '29', '17', '4', '8', '27']"
"['', '41862', '2018-03-15', '02:00:00 GMT', '18', 'NSH', 'Nashville', 'Predators', '30', 'ARI', 'Arizona', 'Coyotes', '6', 'Gila River Arena', '30', 'ARI', 'Arizona', 'Coyotes', '0', '1', '0', '0', '0', '37', '38', '49.3', '5', '0', '0.0', '3', '0', '100.0', '0', '0', '2', '3', '34', '15', '4', '8', '29']"
"['', '41878', '2018-03-17', '01:00:00 GMT', '25', 'MIN', 'Minnesota', 'Wild', '30', 'ARI', 'Arizona', 'Coyotes', '6', 'Gila River Arena', '30', 'ARI', 'Arizona', 'Coyotes', '0', '1', '0', '0', '0', '26', '29', '47.3', '2', '0', '0.0', '5', '1', '80.0', '0', '0', '1', '3', '31', '8', '5', '10', '17']"
"['', '41892', '2018-03-19', '02:00:00 GMT', '23', 'CGY', 'Calgary', 'Flames', '30', 'ARI', 'Arizona', 'Coyotes', '6', 'Gila River Arena', '30', 'ARI', 'Arizona', 'Coyotes', '1', '0', '0', '0', '2', '30', '32', '48.4', '1', '0', '0.0', '3', '0', '100.0', '0', '0', '5', '2', '30', '16', '5', '10', '25']"
"['', '41904', '2018-03-21', '23:00:00 GMT', '30', 'ARI', 'Arizona', 'Coyotes', '15', 'BUF', 'Buffalo', 'Sabres', '10', 'KeyBank Center', '30', 'ARI', 'Arizona', 'Coyotes', '1', '0', '0', '0', '2', '28', '43', '39.4', '3', '2', '66.7', '4', '0', '100.0', '0', '0', '4', '1', '29', '24', '5', '10', '16']"
"['', '41911', '2018-03-22', '23:00:00 GMT', '30', 'ARI', 'Arizona', 'Coyotes', '3', 'CAR', 'Carolina', 'Hurricanes', '21', 'PNC Arena', '30', 'ARI', 'Arizona', 'Coyotes', '0', '1', '0', '0', '0', '37', '34', '52.1', '3', '1', '33.3', '2', '0', '100.0', '0', '0', '5', '6', '33', '21', '3', '6', '23']"
"['', '41927', '2018-03-24', '23:00:00 GMT', '30', 'ARI', 'Arizona', 'Coyotes', '4', 'FLO', 'Florida', 'Panthers', '3', 'BB&T Center', '30', 'ARI', 'Arizona', 'Coyotes', '0', '1', '0', '0', '0', '34', '32', '51.5', '1', '1', '100.0', '4', '1', '75.0', '0', '0', '2', '4', '28', '18', '5', '10', '20']"
"['', '41944', '2018-03-26', '23:30:00 GMT', '30', 'ARI', 'Arizona', 'Coyotes', '1', 'TBL', 'Tampa Bay', 'Lightning', '26', 'Amalie Arena', '30', 'ARI', 'Arizona', 'Coyotes', '1', '0', '0', '0', '2', '26', '33', '44.1', '4', '1', '25.0', '2', '1', '50.0', '0', '0', '4', '1', '35', '9', '2', '4', '24']"
"['', '41961', '2018-03-28', '02:00:00 GMT', '30', 'ARI', 'Arizona', 'Coyotes', '142', 'VGK', 'Vegas', 'Golden Knights', '139', 'T-Mobile Arena', '30', 'ARI', 'Arizona', 'Coyotes', '1', '0', '0', '0', '2', '37', '25', '59.7', '3', '0', '0.0', '5', '2', '60.0', '0', '0', '3', '2', '32', '19', '5', '10', '42']"
"['', '41971', '2018-03-29', '02:30:00 GMT', '30', 'ARI', 'Arizona', 'Coyotes', '28', 'LAK', 'Los Angeles', 'Kings', '25', 'Staples Center', '30', 'ARI', 'Arizona', 'Coyotes', '0', '1', '0', '0', '0', '29', '35', '45.3', '3', '0', '0.0', '4', '1', '75.0', '0', '0', '2', '4', '22', '12', '3', '8', '27']"
"['', '41987', '2018-03-31', '01:00:00 GMT', '17', 'STL', 'St. Louis', 'Blues', '30', 'ARI', 'Arizona', 'Coyotes', '6', 'Gila River Arena', '30', 'ARI', 'Arizona', 'Coyotes', '1', '0', '0', '0', '2', '34', '37', '47.9', '2', '1', '50.0', '1', '0', '100.0', '0', '0', '6', '0', '33', '20', '3', '9', '32']"
"['', '42007', '2018-04-03', '01:00:00 GMT', '30', 'ARI', 'Arizona', 'Coyotes', '23', 'CGY', 'Calgary', 'Flames', '18', 'Scotiabank Saddledome', '30', 'ARI', 'Arizona', 'Coyotes', '1', '0', '0', '0', '2', '36', '43', '45.6', '4', '0', '0.0', '1', '0', '100.0', '0', '0', '4', '1', '21', '15', '1', '2', '20']"
"['', '42022', '2018-04-05', '02:00:00 GMT', '30', 'ARI', 'Arizona', 'Coyotes', '21', 'VAN', 'Vancouver', 'Canucks', '7', 'Rogers Arena', '30', 'ARI', 'Arizona', 'Coyotes', '0', '0', '0', '1', '1', '22', '33', '40.0', '2', '0', '0.0', '3', '1', '66.7', '0', '0', '3', '4', '19', '22', '3', '6', '14']"
"['', '42038', '2018-04-07', '01:00:00 GMT', '29', 'ANA', 'Anaheim', 'Ducks', '30', 'ARI', 'Arizona', 'Coyotes', '6', 'Gila River Arena', '30', 'ARI', 'Arizona', 'Coyotes', '0', '1', '0', '0', '0', '27', '30', '47.4', '4', '0', '0.0', '3', '1', '66.7', '0', '0', '0', '3', '31', '10', '5', '13', '23']"
