"['#Date/Time of Update: 2018-12-10 19:03:14 GMT', '#Game ID', '#Game Date', '#Game Time', '#Away Team ID', '#Away Team Abbr.', '#Away Team City', '#Away Team Name', '#Home Team ID', '#Home Team Abbr.', '#Home Team City', '#Home Team Name', '#Venue ID', '#Venue Name', '#Team ID', '#Team Abbr.', '#Team City', '#Team Name', '#Wins', '#Losses', '#OvertimeWins', '#OvertimeLosses', '#ShootoutWins', '#ShootoutLosses', '#Rows', '#Points', '#FaceoffWins', '#FaceoffLosses', '#FaceoffPercent', '#Powerplays', '#PowerplayGoals', '#PowerplayPercent', '#PenaltyKills', '#PenaltyKillGoalsAllowed', '#PenaltyKillPercent', '#ShorthandedGoalsFor', '#ShorthandedGoalsAgainst', '#GoalsFor', '#GoalsAgainst', '#Shots', '#Penalties', '#PenaltyMinutes', '#Hits']"
"['', '27695', '2014-10-08', '23:00:00 GMT', '14', 'MTL', 'Montreal', 'Canadiens', '12', 'TOR', 'Toronto', 'Maple Leafs', '1', 'Air Canada Center', '14', 'MTL', 'Montreal', 'Canadiens', '1', '0', '0', '0', '0', '0', '1', '2', '37', '26', '58.7', '2', '0', '0.0', '3', '1', '66.7', '0', '0', '4', '3', '28', '2', '6', '21']"
"['', '27700', '2014-10-09', '23:00:00 GMT', '14', 'MTL', 'Montreal', 'Canadiens', '5', 'WSH', 'Washington', 'Capitals', '13', 'Verizon Center', '14', 'MTL', 'Montreal', 'Canadiens', '1', '0', '0', '0', '0', '0', '0', '2', '39', '34', '53.4', '2', '0', '0.0', '5', '0', '100.0', '0', '0', '1', '1', '23', '8', '19', '29']"
"['', '27714', '2014-10-11', '23:00:00 GMT', '14', 'MTL', 'Montreal', 'Canadiens', '6', 'PHI', 'Philadelphia', 'Flyers', '29', 'Wells Fargo Center', '14', 'MTL', 'Montreal', 'Canadiens', '1', '0', '0', '0', '0', '0', '0', '2', '27', '26', '50.9', '3', '0', '0.0', '4', '1', '75.0', '0', '0', '3', '3', '35', '6', '12', '30']"
"['', '28732', '2014-10-13', '23:30:00 GMT', '14', 'MTL', 'Montreal', 'Canadiens', '1', 'TBL', 'Tampa Bay', 'Lightning', '26', 'Amalie Arena', '14', 'MTL', 'Montreal', 'Canadiens', '0', '1', '0', '0', '0', '0', '0', '0', '41', '30', '57.7', '4', '0', '0.0', '3', '2', '33.3', '0', '0', '1', '7', '16', '7', '14', '17']"
"['', '27747', '2014-10-16', '23:30:00 GMT', '11', 'BOS', 'Boston', 'Bruins', '14', 'MTL', 'Montreal', 'Canadiens', '4', 'Bell Centre', '14', 'MTL', 'Montreal', 'Canadiens', '1', '0', '0', '0', '0', '0', '1', '2', '39', '31', '55.7', '3', '2', '66.7', '3', '1', '66.7', '0', '0', '6', '4', '20', '4', '8', '30']"
"['', '27759', '2014-10-18', '23:00:00 GMT', '22', 'COL', 'Colorado', 'Avalanche', '14', 'MTL', 'Montreal', 'Canadiens', '4', 'Bell Centre', '14', 'MTL', 'Montreal', 'Canadiens', '1', '0', '0', '0', '0', '0', '1', '2', '32', '33', '49.2', '3', '1', '33.3', '4', '0', '100.0', '0', '0', '3', '2', '33', '5', '13', '10']"
"['', '27776', '2014-10-21', '23:30:00 GMT', '16', 'DET', 'Detroit', 'Red Wings', '14', 'MTL', 'Montreal', 'Canadiens', '4', 'Bell Centre', '14', 'MTL', 'Montreal', 'Canadiens', '1', '0', '0', '0', '0', '0', '1', '2', '37', '22', '62.7', '1', '0', '0.0', '3', '0', '100.0', '0', '0', '2', '1', '34', '4', '8', '24']"
"['', '27802', '2014-10-25', '23:00:00 GMT', '9', 'NYR', 'New York', 'Rangers', '14', 'MTL', 'Montreal', 'Canadiens', '4', 'Bell Centre', '14', 'MTL', 'Montreal', 'Canadiens', '1', '0', '0', '0', '0', '0', '1', '2', '41', '32', '56.2', '1', '0', '0.0', '2', '0', '100.0', '1', '0', '3', '1', '27', '3', '9', '25']"
"['', '27817', '2014-10-27', '01:30:00 GMT', '14', 'MTL', 'Montreal', 'Canadiens', '24', 'EDM', 'Edmonton', 'Oilers', '22', 'Rogers Place', '14', 'MTL', 'Montreal', 'Canadiens', '0', '1', '0', '0', '0', '0', '0', '0', '29', '37', '43.9', '4', '0', '0.0', '5', '0', '100.0', '0', '0', '0', '3', '29', '6', '12', '15']"
"['', '27827', '2014-10-28', '01:00:00 GMT', '14', 'MTL', 'Montreal', 'Canadiens', '23', 'CGY', 'Calgary', 'Flames', '18', 'Scotiabank Saddledome', '14', 'MTL', 'Montreal', 'Canadiens', '1', '0', '0', '0', '0', '0', '0', '2', '28', '31', '47.5', '3', '0', '0.0', '7', '0', '100.0', '0', '0', '1', '1', '18', '9', '18', '14']"
"['', '27841', '2014-10-30', '02:00:00 GMT', '14', 'MTL', 'Montreal', 'Canadiens', '21', 'VAN', 'Vancouver', 'Canucks', '7', 'Rogers Arena', '14', 'MTL', 'Montreal', 'Canadiens', '0', '0', '0', '1', '0', '0', '0', '1', '38', '30', '55.9', '3', '0', '0.0', '2', '1', '50.0', '0', '0', '2', '3', '23', '2', '4', '16']"
"['', '27860', '2014-11-02', '00:00:00 GMT', '23', 'CGY', 'Calgary', 'Flames', '14', 'MTL', 'Montreal', 'Canadiens', '4', 'Bell Centre', '14', 'MTL', 'Montreal', 'Canadiens', '0', '1', '0', '0', '0', '0', '0', '0', '37', '20', '64.9', '1', '0', '0.0', '6', '1', '83.3', '0', '0', '2', '6', '18', '8', '16', '16']"
"['', '27871', '2014-11-04', '00:30:00 GMT', '20', 'CHI', 'Chicago', 'Blackhawks', '14', 'MTL', 'Montreal', 'Canadiens', '4', 'Bell Centre', '14', 'MTL', 'Montreal', 'Canadiens', '0', '1', '0', '0', '0', '0', '0', '0', '32', '32', '50.0', '4', '0', '0.0', '3', '1', '66.7', '0', '0', '0', '5', '28', '5', '12', '25']"
"['', '27878', '2014-11-05', '00:30:00 GMT', '14', 'MTL', 'Montreal', 'Canadiens', '15', 'BUF', 'Buffalo', 'Sabres', '10', 'First Niagara Center', '14', 'MTL', 'Montreal', 'Canadiens', '1', '0', '0', '0', '0', '0', '0', '2', '36', '26', '58.1', '0', '0', '0.0', '0', '1', '0.0', '0', '0', '1', '1', '31', '5', '13', '15']"
"['', '27899', '2014-11-08', '00:00:00 GMT', '25', 'MIN', 'Minnesota', 'Wild', '14', 'MTL', 'Montreal', 'Canadiens', '4', 'Bell Centre', '14', 'MTL', 'Montreal', 'Canadiens', '1', '0', '0', '0', '0', '0', '1', '2', '37', '26', '58.7', '1', '0', '0.0', '1', '0', '100.0', '0', '0', '4', '1', '27', '4', '8', '11']"
"['', '27918', '2014-11-11', '00:30:00 GMT', '2', 'WPJ', 'Winnipeg', 'Jets', '14', 'MTL', 'Montreal', 'Canadiens', '4', 'Bell Centre', '14', 'MTL', 'Montreal', 'Canadiens', '1', '0', '0', '0', '0', '0', '1', '2', '37', '31', '54.4', '2', '0', '0.0', '3', '0', '100.0', '1', '0', '3', '0', '24', '3', '6', '14']"
"['', '27929', '2014-11-13', '00:30:00 GMT', '11', 'BOS', 'Boston', 'Bruins', '14', 'MTL', 'Montreal', 'Canadiens', '4', 'Bell Centre', '14', 'MTL', 'Montreal', 'Canadiens', '1', '0', '0', '0', '0', '0', '1', '2', '36', '25', '59.0', '5', '1', '20.0', '3', '1', '66.7', '0', '0', '5', '1', '29', '6', '18', '24']"
"['', '27946', '2014-11-15', '00:00:00 GMT', '6', 'PHI', 'Philadelphia', 'Flyers', '14', 'MTL', 'Montreal', 'Canadiens', '4', 'Bell Centre', '14', 'MTL', 'Montreal', 'Canadiens', '1', '0', '0', '0', '0', '0', '1', '2', '37', '28', '56.9', '3', '3', '100.0', '5', '1', '80.0', '0', '0', '6', '3', '22', '6', '15', '15']"
"['', '27956', '2014-11-16', '00:00:00 GMT', '14', 'MTL', 'Montreal', 'Canadiens', '16', 'DET', 'Detroit', 'Red Wings', '11', 'Joe Louis Arena', '14', 'MTL', 'Montreal', 'Canadiens', '1', '0', '0', '0', '0', '0', '1', '2', '34', '41', '45.3', '3', '0', '0.0', '6', '1', '83.3', '0', '0', '4', '1', '15', '7', '14', '16']"
"['', '27966', '2014-11-18', '00:30:00 GMT', '10', 'PIT', 'Pittsburgh', 'Penguins', '14', 'MTL', 'Montreal', 'Canadiens', '4', 'Bell Centre', '14', 'MTL', 'Montreal', 'Canadiens', '0', '1', '0', '0', '0', '0', '0', '0', '40', '25', '61.5', '2', '0', '0.0', '1', '1', '0.0', '0', '0', '0', '4', '27', '1', '2', '19']"
"['', '27976', '2014-11-20', '00:30:00 GMT', '17', 'STL', 'St. Louis', 'Blues', '14', 'MTL', 'Montreal', 'Canadiens', '4', 'Bell Centre', '14', 'MTL', 'Montreal', 'Canadiens', '1', '0', '0', '0', '0', '0', '1', '2', '26', '26', '50.0', '2', '0', '0.0', '0', '0', '0.0', '0', '0', '4', '1', '26', '0', '0', '20']"
"['', '27990', '2014-11-22', '00:00:00 GMT', '14', 'MTL', 'Montreal', 'Canadiens', '11', 'BOS', 'Boston', 'Bruins', '27', 'TD Garden', '14', 'MTL', 'Montreal', 'Canadiens', '1', '0', '0', '0', '0', '0', '1', '2', '30', '29', '50.8', '3', '1', '33.3', '2', '0', '100.0', '0', '0', '2', '0', '21', '4', '14', '21']"
"['', '28003', '2014-11-23', '00:00:00 GMT', '14', 'MTL', 'Montreal', 'Canadiens', '9', 'NYR', 'New York', 'Rangers', '12', 'Madison Square Garden', '14', 'MTL', 'Montreal', 'Canadiens', '0', '1', '0', '0', '0', '0', '0', '0', '29', '22', '56.9', '1', '0', '0.0', '2', '0', '100.0', '0', '0', '0', '5', '21', '5', '13', '23']"
"['', '28031', '2014-11-28', '00:00:00 GMT', '14', 'MTL', 'Montreal', 'Canadiens', '15', 'BUF', 'Buffalo', 'Sabres', '10', 'First Niagara Center', '14', 'MTL', 'Montreal', 'Canadiens', '0', '1', '0', '0', '0', '0', '0', '0', '43', '21', '67.2', '2', '1', '50.0', '4', '1', '75.0', '0', '0', '1', '2', '30', '8', '33', '15']"
"['', '28038', '2014-11-29', '00:00:00 GMT', '15', 'BUF', 'Buffalo', 'Sabres', '14', 'MTL', 'Montreal', 'Canadiens', '4', 'Bell Centre', '14', 'MTL', 'Montreal', 'Canadiens', '0', '0', '0', '1', '0', '0', '0', '1', '49', '19', '72.1', '2', '0', '0.0', '1', '0', '100.0', '0', '0', '3', '3', '41', '1', '2', '24']"
"['', '28053', '2014-12-01', '02:00:00 GMT', '14', 'MTL', 'Montreal', 'Canadiens', '22', 'COL', 'Colorado', 'Avalanche', '19', 'Pepsi Center', '14', 'MTL', 'Montreal', 'Canadiens', '1', '0', '0', '0', '0', '0', '1', '2', '34', '30', '53.1', '2', '1', '50.0', '1', '0', '100.0', '0', '0', '4', '3', '26', '1', '2', '9']"
"['', '28066', '2014-12-03', '00:00:00 GMT', '14', 'MTL', 'Montreal', 'Canadiens', '25', 'MIN', 'Minnesota', 'Wild', '30', 'Xcel Energy Center', '14', 'MTL', 'Montreal', 'Canadiens', '0', '1', '0', '0', '0', '0', '0', '0', '32', '29', '52.5', '1', '0', '0.0', '4', '0', '100.0', '0', '0', '1', '2', '18', '6', '13', '17']"
"['', '28083', '2014-12-05', '01:30:00 GMT', '14', 'MTL', 'Montreal', 'Canadiens', '20', 'CHI', 'Chicago', 'Blackhawks', '28', 'United Center', '14', 'MTL', 'Montreal', 'Canadiens', '0', '1', '0', '0', '0', '0', '0', '0', '31', '33', '48.4', '3', '1', '33.3', '4', '1', '75.0', '0', '0', '3', '4', '38', '4', '10', '19']"
"['', '28089', '2014-12-06', '00:00:00 GMT', '14', 'MTL', 'Montreal', 'Canadiens', '27', 'DAL', 'Dallas', 'Stars', '2', 'American Airlines Center', '14', 'MTL', 'Montreal', 'Canadiens', '0', '1', '0', '0', '0', '0', '0', '0', '31', '35', '47.0', '2', '0', '0.0', '6', '2', '66.7', '0', '0', '1', '4', '16', '7', '14', '17']"
"['', '28107', '2014-12-09', '00:30:00 GMT', '21', 'VAN', 'Vancouver', 'Canucks', '14', 'MTL', 'Montreal', 'Canadiens', '4', 'Bell Centre', '14', 'MTL', 'Montreal', 'Canadiens', '1', '0', '0', '0', '0', '0', '1', '2', '28', '23', '54.9', '5', '0', '0.0', '2', '0', '100.0', '0', '1', '3', '1', '22', '2', '4', '17']"
"['', '28126', '2014-12-12', '00:30:00 GMT', '28', 'LAK', 'Los Angeles', 'Kings', '14', 'MTL', 'Montreal', 'Canadiens', '4', 'Bell Centre', '14', 'MTL', 'Montreal', 'Canadiens', '1', '0', '0', '0', '0', '0', '1', '2', '40', '23', '63.5', '3', '2', '66.7', '5', '0', '100.0', '0', '0', '6', '2', '14', '5', '10', '19']"
"['', '28149', '2014-12-16', '00:30:00 GMT', '3', 'CAR', 'Carolina', 'Hurricanes', '14', 'MTL', 'Montreal', 'Canadiens', '4', 'Bell Centre', '14', 'MTL', 'Montreal', 'Canadiens', '1', '0', '0', '0', '0', '0', '1', '2', '30', '19', '61.2', '4', '0', '0.0', '3', '0', '100.0', '0', '0', '4', '1', '25', '4', '8', '9']"
"['', '28165', '2014-12-18', '00:30:00 GMT', '29', 'ANA', 'Anaheim', 'Ducks', '14', 'MTL', 'Montreal', 'Canadiens', '4', 'Bell Centre', '14', 'MTL', 'Montreal', 'Canadiens', '0', '1', '0', '0', '0', '0', '0', '0', '41', '35', '53.9', '2', '1', '50.0', '2', '0', '100.0', '0', '0', '1', '2', '23', '5', '13', '30']"
"['', '28176', '2014-12-20', '00:00:00 GMT', '13', 'OTT', 'Ottawa', 'Senators', '14', 'MTL', 'Montreal', 'Canadiens', '4', 'Bell Centre', '14', 'MTL', 'Montreal', 'Canadiens', '1', '0', '0', '0', '0', '0', '1', '2', '27', '26', '50.9', '4', '1', '25.0', '3', '0', '100.0', '0', '1', '4', '1', '25', '3', '6', '14']"
"['', '28199', '2014-12-23', '00:00:00 GMT', '14', 'MTL', 'Montreal', 'Canadiens', '8', 'NYI', 'New York', 'Islanders', '16', 'Nassau Veterans Memorial Coliseum', '14', 'MTL', 'Montreal', 'Canadiens', '1', '0', '0', '0', '0', '0', '1', '2', '27', '28', '49.1', '3', '0', '0.0', '2', '0', '100.0', '0', '0', '3', '1', '18', '3', '6', '7']"
"['', '28224', '2014-12-29', '00:00:00 GMT', '14', 'MTL', 'Montreal', 'Canadiens', '3', 'CAR', 'Carolina', 'Hurricanes', '21', 'RBC Center', '14', 'MTL', 'Montreal', 'Canadiens', '1', '0', '0', '0', '0', '0', '1', '2', '32', '32', '50.0', '1', '0', '0.0', '2', '1', '50.0', '0', '0', '3', '1', '16', '3', '9', '23']"
"['', '28235', '2014-12-30', '00:30:00 GMT', '14', 'MTL', 'Montreal', 'Canadiens', '4', 'FLO', 'Florida', 'Panthers', '3', 'BB&T Center', '14', 'MTL', 'Montreal', 'Canadiens', '1', '0', '0', '0', '0', '0', '0', '2', '31', '39', '44.3', '2', '0', '0.0', '3', '0', '100.0', '0', '0', '1', '1', '33', '3', '6', '21']"
"['', '28253', '2015-01-02', '00:00:00 GMT', '14', 'MTL', 'Montreal', 'Canadiens', '7', 'NJD', 'New Jersey', 'Devils', '37', 'Prudential Center', '14', 'MTL', 'Montreal', 'Canadiens', '1', '0', '0', '0', '0', '0', '1', '2', '29', '27', '51.8', '4', '1', '25.0', '3', '0', '100.0', '0', '0', '4', '2', '22', '3', '6', '15']"
"['', '28264', '2015-01-03', '00:00:00 GMT', '14', 'MTL', 'Montreal', 'Canadiens', '10', 'PIT', 'Pittsburgh', 'Penguins', '40', 'Consol Energy Center', '14', 'MTL', 'Montreal', 'Canadiens', '1', '0', '0', '0', '0', '0', '1', '2', '35', '30', '53.8', '4', '0', '0.0', '1', '0', '100.0', '0', '0', '4', '1', '29', '2', '4', '21']"
"['', '28280', '2015-01-06', '00:30:00 GMT', '1', 'TBL', 'Tampa Bay', 'Lightning', '14', 'MTL', 'Montreal', 'Canadiens', '4', 'Bell Centre', '14', 'MTL', 'Montreal', 'Canadiens', '0', '1', '0', '0', '0', '0', '0', '0', '33', '27', '55.0', '3', '0', '0.0', '6', '2', '66.7', '0', '0', '2', '4', '20', '6', '12', '14']"
"['', '28310', '2015-01-10', '00:00:00 GMT', '10', 'PIT', 'Pittsburgh', 'Penguins', '14', 'MTL', 'Montreal', 'Canadiens', '4', 'Bell Centre', '14', 'MTL', 'Montreal', 'Canadiens', '0', '0', '0', '1', '0', '0', '0', '1', '20', '32', '38.5', '4', '0', '0.0', '4', '1', '75.0', '0', '0', '1', '2', '27', '4', '8', '18']"
"['', '28334', '2015-01-14', '00:00:00 GMT', '14', 'MTL', 'Montreal', 'Canadiens', '19', 'CBJ', 'Columbus', 'Blue Jackets', '17', 'Nationwide Arena', '14', 'MTL', 'Montreal', 'Canadiens', '1', '0', '0', '0', '0', '0', '1', '2', '35', '24', '59.3', '6', '3', '50.0', '1', '1', '0.0', '0', '0', '3', '2', '28', '3', '6', '20']"
"['', '28341', '2015-01-15', '00:30:00 GMT', '14', 'MTL', 'Montreal', 'Canadiens', '13', 'OTT', 'Ottawa', 'Senators', '23', 'Canadian Tire Centre', '14', 'MTL', 'Montreal', 'Canadiens', '0', '1', '0', '0', '0', '0', '0', '0', '28', '40', '41.2', '3', '0', '0.0', '3', '0', '100.0', '0', '0', '1', '4', '25', '5', '18', '16']"
"['', '28357', '2015-01-17', '00:00:00 GMT', '8', 'NYI', 'New York', 'Islanders', '14', 'MTL', 'Montreal', 'Canadiens', '4', 'Bell Centre', '14', 'MTL', 'Montreal', 'Canadiens', '1', '0', '0', '0', '0', '0', '1', '2', '37', '30', '55.2', '5', '2', '40.0', '3', '1', '66.7', '0', '0', '6', '4', '29', '4', '11', '21']"
"['', '28380', '2015-01-20', '00:30:00 GMT', '18', 'NSH', 'Nashville', 'Predators', '14', 'MTL', 'Montreal', 'Canadiens', '4', 'Bell Centre', '14', 'MTL', 'Montreal', 'Canadiens', '1', '0', '0', '0', '0', '0', '1', '2', '35', '38', '47.9', '3', '2', '66.7', '1', '0', '100.0', '0', '0', '2', '1', '25', '2', '4', '22']"
"['', '28396', '2015-01-27', '00:30:00 GMT', '27', 'DAL', 'Dallas', 'Stars', '14', 'MTL', 'Montreal', 'Canadiens', '4', 'Bell Centre', '14', 'MTL', 'Montreal', 'Canadiens', '1', '0', '0', '0', '0', '0', '1', '2', '35', '30', '53.8', '6', '1', '16.7', '3', '1', '66.7', '0', '0', '3', '2', '23', '6', '13', '19']"
"['', '28406', '2015-01-29', '00:00:00 GMT', '14', 'MTL', 'Montreal', 'Canadiens', '9', 'NYR', 'New York', 'Rangers', '12', 'Madison Square Garden', '14', 'MTL', 'Montreal', 'Canadiens', '1', '0', '0', '0', '0', '0', '1', '2', '30', '29', '50.8', '3', '0', '0.0', '2', '0', '100.0', '0', '0', '1', '0', '25', '6', '15', '14']"
"['', '28421', '2015-01-31', '18:00:00 GMT', '5', 'WSH', 'Washington', 'Capitals', '14', 'MTL', 'Montreal', 'Canadiens', '4', 'Bell Centre', '14', 'MTL', 'Montreal', 'Canadiens', '1', '0', '0', '0', '0', '0', '1', '2', '32', '23', '58.2', '3', '0', '0.0', '5', '0', '100.0', '0', '0', '1', '0', '29', '7', '14', '21']"
"['', '28432', '2015-02-01', '18:00:00 GMT', '30', 'ARI', 'Arizona', 'Coyotes', '14', 'MTL', 'Montreal', 'Canadiens', '4', 'Bell Centre', '14', 'MTL', 'Montreal', 'Canadiens', '0', '1', '0', '0', '0', '0', '0', '0', '42', '38', '52.5', '2', '0', '0.0', '2', '2', '0.0', '0', '0', '2', '3', '18', '2', '4', '23']"
"['', '28443', '2015-02-03', '00:30:00 GMT', '15', 'BUF', 'Buffalo', 'Sabres', '14', 'MTL', 'Montreal', 'Canadiens', '4', 'Bell Centre', '14', 'MTL', 'Montreal', 'Canadiens', '0', '1', '0', '0', '0', '0', '0', '0', '35', '29', '54.7', '2', '0', '0.0', '1', '0', '100.0', '0', '0', '2', '3', '32', '1', '2', '36']"
"['', '28472', '2015-02-07', '00:00:00 GMT', '7', 'NJD', 'New Jersey', 'Devils', '14', 'MTL', 'Montreal', 'Canadiens', '4', 'Bell Centre', '14', 'MTL', 'Montreal', 'Canadiens', '1', '0', '0', '0', '0', '0', '1', '2', '44', '24', '64.7', '3', '3', '100.0', '1', '0', '100.0', '0', '0', '6', '2', '38', '2', '4', '24']"
"['', '28485', '2015-02-08', '00:30:00 GMT', '14', 'MTL', 'Montreal', 'Canadiens', '11', 'BOS', 'Boston', 'Bruins', '27', 'TD Garden', '14', 'MTL', 'Montreal', 'Canadiens', '1', '0', '0', '0', '0', '0', '1', '2', '38', '39', '49.4', '3', '0', '0.0', '0', '0', '0.0', '0', '0', '3', '1', '31', '0', '0', '27']"
"['', '28495', '2015-02-10', '00:30:00 GMT', '6', 'PHI', 'Philadelphia', 'Flyers', '14', 'MTL', 'Montreal', 'Canadiens', '4', 'Bell Centre', '14', 'MTL', 'Montreal', 'Canadiens', '1', '0', '0', '0', '0', '0', '1', '2', '34', '27', '55.7', '3', '0', '0.0', '1', '0', '100.0', '0', '0', '2', '1', '39', '1', '2', '15']"
"['', '28505', '2015-02-12', '00:30:00 GMT', '24', 'EDM', 'Edmonton', 'Oilers', '14', 'MTL', 'Montreal', 'Canadiens', '4', 'Bell Centre', '14', 'MTL', 'Montreal', 'Canadiens', '0', '0', '0', '1', '0', '0', '0', '1', '35', '28', '55.6', '2', '0', '0.0', '3', '0', '100.0', '0', '0', '3', '4', '23', '3', '6', '18']"
"['', '28518', '2015-02-14', '00:00:00 GMT', '12', 'TOR', 'Toronto', 'Maple Leafs', '14', 'MTL', 'Montreal', 'Canadiens', '4', 'Bell Centre', '14', 'MTL', 'Montreal', 'Canadiens', '1', '0', '0', '0', '0', '0', '0', '2', '29', '29', '50.0', '4', '1', '25.0', '3', '0', '100.0', '0', '0', '1', '1', '31', '8', '30', '21']"
"['', '28533', '2015-02-16', '00:30:00 GMT', '14', 'MTL', 'Montreal', 'Canadiens', '16', 'DET', 'Detroit', 'Red Wings', '11', 'Joe Louis Arena', '14', 'MTL', 'Montreal', 'Canadiens', '1', '0', '0', '0', '0', '0', '1', '2', '23', '39', '37.1', '1', '0', '0.0', '2', '0', '100.0', '0', '0', '2', '0', '27', '4', '8', '20']"
"['', '28547', '2015-02-18', '00:00:00 GMT', '14', 'MTL', 'Montreal', 'Canadiens', '13', 'OTT', 'Ottawa', 'Senators', '23', 'Canadian Tire Centre', '14', 'MTL', 'Montreal', 'Canadiens', '0', '1', '0', '0', '0', '0', '0', '0', '24', '32', '42.9', '2', '0', '0.0', '3', '1', '66.7', '0', '0', '2', '4', '42', '4', '11', '26']"
"['', '28558', '2015-02-19', '00:30:00 GMT', '4', 'FLO', 'Florida', 'Panthers', '14', 'MTL', 'Montreal', 'Canadiens', '4', 'Bell Centre', '14', 'MTL', 'Montreal', 'Canadiens', '0', '0', '0', '1', '0', '0', '0', '1', '40', '25', '61.5', '1', '0', '0.0', '1', '0', '100.0', '0', '0', '2', '2', '37', '2', '7', '31']"
"['', '28570', '2015-02-21', '00:00:00 GMT', '19', 'CBJ', 'Columbus', 'Blue Jackets', '14', 'MTL', 'Montreal', 'Canadiens', '4', 'Bell Centre', '14', 'MTL', 'Montreal', 'Canadiens', '1', '0', '0', '0', '0', '0', '1', '2', '26', '32', '44.8', '3', '1', '33.3', '4', '0', '100.0', '1', '0', '3', '1', '21', '6', '18', '25']"
"['', '28593', '2015-02-24', '01:00:00 GMT', '14', 'MTL', 'Montreal', 'Canadiens', '17', 'STL', 'St. Louis', 'Blues', '24', 'Scottrade Center', '14', 'MTL', 'Montreal', 'Canadiens', '1', '0', '0', '0', '0', '0', '1', '2', '37', '27', '57.8', '2', '1', '50.0', '2', '0', '100.0', '0', '0', '5', '2', '18', '3', '6', '17']"
"['', '28603', '2015-02-26', '00:00:00 GMT', '14', 'MTL', 'Montreal', 'Canadiens', '19', 'CBJ', 'Columbus', 'Blue Jackets', '17', 'Nationwide Arena', '14', 'MTL', 'Montreal', 'Canadiens', '1', '0', '0', '0', '0', '0', '1', '2', '24', '26', '48.0', '2', '0', '0.0', '2', '0', '100.0', '0', '0', '5', '2', '22', '2', '4', '19']"
"['', '28622', '2015-02-28', '00:00:00 GMT', '12', 'TOR', 'Toronto', 'Maple Leafs', '14', 'MTL', 'Montreal', 'Canadiens', '4', 'Bell Centre', '14', 'MTL', 'Montreal', 'Canadiens', '1', '0', '0', '0', '0', '0', '1', '2', '29', '25', '53.7', '3', '0', '0.0', '3', '0', '100.0', '0', '0', '4', '0', '19', '4', '8', '26']"
"['', '28635', '2015-03-02', '03:00:00 GMT', '14', 'MTL', 'Montreal', 'Canadiens', '26', 'SJS', 'San Jose', 'Sharks', '9', 'SAP Center at San Jose', '14', 'MTL', 'Montreal', 'Canadiens', '0', '1', '0', '0', '0', '0', '0', '0', '24', '41', '36.9', '0', '0', '0.0', '3', '2', '33.3', '0', '0', '0', '4', '20', '3', '6', '21']"
"['', '28648', '2015-03-04', '03:00:00 GMT', '14', 'MTL', 'Montreal', 'Canadiens', '29', 'ANA', 'Anaheim', 'Ducks', '8', 'Honda Center', '14', 'MTL', 'Montreal', 'Canadiens', '0', '1', '0', '0', '0', '0', '0', '0', '35', '41', '46.1', '3', '1', '33.3', '1', '0', '100.0', '0', '1', '1', '3', '37', '2', '7', '29']"
"['', '28657', '2015-03-05', '03:30:00 GMT', '14', 'MTL', 'Montreal', 'Canadiens', '28', 'LAK', 'Los Angeles', 'Kings', '25', 'Staples Center', '14', 'MTL', 'Montreal', 'Canadiens', '0', '0', '0', '1', '0', '0', '0', '1', '26', '30', '46.4', '2', '0', '0.0', '4', '2', '50.0', '0', '0', '3', '3', '15', '6', '15', '40']"
"['', '28667', '2015-03-07', '00:00:00 GMT', '14', 'MTL', 'Montreal', 'Canadiens', '30', 'ARI', 'Arizona', 'Coyotes', '6', 'Gila River Arena', '14', 'MTL', 'Montreal', 'Canadiens', '1', '0', '0', '0', '0', '0', '1', '2', '34', '28', '54.8', '1', '0', '0.0', '2', '0', '100.0', '0', '0', '2', '0', '33', '3', '6', '34']"
"['', '28689', '2015-03-10', '23:30:00 GMT', '1', 'TBL', 'Tampa Bay', 'Lightning', '14', 'MTL', 'Montreal', 'Canadiens', '4', 'Bell Centre', '14', 'MTL', 'Montreal', 'Canadiens', '0', '0', '0', '1', '0', '0', '0', '1', '36', '24', '60.0', '1', '0', '0.0', '4', '0', '100.0', '0', '0', '0', '1', '19', '4', '8', '28']"
"['', '28699', '2015-03-12', '23:30:00 GMT', '13', 'OTT', 'Ottawa', 'Senators', '14', 'MTL', 'Montreal', 'Canadiens', '4', 'Bell Centre', '14', 'MTL', 'Montreal', 'Canadiens', '0', '1', '0', '0', '0', '0', '0', '0', '30', '30', '50.0', '5', '1', '20.0', '3', '1', '66.7', '1', '0', '2', '5', '27', '3', '6', '19']"
"['', '28717', '2015-03-14', '23:00:00 GMT', '14', 'MTL', 'Montreal', 'Canadiens', '8', 'NYI', 'New York', 'Islanders', '16', 'Nassau Veterans Memorial Coliseum', '14', 'MTL', 'Montreal', 'Canadiens', '1', '0', '0', '0', '0', '0', '1', '2', '30', '35', '46.2', '4', '0', '0.0', '4', '1', '75.0', '1', '0', '3', '1', '27', '5', '10', '22']"
"['', '28927', '2015-03-16', '23:30:00 GMT', '14', 'MTL', 'Montreal', 'Canadiens', '1', 'TBL', 'Tampa Bay', 'Lightning', '26', 'Amalie Arena', '14', 'MTL', 'Montreal', 'Canadiens', '0', '1', '0', '0', '0', '0', '0', '0', '35', '39', '47.3', '3', '1', '33.3', '4', '2', '50.0', '0', '0', '2', '4', '32', '8', '25', '20']"
"['', '28738', '2015-03-17', '23:30:00 GMT', '14', 'MTL', 'Montreal', 'Canadiens', '4', 'FLO', 'Florida', 'Panthers', '3', 'BB&T Center', '14', 'MTL', 'Montreal', 'Canadiens', '1', '0', '0', '0', '0', '0', '1', '2', '27', '36', '42.9', '4', '0', '0.0', '3', '0', '100.0', '1', '0', '3', '2', '22', '5', '10', '22']"
"['', '28749', '2015-03-19', '23:30:00 GMT', '3', 'CAR', 'Carolina', 'Hurricanes', '14', 'MTL', 'Montreal', 'Canadiens', '4', 'Bell Centre', '14', 'MTL', 'Montreal', 'Canadiens', '1', '0', '0', '0', '0', '0', '1', '2', '29', '28', '50.9', '1', '0', '0.0', '1', '0', '100.0', '0', '0', '4', '0', '18', '2', '4', '15']"
"['', '28765', '2015-03-21', '23:00:00 GMT', '26', 'SJS', 'San Jose', 'Sharks', '14', 'MTL', 'Montreal', 'Canadiens', '4', 'Bell Centre', '14', 'MTL', 'Montreal', 'Canadiens', '1', '0', '0', '0', '0', '0', '1', '2', '28', '29', '49.1', '0', '0', '0.0', '2', '0', '100.0', '0', '0', '2', '0', '27', '3', '6', '32']"
"['', '28790', '2015-03-24', '00:00:00 GMT', '14', 'MTL', 'Montreal', 'Canadiens', '18', 'NSH', 'Nashville', 'Predators', '15', 'Bridgestone Arena', '14', 'MTL', 'Montreal', 'Canadiens', '0', '0', '0', '1', '0', '0', '0', '1', '25', '38', '39.7', '1', '0', '0.0', '4', '1', '75.0', '0', '0', '2', '3', '27', '4', '8', '22']"
"['', '28804', '2015-03-26', '00:00:00 GMT', '14', 'MTL', 'Montreal', 'Canadiens', '2', 'WPJ', 'Winnipeg', 'Jets', '39', 'MTS Centre', '14', 'MTL', 'Montreal', 'Canadiens', '0', '1', '0', '0', '0', '0', '0', '0', '32', '32', '50.0', '4', '0', '0.0', '1', '0', '100.0', '0', '0', '2', '5', '39', '4', '11', '19']"
"['', '28816', '2015-03-28', '23:00:00 GMT', '4', 'FLO', 'Florida', 'Panthers', '14', 'MTL', 'Montreal', 'Canadiens', '4', 'Bell Centre', '14', 'MTL', 'Montreal', 'Canadiens', '1', '0', '0', '0', '0', '0', '1', '2', '32', '34', '48.5', '4', '2', '50.0', '1', '1', '0.0', '0', '0', '3', '2', '22', '2', '4', '25']"
"['', '28830', '2015-03-30', '23:30:00 GMT', '1', 'TBL', 'Tampa Bay', 'Lightning', '14', 'MTL', 'Montreal', 'Canadiens', '4', 'Bell Centre', '14', 'MTL', 'Montreal', 'Canadiens', '0', '1', '0', '0', '0', '0', '0', '0', '31', '31', '50.0', '3', '1', '33.3', '4', '1', '75.0', '1', '0', '3', '5', '25', '6', '12', '30']"
"['', '28849', '2015-04-02', '23:30:00 GMT', '5', 'WSH', 'Washington', 'Capitals', '14', 'MTL', 'Montreal', 'Canadiens', '4', 'Bell Centre', '14', 'MTL', 'Montreal', 'Canadiens', '0', '0', '0', '1', '0', '0', '0', '1', '34', '41', '45.3', '4', '1', '25.0', '4', '3', '25.0', '0', '0', '4', '4', '23', '4', '8', '26']"
"['', '28857', '2015-04-03', '23:00:00 GMT', '14', 'MTL', 'Montreal', 'Canadiens', '7', 'NJD', 'New Jersey', 'Devils', '37', 'Prudential Center', '14', 'MTL', 'Montreal', 'Canadiens', '0', '0', '0', '1', '0', '0', '0', '1', '30', '30', '50.0', '6', '1', '16.7', '1', '0', '100.0', '0', '0', '2', '2', '31', '2', '4', '12']"
"['', '28874', '2015-04-05', '21:00:00 GMT', '14', 'MTL', 'Montreal', 'Canadiens', '4', 'FLO', 'Florida', 'Panthers', '3', 'BB&T Center', '14', 'MTL', 'Montreal', 'Canadiens', '1', '0', '0', '0', '0', '0', '1', '2', '34', '35', '49.3', '6', '1', '16.7', '4', '1', '75.0', '0', '0', '4', '1', '24', '4', '8', '25']"
"['', '28900', '2015-04-09', '23:30:00 GMT', '16', 'DET', 'Detroit', 'Red Wings', '14', 'MTL', 'Montreal', 'Canadiens', '4', 'Bell Centre', '14', 'MTL', 'Montreal', 'Canadiens', '1', '0', '0', '0', '0', '0', '1', '2', '25', '32', '43.9', '4', '1', '25.0', '4', '0', '100.0', '0', '1', '4', '3', '22', '5', '10', '22']"
"['', '28915', '2015-04-11', '23:00:00 GMT', '14', 'MTL', 'Montreal', 'Canadiens', '12', 'TOR', 'Toronto', 'Maple Leafs', '1', 'Air Canada Center', '14', 'MTL', 'Montreal', 'Canadiens', '1', '0', '0', '0', '0', '0', '0', '2', '34', '40', '45.9', '3', '0', '0.0', '5', '0', '100.0', '0', '0', '3', '3', '30', '9', '14', '13']"
