"['#Date/Time of Update: 2018-12-10 19:02:53 GMT', '#Game ID', '#Game Date', '#Game Time', '#Away Team ID', '#Away Team Abbr.', '#Away Team City', '#Away Team Name', '#Home Team ID', '#Home Team Abbr.', '#Home Team City', '#Home Team Name', '#Venue ID', '#Venue Name', '#Team ID', '#Team Abbr.', '#Team City', '#Team Name', '#Wins', '#Losses', '#OvertimeWins', '#OvertimeLosses', '#ShootoutWins', '#ShootoutLosses', '#Points', '#FaceoffWins', '#FaceoffLosses', '#FaceoffPercent', '#Powerplays', '#PowerplayGoals', '#PowerplayPercent', '#PenaltyKills', '#PenaltyKillGoalsAllowed', '#PenaltyKillPercent', '#ShorthandedGoalsFor', '#ShorthandedGoalsAgainst', '#GoalsFor', '#GoalsAgainst', '#Shots', '#Penalties', '#PenaltyMinutes', '#Hits']"
"['', '3838', '2008-10-11', '00:30:00 GMT', '11', 'BOS', 'Boston', 'Bruins', '25', 'MIN', 'Minnesota', 'Wild', '30', 'Xcel Energy Center', '25', 'MIN', 'Minnesota', 'Wild', '1', '0', '0', '0', '0', '0', '2', '19', '32', '37.3', '3', '2', '66.7', '4', '0', '100.0', '0', '0', '4', '3', '22', '6', '12', '15']"
"['', '3853', '2008-10-14', '23:00:00 GMT', '25', 'MIN', 'Minnesota', 'Wild', '2', 'ATL', 'Atlanta', 'Thrashers', '20', 'Philips Arena', '25', 'MIN', 'Minnesota', 'Wild', '1', '0', '0', '0', '0', '0', '2', '34', '25', '57.6', '5', '1', '20.0', '4', '0', '100.0', '0', '0', '4', '2', '22', '4', '8', '10']"
"['', '3866', '2008-10-16', '23:30:00 GMT', '25', 'MIN', 'Minnesota', 'Wild', '4', 'FLO', 'Florida', 'Panthers', '3', 'BankAtlantic Center', '25', 'MIN', 'Minnesota', 'Wild', '1', '0', '0', '0', '0', '0', '2', '25', '36', '41.0', '6', '3', '50.0', '4', '0', '100.0', '0', '0', '6', '2', '28', '7', '17', '15']"
"['', '3884', '2008-10-18', '23:30:00 GMT', '25', 'MIN', 'Minnesota', 'Wild', '1', 'TBL', 'Tampa Bay', 'Lightning', '26', 'St. Pete Times Forum', '25', 'MIN', 'Minnesota', 'Wild', '1', '0', '0', '0', '0', '0', '2', '23', '27', '46.0', '7', '0', '0.0', '3', '0', '100.0', '0', '0', '0', '0', '21', '4', '8', '18']"
"['', '3909', '2008-10-23', '00:00:00 GMT', '15', 'BUF', 'Buffalo', 'Sabres', '25', 'MIN', 'Minnesota', 'Wild', '30', 'Xcel Energy Center', '25', 'MIN', 'Minnesota', 'Wild', '0', '0', '0', '1', '0', '0', '1', '28', '27', '50.9', '3', '1', '33.3', '2', '0', '100.0', '0', '0', '3', '4', '30', '2', '4', '26']"
"['', '3927', '2008-10-25', '00:00:00 GMT', '19', 'CBJ', 'Columbus', 'Blue Jackets', '25', 'MIN', 'Minnesota', 'Wild', '30', 'Xcel Energy Center', '25', 'MIN', 'Minnesota', 'Wild', '1', '0', '0', '0', '0', '0', '2', '28', '26', '51.9', '4', '0', '0.0', '2', '0', '100.0', '0', '0', '2', '1', '21', '2', '4', '18']"
"['', '3936', '2008-10-27', '00:00:00 GMT', '20', 'CHI', 'Chicago', 'Blackhawks', '25', 'MIN', 'Minnesota', 'Wild', '30', 'Xcel Energy Center', '25', 'MIN', 'Minnesota', 'Wild', '1', '0', '0', '0', '0', '0', '2', '31', '28', '52.5', '4', '1', '25.0', '3', '0', '100.0', '0', '0', '3', '2', '15', '4', '8', '14']"
"['', '3947', '2008-10-29', '00:30:00 GMT', '25', 'MIN', 'Minnesota', 'Wild', '27', 'DAL', 'Dallas', 'Stars', '2', 'American Airlines Center', '25', 'MIN', 'Minnesota', 'Wild', '0', '1', '0', '0', '0', '0', '0', '28', '30', '48.3', '4', '2', '50.0', '5', '1', '80.0', '0', '0', '2', '4', '19', '5', '10', '23']"
"['', '3954', '2008-10-30', '00:00:00 GMT', '14', 'MTL', 'Montreal', 'Canadiens', '25', 'MIN', 'Minnesota', 'Wild', '30', 'Xcel Energy Center', '25', 'MIN', 'Minnesota', 'Wild', '0', '1', '0', '0', '0', '0', '0', '20', '25', '44.4', '10', '0', '0.0', '4', '1', '75.0', '0', '0', '1', '2', '28', '6', '12', '14']"
"['', '3974', '2008-11-01', '02:00:00 GMT', '25', 'MIN', 'Minnesota', 'Wild', '30', 'PHX', 'Phoenix', 'Coyotes', '6', 'Jobing.com Arena', '25', 'MIN', 'Minnesota', 'Wild', '1', '0', '0', '0', '0', '0', '2', '34', '25', '57.6', '1', '0', '0.0', '4', '1', '75.0', '0', '1', '3', '2', '30', '4', '8', '18']"
"['', '3990', '2008-11-04', '03:30:00 GMT', '25', 'MIN', 'Minnesota', 'Wild', '26', 'SJS', 'San Jose', 'Sharks', '9', 'HP Pavilion at San Jose', '25', 'MIN', 'Minnesota', 'Wild', '0', '1', '0', '0', '0', '0', '0', '26', '20', '56.5', '2', '0', '0.0', '6', '0', '100.0', '0', '0', '1', '3', '23', '7', '17', '19']"
"['', '4000', '2008-11-06', '02:00:00 GMT', '25', 'MIN', 'Minnesota', 'Wild', '22', 'COL', 'Colorado', 'Avalanche', '19', 'Pepsi Center', '25', 'MIN', 'Minnesota', 'Wild', '1', '0', '0', '0', '0', '0', '2', '15', '37', '28.8', '3', '1', '33.3', '6', '0', '100.0', '0', '0', '3', '1', '17', '8', '19', '17']"
"['', '4019', '2008-11-08', '03:00:00 GMT', '25', 'MIN', 'Minnesota', 'Wild', '21', 'VAN', 'Vancouver', 'Canucks', '7', 'General Motors Place', '25', 'MIN', 'Minnesota', 'Wild', '0', '1', '0', '0', '0', '0', '0', '25', '26', '49.0', '3', '0', '0.0', '6', '1', '83.3', '0', '0', '0', '2', '29', '8', '19', '19']"
"['', '4045', '2008-11-13', '01:00:00 GMT', '30', 'PHX', 'Phoenix', 'Coyotes', '25', 'MIN', 'Minnesota', 'Wild', '30', 'Xcel Energy Center', '25', 'MIN', 'Minnesota', 'Wild', '1', '0', '0', '0', '0', '0', '2', '37', '21', '63.8', '8', '4', '50.0', '6', '0', '100.0', '0', '0', '4', '0', '28', '7', '17', '16']"
"['', '4061', '2008-11-15', '01:00:00 GMT', '19', 'CBJ', 'Columbus', 'Blue Jackets', '25', 'MIN', 'Minnesota', 'Wild', '30', 'Xcel Energy Center', '25', 'MIN', 'Minnesota', 'Wild', '1', '0', '0', '0', '0', '0', '2', '24', '38', '38.7', '3', '1', '33.3', '0', '0', '0.0', '0', '0', '2', '2', '28', '1', '2', '20']"
"['', '4076', '2008-11-18', '00:00:00 GMT', '25', 'MIN', 'Minnesota', 'Wild', '10', 'PIT', 'Pittsburgh', 'Penguins', '14', 'Mellon Arena', '25', 'MIN', 'Minnesota', 'Wild', '1', '0', '0', '0', '0', '0', '2', '24', '32', '42.9', '2', '0', '0.0', '4', '0', '100.0', '0', '0', '1', '1', '24', '5', '13', '16']"
"['', '4087', '2008-11-20', '01:00:00 GMT', '21', 'VAN', 'Vancouver', 'Canucks', '25', 'MIN', 'Minnesota', 'Wild', '30', 'Xcel Energy Center', '25', 'MIN', 'Minnesota', 'Wild', '0', '1', '0', '0', '0', '0', '0', '27', '22', '55.1', '3', '0', '0.0', '4', '1', '75.0', '1', '0', '2', '3', '28', '5', '13', '27']"
"['', '4106', '2008-11-22', '01:00:00 GMT', '17', 'STL', 'St. Louis', 'Blues', '25', 'MIN', 'Minnesota', 'Wild', '30', 'Xcel Energy Center', '25', 'MIN', 'Minnesota', 'Wild', '0', '1', '0', '0', '0', '0', '0', '27', '26', '50.9', '5', '0', '0.0', '2', '1', '50.0', '0', '0', '1', '2', '31', '2', '4', '23']"
"['', '4116', '2008-11-24', '01:00:00 GMT', '5', 'WSH', 'Washington', 'Capitals', '25', 'MIN', 'Minnesota', 'Wild', '30', 'Xcel Energy Center', '25', 'MIN', 'Minnesota', 'Wild', '1', '0', '0', '0', '0', '0', '2', '31', '31', '50.0', '5', '2', '40.0', '3', '1', '66.7', '0', '0', '4', '3', '29', '3', '6', '13']"
"['', '4130', '2008-11-26', '01:00:00 GMT', '27', 'DAL', 'Dallas', 'Stars', '25', 'MIN', 'Minnesota', 'Wild', '30', 'Xcel Energy Center', '25', 'MIN', 'Minnesota', 'Wild', '0', '1', '0', '0', '0', '0', '0', '32', '29', '52.5', '4', '1', '25.0', '4', '0', '100.0', '0', '0', '3', '4', '25', '5', '13', '21']"
"['', '4138', '2008-11-28', '19:00:00 GMT', '1', 'TBL', 'Tampa Bay', 'Lightning', '25', 'MIN', 'Minnesota', 'Wild', '30', 'Xcel Energy Center', '25', 'MIN', 'Minnesota', 'Wild', '1', '0', '0', '0', '0', '0', '2', '24', '29', '45.3', '3', '0', '0.0', '3', '1', '66.7', '0', '0', '4', '2', '29', '6', '20', '11']"
"['', '4155', '2008-11-29', '01:00:00 GMT', '25', 'MIN', 'Minnesota', 'Wild', '18', 'NSH', 'Nashville', 'Predators', '15', 'Sommet Center', '25', 'MIN', 'Minnesota', 'Wild', '1', '0', '0', '0', '0', '0', '2', '27', '36', '42.9', '9', '5', '55.6', '4', '1', '75.0', '0', '0', '6', '2', '23', '9', '30', '10']"
"['', '4166', '2008-12-01', '01:00:00 GMT', '22', 'COL', 'Colorado', 'Avalanche', '25', 'MIN', 'Minnesota', 'Wild', '30', 'Xcel Energy Center', '25', 'MIN', 'Minnesota', 'Wild', '0', '1', '0', '0', '0', '0', '0', '33', '29', '53.2', '4', '3', '75.0', '3', '1', '66.7', '0', '0', '5', '6', '12', '4', '11', '15']"
"['', '4176', '2008-12-03', '01:00:00 GMT', '17', 'STL', 'St. Louis', 'Blues', '25', 'MIN', 'Minnesota', 'Wild', '30', 'Xcel Energy Center', '25', 'MIN', 'Minnesota', 'Wild', '1', '0', '0', '0', '0', '0', '2', '24', '32', '42.9', '3', '2', '66.7', '2', '0', '100.0', '0', '0', '4', '0', '34', '3', '6', '8']"
"['', '4189', '2008-12-05', '01:00:00 GMT', '21', 'VAN', 'Vancouver', 'Canucks', '25', 'MIN', 'Minnesota', 'Wild', '30', 'Xcel Energy Center', '25', 'MIN', 'Minnesota', 'Wild', '0', '1', '0', '0', '0', '0', '0', '25', '29', '46.3', '2', '0', '0.0', '1', '1', '0.0', '0', '0', '1', '2', '16', '7', '28', '23']"
"['', '4201', '2008-12-06', '01:00:00 GMT', '25', 'MIN', 'Minnesota', 'Wild', '18', 'NSH', 'Nashville', 'Predators', '15', 'Sommet Center', '25', 'MIN', 'Minnesota', 'Wild', '0', '1', '0', '0', '0', '0', '0', '36', '37', '49.3', '3', '0', '0.0', '3', '0', '100.0', '0', '0', '0', '1', '32', '4', '11', '17']"
"['', '4232', '2008-12-11', '02:00:00 GMT', '25', 'MIN', 'Minnesota', 'Wild', '30', 'PHX', 'Phoenix', 'Coyotes', '6', 'Jobing.com Arena', '25', 'MIN', 'Minnesota', 'Wild', '0', '1', '0', '0', '0', '0', '0', '31', '30', '50.8', '5', '0', '0.0', '5', '0', '100.0', '0', '0', '1', '3', '30', '5', '10', '19']"
"['', '4243', '2008-12-13', '21:00:00 GMT', '25', 'MIN', 'Minnesota', 'Wild', '28', 'LAK', 'Los Angeles', 'Kings', '25', 'Staples Center', '25', 'MIN', 'Minnesota', 'Wild', '0', '1', '0', '0', '0', '0', '0', '37', '29', '56.1', '3', '1', '33.3', '5', '2', '60.0', '0', '0', '1', '3', '33', '5', '10', '24']"
"['', '4255', '2008-12-14', '01:00:00 GMT', '25', 'MIN', 'Minnesota', 'Wild', '29', 'ANA', 'Anaheim', 'Ducks', '8', 'Honda Center', '25', 'MIN', 'Minnesota', 'Wild', '0', '1', '0', '0', '0', '0', '0', '28', '30', '48.3', '4', '1', '25.0', '4', '0', '100.0', '0', '0', '2', '4', '26', '6', '15', '22']"
"['', '4270', '2008-12-17', '01:00:00 GMT', '23', 'CGY', 'Calgary', 'Flames', '25', 'MIN', 'Minnesota', 'Wild', '30', 'Xcel Energy Center', '25', 'MIN', 'Minnesota', 'Wild', '0', '0', '0', '1', '0', '0', '1', '36', '29', '55.4', '3', '0', '0.0', '3', '0', '100.0', '0', '0', '2', '3', '25', '5', '16', '15']"
"['', '4284', '2008-12-19', '01:00:00 GMT', '8', 'NYI', 'New York', 'Islanders', '25', 'MIN', 'Minnesota', 'Wild', '30', 'Xcel Energy Center', '25', 'MIN', 'Minnesota', 'Wild', '1', '0', '0', '0', '0', '0', '2', '29', '27', '51.8', '3', '0', '0.0', '5', '1', '80.0', '0', '0', '4', '1', '35', '5', '10', '23']"
"['', '4295', '2008-12-20', '01:30:00 GMT', '25', 'MIN', 'Minnesota', 'Wild', '17', 'STL', 'St. Louis', 'Blues', '24', 'Scottrade Center', '25', 'MIN', 'Minnesota', 'Wild', '0', '1', '0', '0', '0', '0', '0', '30', '26', '53.6', '5', '0', '0.0', '3', '0', '100.0', '0', '0', '2', '4', '24', '6', '18', '25']"
"['', '4316', '2008-12-23', '01:00:00 GMT', '3', 'CAR', 'Carolina', 'Hurricanes', '25', 'MIN', 'Minnesota', 'Wild', '30', 'Xcel Energy Center', '25', 'MIN', 'Minnesota', 'Wild', '1', '0', '0', '0', '0', '0', '2', '25', '28', '47.2', '1', '1', '100.0', '5', '0', '100.0', '1', '0', '3', '2', '20', '5', '10', '14']"
"['', '4342', '2008-12-28', '23:00:00 GMT', '20', 'CHI', 'Chicago', 'Blackhawks', '25', 'MIN', 'Minnesota', 'Wild', '30', 'Xcel Energy Center', '25', 'MIN', 'Minnesota', 'Wild', '0', '1', '0', '0', '0', '0', '0', '33', '23', '58.9', '2', '0', '0.0', '4', '1', '75.0', '0', '0', '1', '4', '18', '4', '8', '20']"
"['', '4349', '2008-12-29', '02:00:00 GMT', '25', 'MIN', 'Minnesota', 'Wild', '23', 'CGY', 'Calgary', 'Flames', '18', 'Pengrowth Saddledome', '25', 'MIN', 'Minnesota', 'Wild', '0', '1', '0', '0', '0', '0', '0', '25', '30', '45.5', '4', '0', '0.0', '2', '0', '100.0', '0', '1', '1', '2', '23', '2', '4', '17']"
"['', '4361', '2008-12-31', '23:00:00 GMT', '26', 'SJS', 'San Jose', 'Sharks', '25', 'MIN', 'Minnesota', 'Wild', '30', 'Xcel Energy Center', '25', 'MIN', 'Minnesota', 'Wild', '1', '0', '0', '0', '0', '0', '2', '28', '25', '52.8', '3', '2', '66.7', '2', '1', '50.0', '0', '0', '3', '2', '29', '3', '9', '23']"
"['', '4384', '2009-01-03', '01:00:00 GMT', '16', 'DET', 'Detroit', 'Red Wings', '25', 'MIN', 'Minnesota', 'Wild', '30', 'Xcel Energy Center', '25', 'MIN', 'Minnesota', 'Wild', '0', '0', '0', '1', '0', '0', '1', '27', '27', '50.0', '4', '1', '25.0', '2', '1', '50.0', '0', '0', '2', '2', '33', '2', '4', '20']"
"['', '4393', '2009-01-04', '01:00:00 GMT', '25', 'MIN', 'Minnesota', 'Wild', '22', 'COL', 'Colorado', 'Avalanche', '19', 'Pepsi Center', '25', 'MIN', 'Minnesota', 'Wild', '1', '0', '0', '0', '0', '0', '2', '33', '25', '56.9', '6', '1', '16.7', '2', '0', '100.0', '0', '0', '2', '0', '35', '4', '8', '11']"
"['', '4398', '2009-01-06', '00:00:00 GMT', '25', 'MIN', 'Minnesota', 'Wild', '11', 'BOS', 'Boston', 'Bruins', '27', 'TD Banknorth Garden', '25', 'MIN', 'Minnesota', 'Wild', '1', '0', '0', '0', '0', '0', '2', '23', '19', '54.8', '5', '1', '20.0', '2', '0', '100.0', '0', '0', '1', '0', '23', '3', '6', '17']"
"['', '4413', '2009-01-08', '00:00:00 GMT', '25', 'MIN', 'Minnesota', 'Wild', '6', 'PHI', 'Philadelphia', 'Flyers', '29', 'Wachovia Center', '25', 'MIN', 'Minnesota', 'Wild', '0', '1', '0', '0', '0', '0', '0', '22', '29', '43.1', '8', '0', '0.0', '1', '1', '0.0', '0', '0', '1', '3', '27', '4', '11', '17']"
"['', '4434', '2009-01-10', '00:00:00 GMT', '25', 'MIN', 'Minnesota', 'Wild', '19', 'CBJ', 'Columbus', 'Blue Jackets', '17', 'Nationwide Arena', '25', 'MIN', 'Minnesota', 'Wild', '0', '1', '0', '0', '0', '0', '0', '23', '24', '48.9', '3', '1', '33.3', '2', '0', '100.0', '0', '0', '2', '4', '21', '3', '9', '21']"
"['', '4451', '2009-01-13', '01:00:00 GMT', '30', 'PHX', 'Phoenix', 'Coyotes', '25', 'MIN', 'Minnesota', 'Wild', '30', 'Xcel Energy Center', '25', 'MIN', 'Minnesota', 'Wild', '1', '0', '0', '0', '0', '0', '2', '38', '25', '60.3', '3', '0', '0.0', '0', '0', '0.0', '0', '0', '6', '3', '28', '3', '6', '13']"
"['', '4463', '2009-01-15', '01:00:00 GMT', '24', 'EDM', 'Edmonton', 'Oilers', '25', 'MIN', 'Minnesota', 'Wild', '30', 'Xcel Energy Center', '25', 'MIN', 'Minnesota', 'Wild', '1', '0', '0', '0', '0', '0', '2', '27', '31', '46.6', '8', '1', '12.5', '3', '0', '100.0', '0', '0', '5', '1', '19', '7', '20', '24']"
"['', '4483', '2009-01-17', '02:00:00 GMT', '29', 'ANA', 'Anaheim', 'Ducks', '25', 'MIN', 'Minnesota', 'Wild', '30', 'Xcel Energy Center', '25', 'MIN', 'Minnesota', 'Wild', '0', '1', '0', '0', '0', '0', '0', '28', '31', '47.5', '4', '0', '0.0', '1', '1', '0.0', '0', '0', '0', '3', '30', '2', '7', '25']"
"['', '4495', '2009-01-19', '01:00:00 GMT', '25', 'MIN', 'Minnesota', 'Wild', '20', 'CHI', 'Chicago', 'Blackhawks', '28', 'United Center', '25', 'MIN', 'Minnesota', 'Wild', '1', '0', '0', '0', '0', '0', '2', '34', '25', '57.6', '3', '2', '66.7', '3', '0', '100.0', '0', '0', '4', '1', '22', '3', '6', '5']"
"['', '4501', '2009-01-20', '01:00:00 GMT', '28', 'LAK', 'Los Angeles', 'Kings', '25', 'MIN', 'Minnesota', 'Wild', '30', 'Xcel Energy Center', '25', 'MIN', 'Minnesota', 'Wild', '0', '1', '0', '0', '0', '0', '0', '29', '28', '50.9', '4', '2', '50.0', '4', '1', '75.0', '0', '0', '2', '5', '25', '6', '15', '20']"
"['', '4520', '2009-01-27', '01:00:00 GMT', '12', 'TOR', 'Toronto', 'Maple Leafs', '25', 'MIN', 'Minnesota', 'Wild', '30', 'Xcel Energy Center', '25', 'MIN', 'Minnesota', 'Wild', '1', '0', '0', '0', '0', '0', '2', '18', '27', '40.0', '3', '0', '0.0', '0', '0', '0.0', '0', '0', '6', '1', '15', '2', '7', '20']"
"['', '4542', '2009-01-30', '02:00:00 GMT', '25', 'MIN', 'Minnesota', 'Wild', '24', 'EDM', 'Edmonton', 'Oilers', '22', 'Rogers Place', '25', 'MIN', 'Minnesota', 'Wild', '0', '1', '0', '0', '0', '0', '0', '24', '33', '42.1', '3', '0', '0.0', '5', '1', '80.0', '0', '0', '1', '3', '29', '7', '20', '13']"
"['', '4553', '2009-01-31', '03:00:00 GMT', '25', 'MIN', 'Minnesota', 'Wild', '21', 'VAN', 'Vancouver', 'Canucks', '7', 'General Motors Place', '25', 'MIN', 'Minnesota', 'Wild', '1', '0', '0', '0', '0', '0', '2', '27', '26', '50.9', '5', '2', '40.0', '3', '2', '33.3', '0', '0', '4', '3', '23', '5', '21', '18']"
"['', '4576', '2009-02-04', '01:00:00 GMT', '29', 'ANA', 'Anaheim', 'Ducks', '25', 'MIN', 'Minnesota', 'Wild', '30', 'Xcel Energy Center', '25', 'MIN', 'Minnesota', 'Wild', '1', '0', '0', '0', '0', '0', '2', '27', '25', '51.9', '3', '1', '33.3', '4', '0', '100.0', '0', '0', '3', '0', '22', '5', '10', '26']"
"['', '4588', '2009-02-06', '01:00:00 GMT', '18', 'NSH', 'Nashville', 'Predators', '25', 'MIN', 'Minnesota', 'Wild', '30', 'Xcel Energy Center', '25', 'MIN', 'Minnesota', 'Wild', '0', '1', '0', '0', '0', '0', '0', '21', '28', '42.9', '4', '0', '0.0', '2', '0', '100.0', '0', '0', '0', '2', '22', '5', '10', '13']"
"['', '4604', '2009-02-08', '20:00:00 GMT', '24', 'EDM', 'Edmonton', 'Oilers', '25', 'MIN', 'Minnesota', 'Wild', '30', 'Xcel Energy Center', '25', 'MIN', 'Minnesota', 'Wild', '1', '0', '0', '0', '0', '0', '2', '29', '30', '49.2', '2', '0', '0.0', '6', '1', '83.3', '1', '0', '2', '2', '37', '6', '12', '30']"
"['', '4620', '2009-02-11', '01:00:00 GMT', '22', 'COL', 'Colorado', 'Avalanche', '25', 'MIN', 'Minnesota', 'Wild', '30', 'Xcel Energy Center', '25', 'MIN', 'Minnesota', 'Wild', '1', '0', '0', '0', '0', '0', '2', '30', '30', '50.0', '3', '0', '0.0', '4', '1', '75.0', '0', '0', '3', '2', '23', '7', '14', '12']"
"['', '4626', '2009-02-12', '00:30:00 GMT', '25', 'MIN', 'Minnesota', 'Wild', '16', 'DET', 'Detroit', 'Red Wings', '11', 'Joe Louis Arena', '25', 'MIN', 'Minnesota', 'Wild', '0', '1', '0', '0', '0', '0', '0', '16', '37', '30.2', '2', '1', '50.0', '5', '0', '100.0', '1', '0', '2', '4', '21', '5', '10', '19']"
"['', '4644', '2009-02-14', '01:00:00 GMT', '13', 'OTT', 'Ottawa', 'Senators', '25', 'MIN', 'Minnesota', 'Wild', '30', 'Xcel Energy Center', '25', 'MIN', 'Minnesota', 'Wild', '0', '1', '0', '0', '0', '0', '0', '25', '27', '48.1', '4', '1', '25.0', '1', '0', '100.0', '0', '2', '3', '5', '26', '2', '4', '26']"
"['', '4680', '2009-02-19', '01:00:00 GMT', '23', 'CGY', 'Calgary', 'Flames', '25', 'MIN', 'Minnesota', 'Wild', '30', 'Xcel Energy Center', '25', 'MIN', 'Minnesota', 'Wild', '0', '0', '0', '1', '0', '0', '1', '26', '28', '48.1', '1', '0', '0.0', '2', '0', '100.0', '1', '0', '2', '3', '25', '2', '4', '13']"
"['', '4697', '2009-02-21', '01:00:00 GMT', '16', 'DET', 'Detroit', 'Red Wings', '25', 'MIN', 'Minnesota', 'Wild', '30', 'Xcel Energy Center', '25', 'MIN', 'Minnesota', 'Wild', '1', '0', '0', '0', '0', '0', '2', '17', '27', '38.6', '2', '1', '50.0', '5', '0', '100.0', '0', '0', '5', '2', '24', '5', '10', '18']"
"['', '4703', '2009-02-22', '00:00:00 GMT', '25', 'MIN', 'Minnesota', 'Wild', '20', 'CHI', 'Chicago', 'Blackhawks', '28', 'United Center', '25', 'MIN', 'Minnesota', 'Wild', '1', '0', '0', '0', '0', '0', '2', '23', '27', '46.0', '4', '1', '25.0', '8', '0', '100.0', '0', '0', '2', '1', '22', '8', '16', '7']"
"['', '4713', '2009-02-24', '01:00:00 GMT', '28', 'LAK', 'Los Angeles', 'Kings', '25', 'MIN', 'Minnesota', 'Wild', '30', 'Xcel Energy Center', '25', 'MIN', 'Minnesota', 'Wild', '0', '0', '0', '1', '0', '0', '1', '22', '29', '43.1', '4', '0', '0.0', '5', '1', '80.0', '1', '0', '1', '1', '23', '5', '10', '28']"
"['', '4734', '2009-02-27', '02:00:00 GMT', '25', 'MIN', 'Minnesota', 'Wild', '23', 'CGY', 'Calgary', 'Flames', '18', 'Pengrowth Saddledome', '25', 'MIN', 'Minnesota', 'Wild', '0', '1', '0', '0', '0', '0', '0', '19', '36', '34.5', '4', '0', '0.0', '5', '1', '80.0', '0', '0', '1', '4', '15', '7', '17', '11']"
"['', '4746', '2009-02-28', '03:00:00 GMT', '25', 'MIN', 'Minnesota', 'Wild', '24', 'EDM', 'Edmonton', 'Oilers', '22', 'Rogers Place', '25', 'MIN', 'Minnesota', 'Wild', '0', '1', '0', '0', '0', '0', '0', '31', '36', '46.3', '4', '2', '50.0', '3', '0', '100.0', '0', '0', '2', '3', '43', '5', '10', '12']"
"['', '4764', '2009-03-03', '03:00:00 GMT', '25', 'MIN', 'Minnesota', 'Wild', '21', 'VAN', 'Vancouver', 'Canucks', '7', 'General Motors Place', '25', 'MIN', 'Minnesota', 'Wild', '0', '1', '0', '0', '0', '0', '0', '36', '28', '56.2', '2', '1', '50.0', '1', '0', '100.0', '0', '0', '2', '4', '17', '2', '4', '13']"
"['', '4776', '2009-03-05', '03:30:00 GMT', '25', 'MIN', 'Minnesota', 'Wild', '26', 'SJS', 'San Jose', 'Sharks', '9', 'HP Pavilion at San Jose', '25', 'MIN', 'Minnesota', 'Wild', '1', '0', '0', '0', '0', '0', '2', '28', '37', '43.1', '0', '0', '0.0', '2', '0', '100.0', '0', '0', '4', '3', '32', '2', '4', '24']"
"['', '4784', '2009-03-07', '21:00:00 GMT', '25', 'MIN', 'Minnesota', 'Wild', '28', 'LAK', 'Los Angeles', 'Kings', '25', 'Staples Center', '25', 'MIN', 'Minnesota', 'Wild', '0', '1', '0', '0', '0', '0', '0', '25', '24', '51.0', '2', '0', '0.0', '3', '1', '66.7', '0', '0', '3', '4', '21', '3', '6', '26']"
"['', '4798', '2009-03-08', '00:00:00 GMT', '25', 'MIN', 'Minnesota', 'Wild', '29', 'ANA', 'Anaheim', 'Ducks', '8', 'Honda Center', '25', 'MIN', 'Minnesota', 'Wild', '1', '0', '0', '0', '0', '0', '2', '32', '35', '47.8', '4', '0', '0.0', '2', '0', '100.0', '0', '1', '3', '2', '22', '3', '6', '11']"
"['', '4810', '2009-03-10', '00:00:00 GMT', '26', 'SJS', 'San Jose', 'Sharks', '25', 'MIN', 'Minnesota', 'Wild', '30', 'Xcel Energy Center', '25', 'MIN', 'Minnesota', 'Wild', '0', '0', '0', '1', '0', '0', '1', '23', '30', '43.4', '3', '0', '0.0', '3', '1', '66.7', '0', '1', '4', '5', '25', '3', '6', '29']"
"['', '4828', '2009-03-12', '01:00:00 GMT', '25', 'MIN', 'Minnesota', 'Wild', '22', 'COL', 'Colorado', 'Avalanche', '19', 'Pepsi Center', '25', 'MIN', 'Minnesota', 'Wild', '0', '0', '0', '1', '0', '0', '1', '24', '31', '43.6', '5', '1', '20.0', '3', '1', '66.7', '0', '0', '1', '1', '16', '6', '15', '11']"
"['', '4840', '2009-03-14', '00:00:00 GMT', '25', 'MIN', 'Minnesota', 'Wild', '27', 'DAL', 'Dallas', 'Stars', '2', 'American Airlines Center', '25', 'MIN', 'Minnesota', 'Wild', '0', '0', '0', '1', '0', '0', '1', '22', '32', '40.7', '3', '1', '33.3', '2', '0', '100.0', '0', '0', '2', '3', '28', '3', '6', '38']"
"['', '4848', '2009-03-15', '22:00:00 GMT', '25', 'MIN', 'Minnesota', 'Wild', '17', 'STL', 'St. Louis', 'Blues', '24', 'Scottrade Center', '25', 'MIN', 'Minnesota', 'Wild', '0', '1', '0', '0', '0', '0', '0', '23', '30', '43.4', '0', '0', '0.0', '7', '3', '57.1', '0', '0', '3', '5', '19', '8', '16', '18']"
"['', '4860', '2009-03-17', '00:00:00 GMT', '22', 'COL', 'Colorado', 'Avalanche', '25', 'MIN', 'Minnesota', 'Wild', '30', 'Xcel Energy Center', '25', 'MIN', 'Minnesota', 'Wild', '1', '0', '0', '0', '0', '0', '2', '30', '27', '52.6', '3', '0', '0.0', '1', '0', '100.0', '0', '0', '2', '2', '27', '1', '2', '12']"
"['', '4877', '2009-03-20', '23:00:00 GMT', '25', 'MIN', 'Minnesota', 'Wild', '7', 'NJD', 'New Jersey', 'Devils', '5', 'Izod Center', '25', 'MIN', 'Minnesota', 'Wild', '0', '1', '0', '0', '0', '0', '0', '28', '23', '54.9', '7', '0', '0.0', '3', '1', '66.7', '0', '0', '0', '4', '35', '3', '6', '14']"
"['', '4894', '2009-03-22', '19:00:00 GMT', '24', 'EDM', 'Edmonton', 'Oilers', '25', 'MIN', 'Minnesota', 'Wild', '30', 'Xcel Energy Center', '25', 'MIN', 'Minnesota', 'Wild', '1', '0', '0', '0', '0', '0', '2', '37', '23', '61.7', '5', '1', '20.0', '5', '0', '100.0', '0', '0', '3', '0', '33', '6', '12', '11']"
"['', '4901', '2009-03-24', '23:00:00 GMT', '25', 'MIN', 'Minnesota', 'Wild', '9', 'NYR', 'New York', 'Rangers', '12', 'Madison Square Garden', '25', 'MIN', 'Minnesota', 'Wild', '0', '1', '0', '0', '0', '0', '0', '19', '35', '35.2', '2', '0', '0.0', '4', '0', '100.0', '0', '0', '1', '2', '18', '8', '22', '28']"
"['', '4911', '2009-03-25', '23:00:00 GMT', '25', 'MIN', 'Minnesota', 'Wild', '8', 'NYI', 'New York', 'Islanders', '16', 'Nassau Veterans Memorial Coliseum', '25', 'MIN', 'Minnesota', 'Wild', '1', '0', '0', '0', '0', '0', '2', '32', '29', '52.5', '7', '3', '42.9', '2', '0', '100.0', '0', '0', '6', '2', '22', '10', '26', '19']"
"['', '4938', '2009-03-28', '02:00:00 GMT', '25', 'MIN', 'Minnesota', 'Wild', '23', 'CGY', 'Calgary', 'Flames', '18', 'Pengrowth Saddledome', '25', 'MIN', 'Minnesota', 'Wild', '0', '1', '0', '0', '0', '0', '0', '28', '27', '50.9', '1', '0', '0.0', '3', '0', '100.0', '0', '0', '2', '3', '13', '4', '8', '13']"
"['', '4945', '2009-03-29', '00:00:00 GMT', '25', 'MIN', 'Minnesota', 'Wild', '24', 'EDM', 'Edmonton', 'Oilers', '22', 'Rogers Place', '25', 'MIN', 'Minnesota', 'Wild', '1', '0', '0', '0', '0', '0', '2', '26', '26', '50.0', '2', '0', '0.0', '3', '0', '100.0', '0', '0', '3', '2', '18', '6', '15', '11']"
"['', '4954', '2009-03-31', '00:00:00 GMT', '21', 'VAN', 'Vancouver', 'Canucks', '25', 'MIN', 'Minnesota', 'Wild', '30', 'Xcel Energy Center', '25', 'MIN', 'Minnesota', 'Wild', '0', '0', '0', '1', '0', '0', '1', '24', '24', '50.0', '4', '0', '0.0', '1', '1', '0.0', '0', '0', '1', '2', '33', '2', '4', '27']"
"['', '4975', '2009-04-03', '00:00:00 GMT', '23', 'CGY', 'Calgary', 'Flames', '25', 'MIN', 'Minnesota', 'Wild', '30', 'Xcel Energy Center', '25', 'MIN', 'Minnesota', 'Wild', '1', '0', '0', '0', '0', '0', '2', '24', '34', '41.4', '4', '1', '25.0', '5', '0', '100.0', '0', '0', '4', '0', '24', '5', '10', '20']"
"['', '4989', '2009-04-05', '21:00:00 GMT', '25', 'MIN', 'Minnesota', 'Wild', '16', 'DET', 'Detroit', 'Red Wings', '11', 'Joe Louis Arena', '25', 'MIN', 'Minnesota', 'Wild', '0', '1', '0', '0', '0', '0', '0', '24', '37', '39.3', '2', '0', '0.0', '2', '0', '100.0', '0', '0', '2', '3', '21', '2', '4', '13']"
"['', '5005', '2009-04-07', '00:00:00 GMT', '27', 'DAL', 'Dallas', 'Stars', '25', 'MIN', 'Minnesota', 'Wild', '30', 'Xcel Energy Center', '25', 'MIN', 'Minnesota', 'Wild', '1', '0', '0', '0', '0', '0', '2', '29', '21', '58.0', '4', '2', '50.0', '2', '0', '100.0', '0', '0', '3', '1', '29', '2', '4', '14']"
"['', '5023', '2009-04-10', '00:00:00 GMT', '18', 'NSH', 'Nashville', 'Predators', '25', 'MIN', 'Minnesota', 'Wild', '30', 'Xcel Energy Center', '25', 'MIN', 'Minnesota', 'Wild', '1', '0', '0', '0', '0', '0', '2', '34', '34', '50.0', '5', '3', '60.0', '4', '1', '75.0', '1', '0', '8', '4', '29', '5', '10', '10']"
"['', '5037', '2009-04-11', '23:00:00 GMT', '25', 'MIN', 'Minnesota', 'Wild', '19', 'CBJ', 'Columbus', 'Blue Jackets', '17', 'Nationwide Arena', '25', 'MIN', 'Minnesota', 'Wild', '1', '0', '0', '0', '0', '0', '2', '27', '31', '46.6', '5', '1', '20.0', '3', '0', '100.0', '2', '0', '6', '3', '22', '3', '6', '19']"
