"['#Date/Time of Update: 2018-12-10 19:03:00 GMT', '#Game ID', '#Game Date', '#Game Time', '#Away Team ID', '#Away Team Abbr.', '#Away Team City', '#Away Team Name', '#Home Team ID', '#Home Team Abbr.', '#Home Team City', '#Home Team Name', '#Venue ID', '#Venue Name', '#Team ID', '#Team Abbr.', '#Team City', '#Team Name', '#Wins', '#Losses', '#OvertimeWins', '#OvertimeLosses', '#ShootoutWins', '#ShootoutLosses', '#Rows', '#Points', '#FaceoffWins', '#FaceoffLosses', '#FaceoffPercent', '#Powerplays', '#PowerplayGoals', '#PowerplayPercent', '#PenaltyKills', '#PenaltyKillGoalsAllowed', '#PenaltyKillPercent', '#ShorthandedGoalsFor', '#ShorthandedGoalsAgainst', '#GoalsFor', '#GoalsAgainst', '#Shots', '#Penalties', '#PenaltyMinutes', '#Hits']"
"['', '11261', '2010-10-09', '23:30:00 GMT', '2', 'ATL', 'Atlanta', 'Thrashers', '1', 'TBL', 'Tampa Bay', 'Lightning', '26', 'St. Pete Times Forum', '1', 'TBL', 'Tampa Bay', 'Lightning', '1', '0', '0', '0', '0', '0', '1', '2', '34', '24', '58.6', '5', '2', '40.0', '5', '1', '80.0', '0', '0', '5', '3', '31', '7', '14', '18']"
"['', '11280', '2010-10-13', '23:30:00 GMT', '1', 'TBL', 'Tampa Bay', 'Lightning', '14', 'MTL', 'Montreal', 'Canadiens', '4', 'Bell Centre', '1', 'TBL', 'Tampa Bay', 'Lightning', '1', '0', '0', '0', '0', '0', '1', '2', '34', '32', '51.5', '3', '2', '66.7', '1', '0', '100.0', '0', '0', '4', '3', '44', '5', '10', '19']"
"['', '11285', '2010-10-14', '23:00:00 GMT', '1', 'TBL', 'Tampa Bay', 'Lightning', '6', 'PHI', 'Philadelphia', 'Flyers', '29', 'Wells Fargo Center', '1', 'TBL', 'Tampa Bay', 'Lightning', '1', '0', '0', '0', '0', '0', '1', '2', '29', '24', '54.7', '7', '0', '0.0', '4', '0', '100.0', '0', '0', '3', '2', '21', '5', '13', '8']"
"['', '11301', '2010-10-16', '23:00:00 GMT', '1', 'TBL', 'Tampa Bay', 'Lightning', '4', 'FLO', 'Florida', 'Panthers', '3', 'BankAtlantic Center', '1', 'TBL', 'Tampa Bay', 'Lightning', '0', '1', '0', '0', '0', '0', '0', '0', '29', '32', '47.5', '2', '0', '0.0', '4', '1', '75.0', '0', '0', '0', '6', '29', '4', '8', '26']"
"['', '11314', '2010-10-18', '23:30:00 GMT', '27', 'DAL', 'Dallas', 'Stars', '1', 'TBL', 'Tampa Bay', 'Lightning', '26', 'St. Pete Times Forum', '1', 'TBL', 'Tampa Bay', 'Lightning', '1', '0', '0', '0', '0', '0', '1', '2', '37', '29', '56.1', '5', '4', '80.0', '5', '0', '100.0', '0', '1', '5', '4', '39', '5', '10', '14']"
"['', '11329', '2010-10-21', '23:30:00 GMT', '8', 'NYI', 'New York', 'Islanders', '1', 'TBL', 'Tampa Bay', 'Lightning', '26', 'St. Pete Times Forum', '1', 'TBL', 'Tampa Bay', 'Lightning', '0', '0', '0', '1', '0', '0', '0', '1', '29', '28', '50.9', '3', '0', '0.0', '5', '1', '80.0', '0', '0', '2', '3', '28', '5', '10', '16']"
"['', '11337', '2010-10-22', '23:30:00 GMT', '1', 'TBL', 'Tampa Bay', 'Lightning', '2', 'ATL', 'Atlanta', 'Thrashers', '20', 'Philips Arena', '1', 'TBL', 'Tampa Bay', 'Lightning', '1', '0', '0', '0', '0', '0', '1', '2', '29', '26', '52.7', '6', '2', '33.3', '8', '1', '87.5', '0', '0', '5', '2', '28', '11', '30', '11']"
"['', '11353', '2010-10-24', '22:00:00 GMT', '18', 'NSH', 'Nashville', 'Predators', '1', 'TBL', 'Tampa Bay', 'Lightning', '26', 'St. Pete Times Forum', '1', 'TBL', 'Tampa Bay', 'Lightning', '0', '1', '0', '0', '0', '0', '0', '0', '33', '27', '55.0', '4', '0', '0.0', '0', '0', '0.0', '0', '0', '3', '4', '42', '2', '4', '13']"
"['', '11368', '2010-10-27', '23:30:00 GMT', '10', 'PIT', 'Pittsburgh', 'Penguins', '1', 'TBL', 'Tampa Bay', 'Lightning', '26', 'St. Pete Times Forum', '1', 'TBL', 'Tampa Bay', 'Lightning', '1', '0', '0', '0', '0', '0', '1', '2', '30', '30', '50.0', '6', '1', '16.7', '5', '0', '100.0', '0', '2', '5', '3', '25', '7', '22', '17']"
"['', '11395', '2010-10-30', '01:00:00 GMT', '1', 'TBL', 'Tampa Bay', 'Lightning', '30', 'PHX', 'Phoenix', 'Coyotes', '6', 'Jobing.com Arena', '1', 'TBL', 'Tampa Bay', 'Lightning', '1', '0', '0', '0', '0', '0', '1', '2', '27', '27', '50.0', '1', '0', '0.0', '1', '0', '100.0', '0', '0', '3', '0', '20', '6', '15', '24']"
"['', '11414', '2010-11-03', '02:00:00 GMT', '1', 'TBL', 'Tampa Bay', 'Lightning', '29', 'ANA', 'Anaheim', 'Ducks', '8', 'Honda Center', '1', 'TBL', 'Tampa Bay', 'Lightning', '0', '0', '0', '1', '0', '0', '0', '1', '32', '30', '51.6', '4', '1', '25.0', '4', '1', '75.0', '0', '0', '2', '3', '32', '5', '10', '18']"
"['', '11420', '2010-11-04', '02:30:00 GMT', '1', 'TBL', 'Tampa Bay', 'Lightning', '28', 'LAK', 'Los Angeles', 'Kings', '25', 'Staples Center', '1', 'TBL', 'Tampa Bay', 'Lightning', '0', '1', '0', '0', '0', '0', '0', '0', '26', '29', '47.3', '3', '0', '0.0', '3', '0', '100.0', '0', '0', '0', '1', '24', '6', '26', '36']"
"['', '11440', '2010-11-06', '02:30:00 GMT', '1', 'TBL', 'Tampa Bay', 'Lightning', '26', 'SJS', 'San Jose', 'Sharks', '9', 'HP Pavilion at San Jose', '1', 'TBL', 'Tampa Bay', 'Lightning', '0', '1', '0', '0', '0', '0', '0', '0', '34', '37', '47.9', '4', '1', '25.0', '7', '1', '85.7', '0', '1', '2', '5', '33', '8', '19', '15']"
"['', '11450', '2010-11-09', '00:30:00 GMT', '12', 'TOR', 'Toronto', 'Maple Leafs', '1', 'TBL', 'Tampa Bay', 'Lightning', '26', 'St. Pete Times Forum', '1', 'TBL', 'Tampa Bay', 'Lightning', '1', '0', '0', '0', '0', '0', '1', '2', '20', '24', '45.5', '2', '1', '50.0', '4', '0', '100.0', '0', '0', '4', '0', '21', '6', '15', '13']"
"['', '11463', '2010-11-11', '00:00:00 GMT', '1', 'TBL', 'Tampa Bay', 'Lightning', '5', 'WSH', 'Washington', 'Capitals', '13', 'Verizon Center', '1', 'TBL', 'Tampa Bay', 'Lightning', '0', '1', '0', '0', '0', '0', '0', '0', '31', '40', '43.7', '4', '1', '25.0', '1', '1', '0.0', '0', '0', '3', '6', '38', '2', '7', '18']"
"['', '11470', '2010-11-12', '00:00:00 GMT', '1', 'TBL', 'Tampa Bay', 'Lightning', '10', 'PIT', 'Pittsburgh', 'Penguins', '14', 'Civic Arena', '1', 'TBL', 'Tampa Bay', 'Lightning', '0', '1', '0', '0', '0', '0', '0', '0', '29', '30', '49.2', '7', '1', '14.3', '4', '0', '100.0', '0', '0', '1', '5', '15', '6', '12', '19']"
"['', '11487', '2010-11-14', '22:00:00 GMT', '25', 'MIN', 'Minnesota', 'Wild', '1', 'TBL', 'Tampa Bay', 'Lightning', '26', 'St. Pete Times Forum', '1', 'TBL', 'Tampa Bay', 'Lightning', '0', '1', '0', '0', '0', '0', '0', '0', '26', '36', '41.9', '3', '1', '33.3', '3', '2', '33.3', '0', '0', '1', '4', '37', '4', '8', '14']"
"['', '11501', '2010-11-17', '00:00:00 GMT', '1', 'TBL', 'Tampa Bay', 'Lightning', '8', 'NYI', 'New York', 'Islanders', '16', 'Nassau Veterans Memorial Coliseum', '1', 'TBL', 'Tampa Bay', 'Lightning', '1', '0', '0', '0', '0', '0', '1', '2', '31', '28', '52.5', '4', '2', '50.0', '3', '0', '100.0', '0', '0', '4', '2', '36', '4', '11', '14']"
"['', '11512', '2010-11-18', '00:00:00 GMT', '1', 'TBL', 'Tampa Bay', 'Lightning', '6', 'PHI', 'Philadelphia', 'Flyers', '29', 'Wells Fargo Center', '1', 'TBL', 'Tampa Bay', 'Lightning', '1', '0', '0', '0', '0', '0', '1', '2', '33', '37', '47.1', '8', '3', '37.5', '5', '0', '100.0', '0', '0', '8', '7', '25', '5', '10', '12']"
"['', '11526', '2010-11-20', '00:00:00 GMT', '1', 'TBL', 'Tampa Bay', 'Lightning', '15', 'BUF', 'Buffalo', 'Sabres', '10', 'HSBC Arena', '1', 'TBL', 'Tampa Bay', 'Lightning', '1', '0', '0', '0', '0', '0', '1', '2', '20', '36', '35.7', '3', '0', '0.0', '2', '0', '100.0', '0', '0', '2', '1', '20', '3', '6', '10']"
"['', '11546', '2010-11-22', '00:30:00 GMT', '11', 'BOS', 'Boston', 'Bruins', '1', 'TBL', 'Tampa Bay', 'Lightning', '26', 'St. Pete Times Forum', '1', 'TBL', 'Tampa Bay', 'Lightning', '1', '0', '0', '0', '0', '0', '1', '2', '27', '21', '56.2', '3', '0', '0.0', '2', '0', '100.0', '0', '0', '3', '1', '33', '2', '4', '21']"
"['', '11556', '2010-11-24', '00:30:00 GMT', '9', 'NYR', 'New York', 'Rangers', '1', 'TBL', 'Tampa Bay', 'Lightning', '26', 'St. Pete Times Forum', '1', 'TBL', 'Tampa Bay', 'Lightning', '1', '0', '0', '0', '0', '0', '1', '2', '34', '22', '60.7', '6', '3', '50.0', '6', '1', '83.3', '0', '1', '5', '3', '29', '7', '17', '10']"
"['', '11569', '2010-11-26', '22:00:00 GMT', '1', 'TBL', 'Tampa Bay', 'Lightning', '5', 'WSH', 'Washington', 'Capitals', '13', 'Verizon Center', '1', 'TBL', 'Tampa Bay', 'Lightning', '0', '1', '0', '0', '0', '0', '0', '0', '27', '33', '45.0', '5', '0', '0.0', '4', '2', '50.0', '0', '0', '0', '6', '17', '5', '13', '13']"
"['', '11580', '2010-11-27', '00:30:00 GMT', '4', 'FLO', 'Florida', 'Panthers', '1', 'TBL', 'Tampa Bay', 'Lightning', '26', 'St. Pete Times Forum', '1', 'TBL', 'Tampa Bay', 'Lightning', '0', '0', '0', '1', '0', '0', '0', '1', '30', '40', '42.9', '6', '1', '16.7', '4', '0', '100.0', '0', '0', '3', '3', '34', '5', '18', '19']"
"['', '11595', '2010-11-30', '00:00:00 GMT', '1', 'TBL', 'Tampa Bay', 'Lightning', '12', 'TOR', 'Toronto', 'Maple Leafs', '1', 'Air Canada Center', '1', 'TBL', 'Tampa Bay', 'Lightning', '1', '0', '0', '0', '0', '0', '1', '2', '37', '25', '59.7', '5', '1', '20.0', '4', '1', '75.0', '0', '0', '4', '3', '35', '4', '8', '17']"
"['', '11607', '2010-12-02', '00:00:00 GMT', '1', 'TBL', 'Tampa Bay', 'Lightning', '11', 'BOS', 'Boston', 'Bruins', '27', 'TD Garden', '1', 'TBL', 'Tampa Bay', 'Lightning', '0', '1', '0', '0', '0', '0', '0', '0', '27', '34', '44.3', '1', '0', '0.0', '4', '1', '75.0', '0', '0', '1', '8', '37', '4', '8', '18']"
"['', '11627', '2010-12-04', '00:30:00 GMT', '22', 'COL', 'Colorado', 'Avalanche', '1', 'TBL', 'Tampa Bay', 'Lightning', '26', 'St. Pete Times Forum', '1', 'TBL', 'Tampa Bay', 'Lightning', '1', '0', '0', '0', '0', '0', '1', '2', '32', '19', '62.7', '6', '2', '33.3', '3', '1', '66.7', '0', '0', '6', '5', '33', '4', '8', '13']"
"['', '11646', '2010-12-07', '02:00:00 GMT', '1', 'TBL', 'Tampa Bay', 'Lightning', '23', 'CGY', 'Calgary', 'Flames', '18', 'Scotiabank Saddledome', '1', 'TBL', 'Tampa Bay', 'Lightning', '0', '1', '0', '0', '0', '0', '0', '0', '35', '24', '59.3', '2', '0', '0.0', '4', '1', '75.0', '0', '0', '2', '4', '22', '4', '8', '10']"
"['', '11665', '2010-12-10', '02:00:00 GMT', '1', 'TBL', 'Tampa Bay', 'Lightning', '24', 'EDM', 'Edmonton', 'Oilers', '22', 'Rogers Place', '1', 'TBL', 'Tampa Bay', 'Lightning', '0', '0', '0', '1', '0', '0', '0', '1', '38', '30', '55.9', '5', '1', '20.0', '2', '2', '0.0', '0', '0', '3', '3', '38', '4', '11', '12']"
"['', '11677', '2010-12-11', '03:00:00 GMT', '1', 'TBL', 'Tampa Bay', 'Lightning', '21', 'VAN', 'Vancouver', 'Canucks', '7', 'Canada Hockey Place', '1', 'TBL', 'Tampa Bay', 'Lightning', '1', '0', '0', '0', '0', '0', '1', '2', '21', '37', '36.2', '3', '2', '66.7', '4', '2', '50.0', '0', '0', '5', '4', '18', '4', '8', '13']"
"['', '11697', '2010-12-15', '00:30:00 GMT', '2', 'ATL', 'Atlanta', 'Thrashers', '1', 'TBL', 'Tampa Bay', 'Lightning', '26', 'St. Pete Times Forum', '1', 'TBL', 'Tampa Bay', 'Lightning', '1', '0', '0', '0', '0', '0', '0', '2', '39', '26', '60.0', '2', '0', '0.0', '4', '0', '100.0', '0', '1', '1', '1', '30', '5', '10', '22']"
"['', '11721', '2010-12-18', '00:30:00 GMT', '15', 'BUF', 'Buffalo', 'Sabres', '1', 'TBL', 'Tampa Bay', 'Lightning', '26', 'St. Pete Times Forum', '1', 'TBL', 'Tampa Bay', 'Lightning', '1', '0', '0', '0', '0', '0', '1', '2', '32', '26', '55.2', '3', '1', '33.3', '5', '0', '100.0', '0', '0', '3', '1', '33', '5', '10', '19']"
"['', '11734', '2010-12-20', '00:30:00 GMT', '3', 'CAR', 'Carolina', 'Hurricanes', '1', 'TBL', 'Tampa Bay', 'Lightning', '26', 'St. Pete Times Forum', '1', 'TBL', 'Tampa Bay', 'Lightning', '1', '0', '0', '0', '0', '0', '1', '2', '33', '20', '62.3', '3', '2', '66.7', '5', '1', '80.0', '0', '0', '5', '1', '28', '7', '17', '19']"
"['', '11745', '2010-12-22', '00:00:00 GMT', '1', 'TBL', 'Tampa Bay', 'Lightning', '8', 'NYI', 'New York', 'Islanders', '16', 'Nassau Veterans Memorial Coliseum', '1', 'TBL', 'Tampa Bay', 'Lightning', '0', '0', '0', '1', '0', '0', '0', '1', '34', '28', '54.8', '5', '1', '20.0', '2', '0', '100.0', '0', '0', '1', '2', '34', '2', '4', '13']"
"['', '11752', '2010-12-23', '00:00:00 GMT', '1', 'TBL', 'Tampa Bay', 'Lightning', '9', 'NYR', 'New York', 'Rangers', '12', 'Madison Square Garden', '1', 'TBL', 'Tampa Bay', 'Lightning', '1', '0', '0', '0', '0', '0', '0', '2', '23', '31', '42.6', '1', '0', '0.0', '1', '0', '100.0', '0', '0', '3', '3', '21', '1', '2', '28']"
"['', '11767', '2010-12-26', '00:00:00 GMT', '1', 'TBL', 'Tampa Bay', 'Lightning', '2', 'ATL', 'Atlanta', 'Thrashers', '20', 'Philips Arena', '1', 'TBL', 'Tampa Bay', 'Lightning', '1', '0', '0', '0', '0', '0', '1', '2', '30', '41', '42.3', '3', '1', '33.3', '2', '0', '100.0', '0', '0', '3', '2', '31', '3', '6', '16']"
"['', '11781', '2010-12-28', '00:30:00 GMT', '11', 'BOS', 'Boston', 'Bruins', '1', 'TBL', 'Tampa Bay', 'Lightning', '26', 'St. Pete Times Forum', '1', 'TBL', 'Tampa Bay', 'Lightning', '0', '1', '0', '0', '0', '0', '0', '0', '37', '31', '54.4', '5', '1', '20.0', '4', '2', '50.0', '0', '0', '3', '4', '31', '8', '16', '24']"
"['', '11795', '2010-12-30', '00:30:00 GMT', '14', 'MTL', 'Montreal', 'Canadiens', '1', 'TBL', 'Tampa Bay', 'Lightning', '26', 'St. Pete Times Forum', '1', 'TBL', 'Tampa Bay', 'Lightning', '1', '0', '0', '0', '0', '0', '1', '2', '23', '24', '48.9', '6', '1', '16.7', '4', '0', '100.0', '0', '0', '4', '1', '19', '5', '10', '21']"
"['', '11812', '2011-01-01', '00:30:00 GMT', '9', 'NYR', 'New York', 'Rangers', '1', 'TBL', 'Tampa Bay', 'Lightning', '26', 'St. Pete Times Forum', '1', 'TBL', 'Tampa Bay', 'Lightning', '1', '0', '0', '0', '0', '0', '1', '2', '38', '30', '55.9', '3', '0', '0.0', '2', '0', '100.0', '0', '0', '2', '1', '31', '2', '4', '22']"
"['', '11829', '2011-01-04', '00:00:00 GMT', '1', 'TBL', 'Tampa Bay', 'Lightning', '5', 'WSH', 'Washington', 'Capitals', '13', 'Verizon Center', '1', 'TBL', 'Tampa Bay', 'Lightning', '1', '0', '0', '0', '0', '0', '1', '2', '21', '29', '42.0', '3', '0', '0.0', '3', '0', '100.0', '0', '0', '1', '0', '37', '4', '11', '20']"
"['', '11834', '2011-01-05', '00:00:00 GMT', '1', 'TBL', 'Tampa Bay', 'Lightning', '10', 'PIT', 'Pittsburgh', 'Penguins', '14', 'Civic Arena', '1', 'TBL', 'Tampa Bay', 'Lightning', '0', '1', '0', '0', '0', '0', '0', '0', '35', '37', '48.6', '2', '0', '0.0', '4', '2', '50.0', '0', '0', '1', '8', '31', '7', '14', '23']"
"['', '11857', '2011-01-08', '00:00:00 GMT', '1', 'TBL', 'Tampa Bay', 'Lightning', '13', 'OTT', 'Ottawa', 'Senators', '23', 'Scotiabank Place', '1', 'TBL', 'Tampa Bay', 'Lightning', '1', '0', '0', '0', '0', '0', '1', '2', '30', '26', '53.6', '4', '0', '0.0', '3', '0', '100.0', '0', '0', '2', '1', '25', '4', '8', '24']"
"['', '11866', '2011-01-09', '22:00:00 GMT', '1', 'TBL', 'Tampa Bay', 'Lightning', '7', 'NJD', 'New Jersey', 'Devils', '37', 'Prudential Center', '1', 'TBL', 'Tampa Bay', 'Lightning', '0', '1', '0', '0', '0', '0', '0', '0', '21', '25', '45.7', '3', '1', '33.3', '3', '1', '66.7', '0', '0', '3', '6', '33', '4', '8', '11']"
"['', '11885', '2011-01-12', '00:30:00 GMT', '5', 'WSH', 'Washington', 'Capitals', '1', 'TBL', 'Tampa Bay', 'Lightning', '26', 'St. Pete Times Forum', '1', 'TBL', 'Tampa Bay', 'Lightning', '1', '0', '0', '0', '0', '0', '1', '2', '31', '31', '50.0', '5', '0', '0.0', '2', '0', '100.0', '0', '0', '3', '0', '35', '4', '8', '19']"
"['', '11899', '2011-01-14', '00:30:00 GMT', '7', 'NJD', 'New Jersey', 'Devils', '1', 'TBL', 'Tampa Bay', 'Lightning', '26', 'St. Pete Times Forum', '1', 'TBL', 'Tampa Bay', 'Lightning', '0', '1', '0', '0', '0', '0', '0', '0', '26', '22', '54.2', '3', '1', '33.3', '1', '0', '100.0', '0', '1', '2', '5', '30', '2', '7', '24']"
"['', '11904', '2011-01-15', '00:00:00 GMT', '1', 'TBL', 'Tampa Bay', 'Lightning', '3', 'CAR', 'Carolina', 'Hurricanes', '21', 'RBC Center', '1', 'TBL', 'Tampa Bay', 'Lightning', '0', '1', '0', '0', '0', '0', '0', '0', '29', '37', '43.9', '5', '0', '0.0', '4', '4', '0.0', '0', '1', '4', '6', '30', '7', '22', '22']"
"['', '11930', '2011-01-18', '00:30:00 GMT', '19', 'CBJ', 'Columbus', 'Blue Jackets', '1', 'TBL', 'Tampa Bay', 'Lightning', '26', 'St. Pete Times Forum', '1', 'TBL', 'Tampa Bay', 'Lightning', '1', '0', '0', '0', '0', '0', '0', '2', '30', '27', '52.6', '4', '1', '25.0', '3', '0', '100.0', '0', '0', '2', '2', '20', '4', '8', '24']"
"['', '11944', '2011-01-20', '00:00:00 GMT', '1', 'TBL', 'Tampa Bay', 'Lightning', '2', 'ATL', 'Atlanta', 'Thrashers', '20', 'Philips Arena', '1', 'TBL', 'Tampa Bay', 'Lightning', '1', '0', '0', '0', '0', '0', '0', '2', '25', '34', '42.4', '2', '0', '0.0', '2', '1', '50.0', '0', '0', '2', '2', '29', '3', '6', '17']"
"['', '11952', '2011-01-21', '00:30:00 GMT', '1', 'TBL', 'Tampa Bay', 'Lightning', '4', 'FLO', 'Florida', 'Panthers', '3', 'BankAtlantic Center', '1', 'TBL', 'Tampa Bay', 'Lightning', '1', '0', '0', '0', '0', '0', '0', '2', '28', '33', '45.9', '0', '0', '0.0', '6', '0', '100.0', '0', '0', '1', '1', '19', '7', '14', '29']"
"['', '11968', '2011-01-23', '22:00:00 GMT', '2', 'ATL', 'Atlanta', 'Thrashers', '1', 'TBL', 'Tampa Bay', 'Lightning', '26', 'St. Pete Times Forum', '1', 'TBL', 'Tampa Bay', 'Lightning', '1', '0', '0', '0', '0', '0', '1', '2', '31', '27', '53.4', '2', '1', '50.0', '2', '0', '100.0', '1', '0', '7', '1', '32', '3', '6', '19']"
"['', '11981', '2011-01-25', '00:30:00 GMT', '12', 'TOR', 'Toronto', 'Maple Leafs', '1', 'TBL', 'Tampa Bay', 'Lightning', '26', 'St. Pete Times Forum', '1', 'TBL', 'Tampa Bay', 'Lightning', '1', '0', '0', '0', '0', '0', '1', '2', '32', '32', '50.0', '5', '1', '20.0', '1', '0', '100.0', '0', '0', '2', '0', '29', '5', '21', '19']"
"['', '12000', '2011-02-01', '00:30:00 GMT', '6', 'PHI', 'Philadelphia', 'Flyers', '1', 'TBL', 'Tampa Bay', 'Lightning', '26', 'St. Pete Times Forum', '1', 'TBL', 'Tampa Bay', 'Lightning', '1', '0', '0', '0', '0', '0', '1', '2', '38', '36', '51.4', '2', '0', '0.0', '4', '0', '100.0', '0', '0', '4', '0', '18', '4', '8', '21']"
"['', '12021', '2011-02-04', '00:30:00 GMT', '5', 'WSH', 'Washington', 'Capitals', '1', 'TBL', 'Tampa Bay', 'Lightning', '26', 'St. Pete Times Forum', '1', 'TBL', 'Tampa Bay', 'Lightning', '0', '1', '0', '0', '0', '0', '0', '0', '27', '41', '39.7', '4', '1', '25.0', '4', '1', '75.0', '0', '0', '2', '5', '23', '7', '20', '29']"
"['', '12037', '2011-02-06', '20:00:00 GMT', '17', 'STL', 'St. Louis', 'Blues', '1', 'TBL', 'Tampa Bay', 'Lightning', '26', 'St. Pete Times Forum', '1', 'TBL', 'Tampa Bay', 'Lightning', '1', '0', '0', '0', '0', '0', '1', '2', '25', '33', '43.1', '5', '1', '20.0', '4', '1', '75.0', '0', '0', '4', '3', '36', '4', '8', '29']"
"['', '12048', '2011-02-08', '00:30:00 GMT', '15', 'BUF', 'Buffalo', 'Sabres', '1', 'TBL', 'Tampa Bay', 'Lightning', '26', 'St. Pete Times Forum', '1', 'TBL', 'Tampa Bay', 'Lightning', '0', '1', '0', '0', '0', '0', '0', '0', '33', '32', '50.8', '3', '1', '33.3', '5', '1', '80.0', '0', '0', '4', '7', '30', '9', '26', '29']"
"['', '12074', '2011-02-12', '00:30:00 GMT', '3', 'CAR', 'Carolina', 'Hurricanes', '1', 'TBL', 'Tampa Bay', 'Lightning', '26', 'St. Pete Times Forum', '1', 'TBL', 'Tampa Bay', 'Lightning', '1', '0', '0', '0', '0', '0', '1', '2', '35', '28', '55.6', '5', '1', '20.0', '6', '1', '83.3', '0', '0', '4', '3', '37', '8', '16', '24']"
"['', '12092', '2011-02-15', '00:30:00 GMT', '6', 'PHI', 'Philadelphia', 'Flyers', '1', 'TBL', 'Tampa Bay', 'Lightning', '26', 'St. Pete Times Forum', '1', 'TBL', 'Tampa Bay', 'Lightning', '0', '0', '0', '1', '0', '0', '0', '1', '33', '36', '47.8', '3', '1', '33.3', '3', '1', '66.7', '0', '0', '3', '3', '24', '6', '23', '24']"
"['', '12106', '2011-02-17', '00:30:00 GMT', '16', 'DET', 'Detroit', 'Red Wings', '1', 'TBL', 'Tampa Bay', 'Lightning', '26', 'St. Pete Times Forum', '1', 'TBL', 'Tampa Bay', 'Lightning', '0', '1', '0', '0', '0', '0', '0', '0', '34', '28', '54.8', '4', '0', '0.0', '3', '2', '33.3', '0', '0', '2', '6', '38', '3', '6', '25']"
"['', '12122', '2011-02-19', '00:30:00 GMT', '4', 'FLO', 'Florida', 'Panthers', '1', 'TBL', 'Tampa Bay', 'Lightning', '26', 'St. Pete Times Forum', '1', 'TBL', 'Tampa Bay', 'Lightning', '0', '0', '0', '1', '0', '0', '0', '1', '27', '20', '57.4', '6', '0', '0.0', '3', '2', '33.3', '0', '0', '2', '2', '34', '3', '6', '24']"
"['', '12145', '2011-02-23', '00:30:00 GMT', '30', 'PHX', 'Phoenix', 'Coyotes', '1', 'TBL', 'Tampa Bay', 'Lightning', '26', 'St. Pete Times Forum', '1', 'TBL', 'Tampa Bay', 'Lightning', '1', '0', '0', '0', '0', '0', '1', '2', '35', '33', '51.5', '4', '3', '75.0', '2', '0', '100.0', '0', '0', '8', '3', '31', '3', '6', '25']"
"['', '12159', '2011-02-25', '00:30:00 GMT', '7', 'NJD', 'New Jersey', 'Devils', '1', 'TBL', 'Tampa Bay', 'Lightning', '26', 'St. Pete Times Forum', '1', 'TBL', 'Tampa Bay', 'Lightning', '1', '0', '0', '0', '0', '0', '1', '2', '35', '23', '60.3', '1', '0', '0.0', '1', '0', '100.0', '0', '0', '2', '1', '28', '1', '2', '32']"
"['', '12172', '2011-02-27', '18:00:00 GMT', '1', 'TBL', 'Tampa Bay', 'Lightning', '9', 'NYR', 'New York', 'Rangers', '12', 'Madison Square Garden', '1', 'TBL', 'Tampa Bay', 'Lightning', '1', '0', '0', '0', '0', '0', '1', '2', '18', '34', '34.6', '6', '1', '16.7', '4', '0', '100.0', '0', '1', '2', '1', '17', '4', '8', '25']"
"['', '12192', '2011-03-02', '00:00:00 GMT', '1', 'TBL', 'Tampa Bay', 'Lightning', '7', 'NJD', 'New Jersey', 'Devils', '37', 'Prudential Center', '1', 'TBL', 'Tampa Bay', 'Lightning', '0', '1', '0', '0', '0', '0', '0', '0', '30', '25', '54.5', '2', '1', '50.0', '2', '0', '100.0', '0', '0', '1', '2', '15', '2', '4', '11']"
"['', '12197', '2011-03-03', '00:00:00 GMT', '1', 'TBL', 'Tampa Bay', 'Lightning', '11', 'BOS', 'Boston', 'Bruins', '27', 'TD Garden', '1', 'TBL', 'Tampa Bay', 'Lightning', '0', '1', '0', '0', '0', '0', '0', '0', '24', '24', '50.0', '3', '0', '0.0', '3', '0', '100.0', '0', '0', '1', '2', '27', '5', '21', '17']"
"['', '12219', '2011-03-05', '00:00:00 GMT', '14', 'MTL', 'Montreal', 'Canadiens', '1', 'TBL', 'Tampa Bay', 'Lightning', '26', 'St. Pete Times Forum', '1', 'TBL', 'Tampa Bay', 'Lightning', '0', '1', '0', '0', '0', '0', '0', '0', '39', '29', '57.4', '6', '1', '16.7', '2', '2', '0.0', '0', '0', '2', '4', '43', '4', '8', '26']"
"['', '12228', '2011-03-07', '00:00:00 GMT', '5', 'WSH', 'Washington', 'Capitals', '1', 'TBL', 'Tampa Bay', 'Lightning', '26', 'St. Pete Times Forum', '1', 'TBL', 'Tampa Bay', 'Lightning', '0', '0', '0', '1', '0', '0', '0', '1', '33', '38', '46.5', '3', '1', '33.3', '3', '0', '100.0', '0', '0', '1', '1', '27', '4', '8', '33']"
"['', '12244', '2011-03-09', '00:30:00 GMT', '20', 'CHI', 'Chicago', 'Blackhawks', '1', 'TBL', 'Tampa Bay', 'Lightning', '26', 'St. Pete Times Forum', '1', 'TBL', 'Tampa Bay', 'Lightning', '1', '0', '0', '0', '0', '0', '0', '2', '29', '31', '48.3', '2', '0', '0.0', '1', '0', '100.0', '0', '0', '3', '3', '27', '1', '2', '27']"
"['', '12258', '2011-03-11', '00:30:00 GMT', '13', 'OTT', 'Ottawa', 'Senators', '1', 'TBL', 'Tampa Bay', 'Lightning', '26', 'St. Pete Times Forum', '1', 'TBL', 'Tampa Bay', 'Lightning', '0', '1', '0', '0', '0', '0', '0', '0', '21', '27', '43.8', '4', '1', '25.0', '6', '1', '83.3', '0', '0', '1', '2', '34', '6', '12', '23']"
"['', '12267', '2011-03-12', '00:00:00 GMT', '1', 'TBL', 'Tampa Bay', 'Lightning', '4', 'FLO', 'Florida', 'Panthers', '3', 'BankAtlantic Center', '1', 'TBL', 'Tampa Bay', 'Lightning', '0', '0', '0', '1', '0', '0', '0', '1', '36', '27', '57.1', '7', '3', '42.9', '3', '0', '100.0', '0', '0', '3', '4', '35', '4', '8', '25']"
"['', '12277', '2011-03-14', '23:00:00 GMT', '1', 'TBL', 'Tampa Bay', 'Lightning', '12', 'TOR', 'Toronto', 'Maple Leafs', '1', 'Air Canada Center', '1', 'TBL', 'Tampa Bay', 'Lightning', '1', '0', '0', '0', '0', '0', '1', '2', '35', '35', '50.0', '0', '0', '0.0', '3', '0', '100.0', '0', '0', '6', '2', '30', '5', '10', '38']"
"['', '12296', '2011-03-17', '23:30:00 GMT', '1', 'TBL', 'Tampa Bay', 'Lightning', '14', 'MTL', 'Montreal', 'Canadiens', '4', 'Bell Centre', '1', 'TBL', 'Tampa Bay', 'Lightning', '0', '0', '0', '1', '0', '0', '0', '1', '35', '19', '64.8', '4', '1', '25.0', '2', '0', '100.0', '0', '1', '2', '2', '35', '4', '19', '15']"
"['', '12311', '2011-03-19', '23:00:00 GMT', '1', 'TBL', 'Tampa Bay', 'Lightning', '13', 'OTT', 'Ottawa', 'Senators', '23', 'Scotiabank Place', '1', 'TBL', 'Tampa Bay', 'Lightning', '0', '0', '0', '1', '0', '0', '0', '1', '30', '29', '50.8', '3', '0', '0.0', '2', '0', '100.0', '0', '1', '2', '3', '35', '2', '4', '16']"
"['', '12332', '2011-03-22', '23:30:00 GMT', '8', 'NYI', 'New York', 'Islanders', '1', 'TBL', 'Tampa Bay', 'Lightning', '26', 'St. Pete Times Forum', '1', 'TBL', 'Tampa Bay', 'Lightning', '0', '1', '0', '0', '0', '0', '0', '0', '27', '35', '43.5', '7', '1', '14.3', '2', '1', '50.0', '0', '2', '2', '5', '36', '6', '12', '25']"
"['', '12353', '2011-03-25', '23:30:00 GMT', '3', 'CAR', 'Carolina', 'Hurricanes', '1', 'TBL', 'Tampa Bay', 'Lightning', '26', 'St. Pete Times Forum', '1', 'TBL', 'Tampa Bay', 'Lightning', '0', '1', '0', '0', '0', '0', '0', '0', '36', '32', '52.9', '4', '2', '50.0', '6', '2', '66.7', '0', '0', '3', '4', '18', '8', '24', '13']"
"['', '12359', '2011-03-26', '23:00:00 GMT', '1', 'TBL', 'Tampa Bay', 'Lightning', '3', 'CAR', 'Carolina', 'Hurricanes', '21', 'RBC Center', '1', 'TBL', 'Tampa Bay', 'Lightning', '1', '0', '0', '0', '0', '0', '1', '2', '27', '34', '44.3', '2', '1', '50.0', '3', '1', '66.7', '0', '0', '4', '2', '28', '6', '15', '26']"
"['', '12379', '2011-03-29', '23:30:00 GMT', '13', 'OTT', 'Ottawa', 'Senators', '1', 'TBL', 'Tampa Bay', 'Lightning', '26', 'St. Pete Times Forum', '1', 'TBL', 'Tampa Bay', 'Lightning', '1', '0', '0', '0', '0', '0', '1', '2', '30', '24', '55.6', '3', '0', '0.0', '2', '0', '100.0', '0', '0', '5', '2', '26', '3', '9', '24']"
"['', '12393', '2011-03-31', '23:30:00 GMT', '10', 'PIT', 'Pittsburgh', 'Penguins', '1', 'TBL', 'Tampa Bay', 'Lightning', '26', 'St. Pete Times Forum', '1', 'TBL', 'Tampa Bay', 'Lightning', '1', '0', '0', '0', '0', '0', '1', '2', '33', '31', '51.6', '3', '0', '0.0', '4', '0', '100.0', '0', '0', '2', '1', '22', '7', '14', '32']"
"['', '12404', '2011-04-02', '18:00:00 GMT', '1', 'TBL', 'Tampa Bay', 'Lightning', '25', 'MIN', 'Minnesota', 'Wild', '30', 'Xcel Energy Center', '1', 'TBL', 'Tampa Bay', 'Lightning', '1', '0', '0', '0', '0', '0', '1', '2', '27', '37', '42.2', '3', '0', '0.0', '4', '0', '100.0', '0', '0', '3', '1', '20', '4', '8', '23']"
"['', '12418', '2011-04-03', '23:00:00 GMT', '1', 'TBL', 'Tampa Bay', 'Lightning', '20', 'CHI', 'Chicago', 'Blackhawks', '28', 'United Center', '1', 'TBL', 'Tampa Bay', 'Lightning', '1', '0', '0', '0', '0', '0', '1', '2', '29', '30', '49.2', '4', '1', '25.0', '2', '0', '100.0', '0', '0', '2', '0', '13', '4', '8', '19']"
"['', '12423', '2011-04-05', '23:00:00 GMT', '1', 'TBL', 'Tampa Bay', 'Lightning', '15', 'BUF', 'Buffalo', 'Sabres', '10', 'HSBC Arena', '1', 'TBL', 'Tampa Bay', 'Lightning', '0', '1', '0', '0', '0', '0', '0', '0', '28', '26', '51.9', '2', '0', '0.0', '2', '1', '50.0', '0', '0', '2', '4', '23', '4', '11', '16']"
"['', '12447', '2011-04-08', '23:30:00 GMT', '4', 'FLO', 'Florida', 'Panthers', '1', 'TBL', 'Tampa Bay', 'Lightning', '26', 'St. Pete Times Forum', '1', 'TBL', 'Tampa Bay', 'Lightning', '1', '0', '0', '0', '0', '0', '1', '2', '34', '33', '50.7', '4', '2', '50.0', '5', '0', '100.0', '0', '0', '4', '2', '30', '5', '10', '27']"
"['', '12456', '2011-04-09', '23:00:00 GMT', '1', 'TBL', 'Tampa Bay', 'Lightning', '3', 'CAR', 'Carolina', 'Hurricanes', '21', 'RBC Center', '1', 'TBL', 'Tampa Bay', 'Lightning', '1', '0', '0', '0', '0', '0', '1', '2', '34', '30', '53.1', '1', '0', '0.0', '7', '1', '85.7', '0', '0', '6', '2', '29', '7', '14', '8']"
