"['#Date/Time of Update: 2018-12-10 19:03:04 GMT', '#Game ID', '#Game Date', '#Game Time', '#Away Team ID', '#Away Team Abbr.', '#Away Team City', '#Away Team Name', '#Home Team ID', '#Home Team Abbr.', '#Home Team City', '#Home Team Name', '#Venue ID', '#Venue Name', '#Team ID', '#Team Abbr.', '#Team City', '#Team Name', '#Wins', '#Losses', '#OvertimeWins', '#OvertimeLosses', '#ShootoutWins', '#ShootoutLosses', '#Rows', '#Points', '#FaceoffWins', '#FaceoffLosses', '#FaceoffPercent', '#Powerplays', '#PowerplayGoals', '#PowerplayPercent', '#PenaltyKills', '#PenaltyKillGoalsAllowed', '#PenaltyKillPercent', '#ShorthandedGoalsFor', '#ShorthandedGoalsAgainst', '#GoalsFor', '#GoalsAgainst', '#Shots', '#Penalties', '#PenaltyMinutes', '#Hits']"
"['', '14886', '2011-10-06', '23:00:00 GMT', '6', 'PHI', 'Philadelphia', 'Flyers', '11', 'BOS', 'Boston', 'Bruins', '27', 'TD Garden', '11', 'BOS', 'Boston', 'Bruins', '0', '1', '0', '0', '0', '0', '0', '0', '32', '16', '66.7', '5', '1', '20.0', '4', '1', '75.0', '0', '0', '1', '2', '22', '5', '10', '19']"
"['', '14897', '2011-10-08', '23:00:00 GMT', '1', 'TBL', 'Tampa Bay', 'Lightning', '11', 'BOS', 'Boston', 'Bruins', '27', 'TD Garden', '11', 'BOS', 'Boston', 'Bruins', '1', '0', '0', '0', '0', '0', '1', '2', '32', '33', '49.2', '5', '0', '0.0', '4', '0', '100.0', '0', '0', '4', '1', '38', '8', '16', '18']"
"['', '14910', '2011-10-10', '17:00:00 GMT', '22', 'COL', 'Colorado', 'Avalanche', '11', 'BOS', 'Boston', 'Bruins', '27', 'TD Garden', '11', 'BOS', 'Boston', 'Bruins', '0', '1', '0', '0', '0', '0', '0', '0', '30', '19', '61.2', '1', '0', '0.0', '3', '0', '100.0', '0', '0', '0', '1', '30', '4', '8', '32']"
"['', '14921', '2011-10-12', '23:30:00 GMT', '11', 'BOS', 'Boston', 'Bruins', '3', 'CAR', 'Carolina', 'Hurricanes', '21', 'RBC Center', '11', 'BOS', 'Boston', 'Bruins', '0', '1', '0', '0', '0', '0', '0', '0', '30', '31', '49.2', '5', '0', '0.0', '3', '1', '66.7', '0', '0', '2', '3', '26', '4', '8', '12']"
"['', '14945', '2011-10-15', '00:30:00 GMT', '11', 'BOS', 'Boston', 'Bruins', '20', 'CHI', 'Chicago', 'Blackhawks', '28', 'United Center', '11', 'BOS', 'Boston', 'Bruins', '1', '0', '0', '0', '0', '0', '0', '2', '36', '34', '51.4', '2', '0', '0.0', '3', '0', '100.0', '1', '0', '2', '2', '35', '4', '11', '40']"
"['', '14954', '2011-10-18', '23:00:00 GMT', '3', 'CAR', 'Carolina', 'Hurricanes', '11', 'BOS', 'Boston', 'Bruins', '27', 'TD Garden', '11', 'BOS', 'Boston', 'Bruins', '0', '1', '0', '0', '0', '0', '0', '0', '35', '32', '52.2', '3', '1', '33.3', '7', '1', '85.7', '0', '0', '1', '4', '33', '17', '72', '29']"
"['', '14965', '2011-10-20', '23:00:00 GMT', '12', 'TOR', 'Toronto', 'Maple Leafs', '11', 'BOS', 'Boston', 'Bruins', '27', 'TD Garden', '11', 'BOS', 'Boston', 'Bruins', '1', '0', '0', '0', '0', '0', '1', '2', '38', '29', '56.7', '5', '2', '40.0', '4', '0', '100.0', '0', '0', '6', '2', '37', '5', '13', '18']"
"['', '14982', '2011-10-22', '23:00:00 GMT', '26', 'SJS', 'San Jose', 'Sharks', '11', 'BOS', 'Boston', 'Bruins', '27', 'TD Garden', '11', 'BOS', 'Boston', 'Bruins', '0', '1', '0', '0', '0', '0', '0', '0', '34', '25', '57.6', '2', '0', '0.0', '1', '0', '100.0', '0', '0', '2', '4', '37', '2', '7', '22']"
"['', '15010', '2011-10-27', '23:00:00 GMT', '14', 'MTL', 'Montreal', 'Canadiens', '11', 'BOS', 'Boston', 'Bruins', '27', 'TD Garden', '11', 'BOS', 'Boston', 'Bruins', '0', '1', '0', '0', '0', '0', '0', '0', '30', '29', '50.8', '5', '1', '20.0', '2', '0', '100.0', '0', '0', '1', '2', '29', '5', '13', '17']"
"['', '15028', '2011-10-29', '23:00:00 GMT', '11', 'BOS', 'Boston', 'Bruins', '14', 'MTL', 'Montreal', 'Canadiens', '4', 'Bell Centre', '11', 'BOS', 'Boston', 'Bruins', '0', '1', '0', '0', '0', '0', '0', '0', '26', '30', '46.4', '2', '0', '0.0', '6', '2', '66.7', '0', '0', '2', '4', '26', '8', '19', '27']"
"['', '15045', '2011-11-01', '19:00:00 GMT', '13', 'OTT', 'Ottawa', 'Senators', '11', 'BOS', 'Boston', 'Bruins', '27', 'TD Garden', '11', 'BOS', 'Boston', 'Bruins', '1', '0', '0', '0', '0', '0', '1', '2', '34', '31', '52.3', '6', '1', '16.7', '3', '0', '100.0', '0', '0', '5', '3', '36', '6', '18', '15']"
"['', '15069', '2011-11-05', '23:00:00 GMT', '11', 'BOS', 'Boston', 'Bruins', '12', 'TOR', 'Toronto', 'Maple Leafs', '1', 'Air Canada Center', '11', 'BOS', 'Boston', 'Bruins', '1', '0', '0', '0', '0', '0', '1', '2', '24', '29', '45.3', '2', '1', '50.0', '3', '0', '100.0', '0', '0', '7', '0', '13', '5', '18', '23']"
"['', '15085', '2011-11-07', '00:00:00 GMT', '8', 'NYI', 'New York', 'Islanders', '11', 'BOS', 'Boston', 'Bruins', '27', 'TD Garden', '11', 'BOS', 'Boston', 'Bruins', '1', '0', '0', '0', '0', '0', '1', '2', '29', '20', '59.2', '1', '1', '100.0', '4', '0', '100.0', '0', '0', '6', '2', '31', '5', '13', '16']"
"['', '15099', '2011-11-10', '00:00:00 GMT', '24', 'EDM', 'Edmonton', 'Oilers', '11', 'BOS', 'Boston', 'Bruins', '27', 'TD Garden', '11', 'BOS', 'Boston', 'Bruins', '1', '0', '0', '0', '0', '0', '1', '2', '34', '25', '57.6', '5', '2', '40.0', '3', '1', '66.7', '0', '0', '6', '3', '22', '5', '10', '15']"
"['', '15114', '2011-11-12', '00:00:00 GMT', '15', 'BUF', 'Buffalo', 'Sabres', '11', 'BOS', 'Boston', 'Bruins', '27', 'TD Garden', '11', 'BOS', 'Boston', 'Bruins', '1', '0', '0', '0', '0', '0', '1', '2', '44', '25', '63.8', '2', '0', '0.0', '4', '1', '75.0', '0', '0', '6', '2', '29', '7', '22', '26']"
"['', '15136', '2011-11-15', '00:00:00 GMT', '7', 'NJD', 'New Jersey', 'Devils', '11', 'BOS', 'Boston', 'Bruins', '27', 'TD Garden', '11', 'BOS', 'Boston', 'Bruins', '1', '0', '0', '0', '0', '0', '1', '2', '41', '25', '62.1', '2', '0', '0.0', '4', '1', '75.0', '0', '0', '4', '3', '33', '5', '10', '30']"
"['', '15145', '2011-11-17', '00:00:00 GMT', '19', 'CBJ', 'Columbus', 'Blue Jackets', '11', 'BOS', 'Boston', 'Bruins', '27', 'TD Garden', '11', 'BOS', 'Boston', 'Bruins', '1', '0', '0', '0', '0', '0', '0', '2', '24', '30', '44.4', '2', '0', '0.0', '3', '1', '66.7', '0', '0', '1', '1', '26', '4', '11', '17']"
"['', '15164', '2011-11-19', '00:00:00 GMT', '11', 'BOS', 'Boston', 'Bruins', '8', 'NYI', 'New York', 'Islanders', '16', 'Nassau Veterans Memorial Coliseum', '11', 'BOS', 'Boston', 'Bruins', '1', '0', '0', '0', '0', '0', '1', '2', '42', '26', '61.8', '4', '1', '25.0', '1', '0', '100.0', '0', '0', '6', '0', '24', '1', '2', '18']"
"['', '15179', '2011-11-21', '00:30:00 GMT', '11', 'BOS', 'Boston', 'Bruins', '14', 'MTL', 'Montreal', 'Canadiens', '4', 'Bell Centre', '11', 'BOS', 'Boston', 'Bruins', '1', '0', '0', '0', '0', '0', '1', '2', '25', '26', '49.0', '1', '0', '0.0', '4', '0', '100.0', '0', '0', '1', '0', '17', '4', '8', '21']"
"['', '15185', '2011-11-23', '00:00:00 GMT', '11', 'BOS', 'Boston', 'Bruins', '15', 'BUF', 'Buffalo', 'Sabres', '10', 'First Niagara Center', '11', 'BOS', 'Boston', 'Bruins', '1', '0', '0', '0', '0', '0', '0', '2', '40', '31', '56.3', '4', '2', '50.0', '4', '2', '50.0', '0', '0', '3', '3', '36', '10', '26', '24']"
"['', '15198', '2011-11-25', '18:00:00 GMT', '16', 'DET', 'Detroit', 'Red Wings', '11', 'BOS', 'Boston', 'Bruins', '27', 'TD Garden', '11', 'BOS', 'Boston', 'Bruins', '0', '0', '0', '1', '0', '0', '0', '1', '27', '28', '49.1', '2', '0', '0.0', '3', '0', '100.0', '0', '0', '2', '2', '41', '3', '6', '30']"
"['', '15214', '2011-11-26', '00:00:00 GMT', '2', 'WPJ', 'Winnipeg', 'Jets', '11', 'BOS', 'Boston', 'Bruins', '27', 'TD Garden', '11', 'BOS', 'Boston', 'Bruins', '1', '0', '0', '0', '0', '0', '1', '2', '30', '19', '61.2', '4', '1', '25.0', '3', '0', '100.0', '1', '0', '4', '2', '32', '4', '8', '16']"
"['', '15238', '2011-11-30', '00:00:00 GMT', '11', 'BOS', 'Boston', 'Bruins', '12', 'TOR', 'Toronto', 'Maple Leafs', '1', 'Air Canada Center', '11', 'BOS', 'Boston', 'Bruins', '1', '0', '0', '0', '0', '0', '1', '2', '37', '25', '59.7', '4', '1', '25.0', '2', '1', '50.0', '0', '0', '6', '3', '34', '2', '4', '24']"
"['', '15258', '2011-12-03', '00:00:00 GMT', '12', 'TOR', 'Toronto', 'Maple Leafs', '11', 'BOS', 'Boston', 'Bruins', '27', 'TD Garden', '11', 'BOS', 'Boston', 'Bruins', '1', '0', '0', '0', '0', '0', '1', '2', '42', '20', '67.7', '1', '0', '0.0', '4', '0', '100.0', '0', '0', '4', '1', '26', '5', '13', '23']"
"['', '15273', '2011-12-05', '00:00:00 GMT', '11', 'BOS', 'Boston', 'Bruins', '10', 'PIT', 'Pittsburgh', 'Penguins', '14', 'Civic Arena', '11', 'BOS', 'Boston', 'Bruins', '1', '0', '0', '0', '0', '0', '1', '2', '39', '36', '52.0', '5', '1', '20.0', '4', '0', '100.0', '0', '0', '3', '1', '24', '7', '20', '13']"
"['', '15282', '2011-12-06', '01:30:00 GMT', '11', 'BOS', 'Boston', 'Bruins', '2', 'WPJ', 'Winnipeg', 'Jets', '39', 'MTS Centre', '11', 'BOS', 'Boston', 'Bruins', '0', '1', '0', '0', '0', '0', '0', '0', '29', '30', '49.2', '3', '0', '0.0', '3', '0', '100.0', '0', '0', '1', '2', '39', '4', '8', '12']"
"['', '15290', '2011-12-08', '00:00:00 GMT', '4', 'FLO', 'Florida', 'Panthers', '11', 'BOS', 'Boston', 'Bruins', '27', 'TD Garden', '11', 'BOS', 'Boston', 'Bruins', '0', '1', '0', '0', '0', '0', '0', '0', '28', '24', '53.8', '4', '0', '0.0', '1', '0', '100.0', '0', '0', '0', '2', '40', '3', '12', '16']"
"['', '15312', '2011-12-10', '00:00:00 GMT', '11', 'BOS', 'Boston', 'Bruins', '19', 'CBJ', 'Columbus', 'Blue Jackets', '17', 'Nationwide Arena', '11', 'BOS', 'Boston', 'Bruins', '1', '0', '0', '0', '0', '0', '1', '2', '27', '23', '54.0', '5', '3', '60.0', '5', '1', '80.0', '0', '0', '5', '3', '24', '8', '19', '14']"
"['', '15321', '2011-12-13', '00:00:00 GMT', '28', 'LAK', 'Los Angeles', 'Kings', '11', 'BOS', 'Boston', 'Bruins', '27', 'TD Garden', '11', 'BOS', 'Boston', 'Bruins', '1', '0', '0', '0', '0', '0', '1', '2', '34', '19', '64.2', '3', '0', '0.0', '4', '0', '100.0', '0', '0', '3', '0', '19', '5', '10', '18']"
"['', '15333', '2011-12-14', '00:30:00 GMT', '11', 'BOS', 'Boston', 'Bruins', '13', 'OTT', 'Ottawa', 'Senators', '23', 'Scotiabank Place', '11', 'BOS', 'Boston', 'Bruins', '1', '0', '0', '0', '0', '0', '1', '2', '33', '22', '60.0', '0', '0', '0.0', '4', '0', '100.0', '0', '0', '5', '2', '24', '6', '26', '22']"
"['', '15351', '2011-12-17', '18:00:00 GMT', '11', 'BOS', 'Boston', 'Bruins', '6', 'PHI', 'Philadelphia', 'Flyers', '29', 'Wells Fargo Center', '11', 'BOS', 'Boston', 'Bruins', '1', '0', '0', '0', '0', '0', '1', '2', '34', '31', '52.3', '8', '3', '37.5', '5', '0', '100.0', '0', '0', '6', '0', '31', '13', '62', '20']"
"['', '15366', '2011-12-19', '00:00:00 GMT', '14', 'MTL', 'Montreal', 'Canadiens', '11', 'BOS', 'Boston', 'Bruins', '27', 'TD Garden', '11', 'BOS', 'Boston', 'Bruins', '1', '0', '0', '0', '0', '0', '1', '2', '28', '24', '53.8', '3', '0', '0.0', '2', '0', '100.0', '0', '0', '3', '2', '28', '2', '4', '26']"
"['', '15393', '2011-12-23', '00:00:00 GMT', '4', 'FLO', 'Florida', 'Panthers', '11', 'BOS', 'Boston', 'Bruins', '27', 'TD Garden', '11', 'BOS', 'Boston', 'Bruins', '1', '0', '0', '0', '0', '0', '1', '2', '35', '20', '63.6', '6', '1', '16.7', '1', '0', '100.0', '2', '0', '8', '0', '27', '3', '9', '14']"
"['', '15425', '2011-12-28', '02:00:00 GMT', '11', 'BOS', 'Boston', 'Bruins', '30', 'PHX', 'Phoenix', 'Coyotes', '6', 'Jobing.com Arena', '11', 'BOS', 'Boston', 'Bruins', '1', '0', '0', '0', '0', '0', '1', '2', '28', '19', '59.6', '0', '0', '0.0', '1', '0', '100.0', '0', '0', '2', '1', '27', '4', '19', '27']"
"['', '15450', '2011-12-31', '01:00:00 GMT', '11', 'BOS', 'Boston', 'Bruins', '27', 'DAL', 'Dallas', 'Stars', '2', 'American Airlines Center', '11', 'BOS', 'Boston', 'Bruins', '0', '1', '0', '0', '0', '0', '0', '0', '27', '30', '47.4', '1', '0', '0.0', '6', '2', '66.7', '0', '0', '2', '4', '18', '7', '17', '15']"
"['', '15466', '2012-01-04', '00:30:00 GMT', '11', 'BOS', 'Boston', 'Bruins', '7', 'NJD', 'New Jersey', 'Devils', '5', 'Izod Center', '11', 'BOS', 'Boston', 'Bruins', '1', '0', '0', '0', '0', '0', '1', '2', '30', '12', '71.4', '3', '1', '33.3', '3', '1', '66.7', '0', '0', '6', '1', '21', '5', '21', '23']"
"['', '15469', '2012-01-05', '00:00:00 GMT', '23', 'CGY', 'Calgary', 'Flames', '11', 'BOS', 'Boston', 'Bruins', '27', 'TD Garden', '11', 'BOS', 'Boston', 'Bruins', '1', '0', '0', '0', '0', '0', '1', '2', '37', '16', '69.8', '2', '1', '50.0', '2', '0', '100.0', '1', '0', '9', '0', '33', '2', '4', '9']"
"['', '15483', '2012-01-07', '18:00:00 GMT', '21', 'VAN', 'Vancouver', 'Canucks', '11', 'BOS', 'Boston', 'Bruins', '27', 'TD Garden', '11', 'BOS', 'Boston', 'Bruins', '0', '1', '0', '0', '0', '0', '0', '0', '42', '39', '51.9', '7', '0', '0.0', '7', '4', '42.9', '0', '0', '3', '4', '35', '15', '55', '17']"
"['', '15501', '2012-01-10', '00:00:00 GMT', '2', 'WPJ', 'Winnipeg', 'Jets', '11', 'BOS', 'Boston', 'Bruins', '27', 'TD Garden', '11', 'BOS', 'Boston', 'Bruins', '1', '0', '0', '0', '0', '0', '1', '2', '39', '23', '62.9', '3', '1', '33.3', '4', '0', '100.0', '0', '0', '5', '3', '37', '6', '23', '18']"
"['', '15516', '2012-01-12', '00:00:00 GMT', '14', 'MTL', 'Montreal', 'Canadiens', '11', 'BOS', 'Boston', 'Bruins', '27', 'TD Garden', '11', 'BOS', 'Boston', 'Bruins', '1', '0', '0', '0', '0', '0', '1', '2', '22', '26', '45.8', '5', '0', '0.0', '1', '1', '0.0', '0', '0', '2', '1', '28', '3', '6', '29']"
"['', '15537', '2012-01-14', '00:00:00 GMT', '11', 'BOS', 'Boston', 'Bruins', '3', 'CAR', 'Carolina', 'Hurricanes', '21', 'RBC Center', '11', 'BOS', 'Boston', 'Bruins', '0', '1', '0', '0', '0', '0', '0', '0', '28', '22', '56.0', '2', '0', '0.0', '0', '0', '0.0', '0', '0', '2', '4', '33', '1', '2', '14']"
"['', '15552', '2012-01-16', '00:30:00 GMT', '11', 'BOS', 'Boston', 'Bruins', '4', 'FLO', 'Florida', 'Panthers', '3', 'BankAtlantic Center', '11', 'BOS', 'Boston', 'Bruins', '1', '0', '0', '0', '0', '0', '0', '2', '26', '32', '44.8', '2', '1', '50.0', '3', '0', '100.0', '0', '0', '2', '2', '33', '4', '11', '27']"
"['', '15562', '2012-01-17', '00:30:00 GMT', '11', 'BOS', 'Boston', 'Bruins', '1', 'TBL', 'Tampa Bay', 'Lightning', '26', 'St. Pete Times Forum', '11', 'BOS', 'Boston', 'Bruins', '0', '1', '0', '0', '0', '0', '0', '0', '30', '36', '45.5', '3', '0', '0.0', '4', '0', '100.0', '1', '0', '3', '5', '26', '5', '10', '18']"
"['', '15571', '2012-01-19', '00:00:00 GMT', '11', 'BOS', 'Boston', 'Bruins', '7', 'NJD', 'New Jersey', 'Devils', '5', 'Izod Center', '11', 'BOS', 'Boston', 'Bruins', '1', '0', '0', '0', '0', '0', '1', '2', '35', '29', '54.7', '1', '1', '100.0', '1', '0', '100.0', '0', '0', '4', '1', '21', '2', '7', '17']"
"['', '15584', '2012-01-21', '18:00:00 GMT', '9', 'NYR', 'New York', 'Rangers', '11', 'BOS', 'Boston', 'Bruins', '27', 'TD Garden', '11', 'BOS', 'Boston', 'Bruins', '0', '0', '0', '1', '0', '0', '0', '1', '32', '27', '54.2', '4', '0', '0.0', '3', '1', '66.7', '0', '0', '2', '3', '32', '6', '26', '12']"
"['', '15598', '2012-01-22', '20:00:00 GMT', '11', 'BOS', 'Boston', 'Bruins', '6', 'PHI', 'Philadelphia', 'Flyers', '29', 'Wells Fargo Center', '11', 'BOS', 'Boston', 'Bruins', '1', '0', '0', '0', '0', '0', '0', '2', '43', '36', '54.4', '5', '1', '20.0', '6', '3', '50.0', '0', '0', '5', '5', '32', '14', '37', '24']"
"['', '15610', '2012-01-24', '00:00:00 GMT', '11', 'BOS', 'Boston', 'Bruins', '5', 'WSH', 'Washington', 'Capitals', '13', 'Verizon Center', '11', 'BOS', 'Boston', 'Bruins', '0', '1', '0', '0', '0', '0', '0', '0', '28', '28', '50.0', '2', '1', '50.0', '1', '0', '100.0', '0', '0', '3', '5', '29', '2', '4', '16']"
"['', '15621', '2012-01-31', '00:00:00 GMT', '13', 'OTT', 'Ottawa', 'Senators', '11', 'BOS', 'Boston', 'Bruins', '27', 'TD Garden', '11', 'BOS', 'Boston', 'Bruins', '1', '0', '0', '0', '0', '0', '1', '2', '28', '31', '47.5', '4', '2', '50.0', '0', '0', '0.0', '0', '0', '4', '3', '26', '2', '10', '20']"
"['', '15639', '2012-02-02', '00:00:00 GMT', '3', 'CAR', 'Carolina', 'Hurricanes', '11', 'BOS', 'Boston', 'Bruins', '27', 'TD Garden', '11', 'BOS', 'Boston', 'Bruins', '0', '1', '0', '0', '0', '0', '0', '0', '38', '16', '70.4', '2', '0', '0.0', '2', '0', '100.0', '0', '0', '0', '3', '47', '4', '8', '31']"
"['', '15652', '2012-02-04', '18:00:00 GMT', '10', 'PIT', 'Pittsburgh', 'Penguins', '11', 'BOS', 'Boston', 'Bruins', '27', 'TD Garden', '11', 'BOS', 'Boston', 'Bruins', '0', '1', '0', '0', '0', '0', '0', '0', '30', '31', '49.2', '2', '0', '0.0', '3', '1', '66.7', '0', '0', '1', '2', '28', '4', '8', '17']"
"['', '15664', '2012-02-05', '17:30:00 GMT', '11', 'BOS', 'Boston', 'Bruins', '5', 'WSH', 'Washington', 'Capitals', '13', 'Verizon Center', '11', 'BOS', 'Boston', 'Bruins', '1', '0', '0', '0', '0', '0', '1', '2', '43', '24', '64.2', '3', '0', '0.0', '1', '0', '100.0', '0', '0', '4', '1', '26', '2', '7', '18']"
"['', '15682', '2012-02-08', '00:30:00 GMT', '11', 'BOS', 'Boston', 'Bruins', '15', 'BUF', 'Buffalo', 'Sabres', '10', 'First Niagara Center', '11', 'BOS', 'Boston', 'Bruins', '0', '1', '0', '0', '0', '0', '0', '0', '45', '21', '68.2', '0', '0', '0.0', '2', '0', '100.0', '0', '0', '0', '6', '36', '12', '57', '20']"
"['', '15701', '2012-02-11', '18:00:00 GMT', '18', 'NSH', 'Nashville', 'Predators', '11', 'BOS', 'Boston', 'Bruins', '27', 'TD Garden', '11', 'BOS', 'Boston', 'Bruins', '1', '0', '0', '0', '0', '0', '0', '2', '38', '26', '59.4', '4', '1', '25.0', '2', '1', '50.0', '1', '0', '3', '3', '38', '3', '6', '11']"
"['', '15722', '2012-02-14', '00:00:00 GMT', '9', 'NYR', 'New York', 'Rangers', '11', 'BOS', 'Boston', 'Bruins', '27', 'TD Garden', '11', 'BOS', 'Boston', 'Bruins', '0', '1', '0', '0', '0', '0', '0', '0', '32', '38', '45.7', '1', '0', '0.0', '1', '1', '0.0', '0', '0', '0', '3', '42', '3', '6', '32']"
"['', '15732', '2012-02-15', '00:30:00 GMT', '11', 'BOS', 'Boston', 'Bruins', '14', 'MTL', 'Montreal', 'Canadiens', '4', 'Bell Centre', '11', 'BOS', 'Boston', 'Bruins', '1', '0', '0', '0', '0', '0', '0', '2', '29', '29', '50.0', '0', '0', '0.0', '2', '0', '100.0', '0', '0', '3', '3', '31', '3', '9', '16']"
"['', '15748', '2012-02-17', '01:00:00 GMT', '11', 'BOS', 'Boston', 'Bruins', '2', 'WPJ', 'Winnipeg', 'Jets', '39', 'MTS Centre', '11', 'BOS', 'Boston', 'Bruins', '0', '1', '0', '0', '0', '0', '0', '0', '29', '32', '47.5', '2', '0', '0.0', '2', '0', '100.0', '0', '0', '2', '4', '31', '3', '6', '23']"
"['', '15761', '2012-02-19', '20:00:00 GMT', '11', 'BOS', 'Boston', 'Bruins', '25', 'MIN', 'Minnesota', 'Wild', '30', 'Xcel Energy Center', '11', 'BOS', 'Boston', 'Bruins', '0', '1', '0', '0', '0', '0', '0', '0', '33', '35', '48.5', '1', '0', '0.0', '1', '1', '0.0', '0', '0', '0', '2', '48', '2', '7', '16']"
"['', '15782', '2012-02-22', '01:00:00 GMT', '11', 'BOS', 'Boston', 'Bruins', '17', 'STL', 'St. Louis', 'Blues', '24', 'Scottrade Center', '11', 'BOS', 'Boston', 'Bruins', '1', '0', '0', '0', '0', '0', '1', '2', '29', '28', '50.9', '1', '0', '0.0', '1', '0', '100.0', '0', '0', '4', '2', '15', '2', '7', '23']"
"['', '15797', '2012-02-24', '00:30:00 GMT', '11', 'BOS', 'Boston', 'Bruins', '15', 'BUF', 'Buffalo', 'Sabres', '10', 'First Niagara Center', '11', 'BOS', 'Boston', 'Bruins', '0', '0', '0', '1', '0', '0', '0', '1', '25', '31', '44.6', '4', '1', '25.0', '0', '0', '0.0', '0', '0', '1', '1', '35', '0', '0', '20']"
"['', '15804', '2012-02-25', '00:00:00 GMT', '11', 'BOS', 'Boston', 'Bruins', '13', 'OTT', 'Ottawa', 'Senators', '23', 'Scotiabank Place', '11', 'BOS', 'Boston', 'Bruins', '1', '0', '0', '0', '0', '0', '1', '2', '21', '29', '42.0', '2', '1', '50.0', '2', '0', '100.0', '0', '0', '5', '3', '33', '3', '9', '21']"
"['', '15822', '2012-02-28', '00:00:00 GMT', '13', 'OTT', 'Ottawa', 'Senators', '11', 'BOS', 'Boston', 'Bruins', '27', 'TD Garden', '11', 'BOS', 'Boston', 'Bruins', '0', '1', '0', '0', '0', '0', '0', '0', '37', '33', '52.9', '4', '0', '0.0', '3', '1', '66.7', '0', '0', '0', '1', '32', '3', '6', '28']"
"['', '15835', '2012-03-01', '00:00:00 GMT', '7', 'NJD', 'New Jersey', 'Devils', '11', 'BOS', 'Boston', 'Bruins', '27', 'TD Garden', '11', 'BOS', 'Boston', 'Bruins', '1', '0', '0', '0', '0', '0', '1', '2', '31', '21', '59.6', '2', '0', '0.0', '3', '0', '100.0', '0', '0', '4', '3', '21', '4', '11', '20']"
"['', '15850', '2012-03-03', '18:00:00 GMT', '8', 'NYI', 'New York', 'Islanders', '11', 'BOS', 'Boston', 'Bruins', '27', 'TD Garden', '11', 'BOS', 'Boston', 'Bruins', '0', '1', '0', '0', '0', '0', '0', '0', '40', '33', '54.8', '3', '1', '33.3', '3', '1', '66.7', '0', '0', '2', '3', '32', '3', '6', '19']"
"['', '15860', '2012-03-04', '20:00:00 GMT', '11', 'BOS', 'Boston', 'Bruins', '9', 'NYR', 'New York', 'Rangers', '12', 'Madison Square Garden', '11', 'BOS', 'Boston', 'Bruins', '0', '1', '0', '0', '0', '0', '0', '0', '31', '32', '49.2', '3', '0', '0.0', '2', '0', '100.0', '0', '0', '3', '4', '30', '5', '19', '15']"
"['', '15869', '2012-03-06', '00:00:00 GMT', '11', 'BOS', 'Boston', 'Bruins', '12', 'TOR', 'Toronto', 'Maple Leafs', '1', 'Air Canada Center', '11', 'BOS', 'Boston', 'Bruins', '1', '0', '0', '0', '0', '0', '1', '2', '23', '28', '45.1', '2', '0', '0.0', '5', '2', '60.0', '0', '0', '5', '4', '28', '8', '22', '38']"
"['', '15883', '2012-03-08', '00:00:00 GMT', '15', 'BUF', 'Buffalo', 'Sabres', '11', 'BOS', 'Boston', 'Bruins', '27', 'TD Garden', '11', 'BOS', 'Boston', 'Bruins', '1', '0', '0', '0', '0', '0', '1', '2', '38', '21', '64.4', '1', '0', '0.0', '1', '0', '100.0', '0', '0', '3', '1', '25', '1', '2', '30']"
"['', '15899', '2012-03-10', '18:00:00 GMT', '5', 'WSH', 'Washington', 'Capitals', '11', 'BOS', 'Boston', 'Bruins', '27', 'TD Garden', '11', 'BOS', 'Boston', 'Bruins', '0', '1', '0', '0', '0', '0', '0', '0', '30', '27', '52.6', '2', '0', '0.0', '3', '1', '66.7', '0', '0', '3', '4', '30', '4', '8', '30']"
"['', '15917', '2012-03-11', '23:30:00 GMT', '11', 'BOS', 'Boston', 'Bruins', '10', 'PIT', 'Pittsburgh', 'Penguins', '14', 'Civic Arena', '11', 'BOS', 'Boston', 'Bruins', '0', '1', '0', '0', '0', '0', '0', '0', '24', '32', '42.9', '2', '0', '0.0', '4', '1', '75.0', '0', '0', '2', '5', '34', '4', '8', '12']"
"['', '15925', '2012-03-13', '23:30:00 GMT', '11', 'BOS', 'Boston', 'Bruins', '1', 'TBL', 'Tampa Bay', 'Lightning', '26', 'St. Pete Times Forum', '11', 'BOS', 'Boston', 'Bruins', '0', '1', '0', '0', '0', '0', '0', '0', '34', '29', '54.0', '3', '0', '0.0', '3', '1', '66.7', '0', '0', '1', '6', '33', '4', '11', '23']"
"['', '15942', '2012-03-15', '23:30:00 GMT', '11', 'BOS', 'Boston', 'Bruins', '4', 'FLO', 'Florida', 'Panthers', '3', 'BankAtlantic Center', '11', 'BOS', 'Boston', 'Bruins', '0', '1', '0', '0', '0', '0', '0', '0', '31', '34', '47.7', '1', '1', '100.0', '3', '1', '66.7', '0', '0', '2', '6', '24', '3', '6', '38']"
"['', '15950', '2012-03-17', '17:00:00 GMT', '6', 'PHI', 'Philadelphia', 'Flyers', '11', 'BOS', 'Boston', 'Bruins', '27', 'TD Garden', '11', 'BOS', 'Boston', 'Bruins', '1', '0', '0', '0', '0', '0', '0', '2', '35', '20', '63.6', '1', '0', '0.0', '4', '1', '75.0', '0', '0', '2', '2', '31', '6', '18', '28']"
"['', '15966', '2012-03-19', '23:00:00 GMT', '12', 'TOR', 'Toronto', 'Maple Leafs', '11', 'BOS', 'Boston', 'Bruins', '27', 'TD Garden', '11', 'BOS', 'Boston', 'Bruins', '1', '0', '0', '0', '0', '0', '1', '2', '24', '25', '49.0', '2', '2', '100.0', '1', '0', '100.0', '0', '0', '8', '0', '16', '4', '14', '24']"
"['', '15993', '2012-03-22', '02:30:00 GMT', '11', 'BOS', 'Boston', 'Bruins', '26', 'SJS', 'San Jose', 'Sharks', '9', 'HP Pavilion at San Jose', '11', 'BOS', 'Boston', 'Bruins', '0', '1', '0', '0', '0', '0', '0', '0', '17', '21', '44.7', '1', '0', '0.0', '1', '0', '100.0', '0', '0', '1', '2', '16', '1', '2', '40']"
"['', '16001', '2012-03-24', '01:00:00 GMT', '11', 'BOS', 'Boston', 'Bruins', '28', 'LAK', 'Los Angeles', 'Kings', '25', 'Staples Center', '11', 'BOS', 'Boston', 'Bruins', '1', '0', '0', '0', '0', '0', '1', '2', '24', '34', '41.4', '1', '0', '0.0', '4', '0', '100.0', '1', '0', '4', '2', '22', '5', '13', '27']"
"['', '16016', '2012-03-25', '00:00:00 GMT', '11', 'BOS', 'Boston', 'Bruins', '29', 'ANA', 'Anaheim', 'Ducks', '8', 'Honda Center', '11', 'BOS', 'Boston', 'Bruins', '1', '0', '0', '0', '0', '0', '1', '2', '39', '28', '58.2', '2', '0', '0.0', '3', '1', '66.7', '0', '0', '3', '2', '22', '3', '6', '27']"
"['', '16024', '2012-03-27', '23:30:00 GMT', '1', 'TBL', 'Tampa Bay', 'Lightning', '11', 'BOS', 'Boston', 'Bruins', '27', 'TD Garden', '11', 'BOS', 'Boston', 'Bruins', '1', '0', '0', '0', '0', '0', '1', '2', '37', '17', '68.5', '5', '0', '0.0', '4', '1', '75.0', '0', '0', '5', '2', '33', '5', '10', '31']"
"['', '16038', '2012-03-29', '23:00:00 GMT', '5', 'WSH', 'Washington', 'Capitals', '11', 'BOS', 'Boston', 'Bruins', '27', 'TD Garden', '11', 'BOS', 'Boston', 'Bruins', '0', '0', '0', '1', '0', '0', '0', '1', '35', '23', '60.3', '1', '0', '0.0', '1', '0', '100.0', '0', '0', '2', '2', '26', '1', '2', '27']"
"['', '16053', '2012-03-31', '17:00:00 GMT', '11', 'BOS', 'Boston', 'Bruins', '8', 'NYI', 'New York', 'Islanders', '16', 'Nassau Veterans Memorial Coliseum', '11', 'BOS', 'Boston', 'Bruins', '1', '0', '0', '0', '0', '0', '1', '2', '36', '18', '66.7', '1', '0', '0.0', '2', '0', '100.0', '0', '0', '6', '3', '21', '3', '9', '19']"
"['', '16066', '2012-04-01', '19:00:00 GMT', '11', 'BOS', 'Boston', 'Bruins', '9', 'NYR', 'New York', 'Rangers', '12', 'Madison Square Garden', '11', 'BOS', 'Boston', 'Bruins', '1', '0', '0', '0', '0', '0', '1', '2', '32', '16', '66.7', '2', '1', '50.0', '3', '0', '100.0', '0', '0', '2', '1', '19', '3', '6', '22']"
"['', '16073', '2012-04-03', '23:30:00 GMT', '10', 'PIT', 'Pittsburgh', 'Penguins', '11', 'BOS', 'Boston', 'Bruins', '27', 'TD Garden', '11', 'BOS', 'Boston', 'Bruins', '0', '1', '0', '0', '0', '0', '0', '0', '29', '31', '48.3', '1', '0', '0.0', '5', '2', '60.0', '0', '0', '3', '5', '26', '6', '15', '26']"
"['', '16091', '2012-04-05', '23:30:00 GMT', '11', 'BOS', 'Boston', 'Bruins', '13', 'OTT', 'Ottawa', 'Senators', '23', 'Scotiabank Place', '11', 'BOS', 'Boston', 'Bruins', '1', '0', '0', '0', '0', '0', '1', '2', '31', '34', '47.7', '3', '0', '0.0', '3', '0', '100.0', '0', '0', '3', '1', '24', '4', '8', '20']"
"['', '16100', '2012-04-07', '19:00:00 GMT', '15', 'BUF', 'Buffalo', 'Sabres', '11', 'BOS', 'Boston', 'Bruins', '27', 'TD Garden', '11', 'BOS', 'Boston', 'Bruins', '1', '0', '0', '0', '0', '0', '0', '2', '25', '26', '49.0', '4', '1', '25.0', '1', '0', '100.0', '0', '0', '3', '3', '37', '2', '7', '13']"
