"['#Date/Time of Update: 2018-12-10 19:03:07 GMT', '#Game ID', '#Game Date', '#Game Time', '#Away Team ID', '#Away Team Abbr.', '#Away Team City', '#Away Team Name', '#Home Team ID', '#Home Team Abbr.', '#Home Team City', '#Home Team Name', '#Venue ID', '#Venue Name', '#Team ID', '#Team Abbr.', '#Team City', '#Team Name', '#Wins', '#Losses', '#OvertimeWins', '#OvertimeLosses', '#ShootoutWins', '#ShootoutLosses', '#Rows', '#Points', '#FaceoffWins', '#FaceoffLosses', '#FaceoffPercent', '#Powerplays', '#PowerplayGoals', '#PowerplayPercent', '#PenaltyKills', '#PenaltyKillGoalsAllowed', '#PenaltyKillPercent', '#ShorthandedGoalsFor', '#ShorthandedGoalsAgainst', '#GoalsFor', '#GoalsAgainst', '#Shots', '#Penalties', '#PenaltyMinutes', '#Hits']"
"['', '19722', '2013-01-19', '20:00:00 GMT', '10', 'PIT', 'Pittsburgh', 'Penguins', '6', 'PHI', 'Philadelphia', 'Flyers', '29', 'Wells Fargo Center', '10', 'PIT', 'Pittsburgh', 'Penguins', '1', '0', '0', '0', '0', '0', '1', '2', '35', '27', '56.5', '2', '2', '100.0', '5', '0', '100.0', '0', '0', '3', '1', '24', '5', '10', '37']"
"['', '19736', '2013-01-20', '00:00:00 GMT', '10', 'PIT', 'Pittsburgh', 'Penguins', '9', 'NYR', 'New York', 'Rangers', '12', 'Madison Square Garden', '10', 'PIT', 'Pittsburgh', 'Penguins', '1', '0', '0', '0', '0', '0', '1', '2', '27', '36', '42.9', '5', '2', '40.0', '3', '1', '66.7', '0', '1', '6', '3', '33', '6', '15', '21']"
"['', '19757', '2013-01-23', '00:00:00 GMT', '12', 'TOR', 'Toronto', 'Maple Leafs', '10', 'PIT', 'Pittsburgh', 'Penguins', '14', 'Civic Arena', '10', 'PIT', 'Pittsburgh', 'Penguins', '0', '1', '0', '0', '0', '0', '0', '0', '35', '34', '50.7', '5', '1', '20.0', '6', '1', '83.3', '0', '0', '2', '5', '28', '10', '31', '21']"
"['', '19776', '2013-01-25', '01:00:00 GMT', '10', 'PIT', 'Pittsburgh', 'Penguins', '2', 'WPJ', 'Winnipeg', 'Jets', '39', 'MTS Centre', '10', 'PIT', 'Pittsburgh', 'Penguins', '0', '1', '0', '0', '0', '0', '0', '0', '23', '27', '46.0', '1', '0', '0.0', '1', '1', '0.0', '0', '0', '2', '4', '33', '2', '4', '27']"
"['', '19787', '2013-01-27', '22:00:00 GMT', '10', 'PIT', 'Pittsburgh', 'Penguins', '13', 'OTT', 'Ottawa', 'Senators', '23', 'Canadian Tire Centre', '10', 'PIT', 'Pittsburgh', 'Penguins', '1', '0', '0', '0', '0', '0', '0', '2', '37', '32', '53.6', '5', '0', '0.0', '1', '0', '100.0', '0', '0', '1', '1', '33', '2', '4', '33']"
"['', '19804', '2013-01-29', '00:30:00 GMT', '8', 'NYI', 'New York', 'Islanders', '10', 'PIT', 'Pittsburgh', 'Penguins', '14', 'Civic Arena', '10', 'PIT', 'Pittsburgh', 'Penguins', '0', '1', '0', '0', '0', '0', '0', '0', '41', '31', '56.9', '3', '0', '0.0', '2', '2', '0.0', '0', '0', '1', '4', '37', '3', '6', '20']"
"['', '19816', '2013-01-31', '00:00:00 GMT', '10', 'PIT', 'Pittsburgh', 'Penguins', '9', 'NYR', 'New York', 'Rangers', '12', 'Madison Square Garden', '10', 'PIT', 'Pittsburgh', 'Penguins', '1', '0', '0', '0', '0', '0', '1', '2', '34', '33', '50.7', '5', '1', '20.0', '4', '0', '100.0', '0', '0', '3', '0', '26', '5', '10', '22']"
"['', '19829', '2013-02-02', '18:00:00 GMT', '7', 'NJD', 'New Jersey', 'Devils', '10', 'PIT', 'Pittsburgh', 'Penguins', '14', 'Civic Arena', '10', 'PIT', 'Pittsburgh', 'Penguins', '1', '0', '0', '0', '0', '0', '1', '2', '34', '21', '61.8', '3', '0', '0.0', '2', '0', '100.0', '0', '1', '5', '1', '25', '2', '4', '23']"
"['', '19840', '2013-02-03', '17:30:00 GMT', '10', 'PIT', 'Pittsburgh', 'Penguins', '5', 'WSH', 'Washington', 'Capitals', '13', 'Verizon Center', '10', 'PIT', 'Pittsburgh', 'Penguins', '1', '0', '0', '0', '0', '0', '1', '2', '34', '37', '47.9', '1', '2', '1.0', '4', '1', '75.0', '0', '0', '6', '3', '20', '4', '8', '29']"
"['', '19850', '2013-02-05', '00:00:00 GMT', '10', 'PIT', 'Pittsburgh', 'Penguins', '8', 'NYI', 'New York', 'Islanders', '16', 'Nassau Veterans Memorial Coliseum', '10', 'PIT', 'Pittsburgh', 'Penguins', '1', '0', '0', '0', '0', '0', '1', '2', '25', '28', '47.2', '3', '1', '33.3', '7', '0', '100.0', '0', '0', '4', '2', '22', '8', '19', '21']"
"['', '19866', '2013-02-07', '00:00:00 GMT', '5', 'WSH', 'Washington', 'Capitals', '10', 'PIT', 'Pittsburgh', 'Penguins', '14', 'Civic Arena', '10', 'PIT', 'Pittsburgh', 'Penguins', '1', '0', '0', '0', '0', '0', '1', '2', '36', '26', '58.1', '4', '2', '50.0', '2', '1', '50.0', '0', '0', '5', '2', '23', '3', '6', '19']"
"['', '19876', '2013-02-09', '18:00:00 GMT', '10', 'PIT', 'Pittsburgh', 'Penguins', '7', 'NJD', 'New Jersey', 'Devils', '5', 'Izod Center', '10', 'PIT', 'Pittsburgh', 'Penguins', '0', '1', '0', '0', '0', '0', '0', '0', '32', '28', '53.3', '5', '1', '20.0', '9', '2', '77.8', '0', '0', '1', '3', '24', '13', '29', '8']"
"['', '19891', '2013-02-10', '00:30:00 GMT', '7', 'NJD', 'New Jersey', 'Devils', '10', 'PIT', 'Pittsburgh', 'Penguins', '14', 'Civic Arena', '10', 'PIT', 'Pittsburgh', 'Penguins', '0', '1', '0', '0', '0', '0', '0', '0', '34', '21', '61.8', '3', '1', '33.3', '1', '1', '0.0', '0', '0', '1', '3', '23', '2', '7', '21']"
"['', '19909', '2013-02-13', '00:00:00 GMT', '13', 'OTT', 'Ottawa', 'Senators', '10', 'PIT', 'Pittsburgh', 'Penguins', '14', 'Civic Arena', '10', 'PIT', 'Pittsburgh', 'Penguins', '1', '0', '0', '0', '0', '0', '1', '2', '31', '29', '51.7', '4', '1', '25.0', '4', '0', '100.0', '0', '0', '4', '2', '26', '5', '18', '21']"
"['', '19920', '2013-02-15', '00:00:00 GMT', '10', 'PIT', 'Pittsburgh', 'Penguins', '2', 'WPJ', 'Winnipeg', 'Jets', '39', 'MTS Centre', '10', 'PIT', 'Pittsburgh', 'Penguins', '1', '0', '0', '0', '0', '0', '1', '2', '30', '26', '53.6', '3', '1', '33.3', '2', '0', '100.0', '0', '0', '3', '1', '25', '4', '14', '24']"
"['', '19933', '2013-02-17', '17:30:00 GMT', '10', 'PIT', 'Pittsburgh', 'Penguins', '15', 'BUF', 'Buffalo', 'Sabres', '10', 'First Niagara Center', '10', 'PIT', 'Pittsburgh', 'Penguins', '1', '0', '0', '0', '0', '0', '1', '2', '34', '34', '50.0', '4', '1', '25.0', '3', '1', '66.7', '0', '0', '4', '3', '31', '6', '15', '18']"
"['', '19955', '2013-02-20', '00:30:00 GMT', '6', 'PHI', 'Philadelphia', 'Flyers', '10', 'PIT', 'Pittsburgh', 'Penguins', '14', 'Civic Arena', '10', 'PIT', 'Pittsburgh', 'Penguins', '0', '1', '0', '0', '0', '0', '0', '0', '41', '20', '67.2', '5', '2', '40.0', '6', '1', '83.3', '0', '0', '5', '6', '27', '10', '23', '11']"
"['', '19968', '2013-02-22', '00:00:00 GMT', '4', 'FLO', 'Florida', 'Panthers', '10', 'PIT', 'Pittsburgh', 'Penguins', '14', 'Civic Arena', '10', 'PIT', 'Pittsburgh', 'Penguins', '1', '0', '0', '0', '0', '0', '1', '2', '26', '26', '50.0', '4', '1', '25.0', '2', '0', '100.0', '0', '0', '3', '1', '37', '2', '4', '20']"
"['', '19988', '2013-02-24', '00:30:00 GMT', '1', 'TBL', 'Tampa Bay', 'Lightning', '10', 'PIT', 'Pittsburgh', 'Penguins', '14', 'Civic Arena', '10', 'PIT', 'Pittsburgh', 'Penguins', '1', '0', '0', '0', '0', '0', '1', '2', '32', '36', '47.1', '2', '1', '50.0', '2', '1', '50.0', '0', '0', '5', '3', '17', '3', '9', '26']"
"['', '20001', '2013-02-26', '00:30:00 GMT', '10', 'PIT', 'Pittsburgh', 'Penguins', '4', 'FLO', 'Florida', 'Panthers', '3', 'BB&T Center', '10', 'PIT', 'Pittsburgh', 'Penguins', '0', '1', '0', '0', '0', '0', '0', '0', '30', '32', '48.4', '4', '1', '25.0', '7', '4', '42.9', '0', '0', '4', '6', '30', '9', '18', '29']"
"['', '20012', '2013-02-28', '00:00:00 GMT', '10', 'PIT', 'Pittsburgh', 'Penguins', '3', 'CAR', 'Carolina', 'Hurricanes', '21', 'RBC Center', '10', 'PIT', 'Pittsburgh', 'Penguins', '0', '1', '0', '0', '0', '0', '0', '0', '36', '28', '56.2', '4', '0', '0.0', '5', '0', '100.0', '0', '0', '1', '4', '26', '8', '19', '29']"
"['', '20027', '2013-03-02', '00:00:00 GMT', '10', 'PIT', 'Pittsburgh', 'Penguins', '14', 'MTL', 'Montreal', 'Canadiens', '4', 'Bell Centre', '10', 'PIT', 'Pittsburgh', 'Penguins', '1', '0', '0', '0', '0', '0', '1', '2', '32', '33', '49.2', '2', '1', '50.0', '3', '0', '100.0', '0', '0', '7', '6', '29', '4', '8', '23']"
"['', '20042', '2013-03-04', '00:30:00 GMT', '1', 'TBL', 'Tampa Bay', 'Lightning', '10', 'PIT', 'Pittsburgh', 'Penguins', '14', 'Civic Arena', '10', 'PIT', 'Pittsburgh', 'Penguins', '1', '0', '0', '0', '0', '0', '1', '2', '31', '35', '47.0', '3', '0', '0.0', '1', '0', '100.0', '0', '0', '4', '3', '28', '3', '9', '28']"
"['', '20063', '2013-03-07', '00:00:00 GMT', '10', 'PIT', 'Pittsburgh', 'Penguins', '6', 'PHI', 'Philadelphia', 'Flyers', '29', 'Wells Fargo Center', '10', 'PIT', 'Pittsburgh', 'Penguins', '1', '0', '0', '0', '0', '0', '1', '2', '27', '33', '45.0', '2', '1', '50.0', '3', '2', '33.3', '0', '0', '5', '4', '17', '6', '12', '22']"
"['', '20080', '2013-03-09', '00:00:00 GMT', '10', 'PIT', 'Pittsburgh', 'Penguins', '12', 'TOR', 'Toronto', 'Maple Leafs', '1', 'Air Canada Center', '10', 'PIT', 'Pittsburgh', 'Penguins', '1', '0', '0', '0', '0', '0', '0', '2', '25', '38', '39.7', '3', '0', '0.0', '3', '2', '33.3', '0', '0', '4', '4', '37', '3', '6', '28']"
"['', '20090', '2013-03-10', '23:00:00 GMT', '8', 'NYI', 'New York', 'Islanders', '10', 'PIT', 'Pittsburgh', 'Penguins', '14', 'Civic Arena', '10', 'PIT', 'Pittsburgh', 'Penguins', '1', '0', '0', '0', '0', '0', '1', '2', '39', '19', '67.2', '4', '2', '50.0', '3', '0', '100.0', '0', '0', '6', '1', '22', '4', '8', '17']"
"['', '20101', '2013-03-12', '23:30:00 GMT', '11', 'BOS', 'Boston', 'Bruins', '10', 'PIT', 'Pittsburgh', 'Penguins', '14', 'Civic Arena', '10', 'PIT', 'Pittsburgh', 'Penguins', '1', '0', '0', '0', '0', '0', '1', '2', '28', '33', '45.9', '4', '0', '0.0', '1', '1', '0.0', '0', '0', '3', '2', '31', '2', '4', '27']"
"['', '20113', '2013-03-14', '23:00:00 GMT', '10', 'PIT', 'Pittsburgh', 'Penguins', '12', 'TOR', 'Toronto', 'Maple Leafs', '1', 'Air Canada Center', '10', 'PIT', 'Pittsburgh', 'Penguins', '1', '0', '0', '0', '0', '0', '1', '2', '36', '26', '58.1', '3', '0', '0.0', '3', '0', '100.0', '1', '0', '3', '1', '25', '3', '6', '30']"
"['', '20127', '2013-03-16', '17:00:00 GMT', '9', 'NYR', 'New York', 'Rangers', '10', 'PIT', 'Pittsburgh', 'Penguins', '14', 'Civic Arena', '10', 'PIT', 'Pittsburgh', 'Penguins', '1', '0', '0', '0', '0', '0', '1', '2', '22', '32', '40.7', '3', '1', '33.3', '1', '0', '100.0', '0', '0', '3', '0', '24', '3', '6', '14']"
"['', '20139', '2013-03-17', '16:30:00 GMT', '11', 'BOS', 'Boston', 'Bruins', '10', 'PIT', 'Pittsburgh', 'Penguins', '14', 'Civic Arena', '10', 'PIT', 'Pittsburgh', 'Penguins', '1', '0', '0', '0', '0', '0', '1', '2', '23', '26', '46.9', '1', '0', '0.0', '2', '0', '100.0', '0', '0', '2', '1', '16', '2', '4', '30']"
"['', '20155', '2013-03-19', '23:30:00 GMT', '5', 'WSH', 'Washington', 'Capitals', '10', 'PIT', 'Pittsburgh', 'Penguins', '14', 'Civic Arena', '10', 'PIT', 'Pittsburgh', 'Penguins', '1', '0', '0', '0', '0', '0', '1', '2', '30', '31', '49.2', '3', '1', '33.3', '4', '1', '75.0', '0', '0', '2', '1', '34', '5', '10', '30']"
"['', '20173', '2013-03-22', '23:00:00 GMT', '10', 'PIT', 'Pittsburgh', 'Penguins', '8', 'NYI', 'New York', 'Islanders', '16', 'Nassau Veterans Memorial Coliseum', '10', 'PIT', 'Pittsburgh', 'Penguins', '1', '0', '0', '0', '0', '0', '1', '2', '30', '23', '56.6', '1', '0', '0.0', '2', '0', '100.0', '0', '0', '4', '2', '21', '3', '9', '18']"
"['', '20187', '2013-03-24', '23:00:00 GMT', '6', 'PHI', 'Philadelphia', 'Flyers', '10', 'PIT', 'Pittsburgh', 'Penguins', '14', 'Civic Arena', '10', 'PIT', 'Pittsburgh', 'Penguins', '1', '0', '0', '0', '0', '0', '1', '2', '22', '29', '43.1', '3', '1', '33.3', '1', '1', '0.0', '0', '0', '2', '1', '33', '1', '2', '35']"
"['', '20443', '2013-03-26', '23:30:00 GMT', '14', 'MTL', 'Montreal', 'Canadiens', '10', 'PIT', 'Pittsburgh', 'Penguins', '14', 'Civic Arena', '10', 'PIT', 'Pittsburgh', 'Penguins', '1', '0', '0', '0', '0', '0', '1', '2', '28', '35', '44.4', '2', '0', '0.0', '2', '0', '100.0', '0', '0', '1', '0', '23', '3', '9', '32']"
"['', '20215', '2013-03-28', '23:00:00 GMT', '2', 'WPJ', 'Winnipeg', 'Jets', '10', 'PIT', 'Pittsburgh', 'Penguins', '14', 'Civic Arena', '10', 'PIT', 'Pittsburgh', 'Penguins', '1', '0', '0', '0', '0', '0', '1', '2', '37', '19', '66.1', '0', '0', '0.0', '4', '0', '100.0', '1', '0', '4', '0', '38', '4', '8', '25']"
"['', '20228', '2013-03-30', '17:00:00 GMT', '8', 'NYI', 'New York', 'Islanders', '10', 'PIT', 'Pittsburgh', 'Penguins', '14', 'Civic Arena', '10', 'PIT', 'Pittsburgh', 'Penguins', '1', '0', '0', '0', '0', '0', '1', '2', '39', '22', '63.9', '2', '0', '0.0', '3', '0', '100.0', '0', '0', '2', '0', '24', '5', '21', '31']"
"['', '20255', '2013-04-02', '23:30:00 GMT', '15', 'BUF', 'Buffalo', 'Sabres', '10', 'PIT', 'Pittsburgh', 'Penguins', '14', 'Civic Arena', '10', 'PIT', 'Pittsburgh', 'Penguins', '0', '1', '0', '0', '0', '0', '0', '0', '23', '34', '40.4', '3', '0', '0.0', '5', '0', '100.0', '0', '1', '1', '4', '15', '5', '10', '36']"
"['', '20259', '2013-04-03', '23:30:00 GMT', '10', 'PIT', 'Pittsburgh', 'Penguins', '9', 'NYR', 'New York', 'Rangers', '12', 'Madison Square Garden', '10', 'PIT', 'Pittsburgh', 'Penguins', '0', '1', '0', '0', '0', '0', '0', '0', '28', '36', '43.8', '2', '0', '0.0', '4', '3', '25.0', '0', '0', '1', '6', '20', '7', '25', '50']"
"['', '20275', '2013-04-05', '23:00:00 GMT', '9', 'NYR', 'New York', 'Rangers', '10', 'PIT', 'Pittsburgh', 'Penguins', '14', 'Civic Arena', '10', 'PIT', 'Pittsburgh', 'Penguins', '1', '0', '0', '0', '0', '0', '0', '2', '36', '25', '59.0', '2', '0', '0.0', '2', '0', '100.0', '0', '0', '1', '1', '21', '3', '9', '44']"
"['', '20304', '2013-04-09', '23:00:00 GMT', '10', 'PIT', 'Pittsburgh', 'Penguins', '3', 'CAR', 'Carolina', 'Hurricanes', '21', 'RBC Center', '10', 'PIT', 'Pittsburgh', 'Penguins', '1', '0', '0', '0', '0', '0', '1', '2', '24', '35', '40.7', '2', '0', '0.0', '2', '1', '50.0', '0', '0', '5', '3', '25', '3', '9', '40']"
"['', '20321', '2013-04-11', '23:30:00 GMT', '10', 'PIT', 'Pittsburgh', 'Penguins', '1', 'TBL', 'Tampa Bay', 'Lightning', '26', 'Tampa Bay Times Forum', '10', 'PIT', 'Pittsburgh', 'Penguins', '1', '0', '0', '0', '0', '0', '1', '2', '26', '33', '44.1', '6', '3', '50.0', '4', '3', '25.0', '0', '0', '6', '3', '35', '10', '23', '24']"
"['', '20337', '2013-04-13', '23:30:00 GMT', '10', 'PIT', 'Pittsburgh', 'Penguins', '4', 'FLO', 'Florida', 'Panthers', '3', 'BB&T Center', '10', 'PIT', 'Pittsburgh', 'Penguins', '1', '0', '0', '0', '0', '0', '1', '2', '31', '21', '59.6', '2', '1', '50.0', '4', '0', '100.0', '0', '0', '3', '1', '16', '4', '8', '43']"
"['', '20361', '2013-04-17', '23:00:00 GMT', '14', 'MTL', 'Montreal', 'Canadiens', '10', 'PIT', 'Pittsburgh', 'Penguins', '14', 'Civic Arena', '10', 'PIT', 'Pittsburgh', 'Penguins', '1', '0', '0', '0', '0', '0', '1', '2', '28', '33', '45.9', '6', '2', '33.3', '3', '0', '100.0', '0', '0', '6', '4', '23', '5', '13', '33']"
"['', '20444', '2013-04-20', '16:30:00 GMT', '10', 'PIT', 'Pittsburgh', 'Penguins', '11', 'BOS', 'Boston', 'Bruins', '27', 'TD Garden', '10', 'PIT', 'Pittsburgh', 'Penguins', '1', '0', '0', '0', '0', '0', '1', '2', '29', '43', '40.3', '6', '2', '33.3', '2', '1', '50.0', '0', '0', '3', '2', '21', '7', '20', '30']"
"['', '20397', '2013-04-22', '23:30:00 GMT', '10', 'PIT', 'Pittsburgh', 'Penguins', '13', 'OTT', 'Ottawa', 'Senators', '23', 'Canadian Tire Centre', '10', 'PIT', 'Pittsburgh', 'Penguins', '1', '0', '0', '0', '0', '0', '1', '2', '31', '27', '53.4', '3', '0', '0.0', '5', '1', '80.0', '0', '0', '3', '1', '21', '12', '35', '33']"
"['', '20446', '2013-04-23', '23:30:00 GMT', '15', 'BUF', 'Buffalo', 'Sabres', '10', 'PIT', 'Pittsburgh', 'Penguins', '14', 'Civic Arena', '10', 'PIT', 'Pittsburgh', 'Penguins', '0', '1', '0', '0', '0', '0', '0', '0', '34', '22', '60.7', '3', '1', '33.3', '0', '0', '0.0', '0', '0', '2', '4', '40', '1', '2', '17']"
"['', '20417', '2013-04-25', '23:30:00 GMT', '10', 'PIT', 'Pittsburgh', 'Penguins', '7', 'NJD', 'New Jersey', 'Devils', '5', 'Izod Center', '10', 'PIT', 'Pittsburgh', 'Penguins', '0', '1', '0', '0', '0', '0', '0', '0', '25', '24', '51.0', '3', '1', '33.3', '2', '1', '50.0', '0', '0', '2', '3', '16', '3', '6', '15']"
"['', '20430', '2013-04-27', '23:00:00 GMT', '3', 'CAR', 'Carolina', 'Hurricanes', '10', 'PIT', 'Pittsburgh', 'Penguins', '14', 'Civic Arena', '10', 'PIT', 'Pittsburgh', 'Penguins', '1', '0', '0', '0', '0', '0', '1', '2', '38', '25', '60.3', '2', '2', '100.0', '3', '0', '100.0', '0', '0', '8', '3', '27', '4', '8', '18']"
