"['#Date/Time of Update: 2018-12-10 19:03:14 GMT', '#Game ID', '#Game Date', '#Game Time', '#Away Team ID', '#Away Team Abbr.', '#Away Team City', '#Away Team Name', '#Home Team ID', '#Home Team Abbr.', '#Home Team City', '#Home Team Name', '#Venue ID', '#Venue Name', '#Team ID', '#Team Abbr.', '#Team City', '#Team Name', '#Wins', '#Losses', '#OvertimeWins', '#OvertimeLosses', '#ShootoutWins', '#ShootoutLosses', '#Rows', '#Points', '#FaceoffWins', '#FaceoffLosses', '#FaceoffPercent', '#Powerplays', '#PowerplayGoals', '#PowerplayPercent', '#PenaltyKills', '#PenaltyKillGoalsAllowed', '#PenaltyKillPercent', '#ShorthandedGoalsFor', '#ShorthandedGoalsAgainst', '#GoalsFor', '#GoalsAgainst', '#Shots', '#Penalties', '#PenaltyMinutes', '#Hits']"
"['', '27699', '2014-10-09', '23:00:00 GMT', '19', 'CBJ', 'Columbus', 'Blue Jackets', '15', 'BUF', 'Buffalo', 'Sabres', '10', 'First Niagara Center', '19', 'CBJ', 'Columbus', 'Blue Jackets', '1', '0', '0', '0', '0', '0', '1', '2', '28', '29', '49.1', '3', '1', '33.3', '1', '0', '100.0', '0', '0', '3', '1', '37', '2', '4', '15']"
"['', '27719', '2014-10-11', '23:00:00 GMT', '9', 'NYR', 'New York', 'Rangers', '19', 'CBJ', 'Columbus', 'Blue Jackets', '17', 'Nationwide Arena', '19', 'CBJ', 'Columbus', 'Blue Jackets', '1', '0', '0', '0', '0', '0', '1', '2', '31', '30', '50.8', '4', '0', '0.0', '2', '0', '100.0', '0', '0', '5', '2', '19', '5', '13', '29']"
"['', '27736', '2014-10-14', '23:00:00 GMT', '27', 'DAL', 'Dallas', 'Stars', '19', 'CBJ', 'Columbus', 'Blue Jackets', '17', 'Nationwide Arena', '19', 'CBJ', 'Columbus', 'Blue Jackets', '0', '1', '0', '0', '0', '0', '0', '0', '42', '32', '56.8', '4', '1', '25.0', '1', '0', '100.0', '0', '0', '2', '4', '33', '2', '7', '27']"
"['', '27752', '2014-10-17', '23:00:00 GMT', '23', 'CGY', 'Calgary', 'Flames', '19', 'CBJ', 'Columbus', 'Blue Jackets', '17', 'Nationwide Arena', '19', 'CBJ', 'Columbus', 'Blue Jackets', '1', '0', '0', '0', '0', '0', '1', '2', '43', '25', '63.2', '5', '1', '20.0', '4', '0', '100.0', '0', '0', '3', '2', '23', '5', '13', '16']"
"['', '27760', '2014-10-18', '23:00:00 GMT', '19', 'CBJ', 'Columbus', 'Blue Jackets', '13', 'OTT', 'Ottawa', 'Senators', '23', 'Canadian Tire Centre', '19', 'CBJ', 'Columbus', 'Blue Jackets', '0', '1', '0', '0', '0', '0', '0', '0', '33', '29', '53.2', '2', '0', '0.0', '2', '0', '100.0', '0', '0', '2', '3', '38', '4', '8', '16']"
"['', '27794', '2014-10-23', '02:30:00 GMT', '19', 'CBJ', 'Columbus', 'Blue Jackets', '26', 'SJS', 'San Jose', 'Sharks', '9', 'SAP Center at San Jose', '19', 'CBJ', 'Columbus', 'Blue Jackets', '1', '0', '0', '0', '0', '0', '1', '2', '33', '33', '50.0', '5', '1', '20.0', '5', '1', '80.0', '1', '0', '5', '4', '23', '6', '15', '13']"
"['', '27799', '2014-10-24', '02:00:00 GMT', '19', 'CBJ', 'Columbus', 'Blue Jackets', '29', 'ANA', 'Anaheim', 'Ducks', '8', 'Honda Center', '19', 'CBJ', 'Columbus', 'Blue Jackets', '0', '1', '0', '0', '0', '0', '0', '0', '26', '41', '38.8', '3', '1', '33.3', '4', '2', '50.0', '0', '0', '1', '4', '16', '5', '13', '33']"
"['', '27812', '2014-10-26', '20:00:00 GMT', '19', 'CBJ', 'Columbus', 'Blue Jackets', '28', 'LAK', 'Los Angeles', 'Kings', '25', 'Staples Center', '19', 'CBJ', 'Columbus', 'Blue Jackets', '0', '1', '0', '0', '0', '0', '0', '0', '29', '40', '42.0', '3', '1', '33.3', '3', '1', '66.7', '0', '0', '2', '5', '22', '5', '13', '37']"
"['', '27819', '2014-10-28', '23:00:00 GMT', '13', 'OTT', 'Ottawa', 'Senators', '19', 'CBJ', 'Columbus', 'Blue Jackets', '17', 'Nationwide Arena', '19', 'CBJ', 'Columbus', 'Blue Jackets', '0', '1', '0', '0', '0', '0', '0', '0', '35', '30', '53.8', '4', '1', '25.0', '3', '2', '33.3', '0', '0', '2', '5', '36', '8', '31', '44']"
"['', '27842', '2014-10-31', '23:00:00 GMT', '12', 'TOR', 'Toronto', 'Maple Leafs', '19', 'CBJ', 'Columbus', 'Blue Jackets', '17', 'Nationwide Arena', '19', 'CBJ', 'Columbus', 'Blue Jackets', '0', '1', '0', '0', '0', '0', '0', '0', '29', '41', '41.4', '4', '1', '25.0', '2', '1', '50.0', '0', '0', '1', '4', '28', '2', '4', '37']"
"['', '27852', '2014-11-01', '23:00:00 GMT', '19', 'CBJ', 'Columbus', 'Blue Jackets', '7', 'NJD', 'New Jersey', 'Devils', '37', 'Prudential Center', '19', 'CBJ', 'Columbus', 'Blue Jackets', '0', '1', '0', '0', '0', '0', '0', '0', '28', '32', '46.7', '4', '1', '25.0', '5', '2', '60.0', '0', '0', '2', '3', '32', '8', '16', '18']"
"['', '27870', '2014-11-04', '00:00:00 GMT', '3', 'CAR', 'Carolina', 'Hurricanes', '19', 'CBJ', 'Columbus', 'Blue Jackets', '17', 'Nationwide Arena', '19', 'CBJ', 'Columbus', 'Blue Jackets', '0', '1', '0', '0', '0', '0', '0', '0', '27', '46', '37.0', '3', '1', '33.3', '6', '0', '100.0', '0', '1', '2', '4', '17', '7', '17', '30']"
"['', '27892', '2014-11-07', '00:00:00 GMT', '19', 'CBJ', 'Columbus', 'Blue Jackets', '3', 'CAR', 'Carolina', 'Hurricanes', '21', 'RBC Center', '19', 'CBJ', 'Columbus', 'Blue Jackets', '0', '0', '0', '1', '0', '0', '0', '1', '31', '42', '42.5', '4', '0', '0.0', '7', '1', '85.7', '0', '0', '2', '3', '29', '8', '16', '34']"
"['', '27901', '2014-11-08', '00:00:00 GMT', '1', 'TBL', 'Tampa Bay', 'Lightning', '19', 'CBJ', 'Columbus', 'Blue Jackets', '17', 'Nationwide Arena', '19', 'CBJ', 'Columbus', 'Blue Jackets', '0', '1', '0', '0', '0', '0', '0', '0', '38', '27', '58.5', '5', '3', '60.0', '3', '2', '33.3', '0', '0', '4', '7', '28', '6', '28', '37']"
"['', '27917', '2014-11-11', '00:00:00 GMT', '19', 'CBJ', 'Columbus', 'Blue Jackets', '5', 'WSH', 'Washington', 'Capitals', '13', 'Verizon Center', '19', 'CBJ', 'Columbus', 'Blue Jackets', '0', '1', '0', '0', '0', '0', '0', '0', '25', '41', '37.9', '4', '0', '0.0', '5', '1', '80.0', '0', '0', '2', '4', '24', '5', '10', '40']"
"['', '27937', '2014-11-14', '00:00:00 GMT', '19', 'CBJ', 'Columbus', 'Blue Jackets', '6', 'PHI', 'Philadelphia', 'Flyers', '29', 'Wells Fargo Center', '19', 'CBJ', 'Columbus', 'Blue Jackets', '1', '0', '0', '0', '0', '0', '1', '2', '27', '34', '44.3', '4', '3', '75.0', '3', '3', '0.0', '0', '0', '4', '3', '34', '3', '6', '26']"
"['', '27950', '2014-11-15', '00:00:00 GMT', '26', 'SJS', 'San Jose', 'Sharks', '19', 'CBJ', 'Columbus', 'Blue Jackets', '17', 'Nationwide Arena', '19', 'CBJ', 'Columbus', 'Blue Jackets', '1', '0', '0', '0', '0', '0', '1', '2', '32', '22', '59.3', '3', '1', '33.3', '3', '0', '100.0', '0', '0', '2', '1', '26', '2', '6', '28']"
"['', '27963', '2014-11-18', '00:00:00 GMT', '16', 'DET', 'Detroit', 'Red Wings', '19', 'CBJ', 'Columbus', 'Blue Jackets', '17', 'Nationwide Arena', '19', 'CBJ', 'Columbus', 'Blue Jackets', '0', '1', '0', '0', '0', '0', '0', '0', '24', '36', '40.0', '3', '0', '0.0', '4', '2', '50.0', '0', '0', '0', '5', '28', '6', '15', '26']"
"['', '27985', '2014-11-21', '00:00:00 GMT', '11', 'BOS', 'Boston', 'Bruins', '19', 'CBJ', 'Columbus', 'Blue Jackets', '17', 'Nationwide Arena', '19', 'CBJ', 'Columbus', 'Blue Jackets', '0', '0', '0', '1', '0', '0', '0', '1', '32', '23', '58.2', '2', '0', '0.0', '1', '0', '100.0', '0', '0', '3', '3', '25', '2', '4', '38']"
"['', '27995', '2014-11-22', '00:00:00 GMT', '19', 'CBJ', 'Columbus', 'Blue Jackets', '6', 'PHI', 'Philadelphia', 'Flyers', '29', 'Wells Fargo Center', '19', 'CBJ', 'Columbus', 'Blue Jackets', '0', '1', '0', '0', '0', '0', '0', '0', '20', '36', '35.7', '3', '1', '33.3', '4', '1', '75.0', '0', '0', '2', '4', '20', '6', '15', '30']"
"['', '28010', '2014-11-25', '00:00:00 GMT', '2', 'WPJ', 'Winnipeg', 'Jets', '19', 'CBJ', 'Columbus', 'Blue Jackets', '17', 'Nationwide Arena', '19', 'CBJ', 'Columbus', 'Blue Jackets', '0', '1', '0', '0', '0', '0', '0', '0', '35', '32', '52.2', '5', '1', '20.0', '2', '2', '0.0', '0', '0', '2', '4', '32', '5', '15', '36']"
"['', '28034', '2014-11-28', '00:00:00 GMT', '21', 'VAN', 'Vancouver', 'Canucks', '19', 'CBJ', 'Columbus', 'Blue Jackets', '17', 'Nationwide Arena', '19', 'CBJ', 'Columbus', 'Blue Jackets', '0', '1', '0', '0', '0', '0', '0', '0', '35', '31', '53.0', '2', '0', '0.0', '2', '0', '100.0', '0', '0', '0', '5', '31', '2', '4', '35']"
"['', '28044', '2014-11-29', '01:00:00 GMT', '19', 'CBJ', 'Columbus', 'Blue Jackets', '18', 'NSH', 'Nashville', 'Predators', '15', 'Bridgestone Arena', '19', 'CBJ', 'Columbus', 'Blue Jackets', '0', '1', '0', '0', '0', '0', '0', '0', '35', '31', '53.0', '4', '1', '25.0', '4', '0', '100.0', '0', '0', '1', '2', '21', '4', '8', '25']"
"['', '28052', '2014-12-01', '00:00:00 GMT', '4', 'FLO', 'Florida', 'Panthers', '19', 'CBJ', 'Columbus', 'Blue Jackets', '17', 'Nationwide Arena', '19', 'CBJ', 'Columbus', 'Blue Jackets', '1', '0', '0', '0', '0', '0', '1', '2', '31', '25', '55.4', '1', '0', '0.0', '3', '1', '66.7', '0', '0', '2', '1', '21', '3', '6', '39']"
"['', '28076', '2014-12-04', '00:30:00 GMT', '19', 'CBJ', 'Columbus', 'Blue Jackets', '4', 'FLO', 'Florida', 'Panthers', '3', 'BB&T Center', '19', 'CBJ', 'Columbus', 'Blue Jackets', '1', '0', '0', '0', '0', '0', '0', '2', '28', '47', '37.3', '1', '0', '0.0', '5', '1', '80.0', '0', '0', '3', '3', '17', '7', '17', '40']"
"['', '28091', '2014-12-06', '00:00:00 GMT', '19', 'CBJ', 'Columbus', 'Blue Jackets', '1', 'TBL', 'Tampa Bay', 'Lightning', '26', 'Amalie Arena', '19', 'CBJ', 'Columbus', 'Blue Jackets', '1', '0', '0', '0', '0', '0', '1', '2', '26', '28', '48.1', '4', '1', '25.0', '2', '0', '100.0', '0', '0', '3', '1', '17', '5', '10', '28']"
"['', '28105', '2014-12-09', '00:00:00 GMT', '6', 'PHI', 'Philadelphia', 'Flyers', '19', 'CBJ', 'Columbus', 'Blue Jackets', '17', 'Nationwide Arena', '19', 'CBJ', 'Columbus', 'Blue Jackets', '1', '0', '0', '0', '0', '0', '1', '2', '27', '27', '50.0', '4', '2', '50.0', '3', '1', '66.7', '0', '0', '3', '2', '21', '4', '8', '43']"
"['', '28118', '2014-12-11', '00:00:00 GMT', '19', 'CBJ', 'Columbus', 'Blue Jackets', '5', 'WSH', 'Washington', 'Capitals', '13', 'Verizon Center', '19', 'CBJ', 'Columbus', 'Blue Jackets', '1', '0', '0', '0', '0', '0', '1', '2', '26', '36', '41.9', '3', '1', '33.3', '5', '1', '80.0', '0', '0', '3', '2', '20', '7', '14', '30']"
"['', '28135', '2014-12-13', '00:00:00 GMT', '10', 'PIT', 'Pittsburgh', 'Penguins', '19', 'CBJ', 'Columbus', 'Blue Jackets', '17', 'Nationwide Arena', '19', 'CBJ', 'Columbus', 'Blue Jackets', '1', '0', '0', '0', '0', '0', '0', '2', '32', '29', '52.5', '5', '1', '20.0', '4', '0', '100.0', '0', '1', '3', '3', '24', '12', '38', '38']"
"['', '28150', '2014-12-16', '00:30:00 GMT', '19', 'CBJ', 'Columbus', 'Blue Jackets', '16', 'DET', 'Detroit', 'Red Wings', '11', 'Joe Louis Arena', '19', 'CBJ', 'Columbus', 'Blue Jackets', '1', '0', '0', '0', '0', '0', '0', '2', '29', '26', '52.7', '3', '0', '0.0', '1', '0', '100.0', '0', '0', '0', '0', '29', '1', '2', '42']"
"['', '28164', '2014-12-18', '00:00:00 GMT', '5', 'WSH', 'Washington', 'Capitals', '19', 'CBJ', 'Columbus', 'Blue Jackets', '17', 'Nationwide Arena', '19', 'CBJ', 'Columbus', 'Blue Jackets', '0', '0', '0', '1', '0', '0', '0', '1', '34', '28', '54.8', '6', '2', '33.3', '3', '0', '100.0', '0', '0', '4', '5', '22', '8', '25', '36']"
"['', '28181', '2014-12-20', '00:00:00 GMT', '20', 'CHI', 'Chicago', 'Blackhawks', '19', 'CBJ', 'Columbus', 'Blue Jackets', '17', 'Nationwide Arena', '19', 'CBJ', 'Columbus', 'Blue Jackets', '1', '0', '0', '0', '0', '0', '0', '2', '25', '33', '43.1', '2', '1', '50.0', '4', '0', '100.0', '0', '0', '2', '2', '17', '6', '12', '33']"
"['', '28192', '2014-12-22', '00:00:00 GMT', '18', 'NSH', 'Nashville', 'Predators', '19', 'CBJ', 'Columbus', 'Blue Jackets', '17', 'Nationwide Arena', '19', 'CBJ', 'Columbus', 'Blue Jackets', '0', '1', '0', '0', '0', '0', '0', '0', '28', '36', '43.8', '2', '1', '50.0', '4', '0', '100.0', '0', '0', '1', '5', '30', '4', '8', '39']"
"['', '28208', '2014-12-27', '00:00:00 GMT', '11', 'BOS', 'Boston', 'Bruins', '19', 'CBJ', 'Columbus', 'Blue Jackets', '17', 'Nationwide Arena', '19', 'CBJ', 'Columbus', 'Blue Jackets', '1', '0', '0', '0', '0', '0', '1', '2', '36', '28', '56.2', '2', '1', '50.0', '3', '0', '100.0', '0', '0', '6', '2', '24', '5', '13', '37']"
"['', '28244', '2014-12-31', '00:00:00 GMT', '25', 'MIN', 'Minnesota', 'Wild', '19', 'CBJ', 'Columbus', 'Blue Jackets', '17', 'Nationwide Arena', '19', 'CBJ', 'Columbus', 'Blue Jackets', '1', '0', '0', '0', '0', '0', '1', '2', '34', '28', '54.8', '2', '1', '50.0', '4', '1', '75.0', '0', '0', '3', '1', '23', '4', '8', '36']"
"['', '28266', '2015-01-03', '01:00:00 GMT', '19', 'CBJ', 'Columbus', 'Blue Jackets', '30', 'ARI', 'Arizona', 'Coyotes', '6', 'Gila River Arena', '19', 'CBJ', 'Columbus', 'Blue Jackets', '0', '1', '0', '0', '0', '0', '0', '0', '27', '37', '42.2', '3', '1', '33.3', '4', '3', '25.0', '0', '0', '3', '6', '23', '6', '23', '53']"
"['', '28274', '2015-01-04', '01:00:00 GMT', '19', 'CBJ', 'Columbus', 'Blue Jackets', '22', 'COL', 'Colorado', 'Avalanche', '19', 'Pepsi Center', '19', 'CBJ', 'Columbus', 'Blue Jackets', '1', '0', '0', '0', '0', '0', '1', '2', '30', '34', '46.9', '2', '0', '0.0', '4', '0', '100.0', '0', '0', '4', '3', '23', '4', '8', '25']"
"['', '28283', '2015-01-06', '01:30:00 GMT', '19', 'CBJ', 'Columbus', 'Blue Jackets', '27', 'DAL', 'Dallas', 'Stars', '2', 'American Airlines Center', '19', 'CBJ', 'Columbus', 'Blue Jackets', '1', '0', '0', '0', '0', '0', '1', '2', '26', '33', '44.1', '5', '1', '20.0', '5', '0', '100.0', '0', '0', '4', '2', '16', '6', '15', '24']"
"['', '28304', '2015-01-09', '00:30:00 GMT', '19', 'CBJ', 'Columbus', 'Blue Jackets', '12', 'TOR', 'Toronto', 'Maple Leafs', '1', 'Air Canada Center', '19', 'CBJ', 'Columbus', 'Blue Jackets', '0', '1', '0', '0', '0', '0', '0', '0', '33', '34', '49.3', '2', '1', '50.0', '4', '2', '50.0', '0', '0', '2', '5', '18', '4', '8', '35']"
"['', '28313', '2015-01-10', '00:00:00 GMT', '8', 'NYI', 'New York', 'Islanders', '19', 'CBJ', 'Columbus', 'Blue Jackets', '17', 'Nationwide Arena', '19', 'CBJ', 'Columbus', 'Blue Jackets', '0', '1', '0', '0', '0', '0', '0', '0', '26', '25', '51.0', '3', '1', '33.3', '5', '0', '100.0', '0', '0', '2', '5', '16', '7', '14', '41']"
"['', '28334', '2015-01-14', '00:00:00 GMT', '14', 'MTL', 'Montreal', 'Canadiens', '19', 'CBJ', 'Columbus', 'Blue Jackets', '17', 'Nationwide Arena', '19', 'CBJ', 'Columbus', 'Blue Jackets', '0', '1', '0', '0', '0', '0', '0', '0', '24', '35', '40.7', '1', '1', '100.0', '6', '3', '50.0', '0', '0', '2', '3', '14', '8', '16', '35']"
"['', '28349', '2015-01-16', '00:00:00 GMT', '9', 'NYR', 'New York', 'Rangers', '19', 'CBJ', 'Columbus', 'Blue Jackets', '17', 'Nationwide Arena', '19', 'CBJ', 'Columbus', 'Blue Jackets', '0', '1', '0', '0', '0', '0', '0', '0', '25', '26', '49.0', '3', '0', '0.0', '1', '0', '100.0', '0', '0', '1', '2', '35', '4', '14', '23']"
"['', '28354', '2015-01-17', '00:00:00 GMT', '19', 'CBJ', 'Columbus', 'Blue Jackets', '11', 'BOS', 'Boston', 'Bruins', '27', 'TD Garden', '19', 'CBJ', 'Columbus', 'Blue Jackets', '1', '0', '0', '0', '0', '0', '1', '2', '29', '37', '43.9', '3', '1', '33.3', '2', '0', '100.0', '0', '0', '3', '1', '28', '2', '4', '33']"
"['', '28373', '2015-01-19', '01:00:00 GMT', '19', 'CBJ', 'Columbus', 'Blue Jackets', '25', 'MIN', 'Minnesota', 'Wild', '30', 'Xcel Energy Center', '19', 'CBJ', 'Columbus', 'Blue Jackets', '1', '0', '0', '0', '0', '0', '1', '2', '27', '27', '50.0', '2', '1', '50.0', '4', '1', '75.0', '0', '0', '3', '1', '20', '3', '8', '18']"
"['', '28387', '2015-01-21', '02:00:00 GMT', '19', 'CBJ', 'Columbus', 'Blue Jackets', '2', 'WPJ', 'Winnipeg', 'Jets', '39', 'MTS Centre', '19', 'CBJ', 'Columbus', 'Blue Jackets', '0', '1', '0', '0', '0', '0', '0', '0', '27', '36', '42.9', '4', '0', '0.0', '3', '0', '100.0', '0', '0', '0', '4', '29', '4', '8', '29']"
"['', '28395', '2015-01-27', '00:00:00 GMT', '5', 'WSH', 'Washington', 'Capitals', '19', 'CBJ', 'Columbus', 'Blue Jackets', '17', 'Nationwide Arena', '19', 'CBJ', 'Columbus', 'Blue Jackets', '1', '0', '0', '0', '0', '0', '1', '2', '30', '23', '56.6', '5', '0', '0.0', '3', '0', '100.0', '0', '0', '4', '3', '26', '3', '6', '31']"
"['', '28411', '2015-01-29', '00:30:00 GMT', '19', 'CBJ', 'Columbus', 'Blue Jackets', '4', 'FLO', 'Florida', 'Panthers', '3', 'BB&T Center', '19', 'CBJ', 'Columbus', 'Blue Jackets', '0', '1', '0', '0', '0', '0', '0', '0', '22', '24', '47.8', '2', '0', '0.0', '3', '0', '100.0', '0', '0', '2', '3', '31', '4', '8', '33']"
"['', '28429', '2015-01-31', '00:30:00 GMT', '19', 'CBJ', 'Columbus', 'Blue Jackets', '1', 'TBL', 'Tampa Bay', 'Lightning', '26', 'Amalie Arena', '19', 'CBJ', 'Columbus', 'Blue Jackets', '0', '1', '0', '0', '0', '0', '0', '0', '24', '33', '42.1', '3', '0', '0.0', '4', '0', '100.0', '0', '0', '1', '3', '34', '6', '12', '15']"
"['', '28442', '2015-02-03', '00:00:00 GMT', '30', 'ARI', 'Arizona', 'Coyotes', '19', 'CBJ', 'Columbus', 'Blue Jackets', '17', 'Nationwide Arena', '19', 'CBJ', 'Columbus', 'Blue Jackets', '0', '1', '0', '0', '0', '0', '0', '0', '42', '36', '53.8', '3', '1', '33.3', '3', '2', '33.3', '0', '0', '1', '4', '30', '4', '11', '36']"
"['', '28464', '2015-02-06', '00:00:00 GMT', '17', 'STL', 'St. Louis', 'Blues', '19', 'CBJ', 'Columbus', 'Blue Jackets', '17', 'Nationwide Arena', '19', 'CBJ', 'Columbus', 'Blue Jackets', '1', '0', '0', '0', '0', '0', '1', '2', '29', '32', '47.5', '0', '0', '0.0', '4', '1', '75.0', '1', '0', '7', '1', '26', '5', '13', '35']"
"['', '28473', '2015-02-07', '00:00:00 GMT', '19', 'CBJ', 'Columbus', 'Blue Jackets', '13', 'OTT', 'Ottawa', 'Senators', '23', 'Canadian Tire Centre', '19', 'CBJ', 'Columbus', 'Blue Jackets', '1', '0', '0', '0', '0', '0', '1', '2', '23', '29', '44.2', '1', '0', '0.0', '3', '0', '100.0', '0', '0', '4', '1', '29', '4', '11', '30']"
"['', '28487', '2015-02-09', '00:00:00 GMT', '28', 'LAK', 'Los Angeles', 'Kings', '19', 'CBJ', 'Columbus', 'Blue Jackets', '17', 'Nationwide Arena', '19', 'CBJ', 'Columbus', 'Blue Jackets', '0', '1', '0', '0', '0', '0', '0', '0', '36', '23', '61.0', '1', '0', '0.0', '1', '0', '100.0', '0', '0', '3', '4', '23', '2', '7', '34']"
"['', '28512', '2015-02-13', '00:00:00 GMT', '6', 'PHI', 'Philadelphia', 'Flyers', '19', 'CBJ', 'Columbus', 'Blue Jackets', '17', 'Nationwide Arena', '19', 'CBJ', 'Columbus', 'Blue Jackets', '1', '0', '0', '0', '0', '0', '1', '2', '18', '29', '38.3', '1', '0', '0.0', '3', '1', '66.7', '0', '0', '4', '3', '29', '3', '6', '33']"
"['', '28520', '2015-02-14', '00:00:00 GMT', '19', 'CBJ', 'Columbus', 'Blue Jackets', '8', 'NYI', 'New York', 'Islanders', '16', 'Nassau Veterans Memorial Coliseum', '19', 'CBJ', 'Columbus', 'Blue Jackets', '0', '1', '0', '0', '0', '0', '0', '0', '35', '30', '53.8', '4', '0', '0.0', '4', '0', '100.0', '0', '0', '3', '6', '34', '6', '15', '29']"
"['', '28542', '2015-02-17', '00:00:00 GMT', '19', 'CBJ', 'Columbus', 'Blue Jackets', '6', 'PHI', 'Philadelphia', 'Flyers', '29', 'Wells Fargo Center', '19', 'CBJ', 'Columbus', 'Blue Jackets', '1', '0', '0', '0', '0', '0', '1', '2', '24', '32', '42.9', '1', '1', '100.0', '2', '0', '100.0', '0', '0', '5', '2', '20', '2', '4', '39']"
"['', '28556', '2015-02-19', '00:00:00 GMT', '19', 'CBJ', 'Columbus', 'Blue Jackets', '10', 'PIT', 'Pittsburgh', 'Penguins', '40', 'Consol Energy Center', '19', 'CBJ', 'Columbus', 'Blue Jackets', '1', '0', '0', '0', '0', '0', '1', '2', '29', '27', '51.8', '4', '0', '0.0', '2', '0', '100.0', '1', '0', '2', '1', '28', '4', '11', '31']"
"['', '28570', '2015-02-21', '00:00:00 GMT', '19', 'CBJ', 'Columbus', 'Blue Jackets', '14', 'MTL', 'Montreal', 'Canadiens', '4', 'Bell Centre', '19', 'CBJ', 'Columbus', 'Blue Jackets', '0', '1', '0', '0', '0', '0', '0', '0', '32', '26', '55.2', '4', '0', '0.0', '3', '1', '66.7', '0', '1', '1', '3', '31', '5', '16', '46']"
"['', '28584', '2015-02-22', '00:00:00 GMT', '19', 'CBJ', 'Columbus', 'Blue Jackets', '9', 'NYR', 'New York', 'Rangers', '12', 'Madison Square Garden', '19', 'CBJ', 'Columbus', 'Blue Jackets', '0', '0', '0', '1', '0', '0', '0', '1', '31', '36', '46.3', '3', '0', '0.0', '4', '0', '100.0', '0', '0', '3', '3', '27', '4', '8', '19']"
"['', '28589', '2015-02-24', '00:00:00 GMT', '15', 'BUF', 'Buffalo', 'Sabres', '19', 'CBJ', 'Columbus', 'Blue Jackets', '17', 'Nationwide Arena', '19', 'CBJ', 'Columbus', 'Blue Jackets', '0', '1', '0', '0', '0', '0', '0', '0', '40', '28', '58.8', '4', '0', '0.0', '3', '1', '66.7', '0', '1', '2', '4', '45', '4', '8', '28']"
"['', '28603', '2015-02-26', '00:00:00 GMT', '14', 'MTL', 'Montreal', 'Canadiens', '19', 'CBJ', 'Columbus', 'Blue Jackets', '17', 'Nationwide Arena', '19', 'CBJ', 'Columbus', 'Blue Jackets', '0', '1', '0', '0', '0', '0', '0', '0', '26', '24', '52.0', '2', '0', '0.0', '2', '0', '100.0', '0', '0', '2', '5', '25', '2', '4', '32']"
"['', '28619', '2015-02-28', '22:00:00 GMT', '7', 'NJD', 'New Jersey', 'Devils', '19', 'CBJ', 'Columbus', 'Blue Jackets', '17', 'Nationwide Arena', '19', 'CBJ', 'Columbus', 'Blue Jackets', '0', '1', '0', '0', '0', '0', '0', '0', '33', '17', '66.0', '3', '0', '0.0', '4', '0', '100.0', '0', '0', '0', '2', '33', '5', '13', '29']"
"['', '28629', '2015-03-01', '22:00:00 GMT', '19', 'CBJ', 'Columbus', 'Blue Jackets', '10', 'PIT', 'Pittsburgh', 'Penguins', '40', 'Consol Energy Center', '19', 'CBJ', 'Columbus', 'Blue Jackets', '0', '1', '0', '0', '0', '0', '0', '0', '35', '38', '47.9', '3', '1', '33.3', '6', '3', '50.0', '1', '0', '3', '5', '22', '8', '17', '26']"
"['', '28638', '2015-03-03', '00:00:00 GMT', '5', 'WSH', 'Washington', 'Capitals', '19', 'CBJ', 'Columbus', 'Blue Jackets', '17', 'Nationwide Arena', '19', 'CBJ', 'Columbus', 'Blue Jackets', '0', '1', '0', '0', '0', '0', '0', '0', '28', '31', '47.5', '2', '1', '50.0', '2', '1', '50.0', '0', '0', '3', '5', '26', '10', '40', '25']"
"['', '28658', '2015-03-06', '00:00:00 GMT', '19', 'CBJ', 'Columbus', 'Blue Jackets', '7', 'NJD', 'New Jersey', 'Devils', '37', 'Prudential Center', '19', 'CBJ', 'Columbus', 'Blue Jackets', '1', '0', '0', '0', '0', '0', '1', '2', '36', '26', '58.1', '1', '0', '0.0', '5', '1', '80.0', '0', '0', '3', '2', '21', '6', '15', '20']"
"['', '28670', '2015-03-07', '00:00:00 GMT', '22', 'COL', 'Colorado', 'Avalanche', '19', 'CBJ', 'Columbus', 'Blue Jackets', '17', 'Nationwide Arena', '19', 'CBJ', 'Columbus', 'Blue Jackets', '0', '1', '0', '0', '0', '0', '0', '0', '30', '39', '43.5', '1', '0', '0.0', '5', '2', '60.0', '0', '0', '0', '4', '44', '6', '12', '30']"
"['', '28687', '2015-03-10', '23:00:00 GMT', '19', 'CBJ', 'Columbus', 'Blue Jackets', '3', 'CAR', 'Carolina', 'Hurricanes', '21', 'RBC Center', '19', 'CBJ', 'Columbus', 'Blue Jackets', '1', '0', '0', '0', '0', '0', '0', '2', '32', '38', '45.7', '4', '3', '75.0', '4', '2', '50.0', '0', '0', '3', '3', '29', '4', '8', '51']"
"['', '28700', '2015-03-12', '23:30:00 GMT', '19', 'CBJ', 'Columbus', 'Blue Jackets', '16', 'DET', 'Detroit', 'Red Wings', '11', 'Joe Louis Arena', '19', 'CBJ', 'Columbus', 'Blue Jackets', '1', '0', '0', '0', '0', '0', '1', '2', '28', '39', '41.8', '2', '1', '50.0', '6', '1', '83.3', '0', '0', '3', '1', '23', '6', '17', '26']"
"['', '28709', '2015-03-13', '23:00:00 GMT', '24', 'EDM', 'Edmonton', 'Oilers', '19', 'CBJ', 'Columbus', 'Blue Jackets', '17', 'Nationwide Arena', '19', 'CBJ', 'Columbus', 'Blue Jackets', '1', '0', '0', '0', '0', '0', '0', '2', '36', '28', '56.2', '4', '1', '25.0', '5', '3', '40.0', '0', '0', '4', '4', '27', '6', '15', '31']"
"['', '28725', '2015-03-15', '21:00:00 GMT', '3', 'CAR', 'Carolina', 'Hurricanes', '19', 'CBJ', 'Columbus', 'Blue Jackets', '17', 'Nationwide Arena', '19', 'CBJ', 'Columbus', 'Blue Jackets', '0', '1', '0', '0', '0', '0', '0', '0', '23', '30', '43.4', '5', '1', '20.0', '4', '1', '75.0', '0', '0', '2', '3', '22', '6', '12', '34']"
"['', '28745', '2015-03-18', '02:00:00 GMT', '19', 'CBJ', 'Columbus', 'Blue Jackets', '24', 'EDM', 'Edmonton', 'Oilers', '22', 'Rogers Place', '19', 'CBJ', 'Columbus', 'Blue Jackets', '1', '0', '0', '0', '0', '0', '0', '2', '38', '30', '55.9', '1', '0', '0.0', '6', '1', '83.3', '0', '0', '3', '3', '17', '7', '14', '30']"
"['', '28755', '2015-03-19', '02:00:00 GMT', '19', 'CBJ', 'Columbus', 'Blue Jackets', '21', 'VAN', 'Vancouver', 'Canucks', '7', 'Rogers Arena', '19', 'CBJ', 'Columbus', 'Blue Jackets', '1', '0', '0', '0', '0', '0', '1', '2', '35', '26', '57.4', '1', '1', '100.0', '2', '0', '100.0', '0', '0', '6', '2', '27', '3', '9', '15']"
"['', '28761', '2015-03-21', '20:00:00 GMT', '19', 'CBJ', 'Columbus', 'Blue Jackets', '23', 'CGY', 'Calgary', 'Flames', '18', 'Scotiabank Saddledome', '19', 'CBJ', 'Columbus', 'Blue Jackets', '1', '0', '0', '0', '0', '0', '1', '2', '48', '30', '61.5', '0', '0', '0.0', '5', '1', '80.0', '0', '0', '3', '2', '23', '9', '21', '27']"
"['', '28787', '2015-03-24', '23:00:00 GMT', '29', 'ANA', 'Anaheim', 'Ducks', '19', 'CBJ', 'Columbus', 'Blue Jackets', '17', 'Nationwide Arena', '19', 'CBJ', 'Columbus', 'Blue Jackets', '1', '0', '0', '0', '0', '0', '1', '2', '38', '35', '52.1', '2', '1', '50.0', '5', '1', '80.0', '0', '0', '5', '3', '22', '8', '22', '27']"
"['', '28807', '2015-03-27', '00:30:00 GMT', '19', 'CBJ', 'Columbus', 'Blue Jackets', '20', 'CHI', 'Chicago', 'Blackhawks', '28', 'United Center', '19', 'CBJ', 'Columbus', 'Blue Jackets', '1', '0', '0', '0', '0', '0', '1', '2', '20', '37', '35.1', '1', '0', '0.0', '5', '0', '100.0', '1', '0', '5', '2', '22', '5', '10', '38']"
"['', '28818', '2015-03-28', '00:00:00 GMT', '19', 'CBJ', 'Columbus', 'Blue Jackets', '17', 'STL', 'St. Louis', 'Blues', '24', 'Scottrade Center', '19', 'CBJ', 'Columbus', 'Blue Jackets', '1', '0', '0', '0', '0', '0', '1', '2', '30', '30', '50.0', '2', '1', '50.0', '6', '1', '83.3', '0', '0', '4', '2', '13', '6', '12', '20']"
"['', '28837', '2015-03-31', '23:00:00 GMT', '7', 'NJD', 'New Jersey', 'Devils', '19', 'CBJ', 'Columbus', 'Blue Jackets', '17', 'Nationwide Arena', '19', 'CBJ', 'Columbus', 'Blue Jackets', '1', '0', '0', '0', '0', '0', '1', '2', '29', '17', '63.0', '4', '1', '25.0', '2', '1', '50.0', '0', '1', '3', '2', '28', '2', '4', '39']"
"['', '28847', '2015-04-02', '23:00:00 GMT', '8', 'NYI', 'New York', 'Islanders', '19', 'CBJ', 'Columbus', 'Blue Jackets', '17', 'Nationwide Arena', '19', 'CBJ', 'Columbus', 'Blue Jackets', '1', '0', '0', '0', '0', '0', '0', '2', '32', '30', '51.6', '2', '0', '0.0', '2', '0', '100.0', '0', '0', '3', '3', '36', '2', '4', '24']"
"['', '28862', '2015-04-04', '18:00:00 GMT', '10', 'PIT', 'Pittsburgh', 'Penguins', '19', 'CBJ', 'Columbus', 'Blue Jackets', '17', 'Nationwide Arena', '19', 'CBJ', 'Columbus', 'Blue Jackets', '1', '0', '0', '0', '0', '0', '1', '2', '36', '31', '53.7', '3', '0', '0.0', '3', '0', '100.0', '0', '0', '5', '3', '30', '3', '6', '36']"
"['', '28880', '2015-04-06', '23:00:00 GMT', '19', 'CBJ', 'Columbus', 'Blue Jackets', '9', 'NYR', 'New York', 'Rangers', '12', 'Madison Square Garden', '19', 'CBJ', 'Columbus', 'Blue Jackets', '0', '0', '0', '1', '0', '0', '0', '1', '25', '39', '39.1', '3', '0', '0.0', '3', '0', '100.0', '0', '0', '3', '4', '29', '3', '6', '21']"
"['', '28894', '2015-04-08', '23:30:00 GMT', '12', 'TOR', 'Toronto', 'Maple Leafs', '19', 'CBJ', 'Columbus', 'Blue Jackets', '17', 'Nationwide Arena', '19', 'CBJ', 'Columbus', 'Blue Jackets', '1', '0', '0', '0', '0', '0', '1', '2', '28', '29', '49.1', '2', '1', '50.0', '4', '0', '100.0', '0', '0', '5', '0', '28', '4', '8', '20']"
"['', '28908', '2015-04-10', '23:00:00 GMT', '15', 'BUF', 'Buffalo', 'Sabres', '19', 'CBJ', 'Columbus', 'Blue Jackets', '17', 'Nationwide Arena', '19', 'CBJ', 'Columbus', 'Blue Jackets', '1', '0', '0', '0', '0', '0', '1', '2', '37', '24', '60.7', '1', '0', '0.0', '3', '1', '66.7', '0', '0', '4', '2', '36', '3', '6', '21']"
"['', '28918', '2015-04-11', '23:00:00 GMT', '19', 'CBJ', 'Columbus', 'Blue Jackets', '8', 'NYI', 'New York', 'Islanders', '16', 'Nassau Veterans Memorial Coliseum', '19', 'CBJ', 'Columbus', 'Blue Jackets', '1', '0', '0', '0', '0', '0', '0', '2', '31', '36', '46.3', '3', '1', '33.3', '3', '0', '100.0', '0', '0', '4', '4', '33', '7', '17', '22']"
