"['#Date/Time of Update: 2018-12-10 19:03:20 GMT', '#Game ID', '#Game Date', '#Game Time', '#Away Team ID', '#Away Team Abbr.', '#Away Team City', '#Away Team Name', '#Home Team ID', '#Home Team Abbr.', '#Home Team City', '#Home Team Name', '#Venue ID', '#Venue Name', '#Team ID', '#Team Abbr.', '#Team City', '#Team Name', '#Wins', '#Losses', '#OvertimeWins', '#OvertimeLosses', '#Points', '#FaceoffWins', '#FaceoffLosses', '#FaceoffPercent', '#Powerplays', '#PowerplayGoals', '#PowerplayPercent', '#PenaltyKills', '#PenaltyKillGoalsAllowed', '#PenaltyKillPercent', '#ShorthandedGoalsFor', '#ShorthandedGoalsAgainst', '#GoalsFor', '#GoalsAgainst', '#Shots', '#Penalties', '#PenaltyMinutes', '#Hits']"
"['', '32635', '2016-10-13', '00:00:00 GMT', '5', 'WSH', 'Washington', 'Capitals', '10', 'PIT', 'Pittsburgh', 'Penguins', '40', 'PPG Paints Arena', '5', 'WSH', 'Washington', 'Capitals', '0', '0', '0', '1', '1', '41', '28', '59.4', '3', '0', '0.0', '2', '1', '50.0', '0', '0', '2', '2', '41', '3', '9', '21']"
"['', '32650', '2016-10-15', '23:00:00 GMT', '8', 'NYI', 'New York', 'Islanders', '5', 'WSH', 'Washington', 'Capitals', '13', 'Verizon Center', '5', 'WSH', 'Washington', 'Capitals', '1', '0', '0', '0', '2', '27', '29', '48.2', '5', '0', '0.0', '2', '1', '50.0', '0', '0', '2', '1', '28', '2', '4', '16']"
"['', '32666', '2016-10-18', '23:00:00 GMT', '22', 'COL', 'Colorado', 'Avalanche', '5', 'WSH', 'Washington', 'Capitals', '13', 'Verizon Center', '5', 'WSH', 'Washington', 'Capitals', '1', '0', '0', '0', '2', '31', '27', '53.4', '5', '2', '40.0', '3', '0', '100.0', '0', '0', '3', '0', '40', '5', '13', '17']"
"['', '32683', '2016-10-20', '23:30:00 GMT', '5', 'WSH', 'Washington', 'Capitals', '4', 'FLO', 'Florida', 'Panthers', '3', 'BB&T Center', '5', 'WSH', 'Washington', 'Capitals', '1', '0', '0', '0', '2', '24', '31', '43.6', '1', '0', '0.0', '4', '1', '75.0', '0', '0', '4', '2', '29', '4', '8', '17']"
"['', '32698', '2016-10-22', '23:00:00 GMT', '9', 'NYR', 'New York', 'Rangers', '5', 'WSH', 'Washington', 'Capitals', '13', 'Verizon Center', '5', 'WSH', 'Washington', 'Capitals', '0', '1', '0', '0', '0', '26', '22', '54.2', '1', '0', '0.0', '3', '1', '66.7', '0', '0', '2', '4', '28', '3', '6', '24']"
"['', '32723', '2016-10-26', '01:30:00 GMT', '5', 'WSH', 'Washington', 'Capitals', '24', 'EDM', 'Edmonton', 'Oilers', '22', 'Rogers Place', '5', 'WSH', 'Washington', 'Capitals', '0', '1', '0', '0', '0', '29', '34', '46.0', '3', '0', '0.0', '4', '1', '75.0', '0', '0', '1', '4', '35', '5', '10', '15']"
"['', '32748', '2016-10-29', '02:00:00 GMT', '5', 'WSH', 'Washington', 'Capitals', '21', 'VAN', 'Vancouver', 'Canucks', '7', 'Rogers Arena', '5', 'WSH', 'Washington', 'Capitals', '1', '0', '0', '0', '2', '37', '32', '53.6', '2', '1', '50.0', '3', '0', '100.0', '0', '0', '5', '2', '35', '4', '8', '16']"
"['', '32757', '2016-10-30', '01:30:00 GMT', '5', 'WSH', 'Washington', 'Capitals', '23', 'CGY', 'Calgary', 'Flames', '18', 'Scotiabank Saddledome', '5', 'WSH', 'Washington', 'Capitals', '1', '0', '0', '0', '2', '28', '31', '47.5', '2', '1', '50.0', '2', '0', '100.0', '0', '0', '3', '1', '29', '2', '4', '11']"
"['', '32765', '2016-11-01', '00:00:00 GMT', '5', 'WSH', 'Washington', 'Capitals', '2', 'WPJ', 'Winnipeg', 'Jets', '39', 'MTS Centre', '5', 'WSH', 'Washington', 'Capitals', '1', '0', '0', '0', '2', '37', '28', '56.9', '3', '0', '0.0', '4', '0', '100.0', '0', '0', '3', '2', '27', '4', '8', '20']"
"['', '32776', '2016-11-03', '23:00:00 GMT', '2', 'WPJ', 'Winnipeg', 'Jets', '5', 'WSH', 'Washington', 'Capitals', '13', 'Verizon Center', '5', 'WSH', 'Washington', 'Capitals', '1', '0', '0', '0', '2', '35', '25', '58.3', '5', '1', '20.0', '2', '0', '100.0', '0', '1', '4', '3', '32', '3', '6', '27']"
"['', '32795', '2016-11-05', '23:00:00 GMT', '4', 'FLO', 'Florida', 'Panthers', '5', 'WSH', 'Washington', 'Capitals', '13', 'Verizon Center', '5', 'WSH', 'Washington', 'Capitals', '1', '0', '0', '0', '2', '37', '30', '55.2', '4', '0', '0.0', '2', '1', '50.0', '0', '0', '4', '2', '36', '2', '4', '17']"
"['', '32814', '2016-11-08', '00:00:00 GMT', '26', 'SJS', 'San Jose', 'Sharks', '5', 'WSH', 'Washington', 'Capitals', '13', 'Verizon Center', '5', 'WSH', 'Washington', 'Capitals', '0', '1', '0', '0', '0', '28', '23', '54.9', '3', '0', '0.0', '2', '0', '100.0', '0', '0', '0', '3', '24', '2', '4', '19']"
"['', '32835', '2016-11-11', '01:30:00 GMT', '5', 'WSH', 'Washington', 'Capitals', '20', 'CHI', 'Chicago', 'Blackhawks', '28', 'United Center', '5', 'WSH', 'Washington', 'Capitals', '1', '0', '0', '0', '2', '24', '29', '45.3', '0', '0', '0.0', '2', '1', '50.0', '1', '0', '3', '2', '28', '2', '4', '25']"
"['', '32844', '2016-11-12', '00:00:00 GMT', '5', 'WSH', 'Washington', 'Capitals', '3', 'CAR', 'Carolina', 'Hurricanes', '21', 'RBC Center', '5', 'WSH', 'Washington', 'Capitals', '0', '1', '0', '0', '0', '21', '34', '38.2', '2', '0', '0.0', '6', '1', '83.3', '0', '0', '1', '5', '21', '7', '14', '15']"
"['', '32858', '2016-11-15', '00:00:00 GMT', '5', 'WSH', 'Washington', 'Capitals', '19', 'CBJ', 'Columbus', 'Blue Jackets', '17', 'Nationwide Arena', '5', 'WSH', 'Washington', 'Capitals', '0', '0', '0', '1', '1', '27', '29', '48.2', '2', '0', '0.0', '3', '0', '100.0', '0', '0', '1', '2', '22', '3', '6', '16']"
"['', '32869', '2016-11-16', '00:30:00 GMT', '10', 'PIT', 'Pittsburgh', 'Penguins', '5', 'WSH', 'Washington', 'Capitals', '13', 'Verizon Center', '5', 'WSH', 'Washington', 'Capitals', '1', '0', '0', '0', '2', '45', '35', '56.2', '8', '2', '25.0', '4', '0', '100.0', '1', '0', '7', '1', '39', '6', '12', '21']"
"['', '32882', '2016-11-18', '00:00:00 GMT', '16', 'DET', 'Detroit', 'Red Wings', '5', 'WSH', 'Washington', 'Capitals', '13', 'Verizon Center', '5', 'WSH', 'Washington', 'Capitals', '1', '0', '0', '0', '2', '23', '31', '42.6', '2', '0', '0.0', '4', '0', '100.0', '0', '0', '1', '0', '28', '4', '8', '31']"
"['', '32897', '2016-11-20', '17:30:00 GMT', '19', 'CBJ', 'Columbus', 'Blue Jackets', '5', 'WSH', 'Washington', 'Capitals', '13', 'Verizon Center', '5', 'WSH', 'Washington', 'Capitals', '0', '1', '0', '0', '0', '28', '30', '48.3', '1', '1', '100.0', '3', '2', '33.3', '0', '0', '2', '3', '21', '5', '10', '20']"
"['', '32917', '2016-11-23', '00:00:00 GMT', '17', 'STL', 'St. Louis', 'Blues', '5', 'WSH', 'Washington', 'Capitals', '13', 'Verizon Center', '5', 'WSH', 'Washington', 'Capitals', '1', '0', '0', '0', '2', '29', '27', '51.8', '4', '1', '25.0', '5', '1', '80.0', '0', '0', '4', '3', '25', '6', '12', '16']"
"['', '32932', '2016-11-25', '22:00:00 GMT', '15', 'BUF', 'Buffalo', 'Sabres', '5', 'WSH', 'Washington', 'Capitals', '13', 'Verizon Center', '5', 'WSH', 'Washington', 'Capitals', '1', '0', '0', '0', '2', '30', '37', '44.8', '4', '1', '25.0', '4', '0', '100.0', '0', '0', '3', '1', '32', '4', '8', '19']"
"['', '32939', '2016-11-26', '00:00:00 GMT', '5', 'WSH', 'Washington', 'Capitals', '12', 'TOR', 'Toronto', 'Maple Leafs', '1', 'Air Canada Center', '5', 'WSH', 'Washington', 'Capitals', '0', '1', '0', '0', '0', '41', '26', '61.2', '4', '0', '0.0', '5', '1', '80.0', '0', '0', '2', '4', '35', '6', '15', '26']"
"['', '32974', '2016-12-01', '00:00:00 GMT', '8', 'NYI', 'New York', 'Islanders', '5', 'WSH', 'Washington', 'Capitals', '13', 'Verizon Center', '5', 'WSH', 'Washington', 'Capitals', '0', '1', '0', '0', '0', '29', '28', '50.9', '6', '0', '0.0', '2', '0', '100.0', '0', '0', '0', '3', '38', '2', '4', '21']"
"['', '32990', '2016-12-03', '00:00:00 GMT', '5', 'WSH', 'Washington', 'Capitals', '1', 'TBL', 'Tampa Bay', 'Lightning', '26', 'Amalie Arena', '5', 'WSH', 'Washington', 'Capitals', '0', '0', '0', '1', '1', '31', '29', '51.7', '6', '1', '16.7', '3', '1', '66.7', '0', '0', '1', '1', '35', '3', '6', '23']"
"['', '33006', '2016-12-05', '00:00:00 GMT', '15', 'BUF', 'Buffalo', 'Sabres', '5', 'WSH', 'Washington', 'Capitals', '13', 'Verizon Center', '5', 'WSH', 'Washington', 'Capitals', '1', '0', '0', '0', '2', '26', '29', '47.3', '3', '1', '33.3', '3', '0', '100.0', '0', '0', '3', '2', '33', '3', '6', '24']"
"['', '33018', '2016-12-07', '01:00:00 GMT', '11', 'BOS', 'Boston', 'Bruins', '5', 'WSH', 'Washington', 'Capitals', '13', 'Verizon Center', '5', 'WSH', 'Washington', 'Capitals', '1', '0', '0', '0', '2', '25', '30', '45.5', '2', '0', '0.0', '3', '1', '66.7', '0', '0', '4', '3', '20', '4', '8', '24']"
"['', '33031', '2016-12-09', '00:00:00 GMT', '5', 'WSH', 'Washington', 'Capitals', '15', 'BUF', 'Buffalo', 'Sabres', '10', 'KeyBank Center', '5', 'WSH', 'Washington', 'Capitals', '1', '0', '0', '0', '2', '33', '24', '57.9', '3', '2', '66.7', '5', '1', '80.0', '0', '0', '4', '1', '29', '5', '10', '16']"
"['', '33049', '2016-12-11', '22:00:00 GMT', '21', 'VAN', 'Vancouver', 'Canucks', '5', 'WSH', 'Washington', 'Capitals', '13', 'Verizon Center', '5', 'WSH', 'Washington', 'Capitals', '1', '0', '0', '0', '2', '31', '34', '47.7', '4', '1', '25.0', '5', '0', '100.0', '0', '0', '3', '0', '29', '5', '10', '8']"
"['', '33058', '2016-12-13', '00:00:00 GMT', '5', 'WSH', 'Washington', 'Capitals', '8', 'NYI', 'New York', 'Islanders', '35', 'Ericsson Globe', '5', 'WSH', 'Washington', 'Capitals', '1', '0', '0', '0', '2', '32', '32', '50.0', '3', '2', '66.7', '2', '0', '100.0', '0', '0', '4', '2', '38', '2', '4', '21']"
"['', '33082', '2016-12-16', '00:30:00 GMT', '5', 'WSH', 'Washington', 'Capitals', '3', 'CAR', 'Carolina', 'Hurricanes', '21', 'RBC Center', '5', 'WSH', 'Washington', 'Capitals', '1', '0', '0', '0', '2', '25', '33', '43.1', '2', '1', '50.0', '6', '1', '83.3', '0', '0', '3', '3', '26', '6', '12', '24']"
"['', '33091', '2016-12-17', '00:00:00 GMT', '14', 'MTL', 'Montreal', 'Canadiens', '5', 'WSH', 'Washington', 'Capitals', '13', 'Verizon Center', '5', 'WSH', 'Washington', 'Capitals', '0', '1', '0', '0', '0', '29', '30', '49.2', '6', '1', '16.7', '2', '0', '100.0', '0', '0', '1', '2', '21', '3', '6', '43']"
"['', '33119', '2016-12-21', '01:00:00 GMT', '5', 'WSH', 'Washington', 'Capitals', '6', 'PHI', 'Philadelphia', 'Flyers', '29', 'Wells Fargo Center', '5', 'WSH', 'Washington', 'Capitals', '0', '0', '0', '1', '1', '25', '30', '45.5', '1', '0', '0.0', '2', '0', '100.0', '0', '0', '2', '2', '38', '3', '6', '28']"
"['', '33134', '2016-12-23', '00:00:00 GMT', '1', 'TBL', 'Tampa Bay', 'Lightning', '5', 'WSH', 'Washington', 'Capitals', '13', 'Verizon Center', '5', 'WSH', 'Washington', 'Capitals', '1', '0', '0', '0', '2', '31', '28', '52.5', '2', '0', '0.0', '3', '0', '100.0', '0', '0', '4', '0', '27', '3', '6', '21']"
"['', '33144', '2016-12-27', '00:00:00 GMT', '5', 'WSH', 'Washington', 'Capitals', '8', 'NYI', 'New York', 'Islanders', '35', 'Ericsson Globe', '5', 'WSH', 'Washington', 'Capitals', '0', '1', '0', '0', '0', '29', '28', '50.9', '4', '0', '0.0', '4', '0', '100.0', '0', '0', '3', '4', '34', '4', '8', '16']"
"['', '33159', '2016-12-29', '00:00:00 GMT', '7', 'NJD', 'New Jersey', 'Devils', '5', 'WSH', 'Washington', 'Capitals', '13', 'Verizon Center', '5', 'WSH', 'Washington', 'Capitals', '0', '0', '0', '1', '1', '32', '35', '47.8', '4', '0', '0.0', '4', '0', '100.0', '1', '0', '1', '1', '44', '4', '8', '22']"
"['', '33175', '2016-12-31', '18:00:00 GMT', '5', 'WSH', 'Washington', 'Capitals', '7', 'NJD', 'New Jersey', 'Devils', '37', 'Prudential Center', '5', 'WSH', 'Washington', 'Capitals', '1', '0', '0', '0', '2', '28', '32', '46.7', '4', '0', '0.0', '9', '0', '100.0', '0', '0', '6', '2', '26', '13', '32', '15']"
"['', '33186', '2017-01-01', '00:30:00 GMT', '13', 'OTT', 'Ottawa', 'Senators', '5', 'WSH', 'Washington', 'Capitals', '13', 'Verizon Center', '5', 'WSH', 'Washington', 'Capitals', '1', '0', '0', '0', '2', '21', '33', '38.9', '2', '0', '0.0', '3', '0', '100.0', '0', '0', '2', '1', '28', '4', '8', '27']"
"['', '40234', '2017-01-03', '00:00:00 GMT', '12', 'TOR', 'Toronto', 'Maple Leafs', '5', 'WSH', 'Washington', 'Capitals', '13', 'Verizon Center', '5', 'WSH', 'Washington', 'Capitals', '1', '0', '0', '0', '2', '36', '28', '56.2', '2', '1', '50.0', '6', '2', '66.7', '0', '0', '6', '5', '29', '7', '14', '33']"
"['', '33205', '2017-01-05', '00:00:00 GMT', '19', 'CBJ', 'Columbus', 'Blue Jackets', '5', 'WSH', 'Washington', 'Capitals', '13', 'Verizon Center', '5', 'WSH', 'Washington', 'Capitals', '1', '0', '0', '0', '2', '24', '34', '41.4', '4', '0', '0.0', '5', '0', '100.0', '0', '0', '5', '0', '27', '6', '12', '16']"
"['', '33221', '2017-01-07', '00:00:00 GMT', '5', 'WSH', 'Washington', 'Capitals', '13', 'OTT', 'Ottawa', 'Senators', '23', 'Canadian Tire Centre', '5', 'WSH', 'Washington', 'Capitals', '1', '0', '0', '0', '2', '30', '27', '52.6', '2', '0', '0.0', '3', '0', '100.0', '0', '0', '1', '0', '20', '3', '6', '14']"
"['', '33236', '2017-01-09', '00:30:00 GMT', '5', 'WSH', 'Washington', 'Capitals', '14', 'MTL', 'Montreal', 'Canadiens', '4', 'Bell Centre', '5', 'WSH', 'Washington', 'Capitals', '1', '0', '0', '0', '2', '27', '31', '46.6', '2', '1', '50.0', '4', '1', '75.0', '0', '0', '4', '1', '39', '4', '8', '19']"
"['', '33248', '2017-01-11', '01:00:00 GMT', '10', 'PIT', 'Pittsburgh', 'Penguins', '5', 'WSH', 'Washington', 'Capitals', '13', 'Verizon Center', '5', 'WSH', 'Washington', 'Capitals', '1', '0', '0', '0', '2', '43', '26', '62.3', '4', '2', '50.0', '5', '2', '60.0', '0', '0', '5', '2', '30', '7', '14', '16']"
"['', '33260', '2017-01-13', '00:00:00 GMT', '20', 'CHI', 'Chicago', 'Blackhawks', '5', 'WSH', 'Washington', 'Capitals', '13', 'Verizon Center', '5', 'WSH', 'Washington', 'Capitals', '1', '0', '0', '0', '2', '31', '12', '72.1', '0', '0', '0.0', '2', '0', '100.0', '0', '0', '6', '0', '34', '2', '4', '17']"
"['', '33278', '2017-01-15', '18:00:00 GMT', '6', 'PHI', 'Philadelphia', 'Flyers', '5', 'WSH', 'Washington', 'Capitals', '13', 'Verizon Center', '5', 'WSH', 'Washington', 'Capitals', '1', '0', '0', '0', '2', '21', '20', '51.2', '2', '1', '50.0', '5', '0', '100.0', '0', '0', '5', '0', '22', '5', '10', '30']"
"['', '33287', '2017-01-16', '00:00:00 GMT', '5', 'WSH', 'Washington', 'Capitals', '10', 'PIT', 'Pittsburgh', 'Penguins', '40', 'PPG Paints Arena', '5', 'WSH', 'Washington', 'Capitals', '0', '0', '0', '1', '1', '33', '33', '50.0', '4', '1', '25.0', '1', '1', '0.0', '1', '0', '7', '8', '28', '2', '4', '41']"
"['', '33306', '2017-01-19', '01:00:00 GMT', '5', 'WSH', 'Washington', 'Capitals', '17', 'STL', 'St. Louis', 'Blues', '24', 'Scottrade Center', '5', 'WSH', 'Washington', 'Capitals', '1', '0', '0', '0', '2', '23', '35', '39.7', '2', '1', '50.0', '1', '0', '100.0', '0', '0', '7', '3', '18', '1', '2', '23']"
"['', '33323', '2017-01-21', '01:00:00 GMT', '5', 'WSH', 'Washington', 'Capitals', '27', 'DAL', 'Dallas', 'Stars', '2', 'American Airlines Center', '5', 'WSH', 'Washington', 'Capitals', '1', '0', '0', '0', '2', '32', '31', '50.8', '2', '2', '100.0', '5', '1', '80.0', '0', '0', '4', '3', '22', '9', '24', '24']"
"['', '33335', '2017-01-23', '00:00:00 GMT', '3', 'CAR', 'Carolina', 'Hurricanes', '5', 'WSH', 'Washington', 'Capitals', '13', 'Verizon Center', '5', 'WSH', 'Washington', 'Capitals', '1', '0', '0', '0', '2', '36', '25', '59.0', '2', '1', '50.0', '4', '1', '75.0', '0', '0', '6', '1', '25', '6', '15', '19']"
"['', '33345', '2017-01-24', '00:30:00 GMT', '5', 'WSH', 'Washington', 'Capitals', '13', 'OTT', 'Ottawa', 'Senators', '23', 'Canadian Tire Centre', '5', 'WSH', 'Washington', 'Capitals', '0', '1', '0', '0', '0', '27', '33', '45.0', '6', '0', '0.0', '4', '1', '75.0', '0', '1', '0', '3', '31', '6', '12', '24']"
"['', '33355', '2017-01-26', '00:00:00 GMT', '5', 'WSH', 'Washington', 'Capitals', '7', 'NJD', 'New Jersey', 'Devils', '37', 'Prudential Center', '5', 'WSH', 'Washington', 'Capitals', '1', '0', '0', '0', '2', '31', '28', '52.5', '4', '2', '50.0', '3', '1', '66.7', '0', '0', '5', '2', '36', '6', '23', '15']"
"['', '33367', '2017-01-31', '00:00:00 GMT', '5', 'WSH', 'Washington', 'Capitals', '8', 'NYI', 'New York', 'Islanders', '35', 'Ericsson Globe', '5', 'WSH', 'Washington', 'Capitals', '0', '1', '0', '0', '0', '24', '24', '50.0', '1', '0', '0.0', '2', '1', '50.0', '0', '0', '2', '3', '30', '2', '4', '17']"
"['', '33381', '2017-02-01', '01:00:00 GMT', '11', 'BOS', 'Boston', 'Bruins', '5', 'WSH', 'Washington', 'Capitals', '13', 'Verizon Center', '5', 'WSH', 'Washington', 'Capitals', '1', '0', '0', '0', '2', '30', '26', '53.6', '3', '1', '33.3', '3', '2', '33.3', '0', '0', '5', '3', '22', '3', '6', '17']"
"['', '33397', '2017-02-04', '18:00:00 GMT', '5', 'WSH', 'Washington', 'Capitals', '14', 'MTL', 'Montreal', 'Canadiens', '4', 'Bell Centre', '5', 'WSH', 'Washington', 'Capitals', '1', '0', '0', '0', '2', '28', '25', '52.8', '4', '1', '25.0', '3', '0', '100.0', '0', '0', '3', '2', '30', '3', '6', '35']"
"['', '33410', '2017-02-05', '17:00:00 GMT', '28', 'LAK', 'Los Angeles', 'Kings', '5', 'WSH', 'Washington', 'Capitals', '13', 'Verizon Center', '5', 'WSH', 'Washington', 'Capitals', '1', '0', '0', '0', '2', '23', '29', '44.2', '2', '0', '0.0', '4', '0', '100.0', '0', '0', '5', '0', '20', '4', '8', '24']"
"['', '33419', '2017-02-07', '00:00:00 GMT', '3', 'CAR', 'Carolina', 'Hurricanes', '5', 'WSH', 'Washington', 'Capitals', '13', 'Verizon Center', '5', 'WSH', 'Washington', 'Capitals', '1', '0', '0', '0', '2', '17', '35', '32.7', '3', '2', '66.7', '3', '0', '100.0', '0', '0', '5', '0', '27', '3', '6', '22']"
"['', '33432', '2017-02-09', '00:00:00 GMT', '16', 'DET', 'Detroit', 'Red Wings', '5', 'WSH', 'Washington', 'Capitals', '13', 'Verizon Center', '5', 'WSH', 'Washington', 'Capitals', '1', '0', '0', '0', '2', '31', '31', '50.0', '1', '1', '100.0', '2', '1', '50.0', '0', '0', '6', '3', '31', '3', '6', '16']"
"['', '33450', '2017-02-11', '00:30:00 GMT', '29', 'ANA', 'Anaheim', 'Ducks', '5', 'WSH', 'Washington', 'Capitals', '13', 'Verizon Center', '5', 'WSH', 'Washington', 'Capitals', '1', '0', '0', '0', '2', '21', '34', '38.2', '3', '1', '33.3', '3', '0', '100.0', '1', '0', '6', '4', '39', '5', '10', '30']"
"['', '33486', '2017-02-18', '19:00:00 GMT', '5', 'WSH', 'Washington', 'Capitals', '16', 'DET', 'Detroit', 'Red Wings', '11', 'Joe Louis Arena', '5', 'WSH', 'Washington', 'Capitals', '0', '0', '0', '1', '1', '33', '40', '45.2', '5', '0', '0.0', '2', '1', '50.0', '0', '0', '2', '2', '36', '3', '9', '21']"
"['', '33495', '2017-02-19', '17:30:00 GMT', '5', 'WSH', 'Washington', 'Capitals', '9', 'NYR', 'New York', 'Rangers', '12', 'Madison Square Garden', '5', 'WSH', 'Washington', 'Capitals', '0', '1', '0', '0', '0', '24', '25', '49.0', '2', '1', '50.0', '2', '0', '100.0', '0', '0', '1', '2', '32', '3', '6', '23']"
"['', '33518', '2017-02-22', '01:00:00 GMT', '5', 'WSH', 'Washington', 'Capitals', '6', 'PHI', 'Philadelphia', 'Flyers', '29', 'Wells Fargo Center', '5', 'WSH', 'Washington', 'Capitals', '1', '0', '0', '0', '2', '22', '43', '33.8', '2', '1', '50.0', '2', '0', '100.0', '0', '0', '4', '1', '29', '5', '10', '31']"
"['', '33526', '2017-02-24', '00:00:00 GMT', '24', 'EDM', 'Edmonton', 'Oilers', '5', 'WSH', 'Washington', 'Capitals', '13', 'Verizon Center', '5', 'WSH', 'Washington', 'Capitals', '1', '0', '0', '0', '2', '28', '16', '63.6', '2', '0', '0.0', '0', '0', '0.0', '0', '0', '2', '1', '25', '0', '0', '19']"
"['', '33532', '2017-02-25', '22:00:00 GMT', '5', 'WSH', 'Washington', 'Capitals', '18', 'NSH', 'Nashville', 'Predators', '15', 'Bridgestone Arena', '5', 'WSH', 'Washington', 'Capitals', '0', '1', '0', '0', '0', '27', '34', '44.3', '1', '0', '0.0', '4', '2', '50.0', '0', '0', '2', '5', '26', '7', '17', '21']"
"['', '33550', '2017-02-28', '00:00:00 GMT', '5', 'WSH', 'Washington', 'Capitals', '9', 'NYR', 'New York', 'Rangers', '12', 'Madison Square Garden', '5', 'WSH', 'Washington', 'Capitals', '1', '0', '0', '0', '2', '37', '33', '52.9', '2', '1', '50.0', '4', '0', '100.0', '0', '0', '4', '1', '38', '5', '13', '19']"
"['', '33565', '2017-03-02', '00:00:00 GMT', '7', 'NJD', 'New Jersey', 'Devils', '5', 'WSH', 'Washington', 'Capitals', '13', 'Verizon Center', '5', 'WSH', 'Washington', 'Capitals', '1', '0', '0', '0', '2', '26', '28', '48.1', '5', '1', '20.0', '3', '0', '100.0', '0', '0', '1', '0', '24', '5', '13', '22']"
"['', '33583', '2017-03-04', '00:00:00 GMT', '6', 'PHI', 'Philadelphia', 'Flyers', '5', 'WSH', 'Washington', 'Capitals', '13', 'Verizon Center', '5', 'WSH', 'Washington', 'Capitals', '1', '0', '0', '0', '2', '31', '25', '55.4', '4', '1', '25.0', '6', '0', '100.0', '0', '0', '2', '1', '24', '7', '14', '29']"
"['', '33595', '2017-03-06', '00:30:00 GMT', '27', 'DAL', 'Dallas', 'Stars', '5', 'WSH', 'Washington', 'Capitals', '13', 'Verizon Center', '5', 'WSH', 'Washington', 'Capitals', '0', '1', '0', '0', '0', '42', '23', '64.6', '4', '0', '0.0', '2', '0', '100.0', '0', '0', '2', '4', '44', '2', '4', '22']"
"['', '33620', '2017-03-09', '03:30:00 GMT', '5', 'WSH', 'Washington', 'Capitals', '26', 'SJS', 'San Jose', 'Sharks', '9', 'SAP Center at San Jose', '5', 'WSH', 'Washington', 'Capitals', '0', '1', '0', '0', '0', '32', '25', '56.1', '5', '0', '0.0', '5', '2', '60.0', '0', '0', '2', '4', '27', '4', '10', '22']"
"['', '33636', '2017-03-11', '03:30:00 GMT', '5', 'WSH', 'Washington', 'Capitals', '28', 'LAK', 'Los Angeles', 'Kings', '25', 'Staples Center', '5', 'WSH', 'Washington', 'Capitals', '0', '1', '0', '0', '0', '32', '27', '54.2', '3', '1', '33.3', '6', '2', '66.7', '0', '0', '2', '4', '19', '6', '12', '24']"
"['', '33640', '2017-03-12', '01:30:00 GMT', '5', 'WSH', 'Washington', 'Capitals', '29', 'ANA', 'Anaheim', 'Ducks', '8', 'Honda Center', '5', 'WSH', 'Washington', 'Capitals', '0', '1', '0', '0', '0', '32', '40', '44.4', '5', '1', '20.0', '7', '1', '85.7', '0', '0', '2', '5', '27', '7', '22', '26']"
"['', '33651', '2017-03-14', '23:00:00 GMT', '25', 'MIN', 'Minnesota', 'Wild', '5', 'WSH', 'Washington', 'Capitals', '13', 'Verizon Center', '5', 'WSH', 'Washington', 'Capitals', '1', '0', '0', '0', '2', '30', '33', '47.6', '5', '1', '20.0', '8', '1', '87.5', '0', '0', '4', '2', '40', '9', '29', '21']"
"['', '33665', '2017-03-16', '23:00:00 GMT', '18', 'NSH', 'Nashville', 'Predators', '5', 'WSH', 'Washington', 'Capitals', '13', 'Verizon Center', '5', 'WSH', 'Washington', 'Capitals', '0', '0', '0', '1', '1', '20', '25', '44.4', '1', '0', '0.0', '1', '0', '100.0', '0', '0', '1', '2', '23', '3', '9', '20']"
"['', '33683', '2017-03-18', '23:00:00 GMT', '5', 'WSH', 'Washington', 'Capitals', '1', 'TBL', 'Tampa Bay', 'Lightning', '26', 'Amalie Arena', '5', 'WSH', 'Washington', 'Capitals', '1', '0', '0', '0', '2', '36', '33', '52.2', '2', '1', '50.0', '1', '1', '0.0', '0', '0', '5', '3', '35', '3', '6', '20']"
"['', '33704', '2017-03-21', '23:00:00 GMT', '23', 'CGY', 'Calgary', 'Flames', '5', 'WSH', 'Washington', 'Capitals', '13', 'Verizon Center', '5', 'WSH', 'Washington', 'Capitals', '1', '0', '0', '0', '2', '25', '27', '48.1', '3', '2', '66.7', '1', '0', '100.0', '0', '0', '4', '2', '40', '2', '4', '17']"
"['', '33716', '2017-03-23', '23:00:00 GMT', '19', 'CBJ', 'Columbus', 'Blue Jackets', '5', 'WSH', 'Washington', 'Capitals', '13', 'Verizon Center', '5', 'WSH', 'Washington', 'Capitals', '1', '0', '0', '0', '2', '32', '34', '48.5', '3', '0', '0.0', '2', '0', '100.0', '0', '0', '1', '1', '45', '3', '6', '17']"
"['', '33738', '2017-03-25', '23:00:00 GMT', '30', 'ARI', 'Arizona', 'Coyotes', '5', 'WSH', 'Washington', 'Capitals', '13', 'Verizon Center', '5', 'WSH', 'Washington', 'Capitals', '1', '0', '0', '0', '2', '24', '31', '43.6', '3', '1', '33.3', '4', '0', '100.0', '0', '0', '4', '1', '33', '5', '10', '12']"
"['', '33759', '2017-03-28', '00:00:00 GMT', '5', 'WSH', 'Washington', 'Capitals', '25', 'MIN', 'Minnesota', 'Wild', '30', 'Xcel Energy Center', '5', 'WSH', 'Washington', 'Capitals', '1', '0', '0', '0', '2', '18', '33', '35.3', '4', '3', '75.0', '5', '0', '100.0', '0', '0', '5', '4', '20', '5', '15', '17']"
"['', '33765', '2017-03-29', '02:00:00 GMT', '5', 'WSH', 'Washington', 'Capitals', '22', 'COL', 'Colorado', 'Avalanche', '19', 'Pepsi Center', '5', 'WSH', 'Washington', 'Capitals', '1', '0', '0', '0', '2', '28', '28', '50.0', '3', '2', '66.7', '3', '0', '100.0', '0', '0', '5', '3', '35', '3', '6', '12']"
"['', '33782', '2017-03-31', '02:00:00 GMT', '5', 'WSH', 'Washington', 'Capitals', '30', 'ARI', 'Arizona', 'Coyotes', '6', 'Gila River Arena', '5', 'WSH', 'Washington', 'Capitals', '0', '1', '0', '0', '0', '36', '27', '57.1', '1', '1', '100.0', '2', '2', '0.0', '0', '0', '3', '6', '48', '2', '4', '23']"
"['', '33795', '2017-04-02', '22:00:00 GMT', '5', 'WSH', 'Washington', 'Capitals', '19', 'CBJ', 'Columbus', 'Blue Jackets', '17', 'Nationwide Arena', '5', 'WSH', 'Washington', 'Capitals', '1', '0', '0', '0', '2', '34', '20', '63.0', '2', '0', '0.0', '2', '0', '100.0', '0', '0', '3', '2', '30', '5', '10', '24']"
"['', '33808', '2017-04-04', '23:30:00 GMT', '5', 'WSH', 'Washington', 'Capitals', '12', 'TOR', 'Toronto', 'Maple Leafs', '1', 'Air Canada Center', '5', 'WSH', 'Washington', 'Capitals', '1', '0', '0', '0', '2', '28', '30', '48.3', '3', '1', '33.3', '4', '1', '75.0', '0', '0', '4', '1', '38', '6', '12', '23']"
"['', '33819', '2017-04-05', '00:00:00 GMT', '9', 'NYR', 'New York', 'Rangers', '5', 'WSH', 'Washington', 'Capitals', '13', 'Verizon Center', '5', 'WSH', 'Washington', 'Capitals', '1', '0', '0', '0', '2', '25', '26', '49.0', '4', '1', '25.0', '0', '0', '0.0', '0', '0', '2', '0', '25', '2', '4', '24']"
"['', '33835', '2017-04-08', '19:00:00 GMT', '5', 'WSH', 'Washington', 'Capitals', '11', 'BOS', 'Boston', 'Bruins', '27', 'TD Garden', '5', 'WSH', 'Washington', 'Capitals', '1', '0', '0', '0', '2', '22', '30', '42.3', '4', '0', '0.0', '3', '0', '100.0', '0', '0', '3', '1', '32', '4', '8', '19']"
"['', '33854', '2017-04-09', '23:00:00 GMT', '4', 'FLO', 'Florida', 'Panthers', '5', 'WSH', 'Washington', 'Capitals', '13', 'Verizon Center', '5', 'WSH', 'Washington', 'Capitals', '0', '1', '0', '0', '0', '14', '23', '37.8', '2', '0', '0.0', '1', '1', '0.0', '0', '1', '0', '2', '38', '2', '4', '5']"
