"['#Date/Time of Update: 2018-12-10 19:03:20 GMT', '#Game ID', '#Game Date', '#Game Time', '#Away Team ID', '#Away Team Abbr.', '#Away Team City', '#Away Team Name', '#Home Team ID', '#Home Team Abbr.', '#Home Team City', '#Home Team Name', '#Venue ID', '#Venue Name', '#Team ID', '#Team Abbr.', '#Team City', '#Team Name', '#Wins', '#Losses', '#OvertimeWins', '#OvertimeLosses', '#Points', '#FaceoffWins', '#FaceoffLosses', '#FaceoffPercent', '#Powerplays', '#PowerplayGoals', '#PowerplayPercent', '#PenaltyKills', '#PenaltyKillGoalsAllowed', '#PenaltyKillPercent', '#ShorthandedGoalsFor', '#ShorthandedGoalsAgainst', '#GoalsFor', '#GoalsAgainst', '#Shots', '#Penalties', '#PenaltyMinutes', '#Hits']"
"['', '32636', '2016-10-13', '23:00:00 GMT', '11', 'BOS', 'Boston', 'Bruins', '19', 'CBJ', 'Columbus', 'Blue Jackets', '17', 'Nationwide Arena', '11', 'BOS', 'Boston', 'Bruins', '1', '0', '0', '0', '2', '35', '30', '53.8', '2', '0', '0.0', '3', '1', '66.7', '0', '0', '6', '3', '37', '4', '8', '14']"
"['', '32645', '2016-10-15', '23:00:00 GMT', '11', 'BOS', 'Boston', 'Bruins', '12', 'TOR', 'Toronto', 'Maple Leafs', '1', 'Air Canada Center', '11', 'BOS', 'Boston', 'Bruins', '0', '1', '0', '0', '0', '20', '32', '38.5', '4', '1', '25.0', '4', '0', '100.0', '0', '0', '1', '4', '25', '6', '18', '24']"
"['', '32664', '2016-10-17', '00:00:00 GMT', '11', 'BOS', 'Boston', 'Bruins', '2', 'WPJ', 'Winnipeg', 'Jets', '39', 'MTS Centre', '11', 'BOS', 'Boston', 'Bruins', '1', '0', '0', '0', '2', '36', '28', '56.2', '4', '0', '0.0', '5', '0', '100.0', '0', '0', '4', '1', '25', '5', '10', '15']"
"['', '32678', '2016-10-20', '23:00:00 GMT', '7', 'NJD', 'New Jersey', 'Devils', '11', 'BOS', 'Boston', 'Bruins', '27', 'TD Garden', '11', 'BOS', 'Boston', 'Bruins', '1', '0', '0', '0', '2', '32', '35', '47.8', '4', '0', '0.0', '3', '1', '66.7', '0', '0', '2', '1', '36', '3', '6', '29']"
"['', '32692', '2016-10-22', '23:00:00 GMT', '14', 'MTL', 'Montreal', 'Canadiens', '11', 'BOS', 'Boston', 'Bruins', '27', 'TD Garden', '11', 'BOS', 'Boston', 'Bruins', '0', '1', '0', '0', '0', '27', '36', '42.9', '6', '1', '16.7', '5', '0', '100.0', '0', '1', '2', '4', '21', '7', '14', '31']"
"['', '32710', '2016-10-25', '23:00:00 GMT', '25', 'MIN', 'Minnesota', 'Wild', '11', 'BOS', 'Boston', 'Bruins', '27', 'TD Garden', '11', 'BOS', 'Boston', 'Bruins', '0', '1', '0', '0', '0', '28', '32', '46.7', '3', '0', '0.0', '4', '1', '75.0', '0', '0', '0', '5', '27', '6', '15', '26']"
"['', '32722', '2016-10-26', '00:00:00 GMT', '11', 'BOS', 'Boston', 'Bruins', '9', 'NYR', 'New York', 'Rangers', '12', 'Madison Square Garden', '11', 'BOS', 'Boston', 'Bruins', '0', '1', '0', '0', '0', '39', '28', '58.2', '1', '0', '0.0', '6', '2', '66.7', '0', '0', '2', '5', '29', '7', '14', '22']"
"['', '32742', '2016-10-29', '23:00:00 GMT', '11', 'BOS', 'Boston', 'Bruins', '16', 'DET', 'Detroit', 'Red Wings', '11', 'Joe Louis Arena', '11', 'BOS', 'Boston', 'Bruins', '1', '0', '0', '0', '2', '49', '28', '63.6', '4', '0', '0.0', '4', '0', '100.0', '0', '0', '1', '0', '36', '6', '12', '13']"
"['', '32763', '2016-11-01', '23:30:00 GMT', '11', 'BOS', 'Boston', 'Bruins', '4', 'FLO', 'Florida', 'Panthers', '3', 'BB&T Center', '11', 'BOS', 'Boston', 'Bruins', '1', '0', '0', '0', '2', '38', '31', '55.1', '3', '0', '0.0', '7', '0', '100.0', '1', '0', '2', '1', '26', '10', '26', '16']"
"['', '32778', '2016-11-03', '23:30:00 GMT', '11', 'BOS', 'Boston', 'Bruins', '1', 'TBL', 'Tampa Bay', 'Lightning', '26', 'Amalie Arena', '11', 'BOS', 'Boston', 'Bruins', '1', '0', '0', '0', '2', '35', '39', '47.3', '3', '1', '33.3', '4', '2', '50.0', '0', '0', '3', '3', '31', '4', '8', '21']"
"['', '32789', '2016-11-05', '23:00:00 GMT', '9', 'NYR', 'New York', 'Rangers', '11', 'BOS', 'Boston', 'Bruins', '27', 'TD Garden', '11', 'BOS', 'Boston', 'Bruins', '0', '1', '0', '0', '0', '30', '26', '53.6', '3', '0', '0.0', '2', '1', '50.0', '0', '2', '2', '5', '37', '3', '6', '21']"
"['', '32807', '2016-11-07', '00:00:00 GMT', '15', 'BUF', 'Buffalo', 'Sabres', '11', 'BOS', 'Boston', 'Bruins', '27', 'TD Garden', '11', 'BOS', 'Boston', 'Bruins', '1', '0', '0', '0', '2', '28', '29', '49.1', '6', '3', '50.0', '3', '0', '100.0', '0', '0', '4', '0', '42', '4', '11', '20']"
"['', '32816', '2016-11-08', '00:30:00 GMT', '11', 'BOS', 'Boston', 'Bruins', '14', 'MTL', 'Montreal', 'Canadiens', '4', 'Bell Centre', '11', 'BOS', 'Boston', 'Bruins', '0', '1', '0', '0', '0', '34', '28', '54.8', '2', '1', '50.0', '2', '1', '50.0', '0', '0', '2', '3', '43', '2', '4', '23']"
"['', '32822', '2016-11-10', '00:00:00 GMT', '19', 'CBJ', 'Columbus', 'Blue Jackets', '11', 'BOS', 'Boston', 'Bruins', '27', 'TD Garden', '11', 'BOS', 'Boston', 'Bruins', '1', '0', '0', '0', '2', '38', '17', '69.1', '2', '0', '0.0', '3', '0', '100.0', '0', '0', '5', '2', '32', '3', '6', '12']"
"['', '32847', '2016-11-12', '01:00:00 GMT', '11', 'BOS', 'Boston', 'Bruins', '30', 'ARI', 'Arizona', 'Coyotes', '6', 'Gila River Arena', '11', 'BOS', 'Boston', 'Bruins', '1', '0', '0', '0', '2', '43', '24', '64.2', '0', '0', '0.0', '3', '1', '66.7', '0', '0', '2', '1', '29', '4', '11', '11']"
"['', '32853', '2016-11-13', '00:00:00 GMT', '11', 'BOS', 'Boston', 'Bruins', '22', 'COL', 'Colorado', 'Avalanche', '19', 'Pepsi Center', '11', 'BOS', 'Boston', 'Bruins', '1', '0', '0', '0', '2', '29', '36', '44.6', '2', '0', '0.0', '2', '0', '100.0', '0', '0', '2', '0', '46', '2', '4', '12']"
"['', '32876', '2016-11-17', '01:00:00 GMT', '11', 'BOS', 'Boston', 'Bruins', '25', 'MIN', 'Minnesota', 'Wild', '30', 'Xcel Energy Center', '11', 'BOS', 'Boston', 'Bruins', '0', '1', '0', '0', '0', '26', '34', '43.3', '2', '0', '0.0', '3', '0', '100.0', '0', '0', '0', '1', '25', '4', '8', '12']"
"['', '32888', '2016-11-19', '00:00:00 GMT', '2', 'WPJ', 'Winnipeg', 'Jets', '11', 'BOS', 'Boston', 'Bruins', '27', 'TD Garden', '11', 'BOS', 'Boston', 'Bruins', '1', '0', '0', '0', '2', '39', '17', '69.6', '5', '1', '20.0', '4', '0', '100.0', '0', '0', '4', '1', '38', '5', '10', '18']"
"['', '32909', '2016-11-22', '00:00:00 GMT', '17', 'STL', 'St. Louis', 'Blues', '11', 'BOS', 'Boston', 'Bruins', '27', 'TD Garden', '11', 'BOS', 'Boston', 'Bruins', '0', '1', '0', '0', '0', '25', '29', '46.3', '3', '1', '33.3', '2', '0', '100.0', '1', '0', '2', '4', '41', '2', '4', '21']"
"['', '32927', '2016-11-24', '00:30:00 GMT', '11', 'BOS', 'Boston', 'Bruins', '13', 'OTT', 'Ottawa', 'Senators', '23', 'Canadian Tire Centre', '11', 'BOS', 'Boston', 'Bruins', '0', '1', '0', '0', '0', '23', '34', '40.4', '1', '1', '100.0', '2', '0', '100.0', '0', '0', '1', '3', '20', '3', '6', '36']"
"['', '32934', '2016-11-25', '00:30:00 GMT', '23', 'CGY', 'Calgary', 'Flames', '11', 'BOS', 'Boston', 'Bruins', '27', 'TD Garden', '11', 'BOS', 'Boston', 'Bruins', '0', '1', '0', '0', '0', '38', '32', '54.3', '4', '0', '0.0', '1', '0', '100.0', '0', '0', '1', '2', '36', '5', '13', '23']"
"['', '32948', '2016-11-27', '18:00:00 GMT', '1', 'TBL', 'Tampa Bay', 'Lightning', '11', 'BOS', 'Boston', 'Bruins', '27', 'TD Garden', '11', 'BOS', 'Boston', 'Bruins', '1', '0', '0', '0', '2', '28', '31', '47.5', '1', '1', '100.0', '2', '0', '100.0', '0', '0', '4', '1', '30', '4', '11', '22']"
"['', '32957', '2016-11-29', '00:00:00 GMT', '11', 'BOS', 'Boston', 'Bruins', '6', 'PHI', 'Philadelphia', 'Flyers', '29', 'Wells Fargo Center', '11', 'BOS', 'Boston', 'Bruins', '0', '0', '0', '1', '1', '35', '29', '54.7', '4', '0', '0.0', '5', '1', '80.0', '0', '0', '2', '2', '47', '7', '14', '36']"
"['', '32971', '2016-12-01', '00:00:00 GMT', '3', 'CAR', 'Carolina', 'Hurricanes', '11', 'BOS', 'Boston', 'Bruins', '27', 'TD Garden', '11', 'BOS', 'Boston', 'Bruins', '1', '0', '0', '0', '2', '40', '29', '58.0', '4', '0', '0.0', '2', '1', '50.0', '0', '0', '1', '1', '35', '2', '4', '26']"
"['', '32985', '2016-12-03', '18:00:00 GMT', '11', 'BOS', 'Boston', 'Bruins', '15', 'BUF', 'Buffalo', 'Sabres', '10', 'KeyBank Center', '11', 'BOS', 'Boston', 'Bruins', '1', '0', '0', '0', '2', '35', '41', '46.1', '2', '0', '0.0', '3', '0', '100.0', '0', '0', '2', '1', '33', '3', '6', '22']"
"['', '33004', '2016-12-05', '00:00:00 GMT', '4', 'FLO', 'Florida', 'Panthers', '11', 'BOS', 'Boston', 'Bruins', '27', 'TD Garden', '11', 'BOS', 'Boston', 'Bruins', '1', '0', '0', '0', '2', '36', '23', '61.0', '3', '0', '0.0', '3', '0', '100.0', '0', '0', '4', '3', '36', '3', '6', '19']"
"['', '33018', '2016-12-07', '01:00:00 GMT', '11', 'BOS', 'Boston', 'Bruins', '5', 'WSH', 'Washington', 'Capitals', '13', 'Verizon Center', '11', 'BOS', 'Boston', 'Bruins', '0', '0', '0', '1', '1', '30', '25', '54.5', '3', '1', '33.3', '2', '0', '100.0', '0', '0', '3', '4', '34', '3', '6', '25']"
"['', '33021', '2016-12-08', '00:00:00 GMT', '22', 'COL', 'Colorado', 'Avalanche', '11', 'BOS', 'Boston', 'Bruins', '27', 'TD Garden', '11', 'BOS', 'Boston', 'Bruins', '0', '1', '0', '0', '0', '22', '26', '45.8', '2', '0', '0.0', '2', '0', '100.0', '0', '1', '2', '4', '31', '3', '6', '26']"
"['', '33039', '2016-12-10', '00:00:00 GMT', '12', 'TOR', 'Toronto', 'Maple Leafs', '11', 'BOS', 'Boston', 'Bruins', '27', 'TD Garden', '11', 'BOS', 'Boston', 'Bruins', '0', '1', '0', '0', '0', '29', '24', '54.7', '1', '0', '0.0', '2', '0', '100.0', '0', '0', '1', '4', '33', '2', '4', '27']"
"['', '33056', '2016-12-12', '00:30:00 GMT', '11', 'BOS', 'Boston', 'Bruins', '14', 'MTL', 'Montreal', 'Canadiens', '4', 'Bell Centre', '11', 'BOS', 'Boston', 'Bruins', '1', '0', '0', '0', '2', '31', '28', '52.5', '1', '0', '0.0', '5', '0', '100.0', '0', '0', '2', '1', '29', '7', '17', '34']"
"['', '33068', '2016-12-14', '00:30:00 GMT', '11', 'BOS', 'Boston', 'Bruins', '10', 'PIT', 'Pittsburgh', 'Penguins', '40', 'PPG Paints Arena', '11', 'BOS', 'Boston', 'Bruins', '0', '0', '0', '1', '1', '44', '27', '62.0', '4', '0', '0.0', '4', '2', '50.0', '0', '0', '3', '4', '44', '4', '8', '29']"
"['', '33071', '2016-12-15', '00:00:00 GMT', '29', 'ANA', 'Anaheim', 'Ducks', '11', 'BOS', 'Boston', 'Bruins', '27', 'TD Garden', '11', 'BOS', 'Boston', 'Bruins', '0', '1', '0', '0', '0', '27', '32', '45.8', '4', '1', '25.0', '3', '0', '100.0', '0', '0', '3', '4', '34', '3', '6', '23']"
"['', '33096', '2016-12-18', '18:00:00 GMT', '28', 'LAK', 'Los Angeles', 'Kings', '11', 'BOS', 'Boston', 'Bruins', '27', 'TD Garden', '11', 'BOS', 'Boston', 'Bruins', '1', '0', '0', '0', '2', '26', '29', '47.3', '4', '0', '0.0', '4', '0', '100.0', '0', '0', '1', '0', '30', '5', '13', '28']"
"['', '33107', '2016-12-20', '00:00:00 GMT', '8', 'NYI', 'New York', 'Islanders', '11', 'BOS', 'Boston', 'Bruins', '27', 'TD Garden', '11', 'BOS', 'Boston', 'Bruins', '0', '1', '0', '0', '0', '35', '18', '66.0', '3', '0', '0.0', '3', '1', '66.7', '0', '0', '2', '4', '50', '5', '10', '32']"
"['', '33127', '2016-12-22', '00:30:00 GMT', '11', 'BOS', 'Boston', 'Bruins', '4', 'FLO', 'Florida', 'Panthers', '3', 'BB&T Center', '11', 'BOS', 'Boston', 'Bruins', '1', '0', '0', '0', '2', '32', '25', '56.1', '3', '1', '33.3', '3', '0', '100.0', '0', '0', '3', '1', '33', '4', '8', '12']"
"['', '33137', '2016-12-23', '00:30:00 GMT', '11', 'BOS', 'Boston', 'Bruins', '3', 'CAR', 'Carolina', 'Hurricanes', '21', 'RBC Center', '11', 'BOS', 'Boston', 'Bruins', '0', '0', '0', '1', '1', '31', '30', '50.8', '3', '1', '33.3', '2', '0', '100.0', '0', '1', '2', '3', '33', '2', '4', '11']"
"['', '33146', '2016-12-27', '00:00:00 GMT', '11', 'BOS', 'Boston', 'Bruins', '19', 'CBJ', 'Columbus', 'Blue Jackets', '17', 'Nationwide Arena', '11', 'BOS', 'Boston', 'Bruins', '0', '1', '0', '0', '0', '33', '30', '52.4', '3', '0', '0.0', '3', '1', '66.7', '0', '0', '3', '4', '40', '4', '8', '8']"
"['', '33158', '2016-12-29', '00:00:00 GMT', '11', 'BOS', 'Boston', 'Bruins', '15', 'BUF', 'Buffalo', 'Sabres', '10', 'KeyBank Center', '11', 'BOS', 'Boston', 'Bruins', '1', '0', '0', '0', '2', '32', '30', '51.6', '5', '1', '20.0', '6', '1', '83.3', '0', '0', '4', '2', '38', '9', '29', '18']"
"['', '33174', '2016-12-31', '18:00:00 GMT', '15', 'BUF', 'Buffalo', 'Sabres', '11', 'BOS', 'Boston', 'Bruins', '27', 'TD Garden', '11', 'BOS', 'Boston', 'Bruins', '1', '0', '0', '0', '2', '26', '30', '46.4', '5', '1', '20.0', '3', '0', '100.0', '0', '0', '3', '1', '28', '5', '10', '22']"
"['', '33189', '2017-01-02', '00:00:00 GMT', '11', 'BOS', 'Boston', 'Bruins', '7', 'NJD', 'New Jersey', 'Devils', '37', 'Prudential Center', '11', 'BOS', 'Boston', 'Bruins', '0', '1', '0', '0', '0', '25', '28', '47.2', '2', '0', '0.0', '6', '0', '100.0', '0', '0', '0', '3', '22', '7', '19', '16']"
"['', '33204', '2017-01-05', '00:00:00 GMT', '24', 'EDM', 'Edmonton', 'Oilers', '11', 'BOS', 'Boston', 'Bruins', '27', 'TD Garden', '11', 'BOS', 'Boston', 'Bruins', '0', '1', '0', '0', '0', '41', '29', '58.6', '3', '1', '33.3', '1', '0', '100.0', '0', '0', '3', '4', '36', '2', '7', '20']"
"['', '33222', '2017-01-07', '00:00:00 GMT', '11', 'BOS', 'Boston', 'Bruins', '4', 'FLO', 'Florida', 'Panthers', '3', 'BB&T Center', '11', 'BOS', 'Boston', 'Bruins', '1', '0', '0', '0', '2', '39', '25', '60.9', '6', '1', '16.7', '3', '0', '100.0', '1', '0', '4', '0', '37', '4', '8', '14']"
"['', '33230', '2017-01-08', '22:00:00 GMT', '11', 'BOS', 'Boston', 'Bruins', '3', 'CAR', 'Carolina', 'Hurricanes', '21', 'RBC Center', '11', 'BOS', 'Boston', 'Bruins', '0', '0', '0', '1', '1', '19', '30', '38.8', '1', '0', '0.0', '1', '0', '100.0', '0', '0', '3', '4', '35', '1', '2', '26']"
"['', '33241', '2017-01-10', '01:00:00 GMT', '11', 'BOS', 'Boston', 'Bruins', '17', 'STL', 'St. Louis', 'Blues', '24', 'Scottrade Center', '11', 'BOS', 'Boston', 'Bruins', '1', '0', '0', '0', '2', '33', '34', '49.3', '4', '2', '50.0', '5', '2', '60.0', '0', '0', '5', '3', '39', '8', '27', '20']"
"['', '33253', '2017-01-12', '01:00:00 GMT', '11', 'BOS', 'Boston', 'Bruins', '18', 'NSH', 'Nashville', 'Predators', '15', 'Bridgestone Arena', '11', 'BOS', 'Boston', 'Bruins', '0', '1', '0', '0', '0', '30', '25', '54.5', '3', '1', '33.3', '1', '0', '100.0', '0', '0', '1', '2', '36', '2', '10', '14']"
"['', '33266', '2017-01-14', '18:00:00 GMT', '6', 'PHI', 'Philadelphia', 'Flyers', '11', 'BOS', 'Boston', 'Bruins', '27', 'TD Garden', '11', 'BOS', 'Boston', 'Bruins', '1', '0', '0', '0', '2', '34', '28', '54.8', '5', '2', '40.0', '4', '2', '50.0', '1', '0', '6', '3', '39', '5', '10', '14']"
"['', '33282', '2017-01-16', '18:00:00 GMT', '8', 'NYI', 'New York', 'Islanders', '11', 'BOS', 'Boston', 'Bruins', '27', 'TD Garden', '11', 'BOS', 'Boston', 'Bruins', '0', '1', '0', '0', '0', '27', '24', '52.9', '2', '0', '0.0', '4', '0', '100.0', '0', '1', '0', '4', '32', '4', '8', '17']"
"['', '33300', '2017-01-18', '01:00:00 GMT', '11', 'BOS', 'Boston', 'Bruins', '16', 'DET', 'Detroit', 'Red Wings', '11', 'Joe Louis Arena', '11', 'BOS', 'Boston', 'Bruins', '0', '0', '0', '1', '1', '38', '27', '58.5', '2', '2', '100.0', '4', '0', '100.0', '1', '0', '5', '5', '33', '4', '8', '17']"
"['', '33311', '2017-01-20', '00:00:00 GMT', '20', 'CHI', 'Chicago', 'Blackhawks', '11', 'BOS', 'Boston', 'Bruins', '27', 'TD Garden', '11', 'BOS', 'Boston', 'Bruins', '0', '1', '0', '0', '0', '29', '20', '59.2', '2', '0', '0.0', '3', '0', '100.0', '0', '0', '0', '1', '30', '3', '6', '19']"
"['', '33328', '2017-01-22', '20:00:00 GMT', '11', 'BOS', 'Boston', 'Bruins', '10', 'PIT', 'Pittsburgh', 'Penguins', '40', 'PPG Paints Arena', '11', 'BOS', 'Boston', 'Bruins', '0', '1', '0', '0', '0', '33', '30', '52.4', '4', '0', '0.0', '1', '1', '0.0', '0', '0', '1', '5', '45', '3', '9', '30']"
"['', '33340', '2017-01-24', '00:00:00 GMT', '16', 'DET', 'Detroit', 'Red Wings', '11', 'BOS', 'Boston', 'Bruins', '27', 'TD Garden', '11', 'BOS', 'Boston', 'Bruins', '1', '0', '0', '0', '2', '35', '29', '54.7', '2', '1', '50.0', '1', '0', '100.0', '0', '0', '4', '3', '49', '2', '4', '29']"
"['', '33354', '2017-01-26', '00:00:00 GMT', '10', 'PIT', 'Pittsburgh', 'Penguins', '11', 'BOS', 'Boston', 'Bruins', '27', 'TD Garden', '11', 'BOS', 'Boston', 'Bruins', '1', '0', '0', '0', '2', '41', '30', '57.7', '6', '1', '16.7', '4', '1', '75.0', '1', '0', '4', '3', '37', '9', '21', '27']"
"['', '33373', '2017-01-31', '00:30:00 GMT', '11', 'BOS', 'Boston', 'Bruins', '1', 'TBL', 'Tampa Bay', 'Lightning', '26', 'Amalie Arena', '11', 'BOS', 'Boston', 'Bruins', '1', '0', '0', '0', '2', '36', '38', '48.6', '4', '1', '25.0', '4', '0', '100.0', '0', '0', '4', '3', '35', '5', '13', '20']"
"['', '33381', '2017-02-01', '01:00:00 GMT', '11', 'BOS', 'Boston', 'Bruins', '5', 'WSH', 'Washington', 'Capitals', '13', 'Verizon Center', '11', 'BOS', 'Boston', 'Bruins', '0', '1', '0', '0', '0', '26', '30', '46.4', '3', '2', '66.7', '3', '1', '66.7', '0', '0', '3', '5', '33', '3', '6', '24']"
"['', '33400', '2017-02-04', '00:00:00 GMT', '12', 'TOR', 'Toronto', 'Maple Leafs', '11', 'BOS', 'Boston', 'Bruins', '27', 'TD Garden', '11', 'BOS', 'Boston', 'Bruins', '0', '1', '0', '0', '0', '46', '31', '59.7', '6', '2', '33.3', '2', '1', '50.0', '0', '0', '5', '6', '41', '4', '11', '30']"
"['', '33428', '2017-02-09', '00:00:00 GMT', '26', 'SJS', 'San Jose', 'Sharks', '11', 'BOS', 'Boston', 'Bruins', '27', 'TD Garden', '11', 'BOS', 'Boston', 'Bruins', '1', '0', '0', '0', '2', '37', '29', '56.1', '3', '2', '66.7', '2', '0', '100.0', '0', '0', '6', '3', '33', '2', '4', '27']"
"['', '33441', '2017-02-11', '18:00:00 GMT', '21', 'VAN', 'Vancouver', 'Canucks', '11', 'BOS', 'Boston', 'Bruins', '27', 'TD Garden', '11', 'BOS', 'Boston', 'Bruins', '1', '0', '0', '0', '2', '27', '28', '49.1', '2', '1', '50.0', '3', '1', '66.7', '0', '0', '4', '3', '30', '3', '6', '25']"
"['', '33458', '2017-02-12', '00:30:00 GMT', '14', 'MTL', 'Montreal', 'Canadiens', '11', 'BOS', 'Boston', 'Bruins', '27', 'TD Garden', '11', 'BOS', 'Boston', 'Bruins', '1', '0', '0', '0', '2', '36', '32', '52.9', '7', '1', '14.3', '6', '0', '100.0', '1', '0', '4', '0', '36', '8', '22', '24']"
"['', '33503', '2017-02-19', '01:30:00 GMT', '11', 'BOS', 'Boston', 'Bruins', '26', 'SJS', 'San Jose', 'Sharks', '9', 'SAP Center at San Jose', '11', 'BOS', 'Boston', 'Bruins', '1', '0', '0', '0', '2', '35', '37', '48.6', '1', '0', '0.0', '1', '0', '100.0', '0', '0', '2', '1', '28', '2', '4', '21']"
"['', '33519', '2017-02-22', '03:30:00 GMT', '11', 'BOS', 'Boston', 'Bruins', '29', 'ANA', 'Anaheim', 'Ducks', '8', 'Honda Center', '11', 'BOS', 'Boston', 'Bruins', '0', '1', '0', '0', '0', '31', '39', '44.3', '5', '0', '0.0', '3', '0', '100.0', '0', '0', '3', '5', '29', '3', '6', '18']"
"['', '33525', '2017-02-23', '03:30:00 GMT', '11', 'BOS', 'Boston', 'Bruins', '28', 'LAK', 'Los Angeles', 'Kings', '25', 'Staples Center', '11', 'BOS', 'Boston', 'Bruins', '1', '0', '0', '0', '2', '30', '36', '45.5', '1', '1', '100.0', '3', '1', '66.7', '0', '0', '4', '1', '25', '4', '8', '33']"
"['', '33538', '2017-02-26', '17:30:00 GMT', '11', 'BOS', 'Boston', 'Bruins', '27', 'DAL', 'Dallas', 'Stars', '2', 'American Airlines Center', '11', 'BOS', 'Boston', 'Bruins', '1', '0', '0', '0', '2', '39', '27', '59.1', '2', '1', '50.0', '2', '1', '50.0', '0', '0', '6', '3', '28', '4', '14', '8']"
"['', '33548', '2017-02-28', '00:00:00 GMT', '30', 'ARI', 'Arizona', 'Coyotes', '11', 'BOS', 'Boston', 'Bruins', '27', 'TD Garden', '11', 'BOS', 'Boston', 'Bruins', '1', '0', '0', '0', '2', '34', '16', '68.0', '2', '0', '0.0', '4', '1', '75.0', '1', '0', '4', '1', '25', '8', '35', '18']"
"['', '33562', '2017-03-02', '00:00:00 GMT', '9', 'NYR', 'New York', 'Rangers', '11', 'BOS', 'Boston', 'Bruins', '27', 'TD Garden', '11', 'BOS', 'Boston', 'Bruins', '0', '1', '0', '0', '0', '35', '28', '55.6', '2', '0', '0.0', '4', '0', '100.0', '0', '0', '1', '2', '33', '4', '8', '24']"
"['', '33578', '2017-03-04', '00:00:00 GMT', '7', 'NJD', 'New Jersey', 'Devils', '11', 'BOS', 'Boston', 'Bruins', '27', 'TD Garden', '11', 'BOS', 'Boston', 'Bruins', '1', '0', '0', '0', '2', '32', '30', '51.6', '5', '1', '20.0', '1', '0', '100.0', '0', '0', '3', '2', '40', '1', '2', '26']"
"['', '33596', '2017-03-06', '00:30:00 GMT', '11', 'BOS', 'Boston', 'Bruins', '13', 'OTT', 'Ottawa', 'Senators', '23', 'Canadian Tire Centre', '11', 'BOS', 'Boston', 'Bruins', '0', '1', '0', '0', '0', '24', '34', '41.4', '1', '1', '100.0', '2', '1', '50.0', '0', '0', '2', '4', '27', '9', '18', '21']"
"['', '33608', '2017-03-08', '01:00:00 GMT', '16', 'DET', 'Detroit', 'Red Wings', '11', 'BOS', 'Boston', 'Bruins', '27', 'TD Garden', '11', 'BOS', 'Boston', 'Bruins', '1', '0', '0', '0', '2', '35', '23', '60.3', '2', '0', '0.0', '3', '0', '100.0', '0', '0', '6', '1', '29', '5', '10', '22']"
"['', '33626', '2017-03-11', '18:00:00 GMT', '6', 'PHI', 'Philadelphia', 'Flyers', '11', 'BOS', 'Boston', 'Bruins', '27', 'TD Garden', '11', 'BOS', 'Boston', 'Bruins', '1', '0', '0', '0', '2', '36', '28', '56.2', '3', '1', '33.3', '2', '0', '100.0', '0', '0', '2', '1', '27', '3', '9', '26']"
"['', '33647', '2017-03-13', '02:00:00 GMT', '11', 'BOS', 'Boston', 'Bruins', '21', 'VAN', 'Vancouver', 'Canucks', '7', 'Rogers Arena', '11', 'BOS', 'Boston', 'Bruins', '1', '0', '0', '0', '2', '38', '34', '52.8', '2', '1', '50.0', '2', '0', '100.0', '0', '0', '6', '3', '43', '2', '4', '19']"
"['', '33660', '2017-03-15', '01:00:00 GMT', '11', 'BOS', 'Boston', 'Bruins', '23', 'CGY', 'Calgary', 'Flames', '18', 'Scotiabank Saddledome', '11', 'BOS', 'Boston', 'Bruins', '1', '0', '0', '0', '2', '39', '20', '66.1', '2', '0', '0.0', '3', '0', '100.0', '0', '0', '5', '2', '32', '3', '6', '7']"
"['', '33670', '2017-03-16', '01:00:00 GMT', '11', 'BOS', 'Boston', 'Bruins', '24', 'EDM', 'Edmonton', 'Oilers', '22', 'Rogers Place', '11', 'BOS', 'Boston', 'Bruins', '0', '1', '0', '0', '0', '31', '37', '45.6', '4', '2', '50.0', '6', '3', '50.0', '1', '0', '4', '7', '36', '9', '24', '22']"
"['', '33696', '2017-03-20', '23:30:00 GMT', '11', 'BOS', 'Boston', 'Bruins', '12', 'TOR', 'Toronto', 'Maple Leafs', '1', 'Air Canada Center', '11', 'BOS', 'Boston', 'Bruins', '0', '1', '0', '0', '0', '34', '27', '55.7', '1', '0', '0.0', '4', '1', '75.0', '0', '0', '2', '4', '35', '6', '12', '26']"
"['', '33701', '2017-03-21', '23:00:00 GMT', '13', 'OTT', 'Ottawa', 'Senators', '11', 'BOS', 'Boston', 'Bruins', '27', 'TD Garden', '11', 'BOS', 'Boston', 'Bruins', '0', '1', '0', '0', '0', '36', '31', '53.7', '5', '2', '40.0', '5', '1', '80.0', '0', '0', '2', '3', '36', '6', '12', '19']"
"['', '33715', '2017-03-23', '23:00:00 GMT', '1', 'TBL', 'Tampa Bay', 'Lightning', '11', 'BOS', 'Boston', 'Bruins', '27', 'TD Garden', '11', 'BOS', 'Boston', 'Bruins', '0', '1', '0', '0', '0', '43', '30', '58.9', '4', '1', '25.0', '5', '2', '60.0', '1', '0', '3', '6', '31', '7', '14', '26']"
"['', '33737', '2017-03-25', '23:00:00 GMT', '11', 'BOS', 'Boston', 'Bruins', '8', 'NYI', 'New York', 'Islanders', '35', 'Ericsson Globe', '11', 'BOS', 'Boston', 'Bruins', '1', '0', '0', '0', '2', '23', '22', '51.1', '3', '0', '0.0', '6', '0', '100.0', '0', '0', '2', '1', '18', '6', '12', '26']"
"['', '33753', '2017-03-28', '23:00:00 GMT', '18', 'NSH', 'Nashville', 'Predators', '11', 'BOS', 'Boston', 'Bruins', '27', 'TD Garden', '11', 'BOS', 'Boston', 'Bruins', '1', '0', '0', '0', '2', '24', '33', '42.1', '6', '0', '0.0', '4', '0', '100.0', '0', '0', '4', '1', '31', '6', '31', '22']"
"['', '33767', '2017-03-30', '23:30:00 GMT', '27', 'DAL', 'Dallas', 'Stars', '11', 'BOS', 'Boston', 'Bruins', '27', 'TD Garden', '11', 'BOS', 'Boston', 'Bruins', '1', '0', '0', '0', '2', '30', '29', '50.8', '3', '1', '33.3', '3', '0', '100.0', '0', '0', '2', '0', '24', '2', '6', '25']"
"['', '33783', '2017-04-01', '17:00:00 GMT', '4', 'FLO', 'Florida', 'Panthers', '11', 'BOS', 'Boston', 'Bruins', '27', 'TD Garden', '11', 'BOS', 'Boston', 'Bruins', '1', '0', '0', '0', '2', '23', '31', '42.6', '4', '1', '25.0', '4', '1', '75.0', '0', '0', '5', '2', '29', '4', '8', '16']"
"['', '33791', '2017-04-02', '16:30:00 GMT', '11', 'BOS', 'Boston', 'Bruins', '20', 'CHI', 'Chicago', 'Blackhawks', '28', 'United Center', '11', 'BOS', 'Boston', 'Bruins', '1', '0', '0', '0', '2', '39', '30', '56.5', '1', '1', '100.0', '3', '0', '100.0', '0', '0', '3', '2', '29', '3', '6', '29']"
"['', '33805', '2017-04-04', '23:00:00 GMT', '1', 'TBL', 'Tampa Bay', 'Lightning', '11', 'BOS', 'Boston', 'Bruins', '27', 'TD Garden', '11', 'BOS', 'Boston', 'Bruins', '1', '0', '0', '0', '2', '36', '16', '69.2', '1', '1', '100.0', '1', '0', '100.0', '0', '0', '4', '0', '38', '3', '17', '21']"
"['', '33820', '2017-04-06', '23:00:00 GMT', '13', 'OTT', 'Ottawa', 'Senators', '11', 'BOS', 'Boston', 'Bruins', '27', 'TD Garden', '11', 'BOS', 'Boston', 'Bruins', '0', '0', '0', '1', '1', '32', '20', '61.5', '1', '1', '100.0', '2', '0', '100.0', '0', '0', '1', '1', '29', '4', '8', '22']"
"['', '33835', '2017-04-08', '19:00:00 GMT', '5', 'WSH', 'Washington', 'Capitals', '11', 'BOS', 'Boston', 'Bruins', '27', 'TD Garden', '11', 'BOS', 'Boston', 'Bruins', '0', '1', '0', '0', '0', '30', '22', '57.7', '3', '0', '0.0', '4', '0', '100.0', '0', '0', '1', '3', '22', '4', '10', '26']"
