"['#Date/Time of Update: 2018-12-10 19:02:57 GMT', '#Game ID', '#Game Date', '#Game Time', '#Away Team ID', '#Away Team Abbr.', '#Away Team City', '#Away Team Name', '#Home Team ID', '#Home Team Abbr.', '#Home Team City', '#Home Team Name', '#Venue ID', '#Venue Name', '#Team ID', '#Team Abbr.', '#Team City', '#Team Name', '#Wins', '#Losses', '#OvertimeWins', '#OvertimeLosses', '#ShootoutWins', '#ShootoutLosses', '#Points', '#FaceoffWins', '#FaceoffLosses', '#FaceoffPercent', '#Powerplays', '#PowerplayGoals', '#PowerplayPercent', '#PenaltyKills', '#PenaltyKillGoalsAllowed', '#PenaltyKillPercent', '#ShorthandedGoalsFor', '#ShorthandedGoalsAgainst', '#GoalsFor', '#GoalsAgainst', '#Shots', '#Penalties', '#PenaltyMinutes', '#Hits']"
"['', '8689', '2009-10-02', '19:00:00 GMT', '17', 'STL', 'St. Louis', 'Blues', '16', 'DET', 'Detroit', 'Red Wings', '11', 'Joe Louis Arena', '16', 'DET', 'Detroit', 'Red Wings', '0', '1', '0', '0', '0', '0', '0', '34', '29', '54.0', '5', '1', '20.0', '4', '1', '75.0', '1', '0', '3', '4', '31', '4', '8', '31']"
"['', '8693', '2009-10-03', '19:00:00 GMT', '16', 'DET', 'Detroit', 'Red Wings', '17', 'STL', 'St. Louis', 'Blues', '24', 'Scottrade Center', '16', 'DET', 'Detroit', 'Red Wings', '0', '1', '0', '0', '0', '0', '0', '38', '26', '59.4', '5', '1', '20.0', '5', '3', '40.0', '0', '0', '3', '5', '30', '6', '12', '29']"
"['', '8723', '2009-10-08', '23:30:00 GMT', '20', 'CHI', 'Chicago', 'Blackhawks', '16', 'DET', 'Detroit', 'Red Wings', '11', 'Joe Louis Arena', '16', 'DET', 'Detroit', 'Red Wings', '1', '0', '0', '0', '0', '0', '2', '27', '23', '54.0', '5', '2', '40.0', '5', '1', '80.0', '0', '0', '3', '2', '20', '6', '15', '25']"
"['', '8733', '2009-10-10', '23:00:00 GMT', '5', 'WSH', 'Washington', 'Capitals', '16', 'DET', 'Detroit', 'Red Wings', '11', 'Joe Louis Arena', '16', 'DET', 'Detroit', 'Red Wings', '1', '0', '0', '0', '0', '0', '2', '30', '36', '45.5', '5', '2', '40.0', '3', '1', '66.7', '0', '0', '3', '2', '34', '3', '6', '26']"
"['', '8756', '2009-10-13', '23:00:00 GMT', '16', 'DET', 'Detroit', 'Red Wings', '15', 'BUF', 'Buffalo', 'Sabres', '10', 'HSBC Arena', '16', 'DET', 'Detroit', 'Red Wings', '0', '1', '0', '0', '0', '0', '0', '20', '33', '37.7', '1', '1', '100.0', '4', '1', '75.0', '0', '0', '2', '6', '22', '5', '10', '28']"
"['', '8765', '2009-10-15', '23:30:00 GMT', '28', 'LAK', 'Los Angeles', 'Kings', '16', 'DET', 'Detroit', 'Red Wings', '11', 'Joe Louis Arena', '16', 'DET', 'Detroit', 'Red Wings', '1', '0', '0', '0', '0', '0', '2', '29', '32', '47.5', '5', '1', '20.0', '4', '0', '100.0', '0', '0', '5', '2', '27', '5', '10', '25']"
"['', '8777', '2009-10-17', '23:00:00 GMT', '22', 'COL', 'Colorado', 'Avalanche', '16', 'DET', 'Detroit', 'Red Wings', '11', 'Joe Louis Arena', '16', 'DET', 'Detroit', 'Red Wings', '0', '0', '0', '1', '0', '0', '1', '32', '24', '57.1', '4', '1', '25.0', '3', '0', '100.0', '0', '0', '3', '3', '28', '4', '11', '20']"
"['', '8808', '2009-10-22', '02:00:00 GMT', '16', 'DET', 'Detroit', 'Red Wings', '30', 'PHX', 'Phoenix', 'Coyotes', '6', 'Jobing.com Arena', '16', 'DET', 'Detroit', 'Red Wings', '0', '0', '0', '1', '0', '0', '1', '27', '34', '44.3', '4', '1', '25.0', '3', '1', '66.7', '0', '0', '2', '3', '25', '5', '10', '17']"
"['', '8824', '2009-10-24', '01:00:00 GMT', '16', 'DET', 'Detroit', 'Red Wings', '22', 'COL', 'Colorado', 'Avalanche', '19', 'Pepsi Center', '16', 'DET', 'Detroit', 'Red Wings', '0', '1', '0', '0', '0', '0', '0', '33', '31', '51.6', '8', '0', '0.0', '3', '0', '100.0', '0', '0', '1', '3', '48', '3', '6', '13']"
"['', '8837', '2009-10-27', '02:00:00 GMT', '16', 'DET', 'Detroit', 'Red Wings', '21', 'VAN', 'Vancouver', 'Canucks', '7', 'General Motors Place', '16', 'DET', 'Detroit', 'Red Wings', '1', '0', '0', '0', '0', '0', '2', '31', '32', '49.2', '3', '2', '66.7', '4', '2', '50.0', '0', '0', '5', '4', '37', '5', '13', '16']"
"['', '8853', '2009-10-29', '01:30:00 GMT', '16', 'DET', 'Detroit', 'Red Wings', '24', 'EDM', 'Edmonton', 'Oilers', '22', 'Rogers Place', '16', 'DET', 'Detroit', 'Red Wings', '0', '0', '0', '1', '0', '0', '1', '35', '23', '60.3', '3', '0', '0.0', '3', '2', '33.3', '0', '0', '5', '5', '40', '3', '6', '12']"
"['', '8873', '2009-10-31', '02:00:00 GMT', '16', 'DET', 'Detroit', 'Red Wings', '23', 'CGY', 'Calgary', 'Flames', '18', 'Pengrowth Saddledome', '16', 'DET', 'Detroit', 'Red Wings', '1', '0', '0', '0', '0', '0', '2', '29', '28', '50.9', '3', '0', '0.0', '2', '0', '100.0', '0', '0', '3', '1', '27', '2', '4', '14']"
"['', '8881', '2009-11-03', '00:00:00 GMT', '11', 'BOS', 'Boston', 'Bruins', '16', 'DET', 'Detroit', 'Red Wings', '11', 'Joe Louis Arena', '16', 'DET', 'Detroit', 'Red Wings', '1', '0', '0', '0', '0', '0', '2', '25', '36', '41.0', '4', '1', '25.0', '3', '0', '100.0', '0', '0', '2', '0', '24', '4', '8', '28']"
"['', '8894', '2009-11-05', '00:30:00 GMT', '26', 'SJS', 'San Jose', 'Sharks', '16', 'DET', 'Detroit', 'Red Wings', '11', 'Joe Louis Arena', '16', 'DET', 'Detroit', 'Red Wings', '1', '0', '0', '0', '0', '0', '2', '25', '30', '45.5', '2', '0', '0.0', '3', '0', '100.0', '0', '0', '1', '1', '35', '4', '8', '32']"
"['', '8914', '2009-11-07', '00:00:00 GMT', '16', 'DET', 'Detroit', 'Red Wings', '12', 'TOR', 'Toronto', 'Maple Leafs', '1', 'Air Canada Center', '16', 'DET', 'Detroit', 'Red Wings', '0', '1', '0', '0', '0', '0', '0', '25', '25', '50.0', '5', '0', '0.0', '4', '1', '75.0', '0', '0', '1', '5', '35', '4', '8', '25']"
"['', '8934', '2009-11-11', '00:00:00 GMT', '16', 'DET', 'Detroit', 'Red Wings', '19', 'CBJ', 'Columbus', 'Blue Jackets', '17', 'Nationwide Arena', '16', 'DET', 'Detroit', 'Red Wings', '1', '0', '0', '0', '0', '0', '2', '27', '26', '50.9', '4', '2', '50.0', '1', '0', '100.0', '0', '0', '9', '1', '30', '3', '9', '13']"
"['', '8939', '2009-11-12', '00:30:00 GMT', '21', 'VAN', 'Vancouver', 'Canucks', '16', 'DET', 'Detroit', 'Red Wings', '11', 'Joe Louis Arena', '16', 'DET', 'Detroit', 'Red Wings', '1', '0', '0', '0', '0', '0', '2', '39', '34', '53.4', '2', '1', '50.0', '5', '1', '80.0', '0', '0', '3', '1', '26', '7', '17', '34']"
"['', '8951', '2009-11-14', '00:00:00 GMT', '29', 'ANA', 'Anaheim', 'Ducks', '16', 'DET', 'Detroit', 'Red Wings', '11', 'Joe Louis Arena', '16', 'DET', 'Detroit', 'Red Wings', '1', '0', '0', '0', '0', '0', '2', '38', '25', '60.3', '4', '3', '75.0', '4', '2', '50.0', '0', '0', '7', '4', '30', '5', '10', '22']"
"['', '8978', '2009-11-18', '00:30:00 GMT', '27', 'DAL', 'Dallas', 'Stars', '16', 'DET', 'Detroit', 'Red Wings', '11', 'Joe Louis Arena', '16', 'DET', 'Detroit', 'Red Wings', '0', '1', '0', '0', '0', '0', '0', '32', '23', '58.2', '4', '0', '0.0', '5', '2', '60.0', '0', '0', '1', '3', '31', '7', '17', '32']"
"['', '8992', '2009-11-20', '00:30:00 GMT', '4', 'FLO', 'Florida', 'Panthers', '16', 'DET', 'Detroit', 'Red Wings', '11', 'Joe Louis Arena', '16', 'DET', 'Detroit', 'Red Wings', '0', '0', '0', '1', '0', '0', '1', '23', '25', '47.9', '3', '1', '33.3', '3', '0', '100.0', '0', '0', '1', '2', '39', '3', '6', '39']"
"['', '8998', '2009-11-21', '00:00:00 GMT', '16', 'DET', 'Detroit', 'Red Wings', '14', 'MTL', 'Montreal', 'Canadiens', '4', 'Bell Centre', '16', 'DET', 'Detroit', 'Red Wings', '1', '0', '0', '0', '0', '0', '2', '32', '29', '52.5', '6', '2', '33.3', '1', '0', '100.0', '0', '0', '2', '2', '32', '1', '2', '20']"
"['', '9013', '2009-11-23', '00:00:00 GMT', '16', 'DET', 'Detroit', 'Red Wings', '18', 'NSH', 'Nashville', 'Predators', '15', 'Sommet Center', '16', 'DET', 'Detroit', 'Red Wings', '0', '1', '0', '0', '0', '0', '0', '27', '34', '44.3', '2', '0', '0.0', '4', '1', '75.0', '0', '0', '1', '3', '30', '4', '8', '16']"
"['', '9026', '2009-11-25', '00:30:00 GMT', '2', 'ATL', 'Atlanta', 'Thrashers', '16', 'DET', 'Detroit', 'Red Wings', '11', 'Joe Louis Arena', '16', 'DET', 'Detroit', 'Red Wings', '0', '1', '0', '0', '0', '0', '0', '29', '25', '53.7', '3', '0', '0.0', '4', '1', '75.0', '0', '0', '0', '2', '40', '4', '8', '25']"
"['', '9044', '2009-11-27', '00:30:00 GMT', '23', 'CGY', 'Calgary', 'Flames', '16', 'DET', 'Detroit', 'Red Wings', '11', 'Joe Louis Arena', '16', 'DET', 'Detroit', 'Red Wings', '0', '1', '0', '0', '0', '0', '0', '38', '30', '55.9', '5', '0', '0.0', '1', '0', '100.0', '0', '0', '0', '3', '40', '2', '4', '38']"
"['', '9058', '2009-11-28', '01:00:00 GMT', '16', 'DET', 'Detroit', 'Red Wings', '17', 'STL', 'St. Louis', 'Blues', '24', 'Scottrade Center', '16', 'DET', 'Detroit', 'Red Wings', '1', '0', '0', '0', '0', '0', '2', '42', '30', '58.3', '1', '1', '100.0', '2', '0', '100.0', '0', '0', '3', '3', '33', '2', '4', '30']"
"['', '9070', '2009-11-30', '00:30:00 GMT', '27', 'DAL', 'Dallas', 'Stars', '16', 'DET', 'Detroit', 'Red Wings', '11', 'Joe Louis Arena', '16', 'DET', 'Detroit', 'Red Wings', '1', '0', '0', '0', '0', '0', '2', '28', '14', '66.7', '4', '0', '0.0', '4', '0', '100.0', '0', '0', '4', '1', '28', '4', '8', '30']"
"['', '9086', '2009-12-03', '00:30:00 GMT', '24', 'EDM', 'Edmonton', 'Oilers', '16', 'DET', 'Detroit', 'Red Wings', '11', 'Joe Louis Arena', '16', 'DET', 'Detroit', 'Red Wings', '0', '1', '0', '0', '0', '0', '0', '28', '18', '60.9', '1', '0', '0.0', '1', '0', '100.0', '0', '0', '1', '4', '27', '2', '4', '33']"
"['', '9101', '2009-12-05', '00:00:00 GMT', '16', 'DET', 'Detroit', 'Red Wings', '7', 'NJD', 'New Jersey', 'Devils', '5', 'Izod Center', '16', 'DET', 'Detroit', 'Red Wings', '0', '0', '0', '1', '0', '0', '1', '30', '22', '57.7', '3', '1', '33.3', '1', '0', '100.0', '0', '0', '3', '3', '28', '2', '4', '33']"
"['', '9110', '2009-12-06', '00:00:00 GMT', '16', 'DET', 'Detroit', 'Red Wings', '9', 'NYR', 'New York', 'Rangers', '12', 'Madison Square Garden', '16', 'DET', 'Detroit', 'Red Wings', '1', '0', '0', '0', '0', '0', '2', '35', '26', '57.4', '3', '1', '33.3', '4', '0', '100.0', '0', '0', '3', '1', '28', '4', '8', '31']"
"['', '9129', '2009-12-09', '00:30:00 GMT', '17', 'STL', 'St. Louis', 'Blues', '16', 'DET', 'Detroit', 'Red Wings', '11', 'Joe Louis Arena', '16', 'DET', 'Detroit', 'Red Wings', '0', '1', '0', '0', '0', '0', '0', '28', '34', '45.2', '6', '0', '0.0', '4', '0', '100.0', '0', '0', '0', '1', '42', '4', '8', '29']"
"['', '9144', '2009-12-11', '00:30:00 GMT', '29', 'ANA', 'Anaheim', 'Ducks', '16', 'DET', 'Detroit', 'Red Wings', '11', 'Joe Louis Arena', '16', 'DET', 'Detroit', 'Red Wings', '1', '0', '0', '0', '0', '0', '2', '25', '33', '43.1', '10', '2', '20.0', '2', '0', '100.0', '0', '0', '3', '2', '28', '5', '13', '27']"
"['', '9158', '2009-12-12', '01:00:00 GMT', '16', 'DET', 'Detroit', 'Red Wings', '18', 'NSH', 'Nashville', 'Predators', '15', 'Sommet Center', '16', 'DET', 'Detroit', 'Red Wings', '1', '0', '0', '0', '0', '0', '2', '29', '28', '50.9', '4', '0', '0.0', '4', '1', '75.0', '0', '0', '3', '2', '26', '4', '8', '18']"
"['', '9168', '2009-12-14', '00:30:00 GMT', '30', 'PHX', 'Phoenix', 'Coyotes', '16', 'DET', 'Detroit', 'Red Wings', '11', 'Joe Louis Arena', '16', 'DET', 'Detroit', 'Red Wings', '1', '0', '0', '0', '0', '0', '2', '31', '12', '72.1', '3', '0', '0.0', '3', '0', '100.0', '1', '0', '3', '2', '29', '3', '6', '22']"
"['', '9190', '2009-12-17', '00:30:00 GMT', '1', 'TBL', 'Tampa Bay', 'Lightning', '16', 'DET', 'Detroit', 'Red Wings', '11', 'Joe Louis Arena', '16', 'DET', 'Detroit', 'Red Wings', '1', '0', '0', '0', '0', '0', '2', '22', '24', '47.8', '2', '0', '0.0', '4', '0', '100.0', '0', '0', '3', '0', '19', '7', '17', '29']"
"['', '9201', '2009-12-19', '20:00:00 GMT', '16', 'DET', 'Detroit', 'Red Wings', '27', 'DAL', 'Dallas', 'Stars', '2', 'American Airlines Center', '16', 'DET', 'Detroit', 'Red Wings', '0', '1', '0', '0', '0', '0', '0', '31', '19', '62.0', '2', '0', '0.0', '2', '0', '100.0', '0', '0', '3', '4', '30', '3', '9', '38']"
"['', '9212', '2009-12-20', '00:00:00 GMT', '16', 'DET', 'Detroit', 'Red Wings', '20', 'CHI', 'Chicago', 'Blackhawks', '28', 'United Center', '16', 'DET', 'Detroit', 'Red Wings', '0', '1', '0', '0', '0', '0', '0', '16', '29', '35.6', '1', '0', '0.0', '3', '1', '66.7', '0', '0', '0', '3', '20', '6', '20', '24']"
"['', '9235', '2009-12-23', '00:30:00 GMT', '20', 'CHI', 'Chicago', 'Blackhawks', '16', 'DET', 'Detroit', 'Red Wings', '11', 'Joe Louis Arena', '16', 'DET', 'Detroit', 'Red Wings', '0', '1', '0', '0', '0', '0', '0', '27', '27', '50.0', '4', '0', '0.0', '2', '1', '50.0', '0', '0', '0', '3', '33', '5', '10', '33']"
"['', '9241', '2009-12-26', '00:00:00 GMT', '19', 'CBJ', 'Columbus', 'Blue Jackets', '16', 'DET', 'Detroit', 'Red Wings', '11', 'Joe Louis Arena', '16', 'DET', 'Detroit', 'Red Wings', '1', '0', '0', '0', '0', '0', '2', '24', '20', '54.5', '4', '1', '25.0', '4', '0', '100.0', '0', '0', '2', '1', '25', '5', '10', '23']"
"['', '9261', '2009-12-28', '00:00:00 GMT', '16', 'DET', 'Detroit', 'Red Wings', '19', 'CBJ', 'Columbus', 'Blue Jackets', '17', 'Nationwide Arena', '16', 'DET', 'Detroit', 'Red Wings', '0', '0', '0', '1', '0', '0', '1', '32', '32', '50.0', '4', '0', '0.0', '3', '0', '100.0', '0', '0', '0', '1', '34', '6', '18', '13']"
"['', '9282', '2009-12-31', '00:00:00 GMT', '22', 'COL', 'Colorado', 'Avalanche', '16', 'DET', 'Detroit', 'Red Wings', '11', 'Joe Louis Arena', '16', 'DET', 'Detroit', 'Red Wings', '1', '0', '0', '0', '0', '0', '2', '31', '25', '55.4', '2', '0', '0.0', '6', '2', '66.7', '2', '0', '4', '2', '31', '7', '14', '24']"
"['', '9302', '2010-01-02', '01:00:00 GMT', '16', 'DET', 'Detroit', 'Red Wings', '30', 'PHX', 'Phoenix', 'Coyotes', '6', 'Jobing.com Arena', '16', 'DET', 'Detroit', 'Red Wings', '1', '0', '0', '0', '0', '0', '2', '31', '22', '58.5', '4', '1', '25.0', '3', '1', '66.7', '0', '0', '4', '1', '32', '4', '8', '16']"
"['', '9321', '2010-01-05', '03:00:00 GMT', '16', 'DET', 'Detroit', 'Red Wings', '29', 'ANA', 'Anaheim', 'Ducks', '8', 'Honda Center', '16', 'DET', 'Detroit', 'Red Wings', '0', '1', '0', '0', '0', '0', '0', '34', '29', '54.0', '4', '0', '0.0', '4', '0', '100.0', '0', '1', '1', '4', '38', '10', '26', '13']"
"['', '9337', '2010-01-07', '03:30:00 GMT', '16', 'DET', 'Detroit', 'Red Wings', '28', 'LAK', 'Los Angeles', 'Kings', '25', 'Staples Center', '16', 'DET', 'Detroit', 'Red Wings', '1', '0', '0', '0', '0', '0', '2', '26', '23', '53.1', '2', '0', '0.0', '3', '1', '66.7', '0', '0', '2', '1', '22', '5', '10', '22']"
"['', '9355', '2010-01-09', '03:30:00 GMT', '16', 'DET', 'Detroit', 'Red Wings', '26', 'SJS', 'San Jose', 'Sharks', '9', 'HP Pavilion at San Jose', '16', 'DET', 'Detroit', 'Red Wings', '1', '0', '0', '0', '0', '0', '2', '21', '27', '43.8', '1', '0', '0.0', '2', '0', '100.0', '0', '0', '4', '1', '18', '3', '9', '18']"
"['', '9363', '2010-01-12', '00:00:00 GMT', '16', 'DET', 'Detroit', 'Red Wings', '8', 'NYI', 'New York', 'Islanders', '16', 'Nassau Veterans Memorial Coliseum', '16', 'DET', 'Detroit', 'Red Wings', '0', '1', '0', '0', '0', '0', '0', '24', '26', '48.0', '3', '0', '0.0', '2', '1', '50.0', '0', '0', '0', '6', '16', '3', '6', '26']"
"['', '9379', '2010-01-14', '00:30:00 GMT', '3', 'CAR', 'Carolina', 'Hurricanes', '16', 'DET', 'Detroit', 'Red Wings', '11', 'Joe Louis Arena', '16', 'DET', 'Detroit', 'Red Wings', '1', '0', '0', '0', '0', '0', '2', '33', '22', '60.0', '5', '2', '40.0', '2', '0', '100.0', '0', '0', '3', '1', '32', '2', '4', '22']"
"['', '9390', '2010-01-16', '19:00:00 GMT', '16', 'DET', 'Detroit', 'Red Wings', '27', 'DAL', 'Dallas', 'Stars', '2', 'American Airlines Center', '16', 'DET', 'Detroit', 'Red Wings', '0', '0', '0', '1', '0', '0', '1', '25', '17', '59.5', '1', '1', '100.0', '3', '1', '66.7', '0', '0', '2', '2', '26', '3', '6', '40']"
"['', '9402', '2010-01-17', '20:00:00 GMT', '20', 'CHI', 'Chicago', 'Blackhawks', '16', 'DET', 'Detroit', 'Red Wings', '11', 'Joe Louis Arena', '16', 'DET', 'Detroit', 'Red Wings', '0', '0', '0', '1', '0', '0', '1', '26', '34', '43.3', '3', '1', '33.3', '4', '1', '75.0', '0', '0', '3', '3', '35', '5', '13', '35']"
"['', '9418', '2010-01-19', '00:00:00 GMT', '16', 'DET', 'Detroit', 'Red Wings', '5', 'WSH', 'Washington', 'Capitals', '13', 'Verizon Center', '16', 'DET', 'Detroit', 'Red Wings', '0', '1', '0', '0', '0', '0', '0', '25', '25', '50.0', '5', '0', '0.0', '4', '1', '75.0', '0', '0', '2', '3', '44', '4', '8', '17']"
"['', '9434', '2010-01-21', '01:00:00 GMT', '16', 'DET', 'Detroit', 'Red Wings', '25', 'MIN', 'Minnesota', 'Wild', '30', 'Xcel Energy Center', '16', 'DET', 'Detroit', 'Red Wings', '1', '0', '0', '0', '0', '0', '2', '15', '31', '32.6', '3', '0', '0.0', '1', '0', '100.0', '0', '0', '3', '3', '26', '1', '2', '23']"
"['', '9445', '2010-01-23', '00:00:00 GMT', '28', 'LAK', 'Los Angeles', 'Kings', '16', 'DET', 'Detroit', 'Red Wings', '11', 'Joe Louis Arena', '16', 'DET', 'Detroit', 'Red Wings', '0', '1', '0', '0', '0', '0', '0', '29', '24', '54.7', '3', '1', '33.3', '3', '0', '100.0', '0', '0', '2', '3', '31', '3', '6', '24']"
"['', '9461', '2010-01-26', '00:00:00 GMT', '30', 'PHX', 'Phoenix', 'Coyotes', '16', 'DET', 'Detroit', 'Red Wings', '11', 'Joe Louis Arena', '16', 'DET', 'Detroit', 'Red Wings', '0', '0', '0', '1', '0', '0', '1', '26', '39', '40.0', '3', '1', '33.3', '5', '2', '60.0', '0', '0', '4', '5', '32', '5', '10', '20']"
"['', '9473', '2010-01-27', '01:00:00 GMT', '16', 'DET', 'Detroit', 'Red Wings', '25', 'MIN', 'Minnesota', 'Wild', '30', 'Xcel Energy Center', '16', 'DET', 'Detroit', 'Red Wings', '0', '1', '0', '0', '0', '0', '0', '25', '30', '45.5', '2', '0', '0.0', '5', '1', '80.0', '0', '0', '2', '5', '26', '8', '16', '9']"
"['', '9487', '2010-01-29', '00:30:00 GMT', '18', 'NSH', 'Nashville', 'Predators', '16', 'DET', 'Detroit', 'Red Wings', '11', 'Joe Louis Arena', '16', 'DET', 'Detroit', 'Red Wings', '1', '0', '0', '0', '0', '0', '2', '28', '31', '47.5', '4', '2', '50.0', '4', '0', '100.0', '0', '0', '4', '2', '25', '4', '8', '30']"
"['', '9500', '2010-01-31', '20:00:00 GMT', '16', 'DET', 'Detroit', 'Red Wings', '10', 'PIT', 'Pittsburgh', 'Penguins', '14', 'Mellon Arena', '16', 'DET', 'Detroit', 'Red Wings', '0', '0', '0', '1', '0', '0', '1', '41', '20', '67.2', '5', '0', '0.0', '2', '0', '100.0', '0', '0', '1', '1', '23', '3', '6', '19']"
"['', '9518', '2010-02-02', '03:30:00 GMT', '16', 'DET', 'Detroit', 'Red Wings', '26', 'SJS', 'San Jose', 'Sharks', '9', 'HP Pavilion at San Jose', '16', 'DET', 'Detroit', 'Red Wings', '1', '0', '0', '0', '0', '0', '2', '27', '39', '40.9', '4', '2', '50.0', '3', '0', '100.0', '0', '0', '4', '2', '33', '3', '6', '24']"
"['', '9523', '2010-02-03', '03:00:00 GMT', '16', 'DET', 'Detroit', 'Red Wings', '29', 'ANA', 'Anaheim', 'Ducks', '8', 'Honda Center', '16', 'DET', 'Detroit', 'Red Wings', '0', '1', '0', '0', '0', '0', '0', '25', '29', '46.3', '3', '1', '33.3', '3', '0', '100.0', '0', '0', '1', '3', '46', '4', '11', '20']"
"['', '9540', '2010-02-06', '21:00:00 GMT', '16', 'DET', 'Detroit', 'Red Wings', '28', 'LAK', 'Los Angeles', 'Kings', '25', 'Staples Center', '16', 'DET', 'Detroit', 'Red Wings', '0', '1', '0', '0', '0', '0', '0', '24', '24', '50.0', '4', '0', '0.0', '2', '0', '100.0', '0', '0', '3', '4', '20', '3', '6', '15']"
"['', '9564', '2010-02-09', '01:00:00 GMT', '16', 'DET', 'Detroit', 'Red Wings', '17', 'STL', 'St. Louis', 'Blues', '24', 'Scottrade Center', '16', 'DET', 'Detroit', 'Red Wings', '0', '0', '0', '1', '0', '0', '1', '33', '37', '47.1', '4', '0', '0.0', '4', '1', '75.0', '0', '0', '3', '3', '39', '6', '15', '17']"
"['', '9576', '2010-02-11', '00:30:00 GMT', '26', 'SJS', 'San Jose', 'Sharks', '16', 'DET', 'Detroit', 'Red Wings', '11', 'Joe Louis Arena', '16', 'DET', 'Detroit', 'Red Wings', '0', '0', '0', '1', '0', '0', '1', '40', '39', '50.6', '6', '1', '16.7', '1', '0', '100.0', '0', '0', '2', '2', '50', '4', '11', '34']"
"['', '9590', '2010-02-13', '00:00:00 GMT', '13', 'OTT', 'Ottawa', 'Senators', '16', 'DET', 'Detroit', 'Red Wings', '11', 'Joe Louis Arena', '16', 'DET', 'Detroit', 'Red Wings', '1', '0', '0', '0', '0', '0', '2', '27', '26', '50.9', '4', '2', '50.0', '2', '0', '100.0', '0', '0', '4', '1', '36', '2', '4', '23']"
"['', '9913', '2010-03-01', '02:00:00 GMT', '16', 'DET', 'Detroit', 'Red Wings', '22', 'COL', 'Colorado', 'Avalanche', '19', 'Pepsi Center', '16', 'DET', 'Detroit', 'Red Wings', '1', '0', '0', '0', '0', '0', '2', '24', '25', '49.0', '4', '2', '50.0', '2', '0', '100.0', '0', '0', '3', '2', '27', '3', '6', '16']"
"['', '9618', '2010-03-03', '00:30:00 GMT', '21', 'VAN', 'Vancouver', 'Canucks', '16', 'DET', 'Detroit', 'Red Wings', '11', 'Joe Louis Arena', '16', 'DET', 'Detroit', 'Red Wings', '0', '1', '0', '0', '0', '0', '0', '27', '33', '45.0', '2', '1', '50.0', '4', '2', '50.0', '0', '0', '3', '6', '28', '5', '10', '24']"
"['', '9633', '2010-03-05', '00:30:00 GMT', '18', 'NSH', 'Nashville', 'Predators', '16', 'DET', 'Detroit', 'Red Wings', '11', 'Joe Louis Arena', '16', 'DET', 'Detroit', 'Red Wings', '1', '0', '0', '0', '0', '0', '2', '32', '13', '71.1', '3', '1', '33.3', '4', '0', '100.0', '1', '0', '5', '2', '27', '4', '8', '32']"
"['', '9651', '2010-03-07', '00:00:00 GMT', '16', 'DET', 'Detroit', 'Red Wings', '20', 'CHI', 'Chicago', 'Blackhawks', '28', 'United Center', '16', 'DET', 'Detroit', 'Red Wings', '1', '0', '0', '0', '0', '0', '2', '29', '28', '50.9', '1', '1', '100.0', '3', '0', '100.0', '0', '0', '5', '4', '20', '5', '10', '24']"
"['', '9661', '2010-03-09', '00:30:00 GMT', '23', 'CGY', 'Calgary', 'Flames', '16', 'DET', 'Detroit', 'Red Wings', '11', 'Joe Louis Arena', '16', 'DET', 'Detroit', 'Red Wings', '0', '1', '0', '0', '0', '0', '0', '28', '24', '53.8', '4', '1', '25.0', '2', '0', '100.0', '0', '0', '2', '4', '28', '2', '4', '35']"
"['', '9677', '2010-03-11', '00:30:00 GMT', '25', 'MIN', 'Minnesota', 'Wild', '16', 'DET', 'Detroit', 'Red Wings', '11', 'Joe Louis Arena', '16', 'DET', 'Detroit', 'Red Wings', '1', '0', '0', '0', '0', '0', '2', '28', '31', '47.5', '5', '1', '20.0', '4', '0', '100.0', '1', '0', '5', '1', '25', '5', '10', '22']"
"['', '9690', '2010-03-13', '00:00:00 GMT', '15', 'BUF', 'Buffalo', 'Sabres', '16', 'DET', 'Detroit', 'Red Wings', '11', 'Joe Louis Arena', '16', 'DET', 'Detroit', 'Red Wings', '1', '0', '0', '0', '0', '0', '2', '22', '21', '51.2', '4', '1', '25.0', '2', '0', '100.0', '0', '0', '3', '2', '34', '3', '6', '30']"
"['', '9709', '2010-03-15', '01:30:00 GMT', '16', 'DET', 'Detroit', 'Red Wings', '23', 'CGY', 'Calgary', 'Flames', '18', 'Pengrowth Saddledome', '16', 'DET', 'Detroit', 'Red Wings', '1', '0', '0', '0', '0', '0', '2', '20', '34', '37.0', '1', '1', '100.0', '3', '0', '100.0', '0', '0', '2', '1', '26', '6', '20', '16']"
"['', '9737', '2010-03-19', '01:30:00 GMT', '16', 'DET', 'Detroit', 'Red Wings', '24', 'EDM', 'Edmonton', 'Oilers', '22', 'Rogers Place', '16', 'DET', 'Detroit', 'Red Wings', '0', '0', '0', '1', '0', '0', '1', '25', '26', '49.0', '2', '0', '0.0', '1', '0', '100.0', '0', '0', '2', '2', '31', '1', '2', '18']"
"['', '9748', '2010-03-20', '02:00:00 GMT', '16', 'DET', 'Detroit', 'Red Wings', '21', 'VAN', 'Vancouver', 'Canucks', '7', 'General Motors Place', '16', 'DET', 'Detroit', 'Red Wings', '1', '0', '0', '0', '0', '0', '2', '30', '29', '50.8', '2', '0', '0.0', '2', '0', '100.0', '1', '0', '4', '3', '50', '2', '4', '12']"
"['', '9759', '2010-03-22', '23:00:00 GMT', '10', 'PIT', 'Pittsburgh', 'Penguins', '16', 'DET', 'Detroit', 'Red Wings', '11', 'Joe Louis Arena', '16', 'DET', 'Detroit', 'Red Wings', '1', '0', '0', '0', '0', '0', '2', '32', '26', '55.2', '4', '0', '0.0', '2', '0', '100.0', '0', '0', '3', '1', '30', '5', '10', '22']"
"['', '9775', '2010-03-24', '23:30:00 GMT', '17', 'STL', 'St. Louis', 'Blues', '16', 'DET', 'Detroit', 'Red Wings', '11', 'Joe Louis Arena', '16', 'DET', 'Detroit', 'Red Wings', '1', '0', '0', '0', '0', '0', '2', '25', '21', '54.3', '2', '0', '0.0', '3', '0', '100.0', '0', '0', '4', '2', '20', '3', '6', '28']"
"['', '9790', '2010-03-26', '23:30:00 GMT', '25', 'MIN', 'Minnesota', 'Wild', '16', 'DET', 'Detroit', 'Red Wings', '11', 'Joe Louis Arena', '16', 'DET', 'Detroit', 'Red Wings', '1', '0', '0', '0', '0', '0', '2', '33', '33', '50.0', '9', '2', '22.2', '4', '1', '75.0', '1', '0', '6', '2', '36', '5', '10', '17']"
"['', '9800', '2010-03-27', '00:00:00 GMT', '16', 'DET', 'Detroit', 'Red Wings', '18', 'NSH', 'Nashville', 'Predators', '15', 'Sommet Center', '16', 'DET', 'Detroit', 'Red Wings', '1', '0', '0', '0', '0', '0', '2', '33', '28', '54.1', '2', '0', '0.0', '3', '0', '100.0', '0', '0', '0', '0', '38', '3', '6', '17']"
"['', '9820', '2010-03-30', '23:30:00 GMT', '24', 'EDM', 'Edmonton', 'Oilers', '16', 'DET', 'Detroit', 'Red Wings', '11', 'Joe Louis Arena', '16', 'DET', 'Detroit', 'Red Wings', '1', '0', '0', '0', '0', '0', '2', '33', '24', '57.9', '3', '1', '33.3', '3', '1', '66.7', '0', '0', '5', '4', '39', '4', '8', '23']"
"['', '9835', '2010-04-01', '23:30:00 GMT', '19', 'CBJ', 'Columbus', 'Blue Jackets', '16', 'DET', 'Detroit', 'Red Wings', '11', 'Joe Louis Arena', '16', 'DET', 'Detroit', 'Red Wings', '1', '0', '0', '0', '0', '0', '2', '27', '26', '50.9', '3', '1', '33.3', '2', '1', '50.0', '0', '0', '3', '2', '29', '2', '4', '26']"
"['', '9847', '2010-04-03', '18:00:00 GMT', '18', 'NSH', 'Nashville', 'Predators', '16', 'DET', 'Detroit', 'Red Wings', '11', 'Joe Louis Arena', '16', 'DET', 'Detroit', 'Red Wings', '0', '0', '0', '1', '0', '0', '1', '31', '29', '51.7', '3', '1', '33.3', '0', '0', '0.0', '0', '0', '3', '4', '28', '2', '4', '35']"
"['', '9858', '2010-04-04', '16:30:00 GMT', '16', 'DET', 'Detroit', 'Red Wings', '6', 'PHI', 'Philadelphia', 'Flyers', '29', 'Wachovia Center', '16', 'DET', 'Detroit', 'Red Wings', '0', '1', '0', '0', '0', '0', '0', '28', '21', '57.1', '3', '0', '0.0', '2', '0', '100.0', '0', '0', '3', '4', '31', '5', '10', '20']"
"['', '9876', '2010-04-07', '23:30:00 GMT', '19', 'CBJ', 'Columbus', 'Blue Jackets', '16', 'DET', 'Detroit', 'Red Wings', '11', 'Joe Louis Arena', '16', 'DET', 'Detroit', 'Red Wings', '1', '0', '0', '0', '0', '0', '2', '25', '22', '53.2', '5', '2', '40.0', '1', '0', '100.0', '0', '0', '4', '3', '31', '3', '9', '27']"
"['', '9891', '2010-04-09', '23:00:00 GMT', '16', 'DET', 'Detroit', 'Red Wings', '19', 'CBJ', 'Columbus', 'Blue Jackets', '17', 'Nationwide Arena', '16', 'DET', 'Detroit', 'Red Wings', '1', '0', '0', '0', '0', '0', '2', '21', '36', '36.8', '4', '0', '0.0', '3', '0', '100.0', '0', '0', '0', '0', '45', '5', '10', '16']"
"['', '9905', '2010-04-11', '19:00:00 GMT', '16', 'DET', 'Detroit', 'Red Wings', '20', 'CHI', 'Chicago', 'Blackhawks', '28', 'United Center', '16', 'DET', 'Detroit', 'Red Wings', '1', '0', '0', '0', '0', '0', '2', '18', '30', '37.5', '0', '0', '0.0', '4', '1', '75.0', '0', '0', '3', '2', '18', '4', '8', '28']"
