"['#Date/Time of Update: 2018-12-10 19:03:26 GMT', '#Game ID', '#Game Date', '#Game Time', '#Away Team ID', '#Away Team Abbr.', '#Away Team City', '#Away Team Name', '#Home Team ID', '#Home Team Abbr.', '#Home Team City', '#Home Team Name', '#Venue ID', '#Venue Name', '#Team ID', '#Team Abbr.', '#Team City', '#Team Name', '#Wins', '#Losses', '#OvertimeWins', '#OvertimeLosses', '#Points', '#FaceoffWins', '#FaceoffLosses', '#FaceoffPercent', '#Powerplays', '#PowerplayGoals', '#PowerplayPercent', '#PenaltyKills', '#PenaltyKillGoalsAllowed', '#PenaltyKillPercent', '#ShorthandedGoalsFor', '#ShorthandedGoalsAgainst', '#GoalsFor', '#GoalsAgainst', '#Shots', '#Penalties', '#PenaltyMinutes', '#Hits']"
"['', '46303', '2018-10-04', '23:00:00 GMT', '11', 'BOS', 'Boston', 'Bruins', '15', 'BUF', 'Buffalo', 'Sabres', '10', 'KeyBank Center', '15', 'BUF', 'Buffalo', 'Sabres', '0', '1', '0', '0', '0', '38', '29', '56.7', '2', '0', '0.0', '1', '1', '0.0', '0', '1', '0', '4', '32', '2', '4', '25']"
"['', '46316', '2018-10-06', '23:00:00 GMT', '9', 'NYR', 'New York', 'Rangers', '15', 'BUF', 'Buffalo', 'Sabres', '10', 'KeyBank Center', '15', 'BUF', 'Buffalo', 'Sabres', '1', '0', '0', '0', '2', '34', '37', '47.9', '5', '2', '40.0', '3', '0', '100.0', '0', '0', '3', '1', '29', '6', '15', '18']"
"['', '46332', '2018-10-08', '19:00:00 GMT', '142', 'VGK', 'Vegas', 'Golden Knights', '15', 'BUF', 'Buffalo', 'Sabres', '10', 'KeyBank Center', '15', 'BUF', 'Buffalo', 'Sabres', '1', '0', '0', '0', '2', '17', '31', '35.4', '2', '1', '50.0', '2', '0', '100.0', '0', '0', '4', '2', '17', '2', '4', '17']"
"['', '46344', '2018-10-11', '23:00:00 GMT', '22', 'COL', 'Colorado', 'Avalanche', '15', 'BUF', 'Buffalo', 'Sabres', '10', 'KeyBank Center', '15', 'BUF', 'Buffalo', 'Sabres', '0', '1', '0', '0', '0', '32', '24', '57.1', '7', '0', '0.0', '4', '2', '50.0', '0', '0', '1', '6', '31', '4', '8', '15']"
"['', '46367', '2018-10-13', '01:00:00 GMT', '15', 'BUF', 'Buffalo', 'Sabres', '30', 'ARI', 'Arizona', 'Coyotes', '6', 'Gila River Arena', '15', 'BUF', 'Buffalo', 'Sabres', '1', '0', '0', '0', '2', '28', '38', '42.4', '3', '1', '33.3', '3', '0', '100.0', '0', '0', '3', '0', '23', '4', '8', '26']"
"['', '46383', '2018-10-16', '02:00:00 GMT', '15', 'BUF', 'Buffalo', 'Sabres', '142', 'VGK', 'Vegas', 'Golden Knights', '139', 'T-Mobile Arena', '15', 'BUF', 'Buffalo', 'Sabres', '0', '1', '0', '0', '0', '31', '34', '47.7', '6', '0', '0.0', '3', '1', '66.7', '0', '1', '1', '4', '27', '3', '6', '28']"
"['', '46396', '2018-10-18', '02:30:00 GMT', '15', 'BUF', 'Buffalo', 'Sabres', '26', 'SJS', 'San Jose', 'Sharks', '9', 'SAP Center at San Jose', '15', 'BUF', 'Buffalo', 'Sabres', '0', '1', '0', '0', '0', '31', '28', '52.5', '5', '0', '0.0', '7', '3', '57.1', '0', '0', '1', '5', '25', '8', '21', '24']"
"['', '46403', '2018-10-20', '19:30:00 GMT', '15', 'BUF', 'Buffalo', 'Sabres', '28', 'LAK', 'Los Angeles', 'Kings', '25', 'Staples Center', '15', 'BUF', 'Buffalo', 'Sabres', '1', '0', '0', '0', '2', '25', '39', '39.1', '2', '0', '0.0', '3', '1', '66.7', '0', '0', '5', '1', '26', '6', '15', '9']"
"['', '46415', '2018-10-21', '00:00:00 GMT', '15', 'BUF', 'Buffalo', 'Sabres', '29', 'ANA', 'Anaheim', 'Ducks', '8', 'Honda Center', '15', 'BUF', 'Buffalo', 'Sabres', '1', '0', '0', '0', '2', '26', '29', '47.3', '4', '2', '50.0', '2', '0', '100.0', '0', '0', '4', '2', '45', '3', '9', '15']"
"['', '46433', '2018-10-25', '23:00:00 GMT', '14', 'MTL', 'Montreal', 'Canadiens', '15', 'BUF', 'Buffalo', 'Sabres', '10', 'KeyBank Center', '15', 'BUF', 'Buffalo', 'Sabres', '1', '0', '0', '0', '2', '32', '32', '50.0', '4', '2', '50.0', '2', '0', '100.0', '0', '0', '4', '3', '42', '2', '4', '16']"
"['', '46452', '2018-10-27', '23:00:00 GMT', '15', 'BUF', 'Buffalo', 'Sabres', '19', 'CBJ', 'Columbus', 'Blue Jackets', '17', 'Nationwide Arena', '15', 'BUF', 'Buffalo', 'Sabres', '0', '0', '0', '1', '1', '34', '30', '53.1', '5', '1', '20.0', '3', '0', '100.0', '0', '0', '4', '5', '38', '3', '6', '8']"
"['', '46465', '2018-10-30', '23:00:00 GMT', '23', 'CGY', 'Calgary', 'Flames', '15', 'BUF', 'Buffalo', 'Sabres', '10', 'KeyBank Center', '15', 'BUF', 'Buffalo', 'Sabres', '0', '0', '0', '1', '1', '36', '28', '56.2', '2', '0', '0.0', '5', '0', '100.0', '0', '0', '1', '2', '29', '5', '10', '24']"
"['', '46481', '2018-11-01', '23:30:00 GMT', '15', 'BUF', 'Buffalo', 'Sabres', '13', 'OTT', 'Ottawa', 'Senators', '23', 'Canadian Tire Centre', '15', 'BUF', 'Buffalo', 'Sabres', '0', '1', '0', '0', '0', '24', '26', '48.0', '4', '1', '25.0', '5', '2', '60.0', '0', '0', '2', '4', '48', '5', '10', '18']"
"['', '46493', '2018-11-03', '18:00:00 GMT', '13', 'OTT', 'Ottawa', 'Senators', '15', 'BUF', 'Buffalo', 'Sabres', '10', 'KeyBank Center', '15', 'BUF', 'Buffalo', 'Sabres', '1', '0', '0', '0', '2', '30', '32', '48.4', '3', '1', '33.3', '1', '0', '100.0', '0', '0', '9', '2', '41', '2', '4', '9']"
"['', '46506', '2018-11-04', '00:00:00 GMT', '15', 'BUF', 'Buffalo', 'Sabres', '9', 'NYR', 'New York', 'Rangers', '12', 'Madison Square Garden', '15', 'BUF', 'Buffalo', 'Sabres', '0', '1', '0', '0', '0', '28', '28', '50.0', '4', '0', '0.0', '1', '0', '100.0', '0', '0', '1', '3', '40', '1', '2', '18']"
"['', '46528', '2018-11-08', '00:30:00 GMT', '15', 'BUF', 'Buffalo', 'Sabres', '14', 'MTL', 'Montreal', 'Canadiens', '4', 'Bell Centre', '15', 'BUF', 'Buffalo', 'Sabres', '1', '0', '0', '0', '2', '36', '31', '53.7', '3', '0', '0.0', '5', '0', '100.0', '0', '1', '6', '5', '31', '5', '10', '17']"
"['', '46540', '2018-11-10', '18:00:00 GMT', '21', 'VAN', 'Vancouver', 'Canucks', '15', 'BUF', 'Buffalo', 'Sabres', '10', 'KeyBank Center', '15', 'BUF', 'Buffalo', 'Sabres', '1', '0', '0', '0', '2', '34', '29', '54.0', '2', '0', '0.0', '4', '0', '100.0', '0', '0', '3', '3', '37', '4', '8', '17']"
"['', '46562', '2018-11-13', '00:30:00 GMT', '1', 'TBL', 'Tampa Bay', 'Lightning', '15', 'BUF', 'Buffalo', 'Sabres', '10', 'KeyBank Center', '15', 'BUF', 'Buffalo', 'Sabres', '1', '0', '0', '0', '2', '26', '35', '42.6', '1', '0', '0.0', '1', '0', '100.0', '0', '0', '2', '1', '19', '2', '4', '19']"
"['', '46585', '2018-11-16', '01:00:00 GMT', '15', 'BUF', 'Buffalo', 'Sabres', '2', 'WPJ', 'Winnipeg', 'Jets', '39', 'Bell MTS Place', '15', 'BUF', 'Buffalo', 'Sabres', '1', '0', '0', '0', '2', '22', '32', '40.7', '2', '1', '50.0', '1', '0', '100.0', '0', '0', '1', '1', '32', '2', '4', '17']"
"['', '46592', '2018-11-17', '23:00:00 GMT', '15', 'BUF', 'Buffalo', 'Sabres', '25', 'MIN', 'Minnesota', 'Wild', '30', 'Xcel Energy Center', '15', 'BUF', 'Buffalo', 'Sabres', '1', '0', '0', '0', '2', '20', '30', '40.0', '1', '0', '0.0', '3', '1', '66.7', '0', '0', '3', '2', '29', '3', '6', '17']"
"['', '46608', '2018-11-19', '00:00:00 GMT', '15', 'BUF', 'Buffalo', 'Sabres', '10', 'PIT', 'Pittsburgh', 'Penguins', '40', 'PPG Paints Arena', '15', 'BUF', 'Buffalo', 'Sabres', '1', '0', '0', '0', '2', '31', '34', '47.7', '3', '0', '0.0', '3', '0', '100.0', '0', '0', '5', '4', '40', '4', '11', '28']"
"['', '46616', '2018-11-21', '00:30:00 GMT', '6', 'PHI', 'Philadelphia', 'Flyers', '15', 'BUF', 'Buffalo', 'Sabres', '10', 'KeyBank Center', '15', 'BUF', 'Buffalo', 'Sabres', '1', '0', '0', '0', '2', '20', '28', '41.7', '3', '1', '33.3', '1', '0', '100.0', '0', '0', '5', '2', '21', '2', '7', '29']"
"['', '46631', '2018-11-23', '21:00:00 GMT', '14', 'MTL', 'Montreal', 'Canadiens', '15', 'BUF', 'Buffalo', 'Sabres', '10', 'KeyBank Center', '15', 'BUF', 'Buffalo', 'Sabres', '1', '0', '0', '0', '2', '31', '32', '49.2', '4', '1', '25.0', '2', '1', '50.0', '0', '0', '3', '2', '40', '2', '4', '17']"
"['', '46648', '2018-11-24', '00:00:00 GMT', '15', 'BUF', 'Buffalo', 'Sabres', '16', 'DET', 'Detroit', 'Red Wings', '145', 'Little Caesars Arena', '15', 'BUF', 'Buffalo', 'Sabres', '1', '0', '0', '0', '2', '27', '37', '42.2', '4', '2', '50.0', '4', '0', '100.0', '0', '0', '2', '2', '35', '4', '8', '12']"
"['', '46665', '2018-11-27', '00:00:00 GMT', '26', 'SJS', 'San Jose', 'Sharks', '15', 'BUF', 'Buffalo', 'Sabres', '10', 'KeyBank Center', '15', 'BUF', 'Buffalo', 'Sabres', '1', '0', '0', '0', '2', '29', '36', '44.6', '1', '0', '0.0', '3', '1', '66.7', '0', '0', '3', '2', '31', '4', '8', '19']"
"['', '46683', '2018-11-29', '00:30:00 GMT', '15', 'BUF', 'Buffalo', 'Sabres', '1', 'TBL', 'Tampa Bay', 'Lightning', '26', 'Amalie Arena', '15', 'BUF', 'Buffalo', 'Sabres', '0', '1', '0', '0', '0', '22', '36', '37.9', '2', '0', '0.0', '5', '1', '80.0', '0', '0', '4', '5', '22', '7', '24', '23']"
"['', '46688', '2018-11-30', '00:00:00 GMT', '15', 'BUF', 'Buffalo', 'Sabres', '4', 'FLO', 'Florida', 'Panthers', '3', 'BB&T Center', '15', 'BUF', 'Buffalo', 'Sabres', '0', '0', '0', '1', '1', '28', '38', '42.4', '4', '1', '25.0', '4', '2', '50.0', '0', '0', '2', '3', '24', '4', '8', '26']"
"['', '46712', '2018-12-03', '01:00:00 GMT', '15', 'BUF', 'Buffalo', 'Sabres', '18', 'NSH', 'Nashville', 'Predators', '15', 'Bridgestone Arena', '15', 'BUF', 'Buffalo', 'Sabres', '0', '1', '0', '0', '0', '30', '32', '48.4', '4', '0', '0.0', '2', '1', '50.0', '0', '0', '1', '2', '23', '2', '4', '17']"
"['', '46714', '2018-12-04', '00:30:00 GMT', '12', 'TOR', 'Toronto', 'Maple Leafs', '15', 'BUF', 'Buffalo', 'Sabres', '10', 'KeyBank Center', '15', 'BUF', 'Buffalo', 'Sabres', '0', '0', '0', '1', '1', '29', '37', '43.9', '2', '0', '0.0', '2', '0', '100.0', '0', '0', '3', '4', '41', '2', '4', '14']"
"['', '46742', '2018-12-08', '18:00:00 GMT', '6', 'PHI', 'Philadelphia', 'Flyers', '15', 'BUF', 'Buffalo', 'Sabres', '10', 'KeyBank Center', '15', 'BUF', 'Buffalo', 'Sabres', '0', '1', '0', '0', '0', '26', '34', '43.3', '1', '0', '0.0', '3', '0', '100.0', '0', '1', '2', '6', '30', '4', '11', '11']"
