"['#Date/Time of Update: 2018-12-10 19:03:00 GMT', '#Game ID', '#Game Date', '#Game Time', '#Away Team ID', '#Away Team Abbr.', '#Away Team City', '#Away Team Name', '#Home Team ID', '#Home Team Abbr.', '#Home Team City', '#Home Team Name', '#Venue ID', '#Venue Name', '#Team ID', '#Team Abbr.', '#Team City', '#Team Name', '#Wins', '#Losses', '#OvertimeWins', '#OvertimeLosses', '#ShootoutWins', '#ShootoutLosses', '#Rows', '#Points', '#FaceoffWins', '#FaceoffLosses', '#FaceoffPercent', '#Powerplays', '#PowerplayGoals', '#PowerplayPercent', '#PenaltyKills', '#PenaltyKillGoalsAllowed', '#PenaltyKillPercent', '#ShorthandedGoalsFor', '#ShorthandedGoalsAgainst', '#GoalsFor', '#GoalsAgainst', '#Shots', '#Penalties', '#PenaltyMinutes', '#Hits']"
"['', '11262', '2010-10-09', '00:00:00 GMT', '6', 'PHI', 'Philadelphia', 'Flyers', '17', 'STL', 'St. Louis', 'Blues', '24', 'Scottrade Center', '17', 'STL', 'St. Louis', 'Blues', '1', '0', '0', '0', '0', '0', '1', '2', '29', '22', '56.9', '8', '1', '12.5', '4', '0', '100.0', '0', '0', '2', '1', '23', '10', '23', '22']"
"['', '11271', '2010-10-11', '18:00:00 GMT', '29', 'ANA', 'Anaheim', 'Ducks', '17', 'STL', 'St. Louis', 'Blues', '24', 'Scottrade Center', '17', 'STL', 'St. Louis', 'Blues', '1', '0', '0', '0', '0', '0', '1', '2', '27', '23', '54.0', '7', '1', '14.3', '4', '1', '75.0', '1', '0', '5', '1', '48', '16', '65', '13']"
"['', '11286', '2010-10-14', '00:00:00 GMT', '17', 'STL', 'St. Louis', 'Blues', '18', 'NSH', 'Nashville', 'Predators', '15', 'Sommet Center', '17', 'STL', 'St. Louis', 'Blues', '0', '1', '0', '0', '0', '0', '0', '0', '24', '33', '42.1', '5', '2', '40.0', '3', '2', '33.3', '0', '0', '3', '4', '32', '5', '13', '12']"
"['', '11302', '2010-10-16', '00:00:00 GMT', '17', 'STL', 'St. Louis', 'Blues', '27', 'DAL', 'Dallas', 'Stars', '2', 'American Airlines Center', '17', 'STL', 'St. Louis', 'Blues', '0', '0', '0', '1', '0', '0', '0', '1', '22', '34', '39.3', '5', '1', '20.0', '4', '0', '100.0', '0', '0', '2', '2', '41', '5', '10', '28']"
"['', '11315', '2010-10-18', '00:30:00 GMT', '17', 'STL', 'St. Louis', 'Blues', '20', 'CHI', 'Chicago', 'Blackhawks', '28', 'United Center', '17', 'STL', 'St. Louis', 'Blues', '0', '0', '0', '1', '0', '0', '0', '1', '26', '28', '48.1', '1', '0', '0.0', '3', '1', '66.7', '0', '0', '2', '3', '32', '4', '11', '20']"
"['', '11338', '2010-10-22', '00:00:00 GMT', '20', 'CHI', 'Chicago', 'Blackhawks', '17', 'STL', 'St. Louis', 'Blues', '24', 'Scottrade Center', '17', 'STL', 'St. Louis', 'Blues', '1', '0', '0', '0', '0', '0', '1', '2', '23', '29', '44.2', '3', '1', '33.3', '3', '1', '66.7', '0', '0', '4', '2', '24', '6', '18', '22']"
"['', '11348', '2010-10-23', '00:00:00 GMT', '10', 'PIT', 'Pittsburgh', 'Penguins', '17', 'STL', 'St. Louis', 'Blues', '24', 'Scottrade Center', '17', 'STL', 'St. Louis', 'Blues', '1', '0', '0', '0', '0', '0', '1', '2', '25', '21', '54.3', '3', '0', '0.0', '4', '0', '100.0', '0', '0', '1', '0', '23', '5', '13', '24']"
"['', '11375', '2010-10-28', '00:00:00 GMT', '17', 'STL', 'St. Louis', 'Blues', '18', 'NSH', 'Nashville', 'Predators', '15', 'Sommet Center', '17', 'STL', 'St. Louis', 'Blues', '1', '0', '0', '0', '0', '0', '1', '2', '22', '28', '44.0', '4', '1', '25.0', '1', '0', '100.0', '1', '0', '3', '0', '31', '4', '8', '15']"
"['', '11392', '2010-10-30', '00:00:00 GMT', '2', 'ATL', 'Atlanta', 'Thrashers', '17', 'STL', 'St. Louis', 'Blues', '24', 'Scottrade Center', '17', 'STL', 'St. Louis', 'Blues', '1', '0', '0', '0', '0', '0', '0', '2', '29', '32', '47.5', '3', '0', '0.0', '7', '2', '71.4', '0', '0', '3', '3', '32', '7', '14', '14']"
"['', '11418', '2010-11-04', '00:00:00 GMT', '26', 'SJS', 'San Jose', 'Sharks', '17', 'STL', 'St. Louis', 'Blues', '24', 'Scottrade Center', '17', 'STL', 'St. Louis', 'Blues', '1', '0', '0', '0', '0', '0', '1', '2', '18', '35', '34.0', '8', '0', '0.0', '2', '0', '100.0', '0', '0', '2', '0', '27', '7', '20', '9']"
"['', '11430', '2010-11-06', '23:00:00 GMT', '17', 'STL', 'St. Louis', 'Blues', '11', 'BOS', 'Boston', 'Bruins', '27', 'TD Garden', '17', 'STL', 'St. Louis', 'Blues', '1', '0', '0', '0', '0', '0', '0', '2', '41', '35', '53.9', '3', '0', '0.0', '3', '0', '100.0', '0', '0', '1', '1', '34', '6', '18', '27']"
"['', '11443', '2010-11-07', '00:00:00 GMT', '17', 'STL', 'St. Louis', 'Blues', '9', 'NYR', 'New York', 'Rangers', '12', 'Madison Square Garden', '17', 'STL', 'St. Louis', 'Blues', '1', '0', '0', '0', '0', '0', '1', '2', '38', '16', '70.4', '5', '0', '0.0', '4', '0', '100.0', '0', '0', '2', '0', '20', '5', '16', '32']"
"['', '11455', '2010-11-10', '00:00:00 GMT', '17', 'STL', 'St. Louis', 'Blues', '19', 'CBJ', 'Columbus', 'Blue Jackets', '17', 'Nationwide Arena', '17', 'STL', 'St. Louis', 'Blues', '0', '1', '0', '0', '0', '0', '0', '0', '25', '35', '41.7', '1', '0', '0.0', '3', '0', '100.0', '0', '0', '1', '8', '29', '12', '46', '24']"
"['', '11466', '2010-11-11', '01:00:00 GMT', '18', 'NSH', 'Nashville', 'Predators', '17', 'STL', 'St. Louis', 'Blues', '24', 'Scottrade Center', '17', 'STL', 'St. Louis', 'Blues', '0', '0', '0', '1', '0', '0', '0', '1', '29', '26', '52.7', '4', '0', '0.0', '4', '0', '100.0', '0', '0', '2', '2', '21', '6', '12', '23']"
"['', '11482', '2010-11-13', '01:00:00 GMT', '17', 'STL', 'St. Louis', 'Blues', '30', 'PHX', 'Phoenix', 'Coyotes', '6', 'Jobing.com Arena', '17', 'STL', 'St. Louis', 'Blues', '0', '1', '0', '0', '0', '0', '0', '0', '28', '32', '46.7', '2', '1', '50.0', '6', '3', '50.0', '0', '0', '3', '5', '35', '7', '17', '20']"
"['', '11494', '2010-11-15', '02:00:00 GMT', '17', 'STL', 'St. Louis', 'Blues', '22', 'COL', 'Colorado', 'Avalanche', '19', 'Pepsi Center', '17', 'STL', 'St. Louis', 'Blues', '0', '1', '0', '0', '0', '0', '0', '0', '25', '31', '44.6', '2', '1', '50.0', '4', '1', '75.0', '0', '0', '3', '6', '27', '10', '37', '25']"
"['', '11499', '2010-11-17', '00:30:00 GMT', '17', 'STL', 'St. Louis', 'Blues', '16', 'DET', 'Detroit', 'Red Wings', '11', 'Joe Louis Arena', '17', 'STL', 'St. Louis', 'Blues', '0', '1', '0', '0', '0', '0', '0', '0', '31', '30', '50.8', '2', '1', '50.0', '4', '2', '50.0', '0', '0', '3', '7', '33', '6', '12', '32']"
"['', '11520', '2010-11-19', '01:00:00 GMT', '13', 'OTT', 'Ottawa', 'Senators', '17', 'STL', 'St. Louis', 'Blues', '24', 'Scottrade Center', '17', 'STL', 'St. Louis', 'Blues', '1', '0', '0', '0', '0', '0', '1', '2', '29', '29', '50.0', '7', '2', '28.6', '4', '0', '100.0', '0', '0', '5', '2', '28', '4', '8', '23']"
"['', '11532', '2010-11-20', '01:00:00 GMT', '7', 'NJD', 'New Jersey', 'Devils', '17', 'STL', 'St. Louis', 'Blues', '24', 'Scottrade Center', '17', 'STL', 'St. Louis', 'Blues', '1', '0', '0', '0', '0', '0', '1', '2', '20', '28', '41.7', '4', '1', '25.0', '3', '0', '100.0', '0', '0', '3', '2', '24', '3', '6', '31']"
"['', '11558', '2010-11-24', '01:00:00 GMT', '17', 'STL', 'St. Louis', 'Blues', '18', 'NSH', 'Nashville', 'Predators', '15', 'Sommet Center', '17', 'STL', 'St. Louis', 'Blues', '1', '0', '0', '0', '0', '0', '0', '2', '26', '36', '41.9', '3', '0', '0.0', '3', '0', '100.0', '0', '0', '1', '1', '14', '3', '6', '20']"
"['', '11574', '2010-11-26', '01:30:00 GMT', '17', 'STL', 'St. Louis', 'Blues', '27', 'DAL', 'Dallas', 'Stars', '2', 'American Airlines Center', '17', 'STL', 'St. Louis', 'Blues', '0', '1', '0', '0', '0', '0', '0', '0', '25', '27', '48.1', '1', '0', '0.0', '3', '0', '100.0', '1', '1', '2', '3', '25', '5', '16', '31']"
"['', '11581', '2010-11-27', '01:00:00 GMT', '27', 'DAL', 'Dallas', 'Stars', '17', 'STL', 'St. Louis', 'Blues', '24', 'Scottrade Center', '17', 'STL', 'St. Louis', 'Blues', '0', '1', '0', '0', '0', '0', '0', '0', '32', '23', '58.2', '2', '0', '0.0', '3', '1', '66.7', '0', '0', '1', '2', '35', '5', '13', '29']"
"['', '11597', '2010-11-30', '01:30:00 GMT', '17', 'STL', 'St. Louis', 'Blues', '20', 'CHI', 'Chicago', 'Blackhawks', '28', 'United Center', '17', 'STL', 'St. Louis', 'Blues', '0', '1', '0', '0', '0', '0', '0', '0', '24', '35', '40.7', '4', '0', '0.0', '5', '3', '40.0', '0', '0', '5', '7', '21', '10', '29', '35']"
"['', '11603', '2010-12-01', '01:00:00 GMT', '5', 'WSH', 'Washington', 'Capitals', '17', 'STL', 'St. Louis', 'Blues', '24', 'Scottrade Center', '17', 'STL', 'St. Louis', 'Blues', '0', '1', '0', '0', '0', '0', '0', '0', '30', '33', '47.6', '4', '0', '0.0', '2', '1', '50.0', '0', '0', '1', '4', '37', '2', '4', '21']"
"['', '11631', '2010-12-04', '03:00:00 GMT', '17', 'STL', 'St. Louis', 'Blues', '24', 'EDM', 'Edmonton', 'Oilers', '22', 'Rogers Place', '17', 'STL', 'St. Louis', 'Blues', '0', '0', '0', '1', '0', '0', '0', '1', '25', '22', '53.2', '1', '0', '0.0', '1', '0', '100.0', '0', '0', '1', '2', '31', '3', '9', '16']"
"['', '11637', '2010-12-05', '02:00:00 GMT', '17', 'STL', 'St. Louis', 'Blues', '21', 'VAN', 'Vancouver', 'Canucks', '7', 'Canada Hockey Place', '17', 'STL', 'St. Louis', 'Blues', '1', '0', '0', '0', '0', '0', '1', '2', '18', '39', '31.6', '5', '0', '0.0', '4', '0', '100.0', '0', '0', '3', '2', '25', '6', '15', '22']"
"['', '11658', '2010-12-09', '01:00:00 GMT', '19', 'CBJ', 'Columbus', 'Blue Jackets', '17', 'STL', 'St. Louis', 'Blues', '24', 'Scottrade Center', '17', 'STL', 'St. Louis', 'Blues', '1', '0', '0', '0', '0', '0', '1', '2', '25', '30', '45.5', '2', '3', '1.0', '9', '0', '100.0', '0', '0', '4', '1', '20', '10', '23', '26']"
"['', '11674', '2010-12-11', '01:00:00 GMT', '3', 'CAR', 'Carolina', 'Hurricanes', '17', 'STL', 'St. Louis', 'Blues', '24', 'Scottrade Center', '17', 'STL', 'St. Louis', 'Blues', '0', '0', '0', '1', '0', '0', '0', '1', '31', '27', '53.4', '5', '1', '20.0', '2', '0', '100.0', '0', '0', '1', '1', '38', '3', '9', '23']"
"['', '11692', '2010-12-15', '00:00:00 GMT', '17', 'STL', 'St. Louis', 'Blues', '16', 'DET', 'Detroit', 'Red Wings', '11', 'Joe Louis Arena', '17', 'STL', 'St. Louis', 'Blues', '0', '1', '0', '0', '0', '0', '0', '0', '27', '33', '45.0', '3', '1', '33.3', '5', '2', '60.0', '0', '0', '2', '5', '19', '5', '10', '26']"
"['', '11706', '2010-12-16', '01:00:00 GMT', '28', 'LAK', 'Los Angeles', 'Kings', '17', 'STL', 'St. Louis', 'Blues', '24', 'Scottrade Center', '17', 'STL', 'St. Louis', 'Blues', '1', '0', '0', '0', '0', '0', '1', '2', '36', '25', '59.0', '6', '2', '33.3', '4', '2', '50.0', '0', '0', '6', '4', '25', '9', '29', '28']"
"['', '11722', '2010-12-18', '01:00:00 GMT', '26', 'SJS', 'San Jose', 'Sharks', '17', 'STL', 'St. Louis', 'Blues', '24', 'Scottrade Center', '17', 'STL', 'St. Louis', 'Blues', '0', '1', '0', '0', '0', '0', '0', '0', '23', '26', '46.9', '1', '0', '0.0', '4', '1', '75.0', '0', '0', '1', '4', '21', '9', '27', '37']"
"['', '11735', '2010-12-20', '01:00:00 GMT', '21', 'VAN', 'Vancouver', 'Canucks', '17', 'STL', 'St. Louis', 'Blues', '24', 'Scottrade Center', '17', 'STL', 'St. Louis', 'Blues', '0', '1', '0', '0', '0', '0', '0', '0', '22', '31', '41.5', '3', '0', '0.0', '5', '1', '80.0', '0', '0', '1', '3', '15', '5', '10', '32']"
"['', '11739', '2010-12-21', '00:00:00 GMT', '17', 'STL', 'St. Louis', 'Blues', '2', 'ATL', 'Atlanta', 'Thrashers', '20', 'Philips Arena', '17', 'STL', 'St. Louis', 'Blues', '1', '0', '0', '0', '0', '0', '1', '2', '33', '34', '49.3', '4', '0', '0.0', '3', '0', '100.0', '1', '0', '4', '2', '23', '4', '8', '20']"
"['', '11755', '2010-12-23', '01:00:00 GMT', '16', 'DET', 'Detroit', 'Red Wings', '17', 'STL', 'St. Louis', 'Blues', '24', 'Scottrade Center', '17', 'STL', 'St. Louis', 'Blues', '1', '0', '0', '0', '0', '0', '1', '2', '26', '31', '45.6', '4', '1', '25.0', '4', '1', '75.0', '0', '0', '4', '3', '21', '4', '8', '27']"
"['', '11766', '2010-12-26', '00:00:00 GMT', '18', 'NSH', 'Nashville', 'Predators', '17', 'STL', 'St. Louis', 'Blues', '24', 'Scottrade Center', '17', 'STL', 'St. Louis', 'Blues', '1', '0', '0', '0', '0', '0', '1', '2', '24', '32', '42.9', '1', '0', '0.0', '0', '0', '0.0', '0', '0', '2', '0', '24', '0', '0', '20']"
"['', '11782', '2010-12-28', '01:00:00 GMT', '20', 'CHI', 'Chicago', 'Blackhawks', '17', 'STL', 'St. Louis', 'Blues', '24', 'Scottrade Center', '17', 'STL', 'St. Louis', 'Blues', '1', '0', '0', '0', '0', '0', '1', '2', '33', '24', '57.9', '4', '0', '0.0', '2', '0', '100.0', '0', '0', '3', '1', '40', '3', '9', '23']"
"['', '11804', '2010-12-31', '01:30:00 GMT', '30', 'PHX', 'Phoenix', 'Coyotes', '17', 'STL', 'St. Louis', 'Blues', '24', 'Scottrade Center', '17', 'STL', 'St. Louis', 'Blues', '1', '0', '0', '0', '0', '0', '1', '2', '33', '26', '55.9', '2', '1', '50.0', '2', '0', '100.0', '1', '0', '4', '3', '18', '3', '6', '25']"
"['', '11818', '2011-01-02', '23:00:00 GMT', '27', 'DAL', 'Dallas', 'Stars', '17', 'STL', 'St. Louis', 'Blues', '24', 'Scottrade Center', '17', 'STL', 'St. Louis', 'Blues', '0', '1', '0', '0', '0', '0', '0', '0', '27', '40', '40.3', '1', '0', '0.0', '2', '1', '50.0', '0', '0', '2', '4', '28', '4', '14', '23']"
"['', '11841', '2011-01-06', '00:00:00 GMT', '17', 'STL', 'St. Louis', 'Blues', '12', 'TOR', 'Toronto', 'Maple Leafs', '1', 'Air Canada Center', '17', 'STL', 'St. Louis', 'Blues', '0', '0', '0', '1', '0', '0', '0', '1', '29', '31', '48.3', '1', '0', '0.0', '2', '0', '100.0', '0', '0', '5', '5', '39', '2', '4', '54']"
"['', '11861', '2011-01-08', '01:00:00 GMT', '9', 'NYR', 'New York', 'Rangers', '17', 'STL', 'St. Louis', 'Blues', '24', 'Scottrade Center', '17', 'STL', 'St. Louis', 'Blues', '0', '1', '0', '0', '0', '0', '0', '0', '30', '22', '57.7', '6', '0', '0.0', '4', '0', '100.0', '0', '0', '1', '2', '24', '5', '10', '22']"
"['', '11871', '2011-01-10', '02:00:00 GMT', '30', 'PHX', 'Phoenix', 'Coyotes', '17', 'STL', 'St. Louis', 'Blues', '24', 'Scottrade Center', '17', 'STL', 'St. Louis', 'Blues', '0', '1', '0', '0', '0', '0', '0', '0', '33', '28', '54.1', '2', '0', '0.0', '2', '0', '100.0', '0', '0', '3', '4', '33', '4', '11', '20']"
"['', '11887', '2011-01-12', '03:00:00 GMT', '17', 'STL', 'St. Louis', 'Blues', '29', 'ANA', 'Anaheim', 'Ducks', '8', 'Honda Center', '17', 'STL', 'St. Louis', 'Blues', '0', '1', '0', '0', '0', '0', '0', '0', '28', '30', '48.3', '5', '1', '20.0', '6', '3', '50.0', '0', '0', '4', '7', '30', '9', '38', '27']"
"['', '11894', '2011-01-13', '03:30:00 GMT', '17', 'STL', 'St. Louis', 'Blues', '28', 'LAK', 'Los Angeles', 'Kings', '25', 'Staples Center', '17', 'STL', 'St. Louis', 'Blues', '1', '0', '0', '0', '0', '0', '1', '2', '30', '27', '52.6', '1', '0', '0.0', '2', '0', '100.0', '0', '0', '3', '1', '18', '2', '4', '35']"
"['', '11913', '2011-01-15', '03:30:00 GMT', '17', 'STL', 'St. Louis', 'Blues', '26', 'SJS', 'San Jose', 'Sharks', '9', 'HP Pavilion at San Jose', '17', 'STL', 'St. Louis', 'Blues', '0', '1', '0', '0', '0', '0', '0', '0', '21', '33', '38.9', '2', '0', '0.0', '5', '2', '60.0', '0', '0', '2', '4', '28', '8', '22', '31']"
"['', '11931', '2011-01-18', '01:00:00 GMT', '28', 'LAK', 'Los Angeles', 'Kings', '17', 'STL', 'St. Louis', 'Blues', '24', 'Scottrade Center', '17', 'STL', 'St. Louis', 'Blues', '1', '0', '0', '0', '0', '0', '1', '2', '25', '33', '43.1', '5', '1', '20.0', '4', '0', '100.0', '0', '0', '2', '1', '24', '5', '13', '21']"
"['', '11945', '2011-01-20', '01:00:00 GMT', '16', 'DET', 'Detroit', 'Red Wings', '17', 'STL', 'St. Louis', 'Blues', '24', 'Scottrade Center', '17', 'STL', 'St. Louis', 'Blues', '0', '0', '0', '1', '0', '0', '0', '1', '30', '21', '58.8', '2', '0', '0.0', '1', '0', '100.0', '0', '0', '3', '4', '26', '1', '2', '20']"
"['', '11961', '2011-01-22', '01:00:00 GMT', '19', 'CBJ', 'Columbus', 'Blue Jackets', '17', 'STL', 'St. Louis', 'Blues', '24', 'Scottrade Center', '17', 'STL', 'St. Louis', 'Blues', '0', '1', '0', '0', '0', '0', '0', '0', '24', '29', '45.3', '3', '1', '33.3', '4', '1', '75.0', '0', '0', '2', '5', '19', '11', '39', '23']"
"['', '11973', '2011-01-24', '02:30:00 GMT', '17', 'STL', 'St. Louis', 'Blues', '22', 'COL', 'Colorado', 'Avalanche', '19', 'Pepsi Center', '17', 'STL', 'St. Louis', 'Blues', '0', '1', '0', '0', '0', '0', '0', '0', '30', '31', '49.2', '3', '0', '0.0', '5', '2', '60.0', '0', '0', '3', '4', '21', '6', '15', '15']"
"['', '11990', '2011-01-26', '03:00:00 GMT', '17', 'STL', 'St. Louis', 'Blues', '23', 'CGY', 'Calgary', 'Flames', '18', 'Scotiabank Saddledome', '17', 'STL', 'St. Louis', 'Blues', '0', '1', '0', '0', '0', '0', '0', '0', '33', '25', '56.9', '2', '0', '0.0', '3', '2', '33.3', '0', '0', '1', '4', '28', '3', '6', '20']"
"['', '12022', '2011-02-04', '01:00:00 GMT', '24', 'EDM', 'Edmonton', 'Oilers', '17', 'STL', 'St. Louis', 'Blues', '24', 'Scottrade Center', '17', 'STL', 'St. Louis', 'Blues', '1', '0', '0', '0', '0', '0', '1', '2', '26', '33', '44.1', '2', '0', '0.0', '3', '0', '100.0', '0', '0', '5', '3', '21', '5', '13', '28']"
"['', '12037', '2011-02-06', '20:00:00 GMT', '17', 'STL', 'St. Louis', 'Blues', '1', 'TBL', 'Tampa Bay', 'Lightning', '26', 'St. Pete Times Forum', '17', 'STL', 'St. Louis', 'Blues', '0', '0', '0', '1', '0', '0', '0', '1', '33', '25', '56.9', '4', '1', '25.0', '5', '1', '80.0', '0', '0', '3', '4', '29', '5', '10', '19']"
"['', '12049', '2011-02-08', '00:30:00 GMT', '17', 'STL', 'St. Louis', 'Blues', '4', 'FLO', 'Florida', 'Panthers', '3', 'BankAtlantic Center', '17', 'STL', 'St. Louis', 'Blues', '1', '0', '0', '0', '0', '0', '1', '2', '18', '29', '38.3', '5', '0', '0.0', '4', '1', '75.0', '0', '0', '2', '1', '26', '6', '15', '40']"
"['', '12068', '2011-02-11', '01:00:00 GMT', '25', 'MIN', 'Minnesota', 'Wild', '17', 'STL', 'St. Louis', 'Blues', '24', 'Scottrade Center', '17', 'STL', 'St. Louis', 'Blues', '0', '0', '0', '1', '0', '0', '0', '1', '29', '28', '50.9', '3', '0', '0.0', '2', '0', '100.0', '0', '0', '4', '4', '31', '3', '9', '26']"
"['', '12077', '2011-02-12', '02:00:00 GMT', '17', 'STL', 'St. Louis', 'Blues', '25', 'MIN', 'Minnesota', 'Wild', '30', 'Xcel Energy Center', '17', 'STL', 'St. Louis', 'Blues', '0', '1', '0', '0', '0', '0', '0', '0', '32', '29', '52.5', '4', '1', '25.0', '5', '1', '80.0', '0', '0', '1', '3', '24', '11', '39', '20']"
"['', '12086', '2011-02-14', '01:00:00 GMT', '21', 'VAN', 'Vancouver', 'Canucks', '17', 'STL', 'St. Louis', 'Blues', '24', 'Scottrade Center', '17', 'STL', 'St. Louis', 'Blues', '1', '0', '0', '0', '0', '0', '1', '2', '22', '32', '40.7', '5', '2', '40.0', '1', '0', '100.0', '0', '0', '3', '2', '31', '1', '2', '28']"
"['', '12112', '2011-02-18', '00:30:00 GMT', '17', 'STL', 'St. Louis', 'Blues', '15', 'BUF', 'Buffalo', 'Sabres', '10', 'HSBC Arena', '17', 'STL', 'St. Louis', 'Blues', '1', '0', '0', '0', '0', '0', '1', '2', '24', '30', '44.4', '4', '1', '25.0', '3', '0', '100.0', '0', '0', '3', '0', '21', '3', '6', '14']"
"['', '12123', '2011-02-19', '01:00:00 GMT', '29', 'ANA', 'Anaheim', 'Ducks', '17', 'STL', 'St. Louis', 'Blues', '24', 'Scottrade Center', '17', 'STL', 'St. Louis', 'Blues', '1', '0', '0', '0', '0', '0', '1', '2', '30', '25', '54.5', '5', '3', '60.0', '3', '0', '100.0', '1', '0', '9', '3', '14', '6', '18', '19']"
"['', '12132', '2011-02-21', '19:00:00 GMT', '20', 'CHI', 'Chicago', 'Blackhawks', '17', 'STL', 'St. Louis', 'Blues', '24', 'Scottrade Center', '17', 'STL', 'St. Louis', 'Blues', '0', '1', '0', '0', '0', '0', '0', '0', '30', '28', '51.7', '2', '1', '50.0', '1', '1', '0.0', '0', '0', '3', '5', '31', '1', '2', '22']"
"['', '12481', '2011-02-22', '01:00:00 GMT', '22', 'COL', 'Colorado', 'Avalanche', '17', 'STL', 'St. Louis', 'Blues', '24', 'Scottrade Center', '17', 'STL', 'St. Louis', 'Blues', '0', '1', '0', '0', '0', '0', '0', '0', '24', '34', '41.4', '2', '1', '50.0', '5', '1', '80.0', '0', '0', '3', '4', '42', '5', '10', '19']"
"['', '12153', '2011-02-24', '03:00:00 GMT', '17', 'STL', 'St. Louis', 'Blues', '21', 'VAN', 'Vancouver', 'Canucks', '7', 'Canada Hockey Place', '17', 'STL', 'St. Louis', 'Blues', '0', '1', '0', '0', '0', '0', '0', '0', '30', '32', '48.4', '4', '1', '25.0', '1', '0', '100.0', '0', '0', '2', '3', '28', '2', '7', '20']"
"['', '12162', '2011-02-25', '02:00:00 GMT', '17', 'STL', 'St. Louis', 'Blues', '24', 'EDM', 'Edmonton', 'Oilers', '22', 'Rogers Place', '17', 'STL', 'St. Louis', 'Blues', '1', '0', '0', '0', '0', '0', '1', '2', '21', '36', '36.8', '5', '1', '20.0', '1', '0', '100.0', '0', '0', '5', '0', '17', '5', '13', '18']"
"['', '12177', '2011-02-27', '01:00:00 GMT', '17', 'STL', 'St. Louis', 'Blues', '23', 'CGY', 'Calgary', 'Flames', '18', 'Scotiabank Saddledome', '17', 'STL', 'St. Louis', 'Blues', '0', '1', '0', '0', '0', '0', '0', '0', '21', '28', '42.9', '2', '0', '0.0', '4', '0', '100.0', '0', '0', '0', '1', '27', '4', '8', '18']"
"['', '12187', '2011-03-01', '01:00:00 GMT', '23', 'CGY', 'Calgary', 'Flames', '17', 'STL', 'St. Louis', 'Blues', '24', 'Scottrade Center', '17', 'STL', 'St. Louis', 'Blues', '0', '1', '0', '0', '0', '0', '0', '0', '27', '25', '51.9', '2', '0', '0.0', '5', '2', '60.0', '0', '0', '0', '6', '25', '5', '13', '29']"
"['', '12201', '2011-03-03', '00:00:00 GMT', '17', 'STL', 'St. Louis', 'Blues', '5', 'WSH', 'Washington', 'Capitals', '13', 'Verizon Center', '17', 'STL', 'St. Louis', 'Blues', '0', '1', '0', '0', '0', '0', '0', '0', '29', '30', '49.2', '3', '0', '0.0', '1', '0', '100.0', '0', '0', '2', '3', '25', '2', '7', '25']"
"['', '12213', '2011-03-05', '18:00:00 GMT', '17', 'STL', 'St. Louis', 'Blues', '8', 'NYI', 'New York', 'Islanders', '16', 'Nassau Veterans Memorial Coliseum', '17', 'STL', 'St. Louis', 'Blues', '0', '1', '0', '0', '0', '0', '0', '0', '23', '25', '47.9', '3', '1', '33.3', '4', '0', '100.0', '0', '0', '2', '5', '21', '6', '15', '22']"
"['', '12229', '2011-03-07', '02:00:00 GMT', '19', 'CBJ', 'Columbus', 'Blue Jackets', '17', 'STL', 'St. Louis', 'Blues', '24', 'Scottrade Center', '17', 'STL', 'St. Louis', 'Blues', '1', '0', '0', '0', '0', '0', '0', '2', '26', '40', '39.4', '1', '2', '1.0', '3', '1', '66.7', '0', '0', '4', '4', '32', '7', '28', '28']"
"['', '12243', '2011-03-09', '00:00:00 GMT', '17', 'STL', 'St. Louis', 'Blues', '19', 'CBJ', 'Columbus', 'Blue Jackets', '17', 'Nationwide Arena', '17', 'STL', 'St. Louis', 'Blues', '1', '0', '0', '0', '0', '0', '1', '2', '18', '28', '39.1', '2', '0', '0.0', '4', '1', '75.0', '0', '0', '4', '3', '22', '4', '8', '25']"
"['', '12250', '2011-03-10', '01:00:00 GMT', '14', 'MTL', 'Montreal', 'Canadiens', '17', 'STL', 'St. Louis', 'Blues', '24', 'Scottrade Center', '17', 'STL', 'St. Louis', 'Blues', '1', '0', '0', '0', '0', '0', '1', '2', '29', '31', '48.3', '3', '0', '0.0', '3', '0', '100.0', '1', '0', '4', '1', '23', '5', '13', '22']"
"['', '12268', '2011-03-12', '01:00:00 GMT', '16', 'DET', 'Detroit', 'Red Wings', '17', 'STL', 'St. Louis', 'Blues', '24', 'Scottrade Center', '17', 'STL', 'St. Louis', 'Blues', '0', '1', '0', '0', '0', '0', '0', '0', '27', '30', '47.4', '4', '0', '0.0', '2', '1', '50.0', '0', '0', '3', '5', '26', '2', '4', '20']"
"['', '12293', '2011-03-16', '02:00:00 GMT', '17', 'STL', 'St. Louis', 'Blues', '29', 'ANA', 'Anaheim', 'Ducks', '8', 'Honda Center', '17', 'STL', 'St. Louis', 'Blues', '0', '1', '0', '0', '0', '0', '0', '0', '19', '24', '44.2', '2', '1', '50.0', '3', '0', '100.0', '0', '0', '1', '2', '30', '3', '6', '26']"
"['', '12303', '2011-03-17', '02:30:00 GMT', '17', 'STL', 'St. Louis', 'Blues', '28', 'LAK', 'Los Angeles', 'Kings', '25', 'Staples Center', '17', 'STL', 'St. Louis', 'Blues', '1', '0', '0', '0', '0', '0', '1', '2', '28', '26', '51.9', '3', '0', '0.0', '1', '0', '100.0', '0', '0', '4', '0', '35', '3', '12', '27']"
"['', '12318', '2011-03-19', '02:30:00 GMT', '17', 'STL', 'St. Louis', 'Blues', '26', 'SJS', 'San Jose', 'Sharks', '9', 'HP Pavilion at San Jose', '17', 'STL', 'St. Louis', 'Blues', '0', '1', '0', '0', '0', '0', '0', '0', '24', '40', '37.5', '2', '0', '0.0', '2', '2', '0.0', '0', '0', '3', '5', '42', '3', '6', '35']"
"['', '12336', '2011-03-22', '02:00:00 GMT', '17', 'STL', 'St. Louis', 'Blues', '30', 'PHX', 'Phoenix', 'Coyotes', '6', 'Jobing.com Arena', '17', 'STL', 'St. Louis', 'Blues', '0', '1', '0', '0', '0', '0', '0', '0', '17', '40', '29.8', '1', '0', '0.0', '4', '0', '100.0', '0', '0', '1', '2', '29', '6', '18', '26']"
"['', '12345', '2011-03-24', '00:00:00 GMT', '24', 'EDM', 'Edmonton', 'Oilers', '17', 'STL', 'St. Louis', 'Blues', '24', 'Scottrade Center', '17', 'STL', 'St. Louis', 'Blues', '1', '0', '0', '0', '0', '0', '1', '2', '29', '26', '52.7', '5', '2', '40.0', '2', '0', '100.0', '0', '0', '4', '0', '26', '8', '25', '19']"
"['', '12363', '2011-03-26', '00:00:00 GMT', '17', 'STL', 'St. Louis', 'Blues', '25', 'MIN', 'Minnesota', 'Wild', '30', 'Xcel Energy Center', '17', 'STL', 'St. Louis', 'Blues', '1', '0', '0', '0', '0', '0', '1', '2', '26', '33', '44.1', '5', '0', '0.0', '1', '1', '0.0', '0', '0', '6', '3', '41', '1', '2', '16']"
"['', '12380', '2011-03-29', '00:00:00 GMT', '25', 'MIN', 'Minnesota', 'Wild', '17', 'STL', 'St. Louis', 'Blues', '24', 'Scottrade Center', '17', 'STL', 'St. Louis', 'Blues', '0', '0', '0', '1', '0', '0', '0', '1', '27', '32', '45.8', '4', '1', '25.0', '4', '0', '100.0', '0', '0', '2', '2', '27', '6', '12', '25']"
"['', '12385', '2011-03-30', '23:00:00 GMT', '17', 'STL', 'St. Louis', 'Blues', '16', 'DET', 'Detroit', 'Red Wings', '11', 'Joe Louis Arena', '17', 'STL', 'St. Louis', 'Blues', '1', '0', '0', '0', '0', '0', '1', '2', '30', '39', '43.5', '4', '2', '50.0', '3', '1', '66.7', '0', '0', '10', '3', '37', '4', '8', '23']"
"['', '12401', '2011-04-01', '00:00:00 GMT', '23', 'CGY', 'Calgary', 'Flames', '17', 'STL', 'St. Louis', 'Blues', '24', 'Scottrade Center', '17', 'STL', 'St. Louis', 'Blues', '0', '1', '0', '0', '0', '0', '0', '0', '23', '26', '46.9', '2', '1', '50.0', '5', '0', '100.0', '0', '0', '2', '3', '25', '7', '14', '21']"
"['', '12417', '2011-04-03', '21:00:00 GMT', '17', 'STL', 'St. Louis', 'Blues', '19', 'CBJ', 'Columbus', 'Blue Jackets', '17', 'Nationwide Arena', '17', 'STL', 'St. Louis', 'Blues', '1', '0', '0', '0', '0', '0', '1', '2', '28', '26', '51.9', '2', '1', '50.0', '2', '1', '50.0', '0', '0', '6', '1', '27', '6', '26', '28']"
"['', '12428', '2011-04-05', '00:00:00 GMT', '22', 'COL', 'Colorado', 'Avalanche', '17', 'STL', 'St. Louis', 'Blues', '24', 'Scottrade Center', '17', 'STL', 'St. Louis', 'Blues', '1', '0', '0', '0', '0', '0', '1', '2', '23', '32', '41.8', '3', '1', '33.3', '3', '0', '100.0', '0', '0', '3', '1', '26', '13', '70', '25']"
"['', '12436', '2011-04-06', '00:00:00 GMT', '17', 'STL', 'St. Louis', 'Blues', '20', 'CHI', 'Chicago', 'Blackhawks', '28', 'United Center', '17', 'STL', 'St. Louis', 'Blues', '0', '0', '0', '1', '0', '0', '0', '1', '25', '33', '43.1', '2', '1', '50.0', '4', '0', '100.0', '0', '0', '3', '4', '21', '4', '8', '23']"
"['', '12461', '2011-04-09', '00:00:00 GMT', '18', 'NSH', 'Nashville', 'Predators', '17', 'STL', 'St. Louis', 'Blues', '24', 'Scottrade Center', '17', 'STL', 'St. Louis', 'Blues', '1', '0', '0', '0', '0', '0', '1', '2', '18', '22', '45.0', '1', '0', '0.0', '1', '0', '100.0', '0', '0', '2', '0', '23', '1', '2', '14']"
