"['#Date/Time of Update: 2018-12-10 19:02:57 GMT', '#Game ID', '#Game Date', '#Game Time', '#Away Team ID', '#Away Team Abbr.', '#Away Team City', '#Away Team Name', '#Home Team ID', '#Home Team Abbr.', '#Home Team City', '#Home Team Name', '#Venue ID', '#Venue Name', '#Team ID', '#Team Abbr.', '#Team City', '#Team Name', '#Wins', '#Losses', '#OvertimeWins', '#OvertimeLosses', '#ShootoutWins', '#ShootoutLosses', '#Points', '#FaceoffWins', '#FaceoffLosses', '#FaceoffPercent', '#Powerplays', '#PowerplayGoals', '#PowerplayPercent', '#PenaltyKills', '#PenaltyKillGoalsAllowed', '#PenaltyKillPercent', '#ShorthandedGoalsFor', '#ShorthandedGoalsAgainst', '#GoalsFor', '#GoalsAgainst', '#Shots', '#Penalties', '#PenaltyMinutes', '#Hits']"
"['', '8690', '2009-10-02', '23:00:00 GMT', '6', 'PHI', 'Philadelphia', 'Flyers', '3', 'CAR', 'Carolina', 'Hurricanes', '21', 'RBC Center', '3', 'CAR', 'Carolina', 'Hurricanes', '0', '1', '0', '0', '0', '0', '0', '36', '29', '55.4', '8', '0', '0.0', '4', '2', '50.0', '0', '0', '0', '2', '28', '9', '29', '24']"
"['', '8695', '2009-10-03', '23:00:00 GMT', '3', 'CAR', 'Carolina', 'Hurricanes', '11', 'BOS', 'Boston', 'Bruins', '27', 'TD Garden', '3', 'CAR', 'Carolina', 'Hurricanes', '0', '1', '0', '0', '0', '0', '0', '42', '34', '55.3', '8', '1', '12.5', '6', '4', '33.3', '0', '0', '2', '7', '25', '15', '44', '15']"
"['', '8709', '2009-10-06', '23:00:00 GMT', '1', 'TBL', 'Tampa Bay', 'Lightning', '3', 'CAR', 'Carolina', 'Hurricanes', '21', 'RBC Center', '3', 'CAR', 'Carolina', 'Hurricanes', '1', '0', '0', '0', '0', '0', '2', '30', '27', '52.6', '4', '1', '25.0', '7', '1', '85.7', '0', '0', '1', '1', '27', '9', '21', '42']"
"['', '8730', '2009-10-09', '23:00:00 GMT', '4', 'FLO', 'Florida', 'Panthers', '3', 'CAR', 'Carolina', 'Hurricanes', '21', 'RBC Center', '3', 'CAR', 'Carolina', 'Hurricanes', '1', '0', '0', '0', '0', '0', '2', '31', '38', '44.9', '3', '0', '0.0', '6', '0', '100.0', '1', '0', '7', '2', '26', '7', '14', '32']"
"['', '8738', '2009-10-10', '23:30:00 GMT', '3', 'CAR', 'Carolina', 'Hurricanes', '1', 'TBL', 'Tampa Bay', 'Lightning', '26', 'St. Pete Times Forum', '3', 'CAR', 'Carolina', 'Hurricanes', '0', '1', '0', '0', '0', '0', '0', '21', '40', '34.4', '5', '2', '40.0', '6', '1', '83.3', '0', '0', '2', '5', '24', '7', '14', '19']"
"['', '8759', '2009-10-14', '23:00:00 GMT', '10', 'PIT', 'Pittsburgh', 'Penguins', '3', 'CAR', 'Carolina', 'Hurricanes', '21', 'RBC Center', '3', 'CAR', 'Carolina', 'Hurricanes', '0', '0', '0', '1', '0', '0', '1', '24', '19', '55.8', '2', '0', '0.0', '3', '0', '100.0', '0', '0', '2', '2', '27', '4', '8', '48']"
"['', '8779', '2009-10-17', '23:00:00 GMT', '3', 'CAR', 'Carolina', 'Hurricanes', '7', 'NJD', 'New Jersey', 'Devils', '5', 'Izod Center', '3', 'CAR', 'Carolina', 'Hurricanes', '0', '1', '0', '0', '0', '0', '0', '16', '26', '38.1', '2', '0', '0.0', '4', '0', '100.0', '0', '0', '0', '2', '26', '5', '13', '5']"
"['', '8796', '2009-10-21', '23:00:00 GMT', '3', 'CAR', 'Carolina', 'Hurricanes', '8', 'NYI', 'New York', 'Islanders', '16', 'Nassau Veterans Memorial Coliseum', '3', 'CAR', 'Carolina', 'Hurricanes', '0', '0', '0', '1', '0', '0', '1', '20', '44', '31.2', '4', '1', '25.0', '2', '0', '100.0', '0', '0', '3', '3', '35', '4', '11', '32']"
"['', '8812', '2009-10-23', '01:00:00 GMT', '3', 'CAR', 'Carolina', 'Hurricanes', '22', 'COL', 'Colorado', 'Avalanche', '19', 'Pepsi Center', '3', 'CAR', 'Carolina', 'Hurricanes', '0', '1', '0', '0', '0', '0', '0', '33', '27', '55.0', '2', '1', '50.0', '6', '2', '66.7', '0', '0', '4', '5', '31', '10', '47', '26']"
"['', '8822', '2009-10-24', '00:00:00 GMT', '3', 'CAR', 'Carolina', 'Hurricanes', '25', 'MIN', 'Minnesota', 'Wild', '30', 'Xcel Energy Center', '3', 'CAR', 'Carolina', 'Hurricanes', '0', '0', '0', '1', '0', '0', '1', '22', '38', '36.7', '3', '1', '33.3', '7', '1', '85.7', '0', '0', '2', '3', '21', '10', '23', '8']"
"['', '8838', '2009-10-28', '23:00:00 GMT', '17', 'STL', 'St. Louis', 'Blues', '3', 'CAR', 'Carolina', 'Hurricanes', '21', 'RBC Center', '3', 'CAR', 'Carolina', 'Hurricanes', '0', '1', '0', '0', '0', '0', '0', '36', '25', '59.0', '6', '2', '33.3', '1', '0', '100.0', '0', '0', '2', '5', '34', '3', '12', '30']"
"['', '8864', '2009-10-31', '17:00:00 GMT', '3', 'CAR', 'Carolina', 'Hurricanes', '6', 'PHI', 'Philadelphia', 'Flyers', '29', 'Wachovia Center', '3', 'CAR', 'Carolina', 'Hurricanes', '0', '1', '0', '0', '0', '0', '0', '18', '32', '36.0', '5', '0', '0.0', '4', '1', '75.0', '0', '0', '1', '6', '39', '12', '33', '14']"
"['', '8875', '2009-11-01', '18:30:00 GMT', '26', 'SJS', 'San Jose', 'Sharks', '3', 'CAR', 'Carolina', 'Hurricanes', '21', 'RBC Center', '3', 'CAR', 'Carolina', 'Hurricanes', '0', '1', '0', '0', '0', '0', '0', '24', '35', '40.7', '3', '0', '0.0', '5', '1', '80.0', '0', '0', '1', '5', '25', '5', '10', '41']"
"['', '8889', '2009-11-04', '00:30:00 GMT', '3', 'CAR', 'Carolina', 'Hurricanes', '4', 'FLO', 'Florida', 'Panthers', '3', 'BankAtlantic Center', '3', 'CAR', 'Carolina', 'Hurricanes', '0', '1', '0', '0', '0', '0', '0', '25', '25', '50.0', '4', '0', '0.0', '6', '1', '83.3', '0', '1', '0', '3', '32', '8', '16', '31']"
"['', '8902', '2009-11-06', '00:00:00 GMT', '12', 'TOR', 'Toronto', 'Maple Leafs', '3', 'CAR', 'Carolina', 'Hurricanes', '21', 'RBC Center', '3', 'CAR', 'Carolina', 'Hurricanes', '0', '1', '0', '0', '0', '0', '0', '33', '22', '60.0', '3', '0', '0.0', '2', '1', '50.0', '0', '0', '2', '3', '34', '2', '4', '29']"
"['', '8916', '2009-11-07', '00:00:00 GMT', '3', 'CAR', 'Carolina', 'Hurricanes', '19', 'CBJ', 'Columbus', 'Blue Jackets', '17', 'Nationwide Arena', '3', 'CAR', 'Carolina', 'Hurricanes', '0', '1', '0', '0', '0', '0', '0', '32', '29', '52.5', '5', '0', '0.0', '3', '0', '100.0', '0', '0', '2', '3', '24', '3', '6', '24']"
"['', '8931', '2009-11-11', '00:00:00 GMT', '28', 'LAK', 'Los Angeles', 'Kings', '3', 'CAR', 'Carolina', 'Hurricanes', '21', 'RBC Center', '3', 'CAR', 'Carolina', 'Hurricanes', '0', '1', '0', '0', '0', '0', '0', '28', '21', '57.1', '2', '0', '0.0', '5', '2', '60.0', '0', '0', '2', '5', '22', '5', '10', '42']"
"['', '8945', '2009-11-13', '00:00:00 GMT', '8', 'NYI', 'New York', 'Islanders', '3', 'CAR', 'Carolina', 'Hurricanes', '21', 'RBC Center', '3', 'CAR', 'Carolina', 'Hurricanes', '0', '0', '0', '1', '0', '0', '1', '33', '24', '57.9', '4', '1', '25.0', '3', '1', '66.7', '0', '0', '3', '4', '25', '5', '10', '48']"
"['', '8963', '2009-11-15', '18:30:00 GMT', '25', 'MIN', 'Minnesota', 'Wild', '3', 'CAR', 'Carolina', 'Hurricanes', '21', 'RBC Center', '3', 'CAR', 'Carolina', 'Hurricanes', '1', '0', '0', '0', '0', '0', '2', '32', '34', '48.5', '5', '3', '60.0', '3', '0', '100.0', '0', '0', '4', '4', '31', '3', '6', '20']"
"['', '8973', '2009-11-17', '00:30:00 GMT', '3', 'CAR', 'Carolina', 'Hurricanes', '14', 'MTL', 'Montreal', 'Canadiens', '4', 'Bell Centre', '3', 'CAR', 'Carolina', 'Hurricanes', '0', '0', '0', '1', '0', '0', '1', '37', '30', '55.2', '5', '0', '0.0', '3', '0', '100.0', '0', '0', '2', '2', '30', '4', '8', '24']"
"['', '8982', '2009-11-19', '00:00:00 GMT', '12', 'TOR', 'Toronto', 'Maple Leafs', '3', 'CAR', 'Carolina', 'Hurricanes', '21', 'RBC Center', '3', 'CAR', 'Carolina', 'Hurricanes', '1', '0', '0', '0', '0', '0', '2', '37', '35', '51.4', '6', '1', '16.7', '4', '1', '75.0', '0', '0', '5', '5', '40', '6', '18', '39']"
"['', '8997', '2009-11-21', '00:00:00 GMT', '1', 'TBL', 'Tampa Bay', 'Lightning', '3', 'CAR', 'Carolina', 'Hurricanes', '21', 'RBC Center', '3', 'CAR', 'Carolina', 'Hurricanes', '1', '0', '0', '0', '0', '0', '2', '27', '33', '45.0', '5', '1', '20.0', '4', '1', '75.0', '0', '0', '3', '1', '24', '4', '8', '36']"
"['', '9017', '2009-11-23', '01:30:00 GMT', '3', 'CAR', 'Carolina', 'Hurricanes', '27', 'DAL', 'Dallas', 'Stars', '2', 'American Airlines Center', '3', 'CAR', 'Carolina', 'Hurricanes', '0', '1', '0', '0', '0', '0', '0', '29', '29', '50.0', '4', '0', '0.0', '8', '2', '75.0', '0', '0', '0', '2', '22', '10', '23', '45']"
"['', '9034', '2009-11-25', '03:00:00 GMT', '3', 'CAR', 'Carolina', 'Hurricanes', '29', 'ANA', 'Anaheim', 'Ducks', '8', 'Honda Center', '3', 'CAR', 'Carolina', 'Hurricanes', '0', '1', '0', '0', '0', '0', '0', '25', '30', '45.5', '3', '0', '0.0', '2', '1', '50.0', '0', '0', '2', '3', '28', '2', '4', '25']"
"['', '9043', '2009-11-27', '00:00:00 GMT', '2', 'ATL', 'Atlanta', 'Thrashers', '3', 'CAR', 'Carolina', 'Hurricanes', '21', 'RBC Center', '3', 'CAR', 'Carolina', 'Hurricanes', '0', '1', '0', '0', '0', '0', '0', '38', '44', '46.3', '5', '0', '0.0', '2', '0', '100.0', '1', '0', '4', '6', '32', '2', '4', '14']"
"['', '9052', '2009-11-28', '00:00:00 GMT', '3', 'CAR', 'Carolina', 'Hurricanes', '15', 'BUF', 'Buffalo', 'Sabres', '10', 'HSBC Arena', '3', 'CAR', 'Carolina', 'Hurricanes', '0', '1', '0', '0', '0', '0', '0', '31', '28', '52.5', '5', '0', '0.0', '5', '2', '60.0', '0', '0', '1', '5', '30', '5', '10', '19']"
"['', '9065', '2009-11-30', '00:00:00 GMT', '5', 'WSH', 'Washington', 'Capitals', '3', 'CAR', 'Carolina', 'Hurricanes', '21', 'RBC Center', '3', 'CAR', 'Carolina', 'Hurricanes', '0', '1', '0', '0', '0', '0', '0', '36', '38', '48.6', '5', '1', '20.0', '6', '0', '100.0', '0', '0', '2', '3', '38', '7', '22', '45']"
"['', '9096', '2009-12-05', '18:30:00 GMT', '21', 'VAN', 'Vancouver', 'Canucks', '3', 'CAR', 'Carolina', 'Hurricanes', '21', 'RBC Center', '3', 'CAR', 'Carolina', 'Hurricanes', '1', '0', '0', '0', '0', '0', '2', '26', '32', '44.8', '2', '1', '50.0', '3', '0', '100.0', '0', '0', '5', '3', '23', '3', '6', '41']"
"['', '9115', '2009-12-07', '00:30:00 GMT', '3', 'CAR', 'Carolina', 'Hurricanes', '10', 'PIT', 'Pittsburgh', 'Penguins', '14', 'Mellon Arena', '3', 'CAR', 'Carolina', 'Hurricanes', '1', '0', '0', '0', '0', '0', '2', '26', '29', '47.3', '4', '1', '25.0', '3', '0', '100.0', '0', '0', '3', '2', '18', '4', '11', '27']"
"['', '9126', '2009-12-09', '00:00:00 GMT', '3', 'CAR', 'Carolina', 'Hurricanes', '7', 'NJD', 'New Jersey', 'Devils', '5', 'Izod Center', '3', 'CAR', 'Carolina', 'Hurricanes', '0', '1', '0', '0', '0', '0', '0', '27', '32', '45.8', '4', '1', '25.0', '4', '1', '75.0', '0', '1', '2', '4', '21', '5', '10', '1']"
"['', '9142', '2009-12-11', '00:00:00 GMT', '3', 'CAR', 'Carolina', 'Hurricanes', '5', 'WSH', 'Washington', 'Capitals', '13', 'Verizon Center', '3', 'CAR', 'Carolina', 'Hurricanes', '0', '0', '0', '1', '0', '0', '1', '28', '28', '50.0', '2', '0', '0.0', '3', '0', '100.0', '1', '0', '3', '4', '16', '3', '6', '19']"
"['', '9152', '2009-12-12', '00:00:00 GMT', '3', 'CAR', 'Carolina', 'Hurricanes', '13', 'OTT', 'Ottawa', 'Senators', '23', 'Scotiabank Place', '3', 'CAR', 'Carolina', 'Hurricanes', '0', '1', '0', '0', '0', '0', '0', '19', '26', '42.2', '3', '1', '33.3', '3', '2', '33.3', '0', '0', '2', '4', '23', '3', '6', '35']"
"['', '9177', '2009-12-16', '00:00:00 GMT', '27', 'DAL', 'Dallas', 'Stars', '3', 'CAR', 'Carolina', 'Hurricanes', '21', 'RBC Center', '3', 'CAR', 'Carolina', 'Hurricanes', '1', '0', '0', '0', '0', '0', '2', '28', '32', '46.7', '4', '3', '75.0', '3', '2', '33.3', '0', '0', '5', '3', '24', '3', '6', '29']"
"['', '9196', '2009-12-18', '00:30:00 GMT', '3', 'CAR', 'Carolina', 'Hurricanes', '4', 'FLO', 'Florida', 'Panthers', '3', 'BankAtlantic Center', '3', 'CAR', 'Carolina', 'Hurricanes', '0', '1', '0', '0', '0', '0', '0', '36', '38', '48.6', '2', '0', '0.0', '3', '0', '100.0', '0', '1', '3', '6', '32', '4', '8', '25']"
"['', '9205', '2009-12-19', '00:00:00 GMT', '4', 'FLO', 'Florida', 'Panthers', '3', 'CAR', 'Carolina', 'Hurricanes', '21', 'RBC Center', '3', 'CAR', 'Carolina', 'Hurricanes', '1', '0', '0', '0', '0', '0', '2', '31', '25', '55.4', '2', '0', '0.0', '4', '1', '75.0', '1', '0', '3', '2', '21', '6', '15', '26']"
"['', '9214', '2009-12-21', '00:00:00 GMT', '9', 'NYR', 'New York', 'Rangers', '3', 'CAR', 'Carolina', 'Hurricanes', '21', 'RBC Center', '3', 'CAR', 'Carolina', 'Hurricanes', '0', '1', '0', '0', '0', '0', '0', '25', '31', '44.6', '3', '0', '0.0', '1', '0', '100.0', '0', '0', '1', '3', '32', '1', '2', '39']"
"['', '9229', '2009-12-23', '00:00:00 GMT', '14', 'MTL', 'Montreal', 'Canadiens', '3', 'CAR', 'Carolina', 'Hurricanes', '21', 'RBC Center', '3', 'CAR', 'Carolina', 'Hurricanes', '0', '1', '0', '0', '0', '0', '0', '39', '26', '60.0', '4', '1', '25.0', '4', '3', '25.0', '0', '0', '1', '5', '46', '5', '10', '36']"
"['', '9242', '2009-12-26', '00:00:00 GMT', '6', 'PHI', 'Philadelphia', 'Flyers', '3', 'CAR', 'Carolina', 'Hurricanes', '21', 'RBC Center', '3', 'CAR', 'Carolina', 'Hurricanes', '0', '0', '0', '1', '0', '0', '1', '32', '38', '45.7', '5', '1', '20.0', '3', '1', '66.7', '0', '0', '3', '3', '37', '3', '6', '31']"
"['', '9260', '2009-12-28', '00:00:00 GMT', '3', 'CAR', 'Carolina', 'Hurricanes', '5', 'WSH', 'Washington', 'Capitals', '13', 'Verizon Center', '3', 'CAR', 'Carolina', 'Hurricanes', '1', '0', '0', '0', '0', '0', '2', '33', '26', '55.9', '3', '1', '33.3', '5', '2', '60.0', '0', '0', '6', '3', '20', '6', '12', '18']"
"['', '9286', '2009-12-31', '01:00:00 GMT', '9', 'NYR', 'New York', 'Rangers', '3', 'CAR', 'Carolina', 'Hurricanes', '21', 'RBC Center', '3', 'CAR', 'Carolina', 'Hurricanes', '0', '1', '0', '0', '0', '0', '0', '26', '32', '44.8', '2', '1', '50.0', '5', '1', '80.0', '0', '0', '1', '2', '17', '7', '17', '44']"
"['', '9294', '2010-01-02', '18:00:00 GMT', '3', 'CAR', 'Carolina', 'Hurricanes', '9', 'NYR', 'New York', 'Rangers', '12', 'Madison Square Garden', '3', 'CAR', 'Carolina', 'Hurricanes', '1', '0', '0', '0', '0', '0', '2', '30', '26', '53.6', '4', '0', '0.0', '4', '0', '100.0', '0', '0', '2', '1', '17', '4', '8', '42']"
"['', '9333', '2010-01-07', '01:00:00 GMT', '3', 'CAR', 'Carolina', 'Hurricanes', '18', 'NSH', 'Nashville', 'Predators', '15', 'Sommet Center', '3', 'CAR', 'Carolina', 'Hurricanes', '0', '1', '0', '0', '0', '0', '0', '32', '27', '54.2', '3', '0', '0.0', '7', '2', '71.4', '1', '1', '2', '4', '25', '9', '29', '15']"
"['', '9338', '2010-01-08', '00:00:00 GMT', '22', 'COL', 'Colorado', 'Avalanche', '3', 'CAR', 'Carolina', 'Hurricanes', '21', 'RBC Center', '3', 'CAR', 'Carolina', 'Hurricanes', '1', '0', '0', '0', '0', '0', '2', '40', '25', '61.5', '3', '1', '33.3', '7', '0', '100.0', '0', '0', '2', '1', '18', '11', '31', '25']"
"['', '9356', '2010-01-10', '22:00:00 GMT', '13', 'OTT', 'Ottawa', 'Senators', '3', 'CAR', 'Carolina', 'Hurricanes', '21', 'RBC Center', '3', 'CAR', 'Carolina', 'Hurricanes', '1', '0', '0', '0', '0', '0', '2', '34', '34', '50.0', '2', '0', '0.0', '1', '0', '100.0', '0', '0', '4', '1', '29', '3', '6', '32']"
"['', '9366', '2010-01-12', '00:00:00 GMT', '3', 'CAR', 'Carolina', 'Hurricanes', '12', 'TOR', 'Toronto', 'Maple Leafs', '1', 'Air Canada Center', '3', 'CAR', 'Carolina', 'Hurricanes', '1', '0', '0', '0', '0', '0', '2', '16', '24', '40.0', '2', '1', '50.0', '3', '0', '100.0', '0', '0', '4', '2', '14', '3', '6', '22']"
"['', '9379', '2010-01-14', '00:30:00 GMT', '3', 'CAR', 'Carolina', 'Hurricanes', '16', 'DET', 'Detroit', 'Red Wings', '11', 'Joe Louis Arena', '3', 'CAR', 'Carolina', 'Hurricanes', '0', '1', '0', '0', '0', '0', '0', '22', '33', '40.0', '2', '0', '0.0', '5', '2', '60.0', '0', '0', '1', '3', '37', '6', '12', '29']"
"['', '9398', '2010-01-16', '01:00:00 GMT', '2', 'ATL', 'Atlanta', 'Thrashers', '3', 'CAR', 'Carolina', 'Hurricanes', '21', 'RBC Center', '3', 'CAR', 'Carolina', 'Hurricanes', '0', '1', '0', '0', '0', '0', '0', '37', '35', '51.4', '3', '2', '66.7', '2', '0', '100.0', '0', '0', '3', '5', '28', '3', '6', '31']"
"['', '9408', '2010-01-18', '00:00:00 GMT', '1', 'TBL', 'Tampa Bay', 'Lightning', '3', 'CAR', 'Carolina', 'Hurricanes', '21', 'RBC Center', '3', 'CAR', 'Carolina', 'Hurricanes', '0', '1', '0', '0', '0', '0', '0', '20', '24', '45.5', '4', '0', '0.0', '2', '1', '50.0', '0', '0', '2', '3', '20', '2', '4', '24']"
"['', '9432', '2010-01-21', '00:00:00 GMT', '3', 'CAR', 'Carolina', 'Hurricanes', '2', 'ATL', 'Atlanta', 'Thrashers', '20', 'Philips Arena', '3', 'CAR', 'Carolina', 'Hurricanes', '1', '0', '0', '0', '0', '0', '2', '36', '28', '56.2', '4', '3', '75.0', '6', '0', '100.0', '0', '0', '5', '2', '17', '7', '14', '7']"
"['', '9444', '2010-01-23', '18:00:00 GMT', '3', 'CAR', 'Carolina', 'Hurricanes', '6', 'PHI', 'Philadelphia', 'Flyers', '29', 'Wachovia Center', '3', 'CAR', 'Carolina', 'Hurricanes', '0', '1', '0', '0', '0', '0', '0', '28', '35', '44.4', '5', '2', '40.0', '3', '1', '66.7', '0', '0', '2', '4', '33', '6', '18', '19']"
"['', '9456', '2010-01-24', '22:00:00 GMT', '11', 'BOS', 'Boston', 'Bruins', '3', 'CAR', 'Carolina', 'Hurricanes', '21', 'RBC Center', '3', 'CAR', 'Carolina', 'Hurricanes', '1', '0', '0', '0', '0', '0', '2', '26', '33', '44.1', '4', '1', '25.0', '4', '1', '75.0', '0', '0', '5', '1', '15', '4', '8', '27']"
"['', '9470', '2010-01-27', '00:00:00 GMT', '3', 'CAR', 'Carolina', 'Hurricanes', '9', 'NYR', 'New York', 'Rangers', '12', 'Madison Square Garden', '3', 'CAR', 'Carolina', 'Hurricanes', '1', '0', '0', '0', '0', '0', '2', '28', '22', '56.0', '5', '1', '20.0', '3', '0', '100.0', '0', '0', '5', '1', '19', '5', '10', '27']"
"['', '9476', '2010-01-28', '00:00:00 GMT', '8', 'NYI', 'New York', 'Islanders', '3', 'CAR', 'Carolina', 'Hurricanes', '21', 'RBC Center', '3', 'CAR', 'Carolina', 'Hurricanes', '1', '0', '0', '0', '0', '0', '2', '22', '25', '46.8', '3', '1', '33.3', '2', '0', '100.0', '1', '0', '4', '1', '19', '2', '4', '18']"
"['', '9492', '2010-01-30', '00:00:00 GMT', '20', 'CHI', 'Chicago', 'Blackhawks', '3', 'CAR', 'Carolina', 'Hurricanes', '21', 'RBC Center', '3', 'CAR', 'Carolina', 'Hurricanes', '1', '0', '0', '0', '0', '0', '2', '32', '16', '66.7', '1', '0', '0.0', '3', '0', '100.0', '0', '0', '4', '2', '20', '3', '6', '26']"
"['', '9509', '2010-02-01', '02:30:00 GMT', '3', 'CAR', 'Carolina', 'Hurricanes', '24', 'EDM', 'Edmonton', 'Oilers', '22', 'Rogers Place', '3', 'CAR', 'Carolina', 'Hurricanes', '0', '1', '0', '0', '0', '0', '0', '28', '30', '48.3', '3', '1', '33.3', '4', '1', '75.0', '0', '0', '2', '4', '33', '5', '10', '11']"
"['', '9521', '2010-02-03', '02:00:00 GMT', '3', 'CAR', 'Carolina', 'Hurricanes', '23', 'CGY', 'Calgary', 'Flames', '18', 'Pengrowth Saddledome', '3', 'CAR', 'Carolina', 'Hurricanes', '0', '1', '0', '0', '0', '0', '0', '32', '32', '50.0', '9', '1', '11.1', '2', '0', '100.0', '0', '1', '1', '4', '27', '5', '13', '20']"
"['', '9535', '2010-02-05', '00:30:00 GMT', '3', 'CAR', 'Carolina', 'Hurricanes', '15', 'BUF', 'Buffalo', 'Sabres', '10', 'HSBC Arena', '3', 'CAR', 'Carolina', 'Hurricanes', '1', '0', '0', '0', '0', '0', '2', '26', '31', '45.6', '4', '0', '0.0', '4', '0', '100.0', '0', '0', '4', '3', '23', '5', '10', '17']"
"['', '9542', '2010-02-06', '00:00:00 GMT', '3', 'CAR', 'Carolina', 'Hurricanes', '8', 'NYI', 'New York', 'Islanders', '16', 'Nassau Veterans Memorial Coliseum', '3', 'CAR', 'Carolina', 'Hurricanes', '1', '0', '0', '0', '0', '0', '2', '26', '35', '42.6', '4', '0', '0.0', '3', '0', '100.0', '0', '1', '3', '1', '22', '5', '10', '24']"
"['', '9560', '2010-02-09', '00:00:00 GMT', '4', 'FLO', 'Florida', 'Panthers', '3', 'CAR', 'Carolina', 'Hurricanes', '21', 'RBC Center', '3', 'CAR', 'Carolina', 'Hurricanes', '1', '0', '0', '0', '0', '0', '2', '25', '32', '43.9', '3', '1', '33.3', '4', '0', '100.0', '0', '0', '4', '1', '26', '6', '18', '22']"
"['', '9574', '2010-02-11', '00:00:00 GMT', '15', 'BUF', 'Buffalo', 'Sabres', '3', 'CAR', 'Carolina', 'Hurricanes', '21', 'RBC Center', '3', 'CAR', 'Carolina', 'Hurricanes', '1', '0', '0', '0', '0', '0', '2', '39', '21', '65.0', '4', '2', '50.0', '2', '0', '100.0', '0', '0', '4', '3', '31', '3', '6', '30']"
"['', '9591', '2010-02-13', '00:00:00 GMT', '7', 'NJD', 'New Jersey', 'Devils', '3', 'CAR', 'Carolina', 'Hurricanes', '21', 'RBC Center', '3', 'CAR', 'Carolina', 'Hurricanes', '1', '0', '0', '0', '0', '0', '2', '18', '36', '33.3', '5', '1', '20.0', '4', '1', '75.0', '0', '0', '5', '2', '26', '5', '13', '20']"
"['', '9607', '2010-03-02', '00:00:00 GMT', '3', 'CAR', 'Carolina', 'Hurricanes', '12', 'TOR', 'Toronto', 'Maple Leafs', '1', 'Air Canada Center', '3', 'CAR', 'Carolina', 'Hurricanes', '1', '0', '0', '0', '0', '0', '2', '25', '33', '43.1', '1', '0', '0.0', '3', '0', '100.0', '1', '0', '5', '1', '25', '3', '6', '15']"
"['', '9624', '2010-03-04', '00:00:00 GMT', '13', 'OTT', 'Ottawa', 'Senators', '3', 'CAR', 'Carolina', 'Hurricanes', '21', 'RBC Center', '3', 'CAR', 'Carolina', 'Hurricanes', '1', '0', '0', '0', '0', '0', '2', '18', '26', '40.9', '3', '0', '0.0', '2', '0', '100.0', '0', '0', '4', '1', '17', '2', '4', '34']"
"['', '9641', '2010-03-06', '00:00:00 GMT', '3', 'CAR', 'Carolina', 'Hurricanes', '4', 'FLO', 'Florida', 'Panthers', '3', 'BankAtlantic Center', '3', 'CAR', 'Carolina', 'Hurricanes', '0', '1', '0', '0', '0', '0', '0', '24', '36', '40.0', '7', '0', '0.0', '2', '1', '50.0', '0', '0', '1', '4', '31', '6', '18', '23']"
"['', '9650', '2010-03-07', '22:00:00 GMT', '3', 'CAR', 'Carolina', 'Hurricanes', '2', 'ATL', 'Atlanta', 'Thrashers', '20', 'Philips Arena', '3', 'CAR', 'Carolina', 'Hurricanes', '1', '0', '0', '0', '0', '0', '2', '31', '28', '52.5', '7', '2', '28.6', '3', '0', '100.0', '0', '0', '4', '0', '29', '4', '8', '9']"
"['', '9669', '2010-03-10', '00:00:00 GMT', '3', 'CAR', 'Carolina', 'Hurricanes', '5', 'WSH', 'Washington', 'Capitals', '13', 'Verizon Center', '3', 'CAR', 'Carolina', 'Hurricanes', '0', '0', '0', '1', '0', '0', '1', '28', '35', '44.4', '5', '1', '20.0', '3', '2', '33.3', '0', '0', '3', '4', '27', '4', '8', '29']"
"['', '9672', '2010-03-11', '00:00:00 GMT', '10', 'PIT', 'Pittsburgh', 'Penguins', '3', 'CAR', 'Carolina', 'Hurricanes', '21', 'RBC Center', '3', 'CAR', 'Carolina', 'Hurricanes', '1', '0', '0', '0', '0', '0', '2', '38', '24', '61.3', '4', '1', '25.0', '2', '1', '50.0', '0', '0', '4', '3', '17', '2', '4', '35']"
"['', '9691', '2010-03-13', '00:00:00 GMT', '30', 'PHX', 'Phoenix', 'Coyotes', '3', 'CAR', 'Carolina', 'Hurricanes', '21', 'RBC Center', '3', 'CAR', 'Carolina', 'Hurricanes', '0', '1', '0', '0', '0', '0', '0', '25', '26', '49.0', '3', '0', '0.0', '3', '1', '66.7', '0', '0', '0', '4', '29', '3', '6', '30']"
"['', '9710', '2010-03-16', '23:00:00 GMT', '11', 'BOS', 'Boston', 'Bruins', '3', 'CAR', 'Carolina', 'Hurricanes', '21', 'RBC Center', '3', 'CAR', 'Carolina', 'Hurricanes', '0', '1', '0', '0', '0', '0', '0', '24', '37', '39.3', '3', '1', '33.3', '3', '0', '100.0', '0', '0', '2', '5', '30', '5', '10', '34']"
"['', '9725', '2010-03-18', '23:00:00 GMT', '5', 'WSH', 'Washington', 'Capitals', '3', 'CAR', 'Carolina', 'Hurricanes', '21', 'RBC Center', '3', 'CAR', 'Carolina', 'Hurricanes', '1', '0', '0', '0', '0', '0', '2', '28', '32', '46.7', '5', '1', '20.0', '3', '1', '66.7', '0', '0', '4', '3', '25', '4', '8', '28']"
"['', '9739', '2010-03-20', '17:00:00 GMT', '3', 'CAR', 'Carolina', 'Hurricanes', '10', 'PIT', 'Pittsburgh', 'Penguins', '14', 'Mellon Arena', '3', 'CAR', 'Carolina', 'Hurricanes', '1', '0', '0', '0', '0', '0', '2', '26', '28', '48.1', '4', '0', '0.0', '3', '1', '66.7', '0', '0', '3', '2', '26', '3', '6', '20']"
"['', '9752', '2010-03-21', '21:00:00 GMT', '15', 'BUF', 'Buffalo', 'Sabres', '3', 'CAR', 'Carolina', 'Hurricanes', '21', 'RBC Center', '3', 'CAR', 'Carolina', 'Hurricanes', '0', '1', '0', '0', '0', '0', '0', '35', '27', '56.5', '6', '1', '16.7', '3', '2', '33.3', '0', '0', '3', '5', '27', '4', '8', '35']"
"['', '9766', '2010-03-23', '23:30:00 GMT', '3', 'CAR', 'Carolina', 'Hurricanes', '1', 'TBL', 'Tampa Bay', 'Lightning', '26', 'St. Pete Times Forum', '3', 'CAR', 'Carolina', 'Hurricanes', '0', '0', '0', '1', '0', '0', '1', '28', '30', '48.3', '0', '0', '0.0', '3', '1', '66.7', '0', '0', '2', '3', '27', '4', '11', '13']"
"['', '9779', '2010-03-25', '23:00:00 GMT', '5', 'WSH', 'Washington', 'Capitals', '3', 'CAR', 'Carolina', 'Hurricanes', '21', 'RBC Center', '3', 'CAR', 'Carolina', 'Hurricanes', '1', '0', '0', '0', '0', '0', '2', '29', '38', '43.3', '4', '1', '25.0', '3', '0', '100.0', '0', '0', '2', '2', '29', '3', '6', '19']"
"['', '9795', '2010-03-27', '23:00:00 GMT', '2', 'ATL', 'Atlanta', 'Thrashers', '3', 'CAR', 'Carolina', 'Hurricanes', '21', 'RBC Center', '3', 'CAR', 'Carolina', 'Hurricanes', '0', '1', '0', '0', '0', '0', '0', '19', '42', '31.1', '4', '0', '0.0', '3', '1', '66.7', '0', '0', '0', '4', '34', '3', '6', '26']"
"['', '9811', '2010-03-29', '23:00:00 GMT', '3', 'CAR', 'Carolina', 'Hurricanes', '2', 'ATL', 'Atlanta', 'Thrashers', '20', 'Philips Arena', '3', 'CAR', 'Carolina', 'Hurricanes', '1', '0', '0', '0', '0', '0', '2', '29', '37', '43.9', '3', '0', '0.0', '6', '1', '83.3', '0', '0', '4', '1', '18', '8', '19', '16']"
"['', '9825', '2010-03-31', '23:00:00 GMT', '3', 'CAR', 'Carolina', 'Hurricanes', '14', 'MTL', 'Montreal', 'Canadiens', '4', 'Bell Centre', '3', 'CAR', 'Carolina', 'Hurricanes', '1', '0', '0', '0', '0', '0', '2', '22', '25', '46.8', '2', '0', '0.0', '3', '1', '66.7', '0', '0', '2', '1', '25', '4', '8', '20']"
"['', '9836', '2010-04-01', '23:30:00 GMT', '3', 'CAR', 'Carolina', 'Hurricanes', '13', 'OTT', 'Ottawa', 'Senators', '23', 'Scotiabank Place', '3', 'CAR', 'Carolina', 'Hurricanes', '0', '0', '0', '1', '0', '0', '1', '27', '30', '47.4', '2', '0', '0.0', '2', '0', '100.0', '0', '0', '3', '3', '28', '3', '9', '24']"
"['', '9849', '2010-04-03', '23:00:00 GMT', '7', 'NJD', 'New Jersey', 'Devils', '3', 'CAR', 'Carolina', 'Hurricanes', '21', 'RBC Center', '3', 'CAR', 'Carolina', 'Hurricanes', '0', '1', '0', '0', '0', '0', '0', '22', '35', '38.6', '3', '0', '0.0', '2', '1', '50.0', '0', '0', '0', '4', '26', '3', '6', '36']"
"['', '9869', '2010-04-06', '23:30:00 GMT', '3', 'CAR', 'Carolina', 'Hurricanes', '1', 'TBL', 'Tampa Bay', 'Lightning', '26', 'St. Pete Times Forum', '3', 'CAR', 'Carolina', 'Hurricanes', '1', '0', '0', '0', '0', '0', '2', '26', '35', '42.6', '3', '1', '33.3', '2', '0', '100.0', '0', '0', '8', '5', '33', '5', '16', '8']"
"['', '9881', '2010-04-08', '23:30:00 GMT', '14', 'MTL', 'Montreal', 'Canadiens', '3', 'CAR', 'Carolina', 'Hurricanes', '21', 'RBC Center', '3', 'CAR', 'Carolina', 'Hurricanes', '1', '0', '0', '0', '0', '0', '2', '24', '24', '50.0', '1', '1', '100.0', '2', '0', '100.0', '0', '0', '5', '2', '28', '2', '4', '30']"
"['', '9894', '2010-04-10', '17:00:00 GMT', '3', 'CAR', 'Carolina', 'Hurricanes', '11', 'BOS', 'Boston', 'Bruins', '27', 'TD Garden', '3', 'CAR', 'Carolina', 'Hurricanes', '0', '1', '0', '0', '0', '0', '0', '21', '34', '38.2', '4', '0', '0.0', '5', '0', '100.0', '0', '3', '2', '4', '33', '5', '10', '19']"
