"['#Date/Time of Update: 2018-12-10 19:02:57 GMT', '#Game ID', '#Game Date', '#Game Time', '#Away Team ID', '#Away Team Abbr.', '#Away Team City', '#Away Team Name', '#Home Team ID', '#Home Team Abbr.', '#Home Team City', '#Home Team Name', '#Venue ID', '#Venue Name', '#Team ID', '#Team Abbr.', '#Team City', '#Team Name', '#Wins', '#Losses', '#OvertimeWins', '#OvertimeLosses', '#ShootoutWins', '#ShootoutLosses', '#Points', '#FaceoffWins', '#FaceoffLosses', '#FaceoffPercent', '#Powerplays', '#PowerplayGoals', '#PowerplayPercent', '#PenaltyKills', '#PenaltyKillGoalsAllowed', '#PenaltyKillPercent', '#ShorthandedGoalsFor', '#ShorthandedGoalsAgainst', '#GoalsFor', '#GoalsAgainst', '#Shots', '#Penalties', '#PenaltyMinutes', '#Hits']"
"['', '8703', '2009-10-03', '00:00:00 GMT', '18', 'NSH', 'Nashville', 'Predators', '27', 'DAL', 'Dallas', 'Stars', '2', 'American Airlines Center', '27', 'DAL', 'Dallas', 'Stars', '0', '0', '0', '1', '0', '0', '1', '30', '37', '44.8', '5', '1', '20.0', '4', '1', '75.0', '0', '0', '2', '2', '38', '4', '8', '24']"
"['', '8714', '2009-10-06', '01:30:00 GMT', '27', 'DAL', 'Dallas', 'Stars', '24', 'EDM', 'Edmonton', 'Oilers', '22', 'Rogers Place', '27', 'DAL', 'Dallas', 'Stars', '0', '0', '0', '1', '0', '0', '1', '27', '26', '50.9', '6', '2', '33.3', '4', '2', '50.0', '1', '0', '4', '4', '30', '7', '20', '15']"
"['', '8731', '2009-10-09', '01:00:00 GMT', '27', 'DAL', 'Dallas', 'Stars', '23', 'CGY', 'Calgary', 'Flames', '18', 'Pengrowth Saddledome', '27', 'DAL', 'Dallas', 'Stars', '1', '0', '0', '0', '0', '0', '2', '27', '25', '51.9', '2', '0', '0.0', '4', '2', '50.0', '0', '0', '5', '2', '25', '5', '10', '13']"
"['', '8746', '2009-10-11', '02:00:00 GMT', '27', 'DAL', 'Dallas', 'Stars', '21', 'VAN', 'Vancouver', 'Canucks', '7', 'General Motors Place', '27', 'DAL', 'Dallas', 'Stars', '0', '0', '0', '1', '0', '0', '1', '33', '19', '63.5', '5', '1', '20.0', '3', '2', '33.3', '0', '0', '3', '3', '32', '4', '8', '18']"
"['', '8762', '2009-10-14', '00:30:00 GMT', '18', 'NSH', 'Nashville', 'Predators', '27', 'DAL', 'Dallas', 'Stars', '2', 'American Airlines Center', '27', 'DAL', 'Dallas', 'Stars', '1', '0', '0', '0', '0', '0', '2', '32', '28', '53.3', '4', '2', '50.0', '4', '0', '100.0', '0', '0', '6', '0', '20', '4', '8', '18']"
"['', '8773', '2009-10-16', '00:30:00 GMT', '11', 'BOS', 'Boston', 'Bruins', '27', 'DAL', 'Dallas', 'Stars', '2', 'American Airlines Center', '27', 'DAL', 'Dallas', 'Stars', '0', '1', '0', '0', '0', '0', '0', '23', '32', '41.8', '3', '0', '0.0', '1', '1', '0.0', '0', '0', '0', '3', '27', '1', '2', '31']"
"['', '8785', '2009-10-17', '00:30:00 GMT', '27', 'DAL', 'Dallas', 'Stars', '20', 'CHI', 'Chicago', 'Blackhawks', '28', 'United Center', '27', 'DAL', 'Dallas', 'Stars', '1', '0', '0', '0', '0', '0', '2', '18', '27', '40.0', '5', '0', '0.0', '4', '0', '100.0', '0', '0', '4', '3', '21', '5', '10', '15']"
"['', '8790', '2009-10-19', '00:30:00 GMT', '28', 'LAK', 'Los Angeles', 'Kings', '27', 'DAL', 'Dallas', 'Stars', '2', 'American Airlines Center', '27', 'DAL', 'Dallas', 'Stars', '0', '1', '0', '0', '0', '0', '0', '21', '25', '45.7', '4', '0', '0.0', '5', '1', '80.0', '0', '0', '1', '4', '29', '5', '10', '30']"
"['', '8800', '2009-10-21', '02:00:00 GMT', '27', 'DAL', 'Dallas', 'Stars', '29', 'ANA', 'Anaheim', 'Ducks', '8', 'Honda Center', '27', 'DAL', 'Dallas', 'Stars', '1', '0', '0', '0', '0', '0', '2', '29', '24', '54.7', '3', '1', '33.3', '1', '0', '100.0', '0', '0', '4', '2', '34', '3', '12', '11']"
"['', '8809', '2009-10-22', '02:30:00 GMT', '27', 'DAL', 'Dallas', 'Stars', '28', 'LAK', 'Los Angeles', 'Kings', '25', 'Staples Center', '27', 'DAL', 'Dallas', 'Stars', '0', '0', '0', '1', '0', '0', '1', '22', '30', '42.3', '4', '0', '0.0', '4', '1', '75.0', '0', '0', '4', '5', '17', '6', '12', '34']"
"['', '8821', '2009-10-24', '00:00:00 GMT', '27', 'DAL', 'Dallas', 'Stars', '17', 'STL', 'St. Louis', 'Blues', '24', 'Scottrade Center', '27', 'DAL', 'Dallas', 'Stars', '1', '0', '0', '0', '0', '0', '2', '30', '32', '48.4', '4', '1', '25.0', '5', '0', '100.0', '0', '0', '4', '1', '27', '11', '31', '21']"
"['', '8844', '2009-10-28', '00:00:00 GMT', '12', 'TOR', 'Toronto', 'Maple Leafs', '27', 'DAL', 'Dallas', 'Stars', '2', 'American Airlines Center', '27', 'DAL', 'Dallas', 'Stars', '1', '0', '0', '0', '0', '0', '2', '27', '38', '41.5', '3', '1', '33.3', '2', '1', '50.0', '0', '0', '4', '3', '32', '2', '4', '33']"
"['', '8860', '2009-10-30', '00:30:00 GMT', '4', 'FLO', 'Florida', 'Panthers', '27', 'DAL', 'Dallas', 'Stars', '2', 'American Airlines Center', '27', 'DAL', 'Dallas', 'Stars', '0', '0', '0', '1', '0', '0', '1', '26', '32', '44.8', '5', '1', '20.0', '1', '0', '100.0', '0', '0', '5', '5', '32', '2', '4', '33']"
"['', '8871', '2009-10-31', '00:00:00 GMT', '27', 'DAL', 'Dallas', 'Stars', '18', 'NSH', 'Nashville', 'Predators', '15', 'Sommet Center', '27', 'DAL', 'Dallas', 'Stars', '0', '1', '0', '0', '0', '0', '0', '26', '29', '47.3', '5', '1', '20.0', '2', '1', '50.0', '0', '0', '2', '4', '27', '5', '10', '20']"
"['', '8890', '2009-11-04', '01:30:00 GMT', '23', 'CGY', 'Calgary', 'Flames', '27', 'DAL', 'Dallas', 'Stars', '2', 'American Airlines Center', '27', 'DAL', 'Dallas', 'Stars', '0', '0', '0', '1', '0', '0', '1', '25', '24', '51.0', '5', '0', '0.0', '4', '1', '75.0', '0', '0', '2', '3', '37', '4', '8', '25']"
"['', '8906', '2009-11-06', '01:30:00 GMT', '21', 'VAN', 'Vancouver', 'Canucks', '27', 'DAL', 'Dallas', 'Stars', '2', 'American Airlines Center', '27', 'DAL', 'Dallas', 'Stars', '1', '0', '0', '0', '0', '0', '2', '24', '35', '40.7', '3', '1', '33.3', '2', '0', '100.0', '0', '0', '2', '1', '45', '2', '4', '36']"
"['', '8917', '2009-11-07', '01:00:00 GMT', '27', 'DAL', 'Dallas', 'Stars', '25', 'MIN', 'Minnesota', 'Wild', '30', 'Xcel Energy Center', '27', 'DAL', 'Dallas', 'Stars', '0', '1', '0', '0', '0', '0', '0', '30', '33', '47.6', '5', '2', '40.0', '4', '0', '100.0', '0', '1', '2', '3', '19', '6', '12', '28']"
"['', '8944', '2009-11-12', '03:30:00 GMT', '27', 'DAL', 'Dallas', 'Stars', '26', 'SJS', 'San Jose', 'Sharks', '9', 'HP Pavilion at San Jose', '27', 'DAL', 'Dallas', 'Stars', '1', '0', '0', '0', '0', '0', '2', '25', '35', '41.7', '5', '0', '0.0', '3', '0', '100.0', '0', '0', '2', '2', '34', '5', '13', '26']"
"['', '8960', '2009-11-14', '01:00:00 GMT', '27', 'DAL', 'Dallas', 'Stars', '30', 'PHX', 'Phoenix', 'Coyotes', '6', 'Jobing.com Arena', '27', 'DAL', 'Dallas', 'Stars', '0', '1', '0', '0', '0', '0', '0', '28', '30', '48.3', '6', '1', '16.7', '2', '0', '100.0', '0', '0', '2', '3', '26', '4', '11', '11']"
"['', '8978', '2009-11-18', '00:30:00 GMT', '27', 'DAL', 'Dallas', 'Stars', '16', 'DET', 'Detroit', 'Red Wings', '11', 'Joe Louis Arena', '27', 'DAL', 'Dallas', 'Stars', '1', '0', '0', '0', '0', '0', '2', '23', '32', '41.8', '5', '2', '40.0', '4', '0', '100.0', '0', '0', '3', '1', '29', '6', '15', '30']"
"['', '8987', '2009-11-19', '01:30:00 GMT', '19', 'CBJ', 'Columbus', 'Blue Jackets', '27', 'DAL', 'Dallas', 'Stars', '2', 'American Airlines Center', '27', 'DAL', 'Dallas', 'Stars', '0', '1', '0', '0', '0', '0', '0', '30', '25', '54.5', '5', '0', '0.0', '4', '3', '25.0', '0', '1', '1', '4', '25', '12', '44', '33']"
"['', '9003', '2009-11-21', '01:00:00 GMT', '7', 'NJD', 'New Jersey', 'Devils', '27', 'DAL', 'Dallas', 'Stars', '2', 'American Airlines Center', '27', 'DAL', 'Dallas', 'Stars', '1', '0', '0', '0', '0', '0', '2', '29', '29', '50.0', '4', '2', '50.0', '5', '2', '60.0', '0', '0', '5', '3', '21', '5', '10', '62']"
"['', '9017', '2009-11-23', '01:30:00 GMT', '3', 'CAR', 'Carolina', 'Hurricanes', '27', 'DAL', 'Dallas', 'Stars', '2', 'American Airlines Center', '27', 'DAL', 'Dallas', 'Stars', '1', '0', '0', '0', '0', '0', '2', '29', '29', '50.0', '8', '2', '25.0', '4', '0', '100.0', '0', '0', '2', '0', '27', '6', '15', '34']"
"['', '9030', '2009-11-25', '01:30:00 GMT', '17', 'STL', 'St. Louis', 'Blues', '27', 'DAL', 'Dallas', 'Stars', '2', 'American Airlines Center', '27', 'DAL', 'Dallas', 'Stars', '0', '0', '0', '1', '0', '0', '1', '29', '47', '38.2', '5', '1', '20.0', '2', '1', '50.0', '0', '0', '3', '3', '34', '5', '16', '43']"
"['', '9049', '2009-11-27', '02:00:00 GMT', '27', 'DAL', 'Dallas', 'Stars', '30', 'PHX', 'Phoenix', 'Coyotes', '6', 'Jobing.com Arena', '27', 'DAL', 'Dallas', 'Stars', '0', '1', '0', '0', '0', '0', '0', '27', '24', '52.9', '5', '1', '20.0', '0', '0', '0.0', '0', '0', '2', '5', '30', '2', '4', '24']"
"['', '9057', '2009-11-28', '01:00:00 GMT', '1', 'TBL', 'Tampa Bay', 'Lightning', '27', 'DAL', 'Dallas', 'Stars', '2', 'American Airlines Center', '27', 'DAL', 'Dallas', 'Stars', '1', '0', '0', '0', '0', '0', '2', '31', '33', '48.4', '5', '3', '60.0', '2', '1', '50.0', '0', '0', '4', '3', '34', '4', '8', '33']"
"['', '9070', '2009-11-30', '00:30:00 GMT', '27', 'DAL', 'Dallas', 'Stars', '16', 'DET', 'Detroit', 'Red Wings', '11', 'Joe Louis Arena', '27', 'DAL', 'Dallas', 'Stars', '0', '1', '0', '0', '0', '0', '0', '14', '28', '33.3', '4', '0', '0.0', '4', '0', '100.0', '0', '0', '1', '4', '29', '4', '8', '29']"
"['', '9088', '2009-12-03', '01:30:00 GMT', '29', 'ANA', 'Anaheim', 'Ducks', '27', 'DAL', 'Dallas', 'Stars', '2', 'American Airlines Center', '27', 'DAL', 'Dallas', 'Stars', '1', '0', '0', '0', '0', '0', '2', '22', '22', '50.0', '3', '0', '0.0', '1', '0', '100.0', '0', '0', '3', '1', '34', '2', '7', '29']"
"['', '9097', '2009-12-05', '19:00:00 GMT', '24', 'EDM', 'Edmonton', 'Oilers', '27', 'DAL', 'Dallas', 'Stars', '2', 'American Airlines Center', '27', 'DAL', 'Dallas', 'Stars', '0', '0', '0', '1', '0', '0', '1', '35', '27', '56.5', '2', '0', '0.0', '3', '0', '100.0', '0', '0', '2', '2', '33', '3', '6', '34']"
"['', '9124', '2009-12-08', '03:00:00 GMT', '27', 'DAL', 'Dallas', 'Stars', '29', 'ANA', 'Anaheim', 'Ducks', '8', 'Honda Center', '27', 'DAL', 'Dallas', 'Stars', '0', '0', '0', '1', '0', '0', '1', '25', '25', '50.0', '4', '1', '25.0', '0', '0', '0.0', '0', '0', '3', '4', '19', '2', '7', '14']"
"['', '9148', '2009-12-11', '03:00:00 GMT', '27', 'DAL', 'Dallas', 'Stars', '26', 'SJS', 'San Jose', 'Sharks', '9', 'HP Pavilion at San Jose', '27', 'DAL', 'Dallas', 'Stars', '1', '0', '0', '0', '0', '0', '2', '24', '46', '34.3', '5', '1', '20.0', '2', '0', '100.0', '0', '0', '2', '2', '42', '5', '10', '38']"
"['', '9160', '2009-12-12', '03:30:00 GMT', '27', 'DAL', 'Dallas', 'Stars', '28', 'LAK', 'Los Angeles', 'Kings', '25', 'Staples Center', '27', 'DAL', 'Dallas', 'Stars', '0', '0', '0', '1', '0', '0', '1', '31', '26', '54.4', '4', '0', '0.0', '1', '0', '100.0', '0', '0', '2', '2', '25', '3', '6', '30']"
"['', '9177', '2009-12-16', '00:00:00 GMT', '27', 'DAL', 'Dallas', 'Stars', '3', 'CAR', 'Carolina', 'Hurricanes', '21', 'RBC Center', '27', 'DAL', 'Dallas', 'Stars', '0', '1', '0', '0', '0', '0', '0', '32', '28', '53.3', '3', '2', '66.7', '4', '3', '25.0', '0', '0', '3', '5', '24', '5', '10', '32']"
"['', '9188', '2009-12-17', '00:00:00 GMT', '27', 'DAL', 'Dallas', 'Stars', '2', 'ATL', 'Atlanta', 'Thrashers', '20', 'Philips Arena', '27', 'DAL', 'Dallas', 'Stars', '0', '0', '0', '1', '0', '0', '1', '32', '35', '47.8', '4', '2', '50.0', '4', '3', '25.0', '1', '1', '5', '6', '42', '4', '8', '13']"
"['', '9201', '2009-12-19', '20:00:00 GMT', '16', 'DET', 'Detroit', 'Red Wings', '27', 'DAL', 'Dallas', 'Stars', '2', 'American Airlines Center', '27', 'DAL', 'Dallas', 'Stars', '1', '0', '0', '0', '0', '0', '2', '19', '31', '38.0', '2', '0', '0.0', '2', '0', '100.0', '0', '0', '4', '3', '17', '3', '9', '41']"
"['', '9222', '2009-12-21', '01:30:00 GMT', '26', 'SJS', 'San Jose', 'Sharks', '27', 'DAL', 'Dallas', 'Stars', '2', 'American Airlines Center', '27', 'DAL', 'Dallas', 'Stars', '0', '1', '0', '0', '0', '0', '0', '24', '28', '46.2', '5', '1', '20.0', '0', '0', '0.0', '0', '0', '2', '4', '36', '1', '2', '35']"
"['', '9237', '2009-12-23', '01:30:00 GMT', '19', 'CBJ', 'Columbus', 'Blue Jackets', '27', 'DAL', 'Dallas', 'Stars', '2', 'American Airlines Center', '27', 'DAL', 'Dallas', 'Stars', '1', '0', '0', '0', '0', '0', '2', '29', '37', '43.9', '4', '0', '0.0', '4', '0', '100.0', '0', '0', '3', '1', '25', '7', '17', '32']"
"['', '9250', '2009-12-26', '02:00:00 GMT', '27', 'DAL', 'Dallas', 'Stars', '22', 'COL', 'Colorado', 'Avalanche', '19', 'Pepsi Center', '27', 'DAL', 'Dallas', 'Stars', '0', '1', '0', '0', '0', '0', '0', '24', '22', '52.2', '1', '0', '0.0', '3', '0', '100.0', '0', '0', '1', '4', '39', '3', '6', '22']"
"['', '9270', '2009-12-29', '01:30:00 GMT', '20', 'CHI', 'Chicago', 'Blackhawks', '27', 'DAL', 'Dallas', 'Stars', '2', 'American Airlines Center', '27', 'DAL', 'Dallas', 'Stars', '1', '0', '0', '0', '0', '0', '2', '25', '29', '46.3', '4', '2', '50.0', '4', '2', '50.0', '0', '0', '5', '4', '19', '4', '8', '38']"
"['', '9287', '2009-12-31', '01:00:00 GMT', '29', 'ANA', 'Anaheim', 'Ducks', '27', 'DAL', 'Dallas', 'Stars', '2', 'American Airlines Center', '27', 'DAL', 'Dallas', 'Stars', '1', '0', '0', '0', '0', '0', '2', '28', '21', '57.1', '4', '1', '25.0', '2', '0', '100.0', '1', '0', '5', '3', '37', '5', '19', '29']"
"['', '9295', '2010-01-02', '19:00:00 GMT', '21', 'VAN', 'Vancouver', 'Canucks', '27', 'DAL', 'Dallas', 'Stars', '2', 'American Airlines Center', '27', 'DAL', 'Dallas', 'Stars', '0', '1', '0', '0', '0', '0', '0', '19', '22', '46.3', '2', '0', '0.0', '2', '1', '50.0', '0', '0', '1', '3', '31', '3', '9', '49']"
"['', '9312', '2010-01-05', '00:00:00 GMT', '27', 'DAL', 'Dallas', 'Stars', '7', 'NJD', 'New Jersey', 'Devils', '5', 'Izod Center', '27', 'DAL', 'Dallas', 'Stars', '0', '1', '0', '0', '0', '0', '0', '25', '28', '47.2', '3', '0', '0.0', '4', '1', '75.0', '0', '0', '0', '4', '28', '5', '10', '31']"
"['', '9323', '2010-01-06', '00:00:00 GMT', '27', 'DAL', 'Dallas', 'Stars', '9', 'NYR', 'New York', 'Rangers', '12', 'Madison Square Garden', '27', 'DAL', 'Dallas', 'Stars', '0', '1', '0', '0', '0', '0', '0', '27', '27', '50.0', '6', '0', '0.0', '4', '1', '75.0', '0', '0', '2', '5', '25', '6', '12', '30']"
"['', '9341', '2010-01-08', '01:30:00 GMT', '8', 'NYI', 'New York', 'Islanders', '27', 'DAL', 'Dallas', 'Stars', '2', 'American Airlines Center', '27', 'DAL', 'Dallas', 'Stars', '1', '0', '0', '0', '0', '0', '2', '26', '22', '54.2', '1', '0', '0.0', '1', '0', '100.0', '0', '0', '4', '3', '24', '2', '4', '32']"
"['', '9358', '2010-01-10', '00:00:00 GMT', '27', 'DAL', 'Dallas', 'Stars', '19', 'CBJ', 'Columbus', 'Blue Jackets', '17', 'Nationwide Arena', '27', 'DAL', 'Dallas', 'Stars', '0', '1', '0', '0', '0', '0', '0', '25', '32', '43.9', '3', '0', '0.0', '3', '1', '66.7', '0', '0', '0', '2', '26', '5', '10', '23']"
"['', '9365', '2010-01-12', '00:00:00 GMT', '27', 'DAL', 'Dallas', 'Stars', '6', 'PHI', 'Philadelphia', 'Flyers', '29', 'Wachovia Center', '27', 'DAL', 'Dallas', 'Stars', '0', '1', '0', '0', '0', '0', '0', '33', '22', '60.0', '5', '0', '0.0', '3', '1', '66.7', '0', '1', '3', '6', '27', '5', '13', '27']"
"['', '9380', '2010-01-14', '00:30:00 GMT', '27', 'DAL', 'Dallas', 'Stars', '14', 'MTL', 'Montreal', 'Canadiens', '4', 'Bell Centre', '27', 'DAL', 'Dallas', 'Stars', '0', '1', '0', '0', '0', '0', '0', '24', '28', '46.2', '3', '1', '33.3', '2', '2', '0.0', '0', '0', '3', '5', '33', '3', '6', '20']"
"['', '9390', '2010-01-16', '19:00:00 GMT', '16', 'DET', 'Detroit', 'Red Wings', '27', 'DAL', 'Dallas', 'Stars', '2', 'American Airlines Center', '27', 'DAL', 'Dallas', 'Stars', '1', '0', '0', '0', '0', '0', '2', '17', '25', '40.5', '3', '1', '33.3', '1', '1', '0.0', '0', '0', '2', '2', '28', '1', '2', '44']"
"['', '9412', '2010-01-18', '01:00:00 GMT', '25', 'MIN', 'Minnesota', 'Wild', '27', 'DAL', 'Dallas', 'Stars', '2', 'American Airlines Center', '27', 'DAL', 'Dallas', 'Stars', '1', '0', '0', '0', '0', '0', '2', '25', '28', '47.2', '3', '1', '33.3', '2', '1', '50.0', '0', '0', '4', '3', '25', '4', '8', '36']"
"['', '9437', '2010-01-21', '03:00:00 GMT', '27', 'DAL', 'Dallas', 'Stars', '21', 'VAN', 'Vancouver', 'Canucks', '7', 'General Motors Place', '27', 'DAL', 'Dallas', 'Stars', '0', '1', '0', '0', '0', '0', '0', '21', '30', '41.2', '1', '0', '0.0', '2', '0', '100.0', '1', '1', '3', '4', '20', '4', '11', '18']"
"['', '9441', '2010-01-22', '02:00:00 GMT', '27', 'DAL', 'Dallas', 'Stars', '24', 'EDM', 'Edmonton', 'Oilers', '22', 'Rogers Place', '27', 'DAL', 'Dallas', 'Stars', '1', '0', '0', '0', '0', '0', '2', '30', '29', '50.8', '3', '1', '33.3', '3', '1', '66.7', '0', '0', '4', '3', '28', '5', '13', '15']"
"['', '9457', '2010-01-24', '01:00:00 GMT', '27', 'DAL', 'Dallas', 'Stars', '22', 'COL', 'Colorado', 'Avalanche', '19', 'Pepsi Center', '27', 'DAL', 'Dallas', 'Stars', '0', '1', '0', '0', '0', '0', '0', '29', '27', '51.8', '4', '0', '0.0', '4', '2', '50.0', '0', '1', '0', '4', '27', '6', '15', '23']"
"['', '9474', '2010-01-27', '01:30:00 GMT', '23', 'CGY', 'Calgary', 'Flames', '27', 'DAL', 'Dallas', 'Stars', '2', 'American Airlines Center', '27', 'DAL', 'Dallas', 'Stars', '1', '0', '0', '0', '0', '0', '2', '30', '31', '49.2', '6', '1', '16.7', '1', '0', '100.0', '0', '0', '3', '3', '33', '3', '17', '55']"
"['', '9489', '2010-01-29', '01:30:00 GMT', '22', 'COL', 'Colorado', 'Avalanche', '27', 'DAL', 'Dallas', 'Stars', '2', 'American Airlines Center', '27', 'DAL', 'Dallas', 'Stars', '1', '0', '0', '0', '0', '0', '2', '19', '19', '50.0', '2', '0', '0.0', '1', '0', '100.0', '0', '0', '3', '2', '28', '1', '2', '26']"
"['', '9504', '2010-01-31', '23:00:00 GMT', '30', 'PHX', 'Phoenix', 'Coyotes', '27', 'DAL', 'Dallas', 'Stars', '2', 'American Airlines Center', '27', 'DAL', 'Dallas', 'Stars', '0', '1', '0', '0', '0', '0', '0', '29', '34', '46.0', '2', '0', '0.0', '1', '0', '100.0', '0', '0', '2', '4', '38', '2', '12', '39']"
"['', '9515', '2010-02-02', '01:30:00 GMT', '25', 'MIN', 'Minnesota', 'Wild', '27', 'DAL', 'Dallas', 'Stars', '2', 'American Airlines Center', '27', 'DAL', 'Dallas', 'Stars', '1', '0', '0', '0', '0', '0', '2', '25', '33', '43.1', '3', '1', '33.3', '4', '1', '75.0', '0', '0', '4', '2', '14', '6', '18', '37']"
"['', '9526', '2010-02-04', '00:00:00 GMT', '27', 'DAL', 'Dallas', 'Stars', '19', 'CBJ', 'Columbus', 'Blue Jackets', '17', 'Nationwide Arena', '27', 'DAL', 'Dallas', 'Stars', '0', '1', '0', '0', '0', '0', '0', '14', '21', '40.0', '3', '0', '0.0', '0', '0', '0.0', '0', '0', '1', '2', '22', '0', '0', '35']"
"['', '9541', '2010-02-06', '23:00:00 GMT', '30', 'PHX', 'Phoenix', 'Coyotes', '27', 'DAL', 'Dallas', 'Stars', '2', 'American Airlines Center', '27', 'DAL', 'Dallas', 'Stars', '1', '0', '0', '0', '0', '0', '2', '40', '21', '65.6', '3', '1', '33.3', '5', '0', '100.0', '1', '0', '4', '0', '31', '7', '17', '42']"
"['', '9565', '2010-02-09', '01:30:00 GMT', '27', 'DAL', 'Dallas', 'Stars', '20', 'CHI', 'Chicago', 'Blackhawks', '28', 'United Center', '27', 'DAL', 'Dallas', 'Stars', '0', '0', '0', '1', '0', '0', '1', '22', '34', '39.3', '4', '1', '25.0', '3', '0', '100.0', '0', '0', '3', '3', '24', '3', '6', '27']"
"['', '9579', '2010-02-11', '02:30:00 GMT', '27', 'DAL', 'Dallas', 'Stars', '23', 'CGY', 'Calgary', 'Flames', '18', 'Pengrowth Saddledome', '27', 'DAL', 'Dallas', 'Stars', '1', '0', '0', '0', '0', '0', '2', '22', '30', '42.3', '5', '1', '20.0', '6', '1', '83.3', '1', '0', '3', '1', '20', '6', '12', '10']"
"['', '9595', '2010-02-13', '01:00:00 GMT', '27', 'DAL', 'Dallas', 'Stars', '30', 'PHX', 'Phoenix', 'Coyotes', '6', 'Jobing.com Arena', '27', 'DAL', 'Dallas', 'Stars', '1', '0', '0', '0', '0', '0', '2', '33', '30', '52.4', '1', '0', '0.0', '4', '0', '100.0', '0', '0', '3', '0', '19', '7', '23', '22']"
"['', '9614', '2010-03-02', '01:30:00 GMT', '28', 'LAK', 'Los Angeles', 'Kings', '27', 'DAL', 'Dallas', 'Stars', '2', 'American Airlines Center', '27', 'DAL', 'Dallas', 'Stars', '0', '1', '0', '0', '0', '0', '0', '28', '26', '51.9', '4', '1', '25.0', '2', '2', '0.0', '0', '0', '1', '5', '31', '5', '13', '43']"
"['', '9629', '2010-03-04', '01:30:00 GMT', '17', 'STL', 'St. Louis', 'Blues', '27', 'DAL', 'Dallas', 'Stars', '2', 'American Airlines Center', '27', 'DAL', 'Dallas', 'Stars', '0', '1', '0', '0', '0', '0', '0', '31', '29', '51.7', '4', '0', '0.0', '3', '0', '100.0', '0', '0', '1', '6', '29', '6', '18', '42']"
"['', '9637', '2010-03-06', '18:00:00 GMT', '27', 'DAL', 'Dallas', 'Stars', '10', 'PIT', 'Pittsburgh', 'Penguins', '14', 'Mellon Arena', '27', 'DAL', 'Dallas', 'Stars', '0', '1', '0', '0', '0', '0', '0', '35', '38', '47.9', '6', '0', '0.0', '6', '1', '83.3', '0', '1', '3', '6', '27', '7', '20', '23']"
"['', '9656', '2010-03-08', '00:00:00 GMT', '27', 'DAL', 'Dallas', 'Stars', '5', 'WSH', 'Washington', 'Capitals', '13', 'Verizon Center', '27', 'DAL', 'Dallas', 'Stars', '1', '0', '0', '0', '0', '0', '2', '31', '38', '44.9', '2', '2', '100.0', '3', '1', '66.7', '0', '0', '3', '3', '23', '3', '6', '20']"
"['', '9667', '2010-03-10', '00:00:00 GMT', '27', 'DAL', 'Dallas', 'Stars', '15', 'BUF', 'Buffalo', 'Sabres', '10', 'HSBC Arena', '27', 'DAL', 'Dallas', 'Stars', '0', '1', '0', '0', '0', '0', '0', '26', '26', '50.0', '2', '0', '0.0', '2', '0', '100.0', '0', '0', '3', '5', '17', '3', '9', '17']"
"['', '9686', '2010-03-12', '01:30:00 GMT', '28', 'LAK', 'Los Angeles', 'Kings', '27', 'DAL', 'Dallas', 'Stars', '2', 'American Airlines Center', '27', 'DAL', 'Dallas', 'Stars', '0', '0', '0', '1', '0', '0', '1', '23', '30', '43.4', '4', '0', '0.0', '3', '1', '66.7', '0', '0', '1', '1', '29', '5', '10', '30']"
"['', '9698', '2010-03-14', '19:00:00 GMT', '22', 'COL', 'Colorado', 'Avalanche', '27', 'DAL', 'Dallas', 'Stars', '2', 'American Airlines Center', '27', 'DAL', 'Dallas', 'Stars', '0', '1', '0', '0', '0', '0', '0', '37', '31', '54.4', '5', '0', '0.0', '2', '2', '0.0', '0', '0', '3', '5', '48', '5', '16', '32']"
"['', '9719', '2010-03-16', '00:30:00 GMT', '26', 'SJS', 'San Jose', 'Sharks', '27', 'DAL', 'Dallas', 'Stars', '2', 'American Airlines Center', '27', 'DAL', 'Dallas', 'Stars', '1', '0', '0', '0', '0', '0', '2', '32', '40', '44.4', '4', '2', '50.0', '4', '1', '75.0', '2', '0', '8', '2', '23', '8', '33', '29']"
"['', '9732', '2010-03-18', '00:30:00 GMT', '6', 'PHI', 'Philadelphia', 'Flyers', '27', 'DAL', 'Dallas', 'Stars', '2', 'American Airlines Center', '27', 'DAL', 'Dallas', 'Stars', '0', '1', '0', '0', '0', '0', '0', '26', '28', '48.1', '3', '1', '33.3', '1', '0', '100.0', '0', '0', '2', '3', '27', '3', '9', '40']"
"['', '9740', '2010-03-20', '18:00:00 GMT', '13', 'OTT', 'Ottawa', 'Senators', '27', 'DAL', 'Dallas', 'Stars', '2', 'American Airlines Center', '27', 'DAL', 'Dallas', 'Stars', '1', '0', '0', '0', '0', '0', '2', '31', '28', '52.5', '4', '1', '25.0', '5', '2', '60.0', '0', '0', '5', '4', '20', '5', '10', '33']"
"['', '9755', '2010-03-21', '23:00:00 GMT', '30', 'PHX', 'Phoenix', 'Coyotes', '27', 'DAL', 'Dallas', 'Stars', '2', 'American Airlines Center', '27', 'DAL', 'Dallas', 'Stars', '0', '0', '0', '1', '0', '0', '1', '33', '29', '53.2', '2', '0', '0.0', '5', '2', '60.0', '0', '0', '2', '2', '30', '6', '12', '30']"
"['', '9767', '2010-03-23', '00:00:00 GMT', '27', 'DAL', 'Dallas', 'Stars', '18', 'NSH', 'Nashville', 'Predators', '15', 'Sommet Center', '27', 'DAL', 'Dallas', 'Stars', '1', '0', '0', '0', '0', '0', '2', '22', '29', '43.1', '3', '0', '0.0', '3', '0', '100.0', '0', '0', '3', '1', '11', '6', '12', '15']"
"['', '9788', '2010-03-25', '02:30:00 GMT', '27', 'DAL', 'Dallas', 'Stars', '26', 'SJS', 'San Jose', 'Sharks', '9', 'HP Pavilion at San Jose', '27', 'DAL', 'Dallas', 'Stars', '0', '1', '0', '0', '0', '0', '0', '27', '35', '43.5', '2', '0', '0.0', '7', '2', '71.4', '0', '0', '0', '3', '27', '10', '31', '24']"
"['', '9803', '2010-03-27', '02:30:00 GMT', '27', 'DAL', 'Dallas', 'Stars', '28', 'LAK', 'Los Angeles', 'Kings', '25', 'Staples Center', '27', 'DAL', 'Dallas', 'Stars', '1', '0', '0', '0', '0', '0', '2', '24', '37', '39.3', '6', '4', '66.7', '6', '1', '83.3', '0', '0', '4', '1', '22', '8', '16', '31']"
"['', '9814', '2010-03-29', '02:00:00 GMT', '27', 'DAL', 'Dallas', 'Stars', '29', 'ANA', 'Anaheim', 'Ducks', '8', 'Honda Center', '27', 'DAL', 'Dallas', 'Stars', '0', '1', '0', '0', '0', '0', '0', '22', '32', '40.7', '1', '0', '0.0', '5', '1', '80.0', '0', '0', '1', '3', '30', '5', '10', '25']"
"['', '9828', '2010-03-31', '00:30:00 GMT', '26', 'SJS', 'San Jose', 'Sharks', '27', 'DAL', 'Dallas', 'Stars', '2', 'American Airlines Center', '27', 'DAL', 'Dallas', 'Stars', '1', '0', '0', '0', '0', '0', '2', '26', '35', '42.6', '6', '1', '16.7', '6', '1', '83.3', '1', '0', '5', '1', '24', '7', '17', '40']"
"['', '9843', '2010-04-02', '00:30:00 GMT', '24', 'EDM', 'Edmonton', 'Oilers', '27', 'DAL', 'Dallas', 'Stars', '2', 'American Airlines Center', '27', 'DAL', 'Dallas', 'Stars', '1', '0', '0', '0', '0', '0', '2', '38', '15', '71.7', '3', '1', '33.3', '6', '0', '100.0', '0', '0', '6', '3', '29', '7', '17', '14']"
"['', '9854', '2010-04-03', '00:00:00 GMT', '27', 'DAL', 'Dallas', 'Stars', '17', 'STL', 'St. Louis', 'Blues', '24', 'Scottrade Center', '27', 'DAL', 'Dallas', 'Stars', '0', '1', '0', '0', '0', '0', '0', '27', '21', '56.2', '4', '1', '25.0', '5', '1', '80.0', '0', '0', '1', '2', '24', '8', '19', '23']"
"['', '9871', '2010-04-06', '00:30:00 GMT', '20', 'CHI', 'Chicago', 'Blackhawks', '27', 'DAL', 'Dallas', 'Stars', '2', 'American Airlines Center', '27', 'DAL', 'Dallas', 'Stars', '0', '1', '0', '0', '0', '0', '0', '36', '28', '56.2', '4', '1', '25.0', '2', '0', '100.0', '0', '1', '2', '5', '26', '2', '4', '24']"
"['', '9885', '2010-04-08', '00:30:00 GMT', '29', 'ANA', 'Anaheim', 'Ducks', '27', 'DAL', 'Dallas', 'Stars', '2', 'American Airlines Center', '27', 'DAL', 'Dallas', 'Stars', '1', '0', '0', '0', '0', '0', '2', '33', '20', '62.3', '3', '0', '0.0', '4', '1', '75.0', '0', '0', '2', '2', '49', '4', '8', '26']"
"['', '9902', '2010-04-10', '00:00:00 GMT', '27', 'DAL', 'Dallas', 'Stars', '25', 'MIN', 'Minnesota', 'Wild', '30', 'Xcel Energy Center', '27', 'DAL', 'Dallas', 'Stars', '1', '0', '0', '0', '0', '0', '2', '22', '29', '43.1', '3', '1', '33.3', '3', '1', '66.7', '0', '0', '3', '3', '23', '5', '21', '19']"
