"['#Date/Time of Update: 2018-12-10 19:03:00 GMT', '#Game ID', '#Game Date', '#Game Time', '#Away Team ID', '#Away Team Abbr.', '#Away Team City', '#Away Team Name', '#Home Team ID', '#Home Team Abbr.', '#Home Team City', '#Home Team Name', '#Venue ID', '#Venue Name', '#Team ID', '#Team Abbr.', '#Team City', '#Team Name', '#Wins', '#Losses', '#OvertimeWins', '#OvertimeLosses', '#ShootoutWins', '#ShootoutLosses', '#Rows', '#Points', '#FaceoffWins', '#FaceoffLosses', '#FaceoffPercent', '#Powerplays', '#PowerplayGoals', '#PowerplayPercent', '#PenaltyKills', '#PenaltyKillGoalsAllowed', '#PenaltyKillPercent', '#ShorthandedGoalsFor', '#ShorthandedGoalsAgainst', '#GoalsFor', '#GoalsAgainst', '#Shots', '#Penalties', '#PenaltyMinutes', '#Hits']"
"['', '12477', '2010-10-07', '23:00:00 GMT', '14', 'MTL', 'Montreal', 'Canadiens', '12', 'TOR', 'Toronto', 'Maple Leafs', '1', 'Air Canada Center', '12', 'TOR', 'Toronto', 'Maple Leafs', '1', '0', '0', '0', '0', '0', '1', '2', '20', '23', '46.5', '5', '0', '0.0', '3', '0', '100.0', '0', '0', '3', '2', '21', '3', '6', '27']"
"['', '11259', '2010-10-09', '23:00:00 GMT', '13', 'OTT', 'Ottawa', 'Senators', '12', 'TOR', 'Toronto', 'Maple Leafs', '1', 'Air Canada Center', '12', 'TOR', 'Toronto', 'Maple Leafs', '1', '0', '0', '0', '0', '0', '1', '2', '23', '23', '50.0', '5', '1', '20.0', '5', '0', '100.0', '0', '0', '5', '1', '33', '8', '33', '37']"
"['', '11281', '2010-10-13', '23:30:00 GMT', '12', 'TOR', 'Toronto', 'Maple Leafs', '10', 'PIT', 'Pittsburgh', 'Penguins', '14', 'Civic Arena', '12', 'TOR', 'Toronto', 'Maple Leafs', '1', '0', '0', '0', '0', '0', '1', '2', '25', '21', '54.3', '3', '1', '33.3', '3', '1', '66.7', '0', '0', '4', '3', '10', '5', '21', '32']"
"['', '11291', '2010-10-15', '23:00:00 GMT', '12', 'TOR', 'Toronto', 'Maple Leafs', '9', 'NYR', 'New York', 'Rangers', '12', 'Madison Square Garden', '12', 'TOR', 'Toronto', 'Maple Leafs', '1', '0', '0', '0', '0', '0', '1', '2', '32', '19', '62.7', '6', '1', '16.7', '5', '0', '100.0', '0', '0', '4', '3', '34', '7', '17', '29']"
"['', '11313', '2010-10-18', '23:00:00 GMT', '8', 'NYI', 'New York', 'Islanders', '12', 'TOR', 'Toronto', 'Maple Leafs', '1', 'Air Canada Center', '12', 'TOR', 'Toronto', 'Maple Leafs', '0', '0', '0', '1', '0', '0', '0', '1', '22', '34', '39.3', '3', '1', '33.3', '3', '1', '66.7', '0', '0', '1', '2', '29', '4', '11', '23']"
"['', '11327', '2010-10-21', '23:00:00 GMT', '9', 'NYR', 'New York', 'Rangers', '12', 'TOR', 'Toronto', 'Maple Leafs', '1', 'Air Canada Center', '12', 'TOR', 'Toronto', 'Maple Leafs', '0', '1', '0', '0', '0', '0', '0', '0', '31', '25', '55.4', '6', '0', '0.0', '2', '0', '100.0', '0', '0', '1', '2', '24', '3', '9', '21']"
"['', '11344', '2010-10-23', '23:00:00 GMT', '12', 'TOR', 'Toronto', 'Maple Leafs', '6', 'PHI', 'Philadelphia', 'Flyers', '29', 'Wells Fargo Center', '12', 'TOR', 'Toronto', 'Maple Leafs', '0', '1', '0', '0', '0', '0', '0', '0', '23', '31', '42.6', '4', '0', '0.0', '6', '1', '83.3', '0', '0', '2', '5', '12', '8', '22', '26']"
"['', '11360', '2010-10-26', '23:00:00 GMT', '4', 'FLO', 'Florida', 'Panthers', '12', 'TOR', 'Toronto', 'Maple Leafs', '1', 'Air Canada Center', '12', 'TOR', 'Toronto', 'Maple Leafs', '1', '0', '0', '0', '0', '0', '1', '2', '26', '15', '63.4', '2', '1', '50.0', '3', '1', '66.7', '0', '0', '3', '1', '24', '3', '6', '35']"
"['', '11371', '2010-10-28', '23:00:00 GMT', '12', 'TOR', 'Toronto', 'Maple Leafs', '11', 'BOS', 'Boston', 'Bruins', '27', 'TD Garden', '12', 'TOR', 'Toronto', 'Maple Leafs', '0', '1', '0', '0', '0', '0', '0', '0', '29', '24', '54.7', '5', '0', '0.0', '3', '1', '66.7', '0', '0', '0', '2', '20', '4', '11', '30']"
"['', '11390', '2010-10-30', '23:00:00 GMT', '9', 'NYR', 'New York', 'Rangers', '12', 'TOR', 'Toronto', 'Maple Leafs', '1', 'Air Canada Center', '12', 'TOR', 'Toronto', 'Maple Leafs', '0', '1', '0', '0', '0', '0', '0', '0', '29', '22', '56.9', '3', '0', '0.0', '1', '0', '100.0', '0', '0', '0', '2', '36', '3', '17', '16']"
"['', '11402', '2010-11-02', '23:00:00 GMT', '13', 'OTT', 'Ottawa', 'Senators', '12', 'TOR', 'Toronto', 'Maple Leafs', '1', 'Air Canada Center', '12', 'TOR', 'Toronto', 'Maple Leafs', '0', '1', '0', '0', '0', '0', '0', '0', '28', '25', '52.8', '5', '1', '20.0', '4', '2', '50.0', '0', '0', '2', '3', '33', '5', '18', '24']"
"['', '11408', '2010-11-03', '23:00:00 GMT', '12', 'TOR', 'Toronto', 'Maple Leafs', '5', 'WSH', 'Washington', 'Capitals', '13', 'Verizon Center', '12', 'TOR', 'Toronto', 'Maple Leafs', '0', '0', '0', '1', '0', '0', '0', '1', '38', '31', '55.1', '4', '1', '25.0', '4', '2', '50.0', '0', '0', '4', '4', '24', '5', '13', '19']"
"['', '11434', '2010-11-06', '23:00:00 GMT', '15', 'BUF', 'Buffalo', 'Sabres', '12', 'TOR', 'Toronto', 'Maple Leafs', '1', 'Air Canada Center', '12', 'TOR', 'Toronto', 'Maple Leafs', '0', '0', '0', '1', '0', '0', '0', '1', '32', '27', '54.2', '2', '0', '0.0', '3', '0', '100.0', '0', '0', '2', '2', '23', '4', '11', '29']"
"['', '11450', '2010-11-09', '00:30:00 GMT', '12', 'TOR', 'Toronto', 'Maple Leafs', '1', 'TBL', 'Tampa Bay', 'Lightning', '26', 'St. Pete Times Forum', '12', 'TOR', 'Toronto', 'Maple Leafs', '0', '1', '0', '0', '0', '0', '0', '0', '24', '20', '54.5', '4', '0', '0.0', '2', '1', '50.0', '0', '0', '0', '4', '28', '3', '9', '19']"
"['', '11456', '2010-11-10', '00:30:00 GMT', '12', 'TOR', 'Toronto', 'Maple Leafs', '4', 'FLO', 'Florida', 'Panthers', '3', 'BankAtlantic Center', '12', 'TOR', 'Toronto', 'Maple Leafs', '0', '1', '0', '0', '0', '0', '0', '0', '28', '28', '50.0', '5', '0', '0.0', '5', '2', '60.0', '0', '0', '1', '4', '32', '5', '10', '31']"
"['', '11480', '2010-11-13', '00:00:00 GMT', '21', 'VAN', 'Vancouver', 'Canucks', '12', 'TOR', 'Toronto', 'Maple Leafs', '1', 'Air Canada Center', '12', 'TOR', 'Toronto', 'Maple Leafs', '0', '1', '0', '0', '0', '0', '0', '0', '34', '35', '49.3', '3', '1', '33.3', '3', '2', '33.3', '0', '0', '3', '5', '29', '5', '13', '15']"
"['', '11496', '2010-11-16', '00:00:00 GMT', '18', 'NSH', 'Nashville', 'Predators', '12', 'TOR', 'Toronto', 'Maple Leafs', '1', 'Air Canada Center', '12', 'TOR', 'Toronto', 'Maple Leafs', '1', '0', '0', '0', '0', '0', '1', '2', '31', '26', '54.4', '8', '4', '50.0', '2', '0', '100.0', '0', '1', '5', '4', '28', '2', '4', '18']"
"['', '11513', '2010-11-18', '00:00:00 GMT', '7', 'NJD', 'New Jersey', 'Devils', '12', 'TOR', 'Toronto', 'Maple Leafs', '1', 'Air Canada Center', '12', 'TOR', 'Toronto', 'Maple Leafs', '1', '0', '0', '0', '0', '0', '1', '2', '22', '23', '48.9', '3', '2', '66.7', '2', '0', '100.0', '0', '0', '3', '1', '24', '2', '4', '14']"
"['', '11528', '2010-11-20', '00:00:00 GMT', '12', 'TOR', 'Toronto', 'Maple Leafs', '14', 'MTL', 'Montreal', 'Canadiens', '4', 'Bell Centre', '12', 'TOR', 'Toronto', 'Maple Leafs', '0', '1', '0', '0', '0', '0', '0', '0', '18', '35', '34.0', '3', '0', '0.0', '1', '1', '0.0', '0', '1', '0', '2', '30', '1', '2', '22']"
"['', '11543', '2010-11-22', '00:00:00 GMT', '27', 'DAL', 'Dallas', 'Stars', '12', 'TOR', 'Toronto', 'Maple Leafs', '1', 'Air Canada Center', '12', 'TOR', 'Toronto', 'Maple Leafs', '1', '0', '0', '0', '0', '0', '1', '2', '33', '28', '54.1', '1', '0', '0.0', '2', '0', '100.0', '0', '0', '4', '1', '22', '3', '9', '21']"
"['', '11571', '2010-11-26', '00:30:00 GMT', '12', 'TOR', 'Toronto', 'Maple Leafs', '15', 'BUF', 'Buffalo', 'Sabres', '10', 'HSBC Arena', '12', 'TOR', 'Toronto', 'Maple Leafs', '0', '1', '0', '0', '0', '0', '0', '0', '27', '22', '55.1', '6', '0', '0.0', '3', '2', '33.3', '1', '1', '1', '3', '35', '6', '15', '15']"
"['', '11579', '2010-11-27', '00:00:00 GMT', '12', 'TOR', 'Toronto', 'Maple Leafs', '13', 'OTT', 'Ottawa', 'Senators', '23', 'Scotiabank Place', '12', 'TOR', 'Toronto', 'Maple Leafs', '0', '1', '0', '0', '0', '0', '0', '0', '18', '23', '43.9', '3', '0', '0.0', '1', '1', '0.0', '0', '0', '0', '3', '29', '1', '2', '18']"
"['', '11595', '2010-11-30', '00:00:00 GMT', '1', 'TBL', 'Tampa Bay', 'Lightning', '12', 'TOR', 'Toronto', 'Maple Leafs', '1', 'Air Canada Center', '12', 'TOR', 'Toronto', 'Maple Leafs', '0', '0', '0', '1', '0', '0', '0', '1', '25', '37', '40.3', '4', '1', '25.0', '5', '1', '80.0', '0', '0', '3', '4', '22', '5', '10', '21']"
"['', '11611', '2010-12-02', '00:00:00 GMT', '24', 'EDM', 'Edmonton', 'Oilers', '12', 'TOR', 'Toronto', 'Maple Leafs', '1', 'Air Canada Center', '12', 'TOR', 'Toronto', 'Maple Leafs', '0', '1', '0', '0', '0', '0', '0', '0', '30', '19', '61.2', '5', '0', '0.0', '3', '0', '100.0', '0', '0', '0', '5', '33', '5', '13', '22']"
"['', '11624', '2010-12-04', '00:00:00 GMT', '11', 'BOS', 'Boston', 'Bruins', '12', 'TOR', 'Toronto', 'Maple Leafs', '1', 'Air Canada Center', '12', 'TOR', 'Toronto', 'Maple Leafs', '1', '0', '0', '0', '0', '0', '0', '2', '27', '27', '50.0', '4', '1', '25.0', '2', '0', '100.0', '0', '0', '2', '2', '38', '4', '11', '26']"
"['', '11640', '2010-12-06', '00:00:00 GMT', '12', 'TOR', 'Toronto', 'Maple Leafs', '5', 'WSH', 'Washington', 'Capitals', '13', 'Verizon Center', '12', 'TOR', 'Toronto', 'Maple Leafs', '1', '0', '0', '0', '0', '0', '0', '2', '25', '33', '43.1', '4', '1', '25.0', '2', '1', '50.0', '0', '0', '4', '4', '24', '4', '11', '26']"
"['', '11650', '2010-12-08', '00:00:00 GMT', '12', 'TOR', 'Toronto', 'Maple Leafs', '10', 'PIT', 'Pittsburgh', 'Penguins', '14', 'Civic Arena', '12', 'TOR', 'Toronto', 'Maple Leafs', '0', '1', '0', '0', '0', '0', '0', '0', '20', '44', '31.2', '4', '1', '25.0', '3', '0', '100.0', '0', '1', '2', '5', '23', '10', '32', '31']"
"['', '11655', '2010-12-09', '00:00:00 GMT', '6', 'PHI', 'Philadelphia', 'Flyers', '12', 'TOR', 'Toronto', 'Maple Leafs', '1', 'Air Canada Center', '12', 'TOR', 'Toronto', 'Maple Leafs', '0', '1', '0', '0', '0', '0', '0', '0', '20', '43', '31.7', '3', '0', '0.0', '4', '1', '75.0', '0', '0', '1', '4', '31', '4', '8', '17']"
"['', '11671', '2010-12-11', '00:00:00 GMT', '14', 'MTL', 'Montreal', 'Canadiens', '12', 'TOR', 'Toronto', 'Maple Leafs', '1', 'Air Canada Center', '12', 'TOR', 'Toronto', 'Maple Leafs', '1', '0', '0', '0', '0', '0', '1', '2', '35', '30', '53.8', '3', '0', '0.0', '1', '0', '100.0', '0', '0', '3', '1', '21', '3', '6', '29']"
"['', '11690', '2010-12-14', '02:00:00 GMT', '12', 'TOR', 'Toronto', 'Maple Leafs', '24', 'EDM', 'Edmonton', 'Oilers', '22', 'Rogers Place', '12', 'TOR', 'Toronto', 'Maple Leafs', '1', '0', '0', '0', '0', '0', '1', '2', '27', '24', '52.9', '5', '2', '40.0', '4', '0', '100.0', '0', '0', '4', '1', '30', '6', '23', '18']"
"['', '11709', '2010-12-16', '02:00:00 GMT', '12', 'TOR', 'Toronto', 'Maple Leafs', '23', 'CGY', 'Calgary', 'Flames', '18', 'Scotiabank Saddledome', '12', 'TOR', 'Toronto', 'Maple Leafs', '0', '1', '0', '0', '0', '0', '0', '0', '16', '23', '41.0', '1', '0', '0.0', '3', '2', '33.3', '0', '0', '2', '5', '17', '5', '18', '21']"
"['', '11725', '2010-12-18', '00:00:00 GMT', '12', 'TOR', 'Toronto', 'Maple Leafs', '21', 'VAN', 'Vancouver', 'Canucks', '7', 'Canada Hockey Place', '12', 'TOR', 'Toronto', 'Maple Leafs', '0', '1', '0', '0', '0', '0', '0', '0', '22', '41', '34.9', '3', '0', '0.0', '4', '0', '100.0', '0', '0', '1', '4', '27', '6', '12', '33']"
"['', '11733', '2010-12-20', '00:00:00 GMT', '2', 'ATL', 'Atlanta', 'Thrashers', '12', 'TOR', 'Toronto', 'Maple Leafs', '1', 'Air Canada Center', '12', 'TOR', 'Toronto', 'Maple Leafs', '0', '1', '0', '0', '0', '0', '0', '0', '27', '29', '48.2', '5', '3', '60.0', '1', '1', '0.0', '0', '0', '3', '6', '37', '1', '2', '22']"
"['', '11763', '2010-12-26', '00:00:00 GMT', '12', 'TOR', 'Toronto', 'Maple Leafs', '7', 'NJD', 'New Jersey', 'Devils', '37', 'Prudential Center', '12', 'TOR', 'Toronto', 'Maple Leafs', '1', '0', '0', '0', '0', '0', '1', '2', '17', '28', '37.8', '4', '0', '0.0', '5', '1', '80.0', '0', '0', '4', '1', '18', '6', '15', '9']"
"['', '11779', '2010-12-28', '00:00:00 GMT', '3', 'CAR', 'Carolina', 'Hurricanes', '12', 'TOR', 'Toronto', 'Maple Leafs', '1', 'Air Canada Center', '12', 'TOR', 'Toronto', 'Maple Leafs', '0', '1', '0', '0', '0', '0', '0', '0', '30', '27', '52.6', '8', '2', '25.0', '4', '1', '75.0', '0', '0', '3', '4', '34', '5', '10', '19']"
"['', '11793', '2010-12-30', '00:00:00 GMT', '19', 'CBJ', 'Columbus', 'Blue Jackets', '12', 'TOR', 'Toronto', 'Maple Leafs', '1', 'Air Canada Center', '12', 'TOR', 'Toronto', 'Maple Leafs', '0', '1', '0', '0', '0', '0', '0', '0', '28', '29', '49.1', '1', '1', '100.0', '2', '1', '50.0', '0', '0', '2', '3', '20', '2', '4', '32']"
"['', '11811', '2011-01-01', '00:00:00 GMT', '12', 'TOR', 'Toronto', 'Maple Leafs', '13', 'OTT', 'Ottawa', 'Senators', '23', 'Scotiabank Place', '12', 'TOR', 'Toronto', 'Maple Leafs', '1', '0', '0', '0', '0', '0', '1', '2', '35', '27', '56.5', '4', '0', '0.0', '5', '1', '80.0', '0', '0', '5', '1', '16', '11', '36', '31']"
"['', '11824', '2011-01-03', '00:00:00 GMT', '11', 'BOS', 'Boston', 'Bruins', '12', 'TOR', 'Toronto', 'Maple Leafs', '1', 'Air Canada Center', '12', 'TOR', 'Toronto', 'Maple Leafs', '0', '1', '0', '0', '0', '0', '0', '0', '37', '26', '58.7', '1', '0', '0.0', '1', '0', '100.0', '0', '0', '1', '2', '36', '2', '4', '24']"
"['', '11841', '2011-01-06', '00:00:00 GMT', '17', 'STL', 'St. Louis', 'Blues', '12', 'TOR', 'Toronto', 'Maple Leafs', '1', 'Air Canada Center', '12', 'TOR', 'Toronto', 'Maple Leafs', '1', '0', '0', '0', '0', '0', '0', '2', '31', '29', '51.7', '2', '0', '0.0', '1', '0', '100.0', '0', '0', '5', '5', '26', '1', '2', '25']"
"['', '11848', '2011-01-07', '00:30:00 GMT', '12', 'TOR', 'Toronto', 'Maple Leafs', '2', 'ATL', 'Atlanta', 'Thrashers', '20', 'Philips Arena', '12', 'TOR', 'Toronto', 'Maple Leafs', '1', '0', '0', '0', '0', '0', '1', '2', '32', '27', '54.2', '1', '1', '100.0', '4', '0', '100.0', '0', '0', '9', '3', '25', '6', '15', '19']"
"['', '11873', '2011-01-10', '03:30:00 GMT', '12', 'TOR', 'Toronto', 'Maple Leafs', '28', 'LAK', 'Los Angeles', 'Kings', '25', 'Staples Center', '12', 'TOR', 'Toronto', 'Maple Leafs', '1', '0', '0', '0', '0', '0', '1', '2', '27', '29', '48.2', '1', '0', '0.0', '3', '0', '100.0', '0', '0', '3', '2', '25', '5', '13', '45']"
"['', '11883', '2011-01-11', '03:30:00 GMT', '12', 'TOR', 'Toronto', 'Maple Leafs', '26', 'SJS', 'San Jose', 'Sharks', '9', 'HP Pavilion at San Jose', '12', 'TOR', 'Toronto', 'Maple Leafs', '1', '0', '0', '0', '0', '0', '1', '2', '33', '30', '52.4', '2', '1', '50.0', '4', '0', '100.0', '0', '0', '4', '2', '22', '4', '8', '21']"
"['', '11893', '2011-01-13', '02:00:00 GMT', '12', 'TOR', 'Toronto', 'Maple Leafs', '30', 'PHX', 'Phoenix', 'Coyotes', '6', 'Jobing.com Arena', '12', 'TOR', 'Toronto', 'Maple Leafs', '0', '1', '0', '0', '0', '0', '0', '0', '25', '34', '42.4', '5', '0', '0.0', '3', '2', '33.3', '0', '0', '1', '5', '28', '8', '16', '24']"
"['', '11907', '2011-01-15', '00:00:00 GMT', '23', 'CGY', 'Calgary', 'Flames', '12', 'TOR', 'Toronto', 'Maple Leafs', '1', 'Air Canada Center', '12', 'TOR', 'Toronto', 'Maple Leafs', '0', '0', '0', '1', '0', '0', '0', '1', '36', '28', '56.2', '3', '1', '33.3', '3', '0', '100.0', '0', '0', '1', '1', '32', '3', '6', '31']"
"['', '11935', '2011-01-19', '00:00:00 GMT', '12', 'TOR', 'Toronto', 'Maple Leafs', '9', 'NYR', 'New York', 'Rangers', '12', 'Madison Square Garden', '12', 'TOR', 'Toronto', 'Maple Leafs', '0', '1', '0', '0', '0', '0', '0', '0', '23', '27', '46.0', '3', '0', '0.0', '4', '2', '50.0', '0', '0', '0', '7', '22', '9', '43', '39']"
"['', '11943', '2011-01-20', '00:00:00 GMT', '29', 'ANA', 'Anaheim', 'Ducks', '12', 'TOR', 'Toronto', 'Maple Leafs', '1', 'Air Canada Center', '12', 'TOR', 'Toronto', 'Maple Leafs', '1', '0', '0', '0', '0', '0', '1', '2', '30', '19', '61.2', '2', '0', '0.0', '2', '0', '100.0', '0', '0', '5', '2', '32', '3', '9', '31']"
"['', '11959', '2011-01-22', '00:00:00 GMT', '5', 'WSH', 'Washington', 'Capitals', '12', 'TOR', 'Toronto', 'Maple Leafs', '1', 'Air Canada Center', '12', 'TOR', 'Toronto', 'Maple Leafs', '0', '1', '0', '0', '0', '0', '0', '0', '32', '26', '55.2', '3', '0', '0.0', '2', '0', '100.0', '0', '0', '1', '4', '35', '3', '9', '27']"
"['', '11970', '2011-01-24', '00:00:00 GMT', '12', 'TOR', 'Toronto', 'Maple Leafs', '3', 'CAR', 'Carolina', 'Hurricanes', '21', 'RBC Center', '12', 'TOR', 'Toronto', 'Maple Leafs', '0', '1', '0', '0', '0', '0', '0', '0', '30', '26', '53.6', '5', '1', '20.0', '8', '2', '75.0', '1', '0', '4', '6', '26', '11', '25', '11']"
"['', '11981', '2011-01-25', '00:30:00 GMT', '12', 'TOR', 'Toronto', 'Maple Leafs', '1', 'TBL', 'Tampa Bay', 'Lightning', '26', 'St. Pete Times Forum', '12', 'TOR', 'Toronto', 'Maple Leafs', '0', '1', '0', '0', '0', '0', '0', '0', '32', '32', '50.0', '1', '0', '0.0', '5', '1', '80.0', '0', '0', '0', '2', '26', '7', '17', '20']"
"['', '11996', '2011-02-01', '00:00:00 GMT', '4', 'FLO', 'Florida', 'Panthers', '12', 'TOR', 'Toronto', 'Maple Leafs', '1', 'Air Canada Center', '12', 'TOR', 'Toronto', 'Maple Leafs', '1', '0', '0', '0', '0', '0', '0', '2', '26', '29', '47.3', '4', '1', '25.0', '4', '2', '50.0', '0', '0', '3', '3', '22', '4', '8', '31']"
"['', '12015', '2011-02-03', '00:00:00 GMT', '3', 'CAR', 'Carolina', 'Hurricanes', '12', 'TOR', 'Toronto', 'Maple Leafs', '1', 'Air Canada Center', '12', 'TOR', 'Toronto', 'Maple Leafs', '1', '0', '0', '0', '0', '0', '1', '2', '32', '25', '56.1', '3', '0', '0.0', '3', '0', '100.0', '0', '0', '3', '0', '38', '5', '13', '16']"
"['', '12027', '2011-02-05', '00:00:00 GMT', '12', 'TOR', 'Toronto', 'Maple Leafs', '15', 'BUF', 'Buffalo', 'Sabres', '10', 'HSBC Arena', '12', 'TOR', 'Toronto', 'Maple Leafs', '0', '1', '0', '0', '0', '0', '0', '0', '37', '30', '55.2', '3', '0', '0.0', '4', '2', '50.0', '1', '0', '2', '6', '23', '6', '15', '19']"
"['', '12039', '2011-02-07', '00:00:00 GMT', '2', 'ATL', 'Atlanta', 'Thrashers', '12', 'TOR', 'Toronto', 'Maple Leafs', '1', 'Air Canada Center', '12', 'TOR', 'Toronto', 'Maple Leafs', '1', '0', '0', '0', '0', '0', '1', '2', '34', '28', '54.8', '4', '1', '25.0', '7', '2', '71.4', '0', '0', '5', '4', '27', '7', '14', '26']"
"['', '12045', '2011-02-08', '00:00:00 GMT', '12', 'TOR', 'Toronto', 'Maple Leafs', '8', 'NYI', 'New York', 'Islanders', '16', 'Nassau Veterans Memorial Coliseum', '12', 'TOR', 'Toronto', 'Maple Leafs', '1', '0', '0', '0', '0', '0', '1', '2', '28', '21', '57.1', '4', '0', '0.0', '4', '1', '75.0', '0', '0', '5', '3', '21', '4', '8', '26']"
"['', '12060', '2011-02-10', '00:00:00 GMT', '7', 'NJD', 'New Jersey', 'Devils', '12', 'TOR', 'Toronto', 'Maple Leafs', '1', 'Air Canada Center', '12', 'TOR', 'Toronto', 'Maple Leafs', '0', '0', '0', '1', '0', '0', '0', '1', '31', '33', '48.4', '4', '0', '0.0', '4', '0', '100.0', '0', '0', '1', '2', '31', '6', '15', '22']"
"['', '12073', '2011-02-12', '00:00:00 GMT', '12', 'TOR', 'Toronto', 'Maple Leafs', '14', 'MTL', 'Montreal', 'Canadiens', '4', 'Bell Centre', '12', 'TOR', 'Toronto', 'Maple Leafs', '0', '1', '0', '0', '0', '0', '0', '0', '32', '32', '50.0', '5', '0', '0.0', '5', '1', '80.0', '0', '0', '0', '3', '27', '7', '17', '16']"
"['', '12089', '2011-02-15', '00:00:00 GMT', '12', 'TOR', 'Toronto', 'Maple Leafs', '11', 'BOS', 'Boston', 'Bruins', '27', 'TD Garden', '12', 'TOR', 'Toronto', 'Maple Leafs', '1', '0', '0', '0', '0', '0', '1', '2', '28', '31', '47.5', '3', '2', '66.7', '3', '1', '66.7', '0', '0', '4', '3', '24', '4', '8', '25']"
"['', '12096', '2011-02-16', '00:00:00 GMT', '12', 'TOR', 'Toronto', 'Maple Leafs', '15', 'BUF', 'Buffalo', 'Sabres', '10', 'HSBC Arena', '12', 'TOR', 'Toronto', 'Maple Leafs', '1', '0', '0', '0', '0', '0', '1', '2', '30', '20', '60.0', '3', '0', '0.0', '4', '0', '100.0', '1', '0', '2', '1', '28', '5', '10', '20']"
"['', '12121', '2011-02-19', '00:00:00 GMT', '13', 'OTT', 'Ottawa', 'Senators', '12', 'TOR', 'Toronto', 'Maple Leafs', '1', 'Air Canada Center', '12', 'TOR', 'Toronto', 'Maple Leafs', '0', '0', '0', '1', '0', '0', '0', '1', '36', '38', '48.6', '6', '0', '0.0', '2', '0', '100.0', '0', '0', '0', '0', '47', '5', '21', '36']"
"['', '12137', '2011-02-22', '00:00:00 GMT', '8', 'NYI', 'New York', 'Islanders', '12', 'TOR', 'Toronto', 'Maple Leafs', '1', 'Air Canada Center', '12', 'TOR', 'Toronto', 'Maple Leafs', '1', '0', '0', '0', '0', '0', '1', '2', '34', '21', '61.8', '4', '0', '0.0', '5', '1', '80.0', '0', '0', '2', '1', '23', '9', '34', '28']"
"['', '12151', '2011-02-24', '00:30:00 GMT', '12', 'TOR', 'Toronto', 'Maple Leafs', '14', 'MTL', 'Montreal', 'Canadiens', '4', 'Bell Centre', '12', 'TOR', 'Toronto', 'Maple Leafs', '1', '0', '0', '0', '0', '0', '1', '2', '27', '38', '41.5', '5', '3', '60.0', '6', '2', '66.7', '0', '0', '5', '4', '23', '7', '14', '24']"
"['', '12170', '2011-02-26', '00:00:00 GMT', '10', 'PIT', 'Pittsburgh', 'Penguins', '12', 'TOR', 'Toronto', 'Maple Leafs', '1', 'Air Canada Center', '12', 'TOR', 'Toronto', 'Maple Leafs', '0', '0', '0', '1', '0', '0', '0', '1', '36', '31', '53.7', '6', '2', '33.3', '2', '1', '50.0', '0', '1', '5', '5', '26', '4', '11', '35']"
"['', '12175', '2011-02-27', '22:00:00 GMT', '12', 'TOR', 'Toronto', 'Maple Leafs', '2', 'ATL', 'Atlanta', 'Thrashers', '20', 'Philips Arena', '12', 'TOR', 'Toronto', 'Maple Leafs', '0', '0', '0', '1', '0', '0', '0', '1', '28', '25', '52.8', '4', '0', '0.0', '4', '1', '75.0', '0', '0', '2', '3', '22', '4', '8', '19']"
"['', '12194', '2011-03-02', '00:00:00 GMT', '10', 'PIT', 'Pittsburgh', 'Penguins', '12', 'TOR', 'Toronto', 'Maple Leafs', '1', 'Air Canada Center', '12', 'TOR', 'Toronto', 'Maple Leafs', '1', '0', '0', '0', '0', '0', '1', '2', '33', '26', '55.9', '4', '0', '0.0', '2', '0', '100.0', '0', '0', '3', '2', '17', '3', '6', '30']"
"['', '12200', '2011-03-03', '00:00:00 GMT', '12', 'TOR', 'Toronto', 'Maple Leafs', '6', 'PHI', 'Philadelphia', 'Flyers', '29', 'Wells Fargo Center', '12', 'TOR', 'Toronto', 'Maple Leafs', '1', '0', '0', '0', '0', '0', '1', '2', '34', '31', '52.3', '7', '0', '0.0', '3', '0', '100.0', '0', '0', '3', '2', '30', '4', '11', '23']"
"['', '12217', '2011-03-05', '00:00:00 GMT', '20', 'CHI', 'Chicago', 'Blackhawks', '12', 'TOR', 'Toronto', 'Maple Leafs', '1', 'Air Canada Center', '12', 'TOR', 'Toronto', 'Maple Leafs', '0', '1', '0', '0', '0', '0', '0', '0', '36', '29', '55.4', '5', '0', '0.0', '3', '0', '100.0', '0', '0', '3', '5', '29', '4', '8', '37']"
"['', '12232', '2011-03-08', '00:00:00 GMT', '12', 'TOR', 'Toronto', 'Maple Leafs', '8', 'NYI', 'New York', 'Islanders', '16', 'Nassau Veterans Memorial Coliseum', '12', 'TOR', 'Toronto', 'Maple Leafs', '0', '0', '0', '1', '0', '0', '0', '1', '29', '39', '42.6', '3', '0', '0.0', '1', '0', '100.0', '0', '0', '3', '4', '24', '2', '4', '20']"
"['', '12248', '2011-03-10', '00:00:00 GMT', '6', 'PHI', 'Philadelphia', 'Flyers', '12', 'TOR', 'Toronto', 'Maple Leafs', '1', 'Air Canada Center', '12', 'TOR', 'Toronto', 'Maple Leafs', '0', '1', '0', '0', '0', '0', '0', '0', '33', '28', '54.1', '3', '1', '33.3', '2', '1', '50.0', '0', '0', '2', '3', '27', '6', '23', '19']"
"['', '12266', '2011-03-12', '00:00:00 GMT', '15', 'BUF', 'Buffalo', 'Sabres', '12', 'TOR', 'Toronto', 'Maple Leafs', '1', 'Air Canada Center', '12', 'TOR', 'Toronto', 'Maple Leafs', '1', '0', '0', '0', '0', '0', '1', '2', '37', '18', '67.3', '2', '0', '0.0', '1', '1', '0.0', '0', '0', '4', '3', '25', '1', '2', '41']"
"['', '12277', '2011-03-14', '23:00:00 GMT', '1', 'TBL', 'Tampa Bay', 'Lightning', '12', 'TOR', 'Toronto', 'Maple Leafs', '1', 'Air Canada Center', '12', 'TOR', 'Toronto', 'Maple Leafs', '0', '1', '0', '0', '0', '0', '0', '0', '35', '35', '50.0', '3', '0', '0.0', '0', '0', '0.0', '0', '0', '2', '6', '30', '2', '4', '38']"
"['', '12291', '2011-03-16', '23:00:00 GMT', '12', 'TOR', 'Toronto', 'Maple Leafs', '3', 'CAR', 'Carolina', 'Hurricanes', '21', 'RBC Center', '12', 'TOR', 'Toronto', 'Maple Leafs', '1', '0', '0', '0', '0', '0', '1', '2', '28', '32', '46.7', '3', '2', '66.7', '5', '1', '80.0', '0', '0', '3', '1', '16', '5', '10', '20']"
"['', '12298', '2011-03-17', '23:30:00 GMT', '12', 'TOR', 'Toronto', 'Maple Leafs', '4', 'FLO', 'Florida', 'Panthers', '3', 'BankAtlantic Center', '12', 'TOR', 'Toronto', 'Maple Leafs', '0', '1', '0', '0', '0', '0', '0', '0', '18', '25', '41.9', '5', '0', '0.0', '2', '2', '0.0', '0', '0', '0', '4', '24', '4', '14', '34']"
"['', '12312', '2011-03-19', '23:00:00 GMT', '11', 'BOS', 'Boston', 'Bruins', '12', 'TOR', 'Toronto', 'Maple Leafs', '1', 'Air Canada Center', '12', 'TOR', 'Toronto', 'Maple Leafs', '1', '0', '0', '0', '0', '0', '1', '2', '31', '32', '49.2', '2', '0', '0.0', '2', '0', '100.0', '0', '0', '5', '2', '24', '3', '9', '24']"
"['', '12334', '2011-03-22', '00:00:00 GMT', '12', 'TOR', 'Toronto', 'Maple Leafs', '25', 'MIN', 'Minnesota', 'Wild', '30', 'Xcel Energy Center', '12', 'TOR', 'Toronto', 'Maple Leafs', '1', '0', '0', '0', '0', '0', '1', '2', '35', '31', '53.0', '5', '1', '20.0', '6', '0', '100.0', '0', '0', '3', '0', '14', '8', '16', '18']"
"['', '12347', '2011-03-24', '01:00:00 GMT', '12', 'TOR', 'Toronto', 'Maple Leafs', '22', 'COL', 'Colorado', 'Avalanche', '19', 'Pepsi Center', '12', 'TOR', 'Toronto', 'Maple Leafs', '1', '0', '0', '0', '0', '0', '1', '2', '23', '37', '38.3', '3', '1', '33.3', '2', '1', '50.0', '0', '1', '4', '3', '23', '3', '9', '17']"
"['', '12358', '2011-03-26', '23:00:00 GMT', '12', 'TOR', 'Toronto', 'Maple Leafs', '16', 'DET', 'Detroit', 'Red Wings', '11', 'Joe Louis Arena', '12', 'TOR', 'Toronto', 'Maple Leafs', '0', '1', '0', '0', '0', '0', '0', '0', '24', '38', '38.7', '4', '0', '0.0', '2', '2', '0.0', '0', '0', '2', '4', '22', '3', '9', '39']"
"['', '12375', '2011-03-29', '23:00:00 GMT', '15', 'BUF', 'Buffalo', 'Sabres', '12', 'TOR', 'Toronto', 'Maple Leafs', '1', 'Air Canada Center', '12', 'TOR', 'Toronto', 'Maple Leafs', '1', '0', '0', '0', '0', '0', '1', '2', '35', '27', '56.5', '5', '0', '0.0', '1', '0', '100.0', '0', '0', '4', '3', '31', '4', '8', '16']"
"['', '12389', '2011-03-31', '23:00:00 GMT', '12', 'TOR', 'Toronto', 'Maple Leafs', '11', 'BOS', 'Boston', 'Bruins', '27', 'TD Garden', '12', 'TOR', 'Toronto', 'Maple Leafs', '1', '0', '0', '0', '0', '0', '0', '2', '36', '29', '55.4', '5', '1', '20.0', '4', '0', '100.0', '0', '1', '3', '3', '27', '7', '17', '23']"
"['', '12409', '2011-04-02', '23:00:00 GMT', '12', 'TOR', 'Toronto', 'Maple Leafs', '13', 'OTT', 'Ottawa', 'Senators', '23', 'Scotiabank Place', '12', 'TOR', 'Toronto', 'Maple Leafs', '1', '0', '0', '0', '0', '0', '1', '2', '28', '31', '47.5', '3', '1', '33.3', '3', '1', '66.7', '0', '0', '4', '2', '26', '3', '6', '23']"
"['', '12425', '2011-04-05', '23:00:00 GMT', '5', 'WSH', 'Washington', 'Capitals', '12', 'TOR', 'Toronto', 'Maple Leafs', '1', 'Air Canada Center', '12', 'TOR', 'Toronto', 'Maple Leafs', '0', '0', '0', '1', '0', '0', '0', '1', '38', '36', '51.4', '2', '1', '50.0', '3', '1', '66.7', '0', '0', '2', '2', '19', '4', '11', '50']"
"['', '12434', '2011-04-06', '23:00:00 GMT', '12', 'TOR', 'Toronto', 'Maple Leafs', '7', 'NJD', 'New Jersey', 'Devils', '37', 'Prudential Center', '12', 'TOR', 'Toronto', 'Maple Leafs', '0', '1', '0', '0', '0', '0', '0', '0', '23', '24', '48.9', '1', '1', '100.0', '5', '1', '80.0', '1', '0', '2', '4', '22', '5', '10', '14']"
"['', '12458', '2011-04-09', '23:00:00 GMT', '14', 'MTL', 'Montreal', 'Canadiens', '12', 'TOR', 'Toronto', 'Maple Leafs', '1', 'Air Canada Center', '12', 'TOR', 'Toronto', 'Maple Leafs', '0', '1', '0', '0', '0', '0', '0', '0', '31', '24', '56.4', '4', '0', '0.0', '3', '2', '33.3', '0', '1', '1', '4', '27', '4', '11', '25']"
