"['#Date/Time of Update: 2018-12-10 19:03:14 GMT', '#Game ID', '#Game Date', '#Game Time', '#Away Team ID', '#Away Team Abbr.', '#Away Team City', '#Away Team Name', '#Home Team ID', '#Home Team Abbr.', '#Home Team City', '#Home Team Name', '#Venue ID', '#Venue Name', '#Team ID', '#Team Abbr.', '#Team City', '#Team Name', '#Wins', '#Losses', '#OvertimeWins', '#OvertimeLosses', '#ShootoutWins', '#ShootoutLosses', '#Rows', '#Points', '#FaceoffWins', '#FaceoffLosses', '#FaceoffPercent', '#Powerplays', '#PowerplayGoals', '#PowerplayPercent', '#PenaltyKills', '#PenaltyKillGoalsAllowed', '#PenaltyKillPercent', '#ShorthandedGoalsFor', '#ShorthandedGoalsAgainst', '#GoalsFor', '#GoalsAgainst', '#Shots', '#Penalties', '#PenaltyMinutes', '#Hits']"
"['', '27697', '2014-10-08', '02:00:00 GMT', '21', 'VAN', 'Vancouver', 'Canucks', '23', 'CGY', 'Calgary', 'Flames', '18', 'Scotiabank Saddledome', '21', 'VAN', 'Vancouver', 'Canucks', '1', '0', '0', '0', '0', '0', '1', '2', '27', '43', '38.6', '2', '1', '50.0', '4', '0', '100.0', '0', '0', '4', '2', '29', '6', '12', '16']"
"['', '27726', '2014-10-11', '02:00:00 GMT', '24', 'EDM', 'Edmonton', 'Oilers', '21', 'VAN', 'Vancouver', 'Canucks', '7', 'Rogers Arena', '21', 'VAN', 'Vancouver', 'Canucks', '1', '0', '0', '0', '0', '0', '0', '2', '41', '34', '54.7', '7', '2', '28.6', '3', '1', '66.7', '0', '1', '4', '4', '39', '4', '11', '30']"
"['', '27755', '2014-10-17', '01:30:00 GMT', '21', 'VAN', 'Vancouver', 'Canucks', '24', 'EDM', 'Edmonton', 'Oilers', '22', 'Rogers Place', '21', 'VAN', 'Vancouver', 'Canucks', '1', '0', '0', '0', '0', '0', '1', '2', '31', '37', '45.6', '2', '0', '0.0', '4', '0', '100.0', '0', '0', '2', '0', '28', '4', '8', '19']"
"['', '27767', '2014-10-18', '02:00:00 GMT', '1', 'TBL', 'Tampa Bay', 'Lightning', '21', 'VAN', 'Vancouver', 'Canucks', '7', 'Rogers Arena', '21', 'VAN', 'Vancouver', 'Canucks', '0', '1', '0', '0', '0', '0', '0', '0', '30', '35', '46.2', '5', '1', '20.0', '4', '1', '75.0', '0', '0', '2', '4', '30', '7', '14', '11']"
"['', '27780', '2014-10-21', '00:30:00 GMT', '21', 'VAN', 'Vancouver', 'Canucks', '27', 'DAL', 'Dallas', 'Stars', '2', 'American Airlines Center', '21', 'VAN', 'Vancouver', 'Canucks', '0', '1', '0', '0', '0', '0', '0', '0', '30', '40', '42.9', '4', '0', '0.0', '5', '1', '80.0', '0', '0', '3', '6', '43', '6', '12', '18']"
"['', '27790', '2014-10-23', '00:00:00 GMT', '21', 'VAN', 'Vancouver', 'Canucks', '17', 'STL', 'St. Louis', 'Blues', '24', 'Scottrade Center', '21', 'VAN', 'Vancouver', 'Canucks', '1', '0', '0', '0', '0', '0', '1', '2', '22', '31', '41.5', '2', '1', '50.0', '5', '1', '80.0', '0', '0', '4', '1', '19', '7', '14', '9']"
"['', '27797', '2014-10-24', '01:00:00 GMT', '21', 'VAN', 'Vancouver', 'Canucks', '22', 'COL', 'Colorado', 'Avalanche', '19', 'Pepsi Center', '21', 'VAN', 'Vancouver', 'Canucks', '0', '1', '0', '0', '0', '0', '0', '0', '29', '35', '45.3', '3', '0', '0.0', '4', '1', '75.0', '0', '0', '3', '7', '26', '8', '27', '21']"
"['', '27815', '2014-10-26', '02:00:00 GMT', '5', 'WSH', 'Washington', 'Capitals', '21', 'VAN', 'Vancouver', 'Canucks', '7', 'Rogers Arena', '21', 'VAN', 'Vancouver', 'Canucks', '1', '0', '0', '0', '0', '0', '1', '2', '31', '30', '50.8', '5', '2', '40.0', '0', '0', '0.0', '0', '0', '4', '2', '30', '2', '4', '20']"
"['', '27829', '2014-10-28', '02:00:00 GMT', '3', 'CAR', 'Carolina', 'Hurricanes', '21', 'VAN', 'Vancouver', 'Canucks', '7', 'Rogers Arena', '21', 'VAN', 'Vancouver', 'Canucks', '1', '0', '0', '0', '0', '0', '1', '2', '23', '29', '44.2', '3', '1', '33.3', '3', '0', '100.0', '0', '0', '4', '1', '21', '4', '11', '23']"
"['', '27841', '2014-10-30', '02:00:00 GMT', '14', 'MTL', 'Montreal', 'Canadiens', '21', 'VAN', 'Vancouver', 'Canucks', '7', 'Rogers Arena', '21', 'VAN', 'Vancouver', 'Canucks', '1', '0', '0', '0', '0', '0', '1', '2', '30', '38', '44.1', '2', '1', '50.0', '3', '0', '100.0', '0', '0', '3', '2', '27', '3', '6', '19']"
"['', '27857', '2014-11-01', '02:00:00 GMT', '21', 'VAN', 'Vancouver', 'Canucks', '24', 'EDM', 'Edmonton', 'Oilers', '22', 'Rogers Place', '21', 'VAN', 'Vancouver', 'Canucks', '1', '0', '0', '0', '0', '0', '1', '2', '25', '22', '53.2', '3', '0', '0.0', '3', '0', '100.0', '1', '0', '3', '2', '27', '3', '6', '28']"
"['', '27864', '2014-11-02', '03:00:00 GMT', '18', 'NSH', 'Nashville', 'Predators', '21', 'VAN', 'Vancouver', 'Canucks', '7', 'Rogers Arena', '21', 'VAN', 'Vancouver', 'Canucks', '0', '1', '0', '0', '0', '0', '0', '0', '34', '29', '54.0', '3', '1', '33.3', '3', '1', '66.7', '0', '0', '1', '3', '26', '5', '10', '17']"
"['', '27877', '2014-11-04', '02:00:00 GMT', '21', 'VAN', 'Vancouver', 'Canucks', '22', 'COL', 'Colorado', 'Avalanche', '19', 'Pepsi Center', '21', 'VAN', 'Vancouver', 'Canucks', '1', '0', '0', '0', '0', '0', '1', '2', '29', '29', '50.0', '4', '0', '0.0', '5', '0', '100.0', '0', '0', '5', '2', '32', '4', '10', '11']"
"['', '27890', '2014-11-06', '03:30:00 GMT', '21', 'VAN', 'Vancouver', 'Canucks', '26', 'SJS', 'San Jose', 'Sharks', '9', 'SAP Center at San Jose', '21', 'VAN', 'Vancouver', 'Canucks', '1', '0', '0', '0', '0', '0', '1', '2', '36', '37', '49.3', '0', '1', '0.0', '4', '1', '75.0', '0', '0', '3', '2', '16', '5', '13', '25']"
"['', '27907', '2014-11-08', '03:00:00 GMT', '21', 'VAN', 'Vancouver', 'Canucks', '28', 'LAK', 'Los Angeles', 'Kings', '25', 'Staples Center', '21', 'VAN', 'Vancouver', 'Canucks', '0', '1', '0', '0', '0', '0', '0', '0', '28', '29', '49.1', '4', '0', '0.0', '2', '0', '100.0', '0', '0', '1', '5', '18', '3', '6', '21']"
"['', '27911', '2014-11-09', '01:00:00 GMT', '21', 'VAN', 'Vancouver', 'Canucks', '29', 'ANA', 'Anaheim', 'Ducks', '8', 'Honda Center', '21', 'VAN', 'Vancouver', 'Canucks', '1', '0', '0', '0', '0', '0', '0', '2', '34', '35', '49.3', '2', '0', '0.0', '1', '1', '0.0', '0', '0', '1', '1', '34', '4', '14', '22']"
"['', '27924', '2014-11-11', '03:00:00 GMT', '13', 'OTT', 'Ottawa', 'Senators', '21', 'VAN', 'Vancouver', 'Canucks', '7', 'Rogers Arena', '21', 'VAN', 'Vancouver', 'Canucks', '1', '0', '0', '0', '0', '0', '1', '2', '31', '30', '50.8', '2', '0', '0.0', '1', '0', '100.0', '0', '0', '4', '3', '33', '1', '2', '18']"
"['', '27941', '2014-11-14', '03:00:00 GMT', '30', 'ARI', 'Arizona', 'Coyotes', '21', 'VAN', 'Vancouver', 'Canucks', '7', 'Rogers Arena', '21', 'VAN', 'Vancouver', 'Canucks', '0', '1', '0', '0', '0', '0', '0', '0', '31', '37', '45.6', '3', '0', '0.0', '3', '1', '66.7', '0', '0', '0', '5', '35', '6', '15', '24']"
"['', '27973', '2014-11-19', '01:00:00 GMT', '21', 'VAN', 'Vancouver', 'Canucks', '24', 'EDM', 'Edmonton', 'Oilers', '22', 'Rogers Place', '21', 'VAN', 'Vancouver', 'Canucks', '1', '0', '0', '0', '0', '0', '1', '2', '37', '24', '60.7', '5', '2', '40.0', '5', '1', '80.0', '1', '0', '5', '4', '26', '7', '20', '17']"
"['', '27982', '2014-11-20', '03:00:00 GMT', '29', 'ANA', 'Anaheim', 'Ducks', '21', 'VAN', 'Vancouver', 'Canucks', '7', 'Rogers Arena', '21', 'VAN', 'Vancouver', 'Canucks', '0', '0', '0', '1', '0', '0', '0', '1', '36', '31', '53.7', '1', '0', '0.0', '3', '0', '100.0', '0', '0', '3', '3', '25', '3', '6', '21']"
"['', '28005', '2014-11-23', '03:00:00 GMT', '20', 'CHI', 'Chicago', 'Blackhawks', '21', 'VAN', 'Vancouver', 'Canucks', '7', 'Rogers Arena', '21', 'VAN', 'Vancouver', 'Canucks', '1', '0', '0', '0', '0', '0', '1', '2', '36', '27', '57.1', '2', '1', '50.0', '4', '1', '75.0', '0', '0', '4', '1', '26', '4', '8', '12']"
"['', '28015', '2014-11-25', '03:00:00 GMT', '7', 'NJD', 'New Jersey', 'Devils', '21', 'VAN', 'Vancouver', 'Canucks', '7', 'Rogers Arena', '21', 'VAN', 'Vancouver', 'Canucks', '1', '0', '0', '0', '0', '0', '1', '2', '27', '24', '52.9', '2', '0', '0.0', '0', '0', '0.0', '0', '0', '2', '0', '34', '1', '5', '20']"
"['', '28034', '2014-11-28', '00:00:00 GMT', '21', 'VAN', 'Vancouver', 'Canucks', '19', 'CBJ', 'Columbus', 'Blue Jackets', '17', 'Nationwide Arena', '21', 'VAN', 'Vancouver', 'Canucks', '1', '0', '0', '0', '0', '0', '1', '2', '31', '35', '47.0', '2', '0', '0.0', '2', '0', '100.0', '0', '0', '5', '0', '25', '3', '6', '21']"
"['', '28050', '2014-11-30', '19:00:00 GMT', '21', 'VAN', 'Vancouver', 'Canucks', '16', 'DET', 'Detroit', 'Red Wings', '11', 'Joe Louis Arena', '21', 'VAN', 'Vancouver', 'Canucks', '0', '1', '0', '0', '0', '0', '0', '0', '28', '39', '41.8', '2', '1', '50.0', '3', '2', '33.3', '0', '0', '3', '5', '30', '5', '10', '30']"
"['', '28059', '2014-12-02', '00:00:00 GMT', '21', 'VAN', 'Vancouver', 'Canucks', '5', 'WSH', 'Washington', 'Capitals', '13', 'Verizon Center', '21', 'VAN', 'Vancouver', 'Canucks', '1', '0', '0', '0', '0', '0', '1', '2', '29', '32', '47.5', '4', '3', '75.0', '1', '0', '100.0', '0', '0', '4', '3', '28', '2', '4', '17']"
"['', '28070', '2014-12-04', '00:00:00 GMT', '21', 'VAN', 'Vancouver', 'Canucks', '10', 'PIT', 'Pittsburgh', 'Penguins', '40', 'Consol Energy Center', '21', 'VAN', 'Vancouver', 'Canucks', '1', '0', '0', '0', '0', '0', '1', '2', '29', '21', '58.0', '2', '0', '0.0', '3', '0', '100.0', '1', '0', '3', '0', '28', '4', '8', '22']"
"['', '28088', '2014-12-06', '00:00:00 GMT', '21', 'VAN', 'Vancouver', 'Canucks', '12', 'TOR', 'Toronto', 'Maple Leafs', '1', 'Air Canada Center', '21', 'VAN', 'Vancouver', 'Canucks', '0', '1', '0', '0', '0', '0', '0', '0', '29', '30', '49.2', '5', '0', '0.0', '3', '0', '100.0', '0', '0', '2', '5', '44', '4', '8', '29']"
"['', '28098', '2014-12-07', '00:00:00 GMT', '21', 'VAN', 'Vancouver', 'Canucks', '13', 'OTT', 'Ottawa', 'Senators', '23', 'Canadian Tire Centre', '21', 'VAN', 'Vancouver', 'Canucks', '0', '0', '0', '1', '0', '0', '0', '1', '33', '30', '52.4', '3', '0', '0.0', '5', '1', '80.0', '0', '0', '3', '4', '30', '9', '29', '25']"
"['', '28107', '2014-12-09', '00:30:00 GMT', '21', 'VAN', 'Vancouver', 'Canucks', '14', 'MTL', 'Montreal', 'Canadiens', '4', 'Bell Centre', '21', 'VAN', 'Vancouver', 'Canucks', '0', '1', '0', '0', '0', '0', '0', '0', '23', '28', '45.1', '2', '0', '0.0', '5', '0', '100.0', '1', '0', '1', '3', '15', '5', '10', '21']"
"['', '28139', '2014-12-13', '03:00:00 GMT', '9', 'NYR', 'New York', 'Rangers', '21', 'VAN', 'Vancouver', 'Canucks', '7', 'Rogers Arena', '21', 'VAN', 'Vancouver', 'Canucks', '0', '1', '0', '0', '0', '0', '0', '0', '31', '27', '53.4', '1', '0', '0.0', '0', '0', '0.0', '0', '0', '1', '5', '29', '1', '10', '16']"
"['', '28160', '2014-12-17', '03:00:00 GMT', '27', 'DAL', 'Dallas', 'Stars', '21', 'VAN', 'Vancouver', 'Canucks', '7', 'Rogers Arena', '21', 'VAN', 'Vancouver', 'Canucks', '0', '1', '0', '0', '0', '0', '0', '0', '25', '37', '40.3', '4', '0', '0.0', '2', '0', '100.0', '0', '0', '0', '2', '27', '4', '11', '15']"
"['', '28183', '2014-12-20', '03:00:00 GMT', '23', 'CGY', 'Calgary', 'Flames', '21', 'VAN', 'Vancouver', 'Canucks', '7', 'Rogers Arena', '21', 'VAN', 'Vancouver', 'Canucks', '1', '0', '0', '0', '0', '0', '1', '2', '29', '26', '52.7', '4', '1', '25.0', '3', '0', '100.0', '0', '0', '3', '2', '30', '4', '11', '8']"
"['', '28194', '2014-12-22', '03:00:00 GMT', '30', 'ARI', 'Arizona', 'Coyotes', '21', 'VAN', 'Vancouver', 'Canucks', '7', 'Rogers Arena', '21', 'VAN', 'Vancouver', 'Canucks', '1', '0', '0', '0', '0', '0', '1', '2', '24', '37', '39.3', '6', '3', '50.0', '4', '1', '75.0', '0', '0', '7', '1', '33', '7', '17', '17']"
"['', '28222', '2014-12-28', '01:00:00 GMT', '21', 'VAN', 'Vancouver', 'Canucks', '29', 'ANA', 'Anaheim', 'Ducks', '8', 'Honda Center', '21', 'VAN', 'Vancouver', 'Canucks', '0', '0', '0', '1', '0', '0', '0', '1', '23', '31', '42.6', '0', '0', '0.0', '4', '0', '100.0', '0', '0', '1', '2', '13', '5', '13', '14']"
"['', '28238', '2014-12-30', '03:00:00 GMT', '21', 'VAN', 'Vancouver', 'Canucks', '26', 'SJS', 'San Jose', 'Sharks', '9', 'SAP Center at San Jose', '21', 'VAN', 'Vancouver', 'Canucks', '1', '0', '0', '0', '0', '0', '1', '2', '25', '38', '39.7', '0', '0', '0.0', '4', '0', '100.0', '0', '0', '3', '1', '18', '4', '8', '21']"
"['', '28251', '2015-01-01', '03:00:00 GMT', '28', 'LAK', 'Los Angeles', 'Kings', '21', 'VAN', 'Vancouver', 'Canucks', '7', 'Rogers Arena', '21', 'VAN', 'Vancouver', 'Canucks', '0', '1', '0', '0', '0', '0', '0', '0', '33', '28', '54.1', '1', '1', '100.0', '4', '1', '75.0', '0', '0', '2', '3', '14', '4', '8', '18']"
"['', '28268', '2015-01-03', '03:00:00 GMT', '16', 'DET', 'Detroit', 'Red Wings', '21', 'VAN', 'Vancouver', 'Canucks', '7', 'Rogers Arena', '21', 'VAN', 'Vancouver', 'Canucks', '1', '0', '0', '0', '0', '0', '1', '2', '31', '30', '50.8', '4', '2', '50.0', '3', '0', '100.0', '0', '0', '4', '1', '20', '6', '12', '11']"
"['', '28287', '2015-01-06', '03:00:00 GMT', '8', 'NYI', 'New York', 'Islanders', '21', 'VAN', 'Vancouver', 'Canucks', '7', 'Rogers Arena', '21', 'VAN', 'Vancouver', 'Canucks', '1', '0', '0', '0', '0', '0', '1', '2', '20', '35', '36.4', '2', '0', '0.0', '3', '0', '100.0', '0', '0', '3', '2', '17', '3', '6', '11']"
"['', '28300', '2015-01-08', '03:00:00 GMT', '4', 'FLO', 'Florida', 'Panthers', '21', 'VAN', 'Vancouver', 'Canucks', '7', 'Rogers Arena', '21', 'VAN', 'Vancouver', 'Canucks', '0', '1', '0', '0', '0', '0', '0', '0', '23', '27', '46.0', '6', '0', '0.0', '2', '0', '100.0', '0', '0', '1', '3', '32', '5', '10', '10']"
"['', '28317', '2015-01-10', '03:00:00 GMT', '23', 'CGY', 'Calgary', 'Flames', '21', 'VAN', 'Vancouver', 'Canucks', '7', 'Rogers Arena', '21', 'VAN', 'Vancouver', 'Canucks', '0', '1', '0', '0', '0', '0', '0', '0', '38', '25', '60.3', '0', '0', '0.0', '2', '0', '100.0', '0', '0', '0', '1', '36', '5', '13', '10']"
"['', '28331', '2015-01-13', '01:00:00 GMT', '21', 'VAN', 'Vancouver', 'Canucks', '18', 'NSH', 'Nashville', 'Predators', '15', 'Bridgestone Arena', '21', 'VAN', 'Vancouver', 'Canucks', '0', '1', '0', '0', '0', '0', '0', '0', '27', '31', '46.6', '2', '0', '0.0', '6', '2', '66.7', '0', '0', '1', '5', '30', '6', '12', '14']"
"['', '28340', '2015-01-15', '00:00:00 GMT', '21', 'VAN', 'Vancouver', 'Canucks', '6', 'PHI', 'Philadelphia', 'Flyers', '29', 'Wells Fargo Center', '21', 'VAN', 'Vancouver', 'Canucks', '1', '0', '0', '0', '0', '0', '1', '2', '28', '29', '49.1', '4', '2', '50.0', '3', '0', '100.0', '0', '0', '4', '0', '18', '5', '13', '39']"
"['', '28350', '2015-01-16', '00:00:00 GMT', '21', 'VAN', 'Vancouver', 'Canucks', '3', 'CAR', 'Carolina', 'Hurricanes', '21', 'RBC Center', '21', 'VAN', 'Vancouver', 'Canucks', '1', '0', '0', '0', '0', '0', '1', '2', '20', '34', '37.0', '2', '0', '0.0', '3', '0', '100.0', '0', '0', '3', '0', '14', '3', '6', '30']"
"['', '28372', '2015-01-19', '00:30:00 GMT', '21', 'VAN', 'Vancouver', 'Canucks', '4', 'FLO', 'Florida', 'Panthers', '3', 'BB&T Center', '21', 'VAN', 'Vancouver', 'Canucks', '1', '0', '0', '0', '0', '0', '1', '2', '24', '39', '38.1', '3', '0', '0.0', '4', '0', '100.0', '0', '0', '2', '1', '21', '6', '12', '18']"
"['', '28382', '2015-01-20', '00:30:00 GMT', '21', 'VAN', 'Vancouver', 'Canucks', '1', 'TBL', 'Tampa Bay', 'Lightning', '26', 'Amalie Arena', '21', 'VAN', 'Vancouver', 'Canucks', '0', '1', '0', '0', '0', '0', '0', '0', '28', '30', '48.3', '7', '0', '0.0', '3', '0', '100.0', '0', '0', '1', '4', '27', '5', '10', '15']"
"['', '28401', '2015-01-27', '03:00:00 GMT', '29', 'ANA', 'Anaheim', 'Ducks', '21', 'VAN', 'Vancouver', 'Canucks', '7', 'Rogers Arena', '21', 'VAN', 'Vancouver', 'Canucks', '0', '1', '0', '0', '0', '0', '0', '0', '29', '30', '49.2', '3', '0', '0.0', '3', '1', '66.7', '0', '0', '0', '4', '17', '3', '6', '12']"
"['', '28419', '2015-01-30', '03:00:00 GMT', '15', 'BUF', 'Buffalo', 'Sabres', '21', 'VAN', 'Vancouver', 'Canucks', '7', 'Rogers Arena', '21', 'VAN', 'Vancouver', 'Canucks', '1', '0', '0', '0', '0', '0', '1', '2', '36', '24', '60.0', '3', '2', '66.7', '5', '2', '60.0', '0', '0', '5', '2', '33', '6', '12', '16']"
"['', '28435', '2015-02-01', '20:30:00 GMT', '25', 'MIN', 'Minnesota', 'Wild', '21', 'VAN', 'Vancouver', 'Canucks', '7', 'Rogers Arena', '21', 'VAN', 'Vancouver', 'Canucks', '0', '1', '0', '0', '0', '0', '0', '0', '33', '33', '50.0', '3', '0', '0.0', '2', '1', '50.0', '0', '0', '2', '4', '35', '4', '11', '16']"
"['', '28449', '2015-02-03', '03:00:00 GMT', '2', 'WPJ', 'Winnipeg', 'Jets', '21', 'VAN', 'Vancouver', 'Canucks', '7', 'Rogers Arena', '21', 'VAN', 'Vancouver', 'Canucks', '1', '0', '0', '0', '0', '0', '1', '2', '31', '32', '49.2', '6', '0', '0.0', '3', '1', '66.7', '0', '0', '3', '2', '30', '7', '25', '12']"
"['', '28461', '2015-02-05', '03:00:00 GMT', '26', 'SJS', 'San Jose', 'Sharks', '21', 'VAN', 'Vancouver', 'Canucks', '7', 'Rogers Arena', '21', 'VAN', 'Vancouver', 'Canucks', '0', '1', '0', '0', '0', '0', '0', '0', '32', '35', '47.8', '3', '0', '0.0', '3', '1', '66.7', '0', '0', '1', '5', '33', '4', '8', '16']"
"['', '28476', '2015-02-07', '03:00:00 GMT', '10', 'PIT', 'Pittsburgh', 'Penguins', '21', 'VAN', 'Vancouver', 'Canucks', '7', 'Rogers Arena', '21', 'VAN', 'Vancouver', 'Canucks', '1', '0', '0', '0', '0', '0', '1', '2', '36', '33', '52.2', '4', '2', '50.0', '3', '0', '100.0', '0', '0', '5', '0', '22', '9', '29', '15']"
"['', '28488', '2015-02-09', '01:00:00 GMT', '21', 'VAN', 'Vancouver', 'Canucks', '25', 'MIN', 'Minnesota', 'Wild', '30', 'Xcel Energy Center', '21', 'VAN', 'Vancouver', 'Canucks', '0', '1', '0', '0', '0', '0', '0', '0', '24', '40', '37.5', '1', '0', '0.0', '4', '2', '50.0', '0', '0', '3', '5', '22', '8', '19', '13']"
"['', '28501', '2015-02-11', '01:00:00 GMT', '21', 'VAN', 'Vancouver', 'Canucks', '20', 'CHI', 'Chicago', 'Blackhawks', '28', 'United Center', '21', 'VAN', 'Vancouver', 'Canucks', '1', '0', '0', '0', '0', '0', '1', '2', '30', '40', '42.9', '1', '0', '0.0', '4', '2', '50.0', '0', '0', '5', '4', '31', '4', '8', '22']"
"['', '28516', '2015-02-13', '03:00:00 GMT', '11', 'BOS', 'Boston', 'Bruins', '21', 'VAN', 'Vancouver', 'Canucks', '7', 'Rogers Arena', '21', 'VAN', 'Vancouver', 'Canucks', '1', '0', '0', '0', '0', '0', '1', '2', '19', '30', '38.8', '3', '0', '0.0', '3', '0', '100.0', '0', '0', '5', '2', '20', '3', '6', '19']"
"['', '28525', '2015-02-14', '03:00:00 GMT', '21', 'VAN', 'Vancouver', 'Canucks', '23', 'CGY', 'Calgary', 'Flames', '18', 'Scotiabank Saddledome', '21', 'VAN', 'Vancouver', 'Canucks', '0', '1', '0', '0', '0', '0', '0', '0', '25', '26', '49.0', '1', '0', '0.0', '2', '0', '100.0', '0', '0', '2', '3', '28', '4', '11', '8']"
"['', '28538', '2015-02-16', '03:00:00 GMT', '25', 'MIN', 'Minnesota', 'Wild', '21', 'VAN', 'Vancouver', 'Canucks', '7', 'Rogers Arena', '21', 'VAN', 'Vancouver', 'Canucks', '1', '0', '0', '0', '0', '0', '1', '2', '17', '24', '41.5', '1', '0', '0.0', '1', '0', '100.0', '0', '0', '3', '2', '26', '1', '2', '18']"
"['', '28555', '2015-02-19', '00:00:00 GMT', '21', 'VAN', 'Vancouver', 'Canucks', '9', 'NYR', 'New York', 'Rangers', '12', 'Madison Square Garden', '21', 'VAN', 'Vancouver', 'Canucks', '1', '0', '0', '0', '0', '0', '0', '2', '29', '32', '47.5', '1', '1', '100.0', '3', '0', '100.0', '0', '0', '4', '4', '24', '6', '15', '20']"
"['', '28562', '2015-02-20', '00:00:00 GMT', '21', 'VAN', 'Vancouver', 'Canucks', '7', 'NJD', 'New Jersey', 'Devils', '37', 'Prudential Center', '21', 'VAN', 'Vancouver', 'Canucks', '0', '1', '0', '0', '0', '0', '0', '0', '23', '32', '41.8', '3', '0', '0.0', '4', '1', '75.0', '0', '1', '2', '4', '21', '4', '8', '11']"
"['', '28583', '2015-02-22', '23:00:00 GMT', '21', 'VAN', 'Vancouver', 'Canucks', '8', 'NYI', 'New York', 'Islanders', '16', 'Nassau Veterans Memorial Coliseum', '21', 'VAN', 'Vancouver', 'Canucks', '1', '0', '0', '0', '0', '0', '1', '2', '25', '29', '46.3', '3', '2', '66.7', '5', '0', '100.0', '0', '0', '4', '0', '20', '5', '10', '38']"
"['', '28588', '2015-02-24', '00:00:00 GMT', '21', 'VAN', 'Vancouver', 'Canucks', '11', 'BOS', 'Boston', 'Bruins', '27', 'TD Garden', '21', 'VAN', 'Vancouver', 'Canucks', '1', '0', '0', '0', '0', '0', '1', '2', '27', '48', '36.0', '1', '0', '0.0', '4', '0', '100.0', '0', '0', '2', '1', '26', '5', '10', '28']"
"['', '28602', '2015-02-26', '00:00:00 GMT', '21', 'VAN', 'Vancouver', 'Canucks', '15', 'BUF', 'Buffalo', 'Sabres', '10', 'First Niagara Center', '21', 'VAN', 'Vancouver', 'Canucks', '0', '1', '0', '0', '0', '0', '0', '0', '35', '26', '57.4', '0', '0', '0.0', '1', '0', '100.0', '0', '0', '3', '6', '28', '1', '2', '12']"
"['', '28632', '2015-03-01', '03:00:00 GMT', '17', 'STL', 'St. Louis', 'Blues', '21', 'VAN', 'Vancouver', 'Canucks', '7', 'Rogers Arena', '21', 'VAN', 'Vancouver', 'Canucks', '1', '0', '0', '0', '0', '0', '0', '2', '27', '37', '42.2', '2', '0', '0.0', '4', '1', '75.0', '0', '0', '5', '5', '26', '7', '22', '41']"
"['', '28645', '2015-03-03', '03:00:00 GMT', '26', 'SJS', 'San Jose', 'Sharks', '21', 'VAN', 'Vancouver', 'Canucks', '7', 'Rogers Arena', '21', 'VAN', 'Vancouver', 'Canucks', '0', '1', '0', '0', '0', '0', '0', '0', '36', '19', '65.5', '5', '1', '20.0', '1', '0', '100.0', '0', '0', '2', '6', '26', '2', '7', '22']"
"['', '28656', '2015-03-05', '02:00:00 GMT', '21', 'VAN', 'Vancouver', 'Canucks', '30', 'ARI', 'Arizona', 'Coyotes', '6', 'Gila River Arena', '21', 'VAN', 'Vancouver', 'Canucks', '0', '0', '0', '1', '0', '0', '0', '1', '36', '33', '52.2', '4', '0', '0.0', '1', '0', '100.0', '0', '0', '2', '2', '32', '2', '7', '39']"
"['', '28673', '2015-03-07', '03:00:00 GMT', '21', 'VAN', 'Vancouver', 'Canucks', '26', 'SJS', 'San Jose', 'Sharks', '9', 'SAP Center at San Jose', '21', 'VAN', 'Vancouver', 'Canucks', '1', '0', '0', '0', '0', '0', '1', '2', '27', '39', '40.9', '5', '1', '20.0', '2', '1', '50.0', '0', '0', '3', '2', '31', '5', '13', '26']"
"['', '28683', '2015-03-09', '02:00:00 GMT', '29', 'ANA', 'Anaheim', 'Ducks', '21', 'VAN', 'Vancouver', 'Canucks', '7', 'Rogers Arena', '21', 'VAN', 'Vancouver', 'Canucks', '1', '0', '0', '0', '0', '0', '1', '2', '21', '29', '42.0', '1', '0', '0.0', '3', '0', '100.0', '0', '0', '2', '1', '14', '5', '10', '18']"
"['', '28705', '2015-03-12', '02:00:00 GMT', '28', 'LAK', 'Los Angeles', 'Kings', '21', 'VAN', 'Vancouver', 'Canucks', '7', 'Rogers Arena', '21', 'VAN', 'Vancouver', 'Canucks', '0', '1', '0', '0', '0', '0', '0', '0', '26', '29', '47.3', '2', '0', '0.0', '3', '1', '66.7', '0', '0', '0', '4', '19', '4', '11', '17']"
"['', '28716', '2015-03-14', '23:00:00 GMT', '12', 'TOR', 'Toronto', 'Maple Leafs', '21', 'VAN', 'Vancouver', 'Canucks', '7', 'Rogers Arena', '21', 'VAN', 'Vancouver', 'Canucks', '1', '0', '0', '0', '0', '0', '1', '2', '16', '37', '30.2', '3', '0', '0.0', '6', '0', '100.0', '0', '0', '4', '1', '31', '11', '36', '15']"
"['', '28743', '2015-03-17', '02:00:00 GMT', '6', 'PHI', 'Philadelphia', 'Flyers', '21', 'VAN', 'Vancouver', 'Canucks', '7', 'Rogers Arena', '21', 'VAN', 'Vancouver', 'Canucks', '1', '0', '0', '0', '0', '0', '1', '2', '25', '35', '41.7', '1', '0', '0.0', '2', '0', '100.0', '0', '0', '4', '1', '31', '4', '11', '22']"
"['', '28755', '2015-03-19', '02:00:00 GMT', '19', 'CBJ', 'Columbus', 'Blue Jackets', '21', 'VAN', 'Vancouver', 'Canucks', '7', 'Rogers Arena', '21', 'VAN', 'Vancouver', 'Canucks', '0', '1', '0', '0', '0', '0', '0', '0', '26', '35', '42.6', '2', '0', '0.0', '1', '1', '0.0', '0', '0', '2', '6', '38', '2', '7', '7']"
"['', '28762', '2015-03-21', '20:00:00 GMT', '21', 'VAN', 'Vancouver', 'Canucks', '28', 'LAK', 'Los Angeles', 'Kings', '25', 'Staples Center', '21', 'VAN', 'Vancouver', 'Canucks', '1', '0', '0', '0', '0', '0', '1', '2', '25', '27', '48.1', '3', '1', '33.3', '3', '1', '66.7', '1', '0', '4', '1', '38', '4', '8', '32']"
"['', '28776', '2015-03-22', '00:00:00 GMT', '21', 'VAN', 'Vancouver', 'Canucks', '30', 'ARI', 'Arizona', 'Coyotes', '6', 'Gila River Arena', '21', 'VAN', 'Vancouver', 'Canucks', '1', '0', '0', '0', '0', '0', '1', '2', '26', '38', '40.6', '2', '1', '50.0', '1', '0', '100.0', '0', '0', '3', '1', '41', '1', '2', '26']"
"['', '28791', '2015-03-24', '02:00:00 GMT', '2', 'WPJ', 'Winnipeg', 'Jets', '21', 'VAN', 'Vancouver', 'Canucks', '7', 'Rogers Arena', '21', 'VAN', 'Vancouver', 'Canucks', '1', '0', '0', '0', '0', '0', '1', '2', '33', '30', '52.4', '1', '1', '100.0', '2', '0', '100.0', '0', '0', '5', '2', '25', '2', '4', '19']"
"['', '28805', '2015-03-26', '02:00:00 GMT', '22', 'COL', 'Colorado', 'Avalanche', '21', 'VAN', 'Vancouver', 'Canucks', '7', 'Rogers Arena', '21', 'VAN', 'Vancouver', 'Canucks', '0', '1', '0', '0', '0', '0', '0', '0', '26', '29', '47.3', '4', '1', '25.0', '5', '2', '60.0', '0', '0', '1', '4', '33', '6', '15', '16']"
"['', '28821', '2015-03-28', '02:00:00 GMT', '27', 'DAL', 'Dallas', 'Stars', '21', 'VAN', 'Vancouver', 'Canucks', '7', 'Rogers Arena', '21', 'VAN', 'Vancouver', 'Canucks', '0', '0', '0', '1', '0', '0', '0', '1', '30', '35', '46.2', '3', '2', '66.7', '1', '0', '100.0', '0', '0', '3', '4', '33', '3', '9', '20']"
"['', '28831', '2015-03-30', '00:00:00 GMT', '21', 'VAN', 'Vancouver', 'Canucks', '17', 'STL', 'St. Louis', 'Blues', '24', 'Scottrade Center', '21', 'VAN', 'Vancouver', 'Canucks', '1', '0', '0', '0', '0', '0', '1', '2', '27', '30', '47.4', '1', '0', '0.0', '2', '0', '100.0', '0', '0', '4', '1', '18', '2', '4', '18']"
"['', '28842', '2015-03-31', '00:00:00 GMT', '21', 'VAN', 'Vancouver', 'Canucks', '18', 'NSH', 'Nashville', 'Predators', '15', 'Bridgestone Arena', '21', 'VAN', 'Vancouver', 'Canucks', '1', '0', '0', '0', '0', '0', '0', '2', '35', '43', '44.9', '1', '1', '100.0', '7', '2', '71.4', '1', '0', '4', '4', '21', '10', '29', '22']"
"['', '28854', '2015-04-02', '00:30:00 GMT', '21', 'VAN', 'Vancouver', 'Canucks', '20', 'CHI', 'Chicago', 'Blackhawks', '28', 'United Center', '21', 'VAN', 'Vancouver', 'Canucks', '0', '1', '0', '0', '0', '0', '0', '0', '22', '41', '34.9', '2', '0', '0.0', '3', '0', '100.0', '0', '0', '1', '3', '35', '4', '8', '26']"
"['', '28863', '2015-04-04', '19:00:00 GMT', '21', 'VAN', 'Vancouver', 'Canucks', '2', 'WPJ', 'Winnipeg', 'Jets', '39', 'MTS Centre', '21', 'VAN', 'Vancouver', 'Canucks', '0', '1', '0', '0', '0', '0', '0', '0', '26', '46', '36.1', '3', '1', '33.3', '4', '0', '100.0', '0', '0', '4', '5', '26', '5', '10', '27']"
"['', '28882', '2015-04-06', '02:00:00 GMT', '28', 'LAK', 'Los Angeles', 'Kings', '21', 'VAN', 'Vancouver', 'Canucks', '7', 'Rogers Arena', '21', 'VAN', 'Vancouver', 'Canucks', '1', '0', '0', '0', '0', '0', '0', '2', '35', '42', '45.5', '3', '0', '0.0', '2', '0', '100.0', '0', '0', '1', '1', '37', '2', '4', '18']"
"['', '28907', '2015-04-09', '02:00:00 GMT', '30', 'ARI', 'Arizona', 'Coyotes', '21', 'VAN', 'Vancouver', 'Canucks', '7', 'Rogers Arena', '21', 'VAN', 'Vancouver', 'Canucks', '1', '0', '0', '0', '0', '0', '1', '2', '24', '31', '43.6', '4', '3', '75.0', '4', '0', '100.0', '0', '0', '5', '0', '27', '5', '10', '11']"
"['', '28924', '2015-04-11', '02:00:00 GMT', '24', 'EDM', 'Edmonton', 'Oilers', '21', 'VAN', 'Vancouver', 'Canucks', '7', 'Rogers Arena', '21', 'VAN', 'Vancouver', 'Canucks', '1', '0', '0', '0', '0', '0', '1', '2', '21', '39', '35.0', '3', '0', '0.0', '1', '0', '100.0', '0', '0', '6', '5', '17', '1', '2', '10']"
