"['#Date/Time of Update: 2018-12-10 19:03:17 GMT', '#Game ID', '#Game Date', '#Game Time', '#Away Team ID', '#Away Team Abbr.', '#Away Team City', '#Away Team Name', '#Home Team ID', '#Home Team Abbr.', '#Home Team City', '#Home Team Name', '#Venue ID', '#Venue Name', '#Team ID', '#Team Abbr.', '#Team City', '#Team Name', '#Wins', '#Losses', '#OvertimeWins', '#OvertimeLosses', '#ShootoutWins', '#ShootoutLosses', '#Rows', '#Points', '#FaceoffWins', '#FaceoffLosses', '#FaceoffPercent', '#Powerplays', '#PowerplayGoals', '#PowerplayPercent', '#PenaltyKills', '#PenaltyKillGoalsAllowed', '#PenaltyKillPercent', '#ShorthandedGoalsFor', '#ShorthandedGoalsAgainst', '#GoalsFor', '#GoalsAgainst', '#Shots', '#Penalties', '#PenaltyMinutes', '#Hits']"
"['', '29027', '2015-10-08', '00:00:00 GMT', '24', 'EDM', 'Edmonton', 'Oilers', '17', 'STL', 'St. Louis', 'Blues', '24', 'Scottrade Center', '24', 'EDM', 'Edmonton', 'Oilers', '0', '1', '0', '0', '0', '0', '0', '0', '19', '34', '35.8', '3', '1', '33.3', '3', '0', '100.0', '0', '0', '1', '3', '24', '5', '13', '14']"
"['', '29042', '2015-10-10', '23:00:00 GMT', '24', 'EDM', 'Edmonton', 'Oilers', '18', 'NSH', 'Nashville', 'Predators', '15', 'Bridgestone Arena', '24', 'EDM', 'Edmonton', 'Oilers', '0', '1', '0', '0', '0', '0', '0', '0', '37', '34', '52.1', '5', '0', '0.0', '2', '0', '100.0', '0', '0', '0', '2', '31', '2', '4', '13']"
"['', '29061', '2015-10-13', '00:30:00 GMT', '24', 'EDM', 'Edmonton', 'Oilers', '27', 'DAL', 'Dallas', 'Stars', '2', 'American Airlines Center', '24', 'EDM', 'Edmonton', 'Oilers', '0', '1', '0', '0', '0', '0', '0', '0', '23', '38', '37.7', '1', '0', '0.0', '4', '0', '100.0', '0', '0', '2', '4', '28', '5', '10', '20']"
"['', '29074', '2015-10-15', '01:00:00 GMT', '17', 'STL', 'St. Louis', 'Blues', '24', 'EDM', 'Edmonton', 'Oilers', '22', 'Rogers Place', '24', 'EDM', 'Edmonton', 'Oilers', '0', '1', '0', '0', '0', '0', '0', '0', '35', '27', '56.5', '5', '0', '0.0', '4', '1', '75.0', '0', '0', '2', '4', '26', '4', '8', '29']"
"['', '29091', '2015-10-17', '02:00:00 GMT', '24', 'EDM', 'Edmonton', 'Oilers', '23', 'CGY', 'Calgary', 'Flames', '18', 'Scotiabank Saddledome', '24', 'EDM', 'Edmonton', 'Oilers', '1', '0', '0', '0', '0', '0', '1', '2', '43', '33', '56.6', '4', '1', '25.0', '4', '1', '75.0', '0', '0', '5', '2', '28', '5', '13', '14']"
"['', '29096', '2015-10-18', '01:00:00 GMT', '24', 'EDM', 'Edmonton', 'Oilers', '21', 'VAN', 'Vancouver', 'Canucks', '7', 'Rogers Arena', '24', 'EDM', 'Edmonton', 'Oilers', '1', '0', '0', '0', '0', '0', '1', '2', '15', '31', '32.6', '2', '1', '50.0', '1', '0', '100.0', '0', '0', '2', '1', '24', '2', '4', '20']"
"['', '29108', '2015-10-21', '01:30:00 GMT', '16', 'DET', 'Detroit', 'Red Wings', '24', 'EDM', 'Edmonton', 'Oilers', '22', 'Rogers Place', '24', 'EDM', 'Edmonton', 'Oilers', '1', '0', '0', '0', '0', '0', '1', '2', '24', '34', '41.4', '3', '1', '33.3', '5', '0', '100.0', '0', '0', '3', '1', '28', '6', '12', '13']"
"['', '29122', '2015-10-23', '01:00:00 GMT', '5', 'WSH', 'Washington', 'Capitals', '24', 'EDM', 'Edmonton', 'Oilers', '22', 'Rogers Place', '24', 'EDM', 'Edmonton', 'Oilers', '0', '1', '0', '0', '0', '0', '0', '0', '30', '32', '48.4', '6', '1', '16.7', '3', '2', '33.3', '0', '0', '4', '7', '23', '4', '8', '23']"
"['', '29138', '2015-10-25', '01:30:00 GMT', '28', 'LAK', 'Los Angeles', 'Kings', '24', 'EDM', 'Edmonton', 'Oilers', '22', 'Rogers Place', '24', 'EDM', 'Edmonton', 'Oilers', '0', '1', '0', '0', '0', '0', '0', '0', '29', '24', '54.7', '2', '1', '50.0', '2', '1', '50.0', '0', '0', '2', '3', '28', '3', '9', '24']"
"['', '29148', '2015-10-27', '00:00:00 GMT', '24', 'EDM', 'Edmonton', 'Oilers', '25', 'MIN', 'Minnesota', 'Wild', '30', 'Xcel Energy Center', '24', 'EDM', 'Edmonton', 'Oilers', '0', '1', '0', '0', '0', '0', '0', '0', '26', '25', '51.0', '1', '0', '0.0', '2', '1', '50.0', '0', '0', '3', '4', '25', '2', '4', '10']"
"['', '29162', '2015-10-29', '01:00:00 GMT', '14', 'MTL', 'Montreal', 'Canadiens', '24', 'EDM', 'Edmonton', 'Oilers', '22', 'Rogers Place', '24', 'EDM', 'Edmonton', 'Oilers', '1', '0', '0', '0', '0', '0', '1', '2', '37', '34', '52.1', '4', '1', '25.0', '2', '1', '50.0', '0', '0', '4', '3', '27', '3', '6', '17']"
"['', '29181', '2015-10-31', '02:00:00 GMT', '23', 'CGY', 'Calgary', 'Flames', '24', 'EDM', 'Edmonton', 'Oilers', '22', 'Rogers Place', '24', 'EDM', 'Edmonton', 'Oilers', '0', '1', '0', '0', '0', '0', '0', '0', '40', '26', '60.6', '4', '2', '50.0', '2', '1', '50.0', '0', '0', '4', '5', '23', '4', '8', '19']"
"['', '29197', '2015-11-03', '02:00:00 GMT', '6', 'PHI', 'Philadelphia', 'Flyers', '24', 'EDM', 'Edmonton', 'Oilers', '22', 'Rogers Place', '24', 'EDM', 'Edmonton', 'Oilers', '1', '0', '0', '0', '0', '0', '1', '2', '31', '30', '50.8', '3', '1', '33.3', '2', '0', '100.0', '0', '0', '4', '2', '49', '2', '4', '21']"
"['', '29216', '2015-11-06', '02:00:00 GMT', '10', 'PIT', 'Pittsburgh', 'Penguins', '24', 'EDM', 'Edmonton', 'Oilers', '22', 'Rogers Place', '24', 'EDM', 'Edmonton', 'Oilers', '0', '1', '0', '0', '0', '0', '0', '0', '30', '33', '47.6', '2', '0', '0.0', '3', '1', '66.7', '0', '0', '1', '2', '28', '4', '8', '16']"
"['', '29232', '2015-11-08', '01:00:00 GMT', '24', 'EDM', 'Edmonton', 'Oilers', '20', 'CHI', 'Chicago', 'Blackhawks', '28', 'United Center', '24', 'EDM', 'Edmonton', 'Oilers', '0', '1', '0', '0', '0', '0', '0', '0', '36', '38', '48.6', '1', '1', '100.0', '3', '1', '66.7', '0', '0', '2', '4', '36', '5', '10', '35']"
"['', '29247', '2015-11-11', '03:00:00 GMT', '24', 'EDM', 'Edmonton', 'Oilers', '29', 'ANA', 'Anaheim', 'Ducks', '8', 'Honda Center', '24', 'EDM', 'Edmonton', 'Oilers', '1', '0', '0', '0', '0', '0', '1', '2', '29', '33', '46.8', '2', '1', '50.0', '2', '1', '50.0', '0', '0', '4', '3', '27', '3', '9', '24']"
"['', '29258', '2015-11-12', '02:00:00 GMT', '24', 'EDM', 'Edmonton', 'Oilers', '30', 'ARI', 'Arizona', 'Coyotes', '6', 'Gila River Arena', '24', 'EDM', 'Edmonton', 'Oilers', '0', '1', '0', '0', '0', '0', '0', '0', '26', '34', '43.3', '4', '0', '0.0', '3', '1', '66.7', '0', '0', '1', '4', '28', '3', '6', '24']"
"['', '29276', '2015-11-14', '03:00:00 GMT', '24', 'EDM', 'Edmonton', 'Oilers', '28', 'LAK', 'Los Angeles', 'Kings', '25', 'Staples Center', '24', 'EDM', 'Edmonton', 'Oilers', '0', '1', '0', '0', '0', '0', '0', '0', '27', '31', '46.6', '3', '0', '0.0', '4', '0', '100.0', '0', '0', '3', '4', '25', '4', '8', '21']"
"['', '29295', '2015-11-18', '02:30:00 GMT', '20', 'CHI', 'Chicago', 'Blackhawks', '24', 'EDM', 'Edmonton', 'Oilers', '22', 'Rogers Place', '24', 'EDM', 'Edmonton', 'Oilers', '0', '0', '0', '1', '0', '0', '0', '1', '35', '31', '53.0', '3', '0', '0.0', '2', '1', '50.0', '0', '0', '3', '4', '37', '2', '4', '16']"
"['', '29310', '2015-11-20', '02:00:00 GMT', '7', 'NJD', 'New Jersey', 'Devils', '24', 'EDM', 'Edmonton', 'Oilers', '22', 'Rogers Place', '24', 'EDM', 'Edmonton', 'Oilers', '1', '0', '0', '0', '0', '0', '1', '2', '23', '24', '48.9', '6', '1', '16.7', '4', '1', '75.0', '0', '0', '5', '1', '27', '4', '8', '29']"
"['', '29329', '2015-11-23', '00:00:00 GMT', '24', 'EDM', 'Edmonton', 'Oilers', '5', 'WSH', 'Washington', 'Capitals', '13', 'Verizon Center', '24', 'EDM', 'Edmonton', 'Oilers', '0', '1', '0', '0', '0', '0', '0', '0', '22', '31', '41.5', '2', '0', '0.0', '3', '0', '100.0', '0', '0', '0', '1', '33', '3', '6', '14']"
"['', '29341', '2015-11-25', '00:00:00 GMT', '24', 'EDM', 'Edmonton', 'Oilers', '3', 'CAR', 'Carolina', 'Hurricanes', '21', 'RBC Center', '24', 'EDM', 'Edmonton', 'Oilers', '0', '1', '0', '0', '0', '0', '0', '0', '23', '29', '44.2', '4', '1', '25.0', '1', '0', '100.0', '0', '0', '1', '4', '31', '1', '2', '16']"
"['', '29356', '2015-11-27', '00:30:00 GMT', '24', 'EDM', 'Edmonton', 'Oilers', '16', 'DET', 'Detroit', 'Red Wings', '11', 'Joe Louis Arena', '24', 'EDM', 'Edmonton', 'Oilers', '0', '0', '0', '1', '0', '0', '0', '1', '29', '29', '50.0', '1', '1', '100.0', '2', '0', '100.0', '0', '0', '3', '4', '24', '2', '4', '17']"
"['', '29364', '2015-11-28', '00:00:00 GMT', '24', 'EDM', 'Edmonton', 'Oilers', '10', 'PIT', 'Pittsburgh', 'Penguins', '40', 'Consol Energy Center', '24', 'EDM', 'Edmonton', 'Oilers', '1', '0', '0', '0', '0', '0', '0', '2', '41', '40', '50.6', '4', '1', '25.0', '4', '1', '75.0', '0', '0', '2', '2', '36', '4', '8', '31']"
"['', '29375', '2015-11-30', '00:30:00 GMT', '24', 'EDM', 'Edmonton', 'Oilers', '12', 'TOR', 'Toronto', 'Maple Leafs', '1', 'Air Canada Center', '24', 'EDM', 'Edmonton', 'Oilers', '0', '1', '0', '0', '0', '0', '0', '0', '23', '29', '44.2', '3', '0', '0.0', '3', '1', '66.7', '0', '0', '0', '3', '24', '3', '6', '22']"
"['', '29389', '2015-12-02', '02:30:00 GMT', '11', 'BOS', 'Boston', 'Bruins', '24', 'EDM', 'Edmonton', 'Oilers', '22', 'Rogers Place', '24', 'EDM', 'Edmonton', 'Oilers', '1', '0', '0', '0', '0', '0', '0', '2', '39', '28', '58.2', '5', '0', '0.0', '2', '0', '100.0', '1', '0', '2', '2', '36', '2', '4', '18']"
"['', '29404', '2015-12-04', '02:00:00 GMT', '27', 'DAL', 'Dallas', 'Stars', '24', 'EDM', 'Edmonton', 'Oilers', '22', 'Rogers Place', '24', 'EDM', 'Edmonton', 'Oilers', '1', '0', '0', '0', '0', '0', '1', '2', '30', '24', '55.6', '3', '0', '0.0', '4', '0', '100.0', '0', '0', '2', '1', '24', '4', '8', '18']"
"['', '29420', '2015-12-06', '01:00:00 GMT', '15', 'BUF', 'Buffalo', 'Sabres', '24', 'EDM', 'Edmonton', 'Oilers', '22', 'Rogers Place', '24', 'EDM', 'Edmonton', 'Oilers', '1', '0', '0', '0', '0', '0', '1', '2', '39', '33', '54.2', '1', '1', '100.0', '4', '1', '75.0', '0', '0', '4', '2', '28', '6', '12', '25']"
"['', '29436', '2015-12-09', '02:30:00 GMT', '26', 'SJS', 'San Jose', 'Sharks', '24', 'EDM', 'Edmonton', 'Oilers', '22', 'Rogers Place', '24', 'EDM', 'Edmonton', 'Oilers', '1', '0', '0', '0', '0', '0', '1', '2', '36', '22', '62.1', '1', '0', '0.0', '3', '0', '100.0', '0', '0', '4', '3', '20', '6', '18', '35']"
"['', '29450', '2015-12-11', '02:00:00 GMT', '9', 'NYR', 'New York', 'Rangers', '24', 'EDM', 'Edmonton', 'Oilers', '22', 'Rogers Place', '24', 'EDM', 'Edmonton', 'Oilers', '1', '0', '0', '0', '0', '0', '1', '2', '33', '35', '48.5', '3', '1', '33.3', '2', '1', '50.0', '0', '0', '7', '5', '37', '2', '4', '24']"
"['', '29466', '2015-12-14', '00:00:00 GMT', '24', 'EDM', 'Edmonton', 'Oilers', '11', 'BOS', 'Boston', 'Bruins', '27', 'TD Garden', '24', 'EDM', 'Edmonton', 'Oilers', '1', '0', '0', '0', '0', '0', '1', '2', '37', '40', '48.1', '3', '0', '0.0', '3', '0', '100.0', '0', '0', '3', '2', '24', '4', '11', '30']"
"['', '29473', '2015-12-15', '00:00:00 GMT', '24', 'EDM', 'Edmonton', 'Oilers', '9', 'NYR', 'New York', 'Rangers', '12', 'Madison Square Garden', '24', 'EDM', 'Edmonton', 'Oilers', '0', '1', '0', '0', '0', '0', '0', '0', '24', '27', '47.1', '7', '1', '14.3', '4', '1', '75.0', '0', '0', '2', '4', '20', '5', '10', '20']"
"['', '29491', '2015-12-17', '01:30:00 GMT', '24', 'EDM', 'Edmonton', 'Oilers', '20', 'CHI', 'Chicago', 'Blackhawks', '28', 'United Center', '24', 'EDM', 'Edmonton', 'Oilers', '0', '1', '0', '0', '0', '0', '0', '0', '30', '27', '52.6', '0', '0', '0.0', '2', '0', '100.0', '0', '0', '0', '4', '33', '2', '4', '31']"
"['', '29510', '2015-12-19', '03:00:00 GMT', '24', 'EDM', 'Edmonton', 'Oilers', '22', 'COL', 'Colorado', 'Avalanche', '19', 'Pepsi Center', '24', 'EDM', 'Edmonton', 'Oilers', '0', '1', '0', '0', '0', '0', '0', '0', '24', '32', '42.9', '2', '0', '0.0', '1', '1', '0.0', '0', '1', '1', '5', '40', '1', '2', '13']"
"['', '29524', '2015-12-21', '02:00:00 GMT', '2', 'WPJ', 'Winnipeg', 'Jets', '24', 'EDM', 'Edmonton', 'Oilers', '22', 'Rogers Place', '24', 'EDM', 'Edmonton', 'Oilers', '1', '0', '0', '0', '0', '0', '1', '2', '45', '22', '67.2', '2', '0', '0.0', '5', '0', '100.0', '0', '0', '3', '1', '21', '7', '14', '18']"
"['', '29543', '2015-12-26', '03:00:00 GMT', '24', 'EDM', 'Edmonton', 'Oilers', '21', 'VAN', 'Vancouver', 'Canucks', '7', 'Rogers Arena', '24', 'EDM', 'Edmonton', 'Oilers', '0', '0', '0', '1', '0', '0', '0', '1', '34', '32', '51.5', '3', '0', '0.0', '2', '0', '100.0', '0', '0', '1', '2', '33', '2', '4', '9']"
"['', '29552', '2015-12-27', '02:00:00 GMT', '24', 'EDM', 'Edmonton', 'Oilers', '23', 'CGY', 'Calgary', 'Flames', '18', 'Scotiabank Saddledome', '24', 'EDM', 'Edmonton', 'Oilers', '0', '1', '0', '0', '0', '0', '0', '0', '28', '33', '45.9', '1', '0', '0.0', '3', '2', '33.3', '0', '1', '3', '5', '31', '3', '6', '8']"
"['', '29567', '2015-12-29', '02:00:00 GMT', '28', 'LAK', 'Los Angeles', 'Kings', '24', 'EDM', 'Edmonton', 'Oilers', '22', 'Rogers Place', '24', 'EDM', 'Edmonton', 'Oilers', '0', '1', '0', '0', '0', '0', '0', '0', '26', '35', '42.6', '2', '0', '0.0', '2', '1', '50.0', '0', '0', '2', '5', '44', '3', '9', '21']"
"['', '29581', '2015-12-31', '02:00:00 GMT', '29', 'ANA', 'Anaheim', 'Ducks', '24', 'EDM', 'Edmonton', 'Oilers', '22', 'Rogers Place', '24', 'EDM', 'Edmonton', 'Oilers', '0', '1', '0', '0', '0', '0', '0', '0', '32', '25', '56.1', '3', '0', '0.0', '2', '1', '50.0', '0', '0', '0', '1', '21', '4', '11', '32']"
"['', '29586', '2016-01-02', '21:00:00 GMT', '30', 'ARI', 'Arizona', 'Coyotes', '24', 'EDM', 'Edmonton', 'Oilers', '22', 'Rogers Place', '24', 'EDM', 'Edmonton', 'Oilers', '1', '0', '0', '0', '0', '0', '0', '2', '37', '38', '49.3', '4', '1', '25.0', '3', '0', '100.0', '0', '0', '3', '3', '41', '4', '8', '26']"
"['', '29604', '2016-01-04', '02:00:00 GMT', '3', 'CAR', 'Carolina', 'Hurricanes', '24', 'EDM', 'Edmonton', 'Oilers', '22', 'Rogers Place', '24', 'EDM', 'Edmonton', 'Oilers', '1', '0', '0', '0', '0', '0', '1', '2', '26', '26', '50.0', '2', '0', '0.0', '1', '0', '100.0', '0', '0', '1', '0', '27', '1', '2', '26']"
"['', '29630', '2016-01-08', '02:00:00 GMT', '1', 'TBL', 'Tampa Bay', 'Lightning', '24', 'EDM', 'Edmonton', 'Oilers', '22', 'Rogers Place', '24', 'EDM', 'Edmonton', 'Oilers', '0', '1', '0', '0', '0', '0', '0', '0', '32', '32', '50.0', '3', '1', '33.3', '3', '0', '100.0', '0', '0', '2', '3', '26', '3', '6', '26']"
"['', '29647', '2016-01-10', '02:30:00 GMT', '4', 'FLO', 'Florida', 'Panthers', '24', 'EDM', 'Edmonton', 'Oilers', '22', 'Rogers Place', '24', 'EDM', 'Edmonton', 'Oilers', '0', '1', '0', '0', '0', '0', '0', '0', '19', '26', '42.2', '3', '0', '0.0', '0', '0', '0.0', '0', '0', '1', '2', '25', '3', '15', '29']"
"['', '29659', '2016-01-12', '02:00:00 GMT', '24', 'EDM', 'Edmonton', 'Oilers', '30', 'ARI', 'Arizona', 'Coyotes', '6', 'Gila River Arena', '24', 'EDM', 'Edmonton', 'Oilers', '0', '0', '0', '1', '0', '0', '0', '1', '27', '45', '37.5', '3', '2', '66.7', '4', '3', '25.0', '0', '0', '3', '4', '28', '4', '8', '29']"
"['', '29671', '2016-01-14', '03:30:00 GMT', '24', 'EDM', 'Edmonton', 'Oilers', '26', 'SJS', 'San Jose', 'Sharks', '9', 'SAP Center at San Jose', '24', 'EDM', 'Edmonton', 'Oilers', '0', '0', '0', '1', '0', '0', '0', '1', '19', '27', '41.3', '1', '0', '0.0', '4', '0', '100.0', '0', '0', '1', '1', '25', '4', '8', '25']"
"['', '29686', '2016-01-16', '03:00:00 GMT', '23', 'CGY', 'Calgary', 'Flames', '24', 'EDM', 'Edmonton', 'Oilers', '22', 'Rogers Place', '24', 'EDM', 'Edmonton', 'Oilers', '1', '0', '0', '0', '0', '0', '0', '2', '45', '30', '60.0', '1', '0', '0.0', '5', '0', '100.0', '0', '0', '1', '1', '37', '5', '10', '22']"
"['', '29695', '2016-01-18', '00:30:00 GMT', '24', 'EDM', 'Edmonton', 'Oilers', '4', 'FLO', 'Florida', 'Panthers', '3', 'BB&T Center', '24', 'EDM', 'Edmonton', 'Oilers', '1', '0', '0', '0', '0', '0', '1', '2', '33', '30', '52.4', '1', '0', '0.0', '4', '0', '100.0', '0', '0', '4', '2', '24', '5', '13', '37']"
"['', '29705', '2016-01-19', '00:30:00 GMT', '24', 'EDM', 'Edmonton', 'Oilers', '1', 'TBL', 'Tampa Bay', 'Lightning', '26', 'Amalie Arena', '24', 'EDM', 'Edmonton', 'Oilers', '0', '1', '0', '0', '0', '0', '0', '0', '36', '25', '59.0', '4', '0', '0.0', '2', '0', '100.0', '1', '1', '4', '6', '26', '3', '6', '22']"
"['', '29718', '2016-01-21', '01:30:00 GMT', '24', 'EDM', 'Edmonton', 'Oilers', '27', 'DAL', 'Dallas', 'Stars', '2', 'American Airlines Center', '24', 'EDM', 'Edmonton', 'Oilers', '0', '1', '0', '0', '0', '0', '0', '0', '27', '38', '41.5', '3', '1', '33.3', '2', '0', '100.0', '0', '0', '2', '3', '25', '2', '4', '23']"
"['', '29737', '2016-01-23', '03:00:00 GMT', '18', 'NSH', 'Nashville', 'Predators', '24', 'EDM', 'Edmonton', 'Oilers', '22', 'Rogers Place', '24', 'EDM', 'Edmonton', 'Oilers', '0', '1', '0', '0', '0', '0', '0', '0', '26', '33', '44.1', '3', '0', '0.0', '2', '1', '50.0', '0', '0', '1', '4', '24', '4', '16', '20']"
"['', '29771', '2016-02-02', '02:00:00 GMT', '19', 'CBJ', 'Columbus', 'Blue Jackets', '24', 'EDM', 'Edmonton', 'Oilers', '22', 'Rogers Place', '24', 'EDM', 'Edmonton', 'Oilers', '1', '0', '0', '0', '0', '0', '1', '2', '41', '28', '59.4', '3', '2', '66.7', '5', '0', '100.0', '0', '0', '5', '1', '35', '7', '14', '24']"
"['', '29781', '2016-02-04', '00:30:00 GMT', '24', 'EDM', 'Edmonton', 'Oilers', '13', 'OTT', 'Ottawa', 'Senators', '23', 'Canadian Tire Centre', '24', 'EDM', 'Edmonton', 'Oilers', '1', '0', '0', '0', '0', '0', '1', '2', '29', '43', '40.3', '3', '3', '100.0', '4', '1', '75.0', '0', '0', '7', '2', '28', '7', '23', '20']"
"['', '29795', '2016-02-06', '19:00:00 GMT', '24', 'EDM', 'Edmonton', 'Oilers', '14', 'MTL', 'Montreal', 'Canadiens', '4', 'Bell Centre', '24', 'EDM', 'Edmonton', 'Oilers', '0', '1', '0', '0', '0', '0', '0', '0', '27', '36', '42.9', '3', '0', '0.0', '3', '1', '66.7', '1', '0', '1', '5', '24', '4', '8', '34']"
"['', '29807', '2016-02-07', '19:30:00 GMT', '24', 'EDM', 'Edmonton', 'Oilers', '8', 'NYI', 'New York', 'Islanders', '16', 'Nassau Veterans Memorial Coliseum', '24', 'EDM', 'Edmonton', 'Oilers', '0', '1', '0', '0', '0', '0', '0', '0', '31', '34', '47.7', '1', '0', '0.0', '5', '2', '60.0', '0', '0', '1', '8', '31', '10', '34', '18']"
"['', '29814', '2016-02-09', '01:00:00 GMT', '24', 'EDM', 'Edmonton', 'Oilers', '7', 'NJD', 'New Jersey', 'Devils', '37', 'Prudential Center', '24', 'EDM', 'Edmonton', 'Oilers', '0', '1', '0', '0', '0', '0', '0', '0', '26', '27', '49.1', '3', '0', '0.0', '5', '2', '60.0', '0', '0', '1', '2', '20', '6', '15', '19']"
"['', '29834', '2016-02-11', '02:00:00 GMT', '12', 'TOR', 'Toronto', 'Maple Leafs', '24', 'EDM', 'Edmonton', 'Oilers', '22', 'Rogers Place', '24', 'EDM', 'Edmonton', 'Oilers', '1', '0', '0', '0', '0', '0', '1', '2', '28', '32', '46.7', '5', '1', '20.0', '5', '0', '100.0', '0', '0', '5', '2', '35', '6', '12', '18']"
"['', '29851', '2016-02-13', '03:00:00 GMT', '2', 'WPJ', 'Winnipeg', 'Jets', '24', 'EDM', 'Edmonton', 'Oilers', '22', 'Rogers Place', '24', 'EDM', 'Edmonton', 'Oilers', '0', '0', '0', '1', '0', '0', '0', '1', '32', '37', '46.4', '5', '0', '0.0', '6', '0', '100.0', '1', '0', '1', '1', '22', '8', '19', '18']"
"['', '29872', '2016-02-16', '02:00:00 GMT', '29', 'ANA', 'Anaheim', 'Ducks', '24', 'EDM', 'Edmonton', 'Oilers', '22', 'Rogers Place', '24', 'EDM', 'Edmonton', 'Oilers', '0', '1', '0', '0', '0', '0', '0', '0', '30', '28', '51.7', '4', '2', '50.0', '4', '1', '75.0', '0', '1', '3', '5', '27', '4', '8', '26']"
"['', '29884', '2016-02-18', '02:00:00 GMT', '25', 'MIN', 'Minnesota', 'Wild', '24', 'EDM', 'Edmonton', 'Oilers', '22', 'Rogers Place', '24', 'EDM', 'Edmonton', 'Oilers', '0', '1', '0', '0', '0', '0', '0', '0', '25', '27', '48.1', '2', '0', '0.0', '3', '2', '33.3', '0', '0', '2', '5', '33', '3', '6', '22']"
"['', '29900', '2016-02-20', '03:00:00 GMT', '22', 'COL', 'Colorado', 'Avalanche', '24', 'EDM', 'Edmonton', 'Oilers', '22', 'Rogers Place', '24', 'EDM', 'Edmonton', 'Oilers', '0', '1', '0', '0', '0', '0', '0', '0', '31', '31', '50.0', '3', '0', '0.0', '3', '0', '100.0', '0', '0', '2', '3', '27', '4', '11', '20']"
"['', '29918', '2016-02-23', '02:00:00 GMT', '13', 'OTT', 'Ottawa', 'Senators', '24', 'EDM', 'Edmonton', 'Oilers', '22', 'Rogers Place', '24', 'EDM', 'Edmonton', 'Oilers', '0', '1', '0', '0', '0', '0', '0', '0', '20', '30', '40.0', '3', '0', '0.0', '2', '1', '50.0', '0', '0', '1', '4', '32', '3', '6', '30']"
"['', '29933', '2016-02-25', '03:30:00 GMT', '24', 'EDM', 'Edmonton', 'Oilers', '28', 'LAK', 'Los Angeles', 'Kings', '25', 'Staples Center', '24', 'EDM', 'Edmonton', 'Oilers', '0', '1', '0', '0', '0', '0', '0', '0', '31', '34', '47.7', '1', '0', '0.0', '1', '0', '100.0', '0', '0', '1', '2', '27', '1', '2', '28']"
"['', '29937', '2016-02-26', '03:00:00 GMT', '24', 'EDM', 'Edmonton', 'Oilers', '29', 'ANA', 'Anaheim', 'Ducks', '8', 'Honda Center', '24', 'EDM', 'Edmonton', 'Oilers', '0', '0', '0', '1', '0', '0', '0', '1', '24', '16', '60.0', '3', '0', '0.0', '3', '1', '66.7', '0', '0', '1', '2', '18', '3', '6', '24']"
"['', '29954', '2016-02-28', '02:30:00 GMT', '8', 'NYI', 'New York', 'Islanders', '24', 'EDM', 'Edmonton', 'Oilers', '22', 'Rogers Place', '24', 'EDM', 'Edmonton', 'Oilers', '1', '0', '0', '0', '0', '0', '1', '2', '28', '24', '53.8', '1', '0', '0.0', '4', '0', '100.0', '0', '0', '3', '1', '26', '4', '8', '23']"
"['', '29962', '2016-03-01', '00:30:00 GMT', '24', 'EDM', 'Edmonton', 'Oilers', '15', 'BUF', 'Buffalo', 'Sabres', '10', 'First Niagara Center', '24', 'EDM', 'Edmonton', 'Oilers', '1', '0', '0', '0', '0', '0', '1', '2', '38', '30', '55.9', '3', '0', '0.0', '1', '0', '100.0', '0', '0', '2', '1', '41', '1', '2', '15']"
"['', '29974', '2016-03-03', '00:00:00 GMT', '24', 'EDM', 'Edmonton', 'Oilers', '6', 'PHI', 'Philadelphia', 'Flyers', '29', 'Wells Fargo Center', '24', 'EDM', 'Edmonton', 'Oilers', '1', '0', '0', '0', '0', '0', '1', '2', '20', '44', '31.2', '1', '0', '0.0', '7', '0', '100.0', '1', '0', '4', '0', '31', '10', '30', '23']"
"['', '29985', '2016-03-04', '00:00:00 GMT', '24', 'EDM', 'Edmonton', 'Oilers', '19', 'CBJ', 'Columbus', 'Blue Jackets', '17', 'Nationwide Arena', '24', 'EDM', 'Edmonton', 'Oilers', '0', '1', '0', '0', '0', '0', '0', '0', '37', '21', '63.8', '3', '1', '33.3', '3', '1', '66.7', '0', '0', '3', '6', '36', '5', '16', '19']"
"['', '30002', '2016-03-06', '00:00:00 GMT', '24', 'EDM', 'Edmonton', 'Oilers', '2', 'WPJ', 'Winnipeg', 'Jets', '39', 'MTS Centre', '24', 'EDM', 'Edmonton', 'Oilers', '1', '0', '0', '0', '0', '0', '1', '2', '29', '24', '54.7', '2', '0', '0.0', '2', '0', '100.0', '0', '0', '2', '1', '31', '2', '4', '14']"
"['', '30018', '2016-03-08', '02:00:00 GMT', '26', 'SJS', 'San Jose', 'Sharks', '24', 'EDM', 'Edmonton', 'Oilers', '22', 'Rogers Place', '24', 'EDM', 'Edmonton', 'Oilers', '0', '1', '0', '0', '0', '0', '0', '0', '28', '29', '49.1', '3', '0', '0.0', '2', '1', '50.0', '0', '0', '0', '3', '31', '3', '9', '19']"
"['', '30029', '2016-03-10', '01:00:00 GMT', '24', 'EDM', 'Edmonton', 'Oilers', '25', 'MIN', 'Minnesota', 'Wild', '30', 'Xcel Energy Center', '24', 'EDM', 'Edmonton', 'Oilers', '1', '0', '0', '0', '0', '0', '1', '2', '15', '40', '27.3', '2', '0', '0.0', '4', '0', '100.0', '0', '0', '2', '1', '25', '4', '8', '15']"
"['', '30044', '2016-03-12', '03:00:00 GMT', '30', 'ARI', 'Arizona', 'Coyotes', '24', 'EDM', 'Edmonton', 'Oilers', '22', 'Rogers Place', '24', 'EDM', 'Edmonton', 'Oilers', '0', '1', '0', '0', '0', '0', '0', '0', '25', '41', '37.9', '3', '0', '0.0', '3', '1', '66.7', '0', '0', '0', '4', '44', '8', '32', '25']"
"['', '30054', '2016-03-14', '01:00:00 GMT', '18', 'NSH', 'Nashville', 'Predators', '24', 'EDM', 'Edmonton', 'Oilers', '22', 'Rogers Place', '24', 'EDM', 'Edmonton', 'Oilers', '0', '1', '0', '0', '0', '0', '0', '0', '32', '30', '51.6', '3', '0', '0.0', '2', '0', '100.0', '0', '0', '2', '3', '30', '4', '8', '28']"
"['', '30067', '2016-03-16', '01:30:00 GMT', '17', 'STL', 'St. Louis', 'Blues', '24', 'EDM', 'Edmonton', 'Oilers', '22', 'Rogers Place', '24', 'EDM', 'Edmonton', 'Oilers', '1', '0', '0', '0', '0', '0', '1', '2', '28', '40', '41.2', '6', '4', '66.7', '3', '1', '66.7', '0', '0', '6', '4', '27', '4', '8', '22']"
"['', '30083', '2016-03-18', '01:00:00 GMT', '21', 'VAN', 'Vancouver', 'Canucks', '24', 'EDM', 'Edmonton', 'Oilers', '22', 'Rogers Place', '24', 'EDM', 'Edmonton', 'Oilers', '1', '0', '0', '0', '0', '0', '1', '2', '30', '24', '55.6', '2', '0', '0.0', '3', '0', '100.0', '0', '0', '2', '0', '25', '6', '12', '26']"
"['', '30101', '2016-03-20', '01:30:00 GMT', '22', 'COL', 'Colorado', 'Avalanche', '24', 'EDM', 'Edmonton', 'Oilers', '22', 'Rogers Place', '24', 'EDM', 'Edmonton', 'Oilers', '0', '1', '0', '0', '0', '0', '0', '0', '25', '28', '47.2', '4', '0', '0.0', '2', '1', '50.0', '0', '0', '2', '3', '28', '2', '4', '30']"
"['', '30115', '2016-03-22', '02:00:00 GMT', '24', 'EDM', 'Edmonton', 'Oilers', '30', 'ARI', 'Arizona', 'Coyotes', '6', 'Gila River Arena', '24', 'EDM', 'Edmonton', 'Oilers', '0', '1', '0', '0', '0', '0', '0', '0', '26', '37', '41.3', '4', '2', '50.0', '3', '1', '66.7', '0', '0', '2', '4', '29', '3', '6', '21']"
"['', '30129', '2016-03-24', '02:30:00 GMT', '24', 'EDM', 'Edmonton', 'Oilers', '26', 'SJS', 'San Jose', 'Sharks', '9', 'SAP Center at San Jose', '24', 'EDM', 'Edmonton', 'Oilers', '1', '0', '0', '0', '0', '0', '1', '2', '26', '32', '44.8', '1', '0', '0.0', '4', '2', '50.0', '0', '0', '6', '3', '22', '7', '33', '26']"
"['', '30146', '2016-03-26', '02:00:00 GMT', '24', 'EDM', 'Edmonton', 'Oilers', '28', 'LAK', 'Los Angeles', 'Kings', '25', 'Staples Center', '24', 'EDM', 'Edmonton', 'Oilers', '0', '1', '0', '0', '0', '0', '0', '0', '32', '26', '55.2', '4', '1', '25.0', '1', '0', '100.0', '0', '1', '4', '6', '29', '2', '7', '35']"
"['', '30155', '2016-03-28', '01:00:00 GMT', '29', 'ANA', 'Anaheim', 'Ducks', '24', 'EDM', 'Edmonton', 'Oilers', '22', 'Rogers Place', '24', 'EDM', 'Edmonton', 'Oilers', '0', '1', '0', '0', '0', '0', '0', '0', '33', '25', '56.9', '3', '0', '0.0', '4', '0', '100.0', '0', '0', '1', '2', '28', '4', '8', '30']"
"['', '30194', '2016-04-02', '02:00:00 GMT', '23', 'CGY', 'Calgary', 'Flames', '24', 'EDM', 'Edmonton', 'Oilers', '22', 'Rogers Place', '24', 'EDM', 'Edmonton', 'Oilers', '0', '1', '0', '0', '0', '0', '0', '0', '23', '27', '46.0', '2', '0', '0.0', '6', '1', '83.3', '0', '1', '0', '5', '28', '7', '22', '18']"
"['', '30219', '2016-04-06', '02:00:00 GMT', '21', 'VAN', 'Vancouver', 'Canucks', '24', 'EDM', 'Edmonton', 'Oilers', '22', 'Rogers Place', '24', 'EDM', 'Edmonton', 'Oilers', '1', '0', '0', '0', '0', '0', '1', '2', '29', '36', '44.6', '4', '2', '50.0', '4', '0', '100.0', '0', '0', '6', '2', '38', '6', '12', '20']"
"['', '30246', '2016-04-09', '02:00:00 GMT', '24', 'EDM', 'Edmonton', 'Oilers', '21', 'VAN', 'Vancouver', 'Canucks', '7', 'Rogers Arena', '24', 'EDM', 'Edmonton', 'Oilers', '0', '0', '0', '1', '0', '0', '0', '1', '33', '39', '45.8', '4', '1', '25.0', '3', '0', '100.0', '0', '0', '3', '3', '38', '3', '6', '19']"
