"['#Date/Time of Update: 2018-12-10 19:02:57 GMT', '#Game ID', '#Game Date', '#Game Time', '#Away Team ID', '#Away Team Abbr.', '#Away Team City', '#Away Team Name', '#Home Team ID', '#Home Team Abbr.', '#Home Team City', '#Home Team Name', '#Venue ID', '#Venue Name', '#Team ID', '#Team Abbr.', '#Team City', '#Team Name', '#Wins', '#Losses', '#OvertimeWins', '#OvertimeLosses', '#ShootoutWins', '#ShootoutLosses', '#Points', '#FaceoffWins', '#FaceoffLosses', '#FaceoffPercent', '#Powerplays', '#PowerplayGoals', '#PowerplayPercent', '#PenaltyKills', '#PenaltyKillGoalsAllowed', '#PenaltyKillPercent', '#ShorthandedGoalsFor', '#ShorthandedGoalsAgainst', '#GoalsFor', '#GoalsAgainst', '#Shots', '#Penalties', '#PenaltyMinutes', '#Hits']"
"['', '8702', '2009-10-03', '23:00:00 GMT', '25', 'MIN', 'Minnesota', 'Wild', '19', 'CBJ', 'Columbus', 'Blue Jackets', '17', 'Nationwide Arena', '25', 'MIN', 'Minnesota', 'Wild', '0', '1', '0', '0', '0', '0', '0', '27', '32', '45.8', '4', '1', '25.0', '3', '0', '100.0', '0', '1', '1', '2', '32', '3', '6', '25']"
"['', '8713', '2009-10-06', '01:00:00 GMT', '29', 'ANA', 'Anaheim', 'Ducks', '25', 'MIN', 'Minnesota', 'Wild', '30', 'Xcel Energy Center', '25', 'MIN', 'Minnesota', 'Wild', '1', '0', '0', '0', '0', '0', '2', '39', '23', '62.9', '5', '3', '60.0', '2', '1', '50.0', '0', '0', '4', '3', '28', '5', '13', '16']"
"['', '8728', '2009-10-08', '02:30:00 GMT', '25', 'MIN', 'Minnesota', 'Wild', '28', 'LAK', 'Los Angeles', 'Kings', '25', 'Staples Center', '25', 'MIN', 'Minnesota', 'Wild', '0', '1', '0', '0', '0', '0', '0', '37', '23', '61.7', '3', '2', '66.7', '4', '1', '75.0', '0', '0', '3', '6', '26', '4', '8', '24']"
"['', '8744', '2009-10-10', '02:30:00 GMT', '25', 'MIN', 'Minnesota', 'Wild', '26', 'SJS', 'San Jose', 'Sharks', '9', 'HP Pavilion at San Jose', '25', 'MIN', 'Minnesota', 'Wild', '0', '1', '0', '0', '0', '0', '0', '26', '36', '41.9', '7', '1', '14.3', '3', '1', '66.7', '0', '0', '2', '4', '38', '5', '10', '11']"
"['', '8763', '2009-10-14', '02:00:00 GMT', '25', 'MIN', 'Minnesota', 'Wild', '29', 'ANA', 'Anaheim', 'Ducks', '8', 'Honda Center', '25', 'MIN', 'Minnesota', 'Wild', '0', '1', '0', '0', '0', '0', '0', '23', '28', '45.1', '4', '0', '0.0', '4', '0', '100.0', '0', '0', '2', '3', '32', '5', '13', '14']"
"['', '8775', '2009-10-16', '01:00:00 GMT', '25', 'MIN', 'Minnesota', 'Wild', '24', 'EDM', 'Edmonton', 'Oilers', '22', 'Rogers Place', '25', 'MIN', 'Minnesota', 'Wild', '0', '1', '0', '0', '0', '0', '0', '25', '31', '44.6', '3', '1', '33.3', '5', '0', '100.0', '0', '0', '2', '5', '29', '5', '10', '17']"
"['', '8787', '2009-10-17', '02:00:00 GMT', '25', 'MIN', 'Minnesota', 'Wild', '21', 'VAN', 'Vancouver', 'Canucks', '7', 'General Motors Place', '25', 'MIN', 'Minnesota', 'Wild', '0', '1', '0', '0', '0', '0', '0', '24', '25', '49.0', '4', '0', '0.0', '5', '0', '100.0', '0', '0', '1', '2', '17', '5', '10', '6']"
"['', '8798', '2009-10-21', '00:00:00 GMT', '22', 'COL', 'Colorado', 'Avalanche', '25', 'MIN', 'Minnesota', 'Wild', '30', 'Xcel Energy Center', '25', 'MIN', 'Minnesota', 'Wild', '1', '0', '0', '0', '0', '0', '2', '31', '26', '54.4', '7', '2', '28.6', '2', '0', '100.0', '0', '0', '2', '2', '24', '3', '9', '30']"
"['', '8811', '2009-10-23', '00:00:00 GMT', '25', 'MIN', 'Minnesota', 'Wild', '17', 'STL', 'St. Louis', 'Blues', '24', 'Scottrade Center', '25', 'MIN', 'Minnesota', 'Wild', '0', '1', '0', '0', '0', '0', '0', '32', '22', '59.3', '2', '0', '0.0', '5', '0', '100.0', '0', '1', '1', '3', '20', '7', '17', '24']"
"['', '8822', '2009-10-24', '00:00:00 GMT', '3', 'CAR', 'Carolina', 'Hurricanes', '25', 'MIN', 'Minnesota', 'Wild', '30', 'Xcel Energy Center', '25', 'MIN', 'Minnesota', 'Wild', '1', '0', '0', '0', '0', '0', '2', '38', '22', '63.3', '7', '1', '14.3', '3', '1', '66.7', '0', '0', '3', '2', '26', '6', '15', '13']"
"['', '8833', '2009-10-26', '00:30:00 GMT', '25', 'MIN', 'Minnesota', 'Wild', '20', 'CHI', 'Chicago', 'Blackhawks', '28', 'United Center', '25', 'MIN', 'Minnesota', 'Wild', '0', '1', '0', '0', '0', '0', '0', '33', '17', '66.0', '6', '1', '16.7', '4', '1', '75.0', '0', '0', '1', '3', '20', '6', '15', '31']"
"['', '8845', '2009-10-28', '00:00:00 GMT', '18', 'NSH', 'Nashville', 'Predators', '25', 'MIN', 'Minnesota', 'Wild', '30', 'Xcel Energy Center', '25', 'MIN', 'Minnesota', 'Wild', '0', '1', '0', '0', '0', '0', '0', '24', '28', '46.2', '2', '1', '50.0', '3', '1', '66.7', '0', '1', '3', '4', '19', '4', '8', '17']"
"['', '8858', '2009-10-30', '00:00:00 GMT', '9', 'NYR', 'New York', 'Rangers', '25', 'MIN', 'Minnesota', 'Wild', '30', 'Xcel Energy Center', '25', 'MIN', 'Minnesota', 'Wild', '1', '0', '0', '0', '0', '0', '2', '27', '27', '50.0', '2', '0', '0.0', '1', '0', '100.0', '0', '0', '3', '2', '29', '2', '4', '37']"
"['', '8869', '2009-10-31', '23:30:00 GMT', '25', 'MIN', 'Minnesota', 'Wild', '10', 'PIT', 'Pittsburgh', 'Penguins', '14', 'Mellon Arena', '25', 'MIN', 'Minnesota', 'Wild', '1', '0', '0', '0', '0', '0', '2', '27', '26', '50.9', '1', '0', '0.0', '3', '0', '100.0', '0', '0', '2', '1', '13', '7', '17', '22']"
"['', '8897', '2009-11-05', '01:00:00 GMT', '21', 'VAN', 'Vancouver', 'Canucks', '25', 'MIN', 'Minnesota', 'Wild', '30', 'Xcel Energy Center', '25', 'MIN', 'Minnesota', 'Wild', '0', '1', '0', '0', '0', '0', '0', '25', '28', '47.2', '5', '0', '0.0', '3', '0', '100.0', '0', '1', '2', '5', '28', '4', '8', '20']"
"['', '8917', '2009-11-07', '01:00:00 GMT', '27', 'DAL', 'Dallas', 'Stars', '25', 'MIN', 'Minnesota', 'Wild', '30', 'Xcel Energy Center', '25', 'MIN', 'Minnesota', 'Wild', '1', '0', '0', '0', '0', '0', '2', '33', '30', '52.4', '4', '0', '0.0', '5', '2', '60.0', '1', '0', '3', '2', '34', '7', '14', '34']"
"['', '8925', '2009-11-10', '00:00:00 GMT', '25', 'MIN', 'Minnesota', 'Wild', '12', 'TOR', 'Toronto', 'Maple Leafs', '1', 'Air Canada Center', '25', 'MIN', 'Minnesota', 'Wild', '1', '0', '0', '0', '0', '0', '2', '24', '29', '45.3', '4', '2', '50.0', '4', '0', '100.0', '1', '0', '5', '2', '26', '4', '8', '20']"
"['', '8941', '2009-11-12', '00:30:00 GMT', '25', 'MIN', 'Minnesota', 'Wild', '1', 'TBL', 'Tampa Bay', 'Lightning', '26', 'St. Pete Times Forum', '25', 'MIN', 'Minnesota', 'Wild', '0', '0', '0', '1', '0', '0', '1', '30', '29', '50.8', '4', '1', '25.0', '3', '1', '66.7', '0', '1', '3', '3', '31', '5', '10', '17']"
"['', '8946', '2009-11-13', '00:00:00 GMT', '25', 'MIN', 'Minnesota', 'Wild', '5', 'WSH', 'Washington', 'Capitals', '13', 'Verizon Center', '25', 'MIN', 'Minnesota', 'Wild', '0', '1', '0', '0', '0', '0', '0', '28', '34', '45.2', '3', '0', '0.0', '3', '1', '66.7', '0', '0', '1', '3', '29', '3', '6', '22']"
"['', '8963', '2009-11-15', '18:30:00 GMT', '25', 'MIN', 'Minnesota', 'Wild', '3', 'CAR', 'Carolina', 'Hurricanes', '21', 'RBC Center', '25', 'MIN', 'Minnesota', 'Wild', '0', '0', '0', '1', '0', '0', '1', '34', '32', '51.5', '3', '0', '0.0', '5', '3', '40.0', '0', '0', '4', '4', '28', '6', '12', '13']"
"['', '8979', '2009-11-18', '01:00:00 GMT', '30', 'PHX', 'Phoenix', 'Coyotes', '25', 'MIN', 'Minnesota', 'Wild', '30', 'Xcel Energy Center', '25', 'MIN', 'Minnesota', 'Wild', '0', '1', '0', '0', '0', '0', '0', '24', '28', '46.2', '3', '0', '0.0', '2', '1', '50.0', '0', '0', '2', '3', '24', '2', '4', '20']"
"['', '8993', '2009-11-20', '01:00:00 GMT', '8', 'NYI', 'New York', 'Islanders', '25', 'MIN', 'Minnesota', 'Wild', '30', 'Xcel Energy Center', '25', 'MIN', 'Minnesota', 'Wild', '1', '0', '0', '0', '0', '0', '2', '27', '30', '47.4', '5', '1', '20.0', '6', '0', '100.0', '0', '0', '3', '2', '26', '10', '34', '27']"
"['', '9029', '2009-11-25', '01:00:00 GMT', '11', 'BOS', 'Boston', 'Bruins', '25', 'MIN', 'Minnesota', 'Wild', '30', 'Xcel Energy Center', '25', 'MIN', 'Minnesota', 'Wild', '0', '0', '0', '1', '0', '0', '1', '28', '25', '52.8', '7', '1', '14.3', '3', '0', '100.0', '0', '0', '1', '1', '28', '4', '8', '23']"
"['', '9041', '2009-11-27', '19:00:00 GMT', '22', 'COL', 'Colorado', 'Avalanche', '25', 'MIN', 'Minnesota', 'Wild', '30', 'Xcel Energy Center', '25', 'MIN', 'Minnesota', 'Wild', '1', '0', '0', '0', '0', '0', '2', '36', '34', '51.4', '3', '2', '66.7', '3', '1', '66.7', '0', '0', '5', '3', '27', '4', '8', '30']"
"['', '9060', '2009-11-28', '02:00:00 GMT', '25', 'MIN', 'Minnesota', 'Wild', '22', 'COL', 'Colorado', 'Avalanche', '19', 'Pepsi Center', '25', 'MIN', 'Minnesota', 'Wild', '1', '0', '0', '0', '0', '0', '2', '30', '21', '58.8', '4', '0', '0.0', '1', '1', '0.0', '0', '0', '2', '2', '34', '2', '7', '13']"
"['', '9080', '2009-12-02', '01:00:00 GMT', '18', 'NSH', 'Nashville', 'Predators', '25', 'MIN', 'Minnesota', 'Wild', '30', 'Xcel Energy Center', '25', 'MIN', 'Minnesota', 'Wild', '1', '0', '0', '0', '0', '0', '2', '35', '23', '60.3', '2', '1', '50.0', '2', '0', '100.0', '0', '0', '5', '4', '22', '3', '9', '23']"
"['', '9094', '2009-12-04', '01:00:00 GMT', '29', 'ANA', 'Anaheim', 'Ducks', '25', 'MIN', 'Minnesota', 'Wild', '30', 'Xcel Energy Center', '25', 'MIN', 'Minnesota', 'Wild', '1', '0', '0', '0', '0', '0', '2', '38', '26', '59.4', '2', '1', '50.0', '3', '1', '66.7', '0', '0', '4', '4', '25', '4', '11', '20']"
"['', '9919', '2009-12-05', '01:00:00 GMT', '25', 'MIN', 'Minnesota', 'Wild', '18', 'NSH', 'Nashville', 'Predators', '15', 'Sommet Center', '25', 'MIN', 'Minnesota', 'Wild', '1', '0', '0', '0', '0', '0', '2', '33', '28', '54.1', '4', '2', '50.0', '5', '1', '80.0', '0', '0', '5', '3', '34', '5', '10', '8']"
"['', '9119', '2009-12-07', '02:00:00 GMT', '25', 'MIN', 'Minnesota', 'Wild', '30', 'PHX', 'Phoenix', 'Coyotes', '6', 'Jobing.com Arena', '25', 'MIN', 'Minnesota', 'Wild', '0', '1', '0', '0', '0', '0', '0', '30', '34', '46.9', '6', '0', '0.0', '3', '0', '100.0', '0', '0', '0', '2', '28', '6', '15', '33']"
"['', '9132', '2009-12-09', '02:00:00 GMT', '25', 'MIN', 'Minnesota', 'Wild', '22', 'COL', 'Colorado', 'Avalanche', '19', 'Pepsi Center', '25', 'MIN', 'Minnesota', 'Wild', '1', '0', '0', '0', '0', '0', '2', '26', '25', '51.0', '2', '0', '0.0', '6', '0', '100.0', '0', '0', '1', '0', '21', '6', '12', '23']"
"['', '9146', '2009-12-11', '02:00:00 GMT', '25', 'MIN', 'Minnesota', 'Wild', '23', 'CGY', 'Calgary', 'Flames', '18', 'Pengrowth Saddledome', '25', 'MIN', 'Minnesota', 'Wild', '1', '0', '0', '0', '0', '0', '2', '35', '27', '56.5', '4', '0', '0.0', '3', '0', '100.0', '0', '0', '2', '1', '44', '5', '13', '10']"
"['', '9159', '2009-12-12', '03:00:00 GMT', '25', 'MIN', 'Minnesota', 'Wild', '21', 'VAN', 'Vancouver', 'Canucks', '7', 'General Motors Place', '25', 'MIN', 'Minnesota', 'Wild', '0', '1', '0', '0', '0', '0', '0', '49', '20', '71.0', '2', '0', '0.0', '5', '3', '40.0', '0', '0', '3', '4', '38', '5', '10', '21']"
"['', '9174', '2009-12-15', '01:00:00 GMT', '19', 'CBJ', 'Columbus', 'Blue Jackets', '25', 'MIN', 'Minnesota', 'Wild', '30', 'Xcel Energy Center', '25', 'MIN', 'Minnesota', 'Wild', '1', '0', '0', '0', '0', '0', '2', '22', '18', '55.0', '1', '0', '0.0', '0', '0', '0.0', '0', '0', '2', '1', '21', '1', '2', '17']"
"['', '9185', '2009-12-17', '00:00:00 GMT', '25', 'MIN', 'Minnesota', 'Wild', '14', 'MTL', 'Montreal', 'Canadiens', '4', 'Bell Centre', '25', 'MIN', 'Minnesota', 'Wild', '1', '0', '0', '0', '0', '0', '2', '20', '26', '43.5', '1', '1', '100.0', '2', '0', '100.0', '0', '0', '3', '1', '18', '2', '4', '26']"
"['', '9207', '2009-12-19', '00:00:00 GMT', '25', 'MIN', 'Minnesota', 'Wild', '13', 'OTT', 'Ottawa', 'Senators', '23', 'Scotiabank Place', '25', 'MIN', 'Minnesota', 'Wild', '0', '1', '0', '0', '0', '0', '0', '24', '23', '51.1', '6', '0', '0.0', '3', '0', '100.0', '0', '0', '1', '4', '22', '3', '6', '23']"
"['', '9221', '2009-12-21', '01:00:00 GMT', '22', 'COL', 'Colorado', 'Avalanche', '25', 'MIN', 'Minnesota', 'Wild', '30', 'Xcel Energy Center', '25', 'MIN', 'Minnesota', 'Wild', '0', '1', '0', '0', '0', '0', '0', '33', '18', '64.7', '4', '0', '0.0', '5', '0', '100.0', '1', '1', '3', '4', '28', '7', '17', '18']"
"['', '9234', '2009-12-23', '00:00:00 GMT', '24', 'EDM', 'Edmonton', 'Oilers', '25', 'MIN', 'Minnesota', 'Wild', '30', 'Xcel Energy Center', '25', 'MIN', 'Minnesota', 'Wild', '1', '0', '0', '0', '0', '0', '2', '33', '20', '62.3', '6', '1', '16.7', '3', '0', '100.0', '0', '0', '3', '1', '24', '7', '20', '16']"
"['', '9249', '2009-12-26', '01:00:00 GMT', '17', 'STL', 'St. Louis', 'Blues', '25', 'MIN', 'Minnesota', 'Wild', '30', 'Xcel Energy Center', '25', 'MIN', 'Minnesota', 'Wild', '1', '0', '0', '0', '0', '0', '2', '35', '18', '66.0', '2', '0', '0.0', '4', '0', '100.0', '0', '0', '4', '3', '16', '5', '10', '11']"
"['', '9265', '2009-12-28', '03:30:00 GMT', '25', 'MIN', 'Minnesota', 'Wild', '28', 'LAK', 'Los Angeles', 'Kings', '25', 'Staples Center', '25', 'MIN', 'Minnesota', 'Wild', '1', '0', '0', '0', '0', '0', '2', '26', '22', '54.2', '2', '1', '50.0', '1', '1', '0.0', '0', '0', '4', '3', '19', '1', '2', '29']"
"['', '9272', '2009-12-29', '03:00:00 GMT', '25', 'MIN', 'Minnesota', 'Wild', '29', 'ANA', 'Anaheim', 'Ducks', '8', 'Honda Center', '25', 'MIN', 'Minnesota', 'Wild', '0', '1', '0', '0', '0', '0', '0', '29', '26', '52.7', '4', '1', '25.0', '3', '1', '66.7', '0', '1', '2', '4', '29', '7', '33', '15']"
"['', '9289', '2009-12-31', '01:00:00 GMT', '28', 'LAK', 'Los Angeles', 'Kings', '25', 'MIN', 'Minnesota', 'Wild', '30', 'Xcel Energy Center', '25', 'MIN', 'Minnesota', 'Wild', '0', '1', '0', '0', '0', '0', '0', '31', '23', '57.4', '4', '0', '0.0', '3', '1', '66.7', '0', '0', '2', '5', '27', '6', '15', '23']"
"['', '9304', '2010-01-02', '01:00:00 GMT', '7', 'NJD', 'New Jersey', 'Devils', '25', 'MIN', 'Minnesota', 'Wild', '30', 'Xcel Energy Center', '25', 'MIN', 'Minnesota', 'Wild', '0', '1', '0', '0', '0', '0', '0', '25', '27', '48.1', '1', '0', '0.0', '3', '2', '33.3', '1', '0', '3', '5', '29', '3', '6', '22']"
"['', '9318', '2010-01-05', '01:30:00 GMT', '25', 'MIN', 'Minnesota', 'Wild', '20', 'CHI', 'Chicago', 'Blackhawks', '28', 'United Center', '25', 'MIN', 'Minnesota', 'Wild', '0', '1', '0', '0', '0', '0', '0', '22', '29', '43.1', '3', '0', '0.0', '4', '1', '75.0', '0', '0', '1', '4', '19', '4', '8', '25']"
"['', '9325', '2010-01-06', '01:00:00 GMT', '23', 'CGY', 'Calgary', 'Flames', '25', 'MIN', 'Minnesota', 'Wild', '30', 'Xcel Energy Center', '25', 'MIN', 'Minnesota', 'Wild', '1', '0', '0', '0', '0', '0', '2', '28', '20', '58.3', '5', '1', '20.0', '2', '0', '100.0', '0', '0', '4', '1', '31', '2', '4', '26']"
"['', '9352', '2010-01-09', '01:00:00 GMT', '20', 'CHI', 'Chicago', 'Blackhawks', '25', 'MIN', 'Minnesota', 'Wild', '30', 'Xcel Energy Center', '25', 'MIN', 'Minnesota', 'Wild', '1', '0', '0', '0', '0', '0', '2', '34', '29', '54.0', '2', '1', '50.0', '2', '1', '50.0', '0', '1', '5', '5', '16', '2', '4', '46']"
"['', '9359', '2010-01-11', '01:00:00 GMT', '10', 'PIT', 'Pittsburgh', 'Penguins', '25', 'MIN', 'Minnesota', 'Wild', '30', 'Xcel Energy Center', '25', 'MIN', 'Minnesota', 'Wild', '1', '0', '0', '0', '0', '0', '2', '31', '28', '52.5', '2', '0', '0.0', '5', '0', '100.0', '0', '0', '4', '3', '20', '7', '14', '19']"
"['', '9372', '2010-01-13', '00:00:00 GMT', '21', 'VAN', 'Vancouver', 'Canucks', '25', 'MIN', 'Minnesota', 'Wild', '30', 'Xcel Energy Center', '25', 'MIN', 'Minnesota', 'Wild', '1', '0', '0', '0', '0', '0', '2', '37', '35', '51.4', '5', '1', '20.0', '3', '1', '66.7', '0', '0', '5', '2', '17', '10', '29', '22']"
"['', '9382', '2010-01-14', '01:00:00 GMT', '25', 'MIN', 'Minnesota', 'Wild', '17', 'STL', 'St. Louis', 'Blues', '24', 'Scottrade Center', '25', 'MIN', 'Minnesota', 'Wild', '0', '1', '0', '0', '0', '0', '0', '32', '31', '50.8', '3', '0', '0.0', '1', '0', '100.0', '0', '0', '0', '1', '19', '4', '16', '20']"
"['', '9400', '2010-01-16', '01:00:00 GMT', '25', 'MIN', 'Minnesota', 'Wild', '30', 'PHX', 'Phoenix', 'Coyotes', '6', 'Jobing.com Arena', '25', 'MIN', 'Minnesota', 'Wild', '0', '1', '0', '0', '0', '0', '0', '34', '26', '56.7', '2', '2', '100.0', '5', '1', '80.0', '0', '1', '4', '6', '18', '6', '12', '21']"
"['', '9412', '2010-01-18', '01:00:00 GMT', '25', 'MIN', 'Minnesota', 'Wild', '27', 'DAL', 'Dallas', 'Stars', '2', 'American Airlines Center', '25', 'MIN', 'Minnesota', 'Wild', '0', '1', '0', '0', '0', '0', '0', '28', '25', '52.8', '2', '1', '50.0', '3', '1', '66.7', '0', '0', '3', '4', '22', '5', '10', '27']"
"['', '9434', '2010-01-21', '01:00:00 GMT', '16', 'DET', 'Detroit', 'Red Wings', '25', 'MIN', 'Minnesota', 'Wild', '30', 'Xcel Energy Center', '25', 'MIN', 'Minnesota', 'Wild', '0', '0', '0', '1', '0', '0', '1', '31', '15', '67.4', '1', '0', '0.0', '3', '0', '100.0', '0', '0', '3', '3', '27', '3', '6', '27']"
"['', '9452', '2010-01-23', '01:00:00 GMT', '19', 'CBJ', 'Columbus', 'Blue Jackets', '25', 'MIN', 'Minnesota', 'Wild', '30', 'Xcel Energy Center', '25', 'MIN', 'Minnesota', 'Wild', '1', '0', '0', '0', '0', '0', '2', '26', '32', '44.8', '4', '0', '0.0', '2', '0', '100.0', '0', '0', '4', '2', '24', '5', '16', '26']"
"['', '9473', '2010-01-27', '01:00:00 GMT', '16', 'DET', 'Detroit', 'Red Wings', '25', 'MIN', 'Minnesota', 'Wild', '30', 'Xcel Energy Center', '25', 'MIN', 'Minnesota', 'Wild', '1', '0', '0', '0', '0', '0', '2', '30', '25', '54.5', '5', '1', '20.0', '2', '0', '100.0', '0', '0', '5', '2', '20', '4', '8', '16']"
"['', '9480', '2010-01-28', '02:00:00 GMT', '25', 'MIN', 'Minnesota', 'Wild', '22', 'COL', 'Colorado', 'Avalanche', '19', 'Pepsi Center', '25', 'MIN', 'Minnesota', 'Wild', '1', '0', '0', '0', '0', '0', '2', '30', '24', '55.6', '5', '0', '0.0', '2', '0', '100.0', '0', '0', '1', '0', '25', '2', '4', '13']"
"['', '9499', '2010-01-30', '03:30:00 GMT', '25', 'MIN', 'Minnesota', 'Wild', '26', 'SJS', 'San Jose', 'Sharks', '9', 'HP Pavilion at San Jose', '25', 'MIN', 'Minnesota', 'Wild', '0', '1', '0', '0', '0', '0', '0', '22', '38', '36.7', '5', '2', '40.0', '7', '4', '42.9', '0', '0', '2', '5', '36', '7', '14', '18']"
"['', '9515', '2010-02-02', '01:30:00 GMT', '25', 'MIN', 'Minnesota', 'Wild', '27', 'DAL', 'Dallas', 'Stars', '2', 'American Airlines Center', '25', 'MIN', 'Minnesota', 'Wild', '0', '1', '0', '0', '0', '0', '0', '33', '25', '56.9', '4', '1', '25.0', '3', '1', '66.7', '0', '0', '2', '4', '40', '5', '16', '40']"
"['', '9531', '2010-02-04', '01:00:00 GMT', '24', 'EDM', 'Edmonton', 'Oilers', '25', 'MIN', 'Minnesota', 'Wild', '30', 'Xcel Energy Center', '25', 'MIN', 'Minnesota', 'Wild', '1', '0', '0', '0', '0', '0', '2', '45', '17', '72.6', '3', '0', '0.0', '4', '1', '75.0', '0', '0', '4', '2', '32', '4', '8', '20']"
"['', '9550', '2010-02-06', '01:00:00 GMT', '6', 'PHI', 'Philadelphia', 'Flyers', '25', 'MIN', 'Minnesota', 'Wild', '30', 'Xcel Energy Center', '25', 'MIN', 'Minnesota', 'Wild', '1', '0', '0', '0', '0', '0', '2', '28', '36', '43.8', '4', '0', '0.0', '4', '0', '100.0', '0', '0', '2', '1', '28', '5', '10', '19']"
"['', '9571', '2010-02-10', '01:00:00 GMT', '30', 'PHX', 'Phoenix', 'Coyotes', '25', 'MIN', 'Minnesota', 'Wild', '30', 'Xcel Energy Center', '25', 'MIN', 'Minnesota', 'Wild', '0', '1', '0', '0', '0', '0', '0', '22', '31', '41.5', '2', '1', '50.0', '2', '0', '100.0', '0', '0', '2', '3', '29', '2', '4', '24']"
"['', '9586', '2010-02-12', '01:00:00 GMT', '2', 'ATL', 'Atlanta', 'Thrashers', '25', 'MIN', 'Minnesota', 'Wild', '30', 'Xcel Energy Center', '25', 'MIN', 'Minnesota', 'Wild', '0', '1', '0', '0', '0', '0', '0', '35', '37', '48.6', '3', '1', '33.3', '6', '1', '83.3', '0', '0', '2', '3', '36', '8', '16', '32']"
"['', '9601', '2010-02-14', '20:00:00 GMT', '21', 'VAN', 'Vancouver', 'Canucks', '25', 'MIN', 'Minnesota', 'Wild', '30', 'Xcel Energy Center', '25', 'MIN', 'Minnesota', 'Wild', '1', '0', '0', '0', '0', '0', '2', '44', '23', '65.7', '7', '4', '57.1', '1', '0', '100.0', '0', '0', '6', '2', '35', '4', '14', '31']"
"['', '9621', '2010-03-03', '03:00:00 GMT', '25', 'MIN', 'Minnesota', 'Wild', '23', 'CGY', 'Calgary', 'Flames', '18', 'Pengrowth Saddledome', '25', 'MIN', 'Minnesota', 'Wild', '1', '0', '0', '0', '0', '0', '2', '37', '20', '64.9', '0', '0', '0.0', '2', '0', '100.0', '0', '0', '4', '0', '17', '2', '4', '10']"
"['', '9636', '2010-03-05', '02:00:00 GMT', '25', 'MIN', 'Minnesota', 'Wild', '24', 'EDM', 'Edmonton', 'Oilers', '22', 'Rogers Place', '25', 'MIN', 'Minnesota', 'Wild', '0', '0', '0', '1', '0', '0', '1', '38', '26', '59.4', '3', '0', '0.0', '2', '0', '100.0', '0', '0', '1', '1', '28', '4', '8', '17']"
"['', '9649', '2010-03-07', '20:00:00 GMT', '23', 'CGY', 'Calgary', 'Flames', '25', 'MIN', 'Minnesota', 'Wild', '30', 'Xcel Energy Center', '25', 'MIN', 'Minnesota', 'Wild', '0', '1', '0', '0', '0', '0', '0', '36', '24', '60.0', '3', '1', '33.3', '5', '2', '60.0', '0', '0', '2', '5', '27', '5', '10', '25']"
"['', '9663', '2010-03-09', '01:00:00 GMT', '4', 'FLO', 'Florida', 'Panthers', '25', 'MIN', 'Minnesota', 'Wild', '30', 'Xcel Energy Center', '25', 'MIN', 'Minnesota', 'Wild', '0', '0', '0', '1', '0', '0', '1', '25', '30', '45.5', '1', '1', '100.0', '4', '0', '100.0', '0', '0', '2', '2', '9', '5', '10', '15']"
"['', '9677', '2010-03-11', '00:30:00 GMT', '25', 'MIN', 'Minnesota', 'Wild', '16', 'DET', 'Detroit', 'Red Wings', '11', 'Joe Louis Arena', '25', 'MIN', 'Minnesota', 'Wild', '0', '1', '0', '0', '0', '0', '0', '31', '28', '52.5', '4', '0', '0.0', '5', '1', '80.0', '0', '1', '1', '5', '21', '6', '12', '23']"
"['', '9684', '2010-03-12', '00:30:00 GMT', '25', 'MIN', 'Minnesota', 'Wild', '15', 'BUF', 'Buffalo', 'Sabres', '10', 'HSBC Arena', '25', 'MIN', 'Minnesota', 'Wild', '1', '0', '0', '0', '0', '0', '2', '27', '43', '38.6', '2', '1', '50.0', '6', '1', '83.3', '0', '0', '3', '2', '30', '8', '19', '9']"
"['', '9703', '2010-03-14', '22:00:00 GMT', '17', 'STL', 'St. Louis', 'Blues', '25', 'MIN', 'Minnesota', 'Wild', '30', 'Xcel Energy Center', '25', 'MIN', 'Minnesota', 'Wild', '1', '0', '0', '0', '0', '0', '2', '34', '32', '51.5', '1', '1', '100.0', '6', '1', '83.3', '0', '0', '4', '2', '16', '8', '19', '14']"
"['', '9718', '2010-03-16', '00:00:00 GMT', '24', 'EDM', 'Edmonton', 'Oilers', '25', 'MIN', 'Minnesota', 'Wild', '30', 'Xcel Energy Center', '25', 'MIN', 'Minnesota', 'Wild', '1', '0', '0', '0', '0', '0', '2', '39', '32', '54.9', '3', '0', '0.0', '3', '1', '66.7', '0', '0', '4', '2', '24', '6', '12', '19']"
"['', '9731', '2010-03-18', '00:00:00 GMT', '25', 'MIN', 'Minnesota', 'Wild', '18', 'NSH', 'Nashville', 'Predators', '15', 'Sommet Center', '25', 'MIN', 'Minnesota', 'Wild', '0', '1', '0', '0', '0', '0', '0', '25', '42', '37.3', '2', '0', '0.0', '3', '1', '66.7', '0', '0', '0', '5', '17', '3', '6', '16']"
"['', '9735', '2010-03-19', '23:00:00 GMT', '25', 'MIN', 'Minnesota', 'Wild', '19', 'CBJ', 'Columbus', 'Blue Jackets', '17', 'Nationwide Arena', '25', 'MIN', 'Minnesota', 'Wild', '0', '1', '0', '0', '0', '0', '0', '15', '32', '31.9', '3', '0', '0.0', '3', '0', '100.0', '0', '0', '2', '4', '18', '5', '10', '18']"
"['', '9751', '2010-03-21', '19:00:00 GMT', '23', 'CGY', 'Calgary', 'Flames', '25', 'MIN', 'Minnesota', 'Wild', '30', 'Xcel Energy Center', '25', 'MIN', 'Minnesota', 'Wild', '1', '0', '0', '0', '0', '0', '2', '29', '37', '43.9', '2', '1', '50.0', '1', '1', '0.0', '0', '0', '4', '3', '17', '1', '2', '8']"
"['', '9768', '2010-03-23', '00:00:00 GMT', '26', 'SJS', 'San Jose', 'Sharks', '25', 'MIN', 'Minnesota', 'Wild', '30', 'Xcel Energy Center', '25', 'MIN', 'Minnesota', 'Wild', '0', '1', '0', '0', '0', '0', '0', '22', '31', '41.5', '4', '1', '25.0', '4', '0', '100.0', '0', '0', '1', '4', '18', '5', '10', '15']"
"['', '9782', '2010-03-25', '23:00:00 GMT', '25', 'MIN', 'Minnesota', 'Wild', '6', 'PHI', 'Philadelphia', 'Flyers', '29', 'Wachovia Center', '25', 'MIN', 'Minnesota', 'Wild', '1', '0', '0', '0', '0', '0', '2', '23', '31', '42.6', '1', '1', '100.0', '3', '0', '100.0', '0', '0', '4', '3', '17', '5', '10', '29']"
"['', '9790', '2010-03-26', '23:30:00 GMT', '25', 'MIN', 'Minnesota', 'Wild', '16', 'DET', 'Detroit', 'Red Wings', '11', 'Joe Louis Arena', '25', 'MIN', 'Minnesota', 'Wild', '0', '1', '0', '0', '0', '0', '0', '33', '33', '50.0', '4', '1', '25.0', '9', '2', '77.8', '0', '1', '2', '6', '25', '10', '20', '33']"
"['', '9813', '2010-03-29', '01:00:00 GMT', '28', 'LAK', 'Los Angeles', 'Kings', '25', 'MIN', 'Minnesota', 'Wild', '30', 'Xcel Energy Center', '25', 'MIN', 'Minnesota', 'Wild', '1', '0', '0', '0', '0', '0', '2', '31', '29', '51.7', '3', '2', '66.7', '3', '0', '100.0', '0', '0', '3', '2', '17', '5', '10', '20']"
"['', '9827', '2010-03-31', '00:00:00 GMT', '20', 'CHI', 'Chicago', 'Blackhawks', '25', 'MIN', 'Minnesota', 'Wild', '30', 'Xcel Energy Center', '25', 'MIN', 'Minnesota', 'Wild', '0', '1', '0', '0', '0', '0', '0', '34', '32', '51.5', '3', '0', '0.0', '1', '0', '100.0', '0', '0', '0', '4', '21', '1', '2', '22']"
"['', '9842', '2010-04-02', '00:00:00 GMT', '26', 'SJS', 'San Jose', 'Sharks', '25', 'MIN', 'Minnesota', 'Wild', '30', 'Xcel Energy Center', '25', 'MIN', 'Minnesota', 'Wild', '0', '1', '0', '0', '0', '0', '0', '24', '27', '47.1', '6', '1', '16.7', '2', '0', '100.0', '0', '0', '2', '3', '26', '3', '6', '34']"
"['', '9860', '2010-04-04', '02:00:00 GMT', '25', 'MIN', 'Minnesota', 'Wild', '21', 'VAN', 'Vancouver', 'Canucks', '7', 'General Motors Place', '25', 'MIN', 'Minnesota', 'Wild', '0', '0', '0', '1', '0', '0', '1', '25', '29', '46.3', '7', '1', '14.3', '7', '2', '71.4', '0', '1', '3', '4', '24', '7', '14', '15']"
"['', '9863', '2010-04-05', '01:30:00 GMT', '25', 'MIN', 'Minnesota', 'Wild', '24', 'EDM', 'Edmonton', 'Oilers', '22', 'Rogers Place', '25', 'MIN', 'Minnesota', 'Wild', '0', '1', '0', '0', '0', '0', '0', '24', '25', '49.0', '2', '0', '0.0', '4', '1', '75.0', '0', '1', '1', '4', '25', '6', '23', '18']"
"['', '9886', '2010-04-08', '01:30:00 GMT', '25', 'MIN', 'Minnesota', 'Wild', '23', 'CGY', 'Calgary', 'Flames', '18', 'Pengrowth Saddledome', '25', 'MIN', 'Minnesota', 'Wild', '1', '0', '0', '0', '0', '0', '2', '27', '25', '51.9', '4', '1', '25.0', '5', '0', '100.0', '0', '0', '1', '1', '23', '6', '12', '18']"
"['', '9902', '2010-04-10', '00:00:00 GMT', '27', 'DAL', 'Dallas', 'Stars', '25', 'MIN', 'Minnesota', 'Wild', '30', 'Xcel Energy Center', '25', 'MIN', 'Minnesota', 'Wild', '0', '0', '0', '1', '0', '0', '1', '29', '22', '56.9', '3', '1', '33.3', '3', '1', '66.7', '0', '0', '3', '3', '24', '6', '23', '32']"
