"['#Date/Time of Update: 2018-12-10 19:03:24 GMT', '#Game ID', '#Game Date', '#Game Time', '#Away Team ID', '#Away Team Abbr.', '#Away Team City', '#Away Team Name', '#Home Team ID', '#Home Team Abbr.', '#Home Team City', '#Home Team Name', '#Venue ID', '#Venue Name', '#Team ID', '#Team Abbr.', '#Team City', '#Team Name', '#Wins', '#Losses', '#OvertimeWins', '#OvertimeLosses', '#Points', '#FaceoffWins', '#FaceoffLosses', '#FaceoffPercent', '#Powerplays', '#PowerplayGoals', '#PowerplayPercent', '#PenaltyKills', '#PenaltyKillGoalsAllowed', '#PenaltyKillPercent', '#ShorthandedGoalsFor', '#ShorthandedGoalsAgainst', '#GoalsFor', '#GoalsAgainst', '#Shots', '#BlockedShots', '#Penalties', '#PenaltyMinutes', '#Hits']"
"['', '40777', '2017-10-04', '02:30:00 GMT', '6', 'PHI', 'Philadelphia', 'Flyers', '26', 'SJS', 'San Jose', 'Sharks', '9', 'SAP Center at San Jose', '6', 'PHI', 'Philadelphia', 'Flyers', '1', '0', '0', '0', '2', '30', '28', '51.7', '5', '3', '60.0', '6', '2', '66.7', '0', '0', '5', '3', '31', '17', '6', '12', '21']"
"['', '40785', '2017-10-05', '02:00:00 GMT', '6', 'PHI', 'Philadelphia', 'Flyers', '28', 'LAK', 'Los Angeles', 'Kings', '25', 'Staples Center', '6', 'PHI', 'Philadelphia', 'Flyers', '0', '1', '0', '0', '0', '35', '38', '47.9', '5', '0', '0.0', '5', '0', '100.0', '0', '0', '0', '2', '35', '13', '4', '10', '19']"
"['', '40802', '2017-10-07', '02:00:00 GMT', '6', 'PHI', 'Philadelphia', 'Flyers', '29', 'ANA', 'Anaheim', 'Ducks', '8', 'Honda Center', '6', 'PHI', 'Philadelphia', 'Flyers', '1', '0', '0', '0', '2', '28', '28', '50.0', '5', '0', '0.0', '2', '0', '100.0', '0', '1', '3', '2', '37', '12', '3', '6', '17']"
"['', '40815', '2017-10-10', '00:00:00 GMT', '6', 'PHI', 'Philadelphia', 'Flyers', '18', 'NSH', 'Nashville', 'Predators', '15', 'Bridgestone Arena', '6', 'PHI', 'Philadelphia', 'Flyers', '0', '1', '0', '0', '0', '28', '44', '38.9', '5', '2', '40.0', '3', '3', '0.0', '0', '0', '5', '6', '30', '14', '6', '12', '13']"
"['', '40841', '2017-10-14', '23:00:00 GMT', '5', 'WSH', 'Washington', 'Capitals', '6', 'PHI', 'Philadelphia', 'Flyers', '29', 'Wells Fargo Center', '6', 'PHI', 'Philadelphia', 'Flyers', '1', '0', '0', '0', '2', '32', '28', '53.3', '2', '1', '50.0', '2', '0', '100.0', '1', '0', '8', '2', '37', '16', '3', '14', '23']"
"['', '40855', '2017-10-17', '23:00:00 GMT', '4', 'FLO', 'Florida', 'Panthers', '6', 'PHI', 'Philadelphia', 'Flyers', '29', 'Wells Fargo Center', '6', 'PHI', 'Philadelphia', 'Flyers', '1', '0', '0', '0', '2', '37', '28', '56.9', '4', '1', '25.0', '6', '1', '83.3', '0', '0', '5', '1', '38', '22', '7', '17', '13']"
"['', '40869', '2017-10-19', '23:00:00 GMT', '18', 'NSH', 'Nashville', 'Predators', '6', 'PHI', 'Philadelphia', 'Flyers', '29', 'Wells Fargo Center', '6', 'PHI', 'Philadelphia', 'Flyers', '0', '1', '0', '0', '0', '26', '22', '54.2', '5', '0', '0.0', '2', '0', '100.0', '0', '0', '0', '1', '28', '17', '2', '4', '12']"
"['', '40883', '2017-10-21', '17:00:00 GMT', '24', 'EDM', 'Edmonton', 'Oilers', '6', 'PHI', 'Philadelphia', 'Flyers', '29', 'Wells Fargo Center', '6', 'PHI', 'Philadelphia', 'Flyers', '1', '0', '0', '0', '2', '29', '23', '55.8', '2', '1', '50.0', '4', '0', '100.0', '0', '0', '2', '1', '24', '21', '3', '6', '18']"
"['', '40900', '2017-10-24', '23:00:00 GMT', '29', 'ANA', 'Anaheim', 'Ducks', '6', 'PHI', 'Philadelphia', 'Flyers', '29', 'Wells Fargo Center', '6', 'PHI', 'Philadelphia', 'Flyers', '0', '1', '0', '0', '0', '34', '27', '55.7', '6', '0', '0.0', '3', '1', '66.7', '0', '0', '2', '6', '33', '19', '6', '15', '21']"
"['', '40918', '2017-10-26', '23:30:00 GMT', '6', 'PHI', 'Philadelphia', 'Flyers', '13', 'OTT', 'Ottawa', 'Senators', '23', 'Canadian Tire Centre', '6', 'PHI', 'Philadelphia', 'Flyers', '0', '1', '0', '0', '0', '26', '37', '41.3', '2', '0', '0.0', '4', '1', '75.0', '0', '1', '4', '5', '40', '13', '4', '19', '17']"
"['', '40929', '2017-10-28', '23:00:00 GMT', '6', 'PHI', 'Philadelphia', 'Flyers', '12', 'TOR', 'Toronto', 'Maple Leafs', '1', 'Air Canada Center', '6', 'PHI', 'Philadelphia', 'Flyers', '1', '0', '0', '0', '2', '31', '34', '47.7', '1', '1', '100.0', '3', '0', '100.0', '0', '0', '4', '2', '30', '15', '3', '6', '32']"
"['', '40945', '2017-10-30', '23:00:00 GMT', '30', 'ARI', 'Arizona', 'Coyotes', '6', 'PHI', 'Philadelphia', 'Flyers', '29', 'Wells Fargo Center', '6', 'PHI', 'Philadelphia', 'Flyers', '0', '0', '0', '1', '1', '41', '31', '56.9', '1', '1', '100.0', '3', '1', '66.7', '0', '0', '3', '4', '31', '16', '4', '10', '26']"
"['', '40954', '2017-11-01', '00:00:00 GMT', '6', 'PHI', 'Philadelphia', 'Flyers', '20', 'CHI', 'Chicago', 'Blackhawks', '28', 'United Center', '6', 'PHI', 'Philadelphia', 'Flyers', '0', '1', '0', '0', '0', '35', '26', '57.4', '3', '0', '0.0', '4', '1', '75.0', '0', '0', '0', '3', '35', '11', '5', '13', '26']"
"['', '40965', '2017-11-02', '00:00:00 GMT', '6', 'PHI', 'Philadelphia', 'Flyers', '17', 'STL', 'St. Louis', 'Blues', '24', 'Scottrade Center', '6', 'PHI', 'Philadelphia', 'Flyers', '1', '0', '0', '0', '2', '26', '25', '51.0', '2', '0', '0.0', '2', '0', '100.0', '0', '0', '2', '0', '23', '20', '3', '6', '22']"
"['', '40978', '2017-11-04', '23:00:00 GMT', '22', 'COL', 'Colorado', 'Avalanche', '6', 'PHI', 'Philadelphia', 'Flyers', '29', 'Wells Fargo Center', '6', 'PHI', 'Philadelphia', 'Flyers', '0', '0', '0', '1', '1', '39', '26', '60.0', '6', '1', '16.7', '3', '2', '33.3', '0', '1', '4', '4', '37', '11', '3', '6', '24']"
"['', '41008', '2017-11-09', '00:00:00 GMT', '20', 'CHI', 'Chicago', 'Blackhawks', '6', 'PHI', 'Philadelphia', 'Flyers', '29', 'Wells Fargo Center', '6', 'PHI', 'Philadelphia', 'Flyers', '1', '0', '0', '0', '2', '49', '24', '67.1', '2', '0', '0.0', '4', '0', '100.0', '0', '0', '3', '1', '31', '16', '5', '10', '19']"
"['', '41029', '2017-11-11', '00:00:00 GMT', '25', 'MIN', 'Minnesota', 'Wild', '6', 'PHI', 'Philadelphia', 'Flyers', '29', 'Wells Fargo Center', '6', 'PHI', 'Philadelphia', 'Flyers', '0', '1', '0', '0', '0', '26', '26', '50.0', '3', '0', '0.0', '3', '0', '100.0', '0', '0', '0', '1', '32', '12', '3', '6', '19']"
"['', '41043', '2017-11-14', '01:00:00 GMT', '6', 'PHI', 'Philadelphia', 'Flyers', '25', 'MIN', 'Minnesota', 'Wild', '30', 'Xcel Energy Center', '6', 'PHI', 'Philadelphia', 'Flyers', '0', '1', '0', '0', '0', '27', '18', '60.0', '2', '0', '0.0', '1', '0', '100.0', '0', '0', '0', '3', '30', '8', '1', '2', '8']"
"['', '41057', '2017-11-16', '01:00:00 GMT', '6', 'PHI', 'Philadelphia', 'Flyers', '2', 'WPJ', 'Winnipeg', 'Jets', '39', 'Bell MTS Place', '6', 'PHI', 'Philadelphia', 'Flyers', '0', '0', '0', '1', '1', '33', '39', '45.8', '5', '1', '20.0', '6', '1', '83.3', '0', '0', '2', '2', '32', '7', '7', '25', '20']"
"['', '41065', '2017-11-18', '18:00:00 GMT', '23', 'CGY', 'Calgary', 'Flames', '6', 'PHI', 'Philadelphia', 'Flyers', '29', 'Wells Fargo Center', '6', 'PHI', 'Philadelphia', 'Flyers', '0', '0', '0', '1', '1', '26', '36', '41.9', '3', '1', '33.3', '5', '3', '40.0', '0', '0', '4', '5', '39', '17', '6', '12', '21']"
"['', '41089', '2017-11-21', '00:00:00 GMT', '21', 'VAN', 'Vancouver', 'Canucks', '6', 'PHI', 'Philadelphia', 'Flyers', '29', 'Wells Fargo Center', '6', 'PHI', 'Philadelphia', 'Flyers', '0', '1', '0', '0', '0', '43', '28', '60.6', '2', '0', '0.0', '3', '2', '33.3', '0', '0', '2', '5', '38', '11', '3', '6', '21']"
"['', '41097', '2017-11-22', '00:00:00 GMT', '6', 'PHI', 'Philadelphia', 'Flyers', '8', 'NYI', 'New York', 'Islanders', '16', 'Nassau Veterans Memorial Coliseum', '6', 'PHI', 'Philadelphia', 'Flyers', '0', '0', '0', '1', '1', '32', '35', '47.8', '2', '1', '50.0', '5', '2', '60.0', '0', '0', '3', '4', '38', '20', '5', '10', '19']"
"['', '41109', '2017-11-24', '21:00:00 GMT', '8', 'NYI', 'New York', 'Islanders', '6', 'PHI', 'Philadelphia', 'Flyers', '29', 'Wells Fargo Center', '6', 'PHI', 'Philadelphia', 'Flyers', '0', '0', '0', '1', '1', '37', '21', '63.8', '1', '0', '0.0', '3', '1', '66.7', '0', '0', '4', '5', '30', '16', '4', '8', '35']"
"['', '41135', '2017-11-27', '00:00:00 GMT', '6', 'PHI', 'Philadelphia', 'Flyers', '10', 'PIT', 'Pittsburgh', 'Penguins', '40', 'PPG Paints Arena', '6', 'PHI', 'Philadelphia', 'Flyers', '0', '0', '0', '1', '1', '40', '29', '58.0', '4', '1', '25.0', '5', '1', '80.0', '0', '0', '4', '5', '32', '10', '5', '10', '19']"
"['', '41143', '2017-11-28', '00:00:00 GMT', '26', 'SJS', 'San Jose', 'Sharks', '6', 'PHI', 'Philadelphia', 'Flyers', '29', 'Wells Fargo Center', '6', 'PHI', 'Philadelphia', 'Flyers', '0', '1', '0', '0', '0', '31', '26', '54.4', '2', '0', '0.0', '5', '1', '80.0', '0', '0', '1', '3', '23', '22', '6', '12', '34']"
"['', '41169', '2017-12-02', '18:00:00 GMT', '11', 'BOS', 'Boston', 'Bruins', '6', 'PHI', 'Philadelphia', 'Flyers', '29', 'Wells Fargo Center', '6', 'PHI', 'Philadelphia', 'Flyers', '0', '1', '0', '0', '0', '22', '19', '53.7', '6', '0', '0.0', '2', '0', '100.0', '0', '0', '0', '3', '28', '13', '3', '9', '19']"
"['', '41188', '2017-12-04', '02:00:00 GMT', '6', 'PHI', 'Philadelphia', 'Flyers', '23', 'CGY', 'Calgary', 'Flames', '18', 'Scotiabank Saddledome', '6', 'PHI', 'Philadelphia', 'Flyers', '1', '0', '0', '0', '2', '35', '25', '58.3', '3', '1', '33.3', '2', '0', '100.0', '0', '0', '5', '2', '21', '19', '2', '4', '10']"
"['', '41201', '2017-12-06', '02:30:00 GMT', '6', 'PHI', 'Philadelphia', 'Flyers', '24', 'EDM', 'Edmonton', 'Oilers', '22', 'Rogers Place', '6', 'PHI', 'Philadelphia', 'Flyers', '1', '0', '0', '0', '2', '26', '40', '39.4', '4', '1', '25.0', '2', '0', '100.0', '0', '1', '4', '2', '33', '13', '2', '4', '21']"
"['', '41209', '2017-12-07', '03:00:00 GMT', '6', 'PHI', 'Philadelphia', 'Flyers', '21', 'VAN', 'Vancouver', 'Canucks', '7', 'Rogers Arena', '6', 'PHI', 'Philadelphia', 'Flyers', '1', '0', '0', '0', '2', '29', '32', '47.5', '6', '2', '33.3', '2', '0', '100.0', '0', '0', '4', '1', '26', '18', '2', '4', '12']"
"['', '41240', '2017-12-12', '00:00:00 GMT', '12', 'TOR', 'Toronto', 'Maple Leafs', '6', 'PHI', 'Philadelphia', 'Flyers', '29', 'Wells Fargo Center', '6', 'PHI', 'Philadelphia', 'Flyers', '1', '0', '0', '0', '2', '31', '24', '56.4', '1', '0', '0.0', '1', '1', '0.0', '0', '0', '4', '2', '39', '11', '1', '2', '22']"
"['', '41253', '2017-12-14', '00:00:00 GMT', '15', 'BUF', 'Buffalo', 'Sabres', '6', 'PHI', 'Philadelphia', 'Flyers', '29', 'Wells Fargo Center', '6', 'PHI', 'Philadelphia', 'Flyers', '1', '0', '0', '0', '2', '30', '25', '54.5', '2', '0', '0.0', '1', '0', '100.0', '0', '0', '2', '1', '27', '19', '1', '2', '30']"
"['', '41274', '2017-12-16', '00:00:00 GMT', '27', 'DAL', 'Dallas', 'Stars', '6', 'PHI', 'Philadelphia', 'Flyers', '29', 'Wells Fargo Center', '6', 'PHI', 'Philadelphia', 'Flyers', '1', '0', '0', '0', '2', '30', '24', '55.6', '7', '2', '28.6', '1', '0', '100.0', '0', '0', '2', '1', '30', '14', '3', '6', '27']"
"['', '41285', '2017-12-18', '00:00:00 GMT', '28', 'LAK', 'Los Angeles', 'Kings', '6', 'PHI', 'Philadelphia', 'Flyers', '29', 'Wells Fargo Center', '6', 'PHI', 'Philadelphia', 'Flyers', '0', '1', '0', '0', '0', '26', '24', '52.0', '6', '1', '16.7', '2', '0', '100.0', '0', '0', '1', '4', '37', '10', '3', '6', '27']"
"['', '41300', '2017-12-20', '01:00:00 GMT', '16', 'DET', 'Detroit', 'Red Wings', '6', 'PHI', 'Philadelphia', 'Flyers', '29', 'Wells Fargo Center', '6', 'PHI', 'Philadelphia', 'Flyers', '1', '0', '0', '0', '2', '39', '30', '56.5', '1', '1', '100.0', '3', '2', '33.3', '0', '0', '4', '3', '31', '15', '3', '8', '22']"
"['', '41312', '2017-12-22', '00:00:00 GMT', '6', 'PHI', 'Philadelphia', 'Flyers', '15', 'BUF', 'Buffalo', 'Sabres', '10', 'KeyBank Center', '6', 'PHI', 'Philadelphia', 'Flyers', '0', '1', '0', '0', '0', '31', '34', '47.7', '5', '1', '20.0', '2', '0', '100.0', '0', '0', '2', '4', '35', '10', '2', '4', '17']"
"['', '41320', '2017-12-23', '00:00:00 GMT', '6', 'PHI', 'Philadelphia', 'Flyers', '19', 'CBJ', 'Columbus', 'Blue Jackets', '17', 'Nationwide Arena', '6', 'PHI', 'Philadelphia', 'Flyers', '0', '0', '0', '1', '1', '39', '30', '56.5', '3', '0', '0.0', '3', '1', '66.7', '0', '0', '1', '1', '31', '14', '3', '6', '9']"
"['', '41344', '2017-12-28', '00:30:00 GMT', '6', 'PHI', 'Philadelphia', 'Flyers', '4', 'FLO', 'Florida', 'Panthers', '3', 'BB&T Center', '6', 'PHI', 'Philadelphia', 'Flyers', '0', '1', '0', '0', '0', '26', '32', '44.8', '4', '0', '0.0', '4', '0', '100.0', '0', '1', '2', '3', '31', '18', '6', '15', '23']"
"['', '41350', '2017-12-29', '00:30:00 GMT', '6', 'PHI', 'Philadelphia', 'Flyers', '1', 'TBL', 'Tampa Bay', 'Lightning', '26', 'Amalie Arena', '6', 'PHI', 'Philadelphia', 'Flyers', '1', '0', '0', '0', '2', '35', '27', '56.5', '6', '2', '33.3', '3', '1', '66.7', '0', '1', '5', '3', '38', '21', '3', '6', '14']"
"['', '41377', '2018-01-02', '00:00:00 GMT', '10', 'PIT', 'Pittsburgh', 'Penguins', '6', 'PHI', 'Philadelphia', 'Flyers', '29', 'Wells Fargo Center', '6', 'PHI', 'Philadelphia', 'Flyers', '0', '1', '0', '0', '0', '32', '26', '55.2', '4', '0', '0.0', '2', '2', '0.0', '0', '0', '1', '5', '28', '14', '3', '9', '26']"
"['', '41391', '2018-01-04', '00:00:00 GMT', '8', 'NYI', 'New York', 'Islanders', '6', 'PHI', 'Philadelphia', 'Flyers', '29', 'Wells Fargo Center', '6', 'PHI', 'Philadelphia', 'Flyers', '1', '0', '0', '0', '2', '31', '31', '50.0', '6', '3', '50.0', '1', '1', '0.0', '0', '0', '6', '4', '32', '17', '6', '29', '23']"
"['', '41406', '2018-01-06', '18:00:00 GMT', '17', 'STL', 'St. Louis', 'Blues', '6', 'PHI', 'Philadelphia', 'Flyers', '29', 'Wells Fargo Center', '6', 'PHI', 'Philadelphia', 'Flyers', '1', '0', '0', '0', '2', '38', '25', '60.3', '4', '1', '25.0', '1', '0', '100.0', '0', '0', '6', '3', '39', '9', '1', '2', '20']"
"['', '41415', '2018-01-07', '18:00:00 GMT', '15', 'BUF', 'Buffalo', 'Sabres', '6', 'PHI', 'Philadelphia', 'Flyers', '29', 'Wells Fargo Center', '6', 'PHI', 'Philadelphia', 'Flyers', '1', '0', '0', '0', '2', '32', '34', '48.5', '3', '1', '33.3', '3', '1', '66.7', '0', '0', '4', '1', '29', '11', '4', '8', '21']"
"['', '41446', '2018-01-13', '00:00:00 GMT', '6', 'PHI', 'Philadelphia', 'Flyers', '7', 'NJD', 'New Jersey', 'Devils', '37', 'Prudential Center', '6', 'PHI', 'Philadelphia', 'Flyers', '1', '0', '0', '0', '2', '32', '31', '50.8', '2', '2', '100.0', '7', '2', '71.4', '0', '0', '5', '3', '25', '7', '7', '14', '29']"
"['', '41461', '2018-01-16', '00:00:00 GMT', '6', 'PHI', 'Philadelphia', 'Flyers', '9', 'NYR', 'New York', 'Rangers', '12', 'Madison Square Garden', '6', 'PHI', 'Philadelphia', 'Flyers', '0', '1', '0', '0', '0', '29', '26', '52.7', '3', '0', '0.0', '2', '1', '50.0', '0', '1', '1', '5', '26', '6', '2', '4', '20']"
"['', '41472', '2018-01-18', '00:00:00 GMT', '12', 'TOR', 'Toronto', 'Maple Leafs', '6', 'PHI', 'Philadelphia', 'Flyers', '29', 'Wells Fargo Center', '6', 'PHI', 'Philadelphia', 'Flyers', '1', '0', '0', '0', '2', '36', '28', '56.2', '2', '0', '0.0', '2', '0', '100.0', '1', '0', '3', '2', '37', '19', '2', '4', '25']"
"['', '41482', '2018-01-20', '18:00:00 GMT', '7', 'NJD', 'New Jersey', 'Devils', '6', 'PHI', 'Philadelphia', 'Flyers', '29', 'Wells Fargo Center', '6', 'PHI', 'Philadelphia', 'Flyers', '1', '0', '0', '0', '2', '27', '19', '58.7', '4', '0', '0.0', '5', '1', '80.0', '0', '0', '3', '1', '31', '17', '6', '15', '29']"
"['', '41494', '2018-01-21', '17:30:00 GMT', '6', 'PHI', 'Philadelphia', 'Flyers', '5', 'WSH', 'Washington', 'Capitals', '13', 'Capital One Arena', '6', 'PHI', 'Philadelphia', 'Flyers', '1', '0', '0', '0', '2', '30', '26', '53.6', '3', '0', '0.0', '3', '1', '66.7', '0', '0', '2', '1', '23', '19', '4', '8', '18']"
"['', '41508', '2018-01-23', '00:30:00 GMT', '6', 'PHI', 'Philadelphia', 'Flyers', '16', 'DET', 'Detroit', 'Red Wings', '145', 'Little Caesars Arena', '6', 'PHI', 'Philadelphia', 'Flyers', '1', '0', '0', '0', '2', '27', '24', '52.9', '2', '1', '50.0', '2', '0', '100.0', '0', '0', '3', '2', '31', '17', '2', '4', '18']"
"['', '41519', '2018-01-25', '00:00:00 GMT', '1', 'TBL', 'Tampa Bay', 'Lightning', '6', 'PHI', 'Philadelphia', 'Flyers', '29', 'Wells Fargo Center', '6', 'PHI', 'Philadelphia', 'Flyers', '0', '1', '0', '0', '0', '28', '34', '45.2', '4', '1', '25.0', '2', '0', '100.0', '0', '1', '1', '5', '37', '12', '2', '12', '25']"
"['', '41547', '2018-01-31', '01:00:00 GMT', '6', 'PHI', 'Philadelphia', 'Flyers', '5', 'WSH', 'Washington', 'Capitals', '13', 'Capital One Arena', '6', 'PHI', 'Philadelphia', 'Flyers', '0', '1', '0', '0', '0', '36', '26', '58.1', '1', '0', '0.0', '3', '2', '33.3', '0', '0', '3', '5', '30', '15', '4', '11', '18']"
"['', '41549', '2018-02-01', '00:00:00 GMT', '6', 'PHI', 'Philadelphia', 'Flyers', '7', 'NJD', 'New Jersey', 'Devils', '37', 'Prudential Center', '6', 'PHI', 'Philadelphia', 'Flyers', '0', '1', '0', '0', '0', '30', '25', '54.5', '3', '2', '66.7', '4', '2', '50.0', '0', '0', '3', '4', '25', '10', '7', '20', '21']"
"['', '41565', '2018-02-03', '18:00:00 GMT', '13', 'OTT', 'Ottawa', 'Senators', '6', 'PHI', 'Philadelphia', 'Flyers', '29', 'Wells Fargo Center', '6', 'PHI', 'Philadelphia', 'Flyers', '0', '0', '0', '1', '1', '30', '33', '47.6', '3', '0', '0.0', '2', '0', '100.0', '0', '0', '3', '3', '36', '8', '5', '10', '20']"
"['', '41587', '2018-02-06', '00:00:00 GMT', '6', 'PHI', 'Philadelphia', 'Flyers', '3', 'CAR', 'Carolina', 'Hurricanes', '21', 'PNC Arena', '6', 'PHI', 'Philadelphia', 'Flyers', '1', '0', '0', '0', '2', '23', '23', '50.0', '5', '0', '0.0', '4', '1', '75.0', '0', '0', '2', '1', '30', '28', '3', '8', '18']"
"['', '41599', '2018-02-08', '00:00:00 GMT', '14', 'MTL', 'Montreal', 'Canadiens', '6', 'PHI', 'Philadelphia', 'Flyers', '29', 'Wells Fargo Center', '6', 'PHI', 'Philadelphia', 'Flyers', '1', '0', '0', '0', '2', '37', '20', '64.9', '4', '2', '50.0', '3', '1', '66.7', '0', '1', '5', '3', '28', '16', '4', '8', '22']"
"['', '41623', '2018-02-10', '01:00:00 GMT', '6', 'PHI', 'Philadelphia', 'Flyers', '30', 'ARI', 'Arizona', 'Coyotes', '6', 'Gila River Arena', '6', 'PHI', 'Philadelphia', 'Flyers', '1', '0', '0', '0', '2', '32', '29', '52.5', '4', '2', '50.0', '2', '0', '100.0', '0', '0', '3', '3', '43', '17', '3', '6', '18']"
"['', '41632', '2018-02-11', '01:00:00 GMT', '6', 'PHI', 'Philadelphia', 'Flyers', '142', 'VGK', 'Vegas', 'Golden Knights', '139', 'T-Mobile Arena', '6', 'PHI', 'Philadelphia', 'Flyers', '1', '0', '0', '0', '2', '38', '26', '59.4', '0', '0', '0.0', '1', '0', '100.0', '0', '0', '4', '1', '18', '10', '1', '2', '17']"
"['', '41638', '2018-02-13', '00:00:00 GMT', '7', 'NJD', 'New Jersey', 'Devils', '6', 'PHI', 'Philadelphia', 'Flyers', '29', 'Wells Fargo Center', '6', 'PHI', 'Philadelphia', 'Flyers', '0', '0', '0', '1', '1', '37', '34', '52.1', '5', '1', '20.0', '3', '0', '100.0', '0', '0', '4', '4', '35', '14', '4', '8', '26']"
"['', '41663', '2018-02-16', '00:00:00 GMT', '6', 'PHI', 'Philadelphia', 'Flyers', '19', 'CBJ', 'Columbus', 'Blue Jackets', '17', 'Nationwide Arena', '6', 'PHI', 'Philadelphia', 'Flyers', '1', '0', '0', '0', '2', '20', '32', '38.5', '1', '0', '0.0', '0', '0', '0.0', '0', '0', '2', '1', '25', '19', '1', '2', '20']"
"['', '41678', '2018-02-18', '17:00:00 GMT', '6', 'PHI', 'Philadelphia', 'Flyers', '9', 'NYR', 'New York', 'Rangers', '12', 'Madison Square Garden', '6', 'PHI', 'Philadelphia', 'Flyers', '1', '0', '0', '0', '2', '38', '28', '57.6', '2', '0', '0.0', '0', '0', '0.0', '0', '0', '7', '4', '37', '9', '3', '15', '20']"
"['', '41691', '2018-02-20', '00:00:00 GMT', '14', 'MTL', 'Montreal', 'Canadiens', '6', 'PHI', 'Philadelphia', 'Flyers', '29', 'Wells Fargo Center', '6', 'PHI', 'Philadelphia', 'Flyers', '1', '0', '0', '0', '2', '29', '22', '56.9', '3', '1', '33.3', '0', '0', '0.0', '0', '0', '3', '2', '33', '16', '1', '5', '16']"
"['', '41703', '2018-02-22', '00:00:00 GMT', '19', 'CBJ', 'Columbus', 'Blue Jackets', '6', 'PHI', 'Philadelphia', 'Flyers', '29', 'Wells Fargo Center', '6', 'PHI', 'Philadelphia', 'Flyers', '1', '0', '0', '0', '2', '33', '19', '63.5', '5', '1', '20.0', '2', '0', '100.0', '0', '0', '2', '1', '20', '14', '2', '4', '26']"
"['', '41718', '2018-02-24', '19:00:00 GMT', '6', 'PHI', 'Philadelphia', 'Flyers', '13', 'OTT', 'Ottawa', 'Senators', '23', 'Canadian Tire Centre', '6', 'PHI', 'Philadelphia', 'Flyers', '1', '0', '0', '0', '2', '30', '20', '60.0', '2', '0', '0.0', '3', '1', '66.7', '0', '0', '5', '3', '39', '19', '4', '8', '22']"
"['', '41738', '2018-02-26', '00:30:00 GMT', '6', 'PHI', 'Philadelphia', 'Flyers', '14', 'MTL', 'Montreal', 'Canadiens', '4', 'Bell Centre', '6', 'PHI', 'Philadelphia', 'Flyers', '1', '0', '0', '0', '2', '38', '19', '66.7', '3', '0', '0.0', '1', '0', '100.0', '0', '0', '0', '0', '33', '16', '3', '6', '18']"
"['', '41755', '2018-03-01', '00:00:00 GMT', '3', 'CAR', 'Carolina', 'Hurricanes', '6', 'PHI', 'Philadelphia', 'Flyers', '29', 'Wells Fargo Center', '6', 'PHI', 'Philadelphia', 'Flyers', '0', '1', '0', '0', '0', '20', '27', '42.6', '2', '0', '0.0', '1', '0', '100.0', '0', '0', '1', '4', '22', '11', '2', '4', '26']"
"['', '41772', '2018-03-03', '18:00:00 GMT', '6', 'PHI', 'Philadelphia', 'Flyers', '1', 'TBL', 'Tampa Bay', 'Lightning', '26', 'Amalie Arena', '6', 'PHI', 'Philadelphia', 'Flyers', '0', '0', '0', '1', '1', '40', '27', '59.7', '5', '1', '20.0', '1', '1', '0.0', '0', '0', '6', '6', '43', '11', '2', '4', '16']"
"['', '41780', '2018-03-04', '20:00:00 GMT', '6', 'PHI', 'Philadelphia', 'Flyers', '4', 'FLO', 'Florida', 'Panthers', '3', 'BB&T Center', '6', 'PHI', 'Philadelphia', 'Flyers', '0', '1', '0', '0', '0', '32', '21', '60.4', '2', '0', '0.0', '5', '1', '80.0', '0', '0', '1', '4', '40', '14', '7', '17', '22']"
"['', '41802', '2018-03-07', '01:00:00 GMT', '10', 'PIT', 'Pittsburgh', 'Penguins', '6', 'PHI', 'Philadelphia', 'Flyers', '29', 'Wells Fargo Center', '6', 'PHI', 'Philadelphia', 'Flyers', '0', '1', '0', '0', '0', '27', '27', '50.0', '5', '0', '0.0', '4', '1', '75.0', '0', '0', '2', '5', '28', '13', '5', '10', '21']"
"['', '41806', '2018-03-08', '00:00:00 GMT', '6', 'PHI', 'Philadelphia', 'Flyers', '11', 'BOS', 'Boston', 'Bruins', '27', 'TD Garden', '6', 'PHI', 'Philadelphia', 'Flyers', '0', '1', '0', '0', '0', '38', '22', '63.3', '5', '1', '20.0', '3', '0', '100.0', '1', '0', '2', '3', '33', '8', '3', '6', '22']"
"['', '41821', '2018-03-10', '18:00:00 GMT', '2', 'WPJ', 'Winnipeg', 'Jets', '6', 'PHI', 'Philadelphia', 'Flyers', '29', 'Wells Fargo Center', '6', 'PHI', 'Philadelphia', 'Flyers', '1', '0', '0', '0', '2', '26', '26', '50.0', '2', '0', '0.0', '4', '1', '75.0', '0', '0', '2', '1', '35', '16', '4', '8', '15']"
"['', '41837', '2018-03-12', '23:00:00 GMT', '142', 'VGK', 'Vegas', 'Golden Knights', '6', 'PHI', 'Philadelphia', 'Flyers', '29', 'Wells Fargo Center', '6', 'PHI', 'Philadelphia', 'Flyers', '0', '1', '0', '0', '0', '36', '24', '60.0', '4', '1', '25.0', '2', '2', '0.0', '0', '0', '2', '3', '40', '11', '2', '4', '19']"
"['', '41857', '2018-03-15', '23:00:00 GMT', '19', 'CBJ', 'Columbus', 'Blue Jackets', '6', 'PHI', 'Philadelphia', 'Flyers', '29', 'Wells Fargo Center', '6', 'PHI', 'Philadelphia', 'Flyers', '0', '1', '0', '0', '0', '28', '20', '58.3', '3', '1', '33.3', '1', '0', '100.0', '0', '0', '3', '5', '30', '22', '1', '2', '23']"
"['', '41873', '2018-03-17', '23:00:00 GMT', '6', 'PHI', 'Philadelphia', 'Flyers', '3', 'CAR', 'Carolina', 'Hurricanes', '21', 'PNC Arena', '6', 'PHI', 'Philadelphia', 'Flyers', '1', '0', '0', '0', '2', '27', '29', '48.2', '2', '0', '0.0', '3', '0', '100.0', '0', '0', '4', '2', '27', '24', '2', '6', '20']"
"['', '41884', '2018-03-18', '21:00:00 GMT', '5', 'WSH', 'Washington', 'Capitals', '6', 'PHI', 'Philadelphia', 'Flyers', '29', 'Wells Fargo Center', '6', 'PHI', 'Philadelphia', 'Flyers', '1', '0', '0', '0', '2', '25', '33', '43.1', '3', '0', '0.0', '3', '0', '100.0', '0', '0', '6', '3', '35', '11', '5', '13', '22']"
"['', '41898', '2018-03-20', '23:30:00 GMT', '6', 'PHI', 'Philadelphia', 'Flyers', '16', 'DET', 'Detroit', 'Red Wings', '145', 'Little Caesars Arena', '6', 'PHI', 'Philadelphia', 'Flyers', '0', '0', '0', '1', '1', '25', '34', '42.4', '4', '2', '50.0', '1', '0', '100.0', '0', '1', '4', '4', '31', '12', '1', '2', '21']"
"['', '41908', '2018-03-22', '23:00:00 GMT', '9', 'NYR', 'New York', 'Rangers', '6', 'PHI', 'Philadelphia', 'Flyers', '29', 'Wells Fargo Center', '6', 'PHI', 'Philadelphia', 'Flyers', '1', '0', '0', '0', '2', '28', '28', '50.0', '2', '0', '0.0', '2', '0', '100.0', '0', '0', '4', '3', '36', '21', '3', '6', '17']"
"['', '41935', '2018-03-25', '16:30:00 GMT', '6', 'PHI', 'Philadelphia', 'Flyers', '10', 'PIT', 'Pittsburgh', 'Penguins', '40', 'PPG Paints Arena', '6', 'PHI', 'Philadelphia', 'Flyers', '0', '0', '0', '1', '1', '34', '22', '60.7', '3', '1', '33.3', '2', '1', '50.0', '0', '0', '4', '5', '45', '10', '2', '4', '21']"
"['', '41955', '2018-03-27', '00:30:00 GMT', '6', 'PHI', 'Philadelphia', 'Flyers', '27', 'DAL', 'Dallas', 'Stars', '2', 'American Airlines Center', '6', 'PHI', 'Philadelphia', 'Flyers', '0', '0', '0', '1', '1', '33', '28', '54.1', '2', '0', '0.0', '2', '1', '50.0', '0', '0', '2', '3', '33', '15', '3', '6', '12']"
"['', '41960', '2018-03-28', '02:00:00 GMT', '6', 'PHI', 'Philadelphia', 'Flyers', '22', 'COL', 'Colorado', 'Avalanche', '19', 'Pepsi Center', '6', 'PHI', 'Philadelphia', 'Flyers', '1', '0', '0', '0', '2', '24', '15', '61.5', '2', '0', '0.0', '3', '0', '100.0', '0', '0', '2', '1', '33', '33', '3', '6', '15']"
"['', '41990', '2018-04-01', '16:30:00 GMT', '11', 'BOS', 'Boston', 'Bruins', '6', 'PHI', 'Philadelphia', 'Flyers', '29', 'Wells Fargo Center', '6', 'PHI', 'Philadelphia', 'Flyers', '1', '0', '0', '0', '2', '24', '27', '47.1', '2', '0', '0.0', '3', '1', '66.7', '0', '0', '4', '3', '24', '16', '3', '6', '20']"
"['', '42001', '2018-04-03', '23:00:00 GMT', '6', 'PHI', 'Philadelphia', 'Flyers', '8', 'NYI', 'New York', 'Islanders', '16', 'Nassau Veterans Memorial Coliseum', '6', 'PHI', 'Philadelphia', 'Flyers', '0', '1', '0', '0', '0', '29', '28', '50.9', '2', '2', '100.0', '3', '1', '66.7', '0', '0', '4', '5', '31', '16', '6', '12', '18']"
"['', '42016', '2018-04-05', '23:00:00 GMT', '3', 'CAR', 'Carolina', 'Hurricanes', '6', 'PHI', 'Philadelphia', 'Flyers', '29', 'Wells Fargo Center', '6', 'PHI', 'Philadelphia', 'Flyers', '1', '0', '0', '0', '2', '29', '29', '50.0', '0', '0', '0.0', '1', '0', '100.0', '0', '0', '4', '3', '34', '18', '3', '6', '17']"
"['', '42029', '2018-04-07', '19:00:00 GMT', '9', 'NYR', 'New York', 'Rangers', '6', 'PHI', 'Philadelphia', 'Flyers', '29', 'Wells Fargo Center', '6', 'PHI', 'Philadelphia', 'Flyers', '1', '0', '0', '0', '2', '25', '29', '46.3', '2', '1', '50.0', '1', '0', '100.0', '0', '0', '5', '0', '40', '18', '2', '4', '15']"
