"['#Date/Time of Update: 2018-12-10 19:03:26 GMT', '#Game ID', '#Game Date', '#Game Time', '#Away Team ID', '#Away Team Abbr.', '#Away Team City', '#Away Team Name', '#Home Team ID', '#Home Team Abbr.', '#Home Team City', '#Home Team Name', '#Venue ID', '#Venue Name', '#Team ID', '#Team Abbr.', '#Team City', '#Team Name', '#Wins', '#Losses', '#OvertimeWins', '#OvertimeLosses', '#Points', '#FaceoffWins', '#FaceoffLosses', '#FaceoffPercent', '#Powerplays', '#PowerplayGoals', '#PowerplayPercent', '#PenaltyKills', '#PenaltyKillGoalsAllowed', '#PenaltyKillPercent', '#ShorthandedGoalsFor', '#ShorthandedGoalsAgainst', '#GoalsFor', '#GoalsAgainst', '#Shots', '#Penalties', '#PenaltyMinutes', '#Hits']"
"['', '46308', '2018-10-04', '23:30:00 GMT', '19', 'CBJ', 'Columbus', 'Blue Jackets', '16', 'DET', 'Detroit', 'Red Wings', '145', 'Little Caesars Arena', '16', 'DET', 'Detroit', 'Red Wings', '0', '0', '0', '1', '1', '34', '45', '43.0', '3', '1', '33.3', '6', '1', '83.3', '0', '0', '2', '3', '20', '6', '12', '20']"
"['', '46329', '2018-10-07', '02:30:00 GMT', '16', 'DET', 'Detroit', 'Red Wings', '28', 'LAK', 'Los Angeles', 'Kings', '25', 'Staples Center', '16', 'DET', 'Detroit', 'Red Wings', '0', '1', '0', '0', '0', '38', '39', '49.4', '4', '2', '50.0', '3', '0', '100.0', '0', '0', '2', '4', '38', '6', '25', '20']"
"['', '46333', '2018-10-08', '02:00:00 GMT', '16', 'DET', 'Detroit', 'Red Wings', '29', 'ANA', 'Anaheim', 'Ducks', '8', 'Honda Center', '16', 'DET', 'Detroit', 'Red Wings', '0', '0', '0', '1', '1', '36', '31', '53.7', '2', '0', '0.0', '3', '0', '100.0', '0', '0', '2', '2', '21', '3', '6', '15']"
"['', '46350', '2018-10-11', '23:30:00 GMT', '12', 'TOR', 'Toronto', 'Maple Leafs', '16', 'DET', 'Detroit', 'Red Wings', '145', 'Little Caesars Arena', '16', 'DET', 'Detroit', 'Red Wings', '0', '1', '0', '0', '0', '32', '32', '50.0', '3', '0', '0.0', '4', '2', '50.0', '0', '0', '3', '5', '29', '6', '15', '23']"
"['', '46359', '2018-10-13', '19:00:00 GMT', '16', 'DET', 'Detroit', 'Red Wings', '11', 'BOS', 'Boston', 'Bruins', '27', 'TD Garden', '16', 'DET', 'Detroit', 'Red Wings', '0', '1', '0', '0', '0', '33', '35', '48.5', '3', '1', '33.3', '3', '1', '66.7', '1', '0', '2', '8', '34', '8', '16', '21']"
"['', '46373', '2018-10-15', '23:30:00 GMT', '16', 'DET', 'Detroit', 'Red Wings', '14', 'MTL', 'Montreal', 'Canadiens', '4', 'Bell Centre', '16', 'DET', 'Detroit', 'Red Wings', '0', '1', '0', '0', '0', '40', '30', '57.1', '2', '1', '50.0', '6', '1', '83.3', '0', '0', '3', '7', '28', '8', '27', '39']"
"['', '46391', '2018-10-18', '23:30:00 GMT', '16', 'DET', 'Detroit', 'Red Wings', '1', 'TBL', 'Tampa Bay', 'Lightning', '26', 'Amalie Arena', '16', 'DET', 'Detroit', 'Red Wings', '0', '1', '0', '0', '0', '36', '35', '50.7', '5', '0', '0.0', '4', '0', '100.0', '0', '0', '1', '3', '30', '5', '10', '16']"
"['', '46406', '2018-10-20', '23:00:00 GMT', '16', 'DET', 'Detroit', 'Red Wings', '4', 'FLO', 'Florida', 'Panthers', '3', 'BB&T Center', '16', 'DET', 'Detroit', 'Red Wings', '1', '0', '0', '0', '2', '35', '30', '53.8', '3', '2', '66.7', '6', '0', '100.0', '0', '0', '4', '3', '31', '6', '20', '15']"
"['', '46417', '2018-10-22', '23:30:00 GMT', '3', 'CAR', 'Carolina', 'Hurricanes', '16', 'DET', 'Detroit', 'Red Wings', '145', 'Little Caesars Arena', '16', 'DET', 'Detroit', 'Red Wings', '0', '1', '0', '0', '0', '31', '25', '55.4', '4', '0', '0.0', '3', '2', '33.3', '0', '1', '1', '3', '21', '3', '6', '18']"
"['', '46443', '2018-10-26', '23:30:00 GMT', '2', 'WPJ', 'Winnipeg', 'Jets', '16', 'DET', 'Detroit', 'Red Wings', '145', 'Little Caesars Arena', '16', 'DET', 'Detroit', 'Red Wings', '0', '1', '0', '0', '0', '26', '32', '44.8', '3', '1', '33.3', '5', '1', '80.0', '0', '0', '1', '2', '28', '5', '10', '19']"
"['', '46458', '2018-10-28', '21:00:00 GMT', '27', 'DAL', 'Dallas', 'Stars', '16', 'DET', 'Detroit', 'Red Wings', '145', 'Little Caesars Arena', '16', 'DET', 'Detroit', 'Red Wings', '1', '0', '0', '0', '2', '27', '23', '54.0', '3', '0', '0.0', '1', '0', '100.0', '0', '0', '4', '2', '23', '1', '2', '26']"
"['', '46468', '2018-10-30', '23:00:00 GMT', '16', 'DET', 'Detroit', 'Red Wings', '19', 'CBJ', 'Columbus', 'Blue Jackets', '17', 'Nationwide Arena', '16', 'DET', 'Detroit', 'Red Wings', '1', '0', '0', '0', '2', '34', '33', '50.7', '2', '1', '50.0', '5', '0', '100.0', '1', '0', '5', '3', '32', '5', '10', '13']"
"['', '46482', '2018-11-01', '23:30:00 GMT', '7', 'NJD', 'New Jersey', 'Devils', '16', 'DET', 'Detroit', 'Red Wings', '145', 'Little Caesars Arena', '16', 'DET', 'Detroit', 'Red Wings', '1', '0', '0', '0', '2', '41', '29', '58.6', '5', '2', '40.0', '5', '2', '60.0', '2', '0', '4', '3', '31', '6', '15', '25']"
"['', '46495', '2018-11-03', '23:00:00 GMT', '24', 'EDM', 'Edmonton', 'Oilers', '16', 'DET', 'Detroit', 'Red Wings', '145', 'Little Caesars Arena', '16', 'DET', 'Detroit', 'Red Wings', '0', '1', '0', '0', '0', '32', '36', '47.1', '2', '0', '0.0', '1', '0', '100.0', '0', '0', '3', '4', '26', '1', '2', '23']"
"['', '46517', '2018-11-06', '00:30:00 GMT', '21', 'VAN', 'Vancouver', 'Canucks', '16', 'DET', 'Detroit', 'Red Wings', '145', 'Little Caesars Arena', '16', 'DET', 'Detroit', 'Red Wings', '1', '0', '0', '0', '2', '39', '30', '56.5', '2', '1', '50.0', '3', '0', '100.0', '0', '0', '2', '2', '30', '3', '6', '27']"
"['', '46536', '2018-11-09', '00:30:00 GMT', '9', 'NYR', 'New York', 'Rangers', '16', 'DET', 'Detroit', 'Red Wings', '145', 'Little Caesars Arena', '16', 'DET', 'Detroit', 'Red Wings', '1', '0', '0', '0', '2', '30', '25', '54.5', '2', '0', '0.0', '4', '2', '50.0', '0', '0', '3', '2', '31', '3', '8', '23']"
"['', '46548', '2018-11-10', '00:00:00 GMT', '16', 'DET', 'Detroit', 'Red Wings', '3', 'CAR', 'Carolina', 'Hurricanes', '21', 'PNC Arena', '16', 'DET', 'Detroit', 'Red Wings', '1', '0', '0', '0', '2', '38', '31', '55.1', '2', '0', '0.0', '5', '1', '80.0', '0', '0', '3', '3', '32', '5', '10', '28']"
"['', '46566', '2018-11-13', '00:30:00 GMT', '30', 'ARI', 'Arizona', 'Coyotes', '16', 'DET', 'Detroit', 'Red Wings', '145', 'Little Caesars Arena', '16', 'DET', 'Detroit', 'Red Wings', '1', '0', '0', '0', '2', '38', '32', '54.3', '4', '1', '25.0', '5', '0', '100.0', '0', '0', '6', '1', '26', '6', '12', '7']"
"['', '46579', '2018-11-15', '00:30:00 GMT', '16', 'DET', 'Detroit', 'Red Wings', '13', 'OTT', 'Ottawa', 'Senators', '23', 'Canadian Tire Centre', '16', 'DET', 'Detroit', 'Red Wings', '0', '1', '0', '0', '0', '31', '35', '47.0', '5', '0', '0.0', '4', '1', '75.0', '0', '0', '1', '2', '33', '6', '15', '30']"
"['', '46590', '2018-11-17', '18:00:00 GMT', '16', 'DET', 'Detroit', 'Red Wings', '7', 'NJD', 'New Jersey', 'Devils', '37', 'Prudential Center', '16', 'DET', 'Detroit', 'Red Wings', '1', '0', '0', '0', '2', '33', '26', '55.9', '2', '0', '0.0', '1', '0', '100.0', '0', '1', '3', '2', '30', '3', '9', '21']"
"['', '46622', '2018-11-21', '00:30:00 GMT', '11', 'BOS', 'Boston', 'Bruins', '16', 'DET', 'Detroit', 'Red Wings', '145', 'Little Caesars Arena', '16', 'DET', 'Detroit', 'Red Wings', '1', '0', '0', '0', '2', '34', '23', '59.6', '0', '0', '0.0', '1', '0', '100.0', '0', '0', '3', '2', '27', '1', '2', '30']"
"['', '46633', '2018-11-23', '21:00:00 GMT', '16', 'DET', 'Detroit', 'Red Wings', '5', 'WSH', 'Washington', 'Capitals', '13', 'Capital One Arena', '16', 'DET', 'Detroit', 'Red Wings', '0', '1', '0', '0', '0', '25', '34', '42.4', '3', '0', '0.0', '3', '0', '100.0', '0', '0', '1', '3', '32', '3', '6', '12']"
"['', '46648', '2018-11-24', '00:00:00 GMT', '15', 'BUF', 'Buffalo', 'Sabres', '16', 'DET', 'Detroit', 'Red Wings', '145', 'Little Caesars Arena', '16', 'DET', 'Detroit', 'Red Wings', '0', '0', '0', '1', '1', '37', '27', '57.8', '4', '0', '0.0', '4', '2', '50.0', '0', '0', '2', '2', '37', '4', '8', '25']"
"['', '46664', '2018-11-26', '00:30:00 GMT', '19', 'CBJ', 'Columbus', 'Blue Jackets', '16', 'DET', 'Detroit', 'Red Wings', '145', 'Little Caesars Arena', '16', 'DET', 'Detroit', 'Red Wings', '0', '1', '0', '0', '0', '29', '33', '46.8', '3', '1', '33.3', '4', '1', '75.0', '0', '0', '5', '7', '32', '4', '8', '23']"
"['', '46675', '2018-11-28', '00:00:00 GMT', '17', 'STL', 'St. Louis', 'Blues', '16', 'DET', 'Detroit', 'Red Wings', '145', 'Little Caesars Arena', '16', 'DET', 'Detroit', 'Red Wings', '1', '0', '0', '0', '2', '39', '29', '57.4', '2', '0', '0.0', '3', '2', '33.3', '0', '0', '4', '3', '31', '3', '6', '17']"
"['', '46695', '2018-12-01', '00:00:00 GMT', '16', 'DET', 'Detroit', 'Red Wings', '11', 'BOS', 'Boston', 'Bruins', '27', 'TD Garden', '16', 'DET', 'Detroit', 'Red Wings', '1', '0', '0', '0', '2', '39', '23', '62.9', '3', '1', '33.3', '6', '1', '83.3', '0', '0', '4', '2', '27', '8', '19', '22']"
"['', '46708', '2018-12-02', '00:00:00 GMT', '22', 'COL', 'Colorado', 'Avalanche', '16', 'DET', 'Detroit', 'Red Wings', '145', 'Little Caesars Arena', '16', 'DET', 'Detroit', 'Red Wings', '0', '1', '0', '0', '0', '37', '29', '56.1', '2', '0', '0.0', '1', '1', '0.0', '0', '0', '0', '2', '24', '3', '12', '26']"
"['', '46720', '2018-12-04', '00:30:00 GMT', '1', 'TBL', 'Tampa Bay', 'Lightning', '16', 'DET', 'Detroit', 'Red Wings', '145', 'Little Caesars Arena', '16', 'DET', 'Detroit', 'Red Wings', '0', '0', '0', '1', '1', '26', '28', '48.1', '2', '0', '0.0', '2', '0', '100.0', '0', '1', '5', '5', '24', '3', '6', '20']"
"['', '46727', '2018-12-06', '00:00:00 GMT', '16', 'DET', 'Detroit', 'Red Wings', '12', 'TOR', 'Toronto', 'Maple Leafs', '1', 'Scotiabank Arena', '16', 'DET', 'Detroit', 'Red Wings', '1', '0', '0', '0', '2', '27', '38', '41.5', '2', '0', '0.0', '4', '0', '100.0', '0', '0', '5', '4', '32', '4', '8', '21']"
"['', '46746', '2018-12-08', '00:00:00 GMT', '8', 'NYI', 'New York', 'Islanders', '16', 'DET', 'Detroit', 'Red Wings', '145', 'Little Caesars Arena', '16', 'DET', 'Detroit', 'Red Wings', '0', '1', '0', '0', '0', '28', '32', '46.7', '3', '0', '0.0', '4', '1', '75.0', '0', '0', '2', '3', '25', '7', '20', '23']"
