"['#Date/Time of Update: 2018-12-10 19:02:53 GMT', '#Game ID', '#Game Date', '#Game Time', '#Away Team ID', '#Away Team Abbr.', '#Away Team City', '#Away Team Name', '#Home Team ID', '#Home Team Abbr.', '#Home Team City', '#Home Team Name', '#Venue ID', '#Venue Name', '#Team ID', '#Team Abbr.', '#Team City', '#Team Name', '#Wins', '#Losses', '#OvertimeWins', '#OvertimeLosses', '#ShootoutWins', '#ShootoutLosses', '#Points', '#FaceoffWins', '#FaceoffLosses', '#FaceoffPercent', '#Powerplays', '#PowerplayGoals', '#PowerplayPercent', '#PenaltyKills', '#PenaltyKillGoalsAllowed', '#PenaltyKillPercent', '#ShorthandedGoalsFor', '#ShorthandedGoalsAgainst', '#GoalsFor', '#GoalsAgainst', '#Shots', '#Penalties', '#PenaltyMinutes', '#Hits']"
"['', '3819', '2008-10-09', '02:00:00 GMT', '11', 'BOS', 'Boston', 'Bruins', '22', 'COL', 'Colorado', 'Avalanche', '19', 'Pepsi Center', '22', 'COL', 'Colorado', 'Avalanche', '0', '1', '0', '0', '0', '0', '0', '36', '30', '54.5', '5', '1', '20.0', '2', '1', '50.0', '0', '0', '4', '5', '35', '2', '4', '34']"
"['', '3842', '2008-10-12', '00:00:00 GMT', '22', 'COL', 'Colorado', 'Avalanche', '24', 'EDM', 'Edmonton', 'Oilers', '22', 'Rogers Place', '22', 'COL', 'Colorado', 'Avalanche', '0', '1', '0', '0', '0', '0', '0', '36', '14', '72.0', '3', '0', '0.0', '3', '1', '66.7', '0', '0', '2', '3', '31', '5', '16', '16']"
"['', '3854', '2008-10-14', '01:00:00 GMT', '22', 'COL', 'Colorado', 'Avalanche', '23', 'CGY', 'Calgary', 'Flames', '18', 'Pengrowth Saddledome', '22', 'COL', 'Colorado', 'Avalanche', '0', '1', '0', '0', '0', '0', '0', '27', '36', '42.9', '6', '2', '33.3', '5', '3', '40.0', '0', '0', '4', '5', '25', '8', '19', '15']"
"['', '3868', '2008-10-16', '01:00:00 GMT', '6', 'PHI', 'Philadelphia', 'Flyers', '22', 'COL', 'Colorado', 'Avalanche', '19', 'Pepsi Center', '22', 'COL', 'Colorado', 'Avalanche', '1', '0', '0', '0', '0', '0', '2', '30', '20', '60.0', '9', '3', '33.3', '6', '1', '83.3', '0', '0', '5', '2', '29', '9', '26', '17']"
"['', '3876', '2008-10-18', '19:00:00 GMT', '22', 'COL', 'Colorado', 'Avalanche', '27', 'DAL', 'Dallas', 'Stars', '2', 'American Airlines Center', '22', 'COL', 'Colorado', 'Avalanche', '1', '0', '0', '0', '0', '0', '2', '32', '34', '48.5', '8', '2', '25.0', '4', '1', '75.0', '0', '0', '5', '4', '17', '8', '25', '19']"
"['', '3894', '2008-10-20', '02:30:00 GMT', '22', 'COL', 'Colorado', 'Avalanche', '28', 'LAK', 'Los Angeles', 'Kings', '25', 'Staples Center', '22', 'COL', 'Colorado', 'Avalanche', '1', '0', '0', '0', '0', '0', '2', '17', '28', '37.8', '4', '0', '0.0', '3', '1', '66.7', '0', '0', '4', '3', '12', '4', '8', '19']"
"['', '3910', '2008-10-23', '01:30:00 GMT', '24', 'EDM', 'Edmonton', 'Oilers', '22', 'COL', 'Colorado', 'Avalanche', '19', 'Pepsi Center', '22', 'COL', 'Colorado', 'Avalanche', '1', '0', '0', '0', '0', '0', '2', '18', '26', '40.9', '5', '1', '20.0', '6', '1', '83.3', '0', '0', '4', '1', '21', '7', '28', '11']"
"['', '3930', '2008-10-25', '01:00:00 GMT', '15', 'BUF', 'Buffalo', 'Sabres', '22', 'COL', 'Colorado', 'Avalanche', '19', 'Pepsi Center', '22', 'COL', 'Colorado', 'Avalanche', '1', '0', '0', '0', '0', '0', '2', '26', '25', '51.0', '2', '0', '0.0', '2', '0', '100.0', '0', '0', '1', '1', '28', '3', '6', '31']"
"['', '3943', '2008-10-28', '01:00:00 GMT', '22', 'COL', 'Colorado', 'Avalanche', '23', 'CGY', 'Calgary', 'Flames', '18', 'Pengrowth Saddledome', '22', 'COL', 'Colorado', 'Avalanche', '0', '1', '0', '0', '0', '0', '0', '23', '35', '39.7', '3', '0', '0.0', '2', '0', '100.0', '0', '0', '0', '3', '22', '3', '9', '15']"
"['', '3957', '2008-10-30', '01:00:00 GMT', '19', 'CBJ', 'Columbus', 'Blue Jackets', '22', 'COL', 'Colorado', 'Avalanche', '19', 'Pepsi Center', '22', 'COL', 'Colorado', 'Avalanche', '0', '1', '0', '0', '0', '0', '0', '36', '23', '61.0', '4', '2', '50.0', '0', '0', '0.0', '0', '0', '2', '4', '30', '3', '15', '21']"
"['', '3978', '2008-11-02', '01:00:00 GMT', '26', 'SJS', 'San Jose', 'Sharks', '22', 'COL', 'Colorado', 'Avalanche', '19', 'Pepsi Center', '22', 'COL', 'Colorado', 'Avalanche', '0', '1', '0', '0', '0', '0', '0', '28', '25', '52.8', '3', '0', '0.0', '1', '0', '100.0', '0', '0', '3', '5', '33', '2', '4', '17']"
"['', '3983', '2008-11-03', '01:30:00 GMT', '22', 'COL', 'Colorado', 'Avalanche', '20', 'CHI', 'Chicago', 'Blackhawks', '28', 'United Center', '22', 'COL', 'Colorado', 'Avalanche', '0', '1', '0', '0', '0', '0', '0', '34', '21', '61.8', '4', '0', '0.0', '3', '1', '66.7', '0', '0', '2', '6', '24', '7', '20', '14']"
"['', '4000', '2008-11-06', '02:00:00 GMT', '25', 'MIN', 'Minnesota', 'Wild', '22', 'COL', 'Colorado', 'Avalanche', '19', 'Pepsi Center', '22', 'COL', 'Colorado', 'Avalanche', '0', '1', '0', '0', '0', '0', '0', '37', '15', '71.2', '6', '0', '0.0', '3', '1', '66.7', '0', '0', '1', '3', '35', '5', '13', '15']"
"['', '4016', '2008-11-08', '02:00:00 GMT', '18', 'NSH', 'Nashville', 'Predators', '22', 'COL', 'Colorado', 'Avalanche', '19', 'Pepsi Center', '22', 'COL', 'Colorado', 'Avalanche', '1', '0', '0', '0', '0', '0', '2', '30', '30', '50.0', '8', '0', '0.0', '4', '0', '100.0', '0', '0', '1', '0', '19', '7', '14', '21']"
"['', '4040', '2008-11-12', '03:00:00 GMT', '22', 'COL', 'Colorado', 'Avalanche', '21', 'VAN', 'Vancouver', 'Canucks', '7', 'General Motors Place', '22', 'COL', 'Colorado', 'Avalanche', '1', '0', '0', '0', '0', '0', '2', '26', '36', '41.9', '5', '1', '20.0', '4', '0', '100.0', '0', '0', '1', '1', '33', '4', '8', '21']"
"['', '4063', '2008-11-15', '03:00:00 GMT', '22', 'COL', 'Colorado', 'Avalanche', '24', 'EDM', 'Edmonton', 'Oilers', '22', 'Rogers Place', '22', 'COL', 'Colorado', 'Avalanche', '1', '0', '0', '0', '0', '0', '2', '30', '33', '47.6', '4', '1', '25.0', '4', '1', '75.0', '0', '0', '2', '2', '30', '4', '8', '10']"
"['', '4080', '2008-11-18', '02:30:00 GMT', '22', 'COL', 'Colorado', 'Avalanche', '23', 'CGY', 'Calgary', 'Flames', '18', 'Pengrowth Saddledome', '22', 'COL', 'Colorado', 'Avalanche', '0', '1', '0', '0', '0', '0', '0', '22', '41', '34.9', '1', '0', '0.0', '8', '1', '87.5', '0', '0', '1', '4', '22', '10', '31', '14']"
"['', '4090', '2008-11-20', '02:00:00 GMT', '23', 'CGY', 'Calgary', 'Flames', '22', 'COL', 'Colorado', 'Avalanche', '19', 'Pepsi Center', '22', 'COL', 'Colorado', 'Avalanche', '0', '1', '0', '0', '0', '0', '0', '15', '33', '31.2', '1', '0', '0.0', '6', '0', '100.0', '0', '0', '0', '1', '18', '8', '16', '18']"
"['', '4108', '2008-11-22', '03:30:00 GMT', '22', 'COL', 'Colorado', 'Avalanche', '28', 'LAK', 'Los Angeles', 'Kings', '25', 'Staples Center', '22', 'COL', 'Colorado', 'Avalanche', '1', '0', '0', '0', '0', '0', '2', '29', '38', '43.3', '4', '2', '50.0', '6', '1', '83.3', '0', '0', '3', '3', '26', '10', '23', '16']"
"['', '4118', '2008-11-24', '03:00:00 GMT', '22', 'COL', 'Colorado', 'Avalanche', '29', 'ANA', 'Anaheim', 'Ducks', '8', 'Honda Center', '22', 'COL', 'Colorado', 'Avalanche', '0', '1', '0', '0', '0', '0', '0', '24', '27', '47.1', '4', '0', '0.0', '3', '2', '33.3', '0', '0', '1', '4', '29', '4', '11', '10']"
"['', '4131', '2008-11-26', '02:00:00 GMT', '17', 'STL', 'St. Louis', 'Blues', '22', 'COL', 'Colorado', 'Avalanche', '19', 'Pepsi Center', '22', 'COL', 'Colorado', 'Avalanche', '1', '0', '0', '0', '0', '0', '2', '27', '16', '62.8', '3', '1', '33.3', '3', '0', '100.0', '0', '0', '3', '1', '25', '3', '6', '18']"
"['', '4139', '2008-11-28', '21:00:00 GMT', '22', 'COL', 'Colorado', 'Avalanche', '30', 'PHX', 'Phoenix', 'Coyotes', '6', 'Jobing.com Arena', '22', 'COL', 'Colorado', 'Avalanche', '0', '1', '0', '0', '0', '0', '0', '35', '16', '68.6', '3', '0', '0.0', '4', '0', '100.0', '0', '0', '1', '2', '37', '5', '10', '15']"
"['', '4156', '2008-11-29', '02:00:00 GMT', '1', 'TBL', 'Tampa Bay', 'Lightning', '22', 'COL', 'Colorado', 'Avalanche', '19', 'Pepsi Center', '22', 'COL', 'Colorado', 'Avalanche', '1', '0', '0', '0', '0', '0', '2', '26', '22', '54.2', '3', '1', '33.3', '6', '2', '66.7', '0', '0', '4', '3', '27', '7', '17', '18']"
"['', '4166', '2008-12-01', '01:00:00 GMT', '22', 'COL', 'Colorado', 'Avalanche', '25', 'MIN', 'Minnesota', 'Wild', '30', 'Xcel Energy Center', '22', 'COL', 'Colorado', 'Avalanche', '1', '0', '0', '0', '0', '0', '2', '29', '33', '46.8', '3', '1', '33.3', '4', '3', '25.0', '0', '0', '6', '5', '25', '5', '13', '15']"
"['', '4186', '2008-12-04', '01:00:00 GMT', '22', 'COL', 'Colorado', 'Avalanche', '18', 'NSH', 'Nashville', 'Predators', '15', 'Sommet Center', '22', 'COL', 'Colorado', 'Avalanche', '0', '1', '0', '0', '0', '0', '0', '21', '33', '38.9', '4', '1', '25.0', '5', '1', '80.0', '1', '0', '2', '3', '19', '6', '12', '14']"
"['', '4190', '2008-12-05', '01:30:00 GMT', '22', 'COL', 'Colorado', 'Avalanche', '27', 'DAL', 'Dallas', 'Stars', '2', 'American Airlines Center', '22', 'COL', 'Colorado', 'Avalanche', '0', '0', '0', '1', '0', '0', '1', '19', '26', '42.2', '3', '0', '0.0', '3', '0', '100.0', '0', '0', '1', '1', '26', '3', '6', '13']"
"['', '4208', '2008-12-07', '01:00:00 GMT', '21', 'VAN', 'Vancouver', 'Canucks', '22', 'COL', 'Colorado', 'Avalanche', '19', 'Pepsi Center', '22', 'COL', 'Colorado', 'Avalanche', '1', '0', '0', '0', '0', '0', '2', '22', '48', '31.4', '2', '0', '0.0', '3', '1', '66.7', '0', '0', '4', '4', '31', '6', '15', '19']"
"['', '4218', '2008-12-09', '02:00:00 GMT', '28', 'LAK', 'Los Angeles', 'Kings', '22', 'COL', 'Colorado', 'Avalanche', '19', 'Pepsi Center', '22', 'COL', 'Colorado', 'Avalanche', '1', '0', '0', '0', '0', '0', '2', '17', '35', '32.7', '4', '1', '25.0', '4', '1', '75.0', '1', '0', '6', '1', '20', '6', '15', '12']"
"['', '4241', '2008-12-12', '02:00:00 GMT', '20', 'CHI', 'Chicago', 'Blackhawks', '22', 'COL', 'Colorado', 'Avalanche', '19', 'Pepsi Center', '22', 'COL', 'Colorado', 'Avalanche', '0', '1', '0', '0', '0', '0', '0', '31', '20', '60.8', '3', '0', '0.0', '6', '0', '100.0', '0', '0', '3', '4', '18', '6', '12', '12']"
"['', '4257', '2008-12-15', '00:00:00 GMT', '22', 'COL', 'Colorado', 'Avalanche', '16', 'DET', 'Detroit', 'Red Wings', '11', 'Joe Louis Arena', '22', 'COL', 'Colorado', 'Avalanche', '1', '0', '0', '0', '0', '0', '2', '27', '34', '44.3', '4', '1', '25.0', '4', '0', '100.0', '0', '0', '3', '2', '24', '6', '12', '15']"
"['', '4261', '2008-12-16', '00:00:00 GMT', '22', 'COL', 'Colorado', 'Avalanche', '6', 'PHI', 'Philadelphia', 'Flyers', '29', 'Wachovia Center', '22', 'COL', 'Colorado', 'Avalanche', '0', '1', '0', '0', '0', '0', '0', '43', '24', '64.2', '4', '1', '25.0', '4', '2', '50.0', '0', '1', '2', '5', '29', '7', '20', '12']"
"['', '4279', '2008-12-18', '00:30:00 GMT', '22', 'COL', 'Colorado', 'Avalanche', '1', 'TBL', 'Tampa Bay', 'Lightning', '26', 'St. Pete Times Forum', '22', 'COL', 'Colorado', 'Avalanche', '1', '0', '0', '0', '0', '0', '2', '31', '25', '55.4', '5', '0', '0.0', '1', '0', '100.0', '0', '0', '1', '1', '34', '2', '4', '15']"
"['', '4299', '2008-12-21', '22:00:00 GMT', '22', 'COL', 'Colorado', 'Avalanche', '4', 'FLO', 'Florida', 'Panthers', '3', 'BankAtlantic Center', '22', 'COL', 'Colorado', 'Avalanche', '0', '1', '0', '0', '0', '0', '0', '25', '27', '48.1', '2', '0', '0.0', '3', '1', '66.7', '0', '0', '0', '3', '23', '8', '27', '14']"
"['', '4318', '2008-12-23', '02:00:00 GMT', '30', 'PHX', 'Phoenix', 'Coyotes', '22', 'COL', 'Colorado', 'Avalanche', '19', 'Pepsi Center', '22', 'COL', 'Colorado', 'Avalanche', '1', '0', '0', '0', '0', '0', '2', '33', '23', '58.9', '5', '2', '40.0', '4', '1', '75.0', '0', '0', '5', '4', '43', '4', '8', '14']"
"['', '4337', '2008-12-27', '02:00:00 GMT', '16', 'DET', 'Detroit', 'Red Wings', '22', 'COL', 'Colorado', 'Avalanche', '19', 'Pepsi Center', '22', 'COL', 'Colorado', 'Avalanche', '1', '0', '0', '0', '0', '0', '2', '27', '46', '37.0', '6', '3', '50.0', '3', '2', '33.3', '0', '0', '3', '3', '29', '5', '10', '33']"
"['', '4350', '2008-12-29', '02:00:00 GMT', '18', 'NSH', 'Nashville', 'Predators', '22', 'COL', 'Colorado', 'Avalanche', '19', 'Pepsi Center', '22', 'COL', 'Colorado', 'Avalanche', '1', '0', '0', '0', '0', '0', '2', '33', '25', '56.9', '3', '0', '0.0', '2', '1', '50.0', '0', '0', '5', '1', '16', '6', '12', '29']"
"['', '4363', '2008-12-31', '01:00:00 GMT', '22', 'COL', 'Colorado', 'Avalanche', '30', 'PHX', 'Phoenix', 'Coyotes', '6', 'Jobing.com Arena', '22', 'COL', 'Colorado', 'Avalanche', '0', '1', '0', '0', '0', '0', '0', '20', '27', '42.6', '3', '0', '0.0', '2', '0', '100.0', '0', '0', '1', '3', '28', '2', '4', '15']"
"['', '4375', '2009-01-02', '02:00:00 GMT', '19', 'CBJ', 'Columbus', 'Blue Jackets', '22', 'COL', 'Colorado', 'Avalanche', '19', 'Pepsi Center', '22', 'COL', 'Colorado', 'Avalanche', '0', '1', '0', '0', '0', '0', '0', '30', '28', '51.7', '6', '0', '0.0', '3', '1', '66.7', '0', '0', '1', '6', '23', '7', '25', '22']"
"['', '4393', '2009-01-04', '01:00:00 GMT', '25', 'MIN', 'Minnesota', 'Wild', '22', 'COL', 'Colorado', 'Avalanche', '19', 'Pepsi Center', '22', 'COL', 'Colorado', 'Avalanche', '0', '1', '0', '0', '0', '0', '0', '25', '33', '43.1', '2', '0', '0.0', '6', '1', '83.3', '0', '0', '0', '2', '33', '8', '24', '25']"
"['', '4405', '2009-01-06', '01:00:00 GMT', '22', 'COL', 'Colorado', 'Avalanche', '18', 'NSH', 'Nashville', 'Predators', '15', 'Sommet Center', '22', 'COL', 'Colorado', 'Avalanche', '1', '0', '0', '0', '0', '0', '2', '19', '27', '41.3', '2', '0', '0.0', '3', '0', '100.0', '0', '0', '2', '1', '19', '3', '6', '13']"
"['', '4419', '2009-01-08', '02:00:00 GMT', '20', 'CHI', 'Chicago', 'Blackhawks', '22', 'COL', 'Colorado', 'Avalanche', '19', 'Pepsi Center', '22', 'COL', 'Colorado', 'Avalanche', '1', '0', '0', '0', '0', '0', '2', '24', '27', '47.1', '3', '1', '33.3', '1', '1', '0.0', '0', '0', '2', '1', '30', '1', '2', '22']"
"['', '4429', '2009-01-10', '20:00:00 GMT', '10', 'PIT', 'Pittsburgh', 'Penguins', '22', 'COL', 'Colorado', 'Avalanche', '19', 'Pepsi Center', '22', 'COL', 'Colorado', 'Avalanche', '1', '0', '0', '0', '0', '0', '2', '35', '22', '61.4', '1', '1', '100.0', '1', '1', '0.0', '0', '1', '5', '3', '27', '1', '2', '21']"
"['', '4448', '2009-01-13', '00:00:00 GMT', '22', 'COL', 'Colorado', 'Avalanche', '19', 'CBJ', 'Columbus', 'Blue Jackets', '17', 'Nationwide Arena', '22', 'COL', 'Colorado', 'Avalanche', '0', '1', '0', '0', '0', '0', '0', '17', '32', '34.7', '4', '1', '25.0', '3', '1', '66.7', '0', '0', '3', '4', '23', '5', '10', '19']"
"['', '4465', '2009-01-15', '01:30:00 GMT', '22', 'COL', 'Colorado', 'Avalanche', '17', 'STL', 'St. Louis', 'Blues', '24', 'Scottrade Center', '22', 'COL', 'Colorado', 'Avalanche', '0', '1', '0', '0', '0', '0', '0', '27', '29', '48.2', '4', '0', '0.0', '3', '2', '33.3', '0', '1', '2', '5', '24', '5', '16', '19']"
"['', '4474', '2009-01-16', '02:30:00 GMT', '24', 'EDM', 'Edmonton', 'Oilers', '22', 'COL', 'Colorado', 'Avalanche', '19', 'Pepsi Center', '22', 'COL', 'Colorado', 'Avalanche', '0', '1', '0', '0', '0', '0', '0', '30', '26', '53.6', '3', '0', '0.0', '3', '1', '66.7', '0', '0', '2', '3', '37', '5', '13', '25']"
"['', '4488', '2009-01-18', '01:00:00 GMT', '23', 'CGY', 'Calgary', 'Flames', '22', 'COL', 'Colorado', 'Avalanche', '19', 'Pepsi Center', '22', 'COL', 'Colorado', 'Avalanche', '1', '0', '0', '0', '0', '0', '2', '31', '38', '44.9', '6', '2', '33.3', '5', '1', '80.0', '1', '0', '6', '2', '33', '5', '10', '8']"
"['', '4512', '2009-01-21', '02:00:00 GMT', '28', 'LAK', 'Los Angeles', 'Kings', '22', 'COL', 'Colorado', 'Avalanche', '19', 'Pepsi Center', '22', 'COL', 'Colorado', 'Avalanche', '0', '1', '0', '0', '0', '0', '0', '24', '31', '43.6', '7', '2', '28.6', '2', '2', '0.0', '0', '0', '5', '6', '36', '5', '13', '18']"
"['', '4523', '2009-01-27', '02:00:00 GMT', '26', 'SJS', 'San Jose', 'Sharks', '22', 'COL', 'Colorado', 'Avalanche', '19', 'Pepsi Center', '22', 'COL', 'Colorado', 'Avalanche', '0', '1', '0', '0', '0', '0', '0', '31', '33', '48.4', '3', '0', '0.0', '4', '1', '75.0', '0', '0', '0', '3', '31', '5', '13', '15']"
"['', '4535', '2009-01-29', '02:00:00 GMT', '12', 'TOR', 'Toronto', 'Maple Leafs', '22', 'COL', 'Colorado', 'Avalanche', '19', 'Pepsi Center', '22', 'COL', 'Colorado', 'Avalanche', '0', '1', '0', '0', '0', '0', '0', '36', '26', '58.1', '1', '1', '100.0', '3', '1', '66.7', '0', '0', '4', '7', '16', '3', '6', '21']"
"['', '4546', '2009-01-31', '20:00:00 GMT', '29', 'ANA', 'Anaheim', 'Ducks', '22', 'COL', 'Colorado', 'Avalanche', '19', 'Pepsi Center', '22', 'COL', 'Colorado', 'Avalanche', '0', '1', '0', '0', '0', '0', '0', '28', '35', '44.4', '4', '1', '25.0', '5', '1', '80.0', '1', '0', '3', '4', '34', '6', '15', '13']"
"['', '4559', '2009-02-02', '02:00:00 GMT', '23', 'CGY', 'Calgary', 'Flames', '22', 'COL', 'Colorado', 'Avalanche', '19', 'Pepsi Center', '22', 'COL', 'Colorado', 'Avalanche', '1', '0', '0', '0', '0', '0', '2', '24', '29', '45.3', '3', '1', '33.3', '2', '0', '100.0', '0', '0', '4', '3', '38', '3', '9', '36']"
"['', '4583', '2009-02-05', '02:00:00 GMT', '27', 'DAL', 'Dallas', 'Stars', '22', 'COL', 'Colorado', 'Avalanche', '19', 'Pepsi Center', '22', 'COL', 'Colorado', 'Avalanche', '1', '0', '0', '0', '0', '0', '2', '25', '18', '58.1', '2', '1', '50.0', '3', '0', '100.0', '0', '0', '3', '2', '18', '4', '8', '23']"
"['', '4599', '2009-02-07', '01:30:00 GMT', '22', 'COL', 'Colorado', 'Avalanche', '17', 'STL', 'St. Louis', 'Blues', '24', 'Scottrade Center', '22', 'COL', 'Colorado', 'Avalanche', '0', '1', '0', '0', '0', '0', '0', '31', '23', '57.4', '4', '0', '0.0', '3', '0', '100.0', '0', '0', '1', '4', '23', '6', '15', '12']"
"['', '4610', '2009-02-10', '00:00:00 GMT', '22', 'COL', 'Colorado', 'Avalanche', '19', 'CBJ', 'Columbus', 'Blue Jackets', '17', 'Nationwide Arena', '22', 'COL', 'Colorado', 'Avalanche', '0', '1', '0', '0', '0', '0', '0', '26', '25', '51.0', '2', '0', '0.0', '2', '0', '100.0', '0', '0', '0', '3', '31', '2', '4', '28']"
"['', '4620', '2009-02-11', '01:00:00 GMT', '22', 'COL', 'Colorado', 'Avalanche', '25', 'MIN', 'Minnesota', 'Wild', '30', 'Xcel Energy Center', '22', 'COL', 'Colorado', 'Avalanche', '0', '1', '0', '0', '0', '0', '0', '30', '30', '50.0', '4', '1', '25.0', '3', '0', '100.0', '0', '0', '2', '3', '20', '4', '8', '10']"
"['', '4637', '2009-02-13', '02:00:00 GMT', '14', 'MTL', 'Montreal', 'Canadiens', '22', 'COL', 'Colorado', 'Avalanche', '19', 'Pepsi Center', '22', 'COL', 'Colorado', 'Avalanche', '0', '1', '0', '0', '0', '0', '0', '31', '35', '47.0', '5', '1', '20.0', '2', '1', '50.0', '0', '1', '2', '4', '46', '3', '9', '15']"
"['', '4649', '2009-02-15', '22:00:00 GMT', '22', 'COL', 'Colorado', 'Avalanche', '16', 'DET', 'Detroit', 'Red Wings', '11', 'Joe Louis Arena', '22', 'COL', 'Colorado', 'Avalanche', '1', '0', '0', '0', '0', '0', '2', '23', '48', '32.4', '2', '1', '50.0', '5', '2', '60.0', '0', '0', '5', '5', '23', '6', '12', '21']"
"['', '4666', '2009-02-17', '02:00:00 GMT', '13', 'OTT', 'Ottawa', 'Senators', '22', 'COL', 'Colorado', 'Avalanche', '19', 'Pepsi Center', '22', 'COL', 'Colorado', 'Avalanche', '1', '0', '0', '0', '0', '0', '2', '23', '26', '46.9', '1', '0', '0.0', '3', '1', '66.7', '0', '0', '3', '2', '24', '4', '8', '19']"
"['', '4685', '2009-02-20', '00:00:00 GMT', '22', 'COL', 'Colorado', 'Avalanche', '5', 'WSH', 'Washington', 'Capitals', '13', 'Verizon Center', '22', 'COL', 'Colorado', 'Avalanche', '1', '0', '0', '0', '0', '0', '2', '24', '36', '40.0', '5', '0', '0.0', '0', '0', '0.0', '0', '0', '4', '1', '21', '3', '6', '16']"
"['', '4700', '2009-02-22', '20:00:00 GMT', '22', 'COL', 'Colorado', 'Avalanche', '3', 'CAR', 'Carolina', 'Hurricanes', '21', 'RBC Center', '22', 'COL', 'Colorado', 'Avalanche', '0', '1', '0', '0', '0', '0', '0', '23', '43', '34.8', '2', '0', '0.0', '7', '0', '100.0', '0', '0', '2', '5', '17', '10', '23', '32']"
"['', '4709', '2009-02-24', '00:00:00 GMT', '22', 'COL', 'Colorado', 'Avalanche', '2', 'ATL', 'Atlanta', 'Thrashers', '20', 'Philips Arena', '22', 'COL', 'Colorado', 'Avalanche', '0', '1', '0', '0', '0', '0', '0', '19', '30', '38.8', '6', '1', '16.7', '4', '0', '100.0', '0', '2', '3', '4', '30', '5', '10', '13']"
"['', '4723', '2009-02-26', '00:00:00 GMT', '22', 'COL', 'Colorado', 'Avalanche', '7', 'NJD', 'New Jersey', 'Devils', '5', 'Izod Center', '22', 'COL', 'Colorado', 'Avalanche', '0', '1', '0', '0', '0', '0', '0', '25', '25', '50.0', '3', '0', '0.0', '4', '1', '75.0', '0', '0', '0', '4', '24', '5', '13', '18']"
"['', '4741', '2009-02-28', '00:00:00 GMT', '22', 'COL', 'Colorado', 'Avalanche', '9', 'NYR', 'New York', 'Rangers', '12', 'Madison Square Garden', '22', 'COL', 'Colorado', 'Avalanche', '0', '1', '0', '0', '0', '0', '0', '30', '25', '54.5', '2', '0', '0.0', '5', '1', '80.0', '0', '0', '1', '6', '23', '13', '48', '29']"
"['', '4753', '2009-03-02', '00:00:00 GMT', '22', 'COL', 'Colorado', 'Avalanche', '8', 'NYI', 'New York', 'Islanders', '16', 'Nassau Veterans Memorial Coliseum', '22', 'COL', 'Colorado', 'Avalanche', '0', '1', '0', '0', '0', '0', '0', '26', '21', '55.3', '3', '1', '33.3', '2', '0', '100.0', '0', '0', '2', '4', '20', '2', '4', '28']"
"['', '4767', '2009-03-04', '02:00:00 GMT', '16', 'DET', 'Detroit', 'Red Wings', '22', 'COL', 'Colorado', 'Avalanche', '19', 'Pepsi Center', '22', 'COL', 'Colorado', 'Avalanche', '0', '1', '0', '0', '0', '0', '0', '24', '33', '42.1', '1', '0', '0.0', '2', '0', '100.0', '0', '0', '2', '3', '25', '2', '4', '15']"
"['', '4792', '2009-03-08', '19:00:00 GMT', '22', 'COL', 'Colorado', 'Avalanche', '20', 'CHI', 'Chicago', 'Blackhawks', '28', 'United Center', '22', 'COL', 'Colorado', 'Avalanche', '1', '0', '0', '0', '0', '0', '2', '24', '36', '40.0', '4', '0', '0.0', '5', '1', '80.0', '0', '0', '5', '1', '24', '10', '37', '14']"
"['', '4812', '2009-03-10', '01:00:00 GMT', '2', 'ATL', 'Atlanta', 'Thrashers', '22', 'COL', 'Colorado', 'Avalanche', '19', 'Pepsi Center', '22', 'COL', 'Colorado', 'Avalanche', '0', '1', '0', '0', '0', '0', '0', '22', '30', '42.3', '2', '0', '0.0', '4', '1', '75.0', '0', '0', '0', '3', '35', '5', '10', '9']"
"['', '4828', '2009-03-12', '01:00:00 GMT', '25', 'MIN', 'Minnesota', 'Wild', '22', 'COL', 'Colorado', 'Avalanche', '19', 'Pepsi Center', '22', 'COL', 'Colorado', 'Avalanche', '1', '0', '0', '0', '0', '0', '2', '31', '24', '56.4', '3', '1', '33.3', '5', '1', '80.0', '0', '0', '1', '1', '40', '7', '17', '20']"
"['', '4841', '2009-03-14', '02:00:00 GMT', '22', 'COL', 'Colorado', 'Avalanche', '24', 'EDM', 'Edmonton', 'Oilers', '22', 'Rogers Place', '22', 'COL', 'Colorado', 'Avalanche', '1', '0', '0', '0', '0', '0', '2', '35', '35', '50.0', '4', '2', '50.0', '2', '0', '100.0', '0', '0', '3', '2', '27', '3', '9', '8']"
"['', '4850', '2009-03-15', '02:00:00 GMT', '22', 'COL', 'Colorado', 'Avalanche', '21', 'VAN', 'Vancouver', 'Canucks', '7', 'General Motors Place', '22', 'COL', 'Colorado', 'Avalanche', '0', '1', '0', '0', '0', '0', '0', '31', '40', '43.7', '5', '1', '20.0', '4', '2', '50.0', '0', '1', '2', '4', '18', '5', '10', '8']"
"['', '4860', '2009-03-17', '00:00:00 GMT', '22', 'COL', 'Colorado', 'Avalanche', '25', 'MIN', 'Minnesota', 'Wild', '30', 'Xcel Energy Center', '22', 'COL', 'Colorado', 'Avalanche', '0', '0', '0', '1', '0', '0', '1', '27', '30', '47.4', '1', '0', '0.0', '3', '0', '100.0', '0', '0', '2', '2', '24', '3', '6', '12']"
"['', '4872', '2009-03-19', '01:00:00 GMT', '24', 'EDM', 'Edmonton', 'Oilers', '22', 'COL', 'Colorado', 'Avalanche', '19', 'Pepsi Center', '22', 'COL', 'Colorado', 'Avalanche', '0', '1', '0', '0', '0', '0', '0', '33', '30', '52.4', '2', '0', '0.0', '5', '2', '60.0', '0', '0', '1', '8', '26', '7', '22', '16']"
"['', '4896', '2009-03-22', '00:00:00 GMT', '22', 'COL', 'Colorado', 'Avalanche', '26', 'SJS', 'San Jose', 'Sharks', '9', 'HP Pavilion at San Jose', '22', 'COL', 'Colorado', 'Avalanche', '0', '1', '0', '0', '0', '0', '0', '27', '35', '43.5', '2', '0', '0.0', '2', '1', '50.0', '0', '0', '1', '3', '31', '3', '6', '17']"
"['', '4914', '2009-03-25', '01:00:00 GMT', '29', 'ANA', 'Anaheim', 'Ducks', '22', 'COL', 'Colorado', 'Avalanche', '19', 'Pepsi Center', '22', 'COL', 'Colorado', 'Avalanche', '0', '1', '0', '0', '0', '0', '0', '26', '32', '44.8', '3', '1', '33.3', '6', '2', '66.7', '0', '0', '2', '7', '34', '9', '21', '19']"
"['', '4927', '2009-03-27', '01:00:00 GMT', '21', 'VAN', 'Vancouver', 'Canucks', '22', 'COL', 'Colorado', 'Avalanche', '19', 'Pepsi Center', '22', 'COL', 'Colorado', 'Avalanche', '0', '1', '0', '0', '0', '0', '0', '33', '32', '50.8', '4', '0', '0.0', '5', '1', '80.0', '0', '0', '1', '4', '22', '8', '40', '23']"
"['', '4946', '2009-03-29', '00:00:00 GMT', '22', 'COL', 'Colorado', 'Avalanche', '29', 'ANA', 'Anaheim', 'Ducks', '8', 'Honda Center', '22', 'COL', 'Colorado', 'Avalanche', '0', '1', '0', '0', '0', '0', '0', '25', '30', '45.5', '3', '1', '33.3', '4', '1', '75.0', '0', '0', '1', '4', '26', '5', '13', '20']"
"['', '4962', '2009-04-01', '01:00:00 GMT', '30', 'PHX', 'Phoenix', 'Coyotes', '22', 'COL', 'Colorado', 'Avalanche', '19', 'Pepsi Center', '22', 'COL', 'Colorado', 'Avalanche', '0', '1', '0', '0', '0', '0', '0', '24', '28', '46.2', '2', '0', '0.0', '6', '0', '100.0', '0', '0', '0', '3', '23', '8', '19', '14']"
"['', '4993', '2009-04-05', '02:00:00 GMT', '22', 'COL', 'Colorado', 'Avalanche', '21', 'VAN', 'Vancouver', 'Canucks', '7', 'General Motors Place', '22', 'COL', 'Colorado', 'Avalanche', '1', '0', '0', '0', '0', '0', '2', '20', '36', '35.7', '2', '0', '0.0', '3', '0', '100.0', '0', '0', '4', '1', '22', '5', '13', '10']"
"['', '5009', '2009-04-07', '02:30:00 GMT', '22', 'COL', 'Colorado', 'Avalanche', '26', 'SJS', 'San Jose', 'Sharks', '9', 'HP Pavilion at San Jose', '22', 'COL', 'Colorado', 'Avalanche', '0', '0', '0', '1', '0', '0', '1', '18', '28', '39.1', '3', '0', '0.0', '5', '0', '100.0', '0', '0', '0', '0', '20', '5', '10', '23']"
"['', '5020', '2009-04-09', '01:00:00 GMT', '27', 'DAL', 'Dallas', 'Stars', '22', 'COL', 'Colorado', 'Avalanche', '19', 'Pepsi Center', '22', 'COL', 'Colorado', 'Avalanche', '0', '0', '0', '1', '0', '0', '1', '22', '21', '51.2', '5', '1', '20.0', '2', '1', '50.0', '0', '0', '2', '2', '25', '2', '4', '20']"
"['', '5030', '2009-04-11', '19:00:00 GMT', '21', 'VAN', 'Vancouver', 'Canucks', '22', 'COL', 'Colorado', 'Avalanche', '19', 'Pepsi Center', '22', 'COL', 'Colorado', 'Avalanche', '0', '0', '0', '1', '0', '0', '1', '22', '27', '44.9', '2', '0', '0.0', '2', '0', '100.0', '0', '0', '0', '1', '22', '3', '6', '18']"
"['', '5040', '2009-04-12', '19:00:00 GMT', '17', 'STL', 'St. Louis', 'Blues', '22', 'COL', 'Colorado', 'Avalanche', '19', 'Pepsi Center', '22', 'COL', 'Colorado', 'Avalanche', '0', '1', '0', '0', '0', '0', '0', '16', '23', '41.0', '3', '0', '0.0', '2', '0', '100.0', '0', '0', '0', '1', '28', '3', '6', '18']"
