"['#Date/Time of Update: 2018-12-10 19:03:07 GMT', '#Game ID', '#Game Date', '#Game Time', '#Away Team ID', '#Away Team Abbr.', '#Away Team City', '#Away Team Name', '#Home Team ID', '#Home Team Abbr.', '#Home Team City', '#Home Team Name', '#Venue ID', '#Venue Name', '#Team ID', '#Team Abbr.', '#Team City', '#Team Name', '#Wins', '#Losses', '#OvertimeWins', '#OvertimeLosses', '#ShootoutWins', '#ShootoutLosses', '#Rows', '#Points', '#FaceoffWins', '#FaceoffLosses', '#FaceoffPercent', '#Powerplays', '#PowerplayGoals', '#PowerplayPercent', '#PenaltyKills', '#PenaltyKillGoalsAllowed', '#PenaltyKillPercent', '#ShorthandedGoalsFor', '#ShorthandedGoalsAgainst', '#GoalsFor', '#GoalsAgainst', '#Shots', '#Penalties', '#PenaltyMinutes', '#Hits']"
"['', '19731', '2013-01-19', '01:00:00 GMT', '19', 'CBJ', 'Columbus', 'Blue Jackets', '18', 'NSH', 'Nashville', 'Predators', '15', 'Bridgestone Arena', '18', 'NSH', 'Nashville', 'Predators', '0', '0', '0', '1', '0', '0', '0', '1', '37', '32', '53.6', '0', '1', '0.0', '3', '1', '66.7', '0', '0', '2', '2', '31', '6', '18', '22']"
"['', '19743', '2013-01-21', '23:00:00 GMT', '17', 'STL', 'St. Louis', 'Blues', '18', 'NSH', 'Nashville', 'Predators', '15', 'Bridgestone Arena', '18', 'NSH', 'Nashville', 'Predators', '0', '0', '0', '1', '0', '0', '0', '1', '36', '28', '56.2', '6', '2', '33.3', '1', '1', '0.0', '0', '0', '3', '3', '20', '4', '8', '20']"
"['', '19753', '2013-01-22', '01:00:00 GMT', '18', 'NSH', 'Nashville', 'Predators', '25', 'MIN', 'Minnesota', 'Wild', '30', 'Xcel Energy Center', '18', 'NSH', 'Nashville', 'Predators', '1', '0', '0', '0', '0', '0', '1', '2', '25', '33', '43.1', '3', '1', '33.3', '2', '0', '100.0', '0', '0', '3', '1', '23', '6', '15', '16']"
"['', '19766', '2013-01-24', '01:00:00 GMT', '18', 'NSH', 'Nashville', 'Predators', '17', 'STL', 'St. Louis', 'Blues', '24', 'Scottrade Center', '18', 'NSH', 'Nashville', 'Predators', '0', '1', '0', '0', '0', '0', '0', '0', '27', '27', '50.0', '4', '0', '0.0', '4', '1', '75.0', '0', '0', '0', '3', '13', '6', '23', '19']"
"['', '19785', '2013-01-26', '03:30:00 GMT', '18', 'NSH', 'Nashville', 'Predators', '29', 'ANA', 'Anaheim', 'Ducks', '8', 'Honda Center', '18', 'NSH', 'Nashville', 'Predators', '0', '0', '0', '1', '0', '0', '0', '1', '26', '26', '50.0', '3', '0', '0.0', '4', '0', '100.0', '0', '0', '2', '2', '19', '4', '8', '20']"
"['', '19796', '2013-01-28', '02:00:00 GMT', '18', 'NSH', 'Nashville', 'Predators', '30', 'PHX', 'Phoenix', 'Coyotes', '6', 'Jobing.com Arena', '18', 'NSH', 'Nashville', 'Predators', '0', '1', '0', '0', '0', '0', '0', '0', '28', '25', '52.8', '2', '0', '0.0', '4', '1', '75.0', '0', '0', '0', '4', '21', '6', '15', '22']"
"['', '19820', '2013-01-31', '03:30:00 GMT', '18', 'NSH', 'Nashville', 'Predators', '28', 'LAK', 'Los Angeles', 'Kings', '25', 'Staples Center', '18', 'NSH', 'Nashville', 'Predators', '1', '0', '0', '0', '0', '0', '0', '2', '34', '29', '54.0', '1', '0', '0.0', '7', '1', '85.7', '0', '0', '1', '1', '13', '6', '12', '31']"
"['', '19839', '2013-02-02', '03:30:00 GMT', '18', 'NSH', 'Nashville', 'Predators', '26', 'SJS', 'San Jose', 'Sharks', '9', 'SAP Center at San Jose', '18', 'NSH', 'Nashville', 'Predators', '1', '0', '0', '0', '0', '0', '0', '2', '31', '33', '48.4', '3', '0', '0.0', '4', '1', '75.0', '0', '0', '1', '1', '23', '5', '10', '30']"
"['', '19857', '2013-02-05', '01:00:00 GMT', '18', 'NSH', 'Nashville', 'Predators', '17', 'STL', 'St. Louis', 'Blues', '24', 'Scottrade Center', '18', 'NSH', 'Nashville', 'Predators', '1', '0', '0', '0', '0', '0', '1', '2', '34', '36', '48.6', '2', '1', '50.0', '5', '1', '80.0', '0', '0', '6', '1', '13', '7', '14', '6']"
"['', '19871', '2013-02-07', '01:00:00 GMT', '28', 'LAK', 'Los Angeles', 'Kings', '18', 'NSH', 'Nashville', 'Predators', '15', 'Bridgestone Arena', '18', 'NSH', 'Nashville', 'Predators', '1', '0', '0', '0', '0', '0', '1', '2', '33', '25', '56.9', '2', '1', '50.0', '3', '0', '100.0', '0', '0', '3', '0', '11', '4', '11', '16']"
"['', '19885', '2013-02-09', '01:00:00 GMT', '18', 'NSH', 'Nashville', 'Predators', '25', 'MIN', 'Minnesota', 'Wild', '30', 'Xcel Energy Center', '18', 'NSH', 'Nashville', 'Predators', '0', '0', '0', '1', '0', '0', '0', '1', '29', '37', '43.9', '6', '0', '0.0', '4', '1', '75.0', '0', '0', '1', '2', '25', '6', '12', '14']"
"['', '19892', '2013-02-10', '01:00:00 GMT', '20', 'CHI', 'Chicago', 'Blackhawks', '18', 'NSH', 'Nashville', 'Predators', '15', 'Bridgestone Arena', '18', 'NSH', 'Nashville', 'Predators', '0', '1', '0', '0', '0', '0', '0', '0', '29', '20', '59.2', '1', '0', '0.0', '1', '0', '100.0', '0', '0', '0', '3', '17', '3', '9', '15']"
"['', '19905', '2013-02-12', '01:00:00 GMT', '26', 'SJS', 'San Jose', 'Sharks', '18', 'NSH', 'Nashville', 'Predators', '15', 'Bridgestone Arena', '18', 'NSH', 'Nashville', 'Predators', '1', '0', '0', '0', '0', '0', '1', '2', '35', '22', '61.4', '2', '0', '0.0', '4', '0', '100.0', '0', '0', '1', '0', '24', '6', '12', '17']"
"['', '19916', '2013-02-14', '01:00:00 GMT', '30', 'PHX', 'Phoenix', 'Coyotes', '18', 'NSH', 'Nashville', 'Predators', '15', 'Bridgestone Arena', '18', 'NSH', 'Nashville', 'Predators', '1', '0', '0', '0', '0', '0', '1', '2', '16', '30', '34.8', '2', '1', '50.0', '4', '0', '100.0', '0', '0', '3', '0', '26', '4', '8', '19']"
"['', '19930', '2013-02-16', '01:00:00 GMT', '29', 'ANA', 'Anaheim', 'Ducks', '18', 'NSH', 'Nashville', 'Predators', '15', 'Bridgestone Arena', '18', 'NSH', 'Nashville', 'Predators', '0', '0', '0', '1', '0', '0', '0', '1', '37', '26', '58.7', '5', '0', '0.0', '2', '0', '100.0', '0', '0', '2', '2', '32', '2', '4', '12']"
"['', '19942', '2013-02-18', '20:00:00 GMT', '18', 'NSH', 'Nashville', 'Predators', '22', 'COL', 'Colorado', 'Avalanche', '19', 'Pepsi Center', '18', 'NSH', 'Nashville', 'Predators', '0', '1', '0', '0', '0', '0', '0', '0', '29', '39', '42.6', '4', '1', '25.0', '2', '1', '50.0', '0', '0', '5', '6', '33', '2', '4', '16']"
"['', '19952', '2013-02-19', '01:00:00 GMT', '16', 'DET', 'Detroit', 'Red Wings', '18', 'NSH', 'Nashville', 'Predators', '15', 'Bridgestone Arena', '18', 'NSH', 'Nashville', 'Predators', '1', '0', '0', '0', '0', '0', '1', '2', '21', '31', '40.4', '6', '1', '16.7', '1', '0', '100.0', '0', '1', '4', '3', '21', '2', '4', '11']"
"['', '19969', '2013-02-22', '01:00:00 GMT', '21', 'VAN', 'Vancouver', 'Canucks', '18', 'NSH', 'Nashville', 'Predators', '15', 'Bridgestone Arena', '18', 'NSH', 'Nashville', 'Predators', '0', '1', '0', '0', '0', '0', '0', '0', '30', '28', '51.7', '2', '0', '0.0', '2', '0', '100.0', '0', '0', '0', '1', '23', '2', '4', '18']"
"['', '19979', '2013-02-23', '00:00:00 GMT', '18', 'NSH', 'Nashville', 'Predators', '16', 'DET', 'Detroit', 'Red Wings', '11', 'Joe Louis Arena', '18', 'NSH', 'Nashville', 'Predators', '0', '1', '0', '0', '0', '0', '0', '0', '24', '24', '50.0', '2', '0', '0.0', '2', '1', '50.0', '0', '0', '0', '4', '33', '2', '4', '15']"
"['', '19993', '2013-02-25', '01:00:00 GMT', '27', 'DAL', 'Dallas', 'Stars', '18', 'NSH', 'Nashville', 'Predators', '15', 'Bridgestone Arena', '18', 'NSH', 'Nashville', 'Predators', '1', '0', '0', '0', '0', '0', '1', '2', '31', '26', '54.4', '4', '1', '25.0', '4', '2', '50.0', '0', '0', '5', '4', '26', '6', '15', '28']"
"['', '20007', '2013-02-27', '03:00:00 GMT', '18', 'NSH', 'Nashville', 'Predators', '29', 'ANA', 'Anaheim', 'Ducks', '8', 'Honda Center', '18', 'NSH', 'Nashville', 'Predators', '0', '1', '0', '0', '0', '0', '0', '0', '35', '23', '60.3', '2', '0', '0.0', '3', '2', '33.3', '0', '0', '1', '5', '20', '5', '13', '18']"
"['', '20031', '2013-03-02', '03:30:00 GMT', '18', 'NSH', 'Nashville', 'Predators', '26', 'SJS', 'San Jose', 'Sharks', '9', 'SAP Center at San Jose', '18', 'NSH', 'Nashville', 'Predators', '0', '1', '0', '0', '0', '0', '0', '0', '24', '33', '42.1', '0', '0', '0.0', '4', '2', '50.0', '1', '0', '1', '2', '18', '4', '8', '26']"
"['', '20044', '2013-03-04', '03:30:00 GMT', '18', 'NSH', 'Nashville', 'Predators', '28', 'LAK', 'Los Angeles', 'Kings', '25', 'Staples Center', '18', 'NSH', 'Nashville', 'Predators', '0', '1', '0', '0', '0', '0', '0', '0', '24', '24', '50.0', '2', '0', '0.0', '3', '2', '33.3', '0', '0', '1', '5', '18', '4', '8', '28']"
"['', '20073', '2013-03-08', '01:00:00 GMT', '24', 'EDM', 'Edmonton', 'Oilers', '18', 'NSH', 'Nashville', 'Predators', '15', 'Bridgestone Arena', '18', 'NSH', 'Nashville', 'Predators', '1', '0', '0', '0', '0', '0', '1', '2', '30', '27', '52.6', '5', '2', '40.0', '0', '0', '0.0', '0', '0', '6', '0', '28', '2', '7', '17']"
"['', '20083', '2013-03-09', '01:00:00 GMT', '25', 'MIN', 'Minnesota', 'Wild', '18', 'NSH', 'Nashville', 'Predators', '15', 'Bridgestone Arena', '18', 'NSH', 'Nashville', 'Predators', '0', '0', '0', '1', '0', '0', '0', '1', '27', '31', '46.6', '2', '1', '50.0', '5', '1', '80.0', '0', '0', '1', '1', '24', '6', '12', '29']"
"['', '20106', '2013-03-12', '00:30:00 GMT', '18', 'NSH', 'Nashville', 'Predators', '27', 'DAL', 'Dallas', 'Stars', '2', 'American Airlines Center', '18', 'NSH', 'Nashville', 'Predators', '1', '0', '0', '0', '0', '0', '1', '2', '35', '32', '52.2', '5', '2', '40.0', '4', '0', '100.0', '0', '0', '4', '0', '17', '9', '35', '25']"
"['', '20121', '2013-03-14', '02:00:00 GMT', '18', 'NSH', 'Nashville', 'Predators', '21', 'VAN', 'Vancouver', 'Canucks', '7', 'Rogers Arena', '18', 'NSH', 'Nashville', 'Predators', '0', '1', '0', '0', '0', '0', '0', '0', '39', '28', '58.2', '4', '0', '0.0', '2', '0', '100.0', '0', '0', '4', '7', '29', '5', '24', '29']"
"['', '20124', '2013-03-15', '01:00:00 GMT', '18', 'NSH', 'Nashville', 'Predators', '23', 'CGY', 'Calgary', 'Flames', '18', 'Scotiabank Saddledome', '18', 'NSH', 'Nashville', 'Predators', '0', '1', '0', '0', '0', '0', '0', '0', '31', '26', '54.4', '2', '1', '50.0', '3', '1', '66.7', '0', '0', '3', '6', '17', '3', '6', '10']"
"['', '20142', '2013-03-17', '00:00:00 GMT', '18', 'NSH', 'Nashville', 'Predators', '24', 'EDM', 'Edmonton', 'Oilers', '22', 'Rogers Place', '18', 'NSH', 'Nashville', 'Predators', '0', '1', '0', '0', '0', '0', '0', '0', '28', '25', '52.8', '4', '1', '25.0', '2', '1', '50.0', '0', '1', '2', '3', '29', '2', '4', '19']"
"['', '20153', '2013-03-19', '23:00:00 GMT', '18', 'NSH', 'Nashville', 'Predators', '19', 'CBJ', 'Columbus', 'Blue Jackets', '17', 'Nationwide Arena', '18', 'NSH', 'Nashville', 'Predators', '0', '1', '0', '0', '0', '0', '0', '0', '23', '36', '39.0', '1', '0', '0.0', '3', '1', '66.7', '0', '0', '3', '4', '32', '3', '6', '20']"
"['', '20170', '2013-03-21', '00:00:00 GMT', '23', 'CGY', 'Calgary', 'Flames', '18', 'NSH', 'Nashville', 'Predators', '15', 'Bridgestone Arena', '18', 'NSH', 'Nashville', 'Predators', '1', '0', '0', '0', '0', '0', '1', '2', '32', '27', '54.2', '4', '1', '25.0', '3', '1', '66.7', '0', '2', '5', '3', '18', '5', '13', '24']"
"['', '20183', '2013-03-23', '00:00:00 GMT', '19', 'CBJ', 'Columbus', 'Blue Jackets', '18', 'NSH', 'Nashville', 'Predators', '15', 'Bridgestone Arena', '18', 'NSH', 'Nashville', 'Predators', '1', '0', '0', '0', '0', '0', '1', '2', '40', '28', '58.8', '2', '2', '100.0', '2', '1', '50.0', '0', '0', '5', '2', '19', '5', '24', '16']"
"['', '20196', '2013-03-25', '00:00:00 GMT', '24', 'EDM', 'Edmonton', 'Oilers', '18', 'NSH', 'Nashville', 'Predators', '15', 'Bridgestone Arena', '18', 'NSH', 'Nashville', 'Predators', '1', '0', '0', '0', '0', '0', '1', '2', '36', '28', '56.2', '2', '0', '0.0', '4', '1', '75.0', '0', '0', '3', '2', '23', '4', '8', '19']"
"['', '20219', '2013-03-28', '00:00:00 GMT', '30', 'PHX', 'Phoenix', 'Coyotes', '18', 'NSH', 'Nashville', 'Predators', '15', 'Bridgestone Arena', '18', 'NSH', 'Nashville', 'Predators', '0', '1', '0', '0', '0', '0', '0', '0', '23', '31', '42.6', '4', '0', '0.0', '2', '1', '50.0', '0', '0', '4', '7', '34', '3', '6', '20']"
"['', '20230', '2013-03-30', '19:00:00 GMT', '18', 'NSH', 'Nashville', 'Predators', '22', 'COL', 'Colorado', 'Avalanche', '19', 'Pepsi Center', '18', 'NSH', 'Nashville', 'Predators', '0', '0', '0', '1', '0', '0', '0', '1', '26', '31', '45.6', '6', '0', '0.0', '0', '0', '0.0', '0', '0', '0', '1', '34', '2', '7', '7']"
"['', '20248', '2013-04-01', '00:30:00 GMT', '18', 'NSH', 'Nashville', 'Predators', '20', 'CHI', 'Chicago', 'Blackhawks', '28', 'United Center', '18', 'NSH', 'Nashville', 'Predators', '0', '0', '0', '1', '0', '0', '0', '1', '25', '37', '40.3', '1', '0', '0.0', '2', '0', '100.0', '0', '0', '2', '2', '25', '4', '8', '46']"
"['', '20257', '2013-04-02', '00:00:00 GMT', '22', 'COL', 'Colorado', 'Avalanche', '18', 'NSH', 'Nashville', 'Predators', '15', 'Bridgestone Arena', '18', 'NSH', 'Nashville', 'Predators', '1', '0', '0', '0', '0', '0', '1', '2', '35', '25', '58.3', '3', '1', '33.3', '2', '0', '100.0', '0', '0', '3', '1', '35', '4', '11', '14']"
"['', '20269', '2013-04-04', '00:00:00 GMT', '19', 'CBJ', 'Columbus', 'Blue Jackets', '18', 'NSH', 'Nashville', 'Predators', '15', 'Bridgestone Arena', '18', 'NSH', 'Nashville', 'Predators', '0', '1', '0', '0', '0', '0', '0', '0', '27', '32', '45.8', '2', '0', '0.0', '2', '1', '50.0', '0', '0', '1', '3', '38', '3', '6', '20']"
"['', '20281', '2013-04-06', '19:00:00 GMT', '20', 'CHI', 'Chicago', 'Blackhawks', '18', 'NSH', 'Nashville', 'Predators', '15', 'Bridgestone Arena', '18', 'NSH', 'Nashville', 'Predators', '0', '1', '0', '0', '0', '0', '0', '0', '20', '29', '40.8', '3', '0', '0.0', '1', '0', '100.0', '0', '0', '0', '1', '20', '1', '2', '28']"
"['', '20295', '2013-04-07', '23:00:00 GMT', '18', 'NSH', 'Nashville', 'Predators', '20', 'CHI', 'Chicago', 'Blackhawks', '28', 'United Center', '18', 'NSH', 'Nashville', 'Predators', '0', '1', '0', '0', '0', '0', '0', '0', '23', '32', '41.8', '1', '0', '0.0', '1', '0', '100.0', '0', '0', '3', '5', '19', '1', '2', '42']"
"['', '20309', '2013-04-09', '00:00:00 GMT', '17', 'STL', 'St. Louis', 'Blues', '18', 'NSH', 'Nashville', 'Predators', '15', 'Bridgestone Arena', '18', 'NSH', 'Nashville', 'Predators', '0', '1', '0', '0', '0', '0', '0', '0', '28', '16', '63.6', '0', '0', '0.0', '1', '0', '100.0', '0', '0', '0', '1', '15', '1', '2', '18']"
"['', '20328', '2013-04-12', '00:00:00 GMT', '27', 'DAL', 'Dallas', 'Stars', '18', 'NSH', 'Nashville', 'Predators', '15', 'Bridgestone Arena', '18', 'NSH', 'Nashville', 'Predators', '0', '1', '0', '0', '0', '0', '0', '0', '31', '26', '54.4', '3', '1', '33.3', '3', '1', '66.7', '0', '0', '2', '5', '26', '4', '14', '26']"
"['', '20344', '2013-04-14', '23:30:00 GMT', '16', 'DET', 'Detroit', 'Red Wings', '18', 'NSH', 'Nashville', 'Predators', '15', 'Bridgestone Arena', '18', 'NSH', 'Nashville', 'Predators', '0', '1', '0', '0', '0', '0', '0', '0', '26', '27', '49.1', '2', '0', '0.0', '2', '0', '100.0', '0', '0', '0', '3', '22', '2', '4', '24']"
"['', '20349', '2013-04-15', '00:00:00 GMT', '21', 'VAN', 'Vancouver', 'Canucks', '18', 'NSH', 'Nashville', 'Predators', '15', 'Bridgestone Arena', '18', 'NSH', 'Nashville', 'Predators', '0', '1', '0', '0', '0', '0', '0', '0', '23', '32', '41.8', '1', '0', '0.0', '4', '2', '50.0', '0', '0', '2', '5', '36', '8', '27', '15']"
"['', '20378', '2013-04-19', '00:30:00 GMT', '18', 'NSH', 'Nashville', 'Predators', '20', 'CHI', 'Chicago', 'Blackhawks', '28', 'United Center', '18', 'NSH', 'Nashville', 'Predators', '0', '0', '0', '1', '0', '0', '0', '1', '29', '35', '45.3', '3', '0', '0.0', '2', '2', '0.0', '0', '0', '4', '5', '23', '3', '6', '32']"
"['', '20407', '2013-04-23', '00:00:00 GMT', '23', 'CGY', 'Calgary', 'Flames', '18', 'NSH', 'Nashville', 'Predators', '15', 'Bridgestone Arena', '18', 'NSH', 'Nashville', 'Predators', '1', '0', '0', '0', '0', '0', '1', '2', '27', '25', '51.9', '3', '1', '33.3', '1', '0', '100.0', '0', '0', '4', '3', '28', '2', '4', '14']"
"['', '20419', '2013-04-25', '23:30:00 GMT', '18', 'NSH', 'Nashville', 'Predators', '16', 'DET', 'Detroit', 'Red Wings', '11', 'Joe Louis Arena', '18', 'NSH', 'Nashville', 'Predators', '0', '1', '0', '0', '0', '0', '0', '0', '25', '32', '43.9', '4', '1', '25.0', '3', '1', '66.7', '0', '0', '2', '5', '20', '4', '8', '26']"
"['', '20433', '2013-04-27', '23:00:00 GMT', '18', 'NSH', 'Nashville', 'Predators', '19', 'CBJ', 'Columbus', 'Blue Jackets', '17', 'Nationwide Arena', '18', 'NSH', 'Nashville', 'Predators', '0', '1', '0', '0', '0', '0', '0', '0', '17', '41', '29.3', '0', '0', '0.0', '2', '1', '50.0', '0', '0', '1', '3', '19', '3', '6', '18']"
