"['#Date/Time of Update: 2018-12-10 19:03:10 GMT', '#Game ID', '#Game Date', '#Game Time', '#Away Team ID', '#Away Team Abbr.', '#Away Team City', '#Away Team Name', '#Home Team ID', '#Home Team Abbr.', '#Home Team City', '#Home Team Name', '#Venue ID', '#Venue Name', '#Team ID', '#Team Abbr.', '#Team City', '#Team Name', '#Wins', '#Losses', '#OvertimeWins', '#OvertimeLosses', '#ShootoutWins', '#ShootoutLosses', '#Rows', '#Points', '#FaceoffWins', '#FaceoffLosses', '#FaceoffPercent', '#Powerplays', '#PowerplayGoals', '#PowerplayPercent', '#PenaltyKills', '#PenaltyKillGoalsAllowed', '#PenaltyKillPercent', '#ShorthandedGoalsFor', '#ShorthandedGoalsAgainst', '#GoalsFor', '#GoalsAgainst', '#Shots', '#Penalties', '#PenaltyMinutes', '#Hits']"
"['', '26356', '2013-10-01', '00:00:00 GMT', '5', 'WSH', 'Washington', 'Capitals', '20', 'CHI', 'Chicago', 'Blackhawks', '28', 'United Center', '5', 'WSH', 'Washington', 'Capitals', '0', '1', '0', '0', '0', '0', '0', '0', '29', '31', '48.3', '4', '3', '75.0', '4', '1', '75.0', '0', '0', '4', '6', '28', '4', '8', '28']"
"['', '27585', '2013-10-04', '11:00:00 GMT', '23', 'CGY', 'Calgary', 'Flames', '5', 'WSH', 'Washington', 'Capitals', '13', 'Verizon Center', '5', 'WSH', 'Washington', 'Capitals', '1', '0', '0', '0', '0', '0', '0', '2', '46', '29', '61.3', '3', '2', '66.7', '5', '1', '80.0', '0', '0', '4', '4', '35', '7', '17', '30']"
"['', '26382', '2013-10-05', '00:00:00 GMT', '5', 'WSH', 'Washington', 'Capitals', '27', 'DAL', 'Dallas', 'Stars', '2', 'American Airlines Center', '5', 'WSH', 'Washington', 'Capitals', '0', '1', '0', '0', '0', '0', '0', '0', '27', '25', '51.9', '3', '1', '33.3', '2', '0', '100.0', '0', '0', '1', '2', '25', '2', '4', '28']"
"['', '26404', '2013-10-10', '23:00:00 GMT', '3', 'CAR', 'Carolina', 'Hurricanes', '5', 'WSH', 'Washington', 'Capitals', '13', 'Verizon Center', '5', 'WSH', 'Washington', 'Capitals', '0', '1', '0', '0', '0', '0', '0', '0', '39', '32', '54.9', '3', '0', '0.0', '4', '1', '75.0', '0', '0', '2', '3', '30', '7', '14', '26']"
"['', '26421', '2013-10-12', '23:00:00 GMT', '22', 'COL', 'Colorado', 'Avalanche', '5', 'WSH', 'Washington', 'Capitals', '13', 'Verizon Center', '5', 'WSH', 'Washington', 'Capitals', '0', '1', '0', '0', '0', '0', '0', '0', '35', '35', '50.0', '2', '0', '0.0', '3', '1', '66.7', '0', '1', '1', '5', '40', '3', '6', '25']"
"['', '26434', '2013-10-14', '23:00:00 GMT', '24', 'EDM', 'Edmonton', 'Oilers', '5', 'WSH', 'Washington', 'Capitals', '13', 'Verizon Center', '5', 'WSH', 'Washington', 'Capitals', '1', '0', '0', '0', '0', '0', '1', '2', '28', '26', '51.9', '3', '2', '66.7', '3', '0', '100.0', '0', '0', '4', '2', '16', '6', '12', '28']"
"['', '26448', '2013-10-16', '23:30:00 GMT', '9', 'NYR', 'New York', 'Rangers', '5', 'WSH', 'Washington', 'Capitals', '13', 'Verizon Center', '5', 'WSH', 'Washington', 'Capitals', '0', '1', '0', '0', '0', '0', '0', '0', '37', '31', '54.4', '3', '0', '0.0', '2', '0', '100.0', '0', '0', '0', '2', '22', '5', '13', '21']"
"['', '26472', '2013-10-19', '23:00:00 GMT', '19', 'CBJ', 'Columbus', 'Blue Jackets', '5', 'WSH', 'Washington', 'Capitals', '13', 'Verizon Center', '5', 'WSH', 'Washington', 'Capitals', '1', '0', '0', '0', '0', '0', '1', '2', '26', '33', '44.1', '3', '2', '66.7', '2', '0', '100.0', '0', '0', '4', '1', '35', '4', '11', '28']"
"['', '26489', '2013-10-22', '00:00:00 GMT', '5', 'WSH', 'Washington', 'Capitals', '2', 'WPJ', 'Winnipeg', 'Jets', '39', 'MTS Centre', '5', 'WSH', 'Washington', 'Capitals', '1', '0', '0', '0', '0', '0', '0', '2', '34', '47', '42.0', '4', '1', '25.0', '3', '0', '100.0', '0', '1', '4', '4', '28', '5', '13', '25']"
"['', '26501', '2013-10-24', '01:30:00 GMT', '5', 'WSH', 'Washington', 'Capitals', '24', 'EDM', 'Edmonton', 'Oilers', '22', 'Rogers Place', '5', 'WSH', 'Washington', 'Capitals', '1', '0', '0', '0', '0', '0', '1', '2', '21', '32', '39.6', '1', '0', '0.0', '3', '0', '100.0', '0', '0', '4', '1', '22', '4', '8', '25']"
"['', '26519', '2013-10-26', '02:00:00 GMT', '5', 'WSH', 'Washington', 'Capitals', '23', 'CGY', 'Calgary', 'Flames', '18', 'Scotiabank Saddledome', '5', 'WSH', 'Washington', 'Capitals', '0', '1', '0', '0', '0', '0', '0', '0', '26', '31', '45.6', '4', '0', '0.0', '3', '0', '100.0', '0', '0', '2', '5', '27', '3', '6', '16']"
"['', '26529', '2013-10-28', '02:00:00 GMT', '5', 'WSH', 'Washington', 'Capitals', '21', 'VAN', 'Vancouver', 'Canucks', '7', 'Rogers Arena', '5', 'WSH', 'Washington', 'Capitals', '0', '1', '0', '0', '0', '0', '0', '0', '17', '34', '33.3', '3', '0', '0.0', '5', '0', '100.0', '0', '0', '2', '3', '16', '6', '12', '18']"
"['', '26545', '2013-11-01', '23:00:00 GMT', '5', 'WSH', 'Washington', 'Capitals', '6', 'PHI', 'Philadelphia', 'Flyers', '29', 'Wells Fargo Center', '5', 'WSH', 'Washington', 'Capitals', '1', '0', '0', '0', '0', '0', '1', '2', '34', '31', '52.3', '5', '2', '40.0', '4', '0', '100.0', '0', '0', '7', '0', '25', '13', '65', '21']"
"['', '26559', '2013-11-02', '23:00:00 GMT', '4', 'FLO', 'Florida', 'Panthers', '5', 'WSH', 'Washington', 'Capitals', '13', 'Verizon Center', '5', 'WSH', 'Washington', 'Capitals', '1', '0', '0', '0', '0', '0', '0', '2', '35', '31', '53.0', '3', '0', '0.0', '6', '1', '83.3', '0', '0', '2', '2', '21', '9', '21', '22']"
"['', '26572', '2013-11-05', '00:00:00 GMT', '8', 'NYI', 'New York', 'Islanders', '5', 'WSH', 'Washington', 'Capitals', '13', 'Verizon Center', '5', 'WSH', 'Washington', 'Capitals', '1', '0', '0', '0', '0', '0', '1', '2', '36', '38', '48.6', '6', '4', '66.7', '5', '0', '100.0', '0', '0', '6', '2', '33', '8', '32', '22']"
"['', '26587', '2013-11-07', '00:00:00 GMT', '25', 'MIN', 'Minnesota', 'Wild', '5', 'WSH', 'Washington', 'Capitals', '13', 'Verizon Center', '5', 'WSH', 'Washington', 'Capitals', '1', '0', '0', '0', '0', '0', '0', '2', '25', '34', '42.4', '3', '1', '33.3', '3', '1', '66.7', '0', '0', '2', '2', '25', '3', '6', '23']"
"['', '26607', '2013-11-09', '01:00:00 GMT', '5', 'WSH', 'Washington', 'Capitals', '30', 'PHX', 'Phoenix', 'Coyotes', '6', 'Jobing.com Arena', '5', 'WSH', 'Washington', 'Capitals', '0', '0', '0', '1', '0', '0', '0', '1', '39', '42', '48.1', '6', '2', '33.3', '5', '2', '60.0', '0', '0', '3', '3', '29', '8', '19', '23']"
"['', '26614', '2013-11-10', '01:00:00 GMT', '5', 'WSH', 'Washington', 'Capitals', '22', 'COL', 'Colorado', 'Avalanche', '19', 'Pepsi Center', '5', 'WSH', 'Washington', 'Capitals', '0', '1', '0', '0', '0', '0', '0', '0', '31', '24', '56.4', '4', '0', '0.0', '2', '0', '100.0', '0', '0', '1', '4', '33', '3', '6', '14']"
"['', '26620', '2013-11-12', '00:00:00 GMT', '19', 'CBJ', 'Columbus', 'Blue Jackets', '5', 'WSH', 'Washington', 'Capitals', '13', 'Verizon Center', '5', 'WSH', 'Washington', 'Capitals', '1', '0', '0', '0', '0', '0', '1', '2', '22', '36', '37.9', '2', '0', '0.0', '3', '0', '100.0', '1', '1', '4', '3', '30', '3', '6', '25']"
"['', '26644', '2013-11-15', '00:30:00 GMT', '5', 'WSH', 'Washington', 'Capitals', '16', 'DET', 'Detroit', 'Red Wings', '11', 'Joe Louis Arena', '5', 'WSH', 'Washington', 'Capitals', '1', '0', '0', '0', '0', '0', '0', '2', '30', '32', '48.4', '4', '0', '0.0', '4', '2', '50.0', '0', '0', '3', '3', '30', '5', '10', '27']"
"['', '26658', '2013-11-17', '23:00:00 GMT', '17', 'STL', 'St. Louis', 'Blues', '5', 'WSH', 'Washington', 'Capitals', '13', 'Verizon Center', '5', 'WSH', 'Washington', 'Capitals', '1', '0', '0', '0', '0', '0', '1', '2', '31', '33', '48.4', '3', '1', '33.3', '6', '1', '83.3', '0', '0', '4', '1', '16', '6', '15', '19']"
"['', '26677', '2013-11-20', '00:30:00 GMT', '10', 'PIT', 'Pittsburgh', 'Penguins', '5', 'WSH', 'Washington', 'Capitals', '13', 'Verizon Center', '5', 'WSH', 'Washington', 'Capitals', '0', '1', '0', '0', '0', '0', '0', '0', '32', '30', '51.6', '2', '0', '0.0', '3', '1', '66.7', '0', '0', '0', '4', '18', '3', '6', '31']"
"['', '26691', '2013-11-22', '00:00:00 GMT', '14', 'MTL', 'Montreal', 'Canadiens', '5', 'WSH', 'Washington', 'Capitals', '13', 'Verizon Center', '5', 'WSH', 'Washington', 'Capitals', '0', '1', '0', '0', '0', '0', '0', '0', '45', '32', '58.4', '1', '1', '100.0', '5', '1', '80.0', '0', '0', '2', '3', '25', '6', '15', '26']"
"['', '26697', '2013-11-23', '00:00:00 GMT', '5', 'WSH', 'Washington', 'Capitals', '12', 'TOR', 'Toronto', 'Maple Leafs', '1', 'Air Canada Center', '5', 'WSH', 'Washington', 'Capitals', '0', '0', '0', '1', '0', '0', '0', '1', '24', '39', '38.1', '3', '0', '0.0', '1', '1', '0.0', '0', '0', '1', '1', '49', '1', '2', '41']"
"['', '26722', '2013-11-27', '00:00:00 GMT', '13', 'OTT', 'Ottawa', 'Senators', '5', 'WSH', 'Washington', 'Capitals', '13', 'Verizon Center', '5', 'WSH', 'Washington', 'Capitals', '0', '1', '0', '0', '0', '0', '0', '0', '32', '44', '42.1', '2', '2', '100.0', '5', '3', '40.0', '0', '0', '4', '6', '29', '12', '38', '16']"
"['', '26740', '2013-11-29', '22:00:00 GMT', '14', 'MTL', 'Montreal', 'Canadiens', '5', 'WSH', 'Washington', 'Capitals', '13', 'Verizon Center', '5', 'WSH', 'Washington', 'Capitals', '1', '0', '0', '0', '0', '0', '0', '2', '33', '36', '47.8', '4', '0', '0.0', '2', '0', '100.0', '0', '0', '2', '2', '24', '3', '6', '31']"
"['', '26751', '2013-11-30', '00:00:00 GMT', '5', 'WSH', 'Washington', 'Capitals', '8', 'NYI', 'New York', 'Islanders', '16', 'Nassau Veterans Memorial Coliseum', '5', 'WSH', 'Washington', 'Capitals', '1', '0', '0', '0', '0', '0', '1', '2', '20', '28', '41.7', '1', '0', '0.0', '2', '0', '100.0', '1', '1', '3', '2', '27', '2', '4', '22']"
"['', '26766', '2013-12-03', '00:00:00 GMT', '3', 'CAR', 'Carolina', 'Hurricanes', '5', 'WSH', 'Washington', 'Capitals', '13', 'Verizon Center', '5', 'WSH', 'Washington', 'Capitals', '0', '1', '0', '0', '0', '0', '0', '0', '30', '36', '45.5', '4', '1', '25.0', '3', '1', '66.7', '0', '0', '1', '4', '26', '4', '8', '22']"
"['', '26798', '2013-12-07', '00:00:00 GMT', '18', 'NSH', 'Nashville', 'Predators', '5', 'WSH', 'Washington', 'Capitals', '13', 'Verizon Center', '5', 'WSH', 'Washington', 'Capitals', '1', '0', '0', '0', '0', '0', '1', '2', '34', '30', '53.1', '4', '1', '25.0', '1', '0', '100.0', '0', '0', '5', '2', '28', '2', '7', '16']"
"['', '26805', '2013-12-08', '00:00:00 GMT', '5', 'WSH', 'Washington', 'Capitals', '9', 'NYR', 'New York', 'Rangers', '12', 'Madison Square Garden', '5', 'WSH', 'Washington', 'Capitals', '1', '0', '0', '0', '0', '0', '1', '2', '28', '29', '49.1', '2', '0', '0.0', '2', '0', '100.0', '0', '0', '4', '1', '32', '3', '6', '23']"
"['', '26813', '2013-12-10', '00:00:00 GMT', '1', 'TBL', 'Tampa Bay', 'Lightning', '5', 'WSH', 'Washington', 'Capitals', '13', 'Verizon Center', '5', 'WSH', 'Washington', 'Capitals', '1', '0', '0', '0', '0', '0', '0', '2', '36', '22', '62.1', '3', '3', '100.0', '4', '2', '50.0', '0', '0', '5', '5', '26', '6', '20', '28']"
"['', '26839', '2013-12-13', '00:30:00 GMT', '5', 'WSH', 'Washington', 'Capitals', '4', 'FLO', 'Florida', 'Panthers', '3', 'BB&T Center', '5', 'WSH', 'Washington', 'Capitals', '0', '0', '0', '1', '0', '0', '0', '1', '27', '26', '50.9', '1', '0', '0.0', '3', '1', '66.7', '1', '0', '2', '2', '23', '5', '21', '24']"
"['', '26853', '2013-12-15', '20:00:00 GMT', '6', 'PHI', 'Philadelphia', 'Flyers', '5', 'WSH', 'Washington', 'Capitals', '13', 'Verizon Center', '5', 'WSH', 'Washington', 'Capitals', '1', '0', '0', '0', '0', '0', '0', '2', '40', '29', '58.0', '4', '1', '25.0', '3', '0', '100.0', '0', '0', '4', '4', '29', '6', '18', '29']"
"['', '26869', '2013-12-17', '00:30:00 GMT', '5', 'WSH', 'Washington', 'Capitals', '6', 'PHI', 'Philadelphia', 'Flyers', '29', 'Wells Fargo Center', '5', 'WSH', 'Washington', 'Capitals', '0', '1', '0', '0', '0', '0', '0', '0', '27', '25', '51.9', '2', '1', '50.0', '4', '2', '50.0', '0', '0', '2', '5', '24', '9', '35', '23']"
"['', '26890', '2013-12-20', '00:00:00 GMT', '5', 'WSH', 'Washington', 'Capitals', '3', 'CAR', 'Carolina', 'Hurricanes', '21', 'RBC Center', '5', 'WSH', 'Washington', 'Capitals', '1', '0', '0', '0', '0', '0', '1', '2', '29', '35', '45.3', '4', '3', '75.0', '5', '1', '80.0', '0', '0', '4', '2', '25', '6', '12', '23']"
"['', '26900', '2013-12-21', '00:00:00 GMT', '7', 'NJD', 'New Jersey', 'Devils', '5', 'WSH', 'Washington', 'Capitals', '13', 'Verizon Center', '5', 'WSH', 'Washington', 'Capitals', '0', '0', '0', '1', '0', '0', '0', '1', '29', '18', '61.7', '1', '0', '0.0', '2', '2', '0.0', '0', '0', '4', '5', '18', '2', '4', '29']"
"['', '26909', '2013-12-23', '00:00:00 GMT', '29', 'ANA', 'Anaheim', 'Ducks', '5', 'WSH', 'Washington', 'Capitals', '13', 'Verizon Center', '5', 'WSH', 'Washington', 'Capitals', '0', '1', '0', '0', '0', '0', '0', '0', '45', '23', '66.2', '4', '1', '25.0', '3', '0', '100.0', '0', '0', '2', '3', '17', '4', '8', '19']"
"['', '26924', '2013-12-27', '00:00:00 GMT', '9', 'NYR', 'New York', 'Rangers', '5', 'WSH', 'Washington', 'Capitals', '13', 'Verizon Center', '5', 'WSH', 'Washington', 'Capitals', '1', '0', '0', '0', '0', '0', '1', '2', '33', '33', '50.0', '3', '1', '33.3', '3', '1', '66.7', '0', '1', '3', '2', '31', '5', '10', '28']"
"['', '26939', '2013-12-29', '22:00:00 GMT', '5', 'WSH', 'Washington', 'Capitals', '15', 'BUF', 'Buffalo', 'Sabres', '10', 'First Niagara Center', '5', 'WSH', 'Washington', 'Capitals', '0', '0', '0', '1', '0', '0', '0', '1', '33', '31', '51.6', '2', '0', '0.0', '0', '0', '0.0', '0', '0', '1', '1', '49', '2', '7', '10']"
"['', '26949', '2013-12-30', '00:30:00 GMT', '5', 'WSH', 'Washington', 'Capitals', '13', 'OTT', 'Ottawa', 'Senators', '23', 'Canadian Tire Centre', '5', 'WSH', 'Washington', 'Capitals', '0', '1', '0', '0', '0', '0', '0', '0', '27', '32', '45.8', '2', '0', '0.0', '4', '0', '100.0', '0', '0', '1', '3', '34', '4', '8', '26']"
"['', '26968', '2014-01-02', '00:00:00 GMT', '3', 'CAR', 'Carolina', 'Hurricanes', '5', 'WSH', 'Washington', 'Capitals', '13', 'Verizon Center', '5', 'WSH', 'Washington', 'Capitals', '0', '0', '0', '1', '0', '0', '0', '1', '41', '33', '55.4', '1', '0', '0.0', '4', '1', '75.0', '0', '0', '3', '4', '38', '4', '8', '23']"
"['', '26989', '2014-01-04', '01:00:00 GMT', '5', 'WSH', 'Washington', 'Capitals', '25', 'MIN', 'Minnesota', 'Wild', '30', 'Xcel Energy Center', '5', 'WSH', 'Washington', 'Capitals', '0', '1', '0', '0', '0', '0', '0', '0', '27', '37', '42.2', '2', '1', '50.0', '5', '3', '40.0', '0', '0', '3', '5', '27', '7', '17', '10']"
"['', '27017', '2014-01-09', '00:30:00 GMT', '5', 'WSH', 'Washington', 'Capitals', '1', 'TBL', 'Tampa Bay', 'Lightning', '26', 'Tampa Bay Times Forum', '5', 'WSH', 'Washington', 'Capitals', '1', '0', '0', '0', '0', '0', '1', '2', '28', '26', '51.9', '3', '2', '66.7', '0', '0', '0.0', '0', '0', '4', '3', '16', '1', '2', '18']"
"['', '27024', '2014-01-10', '00:00:00 GMT', '12', 'TOR', 'Toronto', 'Maple Leafs', '5', 'WSH', 'Washington', 'Capitals', '13', 'Verizon Center', '5', 'WSH', 'Washington', 'Capitals', '1', '0', '0', '0', '0', '0', '1', '2', '34', '39', '46.6', '4', '0', '0.0', '3', '1', '66.7', '0', '0', '3', '2', '32', '6', '18', '21']"
"['', '27039', '2014-01-12', '20:00:00 GMT', '15', 'BUF', 'Buffalo', 'Sabres', '5', 'WSH', 'Washington', 'Capitals', '13', 'Verizon Center', '5', 'WSH', 'Washington', 'Capitals', '0', '0', '0', '1', '0', '0', '0', '1', '30', '33', '47.6', '2', '0', '0.0', '5', '1', '80.0', '0', '0', '1', '1', '28', '5', '10', '29']"
"['', '27052', '2014-01-14', '00:00:00 GMT', '26', 'SJS', 'San Jose', 'Sharks', '5', 'WSH', 'Washington', 'Capitals', '13', 'Verizon Center', '5', 'WSH', 'Washington', 'Capitals', '0', '0', '0', '1', '0', '0', '0', '1', '33', '33', '50.0', '1', '0', '0.0', '1', '0', '100.0', '0', '0', '1', '1', '35', '2', '7', '26']"
"['', '27062', '2014-01-15', '01:00:00 GMT', '5', 'WSH', 'Washington', 'Capitals', '10', 'PIT', 'Pittsburgh', 'Penguins', '40', 'Consol Energy Center', '5', 'WSH', 'Washington', 'Capitals', '0', '1', '0', '0', '0', '0', '0', '0', '24', '23', '51.1', '1', '0', '0.0', '3', '0', '100.0', '1', '0', '3', '4', '25', '4', '8', '22']"
"['', '27075', '2014-01-17', '00:00:00 GMT', '5', 'WSH', 'Washington', 'Capitals', '19', 'CBJ', 'Columbus', 'Blue Jackets', '17', 'Nationwide Arena', '5', 'WSH', 'Washington', 'Capitals', '0', '1', '0', '0', '0', '0', '0', '0', '27', '35', '43.5', '4', '0', '0.0', '3', '2', '33.3', '0', '0', '1', '5', '26', '6', '15', '18']"
"['', '27092', '2014-01-19', '00:30:00 GMT', '5', 'WSH', 'Washington', 'Capitals', '9', 'NYR', 'New York', 'Rangers', '12', 'Madison Square Garden', '5', 'WSH', 'Washington', 'Capitals', '0', '1', '0', '0', '0', '0', '0', '0', '22', '30', '42.3', '4', '1', '25.0', '5', '1', '80.0', '0', '0', '1', '4', '24', '6', '12', '25']"
"['', '27104', '2014-01-21', '00:00:00 GMT', '13', 'OTT', 'Ottawa', 'Senators', '5', 'WSH', 'Washington', 'Capitals', '13', 'Verizon Center', '5', 'WSH', 'Washington', 'Capitals', '0', '1', '0', '0', '0', '0', '0', '0', '29', '31', '48.3', '3', '0', '0.0', '4', '1', '75.0', '0', '0', '0', '2', '34', '6', '20', '28']"
"['', '27123', '2014-01-24', '00:00:00 GMT', '5', 'WSH', 'Washington', 'Capitals', '7', 'NJD', 'New Jersey', 'Devils', '37', 'Prudential Center', '5', 'WSH', 'Washington', 'Capitals', '0', '1', '0', '0', '0', '0', '0', '0', '31', '25', '55.4', '3', '0', '0.0', '5', '1', '80.0', '0', '0', '1', '2', '30', '5', '10', '10']"
"['', '27131', '2014-01-25', '00:00:00 GMT', '5', 'WSH', 'Washington', 'Capitals', '14', 'MTL', 'Montreal', 'Canadiens', '4', 'Bell Centre', '5', 'WSH', 'Washington', 'Capitals', '1', '0', '0', '0', '0', '0', '1', '2', '25', '36', '41.0', '7', '1', '14.3', '3', '0', '100.0', '0', '0', '5', '0', '29', '5', '13', '8']"
"['', '27152', '2014-01-28', '00:30:00 GMT', '5', 'WSH', 'Washington', 'Capitals', '15', 'BUF', 'Buffalo', 'Sabres', '10', 'First Niagara Center', '5', 'WSH', 'Washington', 'Capitals', '1', '0', '0', '0', '0', '0', '1', '2', '28', '36', '43.8', '3', '2', '66.7', '2', '1', '50.0', '0', '0', '5', '4', '30', '2', '4', '10']"
"['', '27164', '2014-01-30', '00:00:00 GMT', '5', 'WSH', 'Washington', 'Capitals', '19', 'CBJ', 'Columbus', 'Blue Jackets', '17', 'Nationwide Arena', '5', 'WSH', 'Washington', 'Capitals', '0', '1', '0', '0', '0', '0', '0', '0', '35', '33', '51.5', '7', '0', '0.0', '5', '0', '100.0', '1', '1', '2', '5', '30', '9', '24', '28']"
"['', '27174', '2014-01-31', '00:30:00 GMT', '5', 'WSH', 'Washington', 'Capitals', '16', 'DET', 'Detroit', 'Red Wings', '11', 'Joe Louis Arena', '5', 'WSH', 'Washington', 'Capitals', '0', '0', '0', '1', '0', '0', '0', '1', '30', '29', '50.8', '2', '1', '50.0', '5', '0', '100.0', '0', '0', '3', '3', '26', '5', '10', '24']"
"['', '27582', '2014-02-03', '05:30:00 GMT', '16', 'DET', 'Detroit', 'Red Wings', '5', 'WSH', 'Washington', 'Capitals', '13', 'Verizon Center', '5', 'WSH', 'Washington', 'Capitals', '1', '0', '0', '0', '0', '0', '1', '2', '46', '30', '60.5', '6', '3', '50.0', '3', '2', '33.3', '0', '0', '6', '5', '22', '3', '6', '40']"
"['', '27201', '2014-02-04', '00:30:00 GMT', '8', 'NYI', 'New York', 'Islanders', '5', 'WSH', 'Washington', 'Capitals', '13', 'Verizon Center', '5', 'WSH', 'Washington', 'Capitals', '0', '1', '0', '0', '0', '0', '0', '0', '27', '22', '55.1', '6', '0', '0.0', '3', '0', '100.0', '0', '0', '0', '1', '22', '8', '27', '22']"
"['', '27211', '2014-02-06', '00:00:00 GMT', '2', 'WPJ', 'Winnipeg', 'Jets', '5', 'WSH', 'Washington', 'Capitals', '13', 'Verizon Center', '5', 'WSH', 'Washington', 'Capitals', '1', '0', '0', '0', '0', '0', '1', '2', '33', '24', '57.9', '4', '0', '0.0', '1', '0', '100.0', '0', '0', '4', '2', '26', '1', '2', '26']"
"['', '27231', '2014-02-08', '00:00:00 GMT', '7', 'NJD', 'New Jersey', 'Devils', '5', 'WSH', 'Washington', 'Capitals', '13', 'Verizon Center', '5', 'WSH', 'Washington', 'Capitals', '1', '0', '0', '0', '0', '0', '1', '2', '28', '26', '51.9', '4', '0', '0.0', '3', '0', '100.0', '0', '0', '3', '0', '23', '4', '8', '19']"
"['', '27244', '2014-02-27', '00:30:00 GMT', '5', 'WSH', 'Washington', 'Capitals', '4', 'FLO', 'Florida', 'Panthers', '3', 'BB&T Center', '5', 'WSH', 'Washington', 'Capitals', '1', '0', '0', '0', '0', '0', '1', '2', '33', '28', '54.1', '2', '2', '100.0', '6', '1', '83.3', '0', '0', '5', '4', '27', '6', '12', '26']"
"['', '27254', '2014-03-01', '18:00:00 GMT', '5', 'WSH', 'Washington', 'Capitals', '11', 'BOS', 'Boston', 'Bruins', '27', 'TD Garden', '5', 'WSH', 'Washington', 'Capitals', '1', '0', '0', '0', '0', '0', '1', '2', '25', '38', '39.7', '6', '2', '33.3', '3', '1', '66.7', '0', '0', '4', '2', '27', '5', '10', '21']"
"['', '27584', '2014-03-02', '05:30:00 GMT', '6', 'PHI', 'Philadelphia', 'Flyers', '5', 'WSH', 'Washington', 'Capitals', '13', 'Verizon Center', '5', 'WSH', 'Washington', 'Capitals', '0', '0', '0', '1', '0', '0', '0', '1', '23', '37', '38.3', '4', '0', '0.0', '3', '2', '33.3', '0', '0', '4', '5', '25', '6', '15', '17']"
"['', '27286', '2014-03-05', '01:00:00 GMT', '5', 'WSH', 'Washington', 'Capitals', '6', 'PHI', 'Philadelphia', 'Flyers', '29', 'Wells Fargo Center', '5', 'WSH', 'Washington', 'Capitals', '0', '1', '0', '0', '0', '0', '0', '0', '23', '39', '37.1', '4', '3', '75.0', '2', '1', '50.0', '0', '0', '4', '6', '21', '8', '38', '36']"
"['', '27289', '2014-03-06', '00:00:00 GMT', '5', 'WSH', 'Washington', 'Capitals', '11', 'BOS', 'Boston', 'Bruins', '27', 'TD Garden', '5', 'WSH', 'Washington', 'Capitals', '0', '1', '0', '0', '0', '0', '0', '0', '24', '29', '45.3', '0', '0', '0.0', '0', '0', '0.0', '0', '0', '0', '3', '16', '0', '0', '24']"
"['', '27309', '2014-03-08', '00:00:00 GMT', '30', 'PHX', 'Phoenix', 'Coyotes', '5', 'WSH', 'Washington', 'Capitals', '13', 'Verizon Center', '5', 'WSH', 'Washington', 'Capitals', '1', '0', '0', '0', '0', '0', '1', '2', '26', '33', '44.1', '2', '1', '50.0', '3', '1', '66.7', '0', '0', '3', '2', '30', '3', '6', '33']"
"['', '27319', '2014-03-10', '23:00:00 GMT', '10', 'PIT', 'Pittsburgh', 'Penguins', '5', 'WSH', 'Washington', 'Capitals', '13', 'Verizon Center', '5', 'WSH', 'Washington', 'Capitals', '0', '1', '0', '0', '0', '0', '0', '0', '22', '30', '42.3', '4', '1', '25.0', '3', '1', '66.7', '0', '0', '2', '3', '31', '3', '6', '26']"
"['', '27332', '2014-03-11', '23:30:00 GMT', '5', 'WSH', 'Washington', 'Capitals', '10', 'PIT', 'Pittsburgh', 'Penguins', '40', 'Consol Energy Center', '5', 'WSH', 'Washington', 'Capitals', '0', '1', '0', '0', '0', '0', '0', '0', '15', '32', '31.9', '2', '0', '0.0', '1', '0', '100.0', '0', '0', '0', '2', '32', '2', '4', '22']"
"['', '27348', '2014-03-14', '23:00:00 GMT', '21', 'VAN', 'Vancouver', 'Canucks', '5', 'WSH', 'Washington', 'Capitals', '13', 'Verizon Center', '5', 'WSH', 'Washington', 'Capitals', '1', '0', '0', '0', '0', '0', '1', '2', '35', '23', '60.3', '2', '1', '50.0', '3', '0', '100.0', '0', '0', '4', '3', '17', '5', '10', '23']"
"['', '27365', '2014-03-16', '19:00:00 GMT', '12', 'TOR', 'Toronto', 'Maple Leafs', '5', 'WSH', 'Washington', 'Capitals', '13', 'Verizon Center', '5', 'WSH', 'Washington', 'Capitals', '1', '0', '0', '0', '0', '0', '1', '2', '33', '35', '48.5', '4', '2', '50.0', '3', '0', '100.0', '0', '0', '4', '2', '29', '3', '6', '22']"
"['', '27387', '2014-03-18', '02:00:00 GMT', '5', 'WSH', 'Washington', 'Capitals', '29', 'ANA', 'Anaheim', 'Ducks', '8', 'Honda Center', '5', 'WSH', 'Washington', 'Capitals', '1', '0', '0', '0', '0', '0', '1', '2', '35', '37', '48.6', '3', '2', '66.7', '6', '0', '100.0', '0', '0', '3', '2', '27', '6', '12', '25']"
"['', '27400', '2014-03-20', '02:30:00 GMT', '5', 'WSH', 'Washington', 'Capitals', '28', 'LAK', 'Los Angeles', 'Kings', '25', 'Staples Center', '5', 'WSH', 'Washington', 'Capitals', '0', '0', '0', '1', '0', '0', '0', '1', '29', '33', '46.8', '3', '0', '0.0', '3', '0', '100.0', '0', '0', '1', '1', '21', '4', '11', '22']"
"['', '27416', '2014-03-22', '02:30:00 GMT', '5', 'WSH', 'Washington', 'Capitals', '26', 'SJS', 'San Jose', 'Sharks', '9', 'SAP Center at San Jose', '5', 'WSH', 'Washington', 'Capitals', '1', '0', '0', '0', '0', '0', '0', '2', '20', '45', '30.8', '3', '0', '0.0', '3', '0', '100.0', '0', '0', '2', '2', '24', '3', '6', '24']"
"['', '27432', '2014-03-25', '23:00:00 GMT', '28', 'LAK', 'Los Angeles', 'Kings', '5', 'WSH', 'Washington', 'Capitals', '13', 'Verizon Center', '5', 'WSH', 'Washington', 'Capitals', '0', '0', '0', '1', '0', '0', '0', '1', '29', '34', '46.0', '4', '2', '50.0', '3', '1', '66.7', '1', '0', '4', '4', '23', '4', '8', '36']"
"['', '27580', '2014-03-29', '04:30:00 GMT', '11', 'BOS', 'Boston', 'Bruins', '5', 'WSH', 'Washington', 'Capitals', '13', 'Verizon Center', '5', 'WSH', 'Washington', 'Capitals', '0', '1', '0', '0', '0', '0', '0', '0', '30', '35', '46.2', '3', '0', '0.0', '4', '2', '50.0', '0', '0', '2', '4', '31', '4', '8', '33']"
"['', '27473', '2014-03-30', '00:00:00 GMT', '5', 'WSH', 'Washington', 'Capitals', '18', 'NSH', 'Nashville', 'Predators', '15', 'Bridgestone Arena', '5', 'WSH', 'Washington', 'Capitals', '0', '0', '0', '1', '0', '0', '0', '1', '36', '37', '49.3', '4', '2', '50.0', '0', '0', '0.0', '0', '0', '3', '3', '23', '2', '7', '16']"
"['', '27483', '2014-04-01', '23:00:00 GMT', '27', 'DAL', 'Dallas', 'Stars', '5', 'WSH', 'Washington', 'Capitals', '13', 'Verizon Center', '5', 'WSH', 'Washington', 'Capitals', '0', '1', '0', '0', '0', '0', '0', '0', '33', '27', '55.0', '5', '0', '0.0', '2', '0', '100.0', '0', '1', '0', '5', '35', '4', '8', '24']"
"['', '27505', '2014-04-04', '23:00:00 GMT', '5', 'WSH', 'Washington', 'Capitals', '7', 'NJD', 'New Jersey', 'Devils', '37', 'Prudential Center', '5', 'WSH', 'Washington', 'Capitals', '0', '1', '0', '0', '0', '0', '0', '0', '20', '29', '40.8', '3', '0', '0.0', '4', '0', '100.0', '0', '0', '1', '2', '24', '6', '12', '15']"
"['', '27512', '2014-04-05', '21:00:00 GMT', '5', 'WSH', 'Washington', 'Capitals', '8', 'NYI', 'New York', 'Islanders', '16', 'Nassau Veterans Memorial Coliseum', '5', 'WSH', 'Washington', 'Capitals', '1', '0', '0', '0', '0', '0', '0', '2', '30', '32', '48.4', '5', '0', '0.0', '2', '1', '50.0', '0', '0', '3', '3', '26', '5', '13', '31']"
"['', '27536', '2014-04-08', '00:00:00 GMT', '5', 'WSH', 'Washington', 'Capitals', '17', 'STL', 'St. Louis', 'Blues', '24', 'Scottrade Center', '5', 'WSH', 'Washington', 'Capitals', '1', '0', '0', '0', '0', '0', '1', '2', '16', '42', '27.6', '4', '2', '50.0', '4', '0', '100.0', '1', '0', '4', '1', '18', '4', '8', '10']"
"['', '27545', '2014-04-10', '23:00:00 GMT', '5', 'WSH', 'Washington', 'Capitals', '3', 'CAR', 'Carolina', 'Hurricanes', '21', 'RBC Center', '5', 'WSH', 'Washington', 'Capitals', '1', '0', '0', '0', '0', '0', '1', '2', '17', '36', '32.1', '1', '0', '0.0', '1', '0', '100.0', '0', '1', '5', '2', '16', '1', '2', '15']"
"['', '27555', '2014-04-11', '23:00:00 GMT', '20', 'CHI', 'Chicago', 'Blackhawks', '5', 'WSH', 'Washington', 'Capitals', '13', 'Verizon Center', '5', 'WSH', 'Washington', 'Capitals', '1', '0', '0', '0', '0', '0', '1', '2', '27', '17', '61.4', '3', '1', '33.3', '2', '0', '100.0', '0', '0', '4', '0', '23', '3', '6', '14']"
"['', '27572', '2014-04-13', '19:00:00 GMT', '1', 'TBL', 'Tampa Bay', 'Lightning', '5', 'WSH', 'Washington', 'Capitals', '13', 'Verizon Center', '5', 'WSH', 'Washington', 'Capitals', '0', '0', '0', '1', '0', '0', '0', '1', '25', '22', '53.2', '1', '0', '0.0', '1', '0', '100.0', '0', '0', '0', '0', '18', '1', '2', '21']"
