"['#Date/Time of Update: 2018-12-10 19:03:26 GMT', '#Game ID', '#Game Date', '#Game Time', '#Away Team ID', '#Away Team Abbr.', '#Away Team City', '#Away Team Name', '#Home Team ID', '#Home Team Abbr.', '#Home Team City', '#Home Team Name', '#Venue ID', '#Venue Name', '#Team ID', '#Team Abbr.', '#Team City', '#Team Name', '#Wins', '#Losses', '#OvertimeWins', '#OvertimeLosses', '#Points', '#FaceoffWins', '#FaceoffLosses', '#FaceoffPercent', '#Powerplays', '#PowerplayGoals', '#PowerplayPercent', '#PenaltyKills', '#PenaltyKillGoalsAllowed', '#PenaltyKillPercent', '#ShorthandedGoalsFor', '#ShorthandedGoalsAgainst', '#GoalsFor', '#GoalsAgainst', '#Shots', '#Penalties', '#PenaltyMinutes', '#Hits']"
"['', '46302', '2018-10-03', '02:30:00 GMT', '29', 'ANA', 'Anaheim', 'Ducks', '26', 'SJS', 'San Jose', 'Sharks', '9', 'SAP Center at San Jose', '26', 'SJS', 'San Jose', 'Sharks', '0', '1', '0', '0', '0', '31', '29', '51.7', '3', '0', '0.0', '3', '2', '33.3', '1', '0', '2', '5', '33', '3', '6', '21']"
"['', '46314', '2018-10-05', '02:30:00 GMT', '26', 'SJS', 'San Jose', 'Sharks', '28', 'LAK', 'Los Angeles', 'Kings', '25', 'Staples Center', '26', 'SJS', 'San Jose', 'Sharks', '1', '0', '0', '0', '2', '24', '30', '44.4', '3', '0', '0.0', '5', '0', '100.0', '0', '0', '3', '2', '33', '5', '10', '21']"
"['', '46331', '2018-10-08', '17:00:00 GMT', '26', 'SJS', 'San Jose', 'Sharks', '8', 'NYI', 'New York', 'Islanders', '78', 'Barclays Center', '26', 'SJS', 'San Jose', 'Sharks', '0', '1', '0', '0', '0', '35', '22', '61.4', '4', '0', '0.0', '4', '1', '75.0', '0', '1', '0', '4', '35', '4', '8', '9']"
"['', '46334', '2018-10-09', '23:00:00 GMT', '26', 'SJS', 'San Jose', 'Sharks', '6', 'PHI', 'Philadelphia', 'Flyers', '29', 'Wells Fargo Center', '26', 'SJS', 'San Jose', 'Sharks', '1', '0', '0', '0', '2', '26', '37', '41.3', '5', '2', '40.0', '6', '2', '66.7', '1', '0', '8', '2', '48', '6', '12', '15']"
"['', '46347', '2018-10-11', '23:00:00 GMT', '26', 'SJS', 'San Jose', 'Sharks', '9', 'NYR', 'New York', 'Rangers', '12', 'Madison Square Garden', '26', 'SJS', 'San Jose', 'Sharks', '0', '0', '0', '1', '1', '27', '24', '52.9', '3', '0', '0.0', '2', '0', '100.0', '1', '0', '2', '3', '43', '3', '6', '14']"
"['', '46369', '2018-10-14', '17:00:00 GMT', '26', 'SJS', 'San Jose', 'Sharks', '7', 'NJD', 'New Jersey', 'Devils', '37', 'Prudential Center', '26', 'SJS', 'San Jose', 'Sharks', '0', '1', '0', '0', '0', '26', '41', '38.8', '3', '0', '0.0', '8', '1', '87.5', '0', '0', '2', '3', '39', '7', '16', '11']"
"['', '46396', '2018-10-18', '02:30:00 GMT', '15', 'BUF', 'Buffalo', 'Sabres', '26', 'SJS', 'San Jose', 'Sharks', '9', 'SAP Center at San Jose', '26', 'SJS', 'San Jose', 'Sharks', '1', '0', '0', '0', '2', '28', '31', '47.5', '7', '3', '42.9', '5', '0', '100.0', '0', '0', '5', '1', '39', '6', '15', '20']"
"['', '46412', '2018-10-20', '02:30:00 GMT', '8', 'NYI', 'New York', 'Islanders', '26', 'SJS', 'San Jose', 'Sharks', '9', 'SAP Center at San Jose', '26', 'SJS', 'San Jose', 'Sharks', '1', '0', '0', '0', '2', '30', '24', '55.6', '2', '0', '0.0', '1', '0', '100.0', '0', '0', '4', '1', '41', '8', '30', '16']"
"['', '46424', '2018-10-23', '00:00:00 GMT', '26', 'SJS', 'San Jose', 'Sharks', '18', 'NSH', 'Nashville', 'Predators', '15', 'Bridgestone Arena', '26', 'SJS', 'San Jose', 'Sharks', '1', '0', '0', '0', '2', '39', '35', '52.7', '4', '2', '50.0', '4', '0', '100.0', '1', '0', '5', '4', '32', '4', '8', '20']"
"['', '46444', '2018-10-26', '23:30:00 GMT', '26', 'SJS', 'San Jose', 'Sharks', '3', 'CAR', 'Carolina', 'Hurricanes', '21', 'PNC Arena', '26', 'SJS', 'San Jose', 'Sharks', '0', '0', '0', '1', '1', '27', '43', '38.6', '3', '2', '66.7', '2', '0', '100.0', '0', '0', '3', '3', '23', '2', '4', '22']"
"['', '46462', '2018-10-28', '00:00:00 GMT', '26', 'SJS', 'San Jose', 'Sharks', '29', 'ANA', 'Anaheim', 'Ducks', '8', 'Honda Center', '26', 'SJS', 'San Jose', 'Sharks', '1', '0', '0', '0', '2', '29', '35', '45.3', '2', '0', '0.0', '2', '0', '100.0', '0', '0', '4', '3', '49', '3', '9', '16']"
"['', '46475', '2018-10-30', '02:30:00 GMT', '9', 'NYR', 'New York', 'Rangers', '26', 'SJS', 'San Jose', 'Sharks', '9', 'SAP Center at San Jose', '26', 'SJS', 'San Jose', 'Sharks', '0', '0', '0', '1', '1', '30', '21', '58.8', '2', '0', '0.0', '4', '0', '100.0', '0', '0', '3', '3', '34', '4', '8', '14']"
"['', '46489', '2018-11-01', '02:30:00 GMT', '19', 'CBJ', 'Columbus', 'Blue Jackets', '26', 'SJS', 'San Jose', 'Sharks', '9', 'SAP Center at San Jose', '26', 'SJS', 'San Jose', 'Sharks', '0', '1', '0', '0', '0', '45', '23', '66.2', '3', '0', '0.0', '1', '0', '100.0', '0', '1', '1', '4', '45', '2', '4', '18']"
"['', '46504', '2018-11-03', '02:30:00 GMT', '6', 'PHI', 'Philadelphia', 'Flyers', '26', 'SJS', 'San Jose', 'Sharks', '9', 'SAP Center at San Jose', '26', 'SJS', 'San Jose', 'Sharks', '1', '0', '0', '0', '2', '30', '29', '50.8', '3', '1', '33.3', '3', '0', '100.0', '0', '0', '4', '3', '35', '3', '6', '13']"
"['', '46521', '2018-11-06', '03:30:00 GMT', '25', 'MIN', 'Minnesota', 'Wild', '26', 'SJS', 'San Jose', 'Sharks', '9', 'SAP Center at San Jose', '26', 'SJS', 'San Jose', 'Sharks', '1', '0', '0', '0', '2', '18', '34', '34.6', '0', '0', '0.0', '3', '1', '66.7', '0', '0', '4', '3', '22', '3', '6', '23']"
"['', '46532', '2018-11-08', '01:30:00 GMT', '26', 'SJS', 'San Jose', 'Sharks', '27', 'DAL', 'Dallas', 'Stars', '2', 'American Airlines Center', '26', 'SJS', 'San Jose', 'Sharks', '0', '1', '0', '0', '0', '32', '33', '49.2', '2', '0', '0.0', '1', '0', '100.0', '0', '0', '3', '4', '36', '1', '2', '9']"
"['', '46537', '2018-11-09', '01:00:00 GMT', '26', 'SJS', 'San Jose', 'Sharks', '17', 'STL', 'St. Louis', 'Blues', '24', 'Enterprise Center', '26', 'SJS', 'San Jose', 'Sharks', '0', '1', '0', '0', '0', '18', '37', '32.7', '4', '0', '0.0', '5', '0', '100.0', '0', '0', '0', '4', '33', '6', '12', '17']"
"['', '46556', '2018-11-11', '02:00:00 GMT', '23', 'CGY', 'Calgary', 'Flames', '26', 'SJS', 'San Jose', 'Sharks', '9', 'SAP Center at San Jose', '26', 'SJS', 'San Jose', 'Sharks', '1', '0', '0', '0', '2', '24', '25', '49.0', '3', '0', '0.0', '1', '0', '100.0', '0', '0', '3', '1', '29', '17', '162', '21']"
"['', '46570', '2018-11-13', '03:30:00 GMT', '18', 'NSH', 'Nashville', 'Predators', '26', 'SJS', 'San Jose', 'Sharks', '9', 'SAP Center at San Jose', '26', 'SJS', 'San Jose', 'Sharks', '1', '0', '0', '0', '2', '28', '36', '43.8', '5', '1', '20.0', '3', '0', '100.0', '0', '0', '5', '4', '37', '3', '6', '10']"
"['', '46583', '2018-11-15', '03:30:00 GMT', '12', 'TOR', 'Toronto', 'Maple Leafs', '26', 'SJS', 'San Jose', 'Sharks', '9', 'SAP Center at San Jose', '26', 'SJS', 'San Jose', 'Sharks', '0', '1', '0', '0', '0', '22', '36', '37.9', '3', '1', '33.3', '3', '0', '100.0', '0', '1', '3', '5', '45', '6', '12', '32']"
"['', '46600', '2018-11-17', '03:30:00 GMT', '17', 'STL', 'St. Louis', 'Blues', '26', 'SJS', 'San Jose', 'Sharks', '9', 'SAP Center at San Jose', '26', 'SJS', 'San Jose', 'Sharks', '1', '0', '0', '0', '2', '32', '28', '53.3', '2', '1', '50.0', '1', '0', '100.0', '0', '0', '4', '0', '29', '1', '2', '23']"
"['', '46615', '2018-11-20', '03:30:00 GMT', '24', 'EDM', 'Edmonton', 'Oilers', '26', 'SJS', 'San Jose', 'Sharks', '9', 'SAP Center at San Jose', '26', 'SJS', 'San Jose', 'Sharks', '0', '0', '0', '1', '1', '37', '25', '59.7', '3', '0', '0.0', '1', '0', '100.0', '0', '0', '3', '4', '25', '1', '2', '17']"
"['', '46644', '2018-11-23', '02:00:00 GMT', '21', 'VAN', 'Vancouver', 'Canucks', '26', 'SJS', 'San Jose', 'Sharks', '9', 'SAP Center at San Jose', '26', 'SJS', 'San Jose', 'Sharks', '1', '0', '0', '0', '2', '28', '14', '66.7', '6', '3', '50.0', '3', '0', '100.0', '0', '0', '4', '0', '24', '4', '8', '20']"
"['', '46654', '2018-11-24', '03:00:00 GMT', '26', 'SJS', 'San Jose', 'Sharks', '142', 'VGK', 'Vegas', 'Golden Knights', '139', 'T-Mobile Arena', '26', 'SJS', 'San Jose', 'Sharks', '0', '1', '0', '0', '0', '34', '26', '56.7', '4', '0', '0.0', '5', '1', '80.0', '0', '0', '0', '6', '33', '10', '44', '33']"
"['', '46665', '2018-11-27', '00:00:00 GMT', '26', 'SJS', 'San Jose', 'Sharks', '15', 'BUF', 'Buffalo', 'Sabres', '10', 'KeyBank Center', '26', 'SJS', 'San Jose', 'Sharks', '0', '0', '0', '1', '1', '36', '29', '55.4', '3', '1', '33.3', '1', '0', '100.0', '0', '0', '2', '3', '38', '2', '4', '11']"
"['', '46677', '2018-11-28', '00:30:00 GMT', '26', 'SJS', 'San Jose', 'Sharks', '12', 'TOR', 'Toronto', 'Maple Leafs', '1', 'Scotiabank Arena', '26', 'SJS', 'San Jose', 'Sharks', '0', '1', '0', '0', '0', '28', '42', '40.0', '3', '2', '66.7', '4', '3', '25.0', '0', '0', '3', '5', '41', '4', '8', '17']"
"['', '46693', '2018-12-01', '18:00:00 GMT', '26', 'SJS', 'San Jose', 'Sharks', '13', 'OTT', 'Ottawa', 'Senators', '23', 'Canadian Tire Centre', '26', 'SJS', 'San Jose', 'Sharks', '0', '1', '0', '0', '0', '46', '32', '59.0', '3', '1', '33.3', '2', '1', '50.0', '0', '0', '2', '6', '38', '3', '9', '16']"
"['', '46707', '2018-12-02', '00:00:00 GMT', '26', 'SJS', 'San Jose', 'Sharks', '14', 'MTL', 'Montreal', 'Canadiens', '4', 'Bell Centre', '26', 'SJS', 'San Jose', 'Sharks', '1', '0', '0', '0', '2', '21', '32', '39.6', '4', '1', '25.0', '2', '0', '100.0', '0', '0', '3', '1', '29', '2', '4', '16']"
"['', '46726', '2018-12-05', '03:30:00 GMT', '3', 'CAR', 'Carolina', 'Hurricanes', '26', 'SJS', 'San Jose', 'Sharks', '9', 'SAP Center at San Jose', '26', 'SJS', 'San Jose', 'Sharks', '1', '0', '0', '0', '2', '31', '36', '46.3', '2', '1', '50.0', '3', '1', '66.7', '0', '0', '5', '1', '23', '4', '8', '17']"
"['', '46738', '2018-12-07', '01:00:00 GMT', '26', 'SJS', 'San Jose', 'Sharks', '27', 'DAL', 'Dallas', 'Stars', '2', 'American Airlines Center', '26', 'SJS', 'San Jose', 'Sharks', '0', '1', '0', '0', '0', '27', '25', '51.9', '2', '0', '0.0', '2', '0', '100.0', '0', '0', '2', '3', '43', '2', '4', '14']"
"['', '46750', '2018-12-08', '01:00:00 GMT', '26', 'SJS', 'San Jose', 'Sharks', '30', 'ARI', 'Arizona', 'Coyotes', '6', 'Gila River Arena', '26', 'SJS', 'San Jose', 'Sharks', '1', '0', '0', '0', '2', '31', '24', '56.4', '1', '0', '0.0', '1', '1', '0.0', '0', '0', '5', '3', '33', '1', '2', '19']"
