"['#Date/Time of Update: 2018-12-10 19:03:10 GMT', '#Game ID', '#Game Date', '#Game Time', '#Away Team ID', '#Away Team Abbr.', '#Away Team City', '#Away Team Name', '#Home Team ID', '#Home Team Abbr.', '#Home Team City', '#Home Team Name', '#Venue ID', '#Venue Name', '#Team ID', '#Team Abbr.', '#Team City', '#Team Name', '#Wins', '#Losses', '#OvertimeWins', '#OvertimeLosses', '#ShootoutWins', '#ShootoutLosses', '#Rows', '#Points', '#FaceoffWins', '#FaceoffLosses', '#FaceoffPercent', '#Powerplays', '#PowerplayGoals', '#PowerplayPercent', '#PenaltyKills', '#PenaltyKillGoalsAllowed', '#PenaltyKillPercent', '#ShorthandedGoalsFor', '#ShorthandedGoalsAgainst', '#GoalsFor', '#GoalsAgainst', '#Shots', '#Penalties', '#PenaltyMinutes', '#Hits']"
"['', '26365', '2013-10-03', '00:00:00 GMT', '28', 'LAK', 'Los Angeles', 'Kings', '25', 'MIN', 'Minnesota', 'Wild', '30', 'Xcel Energy Center', '25', 'MIN', 'Minnesota', 'Wild', '0', '0', '0', '1', '0', '0', '0', '1', '32', '19', '62.7', '5', '1', '20.0', '3', '1', '66.7', '0', '0', '2', '2', '27', '5', '16', '19']"
"['', '26383', '2013-10-05', '00:00:00 GMT', '29', 'ANA', 'Anaheim', 'Ducks', '25', 'MIN', 'Minnesota', 'Wild', '30', 'Xcel Energy Center', '25', 'MIN', 'Minnesota', 'Wild', '0', '0', '0', '1', '0', '0', '0', '1', '47', '26', '64.4', '4', '2', '50.0', '3', '1', '66.7', '0', '0', '3', '4', '30', '4', '11', '23']"
"['', '26396', '2013-10-08', '00:00:00 GMT', '25', 'MIN', 'Minnesota', 'Wild', '18', 'NSH', 'Nashville', 'Predators', '15', 'Bridgestone Arena', '25', 'MIN', 'Minnesota', 'Wild', '0', '1', '0', '0', '0', '0', '0', '0', '33', '41', '44.6', '4', '2', '50.0', '3', '2', '33.3', '0', '0', '2', '3', '32', '7', '17', '14']"
"['', '26408', '2013-10-10', '00:00:00 GMT', '2', 'WPJ', 'Winnipeg', 'Jets', '25', 'MIN', 'Minnesota', 'Wild', '30', 'Xcel Energy Center', '25', 'MIN', 'Minnesota', 'Wild', '1', '0', '0', '0', '0', '0', '1', '2', '45', '16', '73.8', '5', '0', '0.0', '5', '1', '80.0', '0', '0', '2', '1', '28', '7', '14', '19']"
"['', '26426', '2013-10-12', '00:00:00 GMT', '27', 'DAL', 'Dallas', 'Stars', '25', 'MIN', 'Minnesota', 'Wild', '30', 'Xcel Energy Center', '25', 'MIN', 'Minnesota', 'Wild', '1', '0', '0', '0', '0', '0', '1', '2', '28', '30', '48.3', '4', '2', '50.0', '3', '1', '66.7', '0', '0', '5', '1', '31', '3', '6', '15']"
"['', '26435', '2013-10-14', '23:30:00 GMT', '25', 'MIN', 'Minnesota', 'Wild', '15', 'BUF', 'Buffalo', 'Sabres', '10', 'First Niagara Center', '25', 'MIN', 'Minnesota', 'Wild', '1', '0', '0', '0', '0', '0', '1', '2', '27', '22', '55.1', '3', '1', '33.3', '4', '0', '100.0', '0', '0', '2', '1', '18', '5', '13', '8']"
"['', '26436', '2013-10-15', '23:00:00 GMT', '25', 'MIN', 'Minnesota', 'Wild', '12', 'TOR', 'Toronto', 'Maple Leafs', '1', 'Air Canada Center', '25', 'MIN', 'Minnesota', 'Wild', '0', '1', '0', '0', '0', '0', '0', '0', '34', '21', '61.8', '5', '1', '20.0', '2', '2', '0.0', '0', '0', '1', '4', '36', '4', '8', '23']"
"['', '26456', '2013-10-17', '23:30:00 GMT', '25', 'MIN', 'Minnesota', 'Wild', '1', 'TBL', 'Tampa Bay', 'Lightning', '26', 'Tampa Bay Times Forum', '25', 'MIN', 'Minnesota', 'Wild', '0', '1', '0', '0', '0', '0', '0', '0', '24', '28', '46.2', '2', '0', '0.0', '6', '1', '83.3', '0', '1', '1', '3', '25', '8', '16', '16']"
"['', '26469', '2013-10-19', '23:00:00 GMT', '25', 'MIN', 'Minnesota', 'Wild', '4', 'FLO', 'Florida', 'Panthers', '3', 'BB&T Center', '25', 'MIN', 'Minnesota', 'Wild', '0', '0', '0', '1', '0', '0', '0', '1', '32', '37', '46.4', '3', '1', '33.3', '5', '1', '80.0', '0', '0', '1', '1', '30', '5', '10', '22']"
"['', '26488', '2013-10-22', '00:00:00 GMT', '18', 'NSH', 'Nashville', 'Predators', '25', 'MIN', 'Minnesota', 'Wild', '30', 'Xcel Energy Center', '25', 'MIN', 'Minnesota', 'Wild', '1', '0', '0', '0', '0', '0', '1', '2', '25', '31', '44.6', '2', '0', '0.0', '2', '0', '100.0', '0', '0', '2', '0', '27', '4', '14', '16']"
"['', '26499', '2013-10-24', '00:00:00 GMT', '3', 'CAR', 'Carolina', 'Hurricanes', '25', 'MIN', 'Minnesota', 'Wild', '30', 'Xcel Energy Center', '25', 'MIN', 'Minnesota', 'Wild', '1', '0', '0', '0', '0', '0', '1', '2', '36', '23', '61.0', '5', '2', '40.0', '5', '1', '80.0', '0', '0', '3', '1', '24', '5', '10', '11']"
"['', '26516', '2013-10-26', '00:00:00 GMT', '25', 'MIN', 'Minnesota', 'Wild', '20', 'CHI', 'Chicago', 'Blackhawks', '28', 'United Center', '25', 'MIN', 'Minnesota', 'Wild', '1', '0', '0', '0', '0', '0', '1', '2', '28', '29', '49.1', '4', '1', '25.0', '7', '1', '85.7', '0', '0', '5', '3', '20', '7', '14', '15']"
"['', '26528', '2013-10-28', '00:00:00 GMT', '20', 'CHI', 'Chicago', 'Blackhawks', '25', 'MIN', 'Minnesota', 'Wild', '30', 'Xcel Energy Center', '25', 'MIN', 'Minnesota', 'Wild', '0', '1', '0', '0', '0', '0', '0', '0', '32', '24', '57.1', '3', '0', '0.0', '3', '1', '66.7', '0', '0', '1', '5', '29', '6', '20', '14']"
"['', '26550', '2013-11-01', '00:00:00 GMT', '14', 'MTL', 'Montreal', 'Canadiens', '25', 'MIN', 'Minnesota', 'Wild', '30', 'Xcel Energy Center', '25', 'MIN', 'Minnesota', 'Wild', '1', '0', '0', '0', '0', '0', '1', '2', '31', '30', '50.8', '1', '0', '0.0', '2', '1', '50.0', '0', '0', '4', '3', '21', '2', '4', '11']"
"['', '26568', '2013-11-03', '01:00:00 GMT', '7', 'NJD', 'New Jersey', 'Devils', '25', 'MIN', 'Minnesota', 'Wild', '30', 'Xcel Energy Center', '25', 'MIN', 'Minnesota', 'Wild', '1', '0', '0', '0', '0', '0', '1', '2', '39', '15', '72.2', '3', '1', '33.3', '3', '0', '100.0', '0', '0', '4', '0', '16', '4', '8', '20']"
"['', '26577', '2013-11-05', '01:00:00 GMT', '23', 'CGY', 'Calgary', 'Flames', '25', 'MIN', 'Minnesota', 'Wild', '30', 'Xcel Energy Center', '25', 'MIN', 'Minnesota', 'Wild', '1', '0', '0', '0', '0', '0', '1', '2', '28', '19', '59.6', '3', '1', '33.3', '2', '0', '100.0', '0', '0', '5', '1', '19', '6', '15', '12']"
"['', '26587', '2013-11-07', '00:00:00 GMT', '25', 'MIN', 'Minnesota', 'Wild', '5', 'WSH', 'Washington', 'Capitals', '13', 'Verizon Center', '25', 'MIN', 'Minnesota', 'Wild', '0', '0', '0', '1', '0', '0', '0', '1', '34', '25', '57.6', '3', '1', '33.3', '3', '1', '66.7', '0', '0', '2', '2', '33', '3', '6', '14']"
"['', '26603', '2013-11-09', '00:00:00 GMT', '25', 'MIN', 'Minnesota', 'Wild', '3', 'CAR', 'Carolina', 'Hurricanes', '21', 'RBC Center', '25', 'MIN', 'Minnesota', 'Wild', '1', '0', '0', '0', '0', '0', '0', '2', '24', '36', '40.0', '4', '0', '0.0', '3', '0', '100.0', '0', '0', '2', '2', '28', '3', '6', '13']"
"['', '26628', '2013-11-13', '00:30:00 GMT', '12', 'TOR', 'Toronto', 'Maple Leafs', '25', 'MIN', 'Minnesota', 'Wild', '30', 'Xcel Energy Center', '25', 'MIN', 'Minnesota', 'Wild', '1', '0', '0', '0', '0', '0', '0', '2', '29', '32', '47.5', '4', '0', '0.0', '3', '1', '66.7', '0', '0', '1', '1', '33', '5', '13', '13']"
"['', '26645', '2013-11-15', '01:00:00 GMT', '4', 'FLO', 'Florida', 'Panthers', '25', 'MIN', 'Minnesota', 'Wild', '30', 'Xcel Energy Center', '25', 'MIN', 'Minnesota', 'Wild', '1', '0', '0', '0', '0', '0', '1', '2', '27', '25', '51.9', '3', '1', '33.3', '3', '0', '100.0', '0', '0', '3', '2', '17', '3', '6', '13']"
"['', '26661', '2013-11-17', '01:00:00 GMT', '2', 'WPJ', 'Winnipeg', 'Jets', '25', 'MIN', 'Minnesota', 'Wild', '30', 'Xcel Energy Center', '25', 'MIN', 'Minnesota', 'Wild', '1', '0', '0', '0', '0', '0', '1', '2', '33', '19', '63.5', '2', '0', '0.0', '2', '0', '100.0', '0', '0', '2', '1', '22', '2', '4', '21']"
"['', '26669', '2013-11-19', '00:30:00 GMT', '25', 'MIN', 'Minnesota', 'Wild', '14', 'MTL', 'Montreal', 'Canadiens', '4', 'Bell Centre', '25', 'MIN', 'Minnesota', 'Wild', '0', '1', '0', '0', '0', '0', '0', '0', '35', '28', '55.6', '2', '1', '50.0', '5', '2', '60.0', '0', '0', '2', '6', '25', '6', '15', '15']"
"['', '26676', '2013-11-20', '00:30:00 GMT', '25', 'MIN', 'Minnesota', 'Wild', '13', 'OTT', 'Ottawa', 'Senators', '23', 'Canadian Tire Centre', '25', 'MIN', 'Minnesota', 'Wild', '1', '0', '0', '0', '0', '0', '1', '2', '26', '35', '42.6', '3', '1', '33.3', '2', '1', '50.0', '0', '1', '4', '3', '21', '4', '11', '24']"
"['', '26696', '2013-11-23', '20:00:00 GMT', '25', 'MIN', 'Minnesota', 'Wild', '2', 'WPJ', 'Winnipeg', 'Jets', '39', 'MTS Centre', '25', 'MIN', 'Minnesota', 'Wild', '1', '0', '0', '0', '0', '0', '0', '2', '26', '28', '48.1', '2', '0', '0.0', '2', '0', '100.0', '1', '0', '2', '2', '33', '2', '4', '12']"
"['', '26714', '2013-11-25', '01:00:00 GMT', '25', 'MIN', 'Minnesota', 'Wild', '17', 'STL', 'St. Louis', 'Blues', '24', 'Scottrade Center', '25', 'MIN', 'Minnesota', 'Wild', '0', '1', '0', '0', '0', '0', '0', '0', '19', '38', '33.3', '3', '0', '0.0', '3', '0', '100.0', '0', '0', '0', '3', '22', '3', '6', '23']"
"['', '26728', '2013-11-27', '01:00:00 GMT', '30', 'PHX', 'Phoenix', 'Coyotes', '25', 'MIN', 'Minnesota', 'Wild', '30', 'Xcel Energy Center', '25', 'MIN', 'Minnesota', 'Wild', '0', '1', '0', '0', '0', '0', '0', '0', '34', '23', '59.6', '2', '0', '0.0', '2', '1', '50.0', '0', '0', '1', '3', '28', '3', '6', '12']"
"['', '26741', '2013-11-29', '23:00:00 GMT', '22', 'COL', 'Colorado', 'Avalanche', '25', 'MIN', 'Minnesota', 'Wild', '30', 'Xcel Energy Center', '25', 'MIN', 'Minnesota', 'Wild', '0', '1', '0', '0', '0', '0', '0', '0', '21', '26', '44.7', '2', '0', '0.0', '2', '0', '100.0', '0', '0', '1', '3', '27', '3', '6', '25']"
"['', '26754', '2013-11-30', '02:00:00 GMT', '25', 'MIN', 'Minnesota', 'Wild', '22', 'COL', 'Colorado', 'Avalanche', '19', 'Pepsi Center', '25', 'MIN', 'Minnesota', 'Wild', '0', '0', '0', '1', '0', '0', '0', '1', '31', '38', '44.9', '0', '0', '0.0', '0', '0', '0.0', '0', '0', '2', '2', '35', '0', '0', '23']"
"['', '26762', '2013-12-02', '01:00:00 GMT', '6', 'PHI', 'Philadelphia', 'Flyers', '25', 'MIN', 'Minnesota', 'Wild', '30', 'Xcel Energy Center', '25', 'MIN', 'Minnesota', 'Wild', '1', '0', '0', '0', '0', '0', '1', '2', '18', '30', '37.5', '2', '0', '0.0', '2', '0', '100.0', '0', '0', '2', '0', '19', '3', '9', '16']"
"['', '26784', '2013-12-05', '01:00:00 GMT', '20', 'CHI', 'Chicago', 'Blackhawks', '25', 'MIN', 'Minnesota', 'Wild', '30', 'Xcel Energy Center', '25', 'MIN', 'Minnesota', 'Wild', '1', '0', '0', '0', '0', '0', '1', '2', '30', '27', '52.6', '3', '2', '66.7', '2', '1', '50.0', '0', '0', '4', '3', '19', '2', '4', '16']"
"['', '26788', '2013-12-06', '00:00:00 GMT', '25', 'MIN', 'Minnesota', 'Wild', '19', 'CBJ', 'Columbus', 'Blue Jackets', '17', 'Nationwide Arena', '25', 'MIN', 'Minnesota', 'Wild', '0', '1', '0', '0', '0', '0', '0', '0', '21', '26', '44.7', '2', '0', '0.0', '3', '1', '66.7', '0', '0', '0', '4', '20', '5', '10', '17']"
"['', '26803', '2013-12-08', '23:00:00 GMT', '26', 'SJS', 'San Jose', 'Sharks', '25', 'MIN', 'Minnesota', 'Wild', '30', 'Xcel Energy Center', '25', 'MIN', 'Minnesota', 'Wild', '1', '0', '0', '0', '0', '0', '1', '2', '35', '29', '54.7', '2', '0', '0.0', '4', '0', '100.0', '0', '0', '3', '1', '10', '4', '8', '16']"
"['', '26826', '2013-12-11', '03:00:00 GMT', '25', 'MIN', 'Minnesota', 'Wild', '29', 'ANA', 'Anaheim', 'Ducks', '8', 'Honda Center', '25', 'MIN', 'Minnesota', 'Wild', '0', '1', '0', '0', '0', '0', '0', '0', '32', '33', '49.2', '1', '1', '100.0', '2', '0', '100.0', '0', '0', '1', '2', '23', '3', '6', '22']"
"['', '26837', '2013-12-12', '03:30:00 GMT', '25', 'MIN', 'Minnesota', 'Wild', '26', 'SJS', 'San Jose', 'Sharks', '9', 'SAP Center at San Jose', '25', 'MIN', 'Minnesota', 'Wild', '0', '1', '0', '0', '0', '0', '0', '0', '29', '34', '46.0', '3', '0', '0.0', '7', '3', '57.1', '0', '0', '1', '3', '29', '8', '16', '23']"
"['', '26851', '2013-12-14', '02:00:00 GMT', '25', 'MIN', 'Minnesota', 'Wild', '22', 'COL', 'Colorado', 'Avalanche', '19', 'Pepsi Center', '25', 'MIN', 'Minnesota', 'Wild', '1', '0', '0', '0', '0', '0', '0', '2', '24', '26', '48.0', '1', '0', '0.0', '2', '0', '100.0', '0', '0', '1', '1', '26', '2', '4', '25']"
"['', '26872', '2013-12-17', '01:00:00 GMT', '21', 'VAN', 'Vancouver', 'Canucks', '25', 'MIN', 'Minnesota', 'Wild', '30', 'Xcel Energy Center', '25', 'MIN', 'Minnesota', 'Wild', '1', '0', '0', '0', '0', '0', '0', '2', '32', '30', '51.6', '2', '1', '50.0', '2', '0', '100.0', '0', '0', '2', '2', '30', '3', '9', '14']"
"['', '26880', '2013-12-19', '00:00:00 GMT', '25', 'MIN', 'Minnesota', 'Wild', '10', 'PIT', 'Pittsburgh', 'Penguins', '40', 'Consol Energy Center', '25', 'MIN', 'Minnesota', 'Wild', '0', '1', '0', '0', '0', '0', '0', '0', '38', '24', '61.3', '4', '0', '0.0', '3', '1', '66.7', '0', '0', '2', '5', '24', '9', '35', '19']"
"['', '26905', '2013-12-22', '00:30:00 GMT', '25', 'MIN', 'Minnesota', 'Wild', '9', 'NYR', 'New York', 'Rangers', '12', 'Madison Square Garden', '25', 'MIN', 'Minnesota', 'Wild', '0', '1', '0', '0', '0', '0', '0', '0', '26', '28', '48.1', '2', '0', '0.0', '2', '1', '50.0', '0', '0', '1', '4', '24', '3', '6', '19']"
"['', '26914', '2013-12-23', '00:30:00 GMT', '25', 'MIN', 'Minnesota', 'Wild', '6', 'PHI', 'Philadelphia', 'Flyers', '29', 'Wells Fargo Center', '25', 'MIN', 'Minnesota', 'Wild', '0', '1', '0', '0', '0', '0', '0', '0', '25', '21', '54.3', '5', '1', '20.0', '3', '1', '66.7', '0', '0', '1', '4', '26', '4', '8', '21']"
"['', '26927', '2013-12-27', '01:00:00 GMT', '25', 'MIN', 'Minnesota', 'Wild', '2', 'WPJ', 'Winnipeg', 'Jets', '39', 'MTS Centre', '25', 'MIN', 'Minnesota', 'Wild', '0', '1', '0', '0', '0', '0', '0', '0', '35', '29', '54.7', '3', '1', '33.3', '1', '0', '100.0', '0', '1', '4', '6', '25', '2', '4', '9']"
"['', '26946', '2013-12-29', '01:00:00 GMT', '8', 'NYI', 'New York', 'Islanders', '25', 'MIN', 'Minnesota', 'Wild', '30', 'Xcel Energy Center', '25', 'MIN', 'Minnesota', 'Wild', '0', '1', '0', '0', '0', '0', '0', '0', '41', '21', '66.1', '4', '0', '0.0', '3', '0', '100.0', '0', '0', '4', '5', '33', '4', '11', '11']"
"['', '26955', '2013-12-31', '23:00:00 GMT', '17', 'STL', 'St. Louis', 'Blues', '25', 'MIN', 'Minnesota', 'Wild', '30', 'Xcel Energy Center', '25', 'MIN', 'Minnesota', 'Wild', '0', '1', '0', '0', '0', '0', '0', '0', '20', '26', '43.5', '3', '0', '0.0', '1', '0', '100.0', '0', '0', '1', '2', '24', '1', '2', '23']"
"['', '26971', '2014-01-02', '01:00:00 GMT', '15', 'BUF', 'Buffalo', 'Sabres', '25', 'MIN', 'Minnesota', 'Wild', '30', 'Xcel Energy Center', '25', 'MIN', 'Minnesota', 'Wild', '1', '0', '0', '0', '0', '0', '1', '2', '25', '22', '53.2', '4', '0', '0.0', '4', '0', '100.0', '0', '0', '4', '1', '28', '6', '12', '17']"
"['', '26989', '2014-01-04', '01:00:00 GMT', '5', 'WSH', 'Washington', 'Capitals', '25', 'MIN', 'Minnesota', 'Wild', '30', 'Xcel Energy Center', '25', 'MIN', 'Minnesota', 'Wild', '1', '0', '0', '0', '0', '0', '1', '2', '37', '27', '57.8', '5', '3', '60.0', '2', '1', '50.0', '0', '0', '5', '3', '6', '4', '11', '22']"
"['', '27010', '2014-01-07', '03:30:00 GMT', '25', 'MIN', 'Minnesota', 'Wild', '28', 'LAK', 'Los Angeles', 'Kings', '25', 'Staples Center', '25', 'MIN', 'Minnesota', 'Wild', '1', '0', '0', '0', '0', '0', '0', '2', '30', '29', '50.8', '2', '0', '0.0', '2', '0', '100.0', '0', '0', '1', '1', '16', '2', '4', '21']"
"['', '27020', '2014-01-09', '02:00:00 GMT', '25', 'MIN', 'Minnesota', 'Wild', '30', 'PHX', 'Phoenix', 'Coyotes', '6', 'Jobing.com Arena', '25', 'MIN', 'Minnesota', 'Wild', '1', '0', '0', '0', '0', '0', '1', '2', '32', '32', '50.0', '3', '1', '33.3', '3', '1', '66.7', '0', '0', '4', '1', '25', '3', '6', '14']"
"['', '27034', '2014-01-11', '01:00:00 GMT', '22', 'COL', 'Colorado', 'Avalanche', '25', 'MIN', 'Minnesota', 'Wild', '30', 'Xcel Energy Center', '25', 'MIN', 'Minnesota', 'Wild', '0', '1', '0', '0', '0', '0', '0', '0', '29', '26', '52.7', '2', '0', '0.0', '3', '0', '100.0', '0', '0', '2', '4', '25', '3', '6', '9']"
"['', '27044', '2014-01-12', '00:00:00 GMT', '25', 'MIN', 'Minnesota', 'Wild', '18', 'NSH', 'Nashville', 'Predators', '15', 'Bridgestone Arena', '25', 'MIN', 'Minnesota', 'Wild', '1', '0', '0', '0', '0', '0', '1', '2', '19', '28', '40.4', '1', '0', '0.0', '2', '0', '100.0', '0', '0', '4', '0', '19', '3', '9', '13']"
"['', '27059', '2014-01-14', '01:00:00 GMT', '13', 'OTT', 'Ottawa', 'Senators', '25', 'MIN', 'Minnesota', 'Wild', '30', 'Xcel Energy Center', '25', 'MIN', 'Minnesota', 'Wild', '0', '1', '0', '0', '0', '0', '0', '0', '35', '28', '55.6', '2', '0', '0.0', '4', '2', '50.0', '0', '0', '0', '3', '27', '5', '10', '15']"
"['', '27070', '2014-01-16', '01:00:00 GMT', '24', 'EDM', 'Edmonton', 'Oilers', '25', 'MIN', 'Minnesota', 'Wild', '30', 'Xcel Energy Center', '25', 'MIN', 'Minnesota', 'Wild', '1', '0', '0', '0', '0', '0', '1', '2', '25', '36', '41.0', '3', '0', '0.0', '4', '0', '100.0', '0', '0', '4', '1', '29', '6', '15', '16']"
"['', '27088', '2014-01-18', '02:00:00 GMT', '27', 'DAL', 'Dallas', 'Stars', '25', 'MIN', 'Minnesota', 'Wild', '30', 'Xcel Energy Center', '25', 'MIN', 'Minnesota', 'Wild', '1', '0', '0', '0', '0', '0', '1', '2', '31', '33', '48.4', '2', '0', '0.0', '3', '1', '66.7', '0', '0', '3', '2', '16', '4', '8', '18']"
"['', '27106', '2014-01-21', '01:00:00 GMT', '25', 'MIN', 'Minnesota', 'Wild', '27', 'DAL', 'Dallas', 'Stars', '2', 'American Airlines Center', '25', 'MIN', 'Minnesota', 'Wild', '0', '1', '0', '0', '0', '0', '0', '0', '22', '36', '37.9', '3', '0', '0.0', '7', '2', '71.4', '0', '0', '0', '4', '18', '11', '33', '20']"
"['', '27118', '2014-01-23', '01:00:00 GMT', '20', 'CHI', 'Chicago', 'Blackhawks', '25', 'MIN', 'Minnesota', 'Wild', '30', 'Xcel Energy Center', '25', 'MIN', 'Minnesota', 'Wild', '1', '0', '0', '0', '0', '0', '1', '2', '20', '21', '48.8', '3', '0', '0.0', '1', '0', '100.0', '0', '0', '2', '1', '17', '1', '2', '16']"
"['', '27137', '2014-01-25', '03:30:00 GMT', '25', 'MIN', 'Minnesota', 'Wild', '26', 'SJS', 'San Jose', 'Sharks', '9', 'SAP Center at San Jose', '25', 'MIN', 'Minnesota', 'Wild', '0', '0', '0', '1', '0', '0', '0', '1', '18', '41', '30.5', '1', '0', '0.0', '2', '0', '100.0', '0', '0', '2', '3', '20', '3', '9', '20']"
"['', '27158', '2014-01-28', '03:00:00 GMT', '25', 'MIN', 'Minnesota', 'Wild', '29', 'ANA', 'Anaheim', 'Ducks', '8', 'Honda Center', '25', 'MIN', 'Minnesota', 'Wild', '1', '0', '0', '0', '0', '0', '1', '2', '26', '32', '44.8', '5', '1', '20.0', '2', '1', '50.0', '0', '0', '4', '2', '29', '4', '8', '21']"
"['', '27167', '2014-01-30', '02:00:00 GMT', '25', 'MIN', 'Minnesota', 'Wild', '22', 'COL', 'Colorado', 'Avalanche', '19', 'Pepsi Center', '25', 'MIN', 'Minnesota', 'Wild', '0', '1', '0', '0', '0', '0', '0', '0', '33', '32', '50.8', '3', '1', '33.3', '4', '0', '100.0', '0', '0', '4', '5', '31', '9', '32', '24']"
"['', '27185', '2014-02-01', '03:00:00 GMT', '25', 'MIN', 'Minnesota', 'Wild', '23', 'CGY', 'Calgary', 'Flames', '18', 'Scotiabank Saddledome', '25', 'MIN', 'Minnesota', 'Wild', '0', '0', '0', '1', '0', '0', '0', '1', '23', '32', '41.8', '4', '1', '25.0', '4', '0', '100.0', '1', '1', '3', '4', '20', '5', '10', '13']"
"['', '27203', '2014-02-04', '01:00:00 GMT', '1', 'TBL', 'Tampa Bay', 'Lightning', '25', 'MIN', 'Minnesota', 'Wild', '30', 'Xcel Energy Center', '25', 'MIN', 'Minnesota', 'Wild', '1', '0', '0', '0', '0', '0', '1', '2', '20', '36', '35.7', '2', '1', '50.0', '2', '0', '100.0', '0', '0', '2', '1', '24', '3', '6', '11']"
"['', '27217', '2014-02-06', '01:00:00 GMT', '18', 'NSH', 'Nashville', 'Predators', '25', 'MIN', 'Minnesota', 'Wild', '30', 'Xcel Energy Center', '25', 'MIN', 'Minnesota', 'Wild', '1', '0', '0', '0', '0', '0', '1', '2', '28', '28', '50.0', '5', '1', '20.0', '2', '0', '100.0', '0', '0', '3', '2', '33', '2', '4', '15']"
"['', '27249', '2014-02-27', '02:30:00 GMT', '25', 'MIN', 'Minnesota', 'Wild', '24', 'EDM', 'Edmonton', 'Oilers', '22', 'Rogers Place', '25', 'MIN', 'Minnesota', 'Wild', '1', '0', '0', '0', '0', '0', '1', '2', '24', '31', '43.6', '2', '0', '0.0', '4', '0', '100.0', '0', '0', '3', '0', '18', '8', '19', '13']"
"['', '27252', '2014-02-28', '03:00:00 GMT', '25', 'MIN', 'Minnesota', 'Wild', '21', 'VAN', 'Vancouver', 'Canucks', '7', 'Rogers Arena', '25', 'MIN', 'Minnesota', 'Wild', '1', '0', '0', '0', '0', '0', '0', '2', '26', '23', '53.1', '3', '1', '33.3', '2', '0', '100.0', '0', '1', '1', '1', '22', '2', '4', '25']"
"['', '27273', '2014-03-03', '01:00:00 GMT', '23', 'CGY', 'Calgary', 'Flames', '25', 'MIN', 'Minnesota', 'Wild', '30', 'Xcel Energy Center', '25', 'MIN', 'Minnesota', 'Wild', '1', '0', '0', '0', '0', '0', '1', '2', '27', '27', '50.0', '1', '1', '100.0', '1', '0', '100.0', '0', '0', '3', '2', '24', '1', '2', '12']"
"['', '27311', '2014-03-08', '01:30:00 GMT', '25', 'MIN', 'Minnesota', 'Wild', '27', 'DAL', 'Dallas', 'Stars', '2', 'American Airlines Center', '25', 'MIN', 'Minnesota', 'Wild', '0', '1', '0', '0', '0', '0', '0', '0', '34', '33', '50.7', '3', '1', '33.3', '4', '2', '50.0', '1', '0', '3', '4', '32', '5', '21', '16']"
"['', '27317', '2014-03-09', '00:00:00 GMT', '17', 'STL', 'St. Louis', 'Blues', '25', 'MIN', 'Minnesota', 'Wild', '30', 'Xcel Energy Center', '25', 'MIN', 'Minnesota', 'Wild', '0', '0', '0', '1', '0', '0', '0', '1', '28', '35', '44.4', '2', '0', '0.0', '2', '1', '50.0', '0', '0', '2', '2', '17', '3', '9', '18']"
"['', '27334', '2014-03-11', '00:00:00 GMT', '24', 'EDM', 'Edmonton', 'Oilers', '25', 'MIN', 'Minnesota', 'Wild', '30', 'Xcel Energy Center', '25', 'MIN', 'Minnesota', 'Wild', '0', '0', '0', '1', '0', '0', '0', '1', '42', '26', '61.8', '4', '1', '25.0', '3', '0', '100.0', '0', '0', '3', '3', '28', '3', '6', '14']"
"['', '27345', '2014-03-13', '00:00:00 GMT', '9', 'NYR', 'New York', 'Rangers', '25', 'MIN', 'Minnesota', 'Wild', '30', 'Xcel Energy Center', '25', 'MIN', 'Minnesota', 'Wild', '1', '0', '0', '0', '0', '0', '1', '2', '40', '29', '58.0', '3', '0', '0.0', '3', '1', '66.7', '0', '0', '2', '1', '24', '3', '6', '17']"
"['', '27361', '2014-03-15', '00:00:00 GMT', '19', 'CBJ', 'Columbus', 'Blue Jackets', '25', 'MIN', 'Minnesota', 'Wild', '30', 'Xcel Energy Center', '25', 'MIN', 'Minnesota', 'Wild', '0', '0', '0', '1', '0', '0', '0', '1', '26', '25', '51.0', '1', '0', '0.0', '0', '0', '0.0', '0', '0', '1', '1', '32', '0', '0', '17']"
"['', '27373', '2014-03-17', '23:30:00 GMT', '25', 'MIN', 'Minnesota', 'Wild', '11', 'BOS', 'Boston', 'Bruins', '27', 'TD Garden', '25', 'MIN', 'Minnesota', 'Wild', '0', '1', '0', '0', '0', '0', '0', '0', '28', '28', '50.0', '1', '0', '0.0', '0', '0', '0.0', '0', '0', '1', '4', '33', '0', '0', '19']"
"['', '27378', '2014-03-18', '23:00:00 GMT', '25', 'MIN', 'Minnesota', 'Wild', '8', 'NYI', 'New York', 'Islanders', '16', 'Nassau Veterans Memorial Coliseum', '25', 'MIN', 'Minnesota', 'Wild', '1', '0', '0', '0', '0', '0', '1', '2', '34', '26', '56.7', '3', '1', '33.3', '3', '0', '100.0', '0', '0', '6', '0', '16', '3', '6', '10']"
"['', '27393', '2014-03-20', '23:00:00 GMT', '25', 'MIN', 'Minnesota', 'Wild', '7', 'NJD', 'New Jersey', 'Devils', '37', 'Prudential Center', '25', 'MIN', 'Minnesota', 'Wild', '0', '0', '0', '1', '0', '0', '0', '1', '22', '36', '37.9', '6', '1', '16.7', '4', '1', '75.0', '0', '1', '3', '4', '20', '5', '21', '19']"
"['', '27408', '2014-03-22', '18:00:00 GMT', '16', 'DET', 'Detroit', 'Red Wings', '25', 'MIN', 'Minnesota', 'Wild', '30', 'Xcel Energy Center', '25', 'MIN', 'Minnesota', 'Wild', '0', '1', '0', '0', '0', '0', '0', '0', '32', '32', '50.0', '3', '1', '33.3', '2', '2', '0.0', '0', '0', '2', '3', '28', '3', '6', '10']"
"['', '27421', '2014-03-23', '23:30:00 GMT', '25', 'MIN', 'Minnesota', 'Wild', '16', 'DET', 'Detroit', 'Red Wings', '11', 'Joe Louis Arena', '25', 'MIN', 'Minnesota', 'Wild', '1', '0', '0', '0', '0', '0', '1', '2', '34', '20', '63.0', '3', '1', '33.3', '1', '1', '0.0', '0', '0', '4', '3', '21', '2', '4', '21']"
"['', '27440', '2014-03-26', '23:30:00 GMT', '21', 'VAN', 'Vancouver', 'Canucks', '25', 'MIN', 'Minnesota', 'Wild', '30', 'Xcel Energy Center', '25', 'MIN', 'Minnesota', 'Wild', '0', '1', '0', '0', '0', '0', '0', '0', '27', '27', '50.0', '4', '0', '0.0', '2', '1', '50.0', '0', '0', '2', '5', '29', '3', '9', '16']"
"['', '27449', '2014-03-27', '00:00:00 GMT', '25', 'MIN', 'Minnesota', 'Wild', '17', 'STL', 'St. Louis', 'Blues', '24', 'Scottrade Center', '25', 'MIN', 'Minnesota', 'Wild', '0', '1', '0', '0', '0', '0', '0', '0', '29', '21', '58.0', '5', '0', '0.0', '5', '2', '60.0', '0', '1', '1', '5', '27', '7', '22', '17']"
"['', '27466', '2014-03-29', '01:00:00 GMT', '25', 'MIN', 'Minnesota', 'Wild', '30', 'PHX', 'Phoenix', 'Coyotes', '6', 'Jobing.com Arena', '25', 'MIN', 'Minnesota', 'Wild', '1', '0', '0', '0', '0', '0', '1', '2', '21', '32', '39.6', '1', '0', '0.0', '4', '1', '75.0', '0', '0', '3', '1', '27', '5', '10', '30']"
"['', '27478', '2014-03-31', '02:00:00 GMT', '25', 'MIN', 'Minnesota', 'Wild', '28', 'LAK', 'Los Angeles', 'Kings', '25', 'Staples Center', '25', 'MIN', 'Minnesota', 'Wild', '1', '0', '0', '0', '0', '0', '1', '2', '28', '24', '53.8', '1', '1', '100.0', '2', '0', '100.0', '0', '0', '3', '2', '17', '3', '6', '28']"
"['', '27498', '2014-04-03', '00:00:00 GMT', '25', 'MIN', 'Minnesota', 'Wild', '20', 'CHI', 'Chicago', 'Blackhawks', '28', 'United Center', '25', 'MIN', 'Minnesota', 'Wild', '0', '0', '0', '1', '0', '0', '0', '1', '25', '28', '47.2', '1', '0', '0.0', '1', '0', '100.0', '0', '0', '2', '2', '25', '2', '4', '30']"
"['', '27518', '2014-04-05', '00:00:00 GMT', '10', 'PIT', 'Pittsburgh', 'Penguins', '25', 'MIN', 'Minnesota', 'Wild', '30', 'Xcel Energy Center', '25', 'MIN', 'Minnesota', 'Wild', '1', '0', '0', '0', '0', '0', '1', '2', '31', '23', '57.4', '2', '0', '0.0', '2', '0', '100.0', '0', '0', '4', '0', '16', '2', '4', '17']"
"['', '27528', '2014-04-07', '00:00:00 GMT', '25', 'MIN', 'Minnesota', 'Wild', '2', 'WPJ', 'Winnipeg', 'Jets', '39', 'MTS Centre', '25', 'MIN', 'Minnesota', 'Wild', '1', '0', '0', '0', '0', '0', '1', '2', '27', '23', '54.0', '3', '0', '0.0', '4', '0', '100.0', '0', '0', '1', '0', '16', '4', '8', '19']"
"['', '27537', '2014-04-08', '00:00:00 GMT', '11', 'BOS', 'Boston', 'Bruins', '25', 'MIN', 'Minnesota', 'Wild', '30', 'Xcel Energy Center', '25', 'MIN', 'Minnesota', 'Wild', '1', '0', '0', '0', '0', '0', '0', '2', '43', '25', '63.2', '2', '1', '50.0', '3', '2', '33.3', '0', '0', '3', '3', '21', '5', '10', '11']"
"['', '27551', '2014-04-10', '00:00:00 GMT', '17', 'STL', 'St. Louis', 'Blues', '25', 'MIN', 'Minnesota', 'Wild', '30', 'Xcel Energy Center', '25', 'MIN', 'Minnesota', 'Wild', '1', '0', '0', '0', '0', '0', '1', '2', '20', '25', '44.4', '4', '0', '0.0', '3', '1', '66.7', '0', '1', '4', '2', '11', '4', '16', '15']"
"['', '27576', '2014-04-13', '00:00:00 GMT', '18', 'NSH', 'Nashville', 'Predators', '25', 'MIN', 'Minnesota', 'Wild', '30', 'Xcel Energy Center', '25', 'MIN', 'Minnesota', 'Wild', '0', '1', '0', '0', '0', '0', '0', '0', '26', '44', '37.1', '4', '1', '25.0', '5', '3', '40.0', '0', '0', '3', '7', '26', '7', '14', '16']"
