"['#Date/Time of Update: 2018-12-10 19:02:53 GMT', '#Game ID', '#Game Date', '#Game Time', '#Away Team ID', '#Away Team Abbr.', '#Away Team City', '#Away Team Name', '#Home Team ID', '#Home Team Abbr.', '#Home Team City', '#Home Team Name', '#Venue ID', '#Venue Name', '#Team ID', '#Team Abbr.', '#Team City', '#Team Name', '#Wins', '#Losses', '#OvertimeWins', '#OvertimeLosses', '#ShootoutWins', '#ShootoutLosses', '#Points', '#FaceoffWins', '#FaceoffLosses', '#FaceoffPercent', '#Powerplays', '#PowerplayGoals', '#PowerplayPercent', '#PenaltyKills', '#PenaltyKillGoalsAllowed', '#PenaltyKillPercent', '#ShorthandedGoalsFor', '#ShorthandedGoalsAgainst', '#GoalsFor', '#GoalsAgainst', '#Shots', '#Penalties', '#PenaltyMinutes', '#Hits']"
"['', '3815', '2008-10-04', '18:30:00 GMT', '10', 'PIT', 'Pittsburgh', 'Penguins', '13', 'OTT', 'Ottawa', 'Senators', '35', 'Stockholm Globe Arena', '13', 'OTT', 'Ottawa', 'Senators', '0', '0', '0', '1', '0', '0', '1', '32', '28', '53.3', '5', '1', '20.0', '7', '0', '100.0', '1', '1', '3', '4', '32', '7', '14', '39']"
"['', '3817', '2008-10-05', '18:30:00 GMT', '13', 'OTT', 'Ottawa', 'Senators', '10', 'PIT', 'Pittsburgh', 'Penguins', '35', 'Stockholm Globe Arena', '13', 'OTT', 'Ottawa', 'Senators', '1', '0', '0', '0', '0', '0', '2', '28', '29', '49.1', '4', '2', '50.0', '7', '1', '85.7', '0', '0', '3', '1', '24', '8', '16', '23']"
"['', '3830', '2008-10-11', '23:00:00 GMT', '16', 'DET', 'Detroit', 'Red Wings', '13', 'OTT', 'Ottawa', 'Senators', '23', 'Scotiabank Place', '13', 'OTT', 'Ottawa', 'Senators', '0', '1', '0', '0', '0', '0', '0', '26', '34', '43.3', '6', '1', '16.7', '3', '0', '100.0', '0', '0', '2', '3', '20', '6', '12', '27']"
"['', '3870', '2008-10-17', '23:00:00 GMT', '30', 'PHX', 'Phoenix', 'Coyotes', '13', 'OTT', 'Ottawa', 'Senators', '23', 'Scotiabank Place', '13', 'OTT', 'Ottawa', 'Senators', '1', '0', '0', '0', '0', '0', '2', '24', '27', '47.1', '3', '1', '33.3', '0', '0', '0.0', '0', '0', '6', '3', '20', '0', '0', '21']"
"['', '3879', '2008-10-18', '23:00:00 GMT', '11', 'BOS', 'Boston', 'Bruins', '13', 'OTT', 'Ottawa', 'Senators', '23', 'Scotiabank Place', '13', 'OTT', 'Ottawa', 'Senators', '0', '1', '0', '0', '0', '0', '0', '20', '29', '40.8', '5', '1', '20.0', '1', '1', '0.0', '0', '0', '2', '4', '21', '2', '4', '25']"
"['', '3901', '2008-10-22', '23:00:00 GMT', '4', 'FLO', 'Florida', 'Panthers', '13', 'OTT', 'Ottawa', 'Senators', '23', 'Scotiabank Place', '13', 'OTT', 'Ottawa', 'Senators', '0', '1', '0', '0', '0', '0', '0', '29', '22', '56.9', '6', '1', '16.7', '4', '0', '100.0', '0', '0', '1', '3', '41', '4', '8', '27']"
"['', '3913', '2008-10-24', '23:00:00 GMT', '29', 'ANA', 'Anaheim', 'Ducks', '13', 'OTT', 'Ottawa', 'Senators', '23', 'Scotiabank Place', '13', 'OTT', 'Ottawa', 'Senators', '0', '1', '0', '0', '0', '0', '0', '26', '32', '44.8', '7', '1', '14.3', '2', '1', '50.0', '0', '0', '3', '4', '27', '4', '11', '34']"
"['', '3923', '2008-10-25', '23:00:00 GMT', '13', 'OTT', 'Ottawa', 'Senators', '12', 'TOR', 'Toronto', 'Maple Leafs', '1', 'Air Canada Center', '13', 'OTT', 'Ottawa', 'Senators', '0', '1', '0', '0', '0', '0', '0', '21', '33', '38.9', '2', '0', '0.0', '6', '1', '83.3', '1', '0', '2', '3', '22', '8', '27', '28']"
"['', '3933', '2008-10-27', '23:00:00 GMT', '13', 'OTT', 'Ottawa', 'Senators', '15', 'BUF', 'Buffalo', 'Sabres', '10', 'HSBC Arena', '13', 'OTT', 'Ottawa', 'Senators', '1', '0', '0', '0', '0', '0', '2', '37', '21', '63.8', '6', '2', '33.3', '9', '2', '77.8', '0', '0', '5', '2', '23', '14', '50', '10']"
"['', '3952', '2008-10-30', '23:30:00 GMT', '13', 'OTT', 'Ottawa', 'Senators', '4', 'FLO', 'Florida', 'Panthers', '3', 'BankAtlantic Center', '13', 'OTT', 'Ottawa', 'Senators', '1', '0', '0', '0', '0', '0', '2', '34', '26', '56.7', '5', '1', '20.0', '2', '1', '50.0', '0', '0', '2', '1', '29', '3', '6', '22']"
"['', '3970', '2008-11-01', '23:30:00 GMT', '13', 'OTT', 'Ottawa', 'Senators', '1', 'TBL', 'Tampa Bay', 'Lightning', '26', 'St. Pete Times Forum', '13', 'OTT', 'Ottawa', 'Senators', '0', '0', '0', '1', '0', '0', '1', '35', '31', '53.0', '2', '1', '50.0', '4', '0', '100.0', '0', '0', '2', '2', '29', '4', '8', '16']"
"['', '3985', '2008-11-04', '00:30:00 GMT', '5', 'WSH', 'Washington', 'Capitals', '13', 'OTT', 'Ottawa', 'Senators', '23', 'Scotiabank Place', '13', 'OTT', 'Ottawa', 'Senators', '1', '0', '0', '0', '0', '0', '2', '29', '34', '46.0', '4', '0', '0.0', '1', '0', '100.0', '0', '0', '2', '1', '42', '1', '2', '20']"
"['', '3998', '2008-11-06', '00:30:00 GMT', '6', 'PHI', 'Philadelphia', 'Flyers', '13', 'OTT', 'Ottawa', 'Senators', '23', 'Scotiabank Place', '13', 'OTT', 'Ottawa', 'Senators', '1', '0', '0', '0', '0', '0', '2', '21', '21', '50.0', '1', '1', '100.0', '3', '0', '100.0', '0', '0', '4', '1', '21', '3', '6', '28']"
"['', '4005', '2008-11-07', '00:00:00 GMT', '13', 'OTT', 'Ottawa', 'Senators', '3', 'CAR', 'Carolina', 'Hurricanes', '21', 'RBC Center', '13', 'OTT', 'Ottawa', 'Senators', '0', '1', '0', '0', '0', '0', '0', '31', '26', '54.4', '5', '0', '0.0', '5', '1', '80.0', '0', '0', '1', '2', '22', '7', '14', '38']"
"['', '4030', '2008-11-11', '00:30:00 GMT', '13', 'OTT', 'Ottawa', 'Senators', '14', 'MTL', 'Montreal', 'Canadiens', '4', 'Bell Centre', '13', 'OTT', 'Ottawa', 'Senators', '0', '1', '0', '0', '0', '0', '0', '32', '31', '50.8', '4', '0', '0.0', '4', '0', '100.0', '0', '1', '0', '4', '28', '7', '25', '28']"
"['', '4042', '2008-11-13', '00:30:00 GMT', '8', 'NYI', 'New York', 'Islanders', '13', 'OTT', 'Ottawa', 'Senators', '23', 'Scotiabank Place', '13', 'OTT', 'Ottawa', 'Senators', '0', '1', '0', '0', '0', '0', '0', '28', '27', '50.9', '7', '1', '14.3', '5', '2', '60.0', '0', '0', '1', '3', '29', '5', '10', '22']"
"['', '4057', '2008-11-15', '00:00:00 GMT', '13', 'OTT', 'Ottawa', 'Senators', '8', 'NYI', 'New York', 'Islanders', '16', 'Nassau Veterans Memorial Coliseum', '13', 'OTT', 'Ottawa', 'Senators', '0', '1', '0', '0', '0', '0', '0', '29', '25', '53.7', '2', '1', '50.0', '5', '1', '80.0', '0', '0', '2', '3', '38', '8', '19', '29']"
"['', '4071', '2008-11-17', '00:00:00 GMT', '13', 'OTT', 'Ottawa', 'Senators', '9', 'NYR', 'New York', 'Rangers', '12', 'Madison Square Garden', '13', 'OTT', 'Ottawa', 'Senators', '0', '0', '0', '1', '0', '0', '1', '28', '30', '48.3', '3', '0', '0.0', '1', '0', '100.0', '0', '0', '1', '1', '27', '4', '8', '35']"
"['', '4086', '2008-11-20', '00:30:00 GMT', '14', 'MTL', 'Montreal', 'Canadiens', '13', 'OTT', 'Ottawa', 'Senators', '23', 'Scotiabank Place', '13', 'OTT', 'Ottawa', 'Senators', '0', '0', '0', '1', '0', '0', '1', '30', '25', '54.5', '5', '1', '20.0', '1', '1', '0.0', '0', '0', '2', '2', '23', '3', '9', '28']"
"['', '4099', '2008-11-22', '20:00:00 GMT', '9', 'NYR', 'New York', 'Rangers', '13', 'OTT', 'Ottawa', 'Senators', '23', 'Scotiabank Place', '13', 'OTT', 'Ottawa', 'Senators', '1', '0', '0', '0', '0', '0', '2', '24', '33', '42.1', '5', '1', '20.0', '3', '0', '100.0', '0', '0', '4', '1', '32', '3', '6', '31']"
"['', '4134', '2008-11-27', '00:30:00 GMT', '12', 'TOR', 'Toronto', 'Maple Leafs', '13', 'OTT', 'Ottawa', 'Senators', '23', 'Scotiabank Place', '13', 'OTT', 'Ottawa', 'Senators', '1', '0', '0', '0', '0', '0', '2', '37', '29', '56.1', '1', '0', '0.0', '4', '0', '100.0', '0', '0', '1', '1', '34', '7', '17', '30']"
"['', '4151', '2008-11-29', '00:00:00 GMT', '13', 'OTT', 'Ottawa', 'Senators', '8', 'NYI', 'New York', 'Islanders', '16', 'Nassau Veterans Memorial Coliseum', '13', 'OTT', 'Ottawa', 'Senators', '0', '1', '0', '0', '0', '0', '0', '26', '22', '54.2', '1', '0', '0.0', '5', '0', '100.0', '0', '0', '2', '4', '19', '6', '20', '38']"
"['', '4175', '2008-12-03', '00:00:00 GMT', '2', 'ATL', 'Atlanta', 'Thrashers', '13', 'OTT', 'Ottawa', 'Senators', '23', 'Scotiabank Place', '13', 'OTT', 'Ottawa', 'Senators', '1', '0', '0', '0', '0', '0', '2', '29', '30', '49.2', '3', '2', '66.7', '6', '0', '100.0', '0', '0', '5', '1', '29', '11', '31', '27']"
"['', '4197', '2008-12-06', '00:00:00 GMT', '10', 'PIT', 'Pittsburgh', 'Penguins', '13', 'OTT', 'Ottawa', 'Senators', '23', 'Scotiabank Place', '13', 'OTT', 'Ottawa', 'Senators', '1', '0', '0', '0', '0', '0', '2', '33', '25', '56.9', '1', '0', '0.0', '2', '1', '50.0', '0', '1', '3', '2', '28', '4', '11', '25']"
"['', '4211', '2008-12-08', '00:30:00 GMT', '4', 'FLO', 'Florida', 'Panthers', '13', 'OTT', 'Ottawa', 'Senators', '23', 'Scotiabank Place', '13', 'OTT', 'Ottawa', 'Senators', '0', '0', '0', '1', '0', '0', '1', '28', '34', '45.2', '3', '0', '0.0', '5', '1', '80.0', '0', '0', '3', '4', '35', '6', '15', '33']"
"['', '4224', '2008-12-10', '01:30:00 GMT', '13', 'OTT', 'Ottawa', 'Senators', '20', 'CHI', 'Chicago', 'Blackhawks', '28', 'United Center', '13', 'OTT', 'Ottawa', 'Senators', '0', '1', '0', '0', '0', '0', '0', '28', '24', '53.8', '6', '0', '0.0', '6', '1', '83.3', '0', '0', '0', '2', '23', '7', '17', '21']"
"['', '4236', '2008-12-12', '00:00:00 GMT', '13', 'OTT', 'Ottawa', 'Senators', '5', 'WSH', 'Washington', 'Capitals', '13', 'Verizon Center', '13', 'OTT', 'Ottawa', 'Senators', '0', '1', '0', '0', '0', '0', '0', '27', '32', '45.8', '4', '0', '0.0', '6', '3', '50.0', '0', '0', '1', '5', '32', '9', '26', '15']"
"['', '4248', '2008-12-13', '00:00:00 GMT', '1', 'TBL', 'Tampa Bay', 'Lightning', '13', 'OTT', 'Ottawa', 'Senators', '23', 'Scotiabank Place', '13', 'OTT', 'Ottawa', 'Senators', '1', '0', '0', '0', '0', '0', '2', '35', '18', '66.0', '8', '1', '12.5', '4', '0', '100.0', '0', '0', '2', '0', '31', '6', '15', '18']"
"['', '4262', '2008-12-16', '00:30:00 GMT', '2', 'ATL', 'Atlanta', 'Thrashers', '13', 'OTT', 'Ottawa', 'Senators', '23', 'Scotiabank Place', '13', 'OTT', 'Ottawa', 'Senators', '0', '1', '0', '0', '0', '0', '0', '31', '28', '52.5', '2', '0', '0.0', '5', '2', '60.0', '1', '0', '1', '4', '28', '9', '29', '26']"
"['', '4282', '2008-12-19', '00:00:00 GMT', '13', 'OTT', 'Ottawa', 'Senators', '7', 'NJD', 'New Jersey', 'Devils', '5', 'Izod Center', '13', 'OTT', 'Ottawa', 'Senators', '0', '1', '0', '0', '0', '0', '0', '20', '30', '40.0', '3', '0', '0.0', '4', '3', '25.0', '1', '0', '1', '5', '24', '5', '13', '14']"
"['', '4291', '2008-12-20', '00:00:00 GMT', '27', 'DAL', 'Dallas', 'Stars', '13', 'OTT', 'Ottawa', 'Senators', '23', 'Scotiabank Place', '13', 'OTT', 'Ottawa', 'Senators', '1', '0', '0', '0', '0', '0', '2', '31', '22', '58.5', '6', '3', '50.0', '3', '1', '66.7', '0', '0', '5', '4', '28', '4', '8', '42']"
"['', '4310', '2008-12-23', '00:00:00 GMT', '13', 'OTT', 'Ottawa', 'Senators', '6', 'PHI', 'Philadelphia', 'Flyers', '29', 'Wachovia Center', '13', 'OTT', 'Ottawa', 'Senators', '0', '1', '0', '0', '0', '0', '0', '31', '32', '49.2', '3', '1', '33.3', '1', '1', '0.0', '0', '0', '4', '6', '17', '2', '4', '18']"
"['', '4339', '2008-12-27', '03:00:00 GMT', '13', 'OTT', 'Ottawa', 'Senators', '23', 'CGY', 'Calgary', 'Flames', '18', 'Pengrowth Saddledome', '13', 'OTT', 'Ottawa', 'Senators', '0', '1', '0', '0', '0', '0', '0', '28', '34', '45.2', '3', '1', '33.3', '4', '0', '100.0', '0', '0', '3', '6', '27', '7', '17', '9']"
"['', '4345', '2008-12-28', '03:00:00 GMT', '13', 'OTT', 'Ottawa', 'Senators', '21', 'VAN', 'Vancouver', 'Canucks', '7', 'General Motors Place', '13', 'OTT', 'Ottawa', 'Senators', '0', '1', '0', '0', '0', '0', '0', '25', '26', '49.0', '4', '0', '0.0', '4', '0', '100.0', '0', '0', '0', '3', '18', '12', '27', '13']"
"['', '4358', '2008-12-30', '02:00:00 GMT', '13', 'OTT', 'Ottawa', 'Senators', '24', 'EDM', 'Edmonton', 'Oilers', '22', 'Rogers Place', '13', 'OTT', 'Ottawa', 'Senators', '1', '0', '0', '0', '0', '0', '2', '28', '17', '62.2', '3', '1', '33.3', '1', '0', '100.0', '0', '0', '3', '2', '22', '1', '2', '11']"
"['', '4381', '2009-01-03', '00:00:00 GMT', '13', 'OTT', 'Ottawa', 'Senators', '12', 'TOR', 'Toronto', 'Maple Leafs', '1', 'Air Canada Center', '13', 'OTT', 'Ottawa', 'Senators', '0', '1', '0', '0', '0', '0', '0', '33', '24', '57.9', '5', '1', '20.0', '5', '1', '80.0', '0', '0', '1', '3', '30', '12', '24', '27']"
"['', '4392', '2009-01-04', '00:00:00 GMT', '13', 'OTT', 'Ottawa', 'Senators', '7', 'NJD', 'New Jersey', 'Devils', '5', 'Izod Center', '13', 'OTT', 'Ottawa', 'Senators', '0', '0', '0', '1', '0', '0', '1', '33', '26', '55.9', '5', '2', '40.0', '5', '2', '60.0', '0', '0', '3', '4', '17', '7', '25', '22']"
"['', '4399', '2009-01-06', '00:00:00 GMT', '13', 'OTT', 'Ottawa', 'Senators', '15', 'BUF', 'Buffalo', 'Sabres', '10', 'HSBC Arena', '13', 'OTT', 'Ottawa', 'Senators', '0', '1', '0', '0', '0', '0', '0', '32', '32', '50.0', '5', '0', '0.0', '3', '1', '66.7', '0', '0', '2', '4', '31', '6', '12', '15']"
"['', '4411', '2009-01-08', '00:00:00 GMT', '13', 'OTT', 'Ottawa', 'Senators', '11', 'BOS', 'Boston', 'Bruins', '27', 'TD Banknorth Garden', '13', 'OTT', 'Ottawa', 'Senators', '0', '1', '0', '0', '0', '0', '0', '31', '21', '59.6', '1', '0', '0.0', '2', '0', '100.0', '0', '0', '4', '6', '26', '3', '9', '20']"
"['', '4432', '2009-01-10', '00:00:00 GMT', '9', 'NYR', 'New York', 'Rangers', '13', 'OTT', 'Ottawa', 'Senators', '23', 'Scotiabank Place', '13', 'OTT', 'Ottawa', 'Senators', '0', '1', '0', '0', '0', '0', '0', '31', '21', '59.6', '3', '0', '0.0', '3', '0', '100.0', '0', '0', '0', '2', '33', '5', '10', '16']"
"['', '4449', '2009-01-13', '00:30:00 GMT', '3', 'CAR', 'Carolina', 'Hurricanes', '13', 'OTT', 'Ottawa', 'Senators', '23', 'Scotiabank Place', '13', 'OTT', 'Ottawa', 'Senators', '1', '0', '0', '0', '0', '0', '2', '38', '20', '65.5', '4', '0', '0.0', '4', '1', '75.0', '0', '0', '5', '1', '35', '4', '8', '17']"
"['', '4456', '2009-01-14', '00:30:00 GMT', '13', 'OTT', 'Ottawa', 'Senators', '2', 'ATL', 'Atlanta', 'Thrashers', '20', 'Philips Arena', '13', 'OTT', 'Ottawa', 'Senators', '1', '0', '0', '0', '0', '0', '2', '22', '38', '36.7', '4', '2', '50.0', '2', '1', '50.0', '0', '0', '3', '2', '27', '4', '8', '8']"
"['', '4478', '2009-01-17', '00:00:00 GMT', '14', 'MTL', 'Montreal', 'Canadiens', '13', 'OTT', 'Ottawa', 'Senators', '23', 'Scotiabank Place', '13', 'OTT', 'Ottawa', 'Senators', '0', '0', '0', '1', '0', '0', '1', '30', '27', '52.6', '2', '0', '0.0', '6', '1', '83.3', '0', '0', '4', '4', '23', '6', '12', '29']"
"['', '4499', '2009-01-20', '00:30:00 GMT', '5', 'WSH', 'Washington', 'Capitals', '13', 'OTT', 'Ottawa', 'Senators', '23', 'Scotiabank Place', '13', 'OTT', 'Ottawa', 'Senators', '1', '0', '0', '0', '0', '0', '2', '28', '27', '50.9', '6', '3', '50.0', '4', '0', '100.0', '0', '0', '3', '2', '31', '5', '10', '17']"
"['', '4517', '2009-01-27', '00:30:00 GMT', '7', 'NJD', 'New Jersey', 'Devils', '13', 'OTT', 'Ottawa', 'Senators', '23', 'Scotiabank Place', '13', 'OTT', 'Ottawa', 'Senators', '0', '1', '0', '0', '0', '0', '0', '30', '26', '53.6', '5', '1', '20.0', '4', '0', '100.0', '0', '0', '1', '4', '21', '5', '13', '21']"
"['', '4534', '2009-01-29', '01:30:00 GMT', '13', 'OTT', 'Ottawa', 'Senators', '17', 'STL', 'St. Louis', 'Blues', '24', 'Scottrade Center', '13', 'OTT', 'Ottawa', 'Senators', '1', '0', '0', '0', '0', '0', '2', '22', '23', '48.9', '4', '0', '0.0', '3', '0', '100.0', '1', '0', '3', '1', '27', '3', '6', '21']"
"['', '4539', '2009-01-30', '00:00:00 GMT', '13', 'OTT', 'Ottawa', 'Senators', '19', 'CBJ', 'Columbus', 'Blue Jackets', '17', 'Nationwide Arena', '13', 'OTT', 'Ottawa', 'Senators', '0', '1', '0', '0', '0', '0', '0', '25', '26', '49.0', '5', '0', '0.0', '5', '0', '100.0', '0', '0', '0', '1', '18', '10', '39', '24']"
"['', '4555', '2009-02-01', '17:30:00 GMT', '13', 'OTT', 'Ottawa', 'Senators', '5', 'WSH', 'Washington', 'Capitals', '13', 'Verizon Center', '13', 'OTT', 'Ottawa', 'Senators', '0', '1', '0', '0', '0', '0', '0', '32', '26', '55.2', '6', '1', '16.7', '4', '2', '50.0', '0', '0', '4', '7', '34', '5', '10', '28']"
"['', '4566', '2009-02-03', '00:30:00 GMT', '28', 'LAK', 'Los Angeles', 'Kings', '13', 'OTT', 'Ottawa', 'Senators', '23', 'Scotiabank Place', '13', 'OTT', 'Ottawa', 'Senators', '0', '1', '0', '0', '0', '0', '0', '25', '25', '50.0', '4', '0', '0.0', '4', '0', '100.0', '0', '0', '0', '1', '29', '6', '12', '29']"
"['', '4578', '2009-02-05', '00:30:00 GMT', '11', 'BOS', 'Boston', 'Bruins', '13', 'OTT', 'Ottawa', 'Senators', '23', 'Scotiabank Place', '13', 'OTT', 'Ottawa', 'Senators', '0', '0', '0', '1', '0', '0', '1', '30', '28', '51.7', '2', '1', '50.0', '5', '2', '60.0', '0', '0', '3', '3', '19', '5', '10', '33']"
"['', '4595', '2009-02-07', '00:00:00 GMT', '15', 'BUF', 'Buffalo', 'Sabres', '13', 'OTT', 'Ottawa', 'Senators', '23', 'Scotiabank Place', '13', 'OTT', 'Ottawa', 'Senators', '1', '0', '0', '0', '0', '0', '2', '34', '22', '60.7', '2', '1', '50.0', '1', '1', '0.0', '0', '0', '2', '2', '40', '1', '2', '22']"
"['', '4618', '2009-02-11', '00:30:00 GMT', '13', 'OTT', 'Ottawa', 'Senators', '15', 'BUF', 'Buffalo', 'Sabres', '10', 'HSBC Arena', '13', 'OTT', 'Ottawa', 'Senators', '1', '0', '0', '0', '0', '0', '2', '31', '35', '47.0', '6', '2', '33.3', '9', '1', '88.9', '0', '0', '3', '1', '20', '14', '36', '6']"
"['', '4625', '2009-02-12', '00:00:00 GMT', '13', 'OTT', 'Ottawa', 'Senators', '6', 'PHI', 'Philadelphia', 'Flyers', '29', 'Wachovia Center', '13', 'OTT', 'Ottawa', 'Senators', '1', '0', '0', '0', '0', '0', '2', '33', '20', '62.3', '1', '1', '100.0', '3', '0', '100.0', '0', '0', '5', '2', '18', '3', '6', '17']"
"['', '4644', '2009-02-14', '01:00:00 GMT', '13', 'OTT', 'Ottawa', 'Senators', '25', 'MIN', 'Minnesota', 'Wild', '30', 'Xcel Energy Center', '13', 'OTT', 'Ottawa', 'Senators', '1', '0', '0', '0', '0', '0', '2', '27', '25', '51.9', '1', '0', '0.0', '4', '1', '75.0', '2', '0', '5', '3', '17', '5', '10', '13']"
"['', '4657', '2009-02-16', '01:00:00 GMT', '13', 'OTT', 'Ottawa', 'Senators', '18', 'NSH', 'Nashville', 'Predators', '15', 'Sommet Center', '13', 'OTT', 'Ottawa', 'Senators', '1', '0', '0', '0', '0', '0', '2', '26', '23', '53.1', '3', '0', '0.0', '4', '0', '100.0', '0', '0', '2', '0', '22', '4', '8', '14']"
"['', '4666', '2009-02-17', '02:00:00 GMT', '13', 'OTT', 'Ottawa', 'Senators', '22', 'COL', 'Colorado', 'Avalanche', '19', 'Pepsi Center', '13', 'OTT', 'Ottawa', 'Senators', '0', '0', '0', '1', '0', '0', '1', '26', '23', '53.1', '3', '1', '33.3', '1', '0', '100.0', '0', '0', '2', '3', '20', '4', '8', '14']"
"['', '4675', '2009-02-19', '00:30:00 GMT', '21', 'VAN', 'Vancouver', 'Canucks', '13', 'OTT', 'Ottawa', 'Senators', '23', 'Scotiabank Place', '13', 'OTT', 'Ottawa', 'Senators', '0', '1', '0', '0', '0', '0', '0', '32', '22', '59.3', '5', '1', '20.0', '2', '1', '50.0', '0', '0', '2', '5', '25', '4', '11', '25']"
"['', '4689', '2009-02-21', '20:00:00 GMT', '13', 'OTT', 'Ottawa', 'Senators', '14', 'MTL', 'Montreal', 'Canadiens', '4', 'Bell Centre', '13', 'OTT', 'Ottawa', 'Senators', '0', '1', '0', '0', '0', '0', '0', '28', '33', '45.9', '7', '1', '14.3', '4', '3', '25.0', '0', '0', '3', '5', '44', '9', '24', '15']"
"['', '4711', '2009-02-24', '00:30:00 GMT', '3', 'CAR', 'Carolina', 'Hurricanes', '13', 'OTT', 'Ottawa', 'Senators', '23', 'Scotiabank Place', '13', 'OTT', 'Ottawa', 'Senators', '1', '0', '0', '0', '0', '0', '2', '33', '19', '63.5', '3', '1', '33.3', '5', '1', '80.0', '0', '0', '4', '2', '18', '5', '10', '27']"
"['', '4727', '2009-02-26', '00:30:00 GMT', '26', 'SJS', 'San Jose', 'Sharks', '13', 'OTT', 'Ottawa', 'Senators', '23', 'Scotiabank Place', '13', 'OTT', 'Ottawa', 'Senators', '0', '1', '0', '0', '0', '0', '0', '27', '27', '50.0', '4', '1', '25.0', '3', '1', '66.7', '0', '0', '1', '2', '23', '4', '8', '22']"
"['', '4742', '2009-02-28', '00:00:00 GMT', '12', 'TOR', 'Toronto', 'Maple Leafs', '13', 'OTT', 'Ottawa', 'Senators', '23', 'Scotiabank Place', '13', 'OTT', 'Ottawa', 'Senators', '0', '0', '0', '1', '0', '0', '1', '33', '19', '63.5', '1', '0', '0.0', '3', '1', '66.7', '0', '0', '3', '4', '29', '4', '8', '32']"
"['', '4758', '2009-03-03', '00:30:00 GMT', '23', 'CGY', 'Calgary', 'Flames', '13', 'OTT', 'Ottawa', 'Senators', '23', 'Scotiabank Place', '13', 'OTT', 'Ottawa', 'Senators', '0', '1', '0', '0', '0', '0', '0', '37', '26', '58.7', '5', '2', '40.0', '3', '1', '66.7', '0', '0', '3', '6', '22', '7', '25', '26']"
"['', '4772', '2009-03-05', '00:30:00 GMT', '24', 'EDM', 'Edmonton', 'Oilers', '13', 'OTT', 'Ottawa', 'Senators', '23', 'Scotiabank Place', '13', 'OTT', 'Ottawa', 'Senators', '1', '0', '0', '0', '0', '0', '2', '28', '23', '54.9', '2', '1', '50.0', '2', '1', '50.0', '0', '0', '4', '2', '28', '4', '8', '26']"
"['', '4786', '2009-03-07', '00:00:00 GMT', '15', 'BUF', 'Buffalo', 'Sabres', '13', 'OTT', 'Ottawa', 'Senators', '23', 'Scotiabank Place', '13', 'OTT', 'Ottawa', 'Senators', '1', '0', '0', '0', '0', '0', '2', '32', '30', '51.6', '5', '1', '20.0', '4', '3', '25.0', '0', '0', '6', '3', '30', '5', '10', '24']"
"['', '4800', '2009-03-09', '23:30:00 GMT', '12', 'TOR', 'Toronto', 'Maple Leafs', '13', 'OTT', 'Ottawa', 'Senators', '23', 'Scotiabank Place', '13', 'OTT', 'Ottawa', 'Senators', '1', '0', '0', '0', '0', '0', '2', '22', '25', '46.8', '2', '0', '0.0', '3', '0', '100.0', '0', '0', '2', '1', '24', '4', '8', '28']"
"['', '4813', '2009-03-11', '23:00:00 GMT', '1', 'TBL', 'Tampa Bay', 'Lightning', '13', 'OTT', 'Ottawa', 'Senators', '23', 'Scotiabank Place', '13', 'OTT', 'Ottawa', 'Senators', '1', '0', '0', '0', '0', '0', '2', '25', '32', '43.9', '4', '1', '25.0', '5', '2', '60.0', '1', '0', '3', '2', '24', '7', '14', '29']"
"['', '4816', '2009-03-12', '23:00:00 GMT', '13', 'OTT', 'Ottawa', 'Senators', '11', 'BOS', 'Boston', 'Bruins', '27', 'TD Banknorth Garden', '13', 'OTT', 'Ottawa', 'Senators', '0', '1', '0', '0', '0', '0', '0', '33', '27', '55.0', '5', '0', '0.0', '2', '1', '50.0', '0', '1', '3', '5', '25', '5', '13', '13']"
"['', '4834', '2009-03-14', '19:00:00 GMT', '13', 'OTT', 'Ottawa', 'Senators', '10', 'PIT', 'Pittsburgh', 'Penguins', '14', 'Mellon Arena', '13', 'OTT', 'Ottawa', 'Senators', '1', '0', '0', '0', '0', '0', '2', '29', '26', '52.7', '7', '0', '0.0', '4', '0', '100.0', '0', '0', '3', '3', '36', '6', '12', '22']"
"['', '4856', '2009-03-17', '23:30:00 GMT', '15', 'BUF', 'Buffalo', 'Sabres', '13', 'OTT', 'Ottawa', 'Senators', '23', 'Scotiabank Place', '13', 'OTT', 'Ottawa', 'Senators', '1', '0', '0', '0', '0', '0', '2', '26', '24', '52.0', '9', '3', '33.3', '4', '0', '100.0', '0', '0', '4', '2', '32', '4', '8', '24']"
"['', '4869', '2009-03-19', '23:30:00 GMT', '14', 'MTL', 'Montreal', 'Canadiens', '13', 'OTT', 'Ottawa', 'Senators', '23', 'Scotiabank Place', '13', 'OTT', 'Ottawa', 'Senators', '1', '0', '0', '0', '0', '0', '2', '33', '26', '55.9', '2', '2', '100.0', '4', '0', '100.0', '0', '0', '5', '4', '34', '4', '8', '31']"
"['', '4887', '2009-03-21', '23:00:00 GMT', '8', 'NYI', 'New York', 'Islanders', '13', 'OTT', 'Ottawa', 'Senators', '23', 'Scotiabank Place', '13', 'OTT', 'Ottawa', 'Senators', '1', '0', '0', '0', '0', '0', '2', '26', '23', '53.1', '3', '1', '33.3', '5', '1', '80.0', '0', '0', '5', '2', '21', '6', '15', '20']"
"['', '4895', '2009-03-22', '23:00:00 GMT', '13', 'OTT', 'Ottawa', 'Senators', '9', 'NYR', 'New York', 'Rangers', '12', 'Madison Square Garden', '13', 'OTT', 'Ottawa', 'Senators', '1', '0', '0', '0', '0', '0', '2', '20', '45', '30.8', '3', '0', '0.0', '5', '0', '100.0', '0', '0', '2', '1', '20', '6', '12', '24']"
"['', '4910', '2009-03-25', '23:00:00 GMT', '13', 'OTT', 'Ottawa', 'Senators', '3', 'CAR', 'Carolina', 'Hurricanes', '21', 'RBC Center', '13', 'OTT', 'Ottawa', 'Senators', '0', '1', '0', '0', '0', '0', '0', '25', '33', '43.1', '1', '0', '0.0', '3', '1', '66.7', '0', '0', '1', '2', '21', '4', '8', '21']"
"['', '4934', '2009-03-28', '23:00:00 GMT', '13', 'OTT', 'Ottawa', 'Senators', '2', 'ATL', 'Atlanta', 'Thrashers', '20', 'Philips Arena', '13', 'OTT', 'Ottawa', 'Senators', '0', '1', '0', '0', '0', '0', '0', '27', '30', '47.4', '5', '2', '40.0', '7', '2', '71.4', '0', '0', '3', '6', '18', '10', '23', '6']"
"['', '4942', '2009-03-29', '22:00:00 GMT', '13', 'OTT', 'Ottawa', 'Senators', '1', 'TBL', 'Tampa Bay', 'Lightning', '26', 'St. Pete Times Forum', '13', 'OTT', 'Ottawa', 'Senators', '1', '0', '0', '0', '0', '0', '2', '32', '19', '62.7', '4', '2', '50.0', '4', '0', '100.0', '0', '0', '3', '0', '27', '5', '10', '21']"
"['', '4953', '2009-03-31', '23:30:00 GMT', '13', 'OTT', 'Ottawa', 'Senators', '4', 'FLO', 'Florida', 'Panthers', '3', 'BankAtlantic Center', '13', 'OTT', 'Ottawa', 'Senators', '0', '1', '0', '0', '0', '0', '0', '30', '22', '57.7', '1', '0', '0.0', '4', '2', '50.0', '0', '0', '2', '5', '30', '4', '8', '20']"
"['', '4963', '2009-04-02', '23:00:00 GMT', '13', 'OTT', 'Ottawa', 'Senators', '11', 'BOS', 'Boston', 'Bruins', '27', 'TD Banknorth Garden', '13', 'OTT', 'Ottawa', 'Senators', '0', '1', '0', '0', '0', '0', '0', '25', '22', '53.2', '4', '0', '0.0', '2', '0', '100.0', '0', '0', '1', '2', '31', '4', '8', '19']"
"['', '4981', '2009-04-04', '23:00:00 GMT', '6', 'PHI', 'Philadelphia', 'Flyers', '13', 'OTT', 'Ottawa', 'Senators', '23', 'Scotiabank Place', '13', 'OTT', 'Ottawa', 'Senators', '1', '0', '0', '0', '0', '0', '2', '29', '27', '51.8', '1', '1', '100.0', '2', '1', '50.0', '0', '0', '3', '3', '35', '3', '6', '33']"
"['', '4995', '2009-04-06', '23:30:00 GMT', '13', 'OTT', 'Ottawa', 'Senators', '14', 'MTL', 'Montreal', 'Canadiens', '4', 'Bell Centre', '13', 'OTT', 'Ottawa', 'Senators', '1', '0', '0', '0', '0', '0', '2', '21', '26', '44.7', '5', '1', '20.0', '3', '0', '100.0', '0', '0', '3', '2', '20', '6', '23', '42']"
"['', '5002', '2009-04-07', '23:30:00 GMT', '11', 'BOS', 'Boston', 'Bruins', '13', 'OTT', 'Ottawa', 'Senators', '23', 'Scotiabank Place', '13', 'OTT', 'Ottawa', 'Senators', '1', '0', '0', '0', '0', '0', '2', '26', '24', '52.0', '4', '1', '25.0', '4', '1', '75.0', '1', '0', '3', '2', '29', '5', '10', '29']"
"['', '5017', '2009-04-09', '23:30:00 GMT', '7', 'NJD', 'New Jersey', 'Devils', '13', 'OTT', 'Ottawa', 'Senators', '23', 'Scotiabank Place', '13', 'OTT', 'Ottawa', 'Senators', '0', '0', '0', '1', '0', '0', '1', '30', '33', '47.6', '3', '0', '0.0', '5', '0', '100.0', '0', '0', '2', '2', '28', '8', '19', '31']"
"['', '5034', '2009-04-11', '23:00:00 GMT', '13', 'OTT', 'Ottawa', 'Senators', '12', 'TOR', 'Toronto', 'Maple Leafs', '1', 'Air Canada Center', '13', 'OTT', 'Ottawa', 'Senators', '0', '1', '0', '0', '0', '0', '0', '28', '23', '54.9', '3', '1', '33.3', '4', '0', '100.0', '0', '1', '2', '5', '37', '7', '14', '29']"
