"['#Date/Time of Update: 2018-12-10 19:03:14 GMT', '#Game ID', '#Game Date', '#Game Time', '#Away Team ID', '#Away Team Abbr.', '#Away Team City', '#Away Team Name', '#Home Team ID', '#Home Team Abbr.', '#Home Team City', '#Home Team Name', '#Venue ID', '#Venue Name', '#Team ID', '#Team Abbr.', '#Team City', '#Team Name', '#Wins', '#Losses', '#OvertimeWins', '#OvertimeLosses', '#ShootoutWins', '#ShootoutLosses', '#Rows', '#Points', '#FaceoffWins', '#FaceoffLosses', '#FaceoffPercent', '#Powerplays', '#PowerplayGoals', '#PowerplayPercent', '#PenaltyKills', '#PenaltyKillGoalsAllowed', '#PenaltyKillPercent', '#ShorthandedGoalsFor', '#ShorthandedGoalsAgainst', '#GoalsFor', '#GoalsAgainst', '#Shots', '#Penalties', '#PenaltyMinutes', '#Hits']"
"['', '27706', '2014-10-09', '00:00:00 GMT', '9', 'NYR', 'New York', 'Rangers', '17', 'STL', 'St. Louis', 'Blues', '24', 'Scottrade Center', '17', 'STL', 'St. Louis', 'Blues', '0', '1', '0', '0', '0', '0', '0', '0', '31', '25', '55.4', '5', '0', '0.0', '2', '0', '100.0', '0', '0', '2', '3', '23', '6', '15', '18']"
"['', '27720', '2014-10-11', '23:00:00 GMT', '23', 'CGY', 'Calgary', 'Flames', '17', 'STL', 'St. Louis', 'Blues', '24', 'Scottrade Center', '17', 'STL', 'St. Louis', 'Blues', '1', '0', '0', '0', '0', '0', '1', '2', '44', '36', '55.0', '5', '2', '40.0', '5', '1', '80.0', '0', '0', '4', '1', '35', '9', '21', '14']"
"['', '27749', '2014-10-16', '02:30:00 GMT', '17', 'STL', 'St. Louis', 'Blues', '28', 'LAK', 'Los Angeles', 'Kings', '25', 'Staples Center', '17', 'STL', 'St. Louis', 'Blues', '0', '0', '0', '1', '0', '0', '0', '1', '41', '33', '55.4', '4', '0', '0.0', '4', '0', '100.0', '0', '0', '0', '0', '43', '5', '10', '23']"
"['', '27766', '2014-10-18', '01:00:00 GMT', '17', 'STL', 'St. Louis', 'Blues', '30', 'ARI', 'Arizona', 'Coyotes', '6', 'Gila River Arena', '17', 'STL', 'St. Louis', 'Blues', '1', '0', '0', '0', '0', '0', '1', '2', '30', '35', '46.2', '4', '4', '100.0', '4', '1', '75.0', '0', '0', '6', '1', '30', '6', '15', '32']"
"['', '27771', '2014-10-19', '00:00:00 GMT', '17', 'STL', 'St. Louis', 'Blues', '29', 'ANA', 'Anaheim', 'Ducks', '8', 'Honda Center', '17', 'STL', 'St. Louis', 'Blues', '0', '1', '0', '0', '0', '0', '0', '0', '23', '38', '37.7', '2', '0', '0.0', '3', '2', '33.3', '0', '0', '0', '3', '28', '3', '6', '24']"
"['', '27790', '2014-10-23', '00:00:00 GMT', '21', 'VAN', 'Vancouver', 'Canucks', '17', 'STL', 'St. Louis', 'Blues', '24', 'Scottrade Center', '17', 'STL', 'St. Louis', 'Blues', '0', '1', '0', '0', '0', '0', '0', '0', '31', '22', '58.5', '5', '1', '20.0', '2', '1', '50.0', '0', '0', '1', '4', '31', '4', '8', '22']"
"['', '27808', '2014-10-25', '00:00:00 GMT', '20', 'CHI', 'Chicago', 'Blackhawks', '17', 'STL', 'St. Louis', 'Blues', '24', 'Scottrade Center', '17', 'STL', 'St. Louis', 'Blues', '1', '0', '0', '0', '0', '0', '1', '2', '43', '37', '53.8', '3', '0', '0.0', '3', '1', '66.7', '0', '0', '3', '2', '28', '4', '8', '21']"
"['', '27826', '2014-10-28', '00:30:00 GMT', '17', 'STL', 'St. Louis', 'Blues', '27', 'DAL', 'Dallas', 'Stars', '2', 'American Airlines Center', '17', 'STL', 'St. Louis', 'Blues', '1', '0', '0', '0', '0', '0', '1', '2', '30', '33', '47.6', '5', '1', '20.0', '4', '1', '75.0', '0', '0', '4', '3', '23', '4', '8', '19']"
"['', '27838', '2014-10-30', '00:00:00 GMT', '29', 'ANA', 'Anaheim', 'Ducks', '17', 'STL', 'St. Louis', 'Blues', '24', 'Scottrade Center', '17', 'STL', 'St. Louis', 'Blues', '1', '0', '0', '0', '0', '0', '1', '2', '32', '22', '59.3', '2', '0', '0.0', '4', '0', '100.0', '0', '0', '2', '0', '27', '4', '8', '16']"
"['', '27855', '2014-11-01', '00:00:00 GMT', '22', 'COL', 'Colorado', 'Avalanche', '17', 'STL', 'St. Louis', 'Blues', '24', 'Scottrade Center', '17', 'STL', 'St. Louis', 'Blues', '1', '0', '0', '0', '0', '0', '0', '2', '42', '26', '61.8', '3', '0', '0.0', '4', '2', '50.0', '0', '0', '2', '2', '27', '4', '8', '17']"
"['', '27865', '2014-11-03', '00:00:00 GMT', '17', 'STL', 'St. Louis', 'Blues', '9', 'NYR', 'New York', 'Rangers', '12', 'Madison Square Garden', '17', 'STL', 'St. Louis', 'Blues', '1', '0', '0', '0', '0', '0', '0', '2', '30', '39', '43.5', '0', '1', '0.0', '0', '1', '0.0', '0', '0', '3', '3', '31', '6', '15', '24']"
"['', '27867', '2014-11-04', '00:00:00 GMT', '17', 'STL', 'St. Louis', 'Blues', '7', 'NJD', 'New Jersey', 'Devils', '37', 'Prudential Center', '17', 'STL', 'St. Louis', 'Blues', '1', '0', '0', '0', '0', '0', '1', '2', '29', '25', '53.7', '3', '1', '33.3', '3', '0', '100.0', '0', '0', '1', '0', '22', '3', '6', '14']"
"['', '27885', '2014-11-06', '01:00:00 GMT', '7', 'NJD', 'New Jersey', 'Devils', '17', 'STL', 'St. Louis', 'Blues', '24', 'Scottrade Center', '17', 'STL', 'St. Louis', 'Blues', '1', '0', '0', '0', '0', '0', '1', '2', '28', '26', '51.9', '3', '2', '66.7', '3', '0', '100.0', '0', '0', '4', '3', '25', '3', '6', '15']"
"['', '27905', '2014-11-08', '01:00:00 GMT', '18', 'NSH', 'Nashville', 'Predators', '17', 'STL', 'St. Louis', 'Blues', '24', 'Scottrade Center', '17', 'STL', 'St. Louis', 'Blues', '0', '1', '0', '0', '0', '0', '0', '0', '34', '29', '54.0', '1', '0', '0.0', '2', '0', '100.0', '0', '0', '1', '2', '28', '2', '4', '21']"
"['', '27920', '2014-11-11', '01:00:00 GMT', '15', 'BUF', 'Buffalo', 'Sabres', '17', 'STL', 'St. Louis', 'Blues', '24', 'Scottrade Center', '17', 'STL', 'St. Louis', 'Blues', '1', '0', '0', '0', '0', '0', '1', '2', '38', '30', '55.9', '3', '3', '100.0', '3', '1', '66.7', '1', '0', '6', '1', '23', '7', '20', '16']"
"['', '27932', '2014-11-13', '01:00:00 GMT', '18', 'NSH', 'Nashville', 'Predators', '17', 'STL', 'St. Louis', 'Blues', '24', 'Scottrade Center', '17', 'STL', 'St. Louis', 'Blues', '1', '0', '0', '0', '0', '0', '1', '2', '43', '31', '58.1', '2', '1', '50.0', '4', '1', '75.0', '0', '0', '4', '3', '23', '8', '27', '19']"
"['', '27952', '2014-11-15', '01:00:00 GMT', '5', 'WSH', 'Washington', 'Capitals', '17', 'STL', 'St. Louis', 'Blues', '24', 'Scottrade Center', '17', 'STL', 'St. Louis', 'Blues', '1', '0', '0', '0', '0', '0', '1', '2', '38', '27', '58.5', '2', '0', '0.0', '0', '0', '0.0', '0', '0', '4', '1', '30', '2', '7', '17']"
"['', '27961', '2014-11-18', '00:00:00 GMT', '17', 'STL', 'St. Louis', 'Blues', '11', 'BOS', 'Boston', 'Bruins', '27', 'TD Garden', '17', 'STL', 'St. Louis', 'Blues', '0', '1', '0', '0', '0', '0', '0', '0', '29', '32', '47.5', '2', '0', '0.0', '1', '0', '100.0', '0', '0', '0', '2', '33', '1', '2', '16']"
"['', '27976', '2014-11-20', '00:30:00 GMT', '17', 'STL', 'St. Louis', 'Blues', '14', 'MTL', 'Montreal', 'Canadiens', '4', 'Bell Centre', '17', 'STL', 'St. Louis', 'Blues', '0', '1', '0', '0', '0', '0', '0', '0', '26', '26', '50.0', '0', '0', '0.0', '2', '0', '100.0', '0', '0', '1', '4', '31', '2', '4', '22']"
"['', '27989', '2014-11-22', '20:00:00 GMT', '17', 'STL', 'St. Louis', 'Blues', '13', 'OTT', 'Ottawa', 'Senators', '23', 'Canadian Tire Centre', '17', 'STL', 'St. Louis', 'Blues', '1', '0', '0', '0', '0', '0', '1', '2', '37', '23', '61.7', '4', '0', '0.0', '4', '2', '50.0', '0', '0', '3', '2', '30', '5', '10', '16']"
"['', '28002', '2014-11-23', '20:00:00 GMT', '17', 'STL', 'St. Louis', 'Blues', '2', 'WPJ', 'Winnipeg', 'Jets', '39', 'MTS Centre', '17', 'STL', 'St. Louis', 'Blues', '1', '0', '0', '0', '0', '0', '1', '2', '31', '35', '47.0', '5', '2', '40.0', '1', '0', '100.0', '0', '0', '4', '2', '25', '1', '2', '13']"
"['', '28011', '2014-11-25', '01:00:00 GMT', '13', 'OTT', 'Ottawa', 'Senators', '17', 'STL', 'St. Louis', 'Blues', '24', 'Scottrade Center', '17', 'STL', 'St. Louis', 'Blues', '0', '0', '0', '1', '0', '0', '0', '1', '38', '30', '55.9', '6', '1', '16.7', '3', '0', '100.0', '0', '0', '2', '2', '27', '7', '20', '17']"
"['', '28036', '2014-11-28', '01:00:00 GMT', '24', 'EDM', 'Edmonton', 'Oilers', '17', 'STL', 'St. Louis', 'Blues', '24', 'Scottrade Center', '17', 'STL', 'St. Louis', 'Blues', '1', '0', '0', '0', '0', '0', '1', '2', '42', '30', '58.3', '3', '0', '0.0', '0', '0', '0.0', '0', '0', '4', '3', '37', '1', '5', '20']"
"['', '28045', '2014-11-29', '01:00:00 GMT', '17', 'STL', 'St. Louis', 'Blues', '25', 'MIN', 'Minnesota', 'Wild', '30', 'Xcel Energy Center', '17', 'STL', 'St. Louis', 'Blues', '1', '0', '0', '0', '0', '0', '0', '2', '28', '36', '43.8', '2', '0', '0.0', '4', '1', '75.0', '0', '0', '2', '2', '24', '6', '21', '19']"
"['', '28067', '2014-12-03', '01:00:00 GMT', '17', 'STL', 'St. Louis', 'Blues', '20', 'CHI', 'Chicago', 'Blackhawks', '28', 'United Center', '17', 'STL', 'St. Louis', 'Blues', '0', '1', '0', '0', '0', '0', '0', '0', '27', '32', '45.8', '6', '0', '0.0', '2', '0', '100.0', '0', '0', '1', '4', '40', '6', '20', '21']"
"['', '28077', '2014-12-04', '01:00:00 GMT', '17', 'STL', 'St. Louis', 'Blues', '18', 'NSH', 'Nashville', 'Predators', '15', 'Bridgestone Arena', '17', 'STL', 'St. Louis', 'Blues', '0', '1', '0', '0', '0', '0', '0', '0', '41', '28', '59.4', '3', '0', '0.0', '2', '0', '100.0', '0', '0', '3', '4', '29', '2', '4', '19']"
"['', '28085', '2014-12-06', '18:00:00 GMT', '17', 'STL', 'St. Louis', 'Blues', '8', 'NYI', 'New York', 'Islanders', '16', 'Nassau Veterans Memorial Coliseum', '17', 'STL', 'St. Louis', 'Blues', '1', '0', '0', '0', '0', '0', '1', '2', '38', '39', '49.4', '5', '3', '60.0', '5', '2', '60.0', '0', '0', '6', '4', '34', '6', '12', '31']"
"['', '28102', '2014-12-08', '01:00:00 GMT', '4', 'FLO', 'Florida', 'Panthers', '17', 'STL', 'St. Louis', 'Blues', '24', 'Scottrade Center', '17', 'STL', 'St. Louis', 'Blues', '1', '0', '0', '0', '0', '0', '1', '2', '31', '28', '52.5', '4', '0', '0.0', '3', '0', '100.0', '0', '0', '4', '2', '24', '3', '6', '13']"
"['', '28121', '2014-12-11', '01:00:00 GMT', '8', 'NYI', 'New York', 'Islanders', '17', 'STL', 'St. Louis', 'Blues', '24', 'Scottrade Center', '17', 'STL', 'St. Louis', 'Blues', '1', '0', '0', '0', '0', '0', '1', '2', '41', '30', '57.7', '2', '2', '100.0', '3', '0', '100.0', '0', '0', '6', '3', '27', '5', '10', '14']"
"['', '28140', '2014-12-13', '03:00:00 GMT', '17', 'STL', 'St. Louis', 'Blues', '22', 'COL', 'Colorado', 'Avalanche', '19', 'Pepsi Center', '17', 'STL', 'St. Louis', 'Blues', '1', '0', '0', '0', '0', '0', '1', '2', '40', '32', '55.6', '3', '1', '33.3', '6', '1', '83.3', '0', '0', '3', '2', '39', '7', '17', '19']"
"['', '28154', '2014-12-16', '01:00:00 GMT', '28', 'LAK', 'Los Angeles', 'Kings', '17', 'STL', 'St. Louis', 'Blues', '24', 'Scottrade Center', '17', 'STL', 'St. Louis', 'Blues', '1', '0', '0', '0', '0', '0', '1', '2', '37', '28', '56.9', '2', '2', '100.0', '6', '1', '83.3', '0', '0', '5', '2', '18', '6', '12', '31']"
"['', '28166', '2014-12-18', '03:30:00 GMT', '17', 'STL', 'St. Louis', 'Blues', '28', 'LAK', 'Los Angeles', 'Kings', '25', 'Staples Center', '17', 'STL', 'St. Louis', 'Blues', '0', '1', '0', '0', '0', '0', '0', '0', '38', '28', '57.6', '3', '2', '66.7', '5', '3', '40.0', '0', '0', '4', '6', '24', '8', '19', '31']"
"['', '28184', '2014-12-20', '03:30:00 GMT', '17', 'STL', 'St. Louis', 'Blues', '26', 'SJS', 'San Jose', 'Sharks', '9', 'SAP Center at San Jose', '17', 'STL', 'St. Louis', 'Blues', '0', '0', '0', '1', '0', '0', '0', '1', '34', '36', '48.6', '0', '0', '0.0', '3', '1', '66.7', '0', '0', '2', '3', '18', '3', '6', '24']"
"['', '28205', '2014-12-23', '01:00:00 GMT', '17', 'STL', 'St. Louis', 'Blues', '22', 'COL', 'Colorado', 'Avalanche', '19', 'Pepsi Center', '17', 'STL', 'St. Louis', 'Blues', '0', '1', '0', '0', '0', '0', '0', '0', '33', '27', '55.0', '2', '0', '0.0', '6', '2', '66.7', '0', '0', '0', '5', '26', '7', '14', '15']"
"['', '28216', '2014-12-27', '01:00:00 GMT', '27', 'DAL', 'Dallas', 'Stars', '17', 'STL', 'St. Louis', 'Blues', '24', 'Scottrade Center', '17', 'STL', 'St. Louis', 'Blues', '0', '1', '0', '0', '0', '0', '0', '0', '42', '33', '56.0', '4', '1', '25.0', '4', '2', '50.0', '0', '0', '3', '4', '30', '7', '17', '24']"
"['', '28229', '2014-12-29', '01:00:00 GMT', '22', 'COL', 'Colorado', 'Avalanche', '17', 'STL', 'St. Louis', 'Blues', '24', 'Scottrade Center', '17', 'STL', 'St. Louis', 'Blues', '1', '0', '0', '0', '0', '0', '1', '2', '27', '11', '71.1', '1', '0', '0.0', '1', '0', '100.0', '0', '0', '3', '0', '22', '1', '2', '22']"
"['', '28236', '2014-12-30', '01:00:00 GMT', '17', 'STL', 'St. Louis', 'Blues', '18', 'NSH', 'Nashville', 'Predators', '15', 'Bridgestone Arena', '17', 'STL', 'St. Louis', 'Blues', '0', '1', '0', '0', '0', '0', '0', '0', '37', '35', '51.4', '4', '0', '0.0', '4', '0', '100.0', '0', '1', '2', '3', '26', '4', '8', '20']"
"['', '28259', '2015-01-02', '03:00:00 GMT', '17', 'STL', 'St. Louis', 'Blues', '29', 'ANA', 'Anaheim', 'Ducks', '8', 'Honda Center', '17', 'STL', 'St. Louis', 'Blues', '0', '1', '0', '0', '0', '0', '0', '0', '40', '23', '63.5', '5', '1', '20.0', '5', '1', '80.0', '0', '0', '3', '4', '39', '6', '15', '23']"
"['', '28269', '2015-01-03', '03:30:00 GMT', '17', 'STL', 'St. Louis', 'Blues', '26', 'SJS', 'San Jose', 'Sharks', '9', 'SAP Center at San Jose', '17', 'STL', 'St. Louis', 'Blues', '1', '0', '0', '0', '0', '0', '1', '2', '45', '32', '58.4', '3', '2', '66.7', '5', '0', '100.0', '0', '0', '7', '2', '26', '11', '22', '24']"
"['', '28285', '2015-01-06', '02:00:00 GMT', '17', 'STL', 'St. Louis', 'Blues', '30', 'ARI', 'Arizona', 'Coyotes', '6', 'Gila River Arena', '17', 'STL', 'St. Louis', 'Blues', '1', '0', '0', '0', '0', '0', '1', '2', '33', '30', '52.4', '5', '3', '60.0', '1', '0', '100.0', '0', '0', '6', '0', '33', '2', '7', '32']"
"['', '28296', '2015-01-08', '01:00:00 GMT', '26', 'SJS', 'San Jose', 'Sharks', '17', 'STL', 'St. Louis', 'Blues', '24', 'Scottrade Center', '17', 'STL', 'St. Louis', 'Blues', '1', '0', '0', '0', '0', '0', '1', '2', '30', '33', '47.6', '4', '2', '50.0', '2', '0', '100.0', '0', '1', '7', '2', '21', '4', '16', '14']"
"['', '28314', '2015-01-10', '01:00:00 GMT', '3', 'CAR', 'Carolina', 'Hurricanes', '17', 'STL', 'St. Louis', 'Blues', '24', 'Scottrade Center', '17', 'STL', 'St. Louis', 'Blues', '1', '0', '0', '0', '0', '0', '0', '2', '42', '21', '66.7', '1', '0', '0.0', '3', '0', '100.0', '0', '0', '4', '4', '31', '4', '11', '20']"
"['', '28330', '2015-01-13', '01:00:00 GMT', '24', 'EDM', 'Edmonton', 'Oilers', '17', 'STL', 'St. Louis', 'Blues', '24', 'Scottrade Center', '17', 'STL', 'St. Louis', 'Blues', '1', '0', '0', '0', '0', '0', '1', '2', '30', '14', '68.2', '4', '0', '0.0', '2', '1', '50.0', '0', '0', '4', '2', '25', '5', '10', '23']"
"['', '28344', '2015-01-15', '01:00:00 GMT', '16', 'DET', 'Detroit', 'Red Wings', '17', 'STL', 'St. Louis', 'Blues', '24', 'Scottrade Center', '17', 'STL', 'St. Louis', 'Blues', '0', '0', '0', '1', '0', '0', '0', '1', '37', '37', '50.0', '1', '1', '100.0', '4', '0', '100.0', '0', '0', '2', '3', '25', '6', '12', '18']"
"['', '28356', '2015-01-17', '00:00:00 GMT', '12', 'TOR', 'Toronto', 'Maple Leafs', '17', 'STL', 'St. Louis', 'Blues', '24', 'Scottrade Center', '17', 'STL', 'St. Louis', 'Blues', '1', '0', '0', '0', '0', '0', '1', '2', '36', '22', '62.1', '3', '0', '0.0', '2', '0', '100.0', '0', '0', '3', '0', '30', '2', '4', '19']"
"['', '28374', '2015-01-19', '01:00:00 GMT', '22', 'COL', 'Colorado', 'Avalanche', '17', 'STL', 'St. Louis', 'Blues', '24', 'Scottrade Center', '17', 'STL', 'St. Louis', 'Blues', '1', '0', '0', '0', '0', '0', '1', '2', '22', '28', '44.0', '2', '1', '50.0', '3', '0', '100.0', '0', '0', '3', '1', '27', '3', '6', '24']"
"['', '28412', '2015-01-29', '01:00:00 GMT', '18', 'NSH', 'Nashville', 'Predators', '17', 'STL', 'St. Louis', 'Blues', '24', 'Scottrade Center', '17', 'STL', 'St. Louis', 'Blues', '1', '0', '0', '0', '0', '0', '0', '2', '37', '34', '52.1', '5', '0', '0.0', '4', '1', '75.0', '0', '1', '4', '4', '31', '6', '15', '16']"
"['', '28417', '2015-01-30', '00:00:00 GMT', '17', 'STL', 'St. Louis', 'Blues', '3', 'CAR', 'Carolina', 'Hurricanes', '21', 'RBC Center', '17', 'STL', 'St. Louis', 'Blues', '1', '0', '0', '0', '0', '0', '0', '2', '29', '29', '50.0', '1', '0', '0.0', '1', '1', '0.0', '0', '0', '2', '2', '30', '1', '2', '39']"
"['', '28433', '2015-02-01', '18:00:00 GMT', '17', 'STL', 'St. Louis', 'Blues', '5', 'WSH', 'Washington', 'Capitals', '13', 'Verizon Center', '17', 'STL', 'St. Louis', 'Blues', '1', '0', '0', '0', '0', '0', '1', '2', '22', '32', '40.7', '3', '1', '33.3', '3', '1', '66.7', '0', '0', '4', '3', '36', '5', '11', '35']"
"['', '28445', '2015-02-03', '01:00:00 GMT', '1', 'TBL', 'Tampa Bay', 'Lightning', '17', 'STL', 'St. Louis', 'Blues', '24', 'Scottrade Center', '17', 'STL', 'St. Louis', 'Blues', '1', '0', '0', '0', '0', '0', '1', '2', '33', '29', '53.2', '2', '0', '0.0', '3', '0', '100.0', '0', '0', '2', '1', '16', '4', '8', '22']"
"['', '28453', '2015-02-05', '00:00:00 GMT', '17', 'STL', 'St. Louis', 'Blues', '15', 'BUF', 'Buffalo', 'Sabres', '10', 'First Niagara Center', '17', 'STL', 'St. Louis', 'Blues', '1', '0', '0', '0', '0', '0', '1', '2', '33', '16', '67.3', '1', '0', '0.0', '2', '0', '100.0', '0', '0', '3', '0', '27', '2', '4', '13']"
"['', '28464', '2015-02-06', '00:00:00 GMT', '17', 'STL', 'St. Louis', 'Blues', '19', 'CBJ', 'Columbus', 'Blue Jackets', '17', 'Nationwide Arena', '17', 'STL', 'St. Louis', 'Blues', '0', '1', '0', '0', '0', '0', '0', '0', '32', '29', '52.5', '4', '1', '25.0', '0', '0', '0.0', '0', '1', '1', '7', '32', '1', '5', '32']"
"['', '28478', '2015-02-08', '16:30:00 GMT', '20', 'CHI', 'Chicago', 'Blackhawks', '17', 'STL', 'St. Louis', 'Blues', '24', 'Scottrade Center', '17', 'STL', 'St. Louis', 'Blues', '0', '1', '0', '0', '0', '0', '0', '0', '24', '32', '42.9', '1', '0', '0.0', '2', '1', '50.0', '0', '0', '2', '4', '25', '3', '9', '30']"
"['', '28498', '2015-02-10', '01:00:00 GMT', '30', 'ARI', 'Arizona', 'Coyotes', '17', 'STL', 'St. Louis', 'Blues', '24', 'Scottrade Center', '17', 'STL', 'St. Louis', 'Blues', '1', '0', '0', '0', '0', '0', '1', '2', '31', '27', '53.4', '2', '0', '0.0', '1', '0', '100.0', '0', '0', '2', '1', '34', '1', '2', '32']"
"['', '28507', '2015-02-12', '00:30:00 GMT', '17', 'STL', 'St. Louis', 'Blues', '1', 'TBL', 'Tampa Bay', 'Lightning', '26', 'Amalie Arena', '17', 'STL', 'St. Louis', 'Blues', '1', '0', '0', '0', '0', '0', '1', '2', '33', '36', '47.8', '2', '1', '50.0', '3', '1', '66.7', '0', '0', '6', '3', '38', '3', '6', '17']"
"['', '28528', '2015-02-15', '22:00:00 GMT', '17', 'STL', 'St. Louis', 'Blues', '4', 'FLO', 'Florida', 'Panthers', '3', 'BB&T Center', '17', 'STL', 'St. Louis', 'Blues', '1', '0', '0', '0', '0', '0', '0', '2', '32', '34', '48.5', '0', '0', '0.0', '2', '0', '100.0', '0', '0', '1', '1', '32', '5', '13', '23']"
"['', '28545', '2015-02-17', '01:00:00 GMT', '27', 'DAL', 'Dallas', 'Stars', '17', 'STL', 'St. Louis', 'Blues', '24', 'Scottrade Center', '17', 'STL', 'St. Louis', 'Blues', '0', '1', '0', '0', '0', '0', '0', '0', '34', '23', '59.6', '2', '0', '0.0', '4', '1', '75.0', '0', '0', '1', '4', '27', '5', '13', '21']"
"['', '28563', '2015-02-20', '01:00:00 GMT', '11', 'BOS', 'Boston', 'Bruins', '17', 'STL', 'St. Louis', 'Blues', '24', 'Scottrade Center', '17', 'STL', 'St. Louis', 'Blues', '1', '0', '0', '0', '0', '0', '1', '2', '27', '23', '54.0', '2', '1', '50.0', '5', '0', '100.0', '0', '0', '5', '1', '10', '7', '17', '22']"
"['', '28576', '2015-02-21', '01:00:00 GMT', '10', 'PIT', 'Pittsburgh', 'Penguins', '17', 'STL', 'St. Louis', 'Blues', '24', 'Scottrade Center', '17', 'STL', 'St. Louis', 'Blues', '0', '1', '0', '0', '0', '0', '0', '0', '33', '30', '52.4', '1', '0', '0.0', '3', '2', '33.3', '0', '0', '2', '4', '21', '6', '20', '23']"
"['', '28593', '2015-02-24', '01:00:00 GMT', '14', 'MTL', 'Montreal', 'Canadiens', '17', 'STL', 'St. Louis', 'Blues', '24', 'Scottrade Center', '17', 'STL', 'St. Louis', 'Blues', '0', '1', '0', '0', '0', '0', '0', '0', '27', '37', '42.2', '2', '0', '0.0', '2', '1', '50.0', '0', '0', '2', '5', '27', '3', '6', '27']"
"['', '28607', '2015-02-26', '01:00:00 GMT', '17', 'STL', 'St. Louis', 'Blues', '2', 'WPJ', 'Winnipeg', 'Jets', '39', 'MTS Centre', '17', 'STL', 'St. Louis', 'Blues', '1', '0', '0', '0', '0', '0', '0', '2', '31', '34', '47.7', '2', '0', '0.0', '2', '0', '100.0', '0', '0', '1', '1', '28', '4', '8', '21']"
"['', '28624', '2015-02-28', '03:00:00 GMT', '17', 'STL', 'St. Louis', 'Blues', '24', 'EDM', 'Edmonton', 'Oilers', '22', 'Rogers Place', '17', 'STL', 'St. Louis', 'Blues', '1', '0', '0', '0', '0', '0', '1', '2', '31', '22', '58.5', '2', '0', '0.0', '1', '0', '100.0', '0', '0', '2', '1', '25', '1', '2', '19']"
"['', '28632', '2015-03-01', '03:00:00 GMT', '17', 'STL', 'St. Louis', 'Blues', '21', 'VAN', 'Vancouver', 'Canucks', '7', 'Rogers Arena', '17', 'STL', 'St. Louis', 'Blues', '0', '0', '0', '1', '0', '0', '0', '1', '37', '27', '57.8', '4', '1', '25.0', '2', '0', '100.0', '0', '0', '5', '5', '34', '6', '20', '34']"
"['', '28651', '2015-03-05', '00:00:00 GMT', '17', 'STL', 'St. Louis', 'Blues', '6', 'PHI', 'Philadelphia', 'Flyers', '29', 'Wells Fargo Center', '17', 'STL', 'St. Louis', 'Blues', '0', '1', '0', '0', '0', '0', '0', '0', '23', '27', '46.0', '0', '0', '0.0', '2', '0', '100.0', '0', '0', '1', '3', '28', '2', '4', '34']"
"['', '28666', '2015-03-07', '00:00:00 GMT', '17', 'STL', 'St. Louis', 'Blues', '12', 'TOR', 'Toronto', 'Maple Leafs', '1', 'Air Canada Center', '17', 'STL', 'St. Louis', 'Blues', '1', '0', '0', '0', '0', '0', '1', '2', '40', '32', '55.6', '4', '1', '25.0', '4', '0', '100.0', '1', '0', '6', '1', '38', '9', '21', '30']"
"['', '28691', '2015-03-10', '00:00:00 GMT', '2', 'WPJ', 'Winnipeg', 'Jets', '17', 'STL', 'St. Louis', 'Blues', '24', 'Scottrade Center', '17', 'STL', 'St. Louis', 'Blues', '1', '0', '0', '0', '0', '0', '1', '2', '44', '27', '62.0', '5', '1', '20.0', '5', '1', '80.0', '0', '1', '5', '4', '22', '10', '26', '27']"
"['', '28702', '2015-03-12', '00:00:00 GMT', '6', 'PHI', 'Philadelphia', 'Flyers', '17', 'STL', 'St. Louis', 'Blues', '24', 'Scottrade Center', '17', 'STL', 'St. Louis', 'Blues', '1', '0', '0', '0', '0', '0', '0', '2', '27', '31', '46.6', '2', '0', '0.0', '4', '0', '100.0', '0', '0', '0', '0', '35', '4', '8', '26']"
"['', '28720', '2015-03-14', '00:00:00 GMT', '25', 'MIN', 'Minnesota', 'Wild', '17', 'STL', 'St. Louis', 'Blues', '24', 'Scottrade Center', '17', 'STL', 'St. Louis', 'Blues', '0', '1', '0', '0', '0', '0', '0', '0', '34', '25', '57.6', '2', '0', '0.0', '1', '0', '100.0', '0', '0', '1', '3', '41', '4', '8', '19']"
"['', '28726', '2015-03-15', '22:00:00 GMT', '17', 'STL', 'St. Louis', 'Blues', '27', 'DAL', 'Dallas', 'Stars', '2', 'American Airlines Center', '17', 'STL', 'St. Louis', 'Blues', '1', '0', '0', '0', '0', '0', '1', '2', '30', '39', '43.5', '2', '1', '50.0', '6', '0', '100.0', '0', '0', '3', '0', '18', '7', '14', '22']"
"['', '28742', '2015-03-17', '01:00:00 GMT', '17', 'STL', 'St. Louis', 'Blues', '23', 'CGY', 'Calgary', 'Flames', '18', 'Scotiabank Saddledome', '17', 'STL', 'St. Louis', 'Blues', '1', '0', '0', '0', '0', '0', '1', '2', '37', '16', '69.8', '1', '0', '0.0', '1', '0', '100.0', '0', '0', '4', '0', '22', '2', '7', '11']"
"['', '28752', '2015-03-19', '00:00:00 GMT', '17', 'STL', 'St. Louis', 'Blues', '2', 'WPJ', 'Winnipeg', 'Jets', '39', 'MTS Centre', '17', 'STL', 'St. Louis', 'Blues', '0', '0', '0', '1', '0', '0', '0', '1', '31', '32', '49.2', '3', '0', '0.0', '2', '0', '100.0', '0', '0', '1', '1', '32', '4', '8', '21']"
"['', '28760', '2015-03-21', '18:00:00 GMT', '17', 'STL', 'St. Louis', 'Blues', '25', 'MIN', 'Minnesota', 'Wild', '30', 'Xcel Energy Center', '17', 'STL', 'St. Louis', 'Blues', '0', '1', '0', '0', '0', '0', '0', '0', '31', '22', '58.5', '4', '2', '50.0', '4', '1', '75.0', '0', '0', '3', '6', '26', '4', '8', '13']"
"['', '28773', '2015-03-22', '16:30:00 GMT', '17', 'STL', 'St. Louis', 'Blues', '16', 'DET', 'Detroit', 'Red Wings', '11', 'Joe Louis Arena', '17', 'STL', 'St. Louis', 'Blues', '0', '0', '0', '1', '0', '0', '0', '1', '35', '24', '59.3', '3', '1', '33.3', '6', '1', '83.3', '0', '0', '1', '2', '23', '12', '27', '20']"
"['', '28786', '2015-03-24', '23:00:00 GMT', '17', 'STL', 'St. Louis', 'Blues', '10', 'PIT', 'Pittsburgh', 'Penguins', '40', 'Consol Energy Center', '17', 'STL', 'St. Louis', 'Blues', '1', '0', '0', '0', '0', '0', '1', '2', '34', '26', '56.7', '0', '0', '0.0', '3', '0', '100.0', '0', '0', '3', '2', '32', '5', '13', '34']"
"['', '28818', '2015-03-28', '00:00:00 GMT', '19', 'CBJ', 'Columbus', 'Blue Jackets', '17', 'STL', 'St. Louis', 'Blues', '24', 'Scottrade Center', '17', 'STL', 'St. Louis', 'Blues', '0', '1', '0', '0', '0', '0', '0', '0', '30', '30', '50.0', '6', '1', '16.7', '2', '1', '50.0', '0', '0', '2', '4', '29', '2', '4', '20']"
"['', '28831', '2015-03-30', '00:00:00 GMT', '21', 'VAN', 'Vancouver', 'Canucks', '17', 'STL', 'St. Louis', 'Blues', '24', 'Scottrade Center', '17', 'STL', 'St. Louis', 'Blues', '0', '1', '0', '0', '0', '0', '0', '0', '30', '27', '52.6', '2', '0', '0.0', '1', '0', '100.0', '0', '0', '1', '4', '23', '1', '2', '23']"
"['', '28853', '2015-04-02', '00:00:00 GMT', '23', 'CGY', 'Calgary', 'Flames', '17', 'STL', 'St. Louis', 'Blues', '24', 'Scottrade Center', '17', 'STL', 'St. Louis', 'Blues', '1', '0', '0', '0', '0', '0', '1', '2', '41', '22', '65.1', '1', '1', '100.0', '3', '0', '100.0', '0', '0', '4', '1', '39', '6', '23', '23']"
"['', '28858', '2015-04-03', '00:30:00 GMT', '17', 'STL', 'St. Louis', 'Blues', '27', 'DAL', 'Dallas', 'Stars', '2', 'American Airlines Center', '17', 'STL', 'St. Louis', 'Blues', '1', '0', '0', '0', '0', '0', '1', '2', '35', '45', '43.8', '3', '0', '0.0', '3', '0', '100.0', '0', '0', '7', '5', '14', '6', '20', '32']"
"['', '28878', '2015-04-05', '23:30:00 GMT', '17', 'STL', 'St. Louis', 'Blues', '20', 'CHI', 'Chicago', 'Blackhawks', '28', 'United Center', '17', 'STL', 'St. Louis', 'Blues', '1', '0', '0', '0', '0', '0', '1', '2', '29', '26', '52.7', '2', '1', '50.0', '2', '0', '100.0', '0', '0', '2', '1', '31', '2', '4', '50']"
"['', '28889', '2015-04-07', '00:00:00 GMT', '2', 'WPJ', 'Winnipeg', 'Jets', '17', 'STL', 'St. Louis', 'Blues', '24', 'Scottrade Center', '17', 'STL', 'St. Louis', 'Blues', '0', '1', '0', '0', '0', '0', '0', '0', '27', '33', '45.0', '1', '0', '0.0', '4', '0', '100.0', '0', '0', '0', '1', '30', '7', '24', '32']"
"['', '28902', '2015-04-09', '00:00:00 GMT', '20', 'CHI', 'Chicago', 'Blackhawks', '17', 'STL', 'St. Louis', 'Blues', '24', 'Scottrade Center', '17', 'STL', 'St. Louis', 'Blues', '1', '0', '0', '0', '0', '0', '1', '2', '30', '28', '51.7', '4', '1', '25.0', '2', '0', '100.0', '0', '0', '2', '1', '23', '3', '6', '24']"
"['', '28920', '2015-04-11', '23:30:00 GMT', '25', 'MIN', 'Minnesota', 'Wild', '17', 'STL', 'St. Louis', 'Blues', '24', 'Scottrade Center', '17', 'STL', 'St. Louis', 'Blues', '1', '0', '0', '0', '0', '0', '1', '2', '24', '27', '47.1', '2', '1', '50.0', '4', '1', '75.0', '0', '0', '4', '2', '20', '5', '10', '24']"
