"['#Date/Time of Update: 2018-12-10 19:03:17 GMT', '#Game ID', '#Game Date', '#Game Time', '#Away Team ID', '#Away Team Abbr.', '#Away Team City', '#Away Team Name', '#Home Team ID', '#Home Team Abbr.', '#Home Team City', '#Home Team Name', '#Venue ID', '#Venue Name', '#Team ID', '#Team Abbr.', '#Team City', '#Team Name', '#Wins', '#Losses', '#OvertimeWins', '#OvertimeLosses', '#ShootoutWins', '#ShootoutLosses', '#Rows', '#Points', '#FaceoffWins', '#FaceoffLosses', '#FaceoffPercent', '#Powerplays', '#PowerplayGoals', '#PowerplayPercent', '#PenaltyKills', '#PenaltyKillGoalsAllowed', '#PenaltyKillPercent', '#ShorthandedGoalsFor', '#ShorthandedGoalsAgainst', '#GoalsFor', '#GoalsAgainst', '#Shots', '#Penalties', '#PenaltyMinutes', '#Hits']"
"['', '29020', '2015-10-07', '00:00:00 GMT', '9', 'NYR', 'New York', 'Rangers', '20', 'CHI', 'Chicago', 'Blackhawks', '28', 'United Center', '20', 'CHI', 'Chicago', 'Blackhawks', '0', '1', '0', '0', '0', '0', '0', '0', '30', '27', '52.6', '1', '0', '0.0', '0', '0', '0.0', '0', '0', '2', '3', '34', '1', '2', '25']"
"['', '29033', '2015-10-09', '23:30:00 GMT', '20', 'CHI', 'Chicago', 'Blackhawks', '8', 'NYI', 'New York', 'Islanders', '16', 'Nassau Veterans Memorial Coliseum', '20', 'CHI', 'Chicago', 'Blackhawks', '1', '0', '0', '0', '0', '0', '1', '2', '27', '40', '40.3', '3', '1', '33.3', '2', '0', '100.0', '1', '0', '3', '2', '35', '2', '4', '22']"
"['', '29044', '2015-10-10', '00:30:00 GMT', '8', 'NYI', 'New York', 'Islanders', '20', 'CHI', 'Chicago', 'Blackhawks', '28', 'United Center', '20', 'CHI', 'Chicago', 'Blackhawks', '1', '0', '0', '0', '0', '0', '1', '2', '26', '26', '50.0', '4', '1', '25.0', '2', '0', '100.0', '0', '1', '4', '1', '34', '2', '4', '32']"
"['', '29065', '2015-10-14', '00:00:00 GMT', '20', 'CHI', 'Chicago', 'Blackhawks', '6', 'PHI', 'Philadelphia', 'Flyers', '29', 'Wells Fargo Center', '20', 'CHI', 'Chicago', 'Blackhawks', '0', '1', '0', '0', '0', '0', '0', '0', '30', '26', '53.6', '5', '0', '0.0', '5', '1', '80.0', '0', '0', '0', '3', '30', '6', '12', '27']"
"['', '29070', '2015-10-15', '23:00:00 GMT', '20', 'CHI', 'Chicago', 'Blackhawks', '5', 'WSH', 'Washington', 'Capitals', '13', 'Verizon Center', '20', 'CHI', 'Chicago', 'Blackhawks', '0', '1', '0', '0', '0', '0', '0', '0', '23', '23', '50.0', '1', '0', '0.0', '2', '1', '50.0', '0', '0', '1', '4', '27', '2', '4', '16']"
"['', '29090', '2015-10-17', '00:30:00 GMT', '19', 'CBJ', 'Columbus', 'Blue Jackets', '20', 'CHI', 'Chicago', 'Blackhawks', '28', 'United Center', '20', 'CHI', 'Chicago', 'Blackhawks', '1', '0', '0', '0', '0', '0', '1', '2', '27', '21', '56.2', '4', '2', '50.0', '2', '0', '100.0', '0', '0', '4', '1', '30', '5', '13', '25']"
"['', '29115', '2015-10-22', '00:30:00 GMT', '4', 'FLO', 'Florida', 'Panthers', '20', 'CHI', 'Chicago', 'Blackhawks', '28', 'United Center', '20', 'CHI', 'Chicago', 'Blackhawks', '1', '0', '0', '0', '0', '0', '1', '2', '38', '39', '49.4', '7', '2', '28.6', '4', '1', '75.0', '0', '0', '3', '2', '27', '3', '8', '15']"
"['', '29132', '2015-10-24', '00:30:00 GMT', '1', 'TBL', 'Tampa Bay', 'Lightning', '20', 'CHI', 'Chicago', 'Blackhawks', '28', 'United Center', '20', 'CHI', 'Chicago', 'Blackhawks', '1', '0', '0', '0', '0', '0', '1', '2', '30', '24', '55.6', '3', '0', '0.0', '4', '0', '100.0', '0', '0', '1', '0', '32', '4', '8', '24']"
"['', '29141', '2015-10-26', '00:30:00 GMT', '29', 'ANA', 'Anaheim', 'Ducks', '20', 'CHI', 'Chicago', 'Blackhawks', '28', 'United Center', '20', 'CHI', 'Chicago', 'Blackhawks', '1', '0', '0', '0', '0', '0', '1', '2', '24', '34', '41.4', '3', '0', '0.0', '2', '0', '100.0', '0', '0', '1', '0', '24', '6', '15', '17']"
"['', '29160', '2015-10-29', '00:00:00 GMT', '20', 'CHI', 'Chicago', 'Blackhawks', '2', 'WPJ', 'Winnipeg', 'Jets', '39', 'MTS Centre', '20', 'CHI', 'Chicago', 'Blackhawks', '0', '1', '0', '0', '0', '0', '0', '0', '33', '38', '46.5', '3', '1', '33.3', '2', '1', '50.0', '0', '0', '1', '3', '46', '3', '6', '15']"
"['', '29169', '2015-10-30', '00:00:00 GMT', '20', 'CHI', 'Chicago', 'Blackhawks', '25', 'MIN', 'Minnesota', 'Wild', '30', 'Xcel Energy Center', '20', 'CHI', 'Chicago', 'Blackhawks', '0', '1', '0', '0', '0', '0', '0', '0', '38', '37', '50.7', '1', '1', '100.0', '2', '1', '50.0', '1', '0', '4', '5', '29', '2', '4', '7']"
"['', '29188', '2015-11-02', '01:30:00 GMT', '28', 'LAK', 'Los Angeles', 'Kings', '20', 'CHI', 'Chicago', 'Blackhawks', '28', 'United Center', '20', 'CHI', 'Chicago', 'Blackhawks', '1', '0', '0', '0', '0', '0', '1', '2', '37', '27', '57.8', '1', '0', '0.0', '2', '0', '100.0', '1', '0', '4', '2', '26', '3', '6', '19']"
"['', '29200', '2015-11-04', '01:00:00 GMT', '17', 'STL', 'St. Louis', 'Blues', '20', 'CHI', 'Chicago', 'Blackhawks', '28', 'United Center', '20', 'CHI', 'Chicago', 'Blackhawks', '0', '0', '0', '1', '0', '0', '0', '1', '42', '35', '54.5', '5', '1', '20.0', '1', '1', '0.0', '0', '0', '5', '6', '43', '2', '4', '11']"
"['', '29213', '2015-11-06', '00:00:00 GMT', '20', 'CHI', 'Chicago', 'Blackhawks', '7', 'NJD', 'New Jersey', 'Devils', '37', 'Prudential Center', '20', 'CHI', 'Chicago', 'Blackhawks', '0', '1', '0', '0', '0', '0', '0', '0', '40', '29', '58.0', '3', '0', '0.0', '1', '0', '100.0', '0', '0', '2', '4', '29', '3', '9', '25']"
"['', '29232', '2015-11-08', '01:00:00 GMT', '24', 'EDM', 'Edmonton', 'Oilers', '20', 'CHI', 'Chicago', 'Blackhawks', '28', 'United Center', '20', 'CHI', 'Chicago', 'Blackhawks', '1', '0', '0', '0', '0', '0', '1', '2', '38', '36', '51.4', '3', '1', '33.3', '1', '1', '0.0', '0', '0', '4', '2', '28', '2', '4', '24']"
"['', '29256', '2015-11-12', '01:30:00 GMT', '7', 'NJD', 'New Jersey', 'Devils', '20', 'CHI', 'Chicago', 'Blackhawks', '28', 'United Center', '20', 'CHI', 'Chicago', 'Blackhawks', '0', '1', '0', '0', '0', '0', '0', '0', '20', '26', '43.5', '4', '1', '25.0', '3', '1', '66.7', '0', '0', '2', '3', '29', '3', '6', '24']"
"['', '29274', '2015-11-14', '01:00:00 GMT', '20', 'CHI', 'Chicago', 'Blackhawks', '17', 'STL', 'St. Louis', 'Blues', '24', 'Scottrade Center', '20', 'CHI', 'Chicago', 'Blackhawks', '1', '0', '0', '0', '0', '0', '1', '2', '35', '28', '55.6', '4', '1', '25.0', '6', '1', '83.3', '0', '0', '4', '2', '27', '8', '19', '6']"
"['', '29278', '2015-11-15', '01:30:00 GMT', '23', 'CGY', 'Calgary', 'Flames', '20', 'CHI', 'Chicago', 'Blackhawks', '28', 'United Center', '20', 'CHI', 'Chicago', 'Blackhawks', '1', '0', '0', '0', '0', '0', '1', '2', '32', '25', '56.1', '1', '0', '0.0', '2', '0', '100.0', '0', '0', '4', '1', '41', '2', '4', '30']"
"['', '29295', '2015-11-18', '02:30:00 GMT', '20', 'CHI', 'Chicago', 'Blackhawks', '24', 'EDM', 'Edmonton', 'Oilers', '22', 'Rogers Place', '20', 'CHI', 'Chicago', 'Blackhawks', '1', '0', '0', '0', '0', '0', '1', '2', '31', '35', '47.0', '2', '1', '50.0', '3', '0', '100.0', '0', '0', '4', '3', '27', '3', '6', '15']"
"['', '29309', '2015-11-20', '02:00:00 GMT', '20', 'CHI', 'Chicago', 'Blackhawks', '23', 'CGY', 'Calgary', 'Flames', '18', 'Scotiabank Saddledome', '20', 'CHI', 'Chicago', 'Blackhawks', '0', '0', '0', '1', '0', '0', '0', '1', '27', '26', '50.9', '3', '1', '33.3', '1', '0', '100.0', '0', '0', '1', '2', '19', '2', '4', '5']"
"['', '29321', '2015-11-21', '03:00:00 GMT', '20', 'CHI', 'Chicago', 'Blackhawks', '21', 'VAN', 'Vancouver', 'Canucks', '7', 'Rogers Arena', '20', 'CHI', 'Chicago', 'Blackhawks', '0', '1', '0', '0', '0', '0', '0', '0', '29', '29', '50.0', '2', '1', '50.0', '3', '3', '0.0', '0', '0', '3', '6', '29', '5', '13', '10']"
"['', '29347', '2015-11-25', '03:30:00 GMT', '20', 'CHI', 'Chicago', 'Blackhawks', '26', 'SJS', 'San Jose', 'Sharks', '9', 'SAP Center at San Jose', '20', 'CHI', 'Chicago', 'Blackhawks', '1', '0', '0', '0', '0', '0', '1', '2', '29', '25', '53.7', '3', '0', '0.0', '5', '1', '80.0', '0', '0', '5', '2', '26', '5', '10', '19']"
"['', '29351', '2015-11-27', '22:00:00 GMT', '20', 'CHI', 'Chicago', 'Blackhawks', '29', 'ANA', 'Anaheim', 'Ducks', '8', 'Honda Center', '20', 'CHI', 'Chicago', 'Blackhawks', '1', '0', '0', '0', '0', '0', '1', '2', '31', '43', '41.9', '4', '1', '25.0', '3', '0', '100.0', '0', '0', '3', '2', '32', '4', '8', '11']"
"['', '29371', '2015-11-28', '03:30:00 GMT', '20', 'CHI', 'Chicago', 'Blackhawks', '28', 'LAK', 'Los Angeles', 'Kings', '25', 'Staples Center', '20', 'CHI', 'Chicago', 'Blackhawks', '0', '0', '0', '1', '0', '0', '0', '1', '26', '33', '44.1', '1', '1', '100.0', '1', '0', '100.0', '0', '0', '2', '3', '22', '1', '2', '17']"
"['', '29383', '2015-12-01', '01:30:00 GMT', '25', 'MIN', 'Minnesota', 'Wild', '20', 'CHI', 'Chicago', 'Blackhawks', '28', 'United Center', '20', 'CHI', 'Chicago', 'Blackhawks', '0', '1', '0', '0', '0', '0', '0', '0', '28', '34', '45.2', '3', '1', '33.3', '4', '0', '100.0', '0', '0', '1', '2', '31', '4', '8', '11']"
"['', '29394', '2015-12-03', '00:30:00 GMT', '20', 'CHI', 'Chicago', 'Blackhawks', '13', 'OTT', 'Ottawa', 'Senators', '23', 'Canadian Tire Centre', '20', 'CHI', 'Chicago', 'Blackhawks', '0', '0', '0', '1', '0', '0', '0', '1', '24', '32', '42.9', '3', '1', '33.3', '3', '2', '33.3', '0', '0', '3', '4', '38', '4', '8', '13']"
"['', '29417', '2015-12-06', '22:00:00 GMT', '2', 'WPJ', 'Winnipeg', 'Jets', '20', 'CHI', 'Chicago', 'Blackhawks', '28', 'United Center', '20', 'CHI', 'Chicago', 'Blackhawks', '1', '0', '0', '0', '0', '0', '1', '2', '37', '35', '51.4', '3', '0', '0.0', '2', '0', '100.0', '0', '0', '3', '1', '32', '2', '4', '36']"
"['', '29432', '2015-12-08', '01:30:00 GMT', '18', 'NSH', 'Nashville', 'Predators', '20', 'CHI', 'Chicago', 'Blackhawks', '28', 'United Center', '20', 'CHI', 'Chicago', 'Blackhawks', '1', '0', '0', '0', '0', '0', '1', '2', '28', '27', '50.9', '3', '1', '33.3', '2', '0', '100.0', '0', '0', '4', '1', '24', '2', '4', '14']"
"['', '29443', '2015-12-10', '01:00:00 GMT', '20', 'CHI', 'Chicago', 'Blackhawks', '18', 'NSH', 'Nashville', 'Predators', '15', 'Bridgestone Arena', '20', 'CHI', 'Chicago', 'Blackhawks', '0', '1', '0', '0', '0', '0', '0', '0', '29', '33', '46.8', '3', '0', '0.0', '1', '1', '0.0', '0', '1', '1', '5', '36', '3', '12', '17']"
"['', '29448', '2015-12-11', '01:30:00 GMT', '2', 'WPJ', 'Winnipeg', 'Jets', '20', 'CHI', 'Chicago', 'Blackhawks', '28', 'United Center', '20', 'CHI', 'Chicago', 'Blackhawks', '1', '0', '0', '0', '0', '0', '1', '2', '27', '24', '52.9', '4', '2', '50.0', '5', '0', '100.0', '0', '0', '2', '0', '31', '5', '10', '20']"
"['', '29465', '2015-12-13', '00:00:00 GMT', '21', 'VAN', 'Vancouver', 'Canucks', '20', 'CHI', 'Chicago', 'Blackhawks', '28', 'United Center', '20', 'CHI', 'Chicago', 'Blackhawks', '1', '0', '0', '0', '0', '0', '1', '2', '38', '21', '64.4', '2', '1', '50.0', '3', '0', '100.0', '0', '0', '4', '0', '30', '3', '6', '16']"
"['', '29480', '2015-12-15', '01:30:00 GMT', '22', 'COL', 'Colorado', 'Avalanche', '20', 'CHI', 'Chicago', 'Blackhawks', '28', 'United Center', '20', 'CHI', 'Chicago', 'Blackhawks', '0', '1', '0', '0', '0', '0', '0', '0', '35', '26', '57.4', '3', '0', '0.0', '4', '0', '100.0', '0', '0', '0', '3', '29', '4', '8', '18']"
"['', '29491', '2015-12-17', '01:30:00 GMT', '24', 'EDM', 'Edmonton', 'Oilers', '20', 'CHI', 'Chicago', 'Blackhawks', '28', 'United Center', '20', 'CHI', 'Chicago', 'Blackhawks', '1', '0', '0', '0', '0', '0', '1', '2', '27', '30', '47.4', '2', '0', '0.0', '0', '0', '0.0', '0', '0', '4', '0', '37', '0', '0', '22']"
"['', '29501', '2015-12-19', '18:00:00 GMT', '20', 'CHI', 'Chicago', 'Blackhawks', '15', 'BUF', 'Buffalo', 'Sabres', '10', 'First Niagara Center', '20', 'CHI', 'Chicago', 'Blackhawks', '1', '0', '0', '0', '0', '0', '0', '2', '26', '27', '49.1', '2', '1', '50.0', '2', '0', '100.0', '0', '0', '2', '2', '28', '2', '4', '8']"
"['', '29516', '2015-12-20', '00:00:00 GMT', '26', 'SJS', 'San Jose', 'Sharks', '20', 'CHI', 'Chicago', 'Blackhawks', '28', 'United Center', '20', 'CHI', 'Chicago', 'Blackhawks', '1', '0', '0', '0', '0', '0', '1', '2', '36', '35', '50.7', '1', '0', '0.0', '3', '1', '66.7', '0', '0', '4', '3', '32', '4', '11', '33']"
"['', '29531', '2015-12-22', '01:30:00 GMT', '20', 'CHI', 'Chicago', 'Blackhawks', '27', 'DAL', 'Dallas', 'Stars', '2', 'American Airlines Center', '20', 'CHI', 'Chicago', 'Blackhawks', '0', '1', '0', '0', '0', '0', '0', '0', '21', '28', '42.9', '2', '0', '0.0', '4', '1', '75.0', '0', '0', '0', '4', '20', '5', '10', '9']"
"['', '29548', '2015-12-27', '00:00:00 GMT', '3', 'CAR', 'Carolina', 'Hurricanes', '20', 'CHI', 'Chicago', 'Blackhawks', '28', 'United Center', '20', 'CHI', 'Chicago', 'Blackhawks', '0', '1', '0', '0', '0', '0', '0', '0', '25', '31', '44.6', '1', '0', '0.0', '0', '0', '0.0', '0', '0', '1', '2', '36', '2', '4', '18']"
"['', '29568', '2015-12-29', '02:00:00 GMT', '20', 'CHI', 'Chicago', 'Blackhawks', '30', 'ARI', 'Arizona', 'Coyotes', '6', 'Gila River Arena', '20', 'CHI', 'Chicago', 'Blackhawks', '1', '0', '0', '0', '0', '0', '1', '2', '35', '37', '48.6', '4', '3', '75.0', '8', '2', '75.0', '1', '0', '7', '5', '28', '8', '16', '13']"
"['', '29578', '2015-12-31', '01:00:00 GMT', '20', 'CHI', 'Chicago', 'Blackhawks', '22', 'COL', 'Colorado', 'Avalanche', '19', 'Pepsi Center', '20', 'CHI', 'Chicago', 'Blackhawks', '1', '0', '0', '0', '0', '0', '1', '2', '26', '31', '45.6', '6', '2', '33.3', '3', '1', '66.7', '0', '0', '4', '3', '43', '3', '6', '13']"
"['', '29599', '2016-01-03', '00:00:00 GMT', '13', 'OTT', 'Ottawa', 'Senators', '20', 'CHI', 'Chicago', 'Blackhawks', '28', 'United Center', '20', 'CHI', 'Chicago', 'Blackhawks', '1', '0', '0', '0', '0', '0', '1', '2', '24', '25', '49.0', '1', '0', '0.0', '2', '0', '100.0', '0', '0', '3', '0', '30', '2', '4', '29']"
"['', '29610', '2016-01-05', '00:00:00 GMT', '20', 'CHI', 'Chicago', 'Blackhawks', '10', 'PIT', 'Pittsburgh', 'Penguins', '40', 'Consol Energy Center', '20', 'CHI', 'Chicago', 'Blackhawks', '1', '0', '0', '0', '0', '0', '1', '2', '22', '28', '44.0', '2', '0', '0.0', '1', '0', '100.0', '0', '0', '3', '2', '30', '1', '2', '13']"
"['', '29615', '2016-01-06', '01:00:00 GMT', '10', 'PIT', 'Pittsburgh', 'Penguins', '20', 'CHI', 'Chicago', 'Blackhawks', '28', 'United Center', '20', 'CHI', 'Chicago', 'Blackhawks', '1', '0', '0', '0', '0', '0', '1', '2', '31', '27', '53.4', '3', '0', '0.0', '3', '1', '66.7', '0', '0', '3', '1', '37', '4', '8', '11']"
"['', '29628', '2016-01-08', '01:30:00 GMT', '15', 'BUF', 'Buffalo', 'Sabres', '20', 'CHI', 'Chicago', 'Blackhawks', '28', 'United Center', '20', 'CHI', 'Chicago', 'Blackhawks', '1', '0', '0', '0', '0', '0', '1', '2', '29', '36', '44.6', '1', '0', '0.0', '1', '0', '100.0', '0', '0', '3', '1', '45', '2', '4', '14']"
"['', '29644', '2016-01-10', '00:00:00 GMT', '22', 'COL', 'Colorado', 'Avalanche', '20', 'CHI', 'Chicago', 'Blackhawks', '28', 'United Center', '20', 'CHI', 'Chicago', 'Blackhawks', '1', '0', '0', '0', '0', '0', '1', '2', '28', '24', '53.8', '2', '1', '50.0', '2', '0', '100.0', '0', '0', '6', '3', '35', '2', '4', '12']"
"['', '29657', '2016-01-12', '01:30:00 GMT', '18', 'NSH', 'Nashville', 'Predators', '20', 'CHI', 'Chicago', 'Blackhawks', '28', 'United Center', '20', 'CHI', 'Chicago', 'Blackhawks', '1', '0', '0', '0', '0', '0', '1', '2', '31', '28', '52.5', '4', '0', '0.0', '5', '1', '80.0', '0', '0', '3', '2', '23', '6', '12', '20']"
"['', '29666', '2016-01-14', '00:30:00 GMT', '20', 'CHI', 'Chicago', 'Blackhawks', '14', 'MTL', 'Montreal', 'Canadiens', '4', 'Bell Centre', '20', 'CHI', 'Chicago', 'Blackhawks', '1', '0', '0', '0', '0', '0', '1', '2', '36', '28', '56.2', '1', '0', '0.0', '1', '0', '100.0', '0', '0', '2', '1', '33', '1', '2', '13']"
"['', '29673', '2016-01-15', '00:00:00 GMT', '20', 'CHI', 'Chicago', 'Blackhawks', '12', 'TOR', 'Toronto', 'Maple Leafs', '1', 'Air Canada Center', '20', 'CHI', 'Chicago', 'Blackhawks', '1', '0', '0', '0', '0', '0', '1', '2', '23', '28', '45.1', '6', '2', '33.3', '3', '0', '100.0', '0', '0', '4', '1', '29', '3', '6', '8']"
"['', '29692', '2016-01-17', '00:00:00 GMT', '14', 'MTL', 'Montreal', 'Canadiens', '20', 'CHI', 'Chicago', 'Blackhawks', '28', 'United Center', '20', 'CHI', 'Chicago', 'Blackhawks', '1', '0', '0', '0', '0', '0', '1', '2', '31', '25', '55.4', '4', '1', '25.0', '2', '1', '50.0', '0', '0', '5', '2', '33', '2', '4', '11']"
"['', '29706', '2016-01-19', '01:00:00 GMT', '20', 'CHI', 'Chicago', 'Blackhawks', '18', 'NSH', 'Nashville', 'Predators', '15', 'Bridgestone Arena', '20', 'CHI', 'Chicago', 'Blackhawks', '1', '0', '0', '0', '0', '0', '1', '2', '25', '32', '43.9', '2', '0', '0.0', '3', '0', '100.0', '0', '0', '4', '1', '27', '3', '6', '6']"
"['', '29716', '2016-01-21', '00:30:00 GMT', '20', 'CHI', 'Chicago', 'Blackhawks', '1', 'TBL', 'Tampa Bay', 'Lightning', '26', 'Amalie Arena', '20', 'CHI', 'Chicago', 'Blackhawks', '0', '1', '0', '0', '0', '0', '0', '0', '16', '32', '33.3', '3', '0', '0.0', '4', '1', '75.0', '0', '0', '1', '2', '18', '4', '8', '8']"
"['', '29725', '2016-01-22', '00:30:00 GMT', '20', 'CHI', 'Chicago', 'Blackhawks', '4', 'FLO', 'Florida', 'Panthers', '3', 'BB&T Center', '20', 'CHI', 'Chicago', 'Blackhawks', '0', '1', '0', '0', '0', '0', '0', '0', '25', '24', '51.0', '2', '0', '0.0', '3', '0', '100.0', '0', '0', '0', '4', '27', '5', '13', '18']"
"['', '29741', '2016-01-24', '00:00:00 GMT', '17', 'STL', 'St. Louis', 'Blues', '20', 'CHI', 'Chicago', 'Blackhawks', '28', 'United Center', '20', 'CHI', 'Chicago', 'Blackhawks', '1', '0', '0', '0', '0', '0', '1', '2', '26', '31', '45.6', '1', '1', '100.0', '1', '0', '100.0', '0', '0', '2', '0', '25', '1', '2', '32']"
"['', '29751', '2016-01-26', '00:00:00 GMT', '20', 'CHI', 'Chicago', 'Blackhawks', '3', 'CAR', 'Carolina', 'Hurricanes', '21', 'RBC Center', '20', 'CHI', 'Chicago', 'Blackhawks', '0', '1', '0', '0', '0', '0', '0', '0', '20', '42', '32.3', '4', '0', '0.0', '2', '0', '100.0', '0', '0', '0', '5', '26', '2', '4', '16']"
"['', '29770', '2016-02-02', '02:00:00 GMT', '20', 'CHI', 'Chicago', 'Blackhawks', '22', 'COL', 'Colorado', 'Avalanche', '19', 'Pepsi Center', '20', 'CHI', 'Chicago', 'Blackhawks', '1', '0', '0', '0', '0', '0', '1', '2', '27', '32', '45.8', '3', '0', '0.0', '2', '0', '100.0', '0', '0', '2', '1', '42', '2', '4', '11']"
"['', '29786', '2016-02-04', '02:00:00 GMT', '20', 'CHI', 'Chicago', 'Blackhawks', '30', 'ARI', 'Arizona', 'Coyotes', '6', 'Gila River Arena', '20', 'CHI', 'Chicago', 'Blackhawks', '1', '0', '0', '0', '0', '0', '1', '2', '25', '39', '39.1', '5', '0', '0.0', '4', '2', '50.0', '1', '0', '5', '4', '40', '6', '12', '15']"
"['', '29802', '2016-02-06', '01:00:00 GMT', '20', 'CHI', 'Chicago', 'Blackhawks', '27', 'DAL', 'Dallas', 'Stars', '2', 'American Airlines Center', '20', 'CHI', 'Chicago', 'Blackhawks', '1', '0', '0', '0', '0', '0', '1', '2', '34', '24', '58.6', '5', '1', '20.0', '6', '0', '100.0', '2', '0', '5', '1', '26', '6', '12', '12']"
"['', '29821', '2016-02-09', '01:30:00 GMT', '26', 'SJS', 'San Jose', 'Sharks', '20', 'CHI', 'Chicago', 'Blackhawks', '28', 'United Center', '20', 'CHI', 'Chicago', 'Blackhawks', '0', '1', '0', '0', '0', '0', '0', '0', '34', '22', '60.7', '3', '0', '0.0', '1', '1', '0.0', '0', '0', '0', '2', '33', '1', '2', '13']"
"['', '29833', '2016-02-11', '01:30:00 GMT', '27', 'DAL', 'Dallas', 'Stars', '20', 'CHI', 'Chicago', 'Blackhawks', '28', 'United Center', '20', 'CHI', 'Chicago', 'Blackhawks', '0', '1', '0', '0', '0', '0', '0', '0', '30', '27', '52.6', '2', '0', '0.0', '2', '2', '0.0', '0', '0', '2', '4', '46', '3', '6', '32']"
"['', '29850', '2016-02-13', '01:30:00 GMT', '29', 'ANA', 'Anaheim', 'Ducks', '20', 'CHI', 'Chicago', 'Blackhawks', '28', 'United Center', '20', 'CHI', 'Chicago', 'Blackhawks', '0', '0', '0', '1', '0', '0', '0', '1', '26', '36', '41.9', '2', '1', '50.0', '3', '1', '66.7', '0', '0', '2', '3', '23', '4', '8', '26']"
"['', '29862', '2016-02-15', '01:30:00 GMT', '12', 'TOR', 'Toronto', 'Maple Leafs', '20', 'CHI', 'Chicago', 'Blackhawks', '28', 'United Center', '20', 'CHI', 'Chicago', 'Blackhawks', '1', '0', '0', '0', '0', '0', '1', '2', '29', '31', '48.3', '6', '4', '66.7', '4', '1', '75.0', '0', '0', '7', '2', '32', '3', '8', '18']"
"['', '29873', '2016-02-17', '01:00:00 GMT', '20', 'CHI', 'Chicago', 'Blackhawks', '9', 'NYR', 'New York', 'Rangers', '12', 'Madison Square Garden', '20', 'CHI', 'Chicago', 'Blackhawks', '1', '0', '0', '0', '0', '0', '1', '2', '26', '31', '45.6', '4', '3', '75.0', '2', '2', '0.0', '0', '0', '5', '3', '20', '1', '4', '11']"
"['', '29902', '2016-02-21', '20:30:00 GMT', '20', 'CHI', 'Chicago', 'Blackhawks', '25', 'MIN', 'Minnesota', 'Wild', '30', 'Xcel Energy Center', '20', 'CHI', 'Chicago', 'Blackhawks', '0', '1', '0', '0', '0', '0', '0', '0', '36', '33', '52.2', '2', '0', '0.0', '6', '1', '83.3', '0', '0', '1', '6', '32', '8', '27', '13']"
"['', '29929', '2016-02-25', '01:30:00 GMT', '18', 'NSH', 'Nashville', 'Predators', '20', 'CHI', 'Chicago', 'Blackhawks', '28', 'United Center', '20', 'CHI', 'Chicago', 'Blackhawks', '0', '1', '0', '0', '0', '0', '0', '0', '25', '27', '48.1', '1', '0', '0.0', '1', '0', '100.0', '0', '0', '1', '3', '39', '2', '4', '21']"
"['', '30256', '2016-02-28', '18:00:00 GMT', '5', 'WSH', 'Washington', 'Capitals', '20', 'CHI', 'Chicago', 'Blackhawks', '28', 'United Center', '20', 'CHI', 'Chicago', 'Blackhawks', '1', '0', '0', '0', '0', '0', '1', '2', '31', '20', '60.8', '4', '1', '25.0', '5', '2', '60.0', '0', '0', '3', '2', '23', '6', '12', '27']"
"['', '29970', '2016-03-02', '01:00:00 GMT', '20', 'CHI', 'Chicago', 'Blackhawks', '16', 'DET', 'Detroit', 'Red Wings', '11', 'Joe Louis Arena', '20', 'CHI', 'Chicago', 'Blackhawks', '1', '0', '0', '0', '0', '0', '1', '2', '23', '34', '40.4', '3', '2', '66.7', '4', '1', '75.0', '0', '0', '5', '2', '33', '5', '10', '11']"
"['', '29972', '2016-03-03', '00:00:00 GMT', '20', 'CHI', 'Chicago', 'Blackhawks', '11', 'BOS', 'Boston', 'Bruins', '27', 'TD Garden', '20', 'CHI', 'Chicago', 'Blackhawks', '0', '1', '0', '0', '0', '0', '0', '0', '33', '28', '54.1', '2', '1', '50.0', '2', '1', '50.0', '0', '0', '2', '4', '27', '2', '4', '18']"
"['', '30001', '2016-03-06', '22:00:00 GMT', '16', 'DET', 'Detroit', 'Red Wings', '20', 'CHI', 'Chicago', 'Blackhawks', '28', 'United Center', '20', 'CHI', 'Chicago', 'Blackhawks', '1', '0', '0', '0', '0', '0', '1', '2', '28', '24', '53.8', '3', '2', '66.7', '3', '0', '100.0', '0', '0', '4', '1', '26', '4', '8', '15']"
"['', '30020', '2016-03-09', '01:00:00 GMT', '20', 'CHI', 'Chicago', 'Blackhawks', '17', 'STL', 'St. Louis', 'Blues', '24', 'Scottrade Center', '20', 'CHI', 'Chicago', 'Blackhawks', '0', '0', '0', '1', '0', '0', '0', '1', '29', '30', '49.2', '3', '1', '33.3', '3', '2', '33.3', '0', '0', '2', '2', '35', '3', '6', '12']"
"['', '30034', '2016-03-11', '01:30:00 GMT', '20', 'CHI', 'Chicago', 'Blackhawks', '27', 'DAL', 'Dallas', 'Stars', '2', 'American Airlines Center', '20', 'CHI', 'Chicago', 'Blackhawks', '0', '1', '0', '0', '0', '0', '0', '0', '35', '28', '55.6', '5', '0', '0.0', '6', '2', '66.7', '0', '0', '2', '5', '23', '6', '12', '7']"
"['', '30052', '2016-03-14', '00:30:00 GMT', '28', 'LAK', 'Los Angeles', 'Kings', '20', 'CHI', 'Chicago', 'Blackhawks', '28', 'United Center', '20', 'CHI', 'Chicago', 'Blackhawks', '0', '1', '0', '0', '0', '0', '0', '0', '31', '38', '44.9', '6', '0', '0.0', '2', '0', '100.0', '0', '0', '0', '5', '32', '2', '4', '23']"
"['', '30066', '2016-03-16', '00:00:00 GMT', '6', 'PHI', 'Philadelphia', 'Flyers', '20', 'CHI', 'Chicago', 'Blackhawks', '28', 'United Center', '20', 'CHI', 'Chicago', 'Blackhawks', '0', '1', '0', '0', '0', '0', '0', '0', '20', '32', '38.5', '3', '0', '0.0', '2', '1', '50.0', '1', '0', '2', '3', '26', '2', '4', '22']"
"['', '30081', '2016-03-18', '00:00:00 GMT', '20', 'CHI', 'Chicago', 'Blackhawks', '2', 'WPJ', 'Winnipeg', 'Jets', '39', 'MTS Centre', '20', 'CHI', 'Chicago', 'Blackhawks', '1', '0', '0', '0', '0', '0', '1', '2', '31', '25', '55.4', '1', '0', '0.0', '4', '0', '100.0', '0', '0', '4', '0', '36', '6', '15', '15']"
"['', '30100', '2016-03-20', '00:30:00 GMT', '25', 'MIN', 'Minnesota', 'Wild', '20', 'CHI', 'Chicago', 'Blackhawks', '28', 'United Center', '20', 'CHI', 'Chicago', 'Blackhawks', '0', '0', '0', '1', '0', '0', '0', '1', '33', '40', '45.2', '2', '0', '0.0', '3', '0', '100.0', '0', '0', '2', '2', '31', '3', '6', '28']"
"['', '30114', '2016-03-22', '00:30:00 GMT', '27', 'DAL', 'Dallas', 'Stars', '20', 'CHI', 'Chicago', 'Blackhawks', '28', 'United Center', '20', 'CHI', 'Chicago', 'Blackhawks', '0', '1', '0', '0', '0', '0', '0', '0', '33', '26', '55.9', '3', '0', '0.0', '3', '1', '66.7', '0', '1', '2', '6', '32', '3', '6', '29']"
"['', '30144', '2016-03-26', '02:00:00 GMT', '20', 'CHI', 'Chicago', 'Blackhawks', '23', 'CGY', 'Calgary', 'Flames', '18', 'Scotiabank Saddledome', '20', 'CHI', 'Chicago', 'Blackhawks', '1', '0', '0', '0', '0', '0', '1', '2', '26', '28', '48.1', '2', '0', '0.0', '2', '0', '100.0', '0', '0', '4', '1', '27', '4', '8', '6']"
"['', '30149', '2016-03-27', '00:00:00 GMT', '20', 'CHI', 'Chicago', 'Blackhawks', '21', 'VAN', 'Vancouver', 'Canucks', '7', 'Rogers Arena', '20', 'CHI', 'Chicago', 'Blackhawks', '1', '0', '0', '0', '0', '0', '1', '2', '34', '24', '58.6', '1', '0', '0.0', '2', '0', '100.0', '0', '0', '3', '2', '32', '2', '6', '5']"
"['', '30164', '2016-03-29', '00:00:00 GMT', '20', 'CHI', 'Chicago', 'Blackhawks', '25', 'MIN', 'Minnesota', 'Wild', '30', 'Xcel Energy Center', '20', 'CHI', 'Chicago', 'Blackhawks', '0', '1', '0', '0', '0', '0', '0', '0', '14', '29', '32.6', '3', '0', '0.0', '3', '0', '100.0', '1', '0', '1', '4', '19', '4', '19', '11']"
"['', '30182', '2016-04-01', '00:00:00 GMT', '20', 'CHI', 'Chicago', 'Blackhawks', '2', 'WPJ', 'Winnipeg', 'Jets', '39', 'MTS Centre', '20', 'CHI', 'Chicago', 'Blackhawks', '1', '0', '0', '0', '0', '0', '1', '2', '29', '31', '48.3', '3', '1', '33.3', '3', '0', '100.0', '0', '0', '5', '4', '27', '3', '6', '13']"
"['', '30196', '2016-04-03', '17:00:00 GMT', '11', 'BOS', 'Boston', 'Bruins', '20', 'CHI', 'Chicago', 'Blackhawks', '28', 'United Center', '20', 'CHI', 'Chicago', 'Blackhawks', '1', '0', '0', '0', '0', '0', '1', '2', '26', '36', '41.9', '3', '2', '66.7', '1', '0', '100.0', '0', '0', '6', '4', '34', '3', '6', '17']"
"['', '30214', '2016-04-05', '00:30:00 GMT', '30', 'ARI', 'Arizona', 'Coyotes', '20', 'CHI', 'Chicago', 'Blackhawks', '28', 'United Center', '20', 'CHI', 'Chicago', 'Blackhawks', '1', '0', '0', '0', '0', '0', '1', '2', '24', '28', '46.2', '4', '3', '75.0', '6', '0', '100.0', '1', '0', '6', '2', '32', '6', '12', '10']"
"['', '30228', '2016-04-07', '00:30:00 GMT', '17', 'STL', 'St. Louis', 'Blues', '20', 'CHI', 'Chicago', 'Blackhawks', '28', 'United Center', '20', 'CHI', 'Chicago', 'Blackhawks', '0', '0', '0', '1', '0', '0', '0', '1', '28', '24', '53.8', '3', '0', '0.0', '2', '0', '100.0', '0', '0', '1', '2', '24', '4', '11', '25']"
"['', '30241', '2016-04-09', '23:00:00 GMT', '20', 'CHI', 'Chicago', 'Blackhawks', '19', 'CBJ', 'Columbus', 'Blue Jackets', '17', 'Nationwide Arena', '20', 'CHI', 'Chicago', 'Blackhawks', '0', '0', '0', '1', '0', '0', '0', '1', '28', '32', '46.7', '5', '1', '20.0', '2', '1', '50.0', '0', '0', '4', '5', '26', '2', '4', '10']"
