"['#Date/Time of Update: 2018-12-10 19:03:20 GMT', '#Game ID', '#Game Date', '#Game Time', '#Away Team ID', '#Away Team Abbr.', '#Away Team City', '#Away Team Name', '#Home Team ID', '#Home Team Abbr.', '#Home Team City', '#Home Team Name', '#Venue ID', '#Venue Name', '#Team ID', '#Team Abbr.', '#Team City', '#Team Name', '#Wins', '#Losses', '#OvertimeWins', '#OvertimeLosses', '#Points', '#FaceoffWins', '#FaceoffLosses', '#FaceoffPercent', '#Powerplays', '#PowerplayGoals', '#PowerplayPercent', '#PenaltyKills', '#PenaltyKillGoalsAllowed', '#PenaltyKillPercent', '#ShorthandedGoalsFor', '#ShorthandedGoalsAgainst', '#GoalsFor', '#GoalsAgainst', '#Shots', '#Penalties', '#PenaltyMinutes', '#Hits']"
"['', '32633', '2016-10-13', '23:00:00 GMT', '14', 'MTL', 'Montreal', 'Canadiens', '15', 'BUF', 'Buffalo', 'Sabres', '10', 'KeyBank Center', '14', 'MTL', 'Montreal', 'Canadiens', '1', '0', '0', '0', '2', '25', '40', '38.5', '2', '0', '0.0', '5', '1', '80.0', '0', '0', '4', '1', '24', '7', '22', '14']"
"['', '32646', '2016-10-15', '23:00:00 GMT', '14', 'MTL', 'Montreal', 'Canadiens', '13', 'OTT', 'Ottawa', 'Senators', '23', 'Canadian Tire Centre', '14', 'MTL', 'Montreal', 'Canadiens', '0', '0', '0', '1', '1', '22', '38', '36.7', '4', '1', '25.0', '4', '0', '100.0', '0', '0', '3', '3', '24', '5', '10', '28']"
"['', '32667', '2016-10-18', '23:30:00 GMT', '10', 'PIT', 'Pittsburgh', 'Penguins', '14', 'MTL', 'Montreal', 'Canadiens', '4', 'Bell Centre', '14', 'MTL', 'Montreal', 'Canadiens', '1', '0', '0', '0', '2', '45', '38', '54.2', '7', '1', '14.3', '7', '0', '100.0', '0', '0', '4', '0', '32', '7', '16', '19']"
"['', '32681', '2016-10-20', '23:30:00 GMT', '30', 'ARI', 'Arizona', 'Coyotes', '14', 'MTL', 'Montreal', 'Canadiens', '4', 'Bell Centre', '14', 'MTL', 'Montreal', 'Canadiens', '1', '0', '0', '0', '2', '28', '33', '45.9', '4', '1', '25.0', '2', '0', '100.0', '0', '1', '5', '2', '43', '3', '6', '24']"
"['', '32692', '2016-10-22', '23:00:00 GMT', '14', 'MTL', 'Montreal', 'Canadiens', '11', 'BOS', 'Boston', 'Bruins', '27', 'TD Garden', '14', 'MTL', 'Montreal', 'Canadiens', '1', '0', '0', '0', '2', '36', '27', '57.1', '5', '0', '0.0', '6', '1', '83.3', '1', '0', '4', '2', '29', '7', '16', '22']"
"['', '32708', '2016-10-24', '23:30:00 GMT', '6', 'PHI', 'Philadelphia', 'Flyers', '14', 'MTL', 'Montreal', 'Canadiens', '4', 'Bell Centre', '14', 'MTL', 'Montreal', 'Canadiens', '1', '0', '0', '0', '2', '33', '32', '50.8', '4', '1', '25.0', '1', '0', '100.0', '0', '0', '3', '1', '33', '1', '2', '32']"
"['', '32721', '2016-10-26', '23:00:00 GMT', '14', 'MTL', 'Montreal', 'Canadiens', '8', 'NYI', 'New York', 'Islanders', '35', 'Ericsson Globe', '14', 'MTL', 'Montreal', 'Canadiens', '1', '0', '0', '0', '2', '23', '28', '45.1', '1', '1', '100.0', '2', '1', '50.0', '0', '0', '3', '2', '29', '2', '4', '19']"
"['', '32729', '2016-10-27', '23:30:00 GMT', '1', 'TBL', 'Tampa Bay', 'Lightning', '14', 'MTL', 'Montreal', 'Canadiens', '4', 'Bell Centre', '14', 'MTL', 'Montreal', 'Canadiens', '1', '0', '0', '0', '2', '29', '29', '50.0', '3', '1', '33.3', '3', '0', '100.0', '0', '0', '3', '1', '26', '4', '11', '24']"
"['', '32741', '2016-10-29', '23:00:00 GMT', '12', 'TOR', 'Toronto', 'Maple Leafs', '14', 'MTL', 'Montreal', 'Canadiens', '4', 'Bell Centre', '14', 'MTL', 'Montreal', 'Canadiens', '1', '0', '0', '0', '2', '30', '24', '55.6', '3', '1', '33.3', '4', '1', '75.0', '0', '0', '2', '1', '31', '6', '12', '20']"
"['', '32770', '2016-11-02', '23:30:00 GMT', '21', 'VAN', 'Vancouver', 'Canucks', '14', 'MTL', 'Montreal', 'Canadiens', '4', 'Bell Centre', '14', 'MTL', 'Montreal', 'Canadiens', '1', '0', '0', '0', '2', '29', '31', '48.3', '3', '0', '0.0', '5', '0', '100.0', '0', '0', '3', '0', '21', '5', '10', '19']"
"['', '32785', '2016-11-04', '23:00:00 GMT', '14', 'MTL', 'Montreal', 'Canadiens', '19', 'CBJ', 'Columbus', 'Blue Jackets', '17', 'Nationwide Arena', '14', 'MTL', 'Montreal', 'Canadiens', '0', '1', '0', '0', '0', '45', '36', '55.6', '1', '0', '0.0', '5', '4', '20.0', '0', '0', '0', '10', '30', '5', '12', '15']"
"['', '32791', '2016-11-05', '23:00:00 GMT', '6', 'PHI', 'Philadelphia', 'Flyers', '14', 'MTL', 'Montreal', 'Canadiens', '4', 'Bell Centre', '14', 'MTL', 'Montreal', 'Canadiens', '1', '0', '0', '0', '2', '31', '28', '52.5', '3', '0', '0.0', '5', '2', '60.0', '1', '0', '5', '4', '17', '4', '10', '24']"
"['', '32816', '2016-11-08', '00:30:00 GMT', '11', 'BOS', 'Boston', 'Bruins', '14', 'MTL', 'Montreal', 'Canadiens', '4', 'Bell Centre', '14', 'MTL', 'Montreal', 'Canadiens', '1', '0', '0', '0', '2', '28', '34', '45.2', '2', '1', '50.0', '2', '1', '50.0', '0', '0', '3', '2', '23', '2', '4', '26']"
"['', '32825', '2016-11-10', '00:30:00 GMT', '28', 'LAK', 'Los Angeles', 'Kings', '14', 'MTL', 'Montreal', 'Canadiens', '4', 'Bell Centre', '14', 'MTL', 'Montreal', 'Canadiens', '1', '0', '0', '0', '2', '30', '33', '47.6', '2', '0', '0.0', '5', '1', '80.0', '0', '0', '4', '1', '23', '4', '10', '21']"
"['', '32838', '2016-11-12', '00:00:00 GMT', '16', 'DET', 'Detroit', 'Red Wings', '14', 'MTL', 'Montreal', 'Canadiens', '4', 'Bell Centre', '14', 'MTL', 'Montreal', 'Canadiens', '1', '0', '0', '0', '2', '24', '31', '43.6', '3', '2', '66.7', '5', '0', '100.0', '0', '0', '5', '0', '37', '5', '12', '14']"
"['', '32852', '2016-11-13', '00:00:00 GMT', '14', 'MTL', 'Montreal', 'Canadiens', '20', 'CHI', 'Chicago', 'Blackhawks', '28', 'United Center', '14', 'MTL', 'Montreal', 'Canadiens', '0', '1', '0', '0', '0', '30', '36', '45.5', '2', '1', '50.0', '2', '0', '100.0', '0', '0', '2', '3', '23', '3', '6', '39']"
"['', '32860', '2016-11-15', '00:30:00 GMT', '4', 'FLO', 'Florida', 'Panthers', '14', 'MTL', 'Montreal', 'Canadiens', '4', 'Bell Centre', '14', 'MTL', 'Montreal', 'Canadiens', '0', '0', '0', '1', '1', '30', '28', '51.7', '3', '1', '33.3', '3', '0', '100.0', '0', '0', '3', '4', '37', '3', '6', '25']"
"['', '32884', '2016-11-18', '00:30:00 GMT', '14', 'MTL', 'Montreal', 'Canadiens', '3', 'CAR', 'Carolina', 'Hurricanes', '21', 'RBC Center', '14', 'MTL', 'Montreal', 'Canadiens', '0', '1', '0', '0', '0', '27', '25', '51.9', '1', '0', '0.0', '2', '0', '100.0', '0', '0', '2', '3', '33', '4', '16', '30']"
"['', '32890', '2016-11-19', '00:00:00 GMT', '12', 'TOR', 'Toronto', 'Maple Leafs', '14', 'MTL', 'Montreal', 'Canadiens', '4', 'Bell Centre', '14', 'MTL', 'Montreal', 'Canadiens', '1', '0', '0', '0', '2', '31', '28', '52.5', '5', '1', '20.0', '4', '1', '75.0', '0', '0', '2', '1', '29', '6', '15', '33']"
"['', '32911', '2016-11-22', '00:30:00 GMT', '13', 'OTT', 'Ottawa', 'Senators', '14', 'MTL', 'Montreal', 'Canadiens', '4', 'Bell Centre', '14', 'MTL', 'Montreal', 'Canadiens', '0', '1', '0', '0', '0', '39', '32', '54.9', '7', '2', '28.6', '4', '1', '75.0', '0', '0', '3', '4', '39', '7', '17', '26']"
"['', '32926', '2016-11-24', '00:30:00 GMT', '3', 'CAR', 'Carolina', 'Hurricanes', '14', 'MTL', 'Montreal', 'Canadiens', '4', 'Bell Centre', '14', 'MTL', 'Montreal', 'Canadiens', '1', '0', '0', '0', '2', '26', '29', '47.3', '2', '0', '0.0', '3', '0', '100.0', '0', '0', '2', '1', '22', '3', '6', '28']"
"['', '32941', '2016-11-26', '00:00:00 GMT', '14', 'MTL', 'Montreal', 'Canadiens', '16', 'DET', 'Detroit', 'Red Wings', '11', 'Joe Louis Arena', '14', 'MTL', 'Montreal', 'Canadiens', '1', '0', '0', '0', '2', '27', '34', '44.3', '1', '0', '0.0', '3', '0', '100.0', '0', '0', '2', '1', '24', '4', '8', '26']"
"['', '32966', '2016-11-29', '03:00:00 GMT', '14', 'MTL', 'Montreal', 'Canadiens', '29', 'ANA', 'Anaheim', 'Ducks', '8', 'Honda Center', '14', 'MTL', 'Montreal', 'Canadiens', '0', '1', '0', '0', '0', '32', '36', '47.1', '3', '0', '0.0', '5', '1', '80.0', '0', '0', '1', '2', '40', '6', '23', '15']"
"['', '32984', '2016-12-02', '03:30:00 GMT', '14', 'MTL', 'Montreal', 'Canadiens', '26', 'SJS', 'San Jose', 'Sharks', '9', 'SAP Center at San Jose', '14', 'MTL', 'Montreal', 'Canadiens', '0', '1', '0', '0', '0', '26', '39', '40.0', '4', '1', '25.0', '3', '1', '66.7', '0', '0', '1', '2', '32', '3', '6', '21']"
"['', '33003', '2016-12-04', '19:00:00 GMT', '14', 'MTL', 'Montreal', 'Canadiens', '28', 'LAK', 'Los Angeles', 'Kings', '25', 'Staples Center', '14', 'MTL', 'Montreal', 'Canadiens', '1', '0', '0', '0', '2', '28', '39', '41.8', '5', '2', '40.0', '4', '2', '50.0', '0', '0', '4', '4', '30', '4', '8', '29']"
"['', '33012', '2016-12-06', '01:00:00 GMT', '14', 'MTL', 'Montreal', 'Canadiens', '17', 'STL', 'St. Louis', 'Blues', '24', 'Scottrade Center', '14', 'MTL', 'Montreal', 'Canadiens', '0', '0', '0', '1', '1', '29', '38', '43.3', '5', '0', '0.0', '4', '0', '100.0', '0', '0', '2', '3', '30', '4', '8', '12']"
"['', '33024', '2016-12-08', '00:30:00 GMT', '7', 'NJD', 'New Jersey', 'Devils', '14', 'MTL', 'Montreal', 'Canadiens', '4', 'Bell Centre', '14', 'MTL', 'Montreal', 'Canadiens', '1', '0', '0', '0', '2', '41', '31', '56.9', '2', '0', '0.0', '3', '1', '66.7', '0', '0', '5', '2', '49', '4', '8', '26']"
"['', '33040', '2016-12-10', '00:00:00 GMT', '22', 'COL', 'Colorado', 'Avalanche', '14', 'MTL', 'Montreal', 'Canadiens', '4', 'Bell Centre', '14', 'MTL', 'Montreal', 'Canadiens', '1', '0', '0', '0', '2', '40', '17', '70.2', '2', '1', '50.0', '3', '0', '100.0', '0', '0', '10', '1', '36', '5', '10', '11']"
"['', '33056', '2016-12-12', '00:30:00 GMT', '11', 'BOS', 'Boston', 'Bruins', '14', 'MTL', 'Montreal', 'Canadiens', '4', 'Bell Centre', '14', 'MTL', 'Montreal', 'Canadiens', '0', '0', '0', '1', '1', '28', '31', '47.5', '5', '0', '0.0', '1', '0', '100.0', '0', '0', '1', '2', '31', '3', '9', '31']"
"['', '33081', '2016-12-16', '00:30:00 GMT', '26', 'SJS', 'San Jose', 'Sharks', '14', 'MTL', 'Montreal', 'Canadiens', '4', 'Bell Centre', '14', 'MTL', 'Montreal', 'Canadiens', '0', '1', '0', '0', '0', '34', '23', '59.6', '3', '0', '0.0', '5', '2', '60.0', '0', '0', '2', '4', '28', '5', '10', '26']"
"['', '33091', '2016-12-17', '00:00:00 GMT', '14', 'MTL', 'Montreal', 'Canadiens', '5', 'WSH', 'Washington', 'Capitals', '13', 'Verizon Center', '14', 'MTL', 'Montreal', 'Canadiens', '1', '0', '0', '0', '2', '30', '29', '50.8', '2', '0', '0.0', '6', '1', '83.3', '0', '0', '2', '1', '25', '6', '20', '18']"
"['', '33111', '2016-12-20', '00:30:00 GMT', '29', 'ANA', 'Anaheim', 'Ducks', '14', 'MTL', 'Montreal', 'Canadiens', '4', 'Bell Centre', '14', 'MTL', 'Montreal', 'Canadiens', '1', '0', '0', '0', '2', '26', '31', '45.6', '6', '2', '33.3', '3', '0', '100.0', '0', '0', '5', '1', '34', '3', '6', '13']"
"['', '33124', '2016-12-22', '00:30:00 GMT', '25', 'MIN', 'Minnesota', 'Wild', '14', 'MTL', 'Montreal', 'Canadiens', '4', 'Bell Centre', '14', 'MTL', 'Montreal', 'Canadiens', '0', '1', '0', '0', '0', '36', '29', '55.4', '4', '0', '0.0', '4', '0', '100.0', '1', '1', '2', '4', '34', '4', '8', '18']"
"['', '33135', '2016-12-23', '00:00:00 GMT', '14', 'MTL', 'Montreal', 'Canadiens', '19', 'CBJ', 'Columbus', 'Blue Jackets', '17', 'Nationwide Arena', '14', 'MTL', 'Montreal', 'Canadiens', '0', '1', '0', '0', '0', '35', '32', '52.2', '2', '0', '0.0', '4', '1', '75.0', '0', '0', '1', '2', '37', '4', '8', '14']"
"['', '33155', '2016-12-28', '00:30:00 GMT', '14', 'MTL', 'Montreal', 'Canadiens', '1', 'TBL', 'Tampa Bay', 'Lightning', '26', 'Amalie Arena', '14', 'MTL', 'Montreal', 'Canadiens', '0', '0', '0', '1', '1', '28', '26', '51.9', '2', '1', '50.0', '3', '1', '66.7', '0', '0', '3', '4', '22', '3', '6', '16']"
"['', '33162', '2016-12-29', '00:30:00 GMT', '14', 'MTL', 'Montreal', 'Canadiens', '4', 'FLO', 'Florida', 'Panthers', '3', 'BB&T Center', '14', 'MTL', 'Montreal', 'Canadiens', '1', '0', '0', '0', '2', '36', '34', '51.4', '2', '1', '50.0', '3', '1', '66.7', '0', '0', '3', '2', '41', '4', '11', '8']"
"['', '33178', '2016-12-31', '00:00:00 GMT', '14', 'MTL', 'Montreal', 'Canadiens', '10', 'PIT', 'Pittsburgh', 'Penguins', '40', 'PPG Paints Arena', '14', 'MTL', 'Montreal', 'Canadiens', '0', '0', '0', '1', '1', '37', '30', '55.2', '2', '0', '0.0', '5', '1', '80.0', '0', '0', '3', '4', '40', '5', '10', '26']"
"['', '33196', '2017-01-03', '01:00:00 GMT', '14', 'MTL', 'Montreal', 'Canadiens', '18', 'NSH', 'Nashville', 'Predators', '15', 'Bridgestone Arena', '14', 'MTL', 'Montreal', 'Canadiens', '1', '0', '0', '0', '2', '38', '26', '59.4', '3', '0', '0.0', '2', '0', '100.0', '0', '0', '2', '1', '43', '3', '6', '16']"
"['', '33200', '2017-01-04', '01:00:00 GMT', '14', 'MTL', 'Montreal', 'Canadiens', '27', 'DAL', 'Dallas', 'Stars', '2', 'American Airlines Center', '14', 'MTL', 'Montreal', 'Canadiens', '1', '0', '0', '0', '2', '35', '39', '47.3', '3', '2', '66.7', '2', '1', '50.0', '0', '0', '4', '3', '33', '3', '9', '15']"
"['', '37737', '2017-01-07', '00:00:00 GMT', '14', 'MTL', 'Montreal', 'Canadiens', '12', 'TOR', 'Toronto', 'Maple Leafs', '1', 'Air Canada Center', '14', 'MTL', 'Montreal', 'Canadiens', '1', '0', '0', '0', '2', '27', '34', '44.3', '5', '2', '40.0', '4', '2', '50.0', '0', '0', '5', '3', '31', '11', '36', '25']"
"['', '33236', '2017-01-09', '00:30:00 GMT', '5', 'WSH', 'Washington', 'Capitals', '14', 'MTL', 'Montreal', 'Canadiens', '4', 'Bell Centre', '14', 'MTL', 'Montreal', 'Canadiens', '0', '1', '0', '0', '0', '31', '27', '53.4', '4', '1', '25.0', '2', '1', '50.0', '0', '0', '1', '4', '23', '2', '4', '27']"
"['', '33247', '2017-01-11', '00:30:00 GMT', '14', 'MTL', 'Montreal', 'Canadiens', '2', 'WPJ', 'Winnipeg', 'Jets', '39', 'MTS Centre', '14', 'MTL', 'Montreal', 'Canadiens', '1', '0', '0', '0', '2', '29', '33', '46.8', '2', '1', '50.0', '4', '1', '75.0', '0', '0', '7', '4', '30', '4', '8', '7']"
"['', '33254', '2017-01-12', '01:00:00 GMT', '14', 'MTL', 'Montreal', 'Canadiens', '25', 'MIN', 'Minnesota', 'Wild', '30', 'Xcel Energy Center', '14', 'MTL', 'Montreal', 'Canadiens', '0', '1', '0', '0', '0', '24', '29', '45.3', '1', '1', '100.0', '4', '2', '50.0', '0', '0', '1', '7', '21', '4', '10', '18']"
"['', '33268', '2017-01-14', '00:00:00 GMT', '9', 'NYR', 'New York', 'Rangers', '14', 'MTL', 'Montreal', 'Canadiens', '4', 'Bell Centre', '14', 'MTL', 'Montreal', 'Canadiens', '1', '0', '0', '0', '2', '36', '23', '61.0', '2', '0', '0.0', '3', '1', '66.7', '0', '1', '5', '4', '32', '5', '24', '13']"
"['', '33284', '2017-01-16', '20:00:00 GMT', '14', 'MTL', 'Montreal', 'Canadiens', '16', 'DET', 'Detroit', 'Red Wings', '11', 'Joe Louis Arena', '14', 'MTL', 'Montreal', 'Canadiens', '0', '1', '0', '0', '0', '30', '25', '54.5', '1', '0', '0.0', '4', '0', '100.0', '0', '0', '0', '1', '18', '4', '8', '16']"
"['', '33298', '2017-01-18', '00:30:00 GMT', '10', 'PIT', 'Pittsburgh', 'Penguins', '14', 'MTL', 'Montreal', 'Canadiens', '4', 'Bell Centre', '14', 'MTL', 'Montreal', 'Canadiens', '0', '1', '0', '0', '0', '34', '31', '52.3', '1', '0', '0.0', '2', '0', '100.0', '0', '0', '1', '4', '20', '2', '4', '24']"
"['', '33314', '2017-01-20', '00:30:00 GMT', '14', 'MTL', 'Montreal', 'Canadiens', '7', 'NJD', 'New Jersey', 'Devils', '37', 'Prudential Center', '14', 'MTL', 'Montreal', 'Canadiens', '1', '0', '0', '0', '2', '34', '26', '56.7', '5', '3', '60.0', '2', '0', '100.0', '0', '0', '3', '1', '26', '3', '6', '23']"
"['', '33320', '2017-01-21', '00:00:00 GMT', '15', 'BUF', 'Buffalo', 'Sabres', '14', 'MTL', 'Montreal', 'Canadiens', '4', 'Bell Centre', '14', 'MTL', 'Montreal', 'Canadiens', '0', '0', '0', '1', '1', '27', '28', '49.1', '1', '0', '0.0', '3', '0', '100.0', '0', '0', '2', '3', '38', '3', '6', '7']"
"['', '33344', '2017-01-24', '00:30:00 GMT', '23', 'CGY', 'Calgary', 'Flames', '14', 'MTL', 'Montreal', 'Canadiens', '4', 'Bell Centre', '14', 'MTL', 'Montreal', 'Canadiens', '1', '0', '0', '0', '2', '30', '23', '56.6', '3', '2', '66.7', '5', '1', '80.0', '1', '0', '5', '1', '20', '6', '12', '16']"
"['', '33356', '2017-01-26', '00:00:00 GMT', '14', 'MTL', 'Montreal', 'Canadiens', '8', 'NYI', 'New York', 'Islanders', '35', 'Ericsson Globe', '14', 'MTL', 'Montreal', 'Canadiens', '0', '1', '0', '0', '0', '25', '31', '44.6', '3', '1', '33.3', '4', '1', '75.0', '0', '0', '1', '3', '22', '5', '10', '13']"
"['', '33371', '2017-01-31', '00:30:00 GMT', '15', 'BUF', 'Buffalo', 'Sabres', '14', 'MTL', 'Montreal', 'Canadiens', '4', 'Bell Centre', '14', 'MTL', 'Montreal', 'Canadiens', '1', '0', '0', '0', '2', '25', '26', '49.0', '1', '0', '0.0', '3', '1', '66.7', '0', '0', '5', '2', '35', '3', '6', '16']"
"['', '33385', '2017-02-02', '00:00:00 GMT', '14', 'MTL', 'Montreal', 'Canadiens', '6', 'PHI', 'Philadelphia', 'Flyers', '29', 'Wells Fargo Center', '14', 'MTL', 'Montreal', 'Canadiens', '0', '1', '0', '0', '0', '23', '27', '46.0', '1', '0', '0.0', '3', '1', '66.7', '0', '0', '1', '3', '16', '3', '6', '19']"
"['', '33397', '2017-02-04', '18:00:00 GMT', '5', 'WSH', 'Washington', 'Capitals', '14', 'MTL', 'Montreal', 'Canadiens', '4', 'Bell Centre', '14', 'MTL', 'Montreal', 'Canadiens', '0', '1', '0', '0', '0', '25', '28', '47.2', '3', '0', '0.0', '4', '1', '75.0', '0', '0', '2', '3', '22', '5', '10', '25']"
"['', '33411', '2017-02-05', '18:00:00 GMT', '24', 'EDM', 'Edmonton', 'Oilers', '14', 'MTL', 'Montreal', 'Canadiens', '4', 'Bell Centre', '14', 'MTL', 'Montreal', 'Canadiens', '0', '0', '0', '1', '1', '33', '27', '55.0', '1', '0', '0.0', '4', '0', '100.0', '0', '0', '0', '0', '22', '5', '10', '25']"
"['', '33426', '2017-02-07', '02:00:00 GMT', '14', 'MTL', 'Montreal', 'Canadiens', '22', 'COL', 'Colorado', 'Avalanche', '19', 'Pepsi Center', '14', 'MTL', 'Montreal', 'Canadiens', '0', '1', '0', '0', '0', '24', '36', '40.0', '5', '0', '0.0', '2', '1', '50.0', '0', '0', '0', '4', '27', '3', '6', '6']"
"['', '33438', '2017-02-09', '02:00:00 GMT', '14', 'MTL', 'Montreal', 'Canadiens', '30', 'ARI', 'Arizona', 'Coyotes', '6', 'Gila River Arena', '14', 'MTL', 'Montreal', 'Canadiens', '1', '0', '0', '0', '2', '33', '38', '46.5', '2', '1', '50.0', '3', '1', '66.7', '0', '1', '5', '4', '40', '4', '8', '20']"
"['', '33448', '2017-02-11', '00:00:00 GMT', '17', 'STL', 'St. Louis', 'Blues', '14', 'MTL', 'Montreal', 'Canadiens', '4', 'Bell Centre', '14', 'MTL', 'Montreal', 'Canadiens', '0', '1', '0', '0', '0', '39', '17', '69.6', '1', '0', '0.0', '1', '0', '100.0', '0', '0', '2', '4', '30', '2', '7', '32']"
"['', '33458', '2017-02-12', '00:30:00 GMT', '14', 'MTL', 'Montreal', 'Canadiens', '11', 'BOS', 'Boston', 'Bruins', '27', 'TD Garden', '14', 'MTL', 'Montreal', 'Canadiens', '0', '1', '0', '0', '0', '32', '36', '47.1', '6', '0', '0.0', '7', '1', '85.7', '0', '1', '0', '4', '25', '8', '24', '29']"
"['', '33485', '2017-02-18', '19:00:00 GMT', '2', 'WPJ', 'Winnipeg', 'Jets', '14', 'MTL', 'Montreal', 'Canadiens', '4', 'Bell Centre', '14', 'MTL', 'Montreal', 'Canadiens', '0', '1', '0', '0', '0', '21', '35', '37.5', '4', '0', '0.0', '3', '0', '100.0', '0', '1', '1', '3', '20', '3', '6', '33']"
"['', '33509', '2017-02-21', '00:00:00 GMT', '14', 'MTL', 'Montreal', 'Canadiens', '9', 'NYR', 'New York', 'Rangers', '12', 'Madison Square Garden', '14', 'MTL', 'Montreal', 'Canadiens', '1', '0', '0', '0', '2', '31', '28', '52.5', '3', '1', '33.3', '4', '0', '100.0', '0', '0', '2', '2', '28', '4', '8', '26']"
"['', '33521', '2017-02-23', '00:30:00 GMT', '8', 'NYI', 'New York', 'Islanders', '14', 'MTL', 'Montreal', 'Canadiens', '4', 'Bell Centre', '14', 'MTL', 'Montreal', 'Canadiens', '0', '1', '0', '0', '0', '32', '27', '54.2', '1', '0', '0.0', '2', '0', '100.0', '0', '0', '0', '3', '24', '3', '6', '32']"
"['', '33534', '2017-02-25', '00:00:00 GMT', '14', 'MTL', 'Montreal', 'Canadiens', '12', 'TOR', 'Toronto', 'Maple Leafs', '1', 'Air Canada Center', '14', 'MTL', 'Montreal', 'Canadiens', '1', '0', '0', '0', '2', '30', '26', '53.6', '4', '1', '25.0', '2', '0', '100.0', '0', '0', '3', '2', '28', '2', '4', '37']"
"['', '33545', '2017-02-27', '00:00:00 GMT', '14', 'MTL', 'Montreal', 'Canadiens', '7', 'NJD', 'New Jersey', 'Devils', '37', 'Prudential Center', '14', 'MTL', 'Montreal', 'Canadiens', '1', '0', '0', '0', '2', '32', '36', '47.1', '2', '1', '50.0', '2', '1', '50.0', '0', '0', '4', '3', '33', '4', '8', '28']"
"['', '33552', '2017-02-28', '00:30:00 GMT', '19', 'CBJ', 'Columbus', 'Blue Jackets', '14', 'MTL', 'Montreal', 'Canadiens', '4', 'Bell Centre', '14', 'MTL', 'Montreal', 'Canadiens', '1', '0', '0', '0', '2', '23', '45', '33.8', '4', '1', '25.0', '2', '0', '100.0', '0', '0', '1', '0', '30', '2', '4', '28']"
"['', '33567', '2017-03-02', '00:30:00 GMT', '18', 'NSH', 'Nashville', 'Predators', '14', 'MTL', 'Montreal', 'Canadiens', '4', 'Bell Centre', '14', 'MTL', 'Montreal', 'Canadiens', '1', '0', '0', '0', '2', '32', '39', '45.1', '3', '0', '0.0', '2', '1', '50.0', '0', '0', '2', '1', '26', '2', '4', '28']"
"['', '33582', '2017-03-04', '00:00:00 GMT', '14', 'MTL', 'Montreal', 'Canadiens', '9', 'NYR', 'New York', 'Rangers', '12', 'Madison Square Garden', '14', 'MTL', 'Montreal', 'Canadiens', '1', '0', '0', '0', '2', '35', '21', '62.5', '1', '0', '0.0', '0', '0', '0.0', '0', '0', '4', '1', '35', '1', '2', '35']"
"['', '33606', '2017-03-07', '03:00:00 GMT', '14', 'MTL', 'Montreal', 'Canadiens', '21', 'VAN', 'Vancouver', 'Canucks', '7', 'Rogers Arena', '14', 'MTL', 'Montreal', 'Canadiens', '1', '0', '0', '0', '2', '36', '28', '56.2', '3', '0', '0.0', '1', '0', '100.0', '0', '0', '2', '1', '38', '1', '2', '18']"
"['', '33616', '2017-03-09', '02:00:00 GMT', '14', 'MTL', 'Montreal', 'Canadiens', '23', 'CGY', 'Calgary', 'Flames', '18', 'Scotiabank Saddledome', '14', 'MTL', 'Montreal', 'Canadiens', '0', '1', '0', '0', '0', '34', '31', '52.3', '2', '0', '0.0', '1', '0', '100.0', '0', '0', '0', '5', '24', '3', '12', '16']"
"['', '33639', '2017-03-12', '23:00:00 GMT', '14', 'MTL', 'Montreal', 'Canadiens', '24', 'EDM', 'Edmonton', 'Oilers', '22', 'Rogers Place', '14', 'MTL', 'Montreal', 'Canadiens', '1', '0', '0', '0', '2', '20', '41', '32.8', '2', '0', '0.0', '3', '0', '100.0', '0', '0', '4', '1', '41', '4', '13', '20']"
"['', '33653', '2017-03-14', '23:30:00 GMT', '20', 'CHI', 'Chicago', 'Blackhawks', '14', 'MTL', 'Montreal', 'Canadiens', '4', 'Bell Centre', '14', 'MTL', 'Montreal', 'Canadiens', '0', '1', '0', '0', '0', '40', '25', '61.5', '2', '0', '0.0', '1', '0', '100.0', '0', '0', '2', '4', '42', '1', '2', '28']"
"['', '33682', '2017-03-18', '23:00:00 GMT', '14', 'MTL', 'Montreal', 'Canadiens', '13', 'OTT', 'Ottawa', 'Senators', '23', 'Canadian Tire Centre', '14', 'MTL', 'Montreal', 'Canadiens', '1', '0', '0', '0', '2', '22', '34', '39.3', '2', '0', '0.0', '4', '1', '75.0', '0', '0', '3', '3', '32', '4', '8', '26']"
"['', '33694', '2017-03-19', '23:30:00 GMT', '13', 'OTT', 'Ottawa', 'Senators', '14', 'MTL', 'Montreal', 'Canadiens', '4', 'Bell Centre', '14', 'MTL', 'Montreal', 'Canadiens', '1', '0', '0', '0', '2', '35', '27', '56.5', '3', '1', '33.3', '2', '0', '100.0', '0', '0', '4', '1', '37', '7', '17', '29']"
"['', '33705', '2017-03-21', '23:30:00 GMT', '16', 'DET', 'Detroit', 'Red Wings', '14', 'MTL', 'Montreal', 'Canadiens', '4', 'Bell Centre', '14', 'MTL', 'Montreal', 'Canadiens', '0', '0', '0', '1', '1', '35', '32', '52.2', '3', '0', '0.0', '1', '1', '0.0', '0', '0', '1', '2', '36', '1', '2', '32']"
"['', '33718', '2017-03-23', '23:30:00 GMT', '3', 'CAR', 'Carolina', 'Hurricanes', '14', 'MTL', 'Montreal', 'Canadiens', '4', 'Bell Centre', '14', 'MTL', 'Montreal', 'Canadiens', '0', '1', '0', '0', '0', '21', '39', '35.0', '1', '0', '0.0', '2', '1', '50.0', '0', '0', '1', '4', '22', '2', '4', '37']"
"['', '33734', '2017-03-25', '23:00:00 GMT', '13', 'OTT', 'Ottawa', 'Senators', '14', 'MTL', 'Montreal', 'Canadiens', '4', 'Bell Centre', '14', 'MTL', 'Montreal', 'Canadiens', '1', '0', '0', '0', '2', '32', '23', '58.2', '4', '2', '50.0', '3', '0', '100.0', '0', '0', '3', '1', '24', '8', '19', '31']"
"['', '33758', '2017-03-28', '23:30:00 GMT', '27', 'DAL', 'Dallas', 'Stars', '14', 'MTL', 'Montreal', 'Canadiens', '4', 'Bell Centre', '14', 'MTL', 'Montreal', 'Canadiens', '1', '0', '0', '0', '2', '33', '30', '52.4', '1', '0', '0.0', '1', '0', '100.0', '0', '0', '4', '1', '36', '2', '7', '39']"
"['', '33770', '2017-03-30', '23:30:00 GMT', '4', 'FLO', 'Florida', 'Panthers', '14', 'MTL', 'Montreal', 'Canadiens', '4', 'Bell Centre', '14', 'MTL', 'Montreal', 'Canadiens', '1', '0', '0', '0', '2', '35', '27', '56.5', '1', '0', '0.0', '3', '0', '100.0', '0', '0', '6', '2', '33', '6', '20', '19']"
"['', '33786', '2017-04-01', '23:00:00 GMT', '14', 'MTL', 'Montreal', 'Canadiens', '1', 'TBL', 'Tampa Bay', 'Lightning', '26', 'Amalie Arena', '14', 'MTL', 'Montreal', 'Canadiens', '1', '0', '0', '0', '2', '31', '24', '56.4', '2', '0', '0.0', '2', '0', '100.0', '0', '0', '2', '1', '36', '2', '4', '19']"
"['', '33804', '2017-04-03', '23:30:00 GMT', '14', 'MTL', 'Montreal', 'Canadiens', '4', 'FLO', 'Florida', 'Panthers', '3', 'BB&T Center', '14', 'MTL', 'Montreal', 'Canadiens', '1', '0', '0', '0', '2', '29', '29', '50.0', '2', '0', '0.0', '2', '0', '100.0', '0', '0', '4', '1', '31', '3', '9', '18']"
"['', '33818', '2017-04-05', '23:30:00 GMT', '14', 'MTL', 'Montreal', 'Canadiens', '15', 'BUF', 'Buffalo', 'Sabres', '10', 'KeyBank Center', '14', 'MTL', 'Montreal', 'Canadiens', '0', '1', '0', '0', '0', '28', '16', '63.6', '1', '0', '0.0', '0', '0', '0.0', '0', '0', '1', '2', '32', '0', '0', '9']"
"['', '33832', '2017-04-07', '23:30:00 GMT', '1', 'TBL', 'Tampa Bay', 'Lightning', '14', 'MTL', 'Montreal', 'Canadiens', '4', 'Bell Centre', '14', 'MTL', 'Montreal', 'Canadiens', '0', '1', '0', '0', '0', '34', '29', '54.0', '4', '0', '0.0', '2', '0', '100.0', '1', '0', '2', '4', '29', '2', '4', '36']"
"['', '33838', '2017-04-08', '23:00:00 GMT', '14', 'MTL', 'Montreal', 'Canadiens', '16', 'DET', 'Detroit', 'Red Wings', '11', 'Joe Louis Arena', '14', 'MTL', 'Montreal', 'Canadiens', '1', '0', '0', '0', '2', '27', '22', '55.1', '1', '1', '100.0', '0', '0', '0.0', '0', '0', '3', '2', '30', '0', '0', '36']"
