"['#Date/Time of Update: 2018-12-10 19:03:20 GMT', '#Game ID', '#Game Date', '#Game Time', '#Away Team ID', '#Away Team Abbr.', '#Away Team City', '#Away Team Name', '#Home Team ID', '#Home Team Abbr.', '#Home Team City', '#Home Team Name', '#Venue ID', '#Venue Name', '#Team ID', '#Team Abbr.', '#Team City', '#Team Name', '#Wins', '#Losses', '#OvertimeWins', '#OvertimeLosses', '#Points', '#FaceoffWins', '#FaceoffLosses', '#FaceoffPercent', '#Powerplays', '#PowerplayGoals', '#PowerplayPercent', '#PenaltyKills', '#PenaltyKillGoalsAllowed', '#PenaltyKillPercent', '#ShorthandedGoalsFor', '#ShorthandedGoalsAgainst', '#GoalsFor', '#GoalsAgainst', '#Shots', '#Penalties', '#PenaltyMinutes', '#Hits']"
"['', '32640', '2016-10-13', '00:00:00 GMT', '3', 'CAR', 'Carolina', 'Hurricanes', '2', 'WPJ', 'Winnipeg', 'Jets', '39', 'MTS Centre', '3', 'CAR', 'Carolina', 'Hurricanes', '0', '0', '0', '1', '1', '34', '19', '64.2', '4', '2', '50.0', '5', '1', '80.0', '0', '1', '4', '5', '27', '5', '12', '15']"
"['', '32660', '2016-10-16', '02:00:00 GMT', '3', 'CAR', 'Carolina', 'Hurricanes', '21', 'VAN', 'Vancouver', 'Canucks', '7', 'Rogers Arena', '3', 'CAR', 'Carolina', 'Hurricanes', '0', '0', '0', '1', '1', '30', '28', '51.7', '2', '1', '50.0', '2', '0', '100.0', '0', '0', '3', '4', '22', '2', '4', '24']"
"['', '32674', '2016-10-18', '01:00:00 GMT', '3', 'CAR', 'Carolina', 'Hurricanes', '24', 'EDM', 'Edmonton', 'Oilers', '22', 'Rogers Place', '3', 'CAR', 'Carolina', 'Hurricanes', '0', '1', '0', '0', '0', '35', '22', '61.4', '2', '0', '0.0', '3', '0', '100.0', '0', '0', '2', '3', '33', '3', '6', '18']"
"['', '32686', '2016-10-20', '01:00:00 GMT', '3', 'CAR', 'Carolina', 'Hurricanes', '23', 'CGY', 'Calgary', 'Flames', '18', 'Scotiabank Saddledome', '3', 'CAR', 'Carolina', 'Hurricanes', '1', '0', '0', '0', '2', '32', '27', '54.2', '8', '2', '25.0', '6', '0', '100.0', '0', '0', '4', '2', '32', '5', '12', '9']"
"['', '32697', '2016-10-22', '23:00:00 GMT', '3', 'CAR', 'Carolina', 'Hurricanes', '6', 'PHI', 'Philadelphia', 'Flyers', '29', 'Wells Fargo Center', '3', 'CAR', 'Carolina', 'Hurricanes', '0', '1', '0', '0', '0', '30', '29', '50.8', '5', '1', '20.0', '4', '1', '75.0', '0', '0', '3', '6', '30', '5', '10', '19']"
"['', '32715', '2016-10-25', '23:30:00 GMT', '3', 'CAR', 'Carolina', 'Hurricanes', '16', 'DET', 'Detroit', 'Red Wings', '11', 'Joe Louis Arena', '3', 'CAR', 'Carolina', 'Hurricanes', '0', '1', '0', '0', '0', '27', '24', '52.9', '3', '0', '0.0', '2', '0', '100.0', '0', '0', '2', '4', '31', '3', '6', '21']"
"['', '32735', '2016-10-28', '23:30:00 GMT', '9', 'NYR', 'New York', 'Rangers', '3', 'CAR', 'Carolina', 'Hurricanes', '21', 'RBC Center', '3', 'CAR', 'Carolina', 'Hurricanes', '1', '0', '0', '0', '2', '27', '18', '60.0', '1', '1', '100.0', '2', '1', '50.0', '0', '0', '3', '2', '21', '2', '4', '22']"
"['', '32752', '2016-10-30', '21:00:00 GMT', '6', 'PHI', 'Philadelphia', 'Flyers', '3', 'CAR', 'Carolina', 'Hurricanes', '21', 'RBC Center', '3', 'CAR', 'Carolina', 'Hurricanes', '0', '1', '0', '0', '0', '37', '26', '58.7', '2', '0', '0.0', '3', '1', '66.7', '0', '1', '3', '4', '29', '3', '6', '23']"
"['', '32762', '2016-11-01', '23:30:00 GMT', '3', 'CAR', 'Carolina', 'Hurricanes', '13', 'OTT', 'Ottawa', 'Senators', '23', 'Canadian Tire Centre', '3', 'CAR', 'Carolina', 'Hurricanes', '0', '0', '0', '1', '1', '33', '37', '47.1', '3', '0', '0.0', '2', '0', '100.0', '0', '0', '1', '2', '33', '5', '13', '14']"
"['', '32797', '2016-11-05', '00:00:00 GMT', '3', 'CAR', 'Carolina', 'Hurricanes', '18', 'NSH', 'Nashville', 'Predators', '15', 'Bridgestone Arena', '3', 'CAR', 'Carolina', 'Hurricanes', '1', '0', '0', '0', '2', '21', '37', '36.2', '3', '0', '0.0', '2', '0', '100.0', '1', '0', '2', '2', '25', '2', '4', '13']"
"['', '32803', '2016-11-06', '23:00:00 GMT', '7', 'NJD', 'New Jersey', 'Devils', '3', 'CAR', 'Carolina', 'Hurricanes', '21', 'RBC Center', '3', 'CAR', 'Carolina', 'Hurricanes', '0', '1', '0', '0', '0', '23', '27', '46.0', '4', '0', '0.0', '3', '0', '100.0', '0', '1', '1', '4', '34', '3', '6', '21']"
"['', '32810', '2016-11-08', '00:00:00 GMT', '3', 'CAR', 'Carolina', 'Hurricanes', '7', 'NJD', 'New Jersey', 'Devils', '37', 'Prudential Center', '3', 'CAR', 'Carolina', 'Hurricanes', '0', '0', '0', '1', '1', '30', '46', '39.5', '1', '1', '100.0', '3', '0', '100.0', '0', '0', '2', '2', '33', '3', '6', '22']"
"['', '32824', '2016-11-10', '00:00:00 GMT', '29', 'ANA', 'Anaheim', 'Ducks', '3', 'CAR', 'Carolina', 'Hurricanes', '21', 'RBC Center', '3', 'CAR', 'Carolina', 'Hurricanes', '0', '1', '0', '0', '0', '30', '30', '50.0', '2', '0', '0.0', '3', '0', '100.0', '0', '0', '2', '4', '30', '4', '11', '25']"
"['', '32844', '2016-11-12', '00:00:00 GMT', '5', 'WSH', 'Washington', 'Capitals', '3', 'CAR', 'Carolina', 'Hurricanes', '21', 'RBC Center', '3', 'CAR', 'Carolina', 'Hurricanes', '1', '0', '0', '0', '2', '34', '21', '61.8', '6', '1', '16.7', '2', '0', '100.0', '0', '0', '5', '1', '38', '3', '6', '15']"
"['', '32857', '2016-11-15', '00:00:00 GMT', '26', 'SJS', 'San Jose', 'Sharks', '3', 'CAR', 'Carolina', 'Hurricanes', '21', 'RBC Center', '3', 'CAR', 'Carolina', 'Hurricanes', '1', '0', '0', '0', '2', '34', '15', '69.4', '1', '0', '0.0', '1', '0', '100.0', '0', '0', '1', '0', '33', '1', '2', '14']"
"['', '32884', '2016-11-18', '00:30:00 GMT', '14', 'MTL', 'Montreal', 'Canadiens', '3', 'CAR', 'Carolina', 'Hurricanes', '21', 'RBC Center', '3', 'CAR', 'Carolina', 'Hurricanes', '1', '0', '0', '0', '2', '25', '27', '48.1', '2', '0', '0.0', '1', '0', '100.0', '0', '0', '3', '2', '18', '1', '2', '23']"
"['', '32899', '2016-11-20', '22:00:00 GMT', '2', 'WPJ', 'Winnipeg', 'Jets', '3', 'CAR', 'Carolina', 'Hurricanes', '21', 'RBC Center', '3', 'CAR', 'Carolina', 'Hurricanes', '1', '0', '0', '0', '2', '36', '23', '61.0', '7', '2', '28.6', '3', '0', '100.0', '0', '0', '3', '1', '40', '5', '10', '32']"
"['', '32910', '2016-11-22', '00:00:00 GMT', '3', 'CAR', 'Carolina', 'Hurricanes', '12', 'TOR', 'Toronto', 'Maple Leafs', '1', 'Air Canada Center', '3', 'CAR', 'Carolina', 'Hurricanes', '1', '0', '0', '0', '2', '24', '24', '50.0', '1', '1', '100.0', '3', '0', '100.0', '1', '0', '2', '1', '29', '3', '6', '30']"
"['', '32926', '2016-11-24', '00:30:00 GMT', '3', 'CAR', 'Carolina', 'Hurricanes', '14', 'MTL', 'Montreal', 'Canadiens', '4', 'Bell Centre', '3', 'CAR', 'Carolina', 'Hurricanes', '0', '1', '0', '0', '0', '29', '26', '52.7', '3', '0', '0.0', '2', '0', '100.0', '0', '0', '1', '2', '32', '2', '4', '19']"
"['', '32940', '2016-11-26', '00:00:00 GMT', '3', 'CAR', 'Carolina', 'Hurricanes', '13', 'OTT', 'Ottawa', 'Senators', '23', 'Canadian Tire Centre', '3', 'CAR', 'Carolina', 'Hurricanes', '0', '1', '0', '0', '0', '23', '27', '46.0', '1', '0', '0.0', '1', '0', '100.0', '0', '0', '1', '2', '33', '1', '2', '14']"
"['', '32950', '2016-11-27', '23:00:00 GMT', '4', 'FLO', 'Florida', 'Panthers', '3', 'CAR', 'Carolina', 'Hurricanes', '21', 'RBC Center', '3', 'CAR', 'Carolina', 'Hurricanes', '1', '0', '0', '0', '2', '23', '26', '46.9', '3', '1', '33.3', '4', '1', '75.0', '0', '0', '3', '2', '27', '4', '8', '23']"
"['', '32956', '2016-11-29', '00:00:00 GMT', '3', 'CAR', 'Carolina', 'Hurricanes', '9', 'NYR', 'New York', 'Rangers', '12', 'Madison Square Garden', '3', 'CAR', 'Carolina', 'Hurricanes', '0', '1', '0', '0', '0', '27', '20', '57.4', '2', '0', '0.0', '2', '1', '50.0', '0', '0', '2', '3', '28', '4', '8', '9']"
"['', '32971', '2016-12-01', '00:00:00 GMT', '3', 'CAR', 'Carolina', 'Hurricanes', '11', 'BOS', 'Boston', 'Bruins', '27', 'TD Garden', '3', 'CAR', 'Carolina', 'Hurricanes', '0', '0', '0', '1', '1', '29', '40', '42.0', '2', '1', '50.0', '4', '0', '100.0', '0', '0', '1', '1', '30', '4', '8', '20']"
"['', '32986', '2016-12-03', '18:00:00 GMT', '3', 'CAR', 'Carolina', 'Hurricanes', '9', 'NYR', 'New York', 'Rangers', '12', 'Madison Square Garden', '3', 'CAR', 'Carolina', 'Hurricanes', '0', '1', '0', '0', '0', '26', '22', '54.2', '3', '0', '0.0', '2', '0', '100.0', '0', '0', '2', '4', '28', '2', '4', '18']"
"['', '32997', '2016-12-04', '22:00:00 GMT', '1', 'TBL', 'Tampa Bay', 'Lightning', '3', 'CAR', 'Carolina', 'Hurricanes', '21', 'RBC Center', '3', 'CAR', 'Carolina', 'Hurricanes', '1', '0', '0', '0', '2', '22', '27', '44.9', '4', '0', '0.0', '5', '0', '100.0', '0', '0', '1', '0', '30', '5', '10', '17']"
"['', '33019', '2016-12-07', '03:30:00 GMT', '3', 'CAR', 'Carolina', 'Hurricanes', '29', 'ANA', 'Anaheim', 'Ducks', '8', 'Honda Center', '3', 'CAR', 'Carolina', 'Hurricanes', '0', '0', '0', '1', '1', '26', '36', '41.9', '5', '1', '20.0', '3', '0', '100.0', '0', '0', '5', '5', '34', '3', '6', '14']"
"['', '33030', '2016-12-08', '03:30:00 GMT', '3', 'CAR', 'Carolina', 'Hurricanes', '28', 'LAK', 'Los Angeles', 'Kings', '25', 'Staples Center', '3', 'CAR', 'Carolina', 'Hurricanes', '1', '0', '0', '0', '2', '18', '29', '38.3', '0', '0', '0.0', '3', '0', '100.0', '1', '0', '3', '1', '18', '3', '6', '11']"
"['', '33046', '2016-12-10', '03:30:00 GMT', '3', 'CAR', 'Carolina', 'Hurricanes', '26', 'SJS', 'San Jose', 'Sharks', '9', 'SAP Center at San Jose', '3', 'CAR', 'Carolina', 'Hurricanes', '0', '1', '0', '0', '0', '32', '24', '57.1', '2', '2', '100.0', '1', '0', '100.0', '1', '0', '3', '4', '33', '2', '4', '12']"
"['', '33060', '2016-12-13', '00:00:00 GMT', '21', 'VAN', 'Vancouver', 'Canucks', '3', 'CAR', 'Carolina', 'Hurricanes', '21', 'RBC Center', '3', 'CAR', 'Carolina', 'Hurricanes', '1', '0', '0', '0', '2', '32', '32', '50.0', '3', '2', '66.7', '2', '0', '100.0', '0', '0', '8', '6', '36', '3', '9', '11']"
"['', '33082', '2016-12-16', '00:30:00 GMT', '5', 'WSH', 'Washington', 'Capitals', '3', 'CAR', 'Carolina', 'Hurricanes', '21', 'RBC Center', '3', 'CAR', 'Carolina', 'Hurricanes', '0', '0', '0', '1', '1', '33', '25', '56.9', '6', '1', '16.7', '2', '1', '50.0', '0', '0', '3', '3', '30', '2', '4', '18']"
"['', '33092', '2016-12-17', '00:00:00 GMT', '15', 'BUF', 'Buffalo', 'Sabres', '3', 'CAR', 'Carolina', 'Hurricanes', '21', 'RBC Center', '3', 'CAR', 'Carolina', 'Hurricanes', '1', '0', '0', '0', '2', '28', '19', '59.6', '1', '0', '0.0', '0', '0', '0.0', '0', '0', '1', '1', '22', '0', '0', '20']"
"['', '33121', '2016-12-22', '00:00:00 GMT', '3', 'CAR', 'Carolina', 'Hurricanes', '15', 'BUF', 'Buffalo', 'Sabres', '10', 'KeyBank Center', '3', 'CAR', 'Carolina', 'Hurricanes', '1', '0', '0', '0', '2', '16', '31', '34.0', '4', '0', '0.0', '2', '0', '100.0', '0', '0', '3', '1', '34', '3', '9', '15']"
"['', '33137', '2016-12-23', '00:30:00 GMT', '11', 'BOS', 'Boston', 'Bruins', '3', 'CAR', 'Carolina', 'Hurricanes', '21', 'RBC Center', '3', 'CAR', 'Carolina', 'Hurricanes', '1', '0', '0', '0', '2', '30', '31', '49.2', '2', '0', '0.0', '3', '1', '66.7', '1', '0', '3', '2', '23', '3', '6', '26']"
"['', '33154', '2016-12-28', '00:00:00 GMT', '3', 'CAR', 'Carolina', 'Hurricanes', '10', 'PIT', 'Pittsburgh', 'Penguins', '40', 'PPG Paints Arena', '3', 'CAR', 'Carolina', 'Hurricanes', '0', '1', '0', '0', '0', '30', '31', '49.2', '0', '0', '0.0', '0', '0', '0.0', '0', '0', '2', '3', '46', '0', '0', '29']"
"['', '33170', '2016-12-30', '00:30:00 GMT', '20', 'CHI', 'Chicago', 'Blackhawks', '3', 'CAR', 'Carolina', 'Hurricanes', '21', 'RBC Center', '3', 'CAR', 'Carolina', 'Hurricanes', '1', '0', '0', '0', '2', '30', '23', '56.6', '1', '0', '0.0', '1', '0', '100.0', '0', '0', '3', '2', '28', '1', '2', '15']"
"['', '33177', '2016-12-31', '00:00:00 GMT', '3', 'CAR', 'Carolina', 'Hurricanes', '1', 'TBL', 'Tampa Bay', 'Lightning', '26', 'Amalie Arena', '3', 'CAR', 'Carolina', 'Hurricanes', '0', '1', '0', '0', '0', '26', '24', '52.0', '4', '0', '0.0', '3', '2', '33.3', '0', '0', '1', '3', '27', '3', '6', '14']"
"['', '33193', '2017-01-03', '00:00:00 GMT', '7', 'NJD', 'New Jersey', 'Devils', '3', 'CAR', 'Carolina', 'Hurricanes', '21', 'RBC Center', '3', 'CAR', 'Carolina', 'Hurricanes', '0', '1', '0', '0', '0', '29', '23', '55.8', '4', '0', '0.0', '2', '0', '100.0', '0', '0', '1', '3', '30', '2', '4', '12']"
"['', '33207', '2017-01-05', '01:00:00 GMT', '3', 'CAR', 'Carolina', 'Hurricanes', '17', 'STL', 'St. Louis', 'Blues', '24', 'Scottrade Center', '3', 'CAR', 'Carolina', 'Hurricanes', '1', '0', '0', '0', '2', '26', '28', '48.1', '5', '1', '20.0', '5', '1', '80.0', '0', '0', '4', '2', '29', '5', '10', '16']"
"['', '33213', '2017-01-06', '01:30:00 GMT', '3', 'CAR', 'Carolina', 'Hurricanes', '20', 'CHI', 'Chicago', 'Blackhawks', '28', 'United Center', '3', 'CAR', 'Carolina', 'Hurricanes', '0', '1', '0', '0', '0', '31', '32', '49.2', '3', '0', '0.0', '3', '1', '66.7', '0', '0', '1', '2', '40', '3', '6', '18']"
"['', '33230', '2017-01-08', '22:00:00 GMT', '11', 'BOS', 'Boston', 'Bruins', '3', 'CAR', 'Carolina', 'Hurricanes', '21', 'RBC Center', '3', 'CAR', 'Carolina', 'Hurricanes', '1', '0', '0', '0', '2', '30', '19', '61.2', '1', '0', '0.0', '1', '0', '100.0', '0', '0', '4', '3', '30', '1', '2', '12']"
"['', '33240', '2017-01-10', '00:00:00 GMT', '19', 'CBJ', 'Columbus', 'Blue Jackets', '3', 'CAR', 'Carolina', 'Hurricanes', '21', 'RBC Center', '3', 'CAR', 'Carolina', 'Hurricanes', '1', '0', '0', '0', '2', '31', '34', '47.7', '2', '0', '0.0', '4', '0', '100.0', '0', '0', '5', '3', '28', '4', '8', '15']"
"['', '33263', '2017-01-13', '00:30:00 GMT', '15', 'BUF', 'Buffalo', 'Sabres', '3', 'CAR', 'Carolina', 'Hurricanes', '21', 'RBC Center', '3', 'CAR', 'Carolina', 'Hurricanes', '1', '0', '0', '0', '2', '31', '21', '59.6', '4', '0', '0.0', '2', '0', '100.0', '0', '1', '5', '2', '38', '2', '4', '12']"
"['', '33272', '2017-01-14', '00:00:00 GMT', '8', 'NYI', 'New York', 'Islanders', '3', 'CAR', 'Carolina', 'Hurricanes', '21', 'RBC Center', '3', 'CAR', 'Carolina', 'Hurricanes', '1', '0', '0', '0', '2', '35', '25', '58.3', '0', '0', '0.0', '0', '0', '0.0', '0', '0', '7', '4', '45', '0', '0', '19']"
"['', '33290', '2017-01-17', '00:00:00 GMT', '3', 'CAR', 'Carolina', 'Hurricanes', '19', 'CBJ', 'Columbus', 'Blue Jackets', '17', 'Nationwide Arena', '3', 'CAR', 'Carolina', 'Hurricanes', '0', '1', '0', '0', '0', '30', '34', '46.9', '2', '0', '0.0', '4', '0', '100.0', '0', '0', '1', '4', '25', '4', '8', '9']"
"['', '33313', '2017-01-20', '00:00:00 GMT', '10', 'PIT', 'Pittsburgh', 'Penguins', '3', 'CAR', 'Carolina', 'Hurricanes', '21', 'RBC Center', '3', 'CAR', 'Carolina', 'Hurricanes', '0', '1', '0', '0', '0', '37', '28', '56.9', '3', '0', '0.0', '3', '1', '66.7', '1', '0', '1', '7', '28', '3', '6', '25']"
"['', '33318', '2017-01-21', '22:00:00 GMT', '3', 'CAR', 'Carolina', 'Hurricanes', '19', 'CBJ', 'Columbus', 'Blue Jackets', '17', 'Nationwide Arena', '3', 'CAR', 'Carolina', 'Hurricanes', '0', '1', '0', '0', '0', '26', '31', '45.6', '6', '1', '16.7', '1', '0', '100.0', '0', '0', '2', '3', '37', '2', '4', '12']"
"['', '33335', '2017-01-23', '00:00:00 GMT', '3', 'CAR', 'Carolina', 'Hurricanes', '5', 'WSH', 'Washington', 'Capitals', '13', 'Verizon Center', '3', 'CAR', 'Carolina', 'Hurricanes', '0', '1', '0', '0', '0', '25', '36', '41.0', '4', '1', '25.0', '2', '1', '50.0', '0', '0', '1', '6', '26', '4', '11', '27']"
"['', '33358', '2017-01-26', '00:00:00 GMT', '28', 'LAK', 'Los Angeles', 'Kings', '3', 'CAR', 'Carolina', 'Hurricanes', '21', 'RBC Center', '3', 'CAR', 'Carolina', 'Hurricanes', '0', '1', '0', '0', '0', '29', '24', '54.7', '4', '0', '0.0', '1', '0', '100.0', '0', '0', '0', '3', '22', '2', '4', '30']"
"['', '33370', '2017-01-31', '00:00:00 GMT', '6', 'PHI', 'Philadelphia', 'Flyers', '3', 'CAR', 'Carolina', 'Hurricanes', '21', 'RBC Center', '3', 'CAR', 'Carolina', 'Hurricanes', '1', '0', '0', '0', '2', '34', '25', '57.6', '6', '2', '33.3', '5', '1', '80.0', '0', '0', '5', '1', '28', '6', '12', '21']"
"['', '33396', '2017-02-03', '00:30:00 GMT', '24', 'EDM', 'Edmonton', 'Oilers', '3', 'CAR', 'Carolina', 'Hurricanes', '21', 'RBC Center', '3', 'CAR', 'Carolina', 'Hurricanes', '1', '0', '0', '0', '2', '29', '23', '55.8', '1', '1', '100.0', '3', '0', '100.0', '0', '0', '2', '1', '23', '3', '6', '14']"
"['', '33403', '2017-02-04', '00:00:00 GMT', '3', 'CAR', 'Carolina', 'Hurricanes', '8', 'NYI', 'New York', 'Islanders', '35', 'Ericsson Globe', '3', 'CAR', 'Carolina', 'Hurricanes', '1', '0', '0', '0', '2', '37', '26', '58.7', '3', '0', '0.0', '4', '1', '75.0', '0', '0', '5', '4', '25', '4', '8', '15']"
"['', '33419', '2017-02-07', '00:00:00 GMT', '3', 'CAR', 'Carolina', 'Hurricanes', '5', 'WSH', 'Washington', 'Capitals', '13', 'Verizon Center', '3', 'CAR', 'Carolina', 'Hurricanes', '0', '1', '0', '0', '0', '35', '17', '67.3', '3', '0', '0.0', '3', '2', '33.3', '0', '0', '0', '5', '22', '3', '6', '10']"
"['', '33445', '2017-02-11', '19:00:00 GMT', '3', 'CAR', 'Carolina', 'Hurricanes', '27', 'DAL', 'Dallas', 'Stars', '2', 'American Airlines Center', '3', 'CAR', 'Carolina', 'Hurricanes', '0', '1', '0', '0', '0', '31', '27', '53.4', '2', '1', '50.0', '4', '1', '75.0', '0', '0', '2', '5', '24', '5', '13', '14']"
"['', '33482', '2017-02-17', '00:30:00 GMT', '22', 'COL', 'Colorado', 'Avalanche', '3', 'CAR', 'Carolina', 'Hurricanes', '21', 'RBC Center', '3', 'CAR', 'Carolina', 'Hurricanes', '0', '0', '0', '1', '1', '33', '36', '47.8', '2', '0', '0.0', '3', '0', '100.0', '0', '0', '1', '2', '29', '3', '6', '15']"
"['', '33501', '2017-02-19', '00:30:00 GMT', '12', 'TOR', 'Toronto', 'Maple Leafs', '3', 'CAR', 'Carolina', 'Hurricanes', '21', 'RBC Center', '3', 'CAR', 'Carolina', 'Hurricanes', '0', '1', '0', '0', '0', '38', '24', '61.3', '3', '0', '0.0', '2', '0', '100.0', '0', '0', '0', '4', '37', '2', '4', '23']"
"['', '33510', '2017-02-21', '00:00:00 GMT', '10', 'PIT', 'Pittsburgh', 'Penguins', '3', 'CAR', 'Carolina', 'Hurricanes', '21', 'RBC Center', '3', 'CAR', 'Carolina', 'Hurricanes', '0', '1', '0', '0', '0', '35', '25', '58.3', '5', '1', '20.0', '4', '1', '75.0', '0', '0', '1', '3', '30', '4', '8', '38']"
"['', '33528', '2017-02-24', '00:30:00 GMT', '13', 'OTT', 'Ottawa', 'Senators', '3', 'CAR', 'Carolina', 'Hurricanes', '21', 'RBC Center', '3', 'CAR', 'Carolina', 'Hurricanes', '1', '0', '0', '0', '2', '42', '24', '63.6', '2', '0', '0.0', '2', '0', '100.0', '0', '0', '3', '0', '44', '2', '4', '37']"
"['', '33539', '2017-02-26', '20:00:00 GMT', '23', 'CGY', 'Calgary', 'Flames', '3', 'CAR', 'Carolina', 'Hurricanes', '21', 'RBC Center', '3', 'CAR', 'Carolina', 'Hurricanes', '0', '1', '0', '0', '0', '25', '25', '50.0', '2', '1', '50.0', '0', '0', '0.0', '0', '0', '1', '3', '35', '0', '0', '17']"
"['', '33553', '2017-02-28', '00:30:00 GMT', '3', 'CAR', 'Carolina', 'Hurricanes', '4', 'FLO', 'Florida', 'Panthers', '3', 'BB&T Center', '3', 'CAR', 'Carolina', 'Hurricanes', '0', '0', '0', '1', '1', '28', '25', '52.8', '1', '0', '0.0', '2', '1', '50.0', '0', '0', '2', '2', '25', '3', '6', '23']"
"['', '33560', '2017-03-01', '00:00:00 GMT', '3', 'CAR', 'Carolina', 'Hurricanes', '1', 'TBL', 'Tampa Bay', 'Lightning', '26', 'Amalie Arena', '3', 'CAR', 'Carolina', 'Hurricanes', '0', '0', '0', '1', '1', '33', '29', '53.2', '2', '1', '50.0', '4', '1', '75.0', '1', '0', '3', '4', '31', '4', '8', '19']"
"['', '33573', '2017-03-03', '00:30:00 GMT', '30', 'ARI', 'Arizona', 'Coyotes', '3', 'CAR', 'Carolina', 'Hurricanes', '21', 'RBC Center', '3', 'CAR', 'Carolina', 'Hurricanes', '0', '1', '0', '0', '0', '32', '21', '60.4', '2', '0', '0.0', '4', '1', '75.0', '0', '0', '2', '4', '34', '3', '6', '17']"
"['', '33594', '2017-03-05', '01:30:00 GMT', '3', 'CAR', 'Carolina', 'Hurricanes', '30', 'ARI', 'Arizona', 'Coyotes', '6', 'Gila River Arena', '3', 'CAR', 'Carolina', 'Hurricanes', '1', '0', '0', '0', '2', '26', '26', '50.0', '2', '0', '0.0', '3', '0', '100.0', '0', '0', '2', '1', '35', '5', '10', '20']"
"['', '33604', '2017-03-07', '02:00:00 GMT', '3', 'CAR', 'Carolina', 'Hurricanes', '22', 'COL', 'Colorado', 'Avalanche', '19', 'Pepsi Center', '3', 'CAR', 'Carolina', 'Hurricanes', '0', '1', '0', '0', '0', '17', '29', '37.0', '2', '0', '0.0', '1', '1', '0.0', '0', '0', '1', '3', '26', '1', '2', '5']"
"['', '33611', '2017-03-09', '00:00:00 GMT', '9', 'NYR', 'New York', 'Rangers', '3', 'CAR', 'Carolina', 'Hurricanes', '21', 'RBC Center', '3', 'CAR', 'Carolina', 'Hurricanes', '1', '0', '0', '0', '2', '30', '23', '56.6', '4', '2', '50.0', '5', '3', '40.0', '0', '0', '4', '3', '30', '5', '12', '18']"
"['', '33630', '2017-03-11', '00:00:00 GMT', '12', 'TOR', 'Toronto', 'Maple Leafs', '3', 'CAR', 'Carolina', 'Hurricanes', '21', 'RBC Center', '3', 'CAR', 'Carolina', 'Hurricanes', '0', '0', '0', '1', '1', '33', '29', '53.2', '2', '1', '50.0', '2', '0', '100.0', '0', '0', '2', '3', '38', '2', '4', '19']"
"['', '33642', '2017-03-13', '23:30:00 GMT', '3', 'CAR', 'Carolina', 'Hurricanes', '8', 'NYI', 'New York', 'Islanders', '35', 'Ericsson Globe', '3', 'CAR', 'Carolina', 'Hurricanes', '1', '0', '0', '0', '2', '30', '24', '55.6', '3', '0', '0.0', '2', '0', '100.0', '1', '0', '8', '4', '33', '3', '6', '20']"
"['', '33652', '2017-03-14', '23:00:00 GMT', '8', 'NYI', 'New York', 'Islanders', '3', 'CAR', 'Carolina', 'Hurricanes', '21', 'RBC Center', '3', 'CAR', 'Carolina', 'Hurricanes', '0', '0', '0', '1', '1', '32', '18', '64.0', '3', '0', '0.0', '1', '0', '100.0', '0', '0', '2', '3', '32', '1', '2', '18']"
"['', '33666', '2017-03-16', '23:00:00 GMT', '25', 'MIN', 'Minnesota', 'Wild', '3', 'CAR', 'Carolina', 'Hurricanes', '21', 'RBC Center', '3', 'CAR', 'Carolina', 'Hurricanes', '1', '0', '0', '0', '2', '21', '20', '51.2', '4', '1', '25.0', '1', '0', '100.0', '0', '1', '3', '1', '24', '1', '2', '26']"
"['', '33684', '2017-03-18', '23:00:00 GMT', '18', 'NSH', 'Nashville', 'Predators', '3', 'CAR', 'Carolina', 'Hurricanes', '21', 'RBC Center', '3', 'CAR', 'Carolina', 'Hurricanes', '1', '0', '0', '0', '2', '32', '26', '55.2', '3', '0', '0.0', '2', '0', '100.0', '1', '0', '4', '2', '37', '2', '4', '25']"
"['', '33692', '2017-03-19', '23:30:00 GMT', '3', 'CAR', 'Carolina', 'Hurricanes', '6', 'PHI', 'Philadelphia', 'Flyers', '29', 'Wells Fargo Center', '3', 'CAR', 'Carolina', 'Hurricanes', '0', '0', '0', '1', '1', '28', '26', '51.9', '2', '1', '50.0', '3', '0', '100.0', '0', '0', '3', '4', '22', '3', '6', '29']"
"['', '33707', '2017-03-21', '23:30:00 GMT', '3', 'CAR', 'Carolina', 'Hurricanes', '4', 'FLO', 'Florida', 'Panthers', '3', 'BB&T Center', '3', 'CAR', 'Carolina', 'Hurricanes', '1', '0', '0', '0', '2', '26', '24', '52.0', '1', '1', '100.0', '3', '0', '100.0', '1', '0', '4', '3', '25', '5', '10', '22']"
"['', '33718', '2017-03-23', '23:30:00 GMT', '3', 'CAR', 'Carolina', 'Hurricanes', '14', 'MTL', 'Montreal', 'Canadiens', '4', 'Bell Centre', '3', 'CAR', 'Carolina', 'Hurricanes', '1', '0', '0', '0', '2', '39', '21', '65.0', '2', '1', '50.0', '1', '0', '100.0', '0', '0', '4', '1', '23', '1', '2', '35']"
"['', '33736', '2017-03-25', '23:00:00 GMT', '3', 'CAR', 'Carolina', 'Hurricanes', '7', 'NJD', 'New Jersey', 'Devils', '37', 'Prudential Center', '3', 'CAR', 'Carolina', 'Hurricanes', '1', '0', '0', '0', '2', '21', '30', '41.2', '2', '0', '0.0', '2', '0', '100.0', '0', '0', '3', '1', '28', '3', '6', '20']"
"['', '40256', '2017-03-27', '23:00:00 GMT', '16', 'DET', 'Detroit', 'Red Wings', '3', 'CAR', 'Carolina', 'Hurricanes', '21', 'RBC Center', '3', 'CAR', 'Carolina', 'Hurricanes', '0', '0', '0', '1', '1', '32', '23', '58.2', '3', '0', '0.0', '3', '1', '66.7', '0', '0', '3', '4', '42', '3', '6', '27']"
"['', '33755', '2017-03-28', '23:00:00 GMT', '16', 'DET', 'Detroit', 'Red Wings', '3', 'CAR', 'Carolina', 'Hurricanes', '21', 'RBC Center', '3', 'CAR', 'Carolina', 'Hurricanes', '1', '0', '0', '0', '2', '29', '21', '58.0', '3', '1', '33.3', '2', '0', '100.0', '0', '0', '4', '1', '32', '3', '6', '31']"
"['', '33769', '2017-03-30', '23:00:00 GMT', '19', 'CBJ', 'Columbus', 'Blue Jackets', '3', 'CAR', 'Carolina', 'Hurricanes', '21', 'RBC Center', '3', 'CAR', 'Carolina', 'Hurricanes', '1', '0', '0', '0', '2', '28', '27', '50.9', '2', '0', '0.0', '1', '0', '100.0', '0', '0', '2', '1', '31', '2', '4', '32']"
"['', '33788', '2017-04-01', '23:00:00 GMT', '27', 'DAL', 'Dallas', 'Stars', '3', 'CAR', 'Carolina', 'Hurricanes', '21', 'RBC Center', '3', 'CAR', 'Carolina', 'Hurricanes', '0', '1', '0', '0', '0', '32', '22', '59.3', '1', '0', '0.0', '0', '0', '0.0', '0', '0', '0', '3', '25', '0', '0', '24']"
"['', '33793', '2017-04-02', '21:00:00 GMT', '3', 'CAR', 'Carolina', 'Hurricanes', '10', 'PIT', 'Pittsburgh', 'Penguins', '40', 'PPG Paints Arena', '3', 'CAR', 'Carolina', 'Hurricanes', '0', '1', '0', '0', '0', '35', '25', '58.3', '3', '1', '33.3', '2', '2', '0.0', '0', '0', '2', '3', '35', '2', '4', '30']"
"['', '33812', '2017-04-04', '00:00:00 GMT', '3', 'CAR', 'Carolina', 'Hurricanes', '25', 'MIN', 'Minnesota', 'Wild', '30', 'Xcel Energy Center', '3', 'CAR', 'Carolina', 'Hurricanes', '0', '1', '0', '0', '0', '32', '33', '49.2', '4', '1', '25.0', '1', '0', '100.0', '0', '0', '3', '5', '30', '1', '2', '12']"
"['', '33822', '2017-04-06', '23:00:00 GMT', '8', 'NYI', 'New York', 'Islanders', '3', 'CAR', 'Carolina', 'Hurricanes', '21', 'RBC Center', '3', 'CAR', 'Carolina', 'Hurricanes', '0', '1', '0', '0', '0', '29', '17', '63.0', '3', '0', '0.0', '4', '1', '75.0', '0', '0', '0', '3', '29', '3', '8', '21']"
"['', '33840', '2017-04-08', '23:00:00 GMT', '17', 'STL', 'St. Louis', 'Blues', '3', 'CAR', 'Carolina', 'Hurricanes', '21', 'RBC Center', '3', 'CAR', 'Carolina', 'Hurricanes', '0', '0', '0', '1', '1', '39', '24', '61.9', '4', '0', '0.0', '3', '1', '66.7', '0', '1', '4', '4', '38', '4', '8', '22']"
"['', '33853', '2017-04-09', '23:00:00 GMT', '3', 'CAR', 'Carolina', 'Hurricanes', '6', 'PHI', 'Philadelphia', 'Flyers', '29', 'Wells Fargo Center', '3', 'CAR', 'Carolina', 'Hurricanes', '1', '0', '0', '0', '2', '26', '24', '52.0', '3', '1', '33.3', '1', '0', '100.0', '0', '0', '3', '3', '35', '1', '2', '20']"
