"['#Date/Time of Update: 2018-12-10 19:03:10 GMT', '#Game ID', '#Game Date', '#Game Time', '#Away Team ID', '#Away Team Abbr.', '#Away Team City', '#Away Team Name', '#Home Team ID', '#Home Team Abbr.', '#Home Team City', '#Home Team Name', '#Venue ID', '#Venue Name', '#Team ID', '#Team Abbr.', '#Team City', '#Team Name', '#Wins', '#Losses', '#OvertimeWins', '#OvertimeLosses', '#ShootoutWins', '#ShootoutLosses', '#Rows', '#Points', '#FaceoffWins', '#FaceoffLosses', '#FaceoffPercent', '#Powerplays', '#PowerplayGoals', '#PowerplayPercent', '#PenaltyKills', '#PenaltyKillGoalsAllowed', '#PenaltyKillPercent', '#ShorthandedGoalsFor', '#ShorthandedGoalsAgainst', '#GoalsFor', '#GoalsAgainst', '#Shots', '#Penalties', '#PenaltyMinutes', '#Hits']"
"['', '26368', '2013-10-03', '02:00:00 GMT', '21', 'VAN', 'Vancouver', 'Canucks', '26', 'SJS', 'San Jose', 'Sharks', '9', 'SAP Center at San Jose', '26', 'SJS', 'San Jose', 'Sharks', '1', '0', '0', '0', '0', '0', '1', '2', '32', '35', '47.8', '6', '0', '0.0', '6', '1', '83.3', '0', '0', '4', '1', '31', '6', '12', '17']"
"['', '26385', '2013-10-05', '02:30:00 GMT', '30', 'PHX', 'Phoenix', 'Coyotes', '26', 'SJS', 'San Jose', 'Sharks', '9', 'SAP Center at San Jose', '26', 'SJS', 'San Jose', 'Sharks', '1', '0', '0', '0', '0', '0', '1', '2', '39', '43', '47.6', '4', '2', '50.0', '0', '0', '0.0', '0', '0', '4', '1', '47', '1', '2', '23']"
"['', '26398', '2013-10-08', '02:30:00 GMT', '9', 'NYR', 'New York', 'Rangers', '26', 'SJS', 'San Jose', 'Sharks', '9', 'SAP Center at San Jose', '26', 'SJS', 'San Jose', 'Sharks', '1', '0', '0', '0', '0', '0', '1', '2', '34', '31', '52.3', '2', '2', '100.0', '3', '1', '66.7', '1', '0', '9', '2', '38', '3', '6', '9']"
"['', '26410', '2013-10-10', '02:00:00 GMT', '26', 'SJS', 'San Jose', 'Sharks', '21', 'VAN', 'Vancouver', 'Canucks', '7', 'Rogers Arena', '26', 'SJS', 'San Jose', 'Sharks', '1', '0', '0', '0', '0', '0', '1', '2', '40', '27', '59.7', '3', '0', '0.0', '1', '0', '100.0', '0', '0', '4', '1', '25', '1', '2', '18']"
"['', '26428', '2013-10-12', '02:00:00 GMT', '13', 'OTT', 'Ottawa', 'Senators', '26', 'SJS', 'San Jose', 'Sharks', '9', 'SAP Center at San Jose', '26', 'SJS', 'San Jose', 'Sharks', '1', '0', '0', '0', '0', '0', '1', '2', '39', '30', '56.5', '4', '1', '25.0', '3', '1', '66.7', '0', '0', '3', '2', '47', '5', '13', '24']"
"['', '26443', '2013-10-15', '00:00:00 GMT', '26', 'SJS', 'San Jose', 'Sharks', '17', 'STL', 'St. Louis', 'Blues', '24', 'Scottrade Center', '26', 'SJS', 'San Jose', 'Sharks', '1', '0', '0', '0', '0', '0', '1', '2', '31', '29', '51.7', '4', '3', '75.0', '4', '0', '100.0', '0', '0', '6', '2', '33', '10', '42', '10']"
"['', '26460', '2013-10-17', '00:30:00 GMT', '26', 'SJS', 'San Jose', 'Sharks', '27', 'DAL', 'Dallas', 'Stars', '2', 'American Airlines Center', '26', 'SJS', 'San Jose', 'Sharks', '0', '0', '0', '1', '0', '0', '0', '1', '33', '34', '49.3', '5', '0', '0.0', '2', '0', '100.0', '0', '0', '3', '3', '32', '4', '11', '13']"
"['', '26475', '2013-10-19', '02:00:00 GMT', '23', 'CGY', 'Calgary', 'Flames', '26', 'SJS', 'San Jose', 'Sharks', '9', 'SAP Center at San Jose', '26', 'SJS', 'San Jose', 'Sharks', '1', '0', '0', '0', '0', '0', '1', '2', '40', '30', '57.1', '8', '3', '37.5', '5', '1', '80.0', '0', '1', '6', '3', '29', '7', '14', '14']"
"['', '26480', '2013-10-21', '23:30:00 GMT', '26', 'SJS', 'San Jose', 'Sharks', '16', 'DET', 'Detroit', 'Red Wings', '11', 'Joe Louis Arena', '26', 'SJS', 'San Jose', 'Sharks', '1', '0', '0', '0', '0', '0', '0', '2', '36', '28', '56.2', '3', '0', '0.0', '2', '0', '100.0', '0', '0', '0', '0', '27', '2', '4', '13']"
"['', '26493', '2013-10-24', '23:00:00 GMT', '26', 'SJS', 'San Jose', 'Sharks', '11', 'BOS', 'Boston', 'Bruins', '27', 'TD Garden', '26', 'SJS', 'San Jose', 'Sharks', '0', '1', '0', '0', '0', '0', '0', '0', '24', '33', '42.1', '1', '0', '0.0', '1', '0', '100.0', '0', '0', '1', '2', '38', '1', '2', '17']"
"['', '26511', '2013-10-26', '23:00:00 GMT', '26', 'SJS', 'San Jose', 'Sharks', '14', 'MTL', 'Montreal', 'Canadiens', '4', 'Bell Centre', '26', 'SJS', 'San Jose', 'Sharks', '1', '0', '0', '0', '0', '0', '1', '2', '30', '29', '50.8', '4', '1', '25.0', '1', '0', '100.0', '0', '0', '2', '0', '35', '1', '2', '17']"
"['', '26520', '2013-10-27', '21:00:00 GMT', '26', 'SJS', 'San Jose', 'Sharks', '13', 'OTT', 'Ottawa', 'Senators', '23', 'Canadian Tire Centre', '26', 'SJS', 'San Jose', 'Sharks', '1', '0', '0', '0', '0', '0', '1', '2', '34', '29', '54.0', '3', '0', '0.0', '2', '0', '100.0', '1', '0', '5', '2', '24', '3', '6', '14']"
"['', '26541', '2013-10-30', '02:30:00 GMT', '26', 'SJS', 'San Jose', 'Sharks', '28', 'LAK', 'Los Angeles', 'Kings', '25', 'Staples Center', '26', 'SJS', 'San Jose', 'Sharks', '0', '0', '0', '1', '0', '0', '0', '1', '23', '39', '37.1', '3', '1', '33.3', '6', '2', '66.7', '0', '0', '3', '4', '17', '7', '17', '21']"
"['', '26565', '2013-11-02', '02:30:00 GMT', '30', 'PHX', 'Phoenix', 'Coyotes', '26', 'SJS', 'San Jose', 'Sharks', '9', 'SAP Center at San Jose', '26', 'SJS', 'San Jose', 'Sharks', '0', '0', '0', '1', '0', '0', '0', '1', '31', '31', '50.0', '6', '1', '16.7', '4', '0', '100.0', '0', '0', '2', '2', '48', '4', '8', '8']"
"['', '26579', '2013-11-05', '03:30:00 GMT', '15', 'BUF', 'Buffalo', 'Sabres', '26', 'SJS', 'San Jose', 'Sharks', '9', 'SAP Center at San Jose', '26', 'SJS', 'San Jose', 'Sharks', '0', '0', '0', '1', '0', '0', '0', '1', '51', '27', '65.4', '4', '0', '0.0', '3', '1', '66.7', '0', '0', '4', '4', '47', '6', '18', '25']"
"['', '26594', '2013-11-07', '03:30:00 GMT', '21', 'VAN', 'Vancouver', 'Canucks', '26', 'SJS', 'San Jose', 'Sharks', '9', 'SAP Center at San Jose', '26', 'SJS', 'San Jose', 'Sharks', '0', '1', '0', '0', '0', '0', '0', '0', '31', '22', '58.5', '3', '0', '0.0', '3', '0', '100.0', '0', '0', '2', '4', '22', '5', '13', '18']"
"['', '26613', '2013-11-10', '01:00:00 GMT', '26', 'SJS', 'San Jose', 'Sharks', '2', 'WPJ', 'Winnipeg', 'Jets', '39', 'MTS Centre', '26', 'SJS', 'San Jose', 'Sharks', '0', '0', '0', '1', '0', '0', '0', '1', '44', '26', '62.9', '6', '2', '33.3', '2', '0', '100.0', '0', '0', '4', '4', '30', '3', '6', '17']"
"['', '26627', '2013-11-12', '02:00:00 GMT', '26', 'SJS', 'San Jose', 'Sharks', '23', 'CGY', 'Calgary', 'Flames', '18', 'Scotiabank Saddledome', '26', 'SJS', 'San Jose', 'Sharks', '1', '0', '0', '0', '0', '0', '1', '2', '40', '26', '60.6', '2', '1', '50.0', '2', '1', '50.0', '0', '0', '3', '2', '32', '2', '4', '5']"
"['', '26637', '2013-11-14', '03:00:00 GMT', '26', 'SJS', 'San Jose', 'Sharks', '21', 'VAN', 'Vancouver', 'Canucks', '7', 'Rogers Arena', '26', 'SJS', 'San Jose', 'Sharks', '1', '0', '0', '0', '0', '0', '1', '2', '37', '39', '48.7', '4', '1', '25.0', '1', '1', '0.0', '0', '0', '2', '1', '28', '4', '11', '12']"
"['', '26647', '2013-11-15', '02:30:00 GMT', '26', 'SJS', 'San Jose', 'Sharks', '24', 'EDM', 'Edmonton', 'Oilers', '22', 'Rogers Place', '26', 'SJS', 'San Jose', 'Sharks', '1', '0', '0', '0', '0', '0', '1', '2', '32', '27', '54.2', '4', '1', '25.0', '3', '1', '66.7', '0', '0', '3', '1', '34', '4', '8', '11']"
"['', '26660', '2013-11-17', '00:00:00 GMT', '26', 'SJS', 'San Jose', 'Sharks', '20', 'CHI', 'Chicago', 'Blackhawks', '28', 'United Center', '26', 'SJS', 'San Jose', 'Sharks', '0', '1', '0', '0', '0', '0', '0', '0', '23', '25', '47.9', '2', '0', '0.0', '1', '0', '100.0', '0', '0', '1', '5', '23', '2', '12', '30']"
"['', '26689', '2013-11-21', '03:30:00 GMT', '1', 'TBL', 'Tampa Bay', 'Lightning', '26', 'SJS', 'San Jose', 'Sharks', '9', 'SAP Center at San Jose', '26', 'SJS', 'San Jose', 'Sharks', '1', '0', '0', '0', '0', '0', '1', '2', '37', '21', '63.8', '2', '0', '0.0', '1', '0', '100.0', '0', '0', '5', '1', '31', '1', '2', '12']"
"['', '26706', '2013-11-23', '03:30:00 GMT', '7', 'NJD', 'New Jersey', 'Devils', '26', 'SJS', 'San Jose', 'Sharks', '9', 'SAP Center at San Jose', '26', 'SJS', 'San Jose', 'Sharks', '1', '0', '0', '0', '0', '0', '1', '2', '25', '27', '48.1', '3', '0', '0.0', '1', '1', '0.0', '0', '0', '2', '1', '28', '1', '2', '21']"
"['', '26731', '2013-11-27', '03:30:00 GMT', '28', 'LAK', 'Los Angeles', 'Kings', '26', 'SJS', 'San Jose', 'Sharks', '9', 'SAP Center at San Jose', '26', 'SJS', 'San Jose', 'Sharks', '1', '0', '0', '0', '0', '0', '0', '2', '33', '26', '55.9', '3', '0', '0.0', '4', '0', '100.0', '0', '0', '2', '2', '38', '5', '10', '30']"
"['', '26739', '2013-11-29', '21:00:00 GMT', '17', 'STL', 'St. Louis', 'Blues', '26', 'SJS', 'San Jose', 'Sharks', '9', 'SAP Center at San Jose', '26', 'SJS', 'San Jose', 'Sharks', '1', '0', '0', '0', '0', '0', '1', '2', '26', '33', '44.1', '5', '2', '40.0', '5', '1', '80.0', '0', '0', '6', '3', '26', '7', '14', '21']"
"['', '26756', '2013-11-30', '03:30:00 GMT', '29', 'ANA', 'Anaheim', 'Ducks', '26', 'SJS', 'San Jose', 'Sharks', '9', 'SAP Center at San Jose', '26', 'SJS', 'San Jose', 'Sharks', '1', '0', '0', '0', '0', '0', '0', '2', '48', '32', '60.0', '5', '0', '0.0', '3', '0', '100.0', '1', '0', '3', '3', '32', '6', '15', '21']"
"['', '26764', '2013-12-03', '00:00:00 GMT', '26', 'SJS', 'San Jose', 'Sharks', '12', 'TOR', 'Toronto', 'Maple Leafs', '1', 'Air Canada Center', '26', 'SJS', 'San Jose', 'Sharks', '1', '0', '0', '0', '0', '0', '1', '2', '32', '35', '47.8', '4', '1', '25.0', '3', '2', '33.3', '0', '0', '4', '2', '37', '4', '11', '19']"
"['', '26778', '2013-12-05', '00:00:00 GMT', '26', 'SJS', 'San Jose', 'Sharks', '10', 'PIT', 'Pittsburgh', 'Penguins', '40', 'Consol Energy Center', '26', 'SJS', 'San Jose', 'Sharks', '0', '1', '0', '0', '0', '0', '0', '0', '24', '31', '43.6', '3', '0', '0.0', '2', '1', '50.0', '0', '0', '1', '5', '44', '2', '4', '26']"
"['', '26787', '2013-12-06', '00:00:00 GMT', '26', 'SJS', 'San Jose', 'Sharks', '3', 'CAR', 'Carolina', 'Hurricanes', '21', 'RBC Center', '26', 'SJS', 'San Jose', 'Sharks', '0', '1', '0', '0', '0', '0', '0', '0', '33', '34', '49.3', '2', '0', '0.0', '1', '0', '100.0', '0', '0', '3', '5', '22', '1', '2', '21']"
"['', '26803', '2013-12-08', '23:00:00 GMT', '26', 'SJS', 'San Jose', 'Sharks', '25', 'MIN', 'Minnesota', 'Wild', '30', 'Xcel Energy Center', '26', 'SJS', 'San Jose', 'Sharks', '0', '1', '0', '0', '0', '0', '0', '0', '29', '35', '45.3', '4', '0', '0.0', '2', '0', '100.0', '0', '0', '1', '3', '37', '2', '4', '15']"
"['', '26823', '2013-12-10', '03:30:00 GMT', '8', 'NYI', 'New York', 'Islanders', '26', 'SJS', 'San Jose', 'Sharks', '9', 'SAP Center at San Jose', '26', 'SJS', 'San Jose', 'Sharks', '0', '0', '0', '1', '0', '0', '0', '1', '32', '25', '56.1', '4', '1', '25.0', '1', '0', '100.0', '0', '0', '2', '2', '46', '1', '2', '13']"
"['', '26837', '2013-12-12', '03:30:00 GMT', '25', 'MIN', 'Minnesota', 'Wild', '26', 'SJS', 'San Jose', 'Sharks', '9', 'SAP Center at San Jose', '26', 'SJS', 'San Jose', 'Sharks', '1', '0', '0', '0', '0', '0', '1', '2', '34', '29', '54.0', '7', '3', '42.9', '3', '0', '100.0', '0', '0', '3', '1', '36', '4', '8', '15']"
"['', '26849', '2013-12-14', '01:00:00 GMT', '26', 'SJS', 'San Jose', 'Sharks', '18', 'NSH', 'Nashville', 'Predators', '15', 'Bridgestone Arena', '26', 'SJS', 'San Jose', 'Sharks', '0', '1', '0', '0', '0', '0', '0', '0', '30', '29', '50.8', '2', '0', '0.0', '2', '1', '50.0', '0', '0', '2', '3', '36', '4', '14', '12']"
"['', '26870', '2013-12-17', '01:00:00 GMT', '26', 'SJS', 'San Jose', 'Sharks', '17', 'STL', 'St. Louis', 'Blues', '24', 'Scottrade Center', '26', 'SJS', 'San Jose', 'Sharks', '1', '0', '0', '0', '0', '0', '1', '2', '25', '29', '46.3', '2', '0', '0.0', '3', '0', '100.0', '0', '0', '4', '2', '23', '4', '8', '11']"
"['', '26887', '2013-12-19', '03:30:00 GMT', '26', 'SJS', 'San Jose', 'Sharks', '28', 'LAK', 'Los Angeles', 'Kings', '25', 'Staples Center', '26', 'SJS', 'San Jose', 'Sharks', '0', '1', '0', '0', '0', '0', '0', '0', '32', '26', '55.2', '3', '0', '0.0', '1', '0', '100.0', '0', '0', '1', '4', '31', '2', '4', '35']"
"['', '26904', '2013-12-21', '03:30:00 GMT', '27', 'DAL', 'Dallas', 'Stars', '26', 'SJS', 'San Jose', 'Sharks', '9', 'SAP Center at San Jose', '26', 'SJS', 'San Jose', 'Sharks', '1', '0', '0', '0', '0', '0', '0', '2', '26', '33', '44.1', '3', '0', '0.0', '2', '0', '100.0', '0', '0', '2', '2', '37', '2', '4', '27']"
"['', '26920', '2013-12-23', '03:30:00 GMT', '22', 'COL', 'Colorado', 'Avalanche', '26', 'SJS', 'San Jose', 'Sharks', '9', 'SAP Center at San Jose', '26', 'SJS', 'San Jose', 'Sharks', '1', '0', '0', '0', '0', '0', '0', '2', '42', '30', '58.3', '4', '2', '50.0', '2', '1', '50.0', '0', '0', '4', '4', '41', '5', '16', '29']"
"['', '26930', '2013-12-27', '02:00:00 GMT', '26', 'SJS', 'San Jose', 'Sharks', '30', 'PHX', 'Phoenix', 'Coyotes', '6', 'Jobing.com Arena', '26', 'SJS', 'San Jose', 'Sharks', '1', '0', '0', '0', '0', '0', '0', '2', '31', '24', '56.4', '3', '1', '33.3', '2', '1', '50.0', '0', '0', '3', '3', '29', '3', '9', '22']"
"['', '26948', '2013-12-29', '03:30:00 GMT', '29', 'ANA', 'Anaheim', 'Ducks', '26', 'SJS', 'San Jose', 'Sharks', '9', 'SAP Center at San Jose', '26', 'SJS', 'San Jose', 'Sharks', '1', '0', '0', '0', '0', '0', '1', '2', '40', '23', '63.5', '2', '0', '0.0', '1', '0', '100.0', '0', '0', '3', '1', '20', '1', '2', '20']"
"['', '26961', '2013-12-31', '01:00:00 GMT', '26', 'SJS', 'San Jose', 'Sharks', '29', 'ANA', 'Anaheim', 'Ducks', '8', 'Honda Center', '26', 'SJS', 'San Jose', 'Sharks', '0', '1', '0', '0', '0', '0', '0', '0', '30', '32', '48.4', '5', '2', '40.0', '2', '1', '50.0', '0', '1', '3', '6', '33', '5', '13', '12']"
"['', '26975', '2014-01-02', '03:30:00 GMT', '24', 'EDM', 'Edmonton', 'Oilers', '26', 'SJS', 'San Jose', 'Sharks', '9', 'SAP Center at San Jose', '26', 'SJS', 'San Jose', 'Sharks', '1', '0', '0', '0', '0', '0', '1', '2', '38', '18', '67.9', '3', '0', '0.0', '3', '0', '100.0', '0', '0', '5', '1', '31', '3', '6', '24']"
"['', '26981', '2014-01-04', '20:00:00 GMT', '26', 'SJS', 'San Jose', 'Sharks', '22', 'COL', 'Colorado', 'Avalanche', '19', 'Pepsi Center', '26', 'SJS', 'San Jose', 'Sharks', '0', '1', '0', '0', '0', '0', '0', '0', '38', '28', '57.6', '2', '1', '50.0', '4', '2', '50.0', '0', '0', '3', '4', '30', '6', '15', '14']"
"['', '26994', '2014-01-05', '01:00:00 GMT', '26', 'SJS', 'San Jose', 'Sharks', '20', 'CHI', 'Chicago', 'Blackhawks', '28', 'United Center', '26', 'SJS', 'San Jose', 'Sharks', '1', '0', '0', '0', '0', '0', '0', '2', '40', '35', '53.3', '1', '0', '0.0', '0', '0', '0.0', '0', '0', '2', '2', '40', '0', '0', '33']"
"['', '27004', '2014-01-07', '01:00:00 GMT', '26', 'SJS', 'San Jose', 'Sharks', '18', 'NSH', 'Nashville', 'Predators', '15', 'Bridgestone Arena', '26', 'SJS', 'San Jose', 'Sharks', '0', '1', '0', '0', '0', '0', '0', '0', '20', '32', '38.5', '4', '1', '25.0', '1', '0', '100.0', '0', '0', '2', '3', '26', '2', '4', '24']"
"['', '27022', '2014-01-09', '03:30:00 GMT', '16', 'DET', 'Detroit', 'Red Wings', '26', 'SJS', 'San Jose', 'Sharks', '9', 'SAP Center at San Jose', '26', 'SJS', 'San Jose', 'Sharks', '1', '0', '0', '0', '0', '0', '1', '2', '31', '21', '59.6', '4', '1', '25.0', '4', '0', '100.0', '0', '0', '4', '1', '22', '10', '34', '19']"
"['', '27038', '2014-01-11', '03:30:00 GMT', '11', 'BOS', 'Boston', 'Bruins', '26', 'SJS', 'San Jose', 'Sharks', '9', 'SAP Center at San Jose', '26', 'SJS', 'San Jose', 'Sharks', '0', '1', '0', '0', '0', '0', '0', '0', '40', '25', '61.5', '1', '0', '0.0', '3', '0', '100.0', '0', '0', '0', '1', '26', '4', '11', '27']"
"['', '27052', '2014-01-14', '00:00:00 GMT', '26', 'SJS', 'San Jose', 'Sharks', '5', 'WSH', 'Washington', 'Capitals', '13', 'Verizon Center', '26', 'SJS', 'San Jose', 'Sharks', '1', '0', '0', '0', '0', '0', '0', '2', '33', '33', '50.0', '1', '0', '0.0', '1', '0', '100.0', '0', '0', '1', '1', '28', '3', '17', '30']"
"['', '27068', '2014-01-16', '00:30:00 GMT', '26', 'SJS', 'San Jose', 'Sharks', '4', 'FLO', 'Florida', 'Panthers', '3', 'BB&T Center', '26', 'SJS', 'San Jose', 'Sharks', '1', '0', '0', '0', '0', '0', '1', '2', '22', '27', '44.9', '3', '0', '0.0', '3', '0', '100.0', '0', '0', '3', '0', '36', '3', '6', '19']"
"['', '27078', '2014-01-18', '19:00:00 GMT', '26', 'SJS', 'San Jose', 'Sharks', '1', 'TBL', 'Tampa Bay', 'Lightning', '26', 'Tampa Bay Times Forum', '26', 'SJS', 'San Jose', 'Sharks', '1', '0', '0', '0', '0', '0', '1', '2', '30', '39', '43.5', '2', '1', '50.0', '3', '2', '33.3', '0', '0', '5', '4', '27', '6', '15', '19']"
"['', '27099', '2014-01-20', '03:30:00 GMT', '23', 'CGY', 'Calgary', 'Flames', '26', 'SJS', 'San Jose', 'Sharks', '9', 'SAP Center at San Jose', '26', 'SJS', 'San Jose', 'Sharks', '1', '0', '0', '0', '0', '0', '1', '2', '35', '21', '62.5', '1', '1', '100.0', '0', '0', '0.0', '0', '0', '3', '2', '24', '0', '0', '19']"
"['', '27122', '2014-01-23', '03:30:00 GMT', '2', 'WPJ', 'Winnipeg', 'Jets', '26', 'SJS', 'San Jose', 'Sharks', '9', 'SAP Center at San Jose', '26', 'SJS', 'San Jose', 'Sharks', '1', '0', '0', '0', '0', '0', '1', '2', '45', '24', '65.2', '4', '0', '0.0', '3', '0', '100.0', '0', '0', '1', '0', '31', '3', '6', '17']"
"['', '27137', '2014-01-25', '03:30:00 GMT', '25', 'MIN', 'Minnesota', 'Wild', '26', 'SJS', 'San Jose', 'Sharks', '9', 'SAP Center at San Jose', '26', 'SJS', 'San Jose', 'Sharks', '1', '0', '0', '0', '0', '0', '1', '2', '41', '18', '69.5', '2', '0', '0.0', '1', '0', '100.0', '0', '0', '3', '2', '29', '3', '9', '27']"
"['', '27147', '2014-01-27', '03:00:00 GMT', '28', 'LAK', 'Los Angeles', 'Kings', '26', 'SJS', 'San Jose', 'Sharks', '9', 'SAP Center at San Jose', '26', 'SJS', 'San Jose', 'Sharks', '0', '1', '0', '0', '0', '0', '0', '0', '27', '29', '48.2', '3', '0', '0.0', '4', '0', '100.0', '0', '0', '0', '1', '23', '7', '14', '28']"
"['', '27160', '2014-01-29', '02:30:00 GMT', '26', 'SJS', 'San Jose', 'Sharks', '24', 'EDM', 'Edmonton', 'Oilers', '22', 'Rogers Place', '26', 'SJS', 'San Jose', 'Sharks', '0', '1', '0', '0', '0', '0', '0', '0', '34', '36', '48.6', '3', '0', '0.0', '2', '1', '50.0', '0', '0', '0', '3', '59', '4', '11', '21']"
"['', '27168', '2014-01-30', '02:00:00 GMT', '26', 'SJS', 'San Jose', 'Sharks', '23', 'CGY', 'Calgary', 'Flames', '18', 'Scotiabank Saddledome', '26', 'SJS', 'San Jose', 'Sharks', '0', '1', '0', '0', '0', '0', '0', '0', '31', '38', '44.9', '1', '0', '0.0', '2', '0', '100.0', '0', '0', '1', '4', '27', '2', '4', '18']"
"['', '27187', '2014-02-01', '03:30:00 GMT', '20', 'CHI', 'Chicago', 'Blackhawks', '26', 'SJS', 'San Jose', 'Sharks', '9', 'SAP Center at San Jose', '26', 'SJS', 'San Jose', 'Sharks', '1', '0', '0', '0', '0', '0', '0', '2', '32', '26', '55.2', '4', '0', '0.0', '4', '1', '75.0', '1', '0', '1', '1', '38', '4', '8', '30']"
"['', '27195', '2014-02-03', '03:30:00 GMT', '6', 'PHI', 'Philadelphia', 'Flyers', '26', 'SJS', 'San Jose', 'Sharks', '9', 'SAP Center at San Jose', '26', 'SJS', 'San Jose', 'Sharks', '0', '1', '0', '0', '0', '0', '0', '0', '36', '31', '53.7', '5', '1', '20.0', '2', '1', '50.0', '0', '0', '2', '5', '20', '2', '4', '21']"
"['', '27207', '2014-02-05', '03:30:00 GMT', '27', 'DAL', 'Dallas', 'Stars', '26', 'SJS', 'San Jose', 'Sharks', '9', 'SAP Center at San Jose', '26', 'SJS', 'San Jose', 'Sharks', '1', '0', '0', '0', '0', '0', '1', '2', '36', '38', '48.6', '3', '0', '0.0', '1', '0', '100.0', '0', '0', '2', '1', '19', '1', '2', '24']"
"['', '27223', '2014-02-07', '03:30:00 GMT', '19', 'CBJ', 'Columbus', 'Blue Jackets', '26', 'SJS', 'San Jose', 'Sharks', '9', 'SAP Center at San Jose', '26', 'SJS', 'San Jose', 'Sharks', '1', '0', '0', '0', '0', '0', '1', '2', '40', '28', '58.8', '4', '0', '0.0', '4', '0', '100.0', '0', '0', '3', '2', '44', '4', '8', '23']"
"['', '27241', '2014-02-27', '00:00:00 GMT', '26', 'SJS', 'San Jose', 'Sharks', '6', 'PHI', 'Philadelphia', 'Flyers', '29', 'Wells Fargo Center', '26', 'SJS', 'San Jose', 'Sharks', '1', '0', '0', '0', '0', '0', '1', '2', '38', '36', '51.4', '2', '1', '50.0', '4', '0', '100.0', '1', '0', '7', '3', '22', '5', '10', '13']"
"['', '27250', '2014-02-28', '00:00:00 GMT', '26', 'SJS', 'San Jose', 'Sharks', '15', 'BUF', 'Buffalo', 'Sabres', '10', 'First Niagara Center', '26', 'SJS', 'San Jose', 'Sharks', '0', '1', '0', '0', '0', '0', '0', '0', '28', '34', '45.2', '2', '0', '0.0', '2', '1', '50.0', '0', '0', '2', '4', '36', '2', '4', '11']"
"['', '27264', '2014-03-02', '20:00:00 GMT', '26', 'SJS', 'San Jose', 'Sharks', '7', 'NJD', 'New Jersey', 'Devils', '37', 'Prudential Center', '26', 'SJS', 'San Jose', 'Sharks', '1', '0', '0', '0', '0', '0', '1', '2', '24', '24', '50.0', '1', '0', '0.0', '4', '0', '100.0', '0', '0', '4', '2', '18', '4', '8', '12']"
"['', '27284', '2014-03-04', '03:30:00 GMT', '3', 'CAR', 'Carolina', 'Hurricanes', '26', 'SJS', 'San Jose', 'Sharks', '9', 'SAP Center at San Jose', '26', 'SJS', 'San Jose', 'Sharks', '0', '0', '0', '1', '0', '0', '0', '1', '30', '42', '41.7', '0', '0', '0.0', '2', '0', '100.0', '0', '0', '2', '3', '35', '2', '4', '23']"
"['', '27298', '2014-03-06', '03:30:00 GMT', '10', 'PIT', 'Pittsburgh', 'Penguins', '26', 'SJS', 'San Jose', 'Sharks', '9', 'SAP Center at San Jose', '26', 'SJS', 'San Jose', 'Sharks', '1', '0', '0', '0', '0', '0', '1', '2', '29', '30', '49.2', '4', '0', '0.0', '4', '2', '50.0', '1', '0', '5', '3', '42', '5', '10', '30']"
"['', '27313', '2014-03-08', '03:00:00 GMT', '14', 'MTL', 'Montreal', 'Canadiens', '26', 'SJS', 'San Jose', 'Sharks', '9', 'SAP Center at San Jose', '26', 'SJS', 'San Jose', 'Sharks', '1', '0', '0', '0', '0', '0', '1', '2', '35', '29', '54.7', '5', '0', '0.0', '4', '0', '100.0', '1', '0', '4', '0', '29', '12', '51', '17']"
"['', '27335', '2014-03-11', '02:30:00 GMT', '12', 'TOR', 'Toronto', 'Maple Leafs', '26', 'SJS', 'San Jose', 'Sharks', '9', 'SAP Center at San Jose', '26', 'SJS', 'San Jose', 'Sharks', '1', '0', '0', '0', '0', '0', '1', '2', '48', '28', '63.2', '5', '0', '0.0', '2', '0', '100.0', '0', '1', '6', '2', '42', '6', '24', '15']"
"['', '27342', '2014-03-13', '23:00:00 GMT', '26', 'SJS', 'San Jose', 'Sharks', '19', 'CBJ', 'Columbus', 'Blue Jackets', '17', 'Nationwide Arena', '26', 'SJS', 'San Jose', 'Sharks', '1', '0', '0', '0', '0', '0', '0', '2', '33', '31', '51.6', '3', '1', '33.3', '2', '0', '100.0', '0', '1', '3', '3', '24', '3', '6', '17']"
"['', '27347', '2014-03-14', '23:00:00 GMT', '26', 'SJS', 'San Jose', 'Sharks', '8', 'NYI', 'New York', 'Islanders', '16', 'Nassau Veterans Memorial Coliseum', '26', 'SJS', 'San Jose', 'Sharks', '1', '0', '0', '0', '0', '0', '1', '2', '25', '29', '46.3', '1', '0', '0.0', '0', '0', '0.0', '0', '0', '4', '3', '22', '0', '0', '19']"
"['', '27367', '2014-03-16', '20:00:00 GMT', '26', 'SJS', 'San Jose', 'Sharks', '9', 'NYR', 'New York', 'Rangers', '12', 'Madison Square Garden', '26', 'SJS', 'San Jose', 'Sharks', '1', '0', '0', '0', '0', '0', '1', '2', '28', '35', '44.4', '1', '0', '0.0', '3', '0', '100.0', '1', '0', '1', '0', '28', '3', '6', '15']"
"['', '27388', '2014-03-18', '02:30:00 GMT', '4', 'FLO', 'Florida', 'Panthers', '26', 'SJS', 'San Jose', 'Sharks', '9', 'SAP Center at San Jose', '26', 'SJS', 'San Jose', 'Sharks', '0', '1', '0', '0', '0', '0', '0', '0', '46', '34', '57.5', '6', '1', '16.7', '1', '0', '100.0', '0', '0', '2', '3', '52', '2', '4', '7']"
"['', '27401', '2014-03-20', '02:30:00 GMT', '29', 'ANA', 'Anaheim', 'Ducks', '26', 'SJS', 'San Jose', 'Sharks', '9', 'SAP Center at San Jose', '26', 'SJS', 'San Jose', 'Sharks', '1', '0', '0', '0', '0', '0', '1', '2', '34', '33', '50.7', '2', '1', '50.0', '2', '1', '50.0', '0', '0', '3', '2', '25', '2', '4', '32']"
"['', '27416', '2014-03-22', '02:30:00 GMT', '5', 'WSH', 'Washington', 'Capitals', '26', 'SJS', 'San Jose', 'Sharks', '9', 'SAP Center at San Jose', '26', 'SJS', 'San Jose', 'Sharks', '0', '0', '0', '1', '0', '0', '0', '1', '45', '20', '69.2', '3', '0', '0.0', '3', '0', '100.0', '0', '0', '2', '2', '34', '3', '6', '21']"
"['', '27429', '2014-03-24', '01:00:00 GMT', '26', 'SJS', 'San Jose', 'Sharks', '23', 'CGY', 'Calgary', 'Flames', '18', 'Scotiabank Saddledome', '26', 'SJS', 'San Jose', 'Sharks', '0', '0', '0', '1', '0', '0', '0', '1', '31', '34', '47.7', '2', '0', '0.0', '3', '0', '100.0', '0', '0', '1', '1', '33', '3', '6', '7']"
"['', '27439', '2014-03-25', '01:30:00 GMT', '26', 'SJS', 'San Jose', 'Sharks', '24', 'EDM', 'Edmonton', 'Oilers', '22', 'Rogers Place', '26', 'SJS', 'San Jose', 'Sharks', '1', '0', '0', '0', '0', '0', '1', '2', '32', '27', '54.2', '3', '3', '100.0', '2', '0', '100.0', '0', '0', '5', '2', '29', '2', '4', '29']"
"['', '27452', '2014-03-27', '02:30:00 GMT', '2', 'WPJ', 'Winnipeg', 'Jets', '26', 'SJS', 'San Jose', 'Sharks', '9', 'SAP Center at San Jose', '26', 'SJS', 'San Jose', 'Sharks', '0', '1', '0', '0', '0', '0', '0', '0', '30', '21', '58.8', '3', '2', '66.7', '4', '2', '50.0', '0', '0', '3', '4', '27', '6', '12', '24']"
"['', '27459', '2014-03-29', '19:00:00 GMT', '26', 'SJS', 'San Jose', 'Sharks', '22', 'COL', 'Colorado', 'Avalanche', '19', 'Pepsi Center', '26', 'SJS', 'San Jose', 'Sharks', '0', '1', '0', '0', '0', '0', '0', '0', '34', '29', '54.0', '4', '1', '25.0', '4', '1', '75.0', '0', '1', '2', '3', '47', '5', '10', '11']"
"['', '27489', '2014-04-01', '02:30:00 GMT', '24', 'EDM', 'Edmonton', 'Oilers', '26', 'SJS', 'San Jose', 'Sharks', '9', 'SAP Center at San Jose', '26', 'SJS', 'San Jose', 'Sharks', '1', '0', '0', '0', '0', '0', '1', '2', '37', '32', '53.6', '7', '1', '14.3', '3', '1', '66.7', '0', '0', '5', '4', '28', '6', '15', '17']"
"['', '27502', '2014-04-03', '02:30:00 GMT', '28', 'LAK', 'Los Angeles', 'Kings', '26', 'SJS', 'San Jose', 'Sharks', '9', 'SAP Center at San Jose', '26', 'SJS', 'San Jose', 'Sharks', '1', '0', '0', '0', '0', '0', '1', '2', '30', '32', '48.4', '1', '1', '100.0', '5', '0', '100.0', '0', '0', '2', '1', '19', '7', '14', '52']"
"['', '27520', '2014-04-05', '02:30:00 GMT', '18', 'NSH', 'Nashville', 'Predators', '26', 'SJS', 'San Jose', 'Sharks', '9', 'SAP Center at San Jose', '26', 'SJS', 'San Jose', 'Sharks', '0', '1', '0', '0', '0', '0', '0', '0', '31', '41', '43.1', '2', '0', '0.0', '1', '0', '100.0', '0', '0', '0', '3', '35', '2', '4', '33']"
"['', '27543', '2014-04-09', '02:30:00 GMT', '26', 'SJS', 'San Jose', 'Sharks', '29', 'ANA', 'Anaheim', 'Ducks', '8', 'Honda Center', '26', 'SJS', 'San Jose', 'Sharks', '0', '1', '0', '0', '0', '0', '0', '0', '33', '34', '49.3', '5', '0', '0.0', '3', '0', '100.0', '0', '1', '2', '5', '36', '4', '8', '25']"
"['', '27561', '2014-04-11', '02:00:00 GMT', '22', 'COL', 'Colorado', 'Avalanche', '26', 'SJS', 'San Jose', 'Sharks', '9', 'SAP Center at San Jose', '26', 'SJS', 'San Jose', 'Sharks', '1', '0', '0', '0', '0', '0', '1', '2', '35', '31', '53.0', '2', '0', '0.0', '2', '0', '100.0', '0', '0', '5', '1', '25', '2', '4', '24']"
"['', '27567', '2014-04-12', '01:00:00 GMT', '26', 'SJS', 'San Jose', 'Sharks', '30', 'PHX', 'Phoenix', 'Coyotes', '6', 'Jobing.com Arena', '26', 'SJS', 'San Jose', 'Sharks', '1', '0', '0', '0', '0', '0', '1', '2', '29', '30', '49.2', '3', '1', '33.3', '1', '0', '100.0', '0', '0', '3', '2', '29', '1', '2', '23']"
