"['#Date/Time of Update: 2018-12-10 19:03:26 GMT', '#Game ID', '#Game Date', '#Game Time', '#Away Team ID', '#Away Team Abbr.', '#Away Team City', '#Away Team Name', '#Home Team ID', '#Home Team Abbr.', '#Home Team City', '#Home Team Name', '#Venue ID', '#Venue Name', '#Team ID', '#Team Abbr.', '#Team City', '#Team Name', '#Wins', '#Losses', '#OvertimeWins', '#OvertimeLosses', '#Points', '#FaceoffWins', '#FaceoffLosses', '#FaceoffPercent', '#Powerplays', '#PowerplayGoals', '#PowerplayPercent', '#PenaltyKills', '#PenaltyKillGoalsAllowed', '#PenaltyKillPercent', '#ShorthandedGoalsFor', '#ShorthandedGoalsAgainst', '#GoalsFor', '#GoalsAgainst', '#Shots', '#Penalties', '#PenaltyMinutes', '#Hits']"
"['', '46308', '2018-10-04', '23:30:00 GMT', '19', 'CBJ', 'Columbus', 'Blue Jackets', '16', 'DET', 'Detroit', 'Red Wings', '145', 'Little Caesars Arena', '19', 'CBJ', 'Columbus', 'Blue Jackets', '1', '0', '0', '0', '2', '45', '34', '57.0', '6', '1', '16.7', '3', '1', '66.7', '0', '0', '3', '2', '39', '3', '6', '13']"
"['', '46313', '2018-10-05', '23:00:00 GMT', '3', 'CAR', 'Carolina', 'Hurricanes', '19', 'CBJ', 'Columbus', 'Blue Jackets', '17', 'Nationwide Arena', '19', 'CBJ', 'Columbus', 'Blue Jackets', '0', '1', '0', '0', '0', '27', '23', '54.0', '3', '0', '0.0', '1', '0', '100.0', '0', '0', '1', '3', '32', '1', '2', '10']"
"['', '46336', '2018-10-09', '23:00:00 GMT', '22', 'COL', 'Colorado', 'Avalanche', '19', 'CBJ', 'Columbus', 'Blue Jackets', '17', 'Nationwide Arena', '19', 'CBJ', 'Columbus', 'Blue Jackets', '1', '0', '0', '0', '2', '35', '31', '53.0', '6', '1', '16.7', '4', '1', '75.0', '0', '0', '5', '2', '35', '4', '8', '10']"
"['', '46345', '2018-10-11', '23:00:00 GMT', '19', 'CBJ', 'Columbus', 'Blue Jackets', '4', 'FLO', 'Florida', 'Panthers', '3', 'BB&T Center', '19', 'CBJ', 'Columbus', 'Blue Jackets', '1', '0', '0', '0', '2', '27', '39', '40.9', '3', '2', '66.7', '2', '0', '100.0', '0', '0', '5', '4', '32', '2', '4', '7']"
"['', '46361', '2018-10-13', '23:00:00 GMT', '19', 'CBJ', 'Columbus', 'Blue Jackets', '1', 'TBL', 'Tampa Bay', 'Lightning', '26', 'Amalie Arena', '19', 'CBJ', 'Columbus', 'Blue Jackets', '0', '1', '0', '0', '0', '31', '30', '50.8', '4', '0', '0.0', '8', '4', '50.0', '0', '0', '2', '8', '32', '10', '20', '20']"
"['', '46390', '2018-10-18', '23:00:00 GMT', '6', 'PHI', 'Philadelphia', 'Flyers', '19', 'CBJ', 'Columbus', 'Blue Jackets', '17', 'Nationwide Arena', '19', 'CBJ', 'Columbus', 'Blue Jackets', '1', '0', '0', '0', '2', '18', '32', '36.0', '2', '0', '0.0', '2', '0', '100.0', '0', '0', '6', '3', '28', '2', '4', '19']"
"['', '46407', '2018-10-20', '23:00:00 GMT', '20', 'CHI', 'Chicago', 'Blackhawks', '19', 'CBJ', 'Columbus', 'Blue Jackets', '17', 'Nationwide Arena', '19', 'CBJ', 'Columbus', 'Blue Jackets', '0', '1', '0', '0', '0', '32', '32', '50.0', '4', '0', '0.0', '3', '0', '100.0', '0', '0', '1', '4', '38', '3', '6', '12']"
"['', '46421', '2018-10-23', '23:00:00 GMT', '30', 'ARI', 'Arizona', 'Coyotes', '19', 'CBJ', 'Columbus', 'Blue Jackets', '17', 'Nationwide Arena', '19', 'CBJ', 'Columbus', 'Blue Jackets', '0', '1', '0', '0', '0', '31', '30', '50.8', '3', '0', '0.0', '3', '1', '66.7', '0', '0', '1', '4', '36', '5', '10', '15']"
"['', '46435', '2018-10-25', '00:00:00 GMT', '19', 'CBJ', 'Columbus', 'Blue Jackets', '17', 'STL', 'St. Louis', 'Blues', '24', 'Enterprise Center', '19', 'CBJ', 'Columbus', 'Blue Jackets', '1', '0', '0', '0', '2', '28', '40', '41.2', '4', '2', '50.0', '3', '1', '66.7', '0', '0', '7', '4', '32', '5', '10', '14']"
"['', '46452', '2018-10-27', '23:00:00 GMT', '15', 'BUF', 'Buffalo', 'Sabres', '19', 'CBJ', 'Columbus', 'Blue Jackets', '17', 'Nationwide Arena', '19', 'CBJ', 'Columbus', 'Blue Jackets', '1', '0', '0', '0', '2', '30', '34', '46.9', '3', '0', '0.0', '5', '1', '80.0', '0', '0', '5', '4', '37', '5', '10', '12']"
"['', '46468', '2018-10-30', '23:00:00 GMT', '16', 'DET', 'Detroit', 'Red Wings', '19', 'CBJ', 'Columbus', 'Blue Jackets', '17', 'Nationwide Arena', '19', 'CBJ', 'Columbus', 'Blue Jackets', '0', '1', '0', '0', '0', '33', '34', '49.3', '5', '0', '0.0', '2', '1', '50.0', '0', '1', '3', '5', '37', '2', '4', '19']"
"['', '46489', '2018-11-01', '02:30:00 GMT', '19', 'CBJ', 'Columbus', 'Blue Jackets', '26', 'SJS', 'San Jose', 'Sharks', '9', 'SAP Center at San Jose', '19', 'CBJ', 'Columbus', 'Blue Jackets', '1', '0', '0', '0', '2', '23', '45', '33.8', '1', '0', '0.0', '3', '0', '100.0', '1', '0', '4', '1', '27', '4', '8', '27']"
"['', '46503', '2018-11-03', '02:30:00 GMT', '19', 'CBJ', 'Columbus', 'Blue Jackets', '28', 'LAK', 'Los Angeles', 'Kings', '25', 'Staples Center', '19', 'CBJ', 'Columbus', 'Blue Jackets', '0', '1', '0', '0', '0', '29', '33', '46.8', '5', '0', '0.0', '5', '1', '80.0', '0', '1', '1', '4', '27', '7', '33', '17']"
"['', '46507', '2018-11-04', '02:00:00 GMT', '19', 'CBJ', 'Columbus', 'Blue Jackets', '29', 'ANA', 'Anaheim', 'Ducks', '8', 'Honda Center', '19', 'CBJ', 'Columbus', 'Blue Jackets', '0', '0', '0', '1', '1', '28', '29', '49.1', '6', '0', '0.0', '5', '0', '100.0', '0', '0', '2', '3', '26', '5', '10', '18']"
"['', '46515', '2018-11-06', '00:00:00 GMT', '27', 'DAL', 'Dallas', 'Stars', '19', 'CBJ', 'Columbus', 'Blue Jackets', '17', 'Nationwide Arena', '19', 'CBJ', 'Columbus', 'Blue Jackets', '1', '0', '0', '0', '2', '27', '27', '50.0', '3', '1', '33.3', '2', '1', '50.0', '0', '0', '4', '1', '34', '2', '4', '22']"
"['', '46535', '2018-11-09', '00:00:00 GMT', '19', 'CBJ', 'Columbus', 'Blue Jackets', '5', 'WSH', 'Washington', 'Capitals', '13', 'Capital One Arena', '19', 'CBJ', 'Columbus', 'Blue Jackets', '1', '0', '0', '0', '2', '29', '32', '47.5', '3', '2', '66.7', '5', '1', '80.0', '0', '0', '2', '1', '36', '5', '10', '24']"
"['', '46549', '2018-11-10', '00:00:00 GMT', '9', 'NYR', 'New York', 'Rangers', '19', 'CBJ', 'Columbus', 'Blue Jackets', '17', 'Nationwide Arena', '19', 'CBJ', 'Columbus', 'Blue Jackets', '0', '0', '0', '1', '1', '39', '24', '61.9', '2', '1', '50.0', '2', '0', '100.0', '1', '0', '4', '4', '38', '3', '9', '26']"
"['', '46560', '2018-11-12', '01:30:00 GMT', '19', 'CBJ', 'Columbus', 'Blue Jackets', '27', 'DAL', 'Dallas', 'Stars', '2', 'American Airlines Center', '19', 'CBJ', 'Columbus', 'Blue Jackets', '1', '0', '0', '0', '2', '25', '31', '44.6', '3', '1', '33.3', '4', '0', '100.0', '0', '0', '2', '1', '28', '6', '15', '15']"
"['', '46578', '2018-11-15', '00:00:00 GMT', '4', 'FLO', 'Florida', 'Panthers', '19', 'CBJ', 'Columbus', 'Blue Jackets', '17', 'Nationwide Arena', '19', 'CBJ', 'Columbus', 'Blue Jackets', '1', '0', '0', '0', '2', '33', '40', '45.2', '1', '0', '0.0', '4', '2', '50.0', '1', '0', '7', '3', '37', '4', '8', '15']"
"['', '46595', '2018-11-17', '00:00:00 GMT', '19', 'CBJ', 'Columbus', 'Blue Jackets', '3', 'CAR', 'Carolina', 'Hurricanes', '21', 'PNC Arena', '19', 'CBJ', 'Columbus', 'Blue Jackets', '1', '0', '0', '0', '2', '24', '28', '46.2', '5', '1', '20.0', '3', '0', '100.0', '0', '0', '4', '1', '24', '3', '6', '30']"
"['', '46606', '2018-11-19', '00:00:00 GMT', '19', 'CBJ', 'Columbus', 'Blue Jackets', '12', 'TOR', 'Toronto', 'Maple Leafs', '1', 'Scotiabank Arena', '19', 'CBJ', 'Columbus', 'Blue Jackets', '0', '1', '0', '0', '0', '27', '38', '41.5', '0', '0', '0.0', '0', '0', '0.0', '0', '0', '2', '4', '39', '0', '0', '24']"
"['', '46637', '2018-11-23', '00:00:00 GMT', '12', 'TOR', 'Toronto', 'Maple Leafs', '19', 'CBJ', 'Columbus', 'Blue Jackets', '17', 'Nationwide Arena', '19', 'CBJ', 'Columbus', 'Blue Jackets', '1', '0', '0', '0', '2', '28', '24', '53.8', '2', '0', '0.0', '3', '0', '100.0', '1', '0', '4', '2', '24', '3', '6', '21']"
"['', '46651', '2018-11-24', '00:00:00 GMT', '19', 'CBJ', 'Columbus', 'Blue Jackets', '10', 'PIT', 'Pittsburgh', 'Penguins', '40', 'PPG Paints Arena', '19', 'CBJ', 'Columbus', 'Blue Jackets', '0', '1', '0', '0', '0', '43', '28', '60.6', '1', '0', '0.0', '1', '0', '100.0', '0', '0', '2', '4', '39', '1', '2', '41']"
"['', '46664', '2018-11-26', '00:30:00 GMT', '19', 'CBJ', 'Columbus', 'Blue Jackets', '16', 'DET', 'Detroit', 'Red Wings', '145', 'Little Caesars Arena', '19', 'CBJ', 'Columbus', 'Blue Jackets', '1', '0', '0', '0', '2', '33', '29', '53.2', '4', '1', '25.0', '3', '1', '66.7', '0', '0', '7', '5', '32', '3', '6', '16']"
"['', '46681', '2018-11-29', '00:00:00 GMT', '25', 'MIN', 'Minnesota', 'Wild', '19', 'CBJ', 'Columbus', 'Blue Jackets', '17', 'Nationwide Arena', '19', 'CBJ', 'Columbus', 'Blue Jackets', '1', '0', '0', '0', '2', '28', '28', '50.0', '2', '1', '50.0', '1', '0', '100.0', '0', '0', '4', '2', '29', '1', '2', '13']"
"['', '46699', '2018-12-01', '00:00:00 GMT', '19', 'CBJ', 'Columbus', 'Blue Jackets', '8', 'NYI', 'New York', 'Islanders', '78', 'Barclays Center', '19', 'CBJ', 'Columbus', 'Blue Jackets', '0', '1', '0', '0', '0', '26', '24', '52.0', '2', '0', '0.0', '3', '0', '100.0', '0', '0', '2', '3', '30', '4', '8', '35']"
"['', '46718', '2018-12-04', '00:00:00 GMT', '23', 'CGY', 'Calgary', 'Flames', '19', 'CBJ', 'Columbus', 'Blue Jackets', '17', 'Nationwide Arena', '19', 'CBJ', 'Columbus', 'Blue Jackets', '0', '1', '0', '0', '0', '28', '36', '43.8', '3', '1', '33.3', '4', '3', '25.0', '0', '0', '6', '9', '30', '4', '8', '10']"
"['', '46729', '2018-12-06', '00:00:00 GMT', '19', 'CBJ', 'Columbus', 'Blue Jackets', '6', 'PHI', 'Philadelphia', 'Flyers', '29', 'Wells Fargo Center', '19', 'CBJ', 'Columbus', 'Blue Jackets', '1', '0', '0', '0', '2', '24', '29', '45.3', '5', '0', '0.0', '3', '0', '100.0', '0', '0', '4', '3', '30', '3', '6', '20']"
"['', '46749', '2018-12-08', '00:00:00 GMT', '5', 'WSH', 'Washington', 'Capitals', '19', 'CBJ', 'Columbus', 'Blue Jackets', '17', 'Nationwide Arena', '19', 'CBJ', 'Columbus', 'Blue Jackets', '0', '1', '0', '0', '0', '34', '27', '55.7', '4', '0', '0.0', '3', '0', '100.0', '0', '0', '0', '4', '28', '3', '6', '16']"
