"['#Date/Time of Update: 2018-12-10 19:03:14 GMT', '#Game ID', '#Game Date', '#Game Time', '#Away Team ID', '#Away Team Abbr.', '#Away Team City', '#Away Team Name', '#Home Team ID', '#Home Team Abbr.', '#Home Team City', '#Home Team Name', '#Venue ID', '#Venue Name', '#Team ID', '#Team Abbr.', '#Team City', '#Team Name', '#Wins', '#Losses', '#OvertimeWins', '#OvertimeLosses', '#ShootoutWins', '#ShootoutLosses', '#Rows', '#Points', '#FaceoffWins', '#FaceoffLosses', '#FaceoffPercent', '#Powerplays', '#PowerplayGoals', '#PowerplayPercent', '#PenaltyKills', '#PenaltyKillGoalsAllowed', '#PenaltyKillPercent', '#ShorthandedGoalsFor', '#ShorthandedGoalsAgainst', '#GoalsFor', '#GoalsAgainst', '#Shots', '#Penalties', '#PenaltyMinutes', '#Hits']"
"['', '27708', '2014-10-09', '00:30:00 GMT', '22', 'COL', 'Colorado', 'Avalanche', '25', 'MIN', 'Minnesota', 'Wild', '30', 'Xcel Energy Center', '25', 'MIN', 'Minnesota', 'Wild', '1', '0', '0', '0', '0', '0', '1', '2', '32', '23', '58.2', '2', '0', '0.0', '4', '0', '100.0', '0', '0', '5', '0', '43', '6', '12', '13']"
"['', '27723', '2014-10-11', '01:00:00 GMT', '25', 'MIN', 'Minnesota', 'Wild', '22', 'COL', 'Colorado', 'Avalanche', '19', 'Pepsi Center', '25', 'MIN', 'Minnesota', 'Wild', '1', '0', '0', '0', '0', '0', '1', '2', '30', '34', '46.9', '5', '0', '0.0', '3', '0', '100.0', '0', '0', '3', '0', '31', '6', '12', '14']"
"['', '27756', '2014-10-17', '02:00:00 GMT', '25', 'MIN', 'Minnesota', 'Wild', '29', 'ANA', 'Anaheim', 'Ducks', '8', 'Honda Center', '25', 'MIN', 'Minnesota', 'Wild', '0', '1', '0', '0', '0', '0', '0', '0', '36', '28', '56.2', '2', '0', '0.0', '4', '0', '100.0', '0', '1', '1', '2', '27', '8', '25', '21']"
"['', '27768', '2014-10-19', '20:00:00 GMT', '25', 'MIN', 'Minnesota', 'Wild', '28', 'LAK', 'Los Angeles', 'Kings', '25', 'Staples Center', '25', 'MIN', 'Minnesota', 'Wild', '0', '1', '0', '0', '0', '0', '0', '0', '28', '37', '43.1', '5', '0', '0.0', '2', '1', '50.0', '0', '0', '1', '2', '40', '3', '9', '23']"
"['', '27791', '2014-10-23', '00:00:00 GMT', '30', 'ARI', 'Arizona', 'Coyotes', '25', 'MIN', 'Minnesota', 'Wild', '30', 'Xcel Energy Center', '25', 'MIN', 'Minnesota', 'Wild', '1', '0', '0', '0', '0', '0', '1', '2', '21', '39', '35.0', '3', '0', '0.0', '2', '0', '100.0', '0', '0', '2', '0', '27', '2', '4', '11']"
"['', '27806', '2014-10-25', '00:00:00 GMT', '1', 'TBL', 'Tampa Bay', 'Lightning', '25', 'MIN', 'Minnesota', 'Wild', '30', 'Xcel Energy Center', '25', 'MIN', 'Minnesota', 'Wild', '1', '0', '0', '0', '0', '0', '1', '2', '24', '29', '45.3', '1', '0', '0.0', '4', '0', '100.0', '1', '0', '7', '2', '15', '5', '13', '12']"
"['', '27816', '2014-10-27', '23:00:00 GMT', '25', 'MIN', 'Minnesota', 'Wild', '9', 'NYR', 'New York', 'Rangers', '12', 'Madison Square Garden', '25', 'MIN', 'Minnesota', 'Wild', '0', '1', '0', '0', '0', '0', '0', '0', '17', '30', '36.2', '3', '0', '0.0', '1', '0', '100.0', '0', '0', '4', '5', '26', '1', '2', '10']"
"['', '27818', '2014-10-28', '23:00:00 GMT', '25', 'MIN', 'Minnesota', 'Wild', '11', 'BOS', 'Boston', 'Bruins', '27', 'TD Garden', '25', 'MIN', 'Minnesota', 'Wild', '1', '0', '0', '0', '0', '0', '1', '2', '28', '37', '43.1', '2', '0', '0.0', '2', '1', '50.0', '0', '0', '4', '3', '38', '3', '6', '18']"
"['', '27839', '2014-10-30', '00:00:00 GMT', '26', 'SJS', 'San Jose', 'Sharks', '25', 'MIN', 'Minnesota', 'Wild', '30', 'Xcel Energy Center', '25', 'MIN', 'Minnesota', 'Wild', '1', '0', '0', '0', '0', '0', '0', '2', '47', '24', '66.2', '0', '0', '0.0', '0', '1', '0.0', '0', '0', '3', '3', '43', '2', '4', '10']"
"['', '27856', '2014-11-01', '00:00:00 GMT', '27', 'DAL', 'Dallas', 'Stars', '25', 'MIN', 'Minnesota', 'Wild', '30', 'Xcel Energy Center', '25', 'MIN', 'Minnesota', 'Wild', '1', '0', '0', '0', '0', '0', '1', '2', '25', '27', '48.1', '4', '2', '50.0', '4', '0', '100.0', '0', '0', '4', '1', '26', '4', '8', '5']"
"['', '27873', '2014-11-04', '01:00:00 GMT', '10', 'PIT', 'Pittsburgh', 'Penguins', '25', 'MIN', 'Minnesota', 'Wild', '30', 'Xcel Energy Center', '25', 'MIN', 'Minnesota', 'Wild', '0', '1', '0', '0', '0', '0', '0', '0', '35', '28', '55.6', '3', '0', '0.0', '3', '1', '66.7', '1', '0', '1', '4', '33', '5', '13', '8']"
"['', '27883', '2014-11-06', '00:30:00 GMT', '25', 'MIN', 'Minnesota', 'Wild', '13', 'OTT', 'Ottawa', 'Senators', '23', 'Canadian Tire Centre', '25', 'MIN', 'Minnesota', 'Wild', '0', '1', '0', '0', '0', '0', '0', '0', '30', '29', '50.8', '3', '0', '0.0', '5', '1', '80.0', '0', '0', '0', '3', '35', '9', '29', '26']"
"['', '27899', '2014-11-08', '00:00:00 GMT', '25', 'MIN', 'Minnesota', 'Wild', '14', 'MTL', 'Montreal', 'Canadiens', '4', 'Bell Centre', '25', 'MIN', 'Minnesota', 'Wild', '0', '1', '0', '0', '0', '0', '0', '0', '26', '37', '41.3', '1', '0', '0.0', '1', '0', '100.0', '0', '0', '1', '4', '30', '3', '6', '22']"
"['', '27914', '2014-11-11', '00:00:00 GMT', '25', 'MIN', 'Minnesota', 'Wild', '7', 'NJD', 'New Jersey', 'Devils', '37', 'Prudential Center', '25', 'MIN', 'Minnesota', 'Wild', '0', '1', '0', '0', '0', '0', '0', '0', '33', '25', '56.9', '4', '0', '0.0', '6', '1', '83.3', '1', '0', '1', '3', '23', '6', '14', '8']"
"['', '27931', '2014-11-13', '01:00:00 GMT', '15', 'BUF', 'Buffalo', 'Sabres', '25', 'MIN', 'Minnesota', 'Wild', '30', 'Xcel Energy Center', '25', 'MIN', 'Minnesota', 'Wild', '1', '0', '0', '0', '0', '0', '1', '2', '31', '25', '55.4', '4', '2', '50.0', '2', '0', '100.0', '0', '0', '6', '3', '33', '2', '4', '12']"
"['', '27943', '2014-11-15', '19:00:00 GMT', '25', 'MIN', 'Minnesota', 'Wild', '27', 'DAL', 'Dallas', 'Stars', '2', 'American Airlines Center', '25', 'MIN', 'Minnesota', 'Wild', '1', '0', '0', '0', '0', '0', '1', '2', '27', '29', '48.2', '1', '0', '0.0', '2', '0', '100.0', '0', '0', '2', '1', '20', '2', '4', '20']"
"['', '27955', '2014-11-16', '22:00:00 GMT', '2', 'WPJ', 'Winnipeg', 'Jets', '25', 'MIN', 'Minnesota', 'Wild', '30', 'Xcel Energy Center', '25', 'MIN', 'Minnesota', 'Wild', '1', '0', '0', '0', '0', '0', '1', '2', '34', '28', '54.8', '5', '1', '20.0', '9', '0', '100.0', '0', '0', '4', '3', '23', '12', '27', '21']"
"['', '27974', '2014-11-20', '00:00:00 GMT', '25', 'MIN', 'Minnesota', 'Wild', '6', 'PHI', 'Philadelphia', 'Flyers', '29', 'Wells Fargo Center', '25', 'MIN', 'Minnesota', 'Wild', '1', '0', '0', '0', '0', '0', '1', '2', '29', '31', '48.3', '5', '1', '20.0', '3', '1', '66.7', '0', '0', '3', '2', '26', '5', '10', '28']"
"['', '27993', '2014-11-22', '00:00:00 GMT', '25', 'MIN', 'Minnesota', 'Wild', '1', 'TBL', 'Tampa Bay', 'Lightning', '26', 'Amalie Arena', '25', 'MIN', 'Minnesota', 'Wild', '0', '1', '0', '0', '0', '0', '0', '0', '29', '30', '49.2', '3', '0', '0.0', '2', '1', '50.0', '0', '0', '1', '2', '30', '2', '4', '18']"
"['', '28009', '2014-11-24', '00:30:00 GMT', '25', 'MIN', 'Minnesota', 'Wild', '4', 'FLO', 'Florida', 'Panthers', '3', 'BB&T Center', '25', 'MIN', 'Minnesota', 'Wild', '1', '0', '0', '0', '0', '0', '1', '2', '24', '37', '39.3', '3', '0', '0.0', '3', '0', '100.0', '0', '0', '4', '1', '35', '4', '8', '25']"
"['', '28023', '2014-11-26', '01:00:00 GMT', '28', 'LAK', 'Los Angeles', 'Kings', '25', 'MIN', 'Minnesota', 'Wild', '30', 'Xcel Energy Center', '25', 'MIN', 'Minnesota', 'Wild', '0', '1', '0', '0', '0', '0', '0', '0', '21', '26', '44.7', '2', '0', '0.0', '2', '0', '100.0', '0', '0', '0', '4', '28', '3', '6', '16']"
"['', '28037', '2014-11-28', '01:30:00 GMT', '25', 'MIN', 'Minnesota', 'Wild', '27', 'DAL', 'Dallas', 'Stars', '2', 'American Airlines Center', '25', 'MIN', 'Minnesota', 'Wild', '1', '0', '0', '0', '0', '0', '1', '2', '30', '45', '40.0', '1', '0', '0.0', '2', '0', '100.0', '0', '0', '5', '4', '29', '4', '8', '16']"
"['', '28045', '2014-11-29', '01:00:00 GMT', '17', 'STL', 'St. Louis', 'Blues', '25', 'MIN', 'Minnesota', 'Wild', '30', 'Xcel Energy Center', '25', 'MIN', 'Minnesota', 'Wild', '0', '0', '0', '1', '0', '0', '0', '1', '36', '28', '56.2', '4', '1', '25.0', '2', '0', '100.0', '0', '0', '2', '2', '36', '2', '4', '14']"
"['', '28066', '2014-12-03', '00:00:00 GMT', '14', 'MTL', 'Montreal', 'Canadiens', '25', 'MIN', 'Minnesota', 'Wild', '30', 'Xcel Energy Center', '25', 'MIN', 'Minnesota', 'Wild', '1', '0', '0', '0', '0', '0', '1', '2', '29', '32', '47.5', '4', '0', '0.0', '1', '0', '100.0', '0', '0', '2', '1', '33', '1', '2', '17']"
"['', '28081', '2014-12-05', '01:00:00 GMT', '29', 'ANA', 'Anaheim', 'Ducks', '25', 'MIN', 'Minnesota', 'Wild', '30', 'Xcel Energy Center', '25', 'MIN', 'Minnesota', 'Wild', '0', '1', '0', '0', '0', '0', '0', '0', '38', '26', '59.4', '4', '2', '50.0', '3', '0', '100.0', '0', '0', '4', '5', '21', '5', '13', '14']"
"['', '28109', '2014-12-09', '01:00:00 GMT', '8', 'NYI', 'New York', 'Islanders', '25', 'MIN', 'Minnesota', 'Wild', '30', 'Xcel Energy Center', '25', 'MIN', 'Minnesota', 'Wild', '1', '0', '0', '0', '0', '0', '1', '2', '44', '20', '68.8', '5', '1', '20.0', '4', '1', '75.0', '0', '0', '5', '4', '25', '6', '15', '17']"
"['', '28124', '2014-12-11', '03:30:00 GMT', '25', 'MIN', 'Minnesota', 'Wild', '26', 'SJS', 'San Jose', 'Sharks', '9', 'SAP Center at San Jose', '25', 'MIN', 'Minnesota', 'Wild', '0', '1', '0', '0', '0', '0', '0', '0', '25', '28', '47.2', '2', '0', '0.0', '3', '1', '66.7', '0', '0', '1', '2', '18', '4', '8', '18']"
"['', '28138', '2014-12-13', '01:00:00 GMT', '25', 'MIN', 'Minnesota', 'Wild', '30', 'ARI', 'Arizona', 'Coyotes', '6', 'Gila River Arena', '25', 'MIN', 'Minnesota', 'Wild', '1', '0', '0', '0', '0', '0', '0', '2', '25', '34', '42.4', '2', '2', '100.0', '2', '1', '50.0', '0', '0', '3', '3', '32', '4', '8', '28']"
"['', '28155', '2014-12-16', '01:30:00 GMT', '25', 'MIN', 'Minnesota', 'Wild', '20', 'CHI', 'Chicago', 'Blackhawks', '28', 'United Center', '25', 'MIN', 'Minnesota', 'Wild', '0', '1', '0', '0', '0', '0', '0', '0', '28', '35', '44.4', '3', '0', '0.0', '3', '1', '66.7', '0', '0', '3', '5', '26', '3', '6', '29']"
"['', '28159', '2014-12-17', '01:00:00 GMT', '11', 'BOS', 'Boston', 'Bruins', '25', 'MIN', 'Minnesota', 'Wild', '30', 'Xcel Energy Center', '25', 'MIN', 'Minnesota', 'Wild', '0', '0', '0', '1', '0', '0', '0', '1', '33', '28', '54.1', '2', '0', '0.0', '2', '0', '100.0', '0', '0', '2', '3', '35', '3', '9', '17']"
"['', '28182', '2014-12-20', '01:00:00 GMT', '18', 'NSH', 'Nashville', 'Predators', '25', 'MIN', 'Minnesota', 'Wild', '30', 'Xcel Energy Center', '25', 'MIN', 'Minnesota', 'Wild', '0', '0', '0', '1', '0', '0', '0', '1', '43', '40', '51.8', '3', '2', '66.7', '4', '1', '75.0', '0', '0', '5', '6', '22', '4', '8', '12']"
"['', '28202', '2014-12-23', '00:00:00 GMT', '6', 'PHI', 'Philadelphia', 'Flyers', '25', 'MIN', 'Minnesota', 'Wild', '30', 'Xcel Energy Center', '25', 'MIN', 'Minnesota', 'Wild', '0', '1', '0', '0', '0', '0', '0', '0', '35', '34', '50.7', '5', '1', '20.0', '1', '0', '100.0', '0', '0', '2', '5', '22', '2', '4', '19']"
"['', '28214', '2014-12-27', '00:00:00 GMT', '2', 'WPJ', 'Winnipeg', 'Jets', '25', 'MIN', 'Minnesota', 'Wild', '30', 'Xcel Energy Center', '25', 'MIN', 'Minnesota', 'Wild', '0', '0', '0', '1', '0', '0', '0', '1', '33', '32', '50.8', '4', '1', '25.0', '3', '0', '100.0', '0', '1', '3', '4', '22', '4', '11', '13']"
"['', '28230', '2014-12-29', '01:00:00 GMT', '25', 'MIN', 'Minnesota', 'Wild', '2', 'WPJ', 'Winnipeg', 'Jets', '39', 'MTS Centre', '25', 'MIN', 'Minnesota', 'Wild', '1', '0', '0', '0', '0', '0', '1', '2', '29', '37', '43.9', '3', '0', '0.0', '2', '2', '0.0', '0', '0', '3', '2', '28', '3', '6', '15']"
"['', '28244', '2014-12-31', '00:00:00 GMT', '25', 'MIN', 'Minnesota', 'Wild', '19', 'CBJ', 'Columbus', 'Blue Jackets', '17', 'Nationwide Arena', '25', 'MIN', 'Minnesota', 'Wild', '0', '1', '0', '0', '0', '0', '0', '0', '28', '34', '45.2', '4', '1', '25.0', '2', '1', '50.0', '0', '0', '1', '3', '28', '2', '4', '23']"
"['', '28256', '2015-01-02', '01:00:00 GMT', '12', 'TOR', 'Toronto', 'Maple Leafs', '25', 'MIN', 'Minnesota', 'Wild', '30', 'Xcel Energy Center', '25', 'MIN', 'Minnesota', 'Wild', '1', '0', '0', '0', '0', '0', '1', '2', '36', '30', '54.5', '2', '1', '50.0', '4', '1', '75.0', '0', '0', '3', '1', '26', '5', '10', '12']"
"['', '28267', '2015-01-03', '01:00:00 GMT', '25', 'MIN', 'Minnesota', 'Wild', '27', 'DAL', 'Dallas', 'Stars', '2', 'American Airlines Center', '25', 'MIN', 'Minnesota', 'Wild', '0', '1', '0', '0', '0', '0', '0', '0', '31', '38', '44.9', '3', '1', '33.3', '4', '1', '75.0', '0', '1', '1', '7', '21', '12', '47', '25']"
"['', '28282', '2015-01-06', '01:00:00 GMT', '26', 'SJS', 'San Jose', 'Sharks', '25', 'MIN', 'Minnesota', 'Wild', '30', 'Xcel Energy Center', '25', 'MIN', 'Minnesota', 'Wild', '0', '0', '0', '1', '0', '0', '0', '1', '32', '38', '45.7', '2', '0', '0.0', '4', '0', '100.0', '0', '0', '3', '4', '28', '5', '10', '11']"
"['', '28295', '2015-01-08', '01:00:00 GMT', '20', 'CHI', 'Chicago', 'Blackhawks', '25', 'MIN', 'Minnesota', 'Wild', '30', 'Xcel Energy Center', '25', 'MIN', 'Minnesota', 'Wild', '0', '1', '0', '0', '0', '0', '0', '0', '28', '34', '45.2', '5', '1', '20.0', '2', '1', '50.0', '0', '0', '2', '4', '42', '2', '7', '15']"
"['', '28308', '2015-01-10', '19:00:00 GMT', '18', 'NSH', 'Nashville', 'Predators', '25', 'MIN', 'Minnesota', 'Wild', '30', 'Xcel Energy Center', '25', 'MIN', 'Minnesota', 'Wild', '0', '1', '0', '0', '0', '0', '0', '0', '34', '29', '54.0', '5', '0', '0.0', '2', '0', '100.0', '0', '0', '1', '3', '36', '6', '21', '14']"
"['', '28319', '2015-01-11', '01:00:00 GMT', '25', 'MIN', 'Minnesota', 'Wild', '20', 'CHI', 'Chicago', 'Blackhawks', '28', 'United Center', '25', 'MIN', 'Minnesota', 'Wild', '0', '1', '0', '0', '0', '0', '0', '0', '21', '33', '38.9', '2', '0', '0.0', '2', '0', '100.0', '0', '0', '1', '4', '36', '2', '4', '17']"
"['', '28327', '2015-01-13', '00:00:00 GMT', '25', 'MIN', 'Minnesota', 'Wild', '10', 'PIT', 'Pittsburgh', 'Penguins', '40', 'Consol Energy Center', '25', 'MIN', 'Minnesota', 'Wild', '0', '1', '0', '0', '0', '0', '0', '0', '30', '32', '48.4', '1', '0', '0.0', '2', '1', '50.0', '0', '0', '2', '7', '30', '2', '4', '20']"
"['', '28339', '2015-01-15', '00:00:00 GMT', '25', 'MIN', 'Minnesota', 'Wild', '15', 'BUF', 'Buffalo', 'Sabres', '10', 'First Niagara Center', '25', 'MIN', 'Minnesota', 'Wild', '1', '0', '0', '0', '0', '0', '1', '2', '34', '25', '57.6', '6', '2', '33.3', '2', '0', '100.0', '1', '0', '7', '0', '30', '4', '11', '12']"
"['', '28363', '2015-01-17', '02:00:00 GMT', '30', 'ARI', 'Arizona', 'Coyotes', '25', 'MIN', 'Minnesota', 'Wild', '30', 'Xcel Energy Center', '25', 'MIN', 'Minnesota', 'Wild', '1', '0', '0', '0', '0', '0', '1', '2', '28', '32', '46.7', '3', '0', '0.0', '2', '1', '50.0', '0', '0', '3', '1', '30', '4', '8', '7']"
"['', '28373', '2015-01-19', '01:00:00 GMT', '19', 'CBJ', 'Columbus', 'Blue Jackets', '25', 'MIN', 'Minnesota', 'Wild', '30', 'Xcel Energy Center', '25', 'MIN', 'Minnesota', 'Wild', '0', '1', '0', '0', '0', '0', '0', '0', '27', '27', '50.0', '4', '1', '25.0', '2', '1', '50.0', '0', '0', '1', '3', '25', '2', '4', '16']"
"['', '28381', '2015-01-20', '00:30:00 GMT', '25', 'MIN', 'Minnesota', 'Wild', '16', 'DET', 'Detroit', 'Red Wings', '11', 'Joe Louis Arena', '25', 'MIN', 'Minnesota', 'Wild', '0', '0', '0', '1', '0', '0', '0', '1', '38', '29', '56.7', '5', '2', '40.0', '1', '1', '0.0', '0', '0', '4', '4', '34', '2', '4', '23']"
"['', '28400', '2015-01-27', '02:30:00 GMT', '25', 'MIN', 'Minnesota', 'Wild', '24', 'EDM', 'Edmonton', 'Oilers', '22', 'Rogers Place', '25', 'MIN', 'Minnesota', 'Wild', '1', '0', '0', '0', '0', '0', '1', '2', '25', '34', '42.4', '2', '0', '0.0', '3', '0', '100.0', '0', '0', '2', '1', '27', '4', '8', '13']"
"['', '28413', '2015-01-29', '02:00:00 GMT', '25', 'MIN', 'Minnesota', 'Wild', '23', 'CGY', 'Calgary', 'Flames', '18', 'Scotiabank Saddledome', '25', 'MIN', 'Minnesota', 'Wild', '1', '0', '0', '0', '0', '0', '1', '2', '31', '30', '50.8', '1', '0', '0.0', '1', '0', '100.0', '0', '0', '1', '0', '31', '1', '2', '9']"
"['', '28435', '2015-02-01', '20:30:00 GMT', '25', 'MIN', 'Minnesota', 'Wild', '21', 'VAN', 'Vancouver', 'Canucks', '7', 'Rogers Arena', '25', 'MIN', 'Minnesota', 'Wild', '1', '0', '0', '0', '0', '0', '1', '2', '33', '33', '50.0', '2', '1', '50.0', '3', '0', '100.0', '0', '0', '4', '2', '16', '6', '15', '18']"
"['', '28446', '2015-02-03', '01:00:00 GMT', '20', 'CHI', 'Chicago', 'Blackhawks', '25', 'MIN', 'Minnesota', 'Wild', '30', 'Xcel Energy Center', '25', 'MIN', 'Minnesota', 'Wild', '1', '0', '0', '0', '0', '0', '1', '2', '33', '27', '55.0', '2', '0', '0.0', '2', '0', '100.0', '0', '0', '3', '0', '40', '3', '6', '20']"
"['', '28475', '2015-02-07', '01:00:00 GMT', '22', 'COL', 'Colorado', 'Avalanche', '25', 'MIN', 'Minnesota', 'Wild', '30', 'Xcel Energy Center', '25', 'MIN', 'Minnesota', 'Wild', '1', '0', '0', '0', '0', '0', '1', '2', '44', '29', '60.3', '3', '0', '0.0', '2', '0', '100.0', '0', '0', '1', '0', '28', '2', '4', '15']"
"['', '28488', '2015-02-09', '01:00:00 GMT', '21', 'VAN', 'Vancouver', 'Canucks', '25', 'MIN', 'Minnesota', 'Wild', '30', 'Xcel Energy Center', '25', 'MIN', 'Minnesota', 'Wild', '1', '0', '0', '0', '0', '0', '1', '2', '40', '24', '62.5', '4', '2', '50.0', '1', '0', '100.0', '0', '0', '5', '3', '27', '4', '11', '16']"
"['', '28499', '2015-02-10', '01:00:00 GMT', '25', 'MIN', 'Minnesota', 'Wild', '2', 'WPJ', 'Winnipeg', 'Jets', '39', 'MTS Centre', '25', 'MIN', 'Minnesota', 'Wild', '0', '0', '0', '1', '0', '0', '0', '1', '32', '35', '47.8', '3', '0', '0.0', '3', '0', '100.0', '0', '0', '1', '2', '29', '4', '8', '17']"
"['', '28508', '2015-02-12', '01:00:00 GMT', '4', 'FLO', 'Florida', 'Panthers', '25', 'MIN', 'Minnesota', 'Wild', '30', 'Xcel Energy Center', '25', 'MIN', 'Minnesota', 'Wild', '1', '0', '0', '0', '0', '0', '1', '2', '36', '34', '51.4', '2', '1', '50.0', '3', '0', '100.0', '0', '0', '2', '1', '21', '4', '10', '15']"
"['', '28523', '2015-02-14', '01:00:00 GMT', '3', 'CAR', 'Carolina', 'Hurricanes', '25', 'MIN', 'Minnesota', 'Wild', '30', 'Xcel Energy Center', '25', 'MIN', 'Minnesota', 'Wild', '1', '0', '0', '0', '0', '0', '1', '2', '29', '31', '48.3', '2', '0', '0.0', '3', '0', '100.0', '0', '0', '6', '3', '18', '3', '8', '12']"
"['', '28538', '2015-02-16', '03:00:00 GMT', '25', 'MIN', 'Minnesota', 'Wild', '21', 'VAN', 'Vancouver', 'Canucks', '7', 'Rogers Arena', '25', 'MIN', 'Minnesota', 'Wild', '0', '1', '0', '0', '0', '0', '0', '0', '24', '17', '58.5', '1', '0', '0.0', '1', '0', '100.0', '0', '0', '2', '3', '20', '1', '2', '7']"
"['', '28549', '2015-02-18', '02:30:00 GMT', '25', 'MIN', 'Minnesota', 'Wild', '23', 'CGY', 'Calgary', 'Flames', '18', 'Scotiabank Saddledome', '25', 'MIN', 'Minnesota', 'Wild', '1', '0', '0', '0', '0', '0', '1', '2', '27', '33', '45.0', '1', '0', '0.0', '3', '0', '100.0', '0', '0', '3', '2', '26', '3', '6', '7']"
"['', '28565', '2015-02-20', '02:00:00 GMT', '25', 'MIN', 'Minnesota', 'Wild', '24', 'EDM', 'Edmonton', 'Oilers', '22', 'Rogers Place', '25', 'MIN', 'Minnesota', 'Wild', '1', '0', '0', '0', '0', '0', '1', '2', '19', '28', '40.4', '0', '0', '0.0', '1', '0', '100.0', '0', '0', '4', '0', '25', '1', '2', '11']"
"['', '28585', '2015-02-22', '01:00:00 GMT', '27', 'DAL', 'Dallas', 'Stars', '25', 'MIN', 'Minnesota', 'Wild', '30', 'Xcel Energy Center', '25', 'MIN', 'Minnesota', 'Wild', '1', '0', '0', '0', '0', '0', '1', '2', '31', '41', '43.1', '2', '1', '50.0', '3', '1', '66.7', '0', '0', '6', '2', '29', '3', '6', '10']"
"['', '28596', '2015-02-24', '01:00:00 GMT', '24', 'EDM', 'Edmonton', 'Oilers', '25', 'MIN', 'Minnesota', 'Wild', '30', 'Xcel Energy Center', '25', 'MIN', 'Minnesota', 'Wild', '0', '1', '0', '0', '0', '0', '0', '0', '40', '26', '60.6', '3', '0', '0.0', '2', '0', '100.0', '0', '0', '1', '2', '33', '2', '4', '18']"
"['', '28608', '2015-02-26', '01:00:00 GMT', '25', 'MIN', 'Minnesota', 'Wild', '18', 'NSH', 'Nashville', 'Predators', '15', 'Bridgestone Arena', '25', 'MIN', 'Minnesota', 'Wild', '1', '0', '0', '0', '0', '0', '1', '2', '40', '33', '54.8', '2', '0', '0.0', '2', '0', '100.0', '0', '0', '4', '2', '26', '2', '4', '17']"
"['', '28625', '2015-02-28', '03:00:00 GMT', '25', 'MIN', 'Minnesota', 'Wild', '22', 'COL', 'Colorado', 'Avalanche', '19', 'Pepsi Center', '25', 'MIN', 'Minnesota', 'Wild', '1', '0', '0', '0', '0', '0', '1', '2', '26', '37', '41.3', '4', '0', '0.0', '7', '0', '100.0', '0', '0', '3', '1', '29', '9', '24', '12']"
"['', '28641', '2015-03-03', '01:00:00 GMT', '13', 'OTT', 'Ottawa', 'Senators', '25', 'MIN', 'Minnesota', 'Wild', '30', 'Xcel Energy Center', '25', 'MIN', 'Minnesota', 'Wild', '1', '0', '0', '0', '0', '0', '0', '2', '32', '29', '52.5', '3', '0', '0.0', '4', '0', '100.0', '0', '0', '2', '2', '36', '4', '8', '16']"
"['', '28652', '2015-03-05', '00:00:00 GMT', '25', 'MIN', 'Minnesota', 'Wild', '5', 'WSH', 'Washington', 'Capitals', '13', 'Verizon Center', '25', 'MIN', 'Minnesota', 'Wild', '1', '0', '0', '0', '0', '0', '1', '2', '28', '37', '43.1', '2', '0', '0.0', '1', '1', '0.0', '0', '0', '2', '1', '28', '1', '2', '21']"
"['', '28659', '2015-03-06', '00:00:00 GMT', '25', 'MIN', 'Minnesota', 'Wild', '3', 'CAR', 'Carolina', 'Hurricanes', '21', 'RBC Center', '25', 'MIN', 'Minnesota', 'Wild', '1', '0', '0', '0', '0', '0', '1', '2', '25', '33', '43.1', '2', '0', '0.0', '2', '0', '100.0', '0', '0', '3', '1', '16', '2', '4', '30']"
"['', '28676', '2015-03-08', '22:00:00 GMT', '22', 'COL', 'Colorado', 'Avalanche', '25', 'MIN', 'Minnesota', 'Wild', '30', 'Xcel Energy Center', '25', 'MIN', 'Minnesota', 'Wild', '0', '1', '0', '0', '0', '0', '0', '0', '29', '31', '48.3', '2', '0', '0.0', '3', '1', '66.7', '0', '0', '2', '3', '32', '4', '11', '11']"
"['', '28690', '2015-03-10', '00:00:00 GMT', '7', 'NJD', 'New Jersey', 'Devils', '25', 'MIN', 'Minnesota', 'Wild', '30', 'Xcel Energy Center', '25', 'MIN', 'Minnesota', 'Wild', '1', '0', '0', '0', '0', '0', '1', '2', '31', '28', '52.5', '4', '1', '25.0', '0', '0', '0.0', '0', '0', '6', '2', '32', '0', '0', '3']"
"['', '28711', '2015-03-13', '00:00:00 GMT', '29', 'ANA', 'Anaheim', 'Ducks', '25', 'MIN', 'Minnesota', 'Wild', '30', 'Xcel Energy Center', '25', 'MIN', 'Minnesota', 'Wild', '0', '1', '0', '0', '0', '0', '0', '0', '34', '23', '59.6', '4', '1', '25.0', '2', '0', '100.0', '0', '0', '1', '2', '32', '5', '13', '14']"
"['', '28720', '2015-03-14', '00:00:00 GMT', '25', 'MIN', 'Minnesota', 'Wild', '17', 'STL', 'St. Louis', 'Blues', '24', 'Scottrade Center', '25', 'MIN', 'Minnesota', 'Wild', '1', '0', '0', '0', '0', '0', '1', '2', '25', '34', '42.4', '1', '0', '0.0', '2', '0', '100.0', '0', '0', '3', '1', '16', '4', '8', '21']"
"['', '28739', '2015-03-17', '00:00:00 GMT', '25', 'MIN', 'Minnesota', 'Wild', '18', 'NSH', 'Nashville', 'Predators', '15', 'Bridgestone Arena', '25', 'MIN', 'Minnesota', 'Wild', '1', '0', '0', '0', '0', '0', '1', '2', '32', '24', '57.1', '0', '0', '0.0', '4', '0', '100.0', '0', '0', '3', '2', '18', '4', '8', '21']"
"['', '28751', '2015-03-19', '00:00:00 GMT', '5', 'WSH', 'Washington', 'Capitals', '25', 'MIN', 'Minnesota', 'Wild', '30', 'Xcel Energy Center', '25', 'MIN', 'Minnesota', 'Wild', '0', '1', '0', '0', '0', '0', '0', '0', '26', '28', '48.1', '3', '1', '33.3', '4', '0', '100.0', '0', '0', '2', '3', '28', '6', '12', '10']"
"['', '28760', '2015-03-21', '18:00:00 GMT', '17', 'STL', 'St. Louis', 'Blues', '25', 'MIN', 'Minnesota', 'Wild', '30', 'Xcel Energy Center', '25', 'MIN', 'Minnesota', 'Wild', '1', '0', '0', '0', '0', '0', '1', '2', '22', '31', '41.5', '4', '1', '25.0', '4', '2', '50.0', '0', '0', '6', '3', '22', '4', '8', '16']"
"['', '28779', '2015-03-23', '23:30:00 GMT', '25', 'MIN', 'Minnesota', 'Wild', '12', 'TOR', 'Toronto', 'Maple Leafs', '1', 'Air Canada Center', '25', 'MIN', 'Minnesota', 'Wild', '1', '0', '0', '0', '0', '0', '1', '2', '26', '35', '42.6', '2', '0', '0.0', '5', '0', '100.0', '0', '0', '2', '1', '30', '5', '13', '33']"
"['', '28784', '2015-03-24', '23:00:00 GMT', '25', 'MIN', 'Minnesota', 'Wild', '8', 'NYI', 'New York', 'Islanders', '16', 'Nassau Veterans Memorial Coliseum', '25', 'MIN', 'Minnesota', 'Wild', '1', '0', '0', '0', '0', '0', '0', '2', '21', '36', '36.8', '1', '0', '0.0', '1', '1', '0.0', '0', '0', '1', '1', '31', '1', '2', '23']"
"['', '28806', '2015-03-27', '00:00:00 GMT', '23', 'CGY', 'Calgary', 'Flames', '25', 'MIN', 'Minnesota', 'Wild', '30', 'Xcel Energy Center', '25', 'MIN', 'Minnesota', 'Wild', '1', '0', '0', '0', '0', '0', '1', '2', '30', '26', '53.6', '1', '1', '100.0', '2', '0', '100.0', '0', '0', '4', '2', '32', '2', '4', '7']"
"['', '28819', '2015-03-28', '00:00:00 GMT', '28', 'LAK', 'Los Angeles', 'Kings', '25', 'MIN', 'Minnesota', 'Wild', '30', 'Xcel Energy Center', '25', 'MIN', 'Minnesota', 'Wild', '1', '0', '0', '0', '0', '0', '1', '2', '30', '32', '48.4', '2', '1', '50.0', '3', '0', '100.0', '0', '0', '4', '1', '16', '4', '11', '9']"
"['', '28852', '2015-04-02', '00:00:00 GMT', '9', 'NYR', 'New York', 'Rangers', '25', 'MIN', 'Minnesota', 'Wild', '30', 'Xcel Energy Center', '25', 'MIN', 'Minnesota', 'Wild', '0', '1', '0', '0', '0', '0', '0', '0', '37', '21', '63.8', '2', '0', '0.0', '5', '1', '80.0', '0', '0', '2', '3', '26', '5', '12', '10']"
"['', '28867', '2015-04-04', '23:00:00 GMT', '16', 'DET', 'Detroit', 'Red Wings', '25', 'MIN', 'Minnesota', 'Wild', '30', 'Xcel Energy Center', '25', 'MIN', 'Minnesota', 'Wild', '0', '0', '0', '1', '0', '0', '0', '1', '29', '25', '53.7', '5', '1', '20.0', '2', '1', '50.0', '0', '0', '2', '2', '22', '2', '4', '22']"
"['', '28881', '2015-04-06', '00:00:00 GMT', '2', 'WPJ', 'Winnipeg', 'Jets', '25', 'MIN', 'Minnesota', 'Wild', '30', 'Xcel Energy Center', '25', 'MIN', 'Minnesota', 'Wild', '0', '1', '0', '0', '0', '0', '0', '0', '41', '25', '62.1', '3', '0', '0.0', '4', '1', '75.0', '0', '0', '0', '2', '32', '4', '8', '22']"
"['', '28890', '2015-04-07', '00:30:00 GMT', '25', 'MIN', 'Minnesota', 'Wild', '20', 'CHI', 'Chicago', 'Blackhawks', '28', 'United Center', '25', 'MIN', 'Minnesota', 'Wild', '1', '0', '0', '0', '0', '0', '1', '2', '20', '32', '38.5', '1', '0', '0.0', '1', '0', '100.0', '0', '0', '2', '1', '28', '1', '2', '24']"
"['', '28903', '2015-04-09', '00:00:00 GMT', '25', 'MIN', 'Minnesota', 'Wild', '18', 'NSH', 'Nashville', 'Predators', '15', 'Bridgestone Arena', '25', 'MIN', 'Minnesota', 'Wild', '1', '0', '0', '0', '0', '0', '1', '2', '34', '25', '57.6', '1', '1', '100.0', '2', '0', '100.0', '0', '0', '4', '2', '23', '3', '6', '16']"
"['', '28920', '2015-04-11', '23:30:00 GMT', '25', 'MIN', 'Minnesota', 'Wild', '17', 'STL', 'St. Louis', 'Blues', '24', 'Scottrade Center', '25', 'MIN', 'Minnesota', 'Wild', '0', '1', '0', '0', '0', '0', '0', '0', '27', '24', '52.9', '4', '1', '25.0', '2', '1', '50.0', '0', '0', '2', '4', '23', '3', '6', '12']"
