"['#Date/Time of Update: 2018-12-10 19:03:24 GMT', '#Game ID', '#Game Date', '#Game Time', '#Away Team ID', '#Away Team Abbr.', '#Away Team City', '#Away Team Name', '#Home Team ID', '#Home Team Abbr.', '#Home Team City', '#Home Team Name', '#Venue ID', '#Venue Name', '#Team ID', '#Team Abbr.', '#Team City', '#Team Name', '#Wins', '#Losses', '#OvertimeWins', '#OvertimeLosses', '#Points', '#FaceoffWins', '#FaceoffLosses', '#FaceoffPercent', '#Powerplays', '#PowerplayGoals', '#PowerplayPercent', '#PenaltyKills', '#PenaltyKillGoalsAllowed', '#PenaltyKillPercent', '#ShorthandedGoalsFor', '#ShorthandedGoalsAgainst', '#GoalsFor', '#GoalsAgainst', '#Shots', '#BlockedShots', '#Penalties', '#PenaltyMinutes', '#Hits']"
"['', '40801', '2017-10-07', '02:00:00 GMT', '24', 'EDM', 'Edmonton', 'Oilers', '21', 'VAN', 'Vancouver', 'Canucks', '7', 'Rogers Arena', '21', 'VAN', 'Vancouver', 'Canucks', '1', '0', '0', '0', '2', '33', '27', '55.0', '7', '1', '14.3', '5', '1', '80.0', '0', '0', '3', '2', '26', '15', '6', '15', '16']"
"['', '40818', '2017-10-10', '02:00:00 GMT', '13', 'OTT', 'Ottawa', 'Senators', '21', 'VAN', 'Vancouver', 'Canucks', '7', 'Rogers Arena', '21', 'VAN', 'Vancouver', 'Canucks', '0', '0', '0', '1', '1', '35', '27', '56.5', '4', '0', '0.0', '4', '0', '100.0', '0', '0', '2', '2', '28', '8', '3', '8', '12']"
"['', '40829', '2017-10-12', '02:00:00 GMT', '2', 'WPJ', 'Winnipeg', 'Jets', '21', 'VAN', 'Vancouver', 'Canucks', '7', 'Rogers Arena', '21', 'VAN', 'Vancouver', 'Canucks', '0', '1', '0', '0', '0', '35', '29', '54.7', '5', '1', '20.0', '2', '0', '100.0', '0', '1', '2', '4', '32', '9', '2', '4', '18']"
"['', '40846', '2017-10-14', '02:00:00 GMT', '23', 'CGY', 'Calgary', 'Flames', '21', 'VAN', 'Vancouver', 'Canucks', '7', 'Rogers Arena', '21', 'VAN', 'Vancouver', 'Canucks', '0', '1', '0', '0', '0', '34', '26', '56.7', '7', '0', '0.0', '5', '1', '80.0', '0', '1', '2', '5', '29', '13', '7', '14', '9']"
"['', '40858', '2017-10-17', '23:30:00 GMT', '21', 'VAN', 'Vancouver', 'Canucks', '13', 'OTT', 'Ottawa', 'Senators', '23', 'Canadian Tire Centre', '21', 'VAN', 'Vancouver', 'Canucks', '1', '0', '0', '0', '2', '26', '33', '44.1', '2', '1', '50.0', '3', '0', '100.0', '0', '0', '3', '0', '24', '16', '6', '23', '18']"
"['', '43356', '2017-10-19', '23:00:00 GMT', '21', 'VAN', 'Vancouver', 'Canucks', '11', 'BOS', 'Boston', 'Bruins', '27', 'TD Garden', '21', 'VAN', 'Vancouver', 'Canucks', '0', '1', '0', '0', '0', '32', '32', '50.0', '6', '1', '16.7', '5', '4', '20.0', '0', '0', '3', '6', '29', '11', '9', '43', '22']"
"['', '40877', '2017-10-20', '23:00:00 GMT', '21', 'VAN', 'Vancouver', 'Canucks', '15', 'BUF', 'Buffalo', 'Sabres', '10', 'KeyBank Center', '21', 'VAN', 'Vancouver', 'Canucks', '1', '0', '0', '0', '2', '33', '33', '50.0', '4', '0', '0.0', '3', '0', '100.0', '1', '0', '4', '2', '41', '10', '4', '8', '7']"
"['', '43364', '2017-10-22', '23:00:00 GMT', '21', 'VAN', 'Vancouver', 'Canucks', '16', 'DET', 'Detroit', 'Red Wings', '145', 'Little Caesars Arena', '21', 'VAN', 'Vancouver', 'Canucks', '1', '0', '0', '0', '2', '28', '28', '50.0', '2', '0', '0.0', '1', '0', '100.0', '0', '0', '4', '1', '37', '12', '1', '2', '20']"
"['', '40906', '2017-10-24', '00:00:00 GMT', '21', 'VAN', 'Vancouver', 'Canucks', '25', 'MIN', 'Minnesota', 'Wild', '30', 'Xcel Energy Center', '21', 'VAN', 'Vancouver', 'Canucks', '1', '0', '0', '0', '2', '32', '33', '49.2', '3', '0', '0.0', '4', '0', '100.0', '0', '0', '1', '0', '25', '14', '4', '8', '15']"
"['', '40921', '2017-10-26', '02:00:00 GMT', '5', 'WSH', 'Washington', 'Capitals', '21', 'VAN', 'Vancouver', 'Canucks', '7', 'Rogers Arena', '21', 'VAN', 'Vancouver', 'Canucks', '1', '0', '0', '0', '2', '38', '30', '55.9', '6', '3', '50.0', '2', '0', '100.0', '0', '0', '6', '2', '30', '11', '4', '11', '16']"
"['', '40949', '2017-10-30', '02:00:00 GMT', '27', 'DAL', 'Dallas', 'Stars', '21', 'VAN', 'Vancouver', 'Canucks', '7', 'Rogers Arena', '21', 'VAN', 'Vancouver', 'Canucks', '0', '0', '0', '1', '1', '38', '26', '59.4', '4', '1', '25.0', '5', '1', '80.0', '0', '0', '1', '2', '39', '6', '5', '10', '18']"
"['', '40956', '2017-11-01', '02:00:00 GMT', '7', 'NJD', 'New Jersey', 'Devils', '21', 'VAN', 'Vancouver', 'Canucks', '7', 'Rogers Arena', '21', 'VAN', 'Vancouver', 'Canucks', '0', '1', '0', '0', '0', '24', '32', '42.9', '4', '0', '0.0', '1', '0', '100.0', '0', '0', '0', '2', '37', '9', '1', '2', '13']"
"['', '40983', '2017-11-04', '02:00:00 GMT', '10', 'PIT', 'Pittsburgh', 'Penguins', '21', 'VAN', 'Vancouver', 'Canucks', '7', 'Rogers Arena', '21', 'VAN', 'Vancouver', 'Canucks', '1', '0', '0', '0', '2', '32', '32', '50.0', '2', '0', '0.0', '4', '1', '75.0', '0', '0', '4', '2', '21', '7', '4', '8', '30']"
"['', '40995', '2017-11-06', '03:00:00 GMT', '16', 'DET', 'Detroit', 'Red Wings', '21', 'VAN', 'Vancouver', 'Canucks', '7', 'Rogers Arena', '21', 'VAN', 'Vancouver', 'Canucks', '0', '1', '0', '0', '0', '34', '35', '49.3', '2', '0', '0.0', '2', '1', '50.0', '0', '0', '2', '3', '28', '9', '3', '6', '19']"
"['', '41003', '2017-11-07', '02:00:00 GMT', '21', 'VAN', 'Vancouver', 'Canucks', '23', 'CGY', 'Calgary', 'Flames', '18', 'Scotiabank Saddledome', '21', 'VAN', 'Vancouver', 'Canucks', '1', '0', '0', '0', '2', '30', '23', '56.6', '3', '2', '66.7', '4', '2', '50.0', '1', '0', '5', '3', '21', '17', '4', '8', '8']"
"['', '41013', '2017-11-09', '03:00:00 GMT', '21', 'VAN', 'Vancouver', 'Canucks', '29', 'ANA', 'Anaheim', 'Ducks', '8', 'Honda Center', '21', 'VAN', 'Vancouver', 'Canucks', '0', '1', '0', '0', '0', '29', '32', '47.5', '5', '0', '0.0', '7', '3', '57.1', '0', '0', '1', '4', '20', '15', '8', '27', '11']"
"['', '41032', '2017-11-11', '03:00:00 GMT', '21', 'VAN', 'Vancouver', 'Canucks', '26', 'SJS', 'San Jose', 'Sharks', '9', 'SAP Center at San Jose', '21', 'VAN', 'Vancouver', 'Canucks', '0', '1', '0', '0', '0', '29', '32', '47.5', '5', '0', '0.0', '4', '0', '100.0', '0', '2', '0', '5', '41', '15', '4', '8', '22']"
"['', '41047', '2017-11-14', '03:30:00 GMT', '21', 'VAN', 'Vancouver', 'Canucks', '28', 'LAK', 'Los Angeles', 'Kings', '25', 'Staples Center', '21', 'VAN', 'Vancouver', 'Canucks', '1', '0', '0', '0', '2', '34', '33', '50.7', '3', '2', '66.7', '5', '1', '80.0', '0', '0', '3', '2', '26', '10', '6', '15', '20']"
"['', '41060', '2017-11-16', '03:00:00 GMT', '142', 'VGK', 'Vegas', 'Golden Knights', '21', 'VAN', 'Vancouver', 'Canucks', '7', 'Rogers Arena', '21', 'VAN', 'Vancouver', 'Canucks', '0', '1', '0', '0', '0', '35', '34', '50.7', '2', '0', '0.0', '0', '0', '0.0', '0', '0', '2', '5', '21', '11', '0', '0', '25']"
"['', '41076', '2017-11-18', '03:00:00 GMT', '17', 'STL', 'St. Louis', 'Blues', '21', 'VAN', 'Vancouver', 'Canucks', '7', 'Rogers Arena', '21', 'VAN', 'Vancouver', 'Canucks', '0', '0', '0', '1', '1', '30', '27', '52.6', '4', '1', '25.0', '4', '0', '100.0', '1', '0', '3', '4', '23', '18', '4', '8', '14']"
"['', '41089', '2017-11-21', '00:00:00 GMT', '21', 'VAN', 'Vancouver', 'Canucks', '6', 'PHI', 'Philadelphia', 'Flyers', '29', 'Wells Fargo Center', '21', 'VAN', 'Vancouver', 'Canucks', '1', '0', '0', '0', '2', '28', '43', '39.4', '3', '2', '66.7', '2', '0', '100.0', '0', '0', '5', '2', '36', '27', '2', '4', '18']"
"['', '41092', '2017-11-22', '00:00:00 GMT', '21', 'VAN', 'Vancouver', 'Canucks', '10', 'PIT', 'Pittsburgh', 'Penguins', '40', 'PPG Paints Arena', '21', 'VAN', 'Vancouver', 'Canucks', '1', '0', '0', '0', '2', '33', '31', '51.6', '3', '2', '66.7', '5', '2', '60.0', '0', '0', '5', '2', '37', '14', '5', '10', '13']"
"['', '41115', '2017-11-24', '00:00:00 GMT', '21', 'VAN', 'Vancouver', 'Canucks', '7', 'NJD', 'New Jersey', 'Devils', '37', 'Prudential Center', '21', 'VAN', 'Vancouver', 'Canucks', '0', '1', '0', '0', '0', '22', '26', '45.8', '3', '1', '33.3', '3', '1', '66.7', '0', '0', '2', '3', '25', '7', '3', '6', '27']"
"['', '41133', '2017-11-26', '19:00:00 GMT', '21', 'VAN', 'Vancouver', 'Canucks', '9', 'NYR', 'New York', 'Rangers', '12', 'Madison Square Garden', '21', 'VAN', 'Vancouver', 'Canucks', '0', '0', '0', '1', '1', '21', '26', '44.7', '1', '0', '0.0', '2', '0', '100.0', '0', '0', '3', '3', '32', '16', '2', '4', '22']"
"['', '41144', '2017-11-28', '00:00:00 GMT', '21', 'VAN', 'Vancouver', 'Canucks', '8', 'NYI', 'New York', 'Islanders', '16', 'Nassau Veterans Memorial Coliseum', '21', 'VAN', 'Vancouver', 'Canucks', '0', '1', '0', '0', '0', '27', '34', '44.3', '2', '1', '50.0', '3', '0', '100.0', '1', '1', '2', '5', '25', '9', '3', '6', '21']"
"['', '41156', '2017-11-30', '01:00:00 GMT', '21', 'VAN', 'Vancouver', 'Canucks', '18', 'NSH', 'Nashville', 'Predators', '15', 'Bridgestone Arena', '21', 'VAN', 'Vancouver', 'Canucks', '1', '0', '0', '0', '2', '24', '33', '42.1', '4', '1', '25.0', '4', '1', '75.0', '0', '0', '5', '3', '32', '12', '4', '8', '15']"
"['', '41172', '2017-12-02', '00:00:00 GMT', '12', 'TOR', 'Toronto', 'Maple Leafs', '21', 'VAN', 'Vancouver', 'Canucks', '7', 'Rogers Arena', '21', 'VAN', 'Vancouver', 'Canucks', '1', '0', '0', '0', '2', '24', '34', '41.4', '1', '0', '0.0', '2', '0', '100.0', '0', '0', '2', '1', '26', '19', '2', '4', '16']"
"['', '41196', '2017-12-05', '03:00:00 GMT', '3', 'CAR', 'Carolina', 'Hurricanes', '21', 'VAN', 'Vancouver', 'Canucks', '7', 'Rogers Arena', '21', 'VAN', 'Vancouver', 'Canucks', '1', '0', '0', '0', '2', '21', '32', '39.6', '3', '1', '33.3', '2', '0', '100.0', '0', '0', '3', '0', '22', '15', '2', '4', '18']"
"['', '41209', '2017-12-07', '03:00:00 GMT', '6', 'PHI', 'Philadelphia', 'Flyers', '21', 'VAN', 'Vancouver', 'Canucks', '7', 'Rogers Arena', '21', 'VAN', 'Vancouver', 'Canucks', '0', '1', '0', '0', '0', '32', '29', '52.5', '2', '0', '0.0', '6', '2', '66.7', '0', '0', '1', '4', '37', '5', '6', '12', '18']"
"['', '41227', '2017-12-09', '03:00:00 GMT', '21', 'VAN', 'Vancouver', 'Canucks', '23', 'CGY', 'Calgary', 'Flames', '18', 'Scotiabank Saddledome', '21', 'VAN', 'Vancouver', 'Canucks', '0', '1', '0', '0', '0', '29', '31', '48.3', '4', '1', '25.0', '4', '0', '100.0', '0', '0', '2', '4', '24', '11', '4', '8', '13']"
"['', '41237', '2017-12-11', '01:00:00 GMT', '21', 'VAN', 'Vancouver', 'Canucks', '2', 'WPJ', 'Winnipeg', 'Jets', '39', 'Bell MTS Place', '21', 'VAN', 'Vancouver', 'Canucks', '0', '1', '0', '0', '0', '20', '32', '38.5', '2', '0', '0.0', '3', '1', '66.7', '0', '0', '1', '5', '26', '12', '3', '6', '16']"
"['', '41251', '2017-12-13', '03:00:00 GMT', '18', 'NSH', 'Nashville', 'Predators', '21', 'VAN', 'Vancouver', 'Canucks', '7', 'Rogers Arena', '21', 'VAN', 'Vancouver', 'Canucks', '0', '1', '0', '0', '0', '29', '38', '43.3', '5', '1', '20.0', '3', '1', '66.7', '0', '1', '1', '7', '26', '16', '6', '20', '17']"
"['', '41268', '2017-12-15', '03:00:00 GMT', '26', 'SJS', 'San Jose', 'Sharks', '21', 'VAN', 'Vancouver', 'Canucks', '7', 'Rogers Arena', '21', 'VAN', 'Vancouver', 'Canucks', '1', '0', '0', '0', '2', '21', '29', '42.0', '3', '2', '66.7', '4', '1', '75.0', '0', '0', '4', '3', '40', '16', '4', '8', '21']"
"['', '43393', '2017-12-17', '01:00:00 GMT', '23', 'CGY', 'Calgary', 'Flames', '21', 'VAN', 'Vancouver', 'Canucks', '7', 'Rogers Arena', '21', 'VAN', 'Vancouver', 'Canucks', '0', '1', '0', '0', '0', '28', '32', '46.7', '5', '1', '20.0', '5', '1', '80.0', '0', '0', '1', '6', '17', '17', '7', '14', '23']"
"['', '41297', '2017-12-19', '03:00:00 GMT', '14', 'MTL', 'Montreal', 'Canadiens', '21', 'VAN', 'Vancouver', 'Canucks', '7', 'Rogers Arena', '21', 'VAN', 'Vancouver', 'Canucks', '0', '1', '0', '0', '0', '33', '39', '45.8', '3', '2', '66.7', '3', '2', '33.3', '0', '0', '5', '7', '39', '11', '3', '6', '27']"
"['', '41310', '2017-12-21', '03:30:00 GMT', '21', 'VAN', 'Vancouver', 'Canucks', '26', 'SJS', 'San Jose', 'Sharks', '9', 'SAP Center at San Jose', '21', 'VAN', 'Vancouver', 'Canucks', '0', '0', '0', '1', '1', '28', '30', '48.3', '4', '0', '0.0', '4', '3', '25.0', '0', '0', '4', '5', '40', '15', '6', '15', '27']"
"['', '41330', '2017-12-23', '03:00:00 GMT', '17', 'STL', 'St. Louis', 'Blues', '21', 'VAN', 'Vancouver', 'Canucks', '7', 'Rogers Arena', '21', 'VAN', 'Vancouver', 'Canucks', '0', '1', '0', '0', '0', '30', '38', '44.1', '2', '0', '0.0', '2', '0', '100.0', '0', '0', '1', '3', '31', '13', '2', '4', '23']"
"['', '41346', '2017-12-28', '03:00:00 GMT', '20', 'CHI', 'Chicago', 'Blackhawks', '21', 'VAN', 'Vancouver', 'Canucks', '7', 'Rogers Arena', '21', 'VAN', 'Vancouver', 'Canucks', '1', '0', '0', '0', '2', '27', '35', '43.5', '3', '0', '0.0', '5', '1', '80.0', '0', '0', '5', '2', '31', '15', '6', '12', '22']"
"['', '41365', '2017-12-30', '03:00:00 GMT', '28', 'LAK', 'Los Angeles', 'Kings', '21', 'VAN', 'Vancouver', 'Canucks', '7', 'Rogers Arena', '21', 'VAN', 'Vancouver', 'Canucks', '0', '1', '0', '0', '0', '28', '34', '45.2', '1', '0', '0.0', '2', '1', '50.0', '0', '0', '3', '4', '25', '19', '2', '4', '19']"
"['', '41386', '2018-01-02', '03:00:00 GMT', '29', 'ANA', 'Anaheim', 'Ducks', '21', 'VAN', 'Vancouver', 'Canucks', '7', 'Rogers Arena', '21', 'VAN', 'Vancouver', 'Canucks', '0', '1', '0', '0', '0', '35', '34', '50.7', '4', '0', '0.0', '2', '0', '100.0', '0', '0', '0', '5', '31', '10', '3', '9', '23']"
"['', '41411', '2018-01-06', '00:00:00 GMT', '21', 'VAN', 'Vancouver', 'Canucks', '12', 'TOR', 'Toronto', 'Maple Leafs', '1', 'Air Canada Center', '21', 'VAN', 'Vancouver', 'Canucks', '0', '0', '0', '1', '1', '26', '45', '36.6', '3', '1', '33.3', '4', '0', '100.0', '0', '0', '2', '2', '36', '21', '4', '8', '37']"
"['', '41421', '2018-01-07', '00:00:00 GMT', '21', 'VAN', 'Vancouver', 'Canucks', '14', 'MTL', 'Montreal', 'Canadiens', '4', 'Bell Centre', '21', 'VAN', 'Vancouver', 'Canucks', '0', '1', '0', '0', '0', '30', '31', '49.2', '3', '0', '0.0', '3', '1', '66.7', '0', '0', '2', '5', '36', '24', '3', '6', '31']"
"['', '41426', '2018-01-09', '00:00:00 GMT', '21', 'VAN', 'Vancouver', 'Canucks', '5', 'WSH', 'Washington', 'Capitals', '13', 'Capital One Arena', '21', 'VAN', 'Vancouver', 'Canucks', '0', '1', '0', '0', '0', '28', '33', '45.9', '3', '1', '33.3', '2', '0', '100.0', '0', '0', '1', '3', '38', '10', '3', '9', '21']"
"['', '41438', '2018-01-12', '00:00:00 GMT', '21', 'VAN', 'Vancouver', 'Canucks', '19', 'CBJ', 'Columbus', 'Blue Jackets', '17', 'Nationwide Arena', '21', 'VAN', 'Vancouver', 'Canucks', '1', '0', '0', '0', '2', '37', '24', '60.7', '3', '2', '66.7', '2', '1', '50.0', '0', '0', '5', '2', '29', '19', '2', '4', '24']"
"['', '41455', '2018-01-14', '01:00:00 GMT', '21', 'VAN', 'Vancouver', 'Canucks', '25', 'MIN', 'Minnesota', 'Wild', '30', 'Xcel Energy Center', '21', 'VAN', 'Vancouver', 'Canucks', '1', '0', '0', '0', '2', '24', '29', '45.3', '1', '0', '0.0', '1', '1', '0.0', '0', '0', '3', '2', '25', '9', '1', '2', '16']"
"['', '41493', '2018-01-20', '03:00:00 GMT', '21', 'VAN', 'Vancouver', 'Canucks', '24', 'EDM', 'Edmonton', 'Oilers', '22', 'Rogers Place', '21', 'VAN', 'Vancouver', 'Canucks', '0', '1', '0', '0', '0', '38', '20', '65.5', '3', '1', '33.3', '3', '0', '100.0', '0', '0', '2', '5', '27', '14', '3', '6', '24']"
"['', '41496', '2018-01-21', '01:00:00 GMT', '21', 'VAN', 'Vancouver', 'Canucks', '2', 'WPJ', 'Winnipeg', 'Jets', '39', 'Bell MTS Place', '21', 'VAN', 'Vancouver', 'Canucks', '0', '1', '0', '0', '0', '30', '34', '46.9', '2', '0', '0.0', '2', '0', '100.0', '0', '0', '0', '1', '29', '14', '2', '4', '16']"
"['', '41515', '2018-01-23', '03:00:00 GMT', '28', 'LAK', 'Los Angeles', 'Kings', '21', 'VAN', 'Vancouver', 'Canucks', '7', 'Rogers Arena', '21', 'VAN', 'Vancouver', 'Canucks', '1', '0', '0', '0', '2', '46', '27', '63.0', '7', '3', '42.9', '5', '1', '80.0', '0', '0', '6', '2', '35', '17', '5', '10', '16']"
"['', '41532', '2018-01-25', '03:00:00 GMT', '15', 'BUF', 'Buffalo', 'Sabres', '21', 'VAN', 'Vancouver', 'Canucks', '7', 'Rogers Arena', '21', 'VAN', 'Vancouver', 'Canucks', '0', '1', '0', '0', '0', '23', '33', '41.1', '2', '0', '0.0', '3', '1', '66.7', '0', '1', '0', '4', '30', '9', '4', '8', '15']"
"['', '41545', '2018-01-30', '03:00:00 GMT', '22', 'COL', 'Colorado', 'Avalanche', '21', 'VAN', 'Vancouver', 'Canucks', '7', 'Rogers Arena', '21', 'VAN', 'Vancouver', 'Canucks', '1', '0', '0', '0', '2', '28', '18', '60.9', '4', '1', '25.0', '4', '1', '75.0', '0', '0', '4', '3', '26', '11', '5', '10', '14']"
"['', '41560', '2018-02-01', '03:00:00 GMT', '20', 'CHI', 'Chicago', 'Blackhawks', '21', 'VAN', 'Vancouver', 'Canucks', '7', 'Rogers Arena', '21', 'VAN', 'Vancouver', 'Canucks', '1', '0', '0', '0', '2', '21', '27', '43.8', '2', '0', '0.0', '4', '0', '100.0', '0', '0', '4', '2', '21', '19', '4', '8', '20']"
"['', '41576', '2018-02-03', '03:00:00 GMT', '1', 'TBL', 'Tampa Bay', 'Lightning', '21', 'VAN', 'Vancouver', 'Canucks', '7', 'Rogers Arena', '21', 'VAN', 'Vancouver', 'Canucks', '0', '1', '0', '0', '0', '24', '34', '41.4', '3', '0', '0.0', '4', '0', '100.0', '0', '0', '2', '4', '33', '7', '5', '10', '20']"
"['', '41591', '2018-02-06', '00:30:00 GMT', '21', 'VAN', 'Vancouver', 'Canucks', '4', 'FLO', 'Florida', 'Panthers', '3', 'BB&T Center', '21', 'VAN', 'Vancouver', 'Canucks', '0', '1', '0', '0', '0', '29', '29', '50.0', '1', '0', '0.0', '4', '1', '75.0', '1', '0', '1', '3', '27', '16', '4', '8', '22']"
"['', '41602', '2018-02-08', '00:30:00 GMT', '21', 'VAN', 'Vancouver', 'Canucks', '1', 'TBL', 'Tampa Bay', 'Lightning', '26', 'Amalie Arena', '21', 'VAN', 'Vancouver', 'Canucks', '0', '1', '0', '0', '0', '32', '25', '56.1', '2', '1', '50.0', '3', '2', '33.3', '0', '0', '2', '5', '29', '12', '3', '6', '23']"
"['', '41612', '2018-02-09', '00:30:00 GMT', '21', 'VAN', 'Vancouver', 'Canucks', '3', 'CAR', 'Carolina', 'Hurricanes', '21', 'PNC Arena', '21', 'VAN', 'Vancouver', 'Canucks', '0', '1', '0', '0', '0', '24', '32', '42.9', '2', '0', '0.0', '3', '0', '100.0', '0', '0', '1', '4', '22', '24', '5', '13', '28']"
"['', '41628', '2018-02-11', '21:00:00 GMT', '21', 'VAN', 'Vancouver', 'Canucks', '27', 'DAL', 'Dallas', 'Stars', '2', 'American Airlines Center', '21', 'VAN', 'Vancouver', 'Canucks', '1', '0', '0', '0', '2', '30', '43', '41.1', '5', '1', '20.0', '1', '0', '100.0', '0', '0', '6', '0', '41', '20', '1', '2', '25']"
"['', '41651', '2018-02-14', '03:00:00 GMT', '4', 'FLO', 'Florida', 'Panthers', '21', 'VAN', 'Vancouver', 'Canucks', '7', 'Rogers Arena', '21', 'VAN', 'Vancouver', 'Canucks', '0', '1', '0', '0', '0', '30', '31', '49.2', '6', '1', '16.7', '4', '1', '75.0', '0', '0', '3', '4', '37', '17', '4', '8', '14']"
"['', '41662', '2018-02-15', '03:30:00 GMT', '21', 'VAN', 'Vancouver', 'Canucks', '26', 'SJS', 'San Jose', 'Sharks', '9', 'SAP Center at San Jose', '21', 'VAN', 'Vancouver', 'Canucks', '0', '1', '0', '0', '0', '31', '23', '57.4', '1', '0', '0.0', '3', '0', '100.0', '0', '0', '1', '4', '44', '14', '3', '6', '32']"
"['', '41677', '2018-02-17', '03:00:00 GMT', '11', 'BOS', 'Boston', 'Bruins', '21', 'VAN', 'Vancouver', 'Canucks', '7', 'Rogers Arena', '21', 'VAN', 'Vancouver', 'Canucks', '1', '0', '0', '0', '2', '22', '30', '42.3', '0', '0', '0.0', '5', '0', '100.0', '1', '0', '6', '1', '23', '18', '6', '15', '28']"
"['', '41698', '2018-02-20', '03:00:00 GMT', '22', 'COL', 'Colorado', 'Avalanche', '21', 'VAN', 'Vancouver', 'Canucks', '7', 'Rogers Arena', '21', 'VAN', 'Vancouver', 'Canucks', '0', '0', '0', '1', '1', '39', '28', '58.2', '3', '1', '33.3', '6', '5', '16.7', '0', '0', '4', '5', '28', '11', '6', '12', '32']"
"['', '41717', '2018-02-23', '03:30:00 GMT', '21', 'VAN', 'Vancouver', 'Canucks', '142', 'VGK', 'Vegas', 'Golden Knights', '139', 'T-Mobile Arena', '21', 'VAN', 'Vancouver', 'Canucks', '0', '1', '0', '0', '0', '25', '32', '43.9', '3', '1', '33.3', '2', '1', '50.0', '0', '0', '3', '6', '33', '15', '2', '4', '23']"
"['', '41735', '2018-02-25', '02:30:00 GMT', '21', 'VAN', 'Vancouver', 'Canucks', '30', 'ARI', 'Arizona', 'Coyotes', '6', 'Gila River Arena', '21', 'VAN', 'Vancouver', 'Canucks', '1', '0', '0', '0', '2', '32', '24', '57.1', '4', '1', '25.0', '6', '1', '83.3', '1', '0', '3', '1', '27', '18', '6', '12', '21']"
"['', '41739', '2018-02-26', '02:00:00 GMT', '21', 'VAN', 'Vancouver', 'Canucks', '22', 'COL', 'Colorado', 'Avalanche', '19', 'Pepsi Center', '21', 'VAN', 'Vancouver', 'Canucks', '0', '1', '0', '0', '0', '37', '23', '61.7', '2', '0', '0.0', '5', '1', '80.0', '0', '0', '1', '3', '32', '16', '5', '10', '17']"
"['', '41754', '2018-02-28', '03:00:00 GMT', '9', 'NYR', 'New York', 'Rangers', '21', 'VAN', 'Vancouver', 'Canucks', '7', 'Rogers Arena', '21', 'VAN', 'Vancouver', 'Canucks', '0', '0', '0', '1', '1', '38', '27', '58.5', '3', '1', '33.3', '2', '0', '100.0', '0', '0', '5', '6', '55', '8', '2', '4', '14']"
"['', '41771', '2018-03-02', '03:00:00 GMT', '18', 'NSH', 'Nashville', 'Predators', '21', 'VAN', 'Vancouver', 'Canucks', '7', 'Rogers Arena', '21', 'VAN', 'Vancouver', 'Canucks', '0', '0', '0', '1', '1', '30', '37', '44.8', '4', '2', '50.0', '2', '0', '100.0', '0', '0', '3', '4', '27', '18', '3', '6', '32']"
"['', '41791', '2018-03-05', '03:00:00 GMT', '8', 'NYI', 'New York', 'Islanders', '21', 'VAN', 'Vancouver', 'Canucks', '7', 'Rogers Arena', '21', 'VAN', 'Vancouver', 'Canucks', '1', '0', '0', '0', '2', '31', '24', '56.4', '1', '0', '0.0', '4', '1', '75.0', '0', '0', '4', '3', '23', '13', '4', '8', '22']"
"['', '41803', '2018-03-07', '03:00:00 GMT', '30', 'ARI', 'Arizona', 'Coyotes', '21', 'VAN', 'Vancouver', 'Canucks', '7', 'Rogers Arena', '21', 'VAN', 'Vancouver', 'Canucks', '0', '1', '0', '0', '0', '24', '24', '50.0', '1', '0', '0.0', '3', '1', '66.7', '0', '0', '1', '2', '17', '19', '3', '6', '35']"
"['', '41819', '2018-03-09', '03:00:00 GMT', '25', 'MIN', 'Minnesota', 'Wild', '21', 'VAN', 'Vancouver', 'Canucks', '7', 'Rogers Arena', '21', 'VAN', 'Vancouver', 'Canucks', '0', '1', '0', '0', '0', '30', '26', '53.6', '1', '0', '0.0', '2', '0', '100.0', '0', '0', '2', '5', '32', '9', '2', '4', '34']"
"['', '41834', '2018-03-11', '01:00:00 GMT', '21', 'VAN', 'Vancouver', 'Canucks', '30', 'ARI', 'Arizona', 'Coyotes', '6', 'Gila River Arena', '21', 'VAN', 'Vancouver', 'Canucks', '0', '1', '0', '0', '0', '33', '22', '60.0', '1', '0', '0.0', '2', '1', '50.0', '0', '0', '0', '1', '27', '23', '2', '4', '34']"
"['', '41841', '2018-03-12', '02:30:00 GMT', '21', 'VAN', 'Vancouver', 'Canucks', '28', 'LAK', 'Los Angeles', 'Kings', '25', 'Staples Center', '21', 'VAN', 'Vancouver', 'Canucks', '0', '1', '0', '0', '0', '23', '31', '42.6', '3', '0', '0.0', '3', '0', '100.0', '0', '0', '0', '3', '35', '15', '4', '8', '33']"
"['', '41853', '2018-03-14', '02:00:00 GMT', '21', 'VAN', 'Vancouver', 'Canucks', '29', 'ANA', 'Anaheim', 'Ducks', '8', 'Honda Center', '21', 'VAN', 'Vancouver', 'Canucks', '0', '1', '0', '0', '0', '26', '29', '47.3', '2', '0', '0.0', '6', '1', '83.3', '0', '0', '0', '3', '32', '10', '6', '22', '25']"
"['', '41879', '2018-03-17', '02:00:00 GMT', '26', 'SJS', 'San Jose', 'Sharks', '21', 'VAN', 'Vancouver', 'Canucks', '7', 'Rogers Arena', '21', 'VAN', 'Vancouver', 'Canucks', '0', '1', '0', '0', '0', '36', '36', '50.0', '4', '3', '75.0', '4', '1', '75.0', '0', '0', '3', '5', '31', '10', '4', '8', '40']"
"['', '41902', '2018-03-20', '02:00:00 GMT', '21', 'VAN', 'Vancouver', 'Canucks', '142', 'VGK', 'Vegas', 'Golden Knights', '139', 'T-Mobile Arena', '21', 'VAN', 'Vancouver', 'Canucks', '0', '1', '0', '0', '0', '31', '18', '63.3', '1', '0', '0.0', '3', '0', '100.0', '0', '0', '1', '4', '30', '13', '3', '6', '43']"
"['', '41915', '2018-03-22', '00:30:00 GMT', '21', 'VAN', 'Vancouver', 'Canucks', '20', 'CHI', 'Chicago', 'Blackhawks', '28', 'United Center', '21', 'VAN', 'Vancouver', 'Canucks', '1', '0', '0', '0', '2', '27', '26', '50.9', '1', '0', '0.0', '4', '0', '100.0', '0', '0', '5', '2', '27', '15', '6', '23', '23']"
"['', '41921', '2018-03-23', '00:00:00 GMT', '21', 'VAN', 'Vancouver', 'Canucks', '17', 'STL', 'St. Louis', 'Blues', '24', 'Scottrade Center', '21', 'VAN', 'Vancouver', 'Canucks', '0', '1', '0', '0', '0', '26', '32', '44.8', '3', '0', '0.0', '3', '0', '100.0', '0', '1', '1', '4', '20', '17', '3', '6', '17']"
"['', '41937', '2018-03-25', '23:00:00 GMT', '21', 'VAN', 'Vancouver', 'Canucks', '27', 'DAL', 'Dallas', 'Stars', '2', 'American Airlines Center', '21', 'VAN', 'Vancouver', 'Canucks', '1', '0', '0', '0', '2', '29', '24', '54.7', '5', '2', '40.0', '3', '0', '100.0', '0', '1', '4', '1', '27', '13', '3', '6', '16']"
"['', '41957', '2018-03-27', '02:00:00 GMT', '29', 'ANA', 'Anaheim', 'Ducks', '21', 'VAN', 'Vancouver', 'Canucks', '7', 'Rogers Arena', '21', 'VAN', 'Vancouver', 'Canucks', '1', '0', '0', '0', '2', '24', '27', '47.1', '1', '0', '0.0', '2', '0', '100.0', '0', '0', '4', '1', '30', '17', '2', '4', '24']"
"['', '41970', '2018-03-29', '02:00:00 GMT', '24', 'EDM', 'Edmonton', 'Oilers', '21', 'VAN', 'Vancouver', 'Canucks', '7', 'Rogers Arena', '21', 'VAN', 'Vancouver', 'Canucks', '1', '0', '0', '0', '2', '20', '31', '39.2', '1', '0', '0.0', '2', '0', '100.0', '0', '0', '2', '1', '30', '13', '2', '4', '22']"
"['', '41980', '2018-03-31', '20:00:00 GMT', '19', 'CBJ', 'Columbus', 'Blue Jackets', '21', 'VAN', 'Vancouver', 'Canucks', '7', 'Rogers Arena', '21', 'VAN', 'Vancouver', 'Canucks', '1', '0', '0', '0', '2', '28', '39', '41.8', '1', '0', '0.0', '3', '2', '33.3', '0', '0', '5', '4', '29', '20', '3', '6', '25']"
"['', '42008', '2018-04-03', '02:00:00 GMT', '142', 'VGK', 'Vegas', 'Golden Knights', '21', 'VAN', 'Vancouver', 'Canucks', '7', 'Rogers Arena', '21', 'VAN', 'Vancouver', 'Canucks', '0', '0', '0', '1', '1', '39', '23', '62.9', '2', '1', '50.0', '4', '1', '75.0', '0', '0', '4', '4', '25', '16', '4', '8', '16']"
"['', '42022', '2018-04-05', '02:00:00 GMT', '30', 'ARI', 'Arizona', 'Coyotes', '21', 'VAN', 'Vancouver', 'Canucks', '7', 'Rogers Arena', '21', 'VAN', 'Vancouver', 'Canucks', '1', '0', '0', '0', '2', '33', '22', '60.0', '3', '1', '33.3', '2', '0', '100.0', '0', '0', '4', '3', '40', '18', '2', '4', '20']"
"['', '42040', '2018-04-07', '02:00:00 GMT', '21', 'VAN', 'Vancouver', 'Canucks', '24', 'EDM', 'Edmonton', 'Oilers', '22', 'Rogers Place', '21', 'VAN', 'Vancouver', 'Canucks', '0', '0', '0', '1', '1', '32', '37', '46.4', '4', '0', '0.0', '2', '1', '50.0', '0', '0', '2', '2', '38', '15', '2', '4', '19']"
