"['#Date/Time of Update: 2018-12-10 19:03:04 GMT', '#Game ID', '#Game Date', '#Game Time', '#Away Team ID', '#Away Team Abbr.', '#Away Team City', '#Away Team Name', '#Home Team ID', '#Home Team Abbr.', '#Home Team City', '#Home Team Name', '#Venue ID', '#Venue Name', '#Team ID', '#Team Abbr.', '#Team City', '#Team Name', '#Wins', '#Losses', '#OvertimeWins', '#OvertimeLosses', '#ShootoutWins', '#ShootoutLosses', '#Rows', '#Points', '#FaceoffWins', '#FaceoffLosses', '#FaceoffPercent', '#Powerplays', '#PowerplayGoals', '#PowerplayPercent', '#PenaltyKills', '#PenaltyKillGoalsAllowed', '#PenaltyKillPercent', '#ShorthandedGoalsFor', '#ShorthandedGoalsAgainst', '#GoalsFor', '#GoalsAgainst', '#Shots', '#Penalties', '#PenaltyMinutes', '#Hits']"
"['', '14893', '2011-10-07', '23:00:00 GMT', '18', 'NSH', 'Nashville', 'Predators', '19', 'CBJ', 'Columbus', 'Blue Jackets', '17', 'Nationwide Arena', '18', 'NSH', 'Nashville', 'Predators', '1', '0', '0', '0', '0', '0', '1', '2', '30', '42', '41.7', '3', '1', '33.3', '4', '0', '100.0', '0', '0', '3', '2', '28', '5', '10', '10']"
"['', '14902', '2011-10-08', '00:00:00 GMT', '18', 'NSH', 'Nashville', 'Predators', '17', 'STL', 'St. Louis', 'Blues', '24', 'Scottrade Center', '18', 'NSH', 'Nashville', 'Predators', '1', '0', '0', '0', '0', '0', '1', '2', '34', '34', '50.0', '4', '2', '50.0', '5', '1', '80.0', '0', '0', '4', '2', '12', '6', '15', '8']"
"['', '14928', '2011-10-13', '00:00:00 GMT', '30', 'PHX', 'Phoenix', 'Coyotes', '18', 'NSH', 'Nashville', 'Predators', '15', 'Bridgestone Arena', '18', 'NSH', 'Nashville', 'Predators', '0', '1', '0', '0', '0', '0', '0', '0', '29', '33', '46.8', '3', '0', '0.0', '2', '0', '100.0', '1', '0', '2', '5', '23', '2', '4', '16']"
"['', '14942', '2011-10-15', '00:00:00 GMT', '7', 'NJD', 'New Jersey', 'Devils', '18', 'NSH', 'Nashville', 'Predators', '15', 'Bridgestone Arena', '18', 'NSH', 'Nashville', 'Predators', '0', '0', '0', '1', '0', '0', '0', '1', '37', '30', '55.2', '1', '1', '100.0', '4', '1', '75.0', '0', '0', '2', '2', '28', '9', '21', '22']"
"['', '14952', '2011-10-17', '01:30:00 GMT', '18', 'NSH', 'Nashville', 'Predators', '24', 'EDM', 'Edmonton', 'Oilers', '22', 'Rogers Place', '18', 'NSH', 'Nashville', 'Predators', '0', '1', '0', '0', '0', '0', '0', '0', '29', '30', '49.2', '4', '0', '0.0', '5', '1', '80.0', '0', '0', '1', '3', '11', '5', '10', '13']"
"['', '14974', '2011-10-20', '02:00:00 GMT', '18', 'NSH', 'Nashville', 'Predators', '21', 'VAN', 'Vancouver', 'Canucks', '7', 'Rogers Arena', '18', 'NSH', 'Nashville', 'Predators', '0', '1', '0', '0', '0', '0', '0', '0', '30', '32', '48.4', '3', '0', '0.0', '8', '2', '75.0', '0', '0', '1', '5', '25', '12', '30', '23']"
"['', '14980', '2011-10-22', '20:00:00 GMT', '18', 'NSH', 'Nashville', 'Predators', '23', 'CGY', 'Calgary', 'Flames', '18', 'Scotiabank Saddledome', '18', 'NSH', 'Nashville', 'Predators', '1', '0', '0', '0', '0', '0', '1', '2', '32', '30', '51.6', '2', '0', '0.0', '4', '0', '100.0', '0', '0', '2', '0', '12', '4', '8', '14']"
"['', '15002', '2011-10-25', '00:00:00 GMT', '26', 'SJS', 'San Jose', 'Sharks', '18', 'NSH', 'Nashville', 'Predators', '15', 'Bridgestone Arena', '18', 'NSH', 'Nashville', 'Predators', '0', '1', '0', '0', '0', '0', '0', '0', '35', '30', '53.8', '4', '1', '25.0', '2', '0', '100.0', '0', '1', '1', '3', '19', '2', '4', '16']"
"['', '15016', '2011-10-27', '00:00:00 GMT', '1', 'TBL', 'Tampa Bay', 'Lightning', '18', 'NSH', 'Nashville', 'Predators', '15', 'Bridgestone Arena', '18', 'NSH', 'Nashville', 'Predators', '1', '0', '0', '0', '0', '0', '1', '2', '36', '26', '58.1', '3', '0', '0.0', '2', '1', '50.0', '0', '0', '5', '3', '22', '3', '6', '24']"
"['', '15032', '2011-10-29', '00:00:00 GMT', '29', 'ANA', 'Anaheim', 'Ducks', '18', 'NSH', 'Nashville', 'Predators', '15', 'Bridgestone Arena', '18', 'NSH', 'Nashville', 'Predators', '1', '0', '0', '0', '0', '0', '1', '2', '24', '22', '52.2', '5', '1', '20.0', '1', '0', '100.0', '0', '0', '3', '0', '26', '5', '16', '20']"
"['', '15044', '2011-10-31', '00:30:00 GMT', '18', 'NSH', 'Nashville', 'Predators', '20', 'CHI', 'Chicago', 'Blackhawks', '28', 'United Center', '18', 'NSH', 'Nashville', 'Predators', '0', '0', '0', '1', '0', '0', '0', '1', '26', '42', '38.2', '3', '1', '33.3', '7', '0', '100.0', '0', '0', '4', '5', '24', '9', '26', '24']"
"['', '15060', '2011-11-03', '02:00:00 GMT', '18', 'NSH', 'Nashville', 'Predators', '30', 'PHX', 'Phoenix', 'Coyotes', '6', 'Jobing.com Arena', '18', 'NSH', 'Nashville', 'Predators', '1', '0', '0', '0', '0', '0', '1', '2', '37', '29', '56.1', '2', '0', '0.0', '3', '0', '100.0', '0', '0', '3', '0', '28', '3', '6', '23']"
"['', '15079', '2011-11-05', '02:30:00 GMT', '18', 'NSH', 'Nashville', 'Predators', '26', 'SJS', 'San Jose', 'Sharks', '9', 'HP Pavilion at San Jose', '18', 'NSH', 'Nashville', 'Predators', '1', '0', '0', '0', '0', '0', '1', '2', '23', '35', '39.7', '3', '1', '33.3', '4', '1', '75.0', '0', '0', '4', '3', '31', '4', '8', '19']"
"['', '15095', '2011-11-08', '03:30:00 GMT', '18', 'NSH', 'Nashville', 'Predators', '28', 'LAK', 'Los Angeles', 'Kings', '25', 'Staples Center', '18', 'NSH', 'Nashville', 'Predators', '0', '1', '0', '0', '0', '0', '0', '0', '26', '33', '44.1', '5', '1', '20.0', '5', '1', '80.0', '0', '0', '3', '4', '27', '7', '14', '29']"
"['', '15098', '2011-11-09', '03:00:00 GMT', '18', 'NSH', 'Nashville', 'Predators', '29', 'ANA', 'Anaheim', 'Ducks', '8', 'Honda Center', '18', 'NSH', 'Nashville', 'Predators', '1', '0', '0', '0', '0', '0', '1', '2', '26', '39', '40.0', '3', '0', '0.0', '4', '0', '100.0', '0', '0', '4', '2', '28', '5', '10', '14']"
"['', '15120', '2011-11-12', '00:00:00 GMT', '14', 'MTL', 'Montreal', 'Canadiens', '18', 'NSH', 'Nashville', 'Predators', '15', 'Bridgestone Arena', '18', 'NSH', 'Nashville', 'Predators', '0', '0', '0', '1', '0', '0', '0', '1', '21', '28', '42.9', '3', '0', '0.0', '3', '0', '100.0', '1', '0', '1', '2', '25', '4', '8', '24']"
"['', '15138', '2011-11-15', '01:00:00 GMT', '5', 'WSH', 'Washington', 'Capitals', '18', 'NSH', 'Nashville', 'Predators', '15', 'Bridgestone Arena', '18', 'NSH', 'Nashville', 'Predators', '1', '0', '0', '0', '0', '0', '1', '2', '29', '33', '46.8', '2', '0', '0.0', '2', '0', '100.0', '0', '0', '3', '1', '28', '3', '6', '23']"
"['', '15150', '2011-11-17', '01:00:00 GMT', '12', 'TOR', 'Toronto', 'Maple Leafs', '18', 'NSH', 'Nashville', 'Predators', '15', 'Bridgestone Arena', '18', 'NSH', 'Nashville', 'Predators', '1', '0', '0', '0', '0', '0', '1', '2', '21', '43', '32.8', '2', '0', '0.0', '2', '1', '50.0', '0', '0', '4', '1', '18', '4', '19', '21']"
"['', '15167', '2011-11-19', '01:00:00 GMT', '19', 'CBJ', 'Columbus', 'Blue Jackets', '18', 'NSH', 'Nashville', 'Predators', '15', 'Bridgestone Arena', '18', 'NSH', 'Nashville', 'Predators', '0', '0', '0', '1', '0', '0', '0', '1', '39', '33', '54.2', '3', '2', '66.7', '4', '2', '50.0', '0', '0', '3', '4', '27', '8', '22', '10']"
"['', '15184', '2011-11-22', '01:00:00 GMT', '24', 'EDM', 'Edmonton', 'Oilers', '18', 'NSH', 'Nashville', 'Predators', '15', 'Bridgestone Arena', '18', 'NSH', 'Nashville', 'Predators', '0', '1', '0', '0', '0', '0', '0', '0', '36', '28', '56.2', '6', '1', '16.7', '2', '2', '0.0', '0', '0', '2', '6', '30', '5', '13', '14']"
"['', '15193', '2011-11-23', '01:00:00 GMT', '18', 'NSH', 'Nashville', 'Predators', '25', 'MIN', 'Minnesota', 'Wild', '30', 'Xcel Energy Center', '18', 'NSH', 'Nashville', 'Predators', '0', '1', '0', '0', '0', '0', '0', '0', '27', '29', '48.2', '5', '1', '20.0', '5', '1', '80.0', '0', '1', '2', '3', '23', '7', '14', '15']"
"['', '15218', '2011-11-26', '00:00:00 GMT', '18', 'NSH', 'Nashville', 'Predators', '16', 'DET', 'Detroit', 'Red Wings', '11', 'Joe Louis Arena', '18', 'NSH', 'Nashville', 'Predators', '0', '1', '0', '0', '0', '0', '0', '0', '22', '22', '50.0', '3', '0', '0.0', '2', '1', '50.0', '0', '0', '1', '4', '18', '2', '4', '23']"
"['', '15228', '2011-11-28', '02:30:00 GMT', '18', 'NSH', 'Nashville', 'Predators', '24', 'EDM', 'Edmonton', 'Oilers', '22', 'Rogers Place', '18', 'NSH', 'Nashville', 'Predators', '1', '0', '0', '0', '0', '0', '1', '2', '26', '28', '48.1', '2', '1', '50.0', '3', '0', '100.0', '0', '0', '2', '1', '29', '5', '10', '15']"
"['', '15236', '2011-11-29', '02:30:00 GMT', '18', 'NSH', 'Nashville', 'Predators', '23', 'CGY', 'Calgary', 'Flames', '18', 'Scotiabank Saddledome', '18', 'NSH', 'Nashville', 'Predators', '0', '1', '0', '0', '0', '0', '0', '0', '32', '26', '55.2', '3', '0', '0.0', '2', '0', '100.0', '0', '0', '0', '1', '26', '2', '4', '9']"
"['', '15248', '2011-12-01', '03:00:00 GMT', '18', 'NSH', 'Nashville', 'Predators', '21', 'VAN', 'Vancouver', 'Canucks', '7', 'Rogers Arena', '18', 'NSH', 'Nashville', 'Predators', '1', '0', '0', '0', '0', '0', '1', '2', '29', '35', '45.3', '2', '3', '1.0', '4', '2', '50.0', '0', '0', '6', '5', '14', '4', '8', '29']"
"['', '15264', '2011-12-03', '01:00:00 GMT', '15', 'BUF', 'Buffalo', 'Sabres', '18', 'NSH', 'Nashville', 'Predators', '15', 'Bridgestone Arena', '18', 'NSH', 'Nashville', 'Predators', '0', '1', '0', '0', '0', '0', '0', '0', '32', '19', '62.7', '4', '1', '25.0', '2', '0', '100.0', '0', '0', '2', '3', '32', '5', '21', '13']"
"['', '15281', '2011-12-06', '01:00:00 GMT', '30', 'PHX', 'Phoenix', 'Coyotes', '18', 'NSH', 'Nashville', 'Predators', '15', 'Bridgestone Arena', '18', 'NSH', 'Nashville', 'Predators', '0', '1', '0', '0', '0', '0', '0', '0', '38', '36', '51.4', '3', '1', '33.3', '1', '0', '100.0', '0', '0', '2', '3', '30', '2', '4', '11']"
"['', '15295', '2011-12-08', '00:00:00 GMT', '18', 'NSH', 'Nashville', 'Predators', '19', 'CBJ', 'Columbus', 'Blue Jackets', '17', 'Nationwide Arena', '18', 'NSH', 'Nashville', 'Predators', '1', '0', '0', '0', '0', '0', '1', '2', '31', '30', '50.8', '1', '1', '100.0', '1', '0', '100.0', '0', '0', '4', '3', '18', '2', '7', '26']"
"['', '15314', '2011-12-10', '01:00:00 GMT', '29', 'ANA', 'Anaheim', 'Ducks', '18', 'NSH', 'Nashville', 'Predators', '15', 'Bridgestone Arena', '18', 'NSH', 'Nashville', 'Predators', '1', '0', '0', '0', '0', '0', '1', '2', '31', '17', '64.6', '5', '1', '20.0', '2', '0', '100.0', '0', '0', '3', '2', '25', '4', '14', '11']"
"['', '15330', '2011-12-13', '01:00:00 GMT', '23', 'CGY', 'Calgary', 'Flames', '18', 'NSH', 'Nashville', 'Predators', '15', 'Bridgestone Arena', '18', 'NSH', 'Nashville', 'Predators', '1', '0', '0', '0', '0', '0', '1', '2', '32', '27', '54.2', '3', '1', '33.3', '1', '0', '100.0', '0', '0', '2', '1', '43', '1', '2', '14']"
"['', '15342', '2011-12-15', '01:00:00 GMT', '16', 'DET', 'Detroit', 'Red Wings', '18', 'NSH', 'Nashville', 'Predators', '15', 'Bridgestone Arena', '18', 'NSH', 'Nashville', 'Predators', '1', '0', '0', '0', '0', '0', '1', '2', '20', '26', '43.5', '1', '1', '100.0', '2', '2', '0.0', '0', '0', '4', '3', '17', '2', '4', '20']"
"['', '15358', '2011-12-17', '01:00:00 GMT', '17', 'STL', 'St. Louis', 'Blues', '18', 'NSH', 'Nashville', 'Predators', '15', 'Bridgestone Arena', '18', 'NSH', 'Nashville', 'Predators', '1', '0', '0', '0', '0', '0', '0', '2', '37', '22', '62.7', '1', '0', '0.0', '6', '1', '83.3', '0', '0', '1', '1', '19', '6', '12', '17']"
"['', '15374', '2011-12-20', '00:00:00 GMT', '18', 'NSH', 'Nashville', 'Predators', '5', 'WSH', 'Washington', 'Capitals', '13', 'Verizon Center', '18', 'NSH', 'Nashville', 'Predators', '0', '1', '0', '0', '0', '0', '0', '0', '23', '35', '39.7', '4', '0', '0.0', '2', '1', '50.0', '0', '0', '1', '4', '20', '2', '4', '21']"
"['', '15388', '2011-12-22', '01:00:00 GMT', '19', 'CBJ', 'Columbus', 'Blue Jackets', '18', 'NSH', 'Nashville', 'Predators', '15', 'Bridgestone Arena', '18', 'NSH', 'Nashville', 'Predators', '1', '0', '0', '0', '0', '0', '1', '2', '35', '34', '50.7', '3', '2', '66.7', '3', '4', '1.0', '0', '0', '6', '5', '32', '5', '21', '13']"
"['', '15399', '2011-12-23', '01:30:00 GMT', '18', 'NSH', 'Nashville', 'Predators', '27', 'DAL', 'Dallas', 'Stars', '2', 'American Airlines Center', '18', 'NSH', 'Nashville', 'Predators', '0', '1', '0', '0', '0', '0', '0', '0', '29', '28', '50.9', '5', '2', '40.0', '3', '0', '100.0', '0', '0', '3', '6', '34', '3', '6', '24']"
"['', '15409', '2011-12-26', '01:00:00 GMT', '16', 'DET', 'Detroit', 'Red Wings', '18', 'NSH', 'Nashville', 'Predators', '15', 'Bridgestone Arena', '18', 'NSH', 'Nashville', 'Predators', '0', '1', '0', '0', '0', '0', '0', '0', '32', '22', '59.3', '5', '0', '0.0', '2', '0', '100.0', '0', '0', '1', '4', '31', '2', '4', '14']"
"['', '15423', '2011-12-28', '01:00:00 GMT', '25', 'MIN', 'Minnesota', 'Wild', '18', 'NSH', 'Nashville', 'Predators', '15', 'Bridgestone Arena', '18', 'NSH', 'Nashville', 'Predators', '1', '0', '0', '0', '0', '0', '0', '2', '31', '28', '52.5', '1', '0', '0.0', '2', '0', '100.0', '0', '0', '1', '1', '24', '2', '4', '20']"
"['', '15439', '2011-12-30', '01:00:00 GMT', '18', 'NSH', 'Nashville', 'Predators', '17', 'STL', 'St. Louis', 'Blues', '24', 'Scottrade Center', '18', 'NSH', 'Nashville', 'Predators', '1', '0', '0', '0', '0', '0', '0', '2', '24', '32', '42.9', '2', '0', '0.0', '4', '0', '100.0', '0', '0', '1', '1', '33', '4', '8', '13']"
"['', '15453', '2012-01-01', '23:00:00 GMT', '23', 'CGY', 'Calgary', 'Flames', '18', 'NSH', 'Nashville', 'Predators', '15', 'Bridgestone Arena', '18', 'NSH', 'Nashville', 'Predators', '1', '0', '0', '0', '0', '0', '1', '2', '27', '29', '48.2', '3', '0', '0.0', '1', '0', '100.0', '0', '0', '5', '3', '22', '2', '4', '15']"
"['', '15475', '2012-01-05', '01:00:00 GMT', '27', 'DAL', 'Dallas', 'Stars', '18', 'NSH', 'Nashville', 'Predators', '15', 'Bridgestone Arena', '18', 'NSH', 'Nashville', 'Predators', '0', '1', '0', '0', '0', '0', '0', '0', '35', '22', '61.4', '3', '0', '0.0', '4', '0', '100.0', '0', '0', '1', '4', '24', '6', '15', '23']"
"['', '15492', '2012-01-07', '01:00:00 GMT', '3', 'CAR', 'Carolina', 'Hurricanes', '18', 'NSH', 'Nashville', 'Predators', '15', 'Bridgestone Arena', '18', 'NSH', 'Nashville', 'Predators', '1', '0', '0', '0', '0', '0', '1', '2', '25', '34', '42.4', '5', '4', '80.0', '2', '1', '50.0', '0', '0', '5', '2', '31', '2', '4', '9']"
"['', '15511', '2012-01-10', '02:00:00 GMT', '18', 'NSH', 'Nashville', 'Predators', '22', 'COL', 'Colorado', 'Avalanche', '19', 'Pepsi Center', '18', 'NSH', 'Nashville', 'Predators', '1', '0', '0', '0', '0', '0', '1', '2', '27', '35', '43.5', '3', '1', '33.3', '2', '1', '50.0', '0', '0', '4', '1', '22', '3', '6', '15']"
"['', '15522', '2012-01-12', '01:00:00 GMT', '22', 'COL', 'Colorado', 'Avalanche', '18', 'NSH', 'Nashville', 'Predators', '15', 'Bridgestone Arena', '18', 'NSH', 'Nashville', 'Predators', '1', '0', '0', '0', '0', '0', '1', '2', '26', '29', '47.3', '5', '0', '0.0', '3', '0', '100.0', '0', '0', '3', '2', '32', '3', '6', '19']"
"['', '15541', '2012-01-14', '01:00:00 GMT', '6', 'PHI', 'Philadelphia', 'Flyers', '18', 'NSH', 'Nashville', 'Predators', '15', 'Bridgestone Arena', '18', 'NSH', 'Nashville', 'Predators', '1', '0', '0', '0', '0', '0', '1', '2', '26', '32', '44.8', '3', '1', '33.3', '2', '0', '100.0', '0', '0', '4', '2', '21', '2', '4', '19']"
"['', '15549', '2012-01-16', '18:00:00 GMT', '18', 'NSH', 'Nashville', 'Predators', '8', 'NYI', 'New York', 'Islanders', '16', 'Nassau Veterans Memorial Coliseum', '18', 'NSH', 'Nashville', 'Predators', '1', '0', '0', '0', '0', '0', '1', '2', '32', '23', '58.2', '1', '0', '0.0', '3', '0', '100.0', '0', '0', '3', '1', '29', '3', '6', '21']"
"['', '15561', '2012-01-17', '00:30:00 GMT', '18', 'NSH', 'Nashville', 'Predators', '9', 'NYR', 'New York', 'Rangers', '12', 'Madison Square Garden', '18', 'NSH', 'Nashville', 'Predators', '0', '1', '0', '0', '0', '0', '0', '0', '26', '26', '50.0', '1', '0', '0.0', '2', '0', '100.0', '0', '0', '0', '3', '27', '2', '4', '27']"
"['', '15574', '2012-01-19', '00:00:00 GMT', '18', 'NSH', 'Nashville', 'Predators', '19', 'CBJ', 'Columbus', 'Blue Jackets', '17', 'Nationwide Arena', '18', 'NSH', 'Nashville', 'Predators', '1', '0', '0', '0', '0', '0', '1', '2', '25', '37', '40.3', '2', '1', '50.0', '3', '0', '100.0', '1', '0', '3', '0', '22', '3', '6', '22']"
"['', '15593', '2012-01-21', '01:00:00 GMT', '20', 'CHI', 'Chicago', 'Blackhawks', '18', 'NSH', 'Nashville', 'Predators', '15', 'Bridgestone Arena', '18', 'NSH', 'Nashville', 'Predators', '1', '0', '0', '0', '0', '0', '1', '2', '33', '29', '53.2', '2', '1', '50.0', '1', '0', '100.0', '0', '0', '5', '2', '18', '1', '2', '22']"
"['', '15604', '2012-01-23', '01:00:00 GMT', '19', 'CBJ', 'Columbus', 'Blue Jackets', '18', 'NSH', 'Nashville', 'Predators', '15', 'Bridgestone Arena', '18', 'NSH', 'Nashville', 'Predators', '1', '0', '0', '0', '0', '0', '1', '2', '29', '27', '51.8', '4', '2', '50.0', '2', '0', '100.0', '0', '0', '4', '1', '25', '2', '4', '15']"
"['', '15614', '2012-01-24', '01:30:00 GMT', '18', 'NSH', 'Nashville', 'Predators', '20', 'CHI', 'Chicago', 'Blackhawks', '28', 'United Center', '18', 'NSH', 'Nashville', 'Predators', '1', '0', '0', '0', '0', '0', '1', '2', '22', '38', '36.7', '3', '1', '33.3', '4', '1', '75.0', '0', '0', '3', '1', '23', '5', '13', '17']"
"['', '15628', '2012-01-31', '01:00:00 GMT', '18', 'NSH', 'Nashville', 'Predators', '25', 'MIN', 'Minnesota', 'Wild', '30', 'Xcel Energy Center', '18', 'NSH', 'Nashville', 'Predators', '1', '0', '0', '0', '0', '0', '1', '2', '32', '37', '46.4', '1', '0', '0.0', '1', '1', '0.0', '0', '0', '5', '4', '25', '2', '4', '12']"
"['', '15641', '2012-02-02', '00:00:00 GMT', '18', 'NSH', 'Nashville', 'Predators', '6', 'PHI', 'Philadelphia', 'Flyers', '29', 'Wells Fargo Center', '18', 'NSH', 'Nashville', 'Predators', '0', '1', '0', '0', '0', '0', '0', '0', '29', '22', '56.9', '3', '0', '0.0', '3', '1', '66.7', '0', '0', '1', '4', '26', '5', '10', '19']"
"['', '15660', '2012-02-04', '01:00:00 GMT', '17', 'STL', 'St. Louis', 'Blues', '18', 'NSH', 'Nashville', 'Predators', '15', 'Bridgestone Arena', '18', 'NSH', 'Nashville', 'Predators', '1', '0', '0', '0', '0', '0', '1', '2', '22', '25', '46.8', '2', '1', '50.0', '1', '0', '100.0', '0', '0', '3', '1', '34', '3', '9', '24']"
"['', '15678', '2012-02-07', '01:00:00 GMT', '21', 'VAN', 'Vancouver', 'Canucks', '18', 'NSH', 'Nashville', 'Predators', '15', 'Bridgestone Arena', '18', 'NSH', 'Nashville', 'Predators', '0', '0', '0', '1', '0', '0', '0', '1', '29', '32', '47.5', '4', '0', '0.0', '1', '1', '0.0', '0', '0', '3', '3', '37', '1', '2', '20']"
"['', '15692', '2012-02-09', '00:30:00 GMT', '18', 'NSH', 'Nashville', 'Predators', '13', 'OTT', 'Ottawa', 'Senators', '23', 'Scotiabank Place', '18', 'NSH', 'Nashville', 'Predators', '0', '1', '0', '0', '0', '0', '0', '0', '29', '29', '50.0', '4', '1', '25.0', '5', '2', '60.0', '0', '0', '3', '4', '24', '6', '12', '16']"
"['', '15701', '2012-02-11', '18:00:00 GMT', '18', 'NSH', 'Nashville', 'Predators', '11', 'BOS', 'Boston', 'Bruins', '27', 'TD Garden', '18', 'NSH', 'Nashville', 'Predators', '0', '0', '0', '1', '0', '0', '0', '1', '26', '38', '40.6', '2', '1', '50.0', '4', '1', '75.0', '0', '1', '3', '3', '19', '4', '8', '14']"
"['', '15727', '2012-02-14', '01:00:00 GMT', '20', 'CHI', 'Chicago', 'Blackhawks', '18', 'NSH', 'Nashville', 'Predators', '15', 'Bridgestone Arena', '18', 'NSH', 'Nashville', 'Predators', '1', '0', '0', '0', '0', '0', '1', '2', '29', '25', '53.7', '2', '0', '0.0', '2', '0', '100.0', '0', '0', '3', '2', '16', '3', '6', '20']"
"['', '15747', '2012-02-17', '00:30:00 GMT', '18', 'NSH', 'Nashville', 'Predators', '16', 'DET', 'Detroit', 'Red Wings', '11', 'Joe Louis Arena', '18', 'NSH', 'Nashville', 'Predators', '0', '1', '0', '0', '0', '0', '0', '0', '33', '30', '52.4', '1', '0', '0.0', '1', '0', '100.0', '0', '0', '1', '2', '20', '1', '2', '23']"
"['', '15765', '2012-02-19', '00:00:00 GMT', '18', 'NSH', 'Nashville', 'Predators', '27', 'DAL', 'Dallas', 'Stars', '2', 'American Airlines Center', '18', 'NSH', 'Nashville', 'Predators', '1', '0', '0', '0', '0', '0', '1', '2', '27', '25', '51.9', '2', '1', '50.0', '1', '0', '100.0', '0', '0', '3', '2', '18', '1', '2', '24']"
"['', '15776', '2012-02-21', '01:00:00 GMT', '21', 'VAN', 'Vancouver', 'Canucks', '18', 'NSH', 'Nashville', 'Predators', '15', 'Bridgestone Arena', '18', 'NSH', 'Nashville', 'Predators', '1', '0', '0', '0', '0', '0', '1', '2', '27', '31', '46.6', '3', '1', '33.3', '2', '0', '100.0', '1', '0', '3', '1', '25', '3', '6', '14']"
"['', '15788', '2012-02-23', '01:00:00 GMT', '17', 'STL', 'St. Louis', 'Blues', '18', 'NSH', 'Nashville', 'Predators', '15', 'Bridgestone Arena', '18', 'NSH', 'Nashville', 'Predators', '0', '0', '0', '1', '0', '0', '0', '1', '26', '30', '46.4', '1', '0', '0.0', '1', '0', '100.0', '0', '0', '2', '2', '25', '1', '2', '26']"
"['', '15808', '2012-02-25', '01:00:00 GMT', '26', 'SJS', 'San Jose', 'Sharks', '18', 'NSH', 'Nashville', 'Predators', '15', 'Bridgestone Arena', '18', 'NSH', 'Nashville', 'Predators', '1', '0', '0', '0', '0', '0', '1', '2', '26', '36', '41.9', '4', '1', '25.0', '3', '0', '100.0', '0', '0', '6', '2', '15', '4', '11', '14']"
"['', '15818', '2012-02-27', '01:00:00 GMT', '28', 'LAK', 'Los Angeles', 'Kings', '18', 'NSH', 'Nashville', 'Predators', '15', 'Bridgestone Arena', '18', 'NSH', 'Nashville', 'Predators', '1', '0', '0', '0', '0', '0', '1', '2', '22', '23', '48.9', '1', '0', '0.0', '1', '0', '100.0', '0', '0', '2', '1', '26', '1', '2', '22']"
"['', '15825', '2012-02-28', '00:00:00 GMT', '18', 'NSH', 'Nashville', 'Predators', '3', 'CAR', 'Carolina', 'Hurricanes', '21', 'RBC Center', '18', 'NSH', 'Nashville', 'Predators', '0', '1', '0', '0', '0', '0', '0', '0', '29', '32', '47.5', '1', '0', '0.0', '6', '2', '66.7', '0', '0', '3', '4', '26', '6', '12', '22']"
"['', '15853', '2012-03-03', '00:30:00 GMT', '18', 'NSH', 'Nashville', 'Predators', '4', 'FLO', 'Florida', 'Panthers', '3', 'BankAtlantic Center', '18', 'NSH', 'Nashville', 'Predators', '1', '0', '0', '0', '0', '0', '1', '2', '25', '34', '42.4', '1', '0', '0.0', '3', '0', '100.0', '0', '0', '3', '1', '20', '3', '6', '22']"
"['', '15876', '2012-03-06', '01:00:00 GMT', '28', 'LAK', 'Los Angeles', 'Kings', '18', 'NSH', 'Nashville', 'Predators', '15', 'Bridgestone Arena', '18', 'NSH', 'Nashville', 'Predators', '0', '1', '0', '0', '0', '0', '0', '0', '27', '30', '47.4', '2', '0', '0.0', '1', '0', '100.0', '0', '0', '4', '5', '22', '3', '14', '20']"
"['', '15890', '2012-03-08', '01:00:00 GMT', '22', 'COL', 'Colorado', 'Avalanche', '18', 'NSH', 'Nashville', 'Predators', '15', 'Bridgestone Arena', '18', 'NSH', 'Nashville', 'Predators', '1', '0', '0', '0', '0', '0', '1', '2', '34', '30', '53.1', '2', '0', '0.0', '0', '0', '0.0', '0', '0', '4', '2', '27', '2', '7', '21']"
"['', '15906', '2012-03-10', '01:00:00 GMT', '16', 'DET', 'Detroit', 'Red Wings', '18', 'NSH', 'Nashville', 'Predators', '15', 'Bridgestone Arena', '18', 'NSH', 'Nashville', 'Predators', '1', '0', '0', '0', '0', '0', '1', '2', '34', '32', '51.5', '4', '2', '50.0', '4', '0', '100.0', '0', '0', '3', '2', '17', '4', '8', '18']"
"['', '15921', '2012-03-12', '02:00:00 GMT', '18', 'NSH', 'Nashville', 'Predators', '30', 'PHX', 'Phoenix', 'Coyotes', '6', 'Jobing.com Arena', '18', 'NSH', 'Nashville', 'Predators', '1', '0', '0', '0', '0', '0', '0', '2', '26', '32', '44.8', '2', '0', '0.0', '1', '0', '100.0', '0', '0', '4', '4', '31', '1', '2', '29']"
"['', '15944', '2012-03-15', '02:30:00 GMT', '18', 'NSH', 'Nashville', 'Predators', '26', 'SJS', 'San Jose', 'Sharks', '9', 'HP Pavilion at San Jose', '18', 'NSH', 'Nashville', 'Predators', '0', '0', '0', '1', '0', '0', '0', '1', '39', '42', '48.1', '2', '1', '50.0', '4', '1', '75.0', '0', '0', '1', '1', '32', '5', '10', '15']"
"['', '15959', '2012-03-17', '02:30:00 GMT', '18', 'NSH', 'Nashville', 'Predators', '28', 'LAK', 'Los Angeles', 'Kings', '25', 'Staples Center', '18', 'NSH', 'Nashville', 'Predators', '0', '1', '0', '0', '0', '0', '0', '0', '27', '34', '44.3', '3', '1', '33.3', '3', '0', '100.0', '0', '0', '2', '4', '19', '3', '6', '25']"
"['', '15965', '2012-03-18', '00:00:00 GMT', '18', 'NSH', 'Nashville', 'Predators', '29', 'ANA', 'Anaheim', 'Ducks', '8', 'Honda Center', '18', 'NSH', 'Nashville', 'Predators', '1', '0', '0', '0', '0', '0', '1', '2', '28', '35', '44.4', '4', '1', '25.0', '1', '0', '100.0', '0', '1', '3', '1', '24', '1', '2', '21']"
"['', '15977', '2012-03-20', '00:00:00 GMT', '24', 'EDM', 'Edmonton', 'Oilers', '18', 'NSH', 'Nashville', 'Predators', '15', 'Bridgestone Arena', '18', 'NSH', 'Nashville', 'Predators', '0', '1', '0', '0', '0', '0', '0', '0', '30', '35', '46.2', '4', '1', '25.0', '1', '1', '0.0', '0', '0', '3', '6', '41', '2', '4', '20']"
"['', '15987', '2012-03-22', '23:00:00 GMT', '18', 'NSH', 'Nashville', 'Predators', '10', 'PIT', 'Pittsburgh', 'Penguins', '14', 'Civic Arena', '18', 'NSH', 'Nashville', 'Predators', '0', '1', '0', '0', '0', '0', '0', '0', '25', '25', '50.0', '2', '0', '0.0', '1', '0', '100.0', '0', '0', '1', '5', '29', '1', '2', '24']"
"['', '16008', '2012-03-24', '23:00:00 GMT', '2', 'WPJ', 'Winnipeg', 'Jets', '18', 'NSH', 'Nashville', 'Predators', '15', 'Bridgestone Arena', '18', 'NSH', 'Nashville', 'Predators', '1', '0', '0', '0', '0', '0', '1', '2', '35', '34', '50.7', '4', '1', '25.0', '1', '0', '100.0', '0', '0', '3', '1', '25', '1', '2', '15']"
"['', '16015', '2012-03-25', '23:30:00 GMT', '18', 'NSH', 'Nashville', 'Predators', '20', 'CHI', 'Chicago', 'Blackhawks', '28', 'United Center', '18', 'NSH', 'Nashville', 'Predators', '1', '0', '0', '0', '0', '0', '1', '2', '33', '29', '53.2', '2', '1', '50.0', '4', '0', '100.0', '0', '0', '6', '1', '18', '5', '13', '26']"
"['', '16030', '2012-03-27', '00:00:00 GMT', '18', 'NSH', 'Nashville', 'Predators', '17', 'STL', 'St. Louis', 'Blues', '24', 'Scottrade Center', '18', 'NSH', 'Nashville', 'Predators', '0', '1', '0', '0', '0', '0', '0', '0', '23', '30', '43.4', '1', '0', '0.0', '1', '0', '100.0', '0', '0', '0', '3', '24', '1', '2', '17']"
"['', '16049', '2012-03-30', '23:30:00 GMT', '18', 'NSH', 'Nashville', 'Predators', '16', 'DET', 'Detroit', 'Red Wings', '11', 'Joe Louis Arena', '18', 'NSH', 'Nashville', 'Predators', '1', '0', '0', '0', '0', '0', '1', '2', '27', '36', '42.9', '2', '0', '0.0', '3', '0', '100.0', '0', '0', '4', '1', '23', '3', '6', '16']"
"['', '16060', '2012-03-31', '00:00:00 GMT', '20', 'CHI', 'Chicago', 'Blackhawks', '18', 'NSH', 'Nashville', 'Predators', '15', 'Bridgestone Arena', '18', 'NSH', 'Nashville', 'Predators', '0', '1', '0', '0', '0', '0', '0', '0', '42', '20', '67.7', '4', '2', '50.0', '6', '2', '66.7', '0', '0', '4', '5', '29', '6', '12', '15']"
"['', '16079', '2012-04-03', '00:00:00 GMT', '25', 'MIN', 'Minnesota', 'Wild', '18', 'NSH', 'Nashville', 'Predators', '15', 'Bridgestone Arena', '18', 'NSH', 'Nashville', 'Predators', '1', '0', '0', '0', '0', '0', '0', '2', '34', '31', '52.3', '1', '0', '0.0', '4', '0', '100.0', '0', '0', '1', '1', '23', '6', '12', '14']"
"['', '16093', '2012-04-05', '00:00:00 GMT', '27', 'DAL', 'Dallas', 'Stars', '18', 'NSH', 'Nashville', 'Predators', '15', 'Bridgestone Arena', '18', 'NSH', 'Nashville', 'Predators', '1', '0', '0', '0', '0', '0', '1', '2', '32', '27', '54.2', '2', '0', '0.0', '4', '0', '100.0', '0', '0', '2', '0', '29', '4', '8', '14']"
"['', '16112', '2012-04-07', '01:00:00 GMT', '18', 'NSH', 'Nashville', 'Predators', '22', 'COL', 'Colorado', 'Avalanche', '19', 'Pepsi Center', '18', 'NSH', 'Nashville', 'Predators', '1', '0', '0', '0', '0', '0', '1', '2', '23', '32', '41.8', '1', '0', '0.0', '1', '0', '100.0', '0', '0', '6', '1', '23', '2', '4', '13']"
