"['#Date/Time of Update: 2018-12-10 19:03:10 GMT', '#Game ID', '#Game Date', '#Game Time', '#Away Team ID', '#Away Team Abbr.', '#Away Team City', '#Away Team Name', '#Home Team ID', '#Home Team Abbr.', '#Home Team City', '#Home Team Name', '#Venue ID', '#Venue Name', '#Team ID', '#Team Abbr.', '#Team City', '#Team Name', '#Wins', '#Losses', '#OvertimeWins', '#OvertimeLosses', '#ShootoutWins', '#ShootoutLosses', '#Rows', '#Points', '#FaceoffWins', '#FaceoffLosses', '#FaceoffPercent', '#Powerplays', '#PowerplayGoals', '#PowerplayPercent', '#PenaltyKills', '#PenaltyKillGoalsAllowed', '#PenaltyKillPercent', '#ShorthandedGoalsFor', '#ShorthandedGoalsAgainst', '#GoalsFor', '#GoalsAgainst', '#Shots', '#Penalties', '#PenaltyMinutes', '#Hits']"
"['', '26371', '2013-10-04', '23:00:00 GMT', '16', 'DET', 'Detroit', 'Red Wings', '3', 'CAR', 'Carolina', 'Hurricanes', '21', 'RBC Center', '3', 'CAR', 'Carolina', 'Hurricanes', '0', '0', '0', '1', '0', '0', '0', '1', '24', '23', '51.1', '3', '1', '33.3', '3', '0', '100.0', '0', '0', '2', '3', '23', '3', '6', '26']"
"['', '26386', '2013-10-06', '21:00:00 GMT', '6', 'PHI', 'Philadelphia', 'Flyers', '3', 'CAR', 'Carolina', 'Hurricanes', '21', 'RBC Center', '3', 'CAR', 'Carolina', 'Hurricanes', '1', '0', '0', '0', '0', '0', '1', '2', '32', '24', '57.1', '3', '0', '0.0', '2', '0', '100.0', '0', '0', '2', '1', '32', '2', '4', '29']"
"['', '26394', '2013-10-08', '23:00:00 GMT', '3', 'CAR', 'Carolina', 'Hurricanes', '10', 'PIT', 'Pittsburgh', 'Penguins', '40', 'Consol Energy Center', '3', 'CAR', 'Carolina', 'Hurricanes', '0', '1', '0', '0', '0', '0', '0', '0', '27', '44', '38.0', '2', '0', '0.0', '3', '2', '33.3', '0', '0', '2', '5', '32', '6', '15', '16']"
"['', '26404', '2013-10-10', '23:00:00 GMT', '3', 'CAR', 'Carolina', 'Hurricanes', '5', 'WSH', 'Washington', 'Capitals', '13', 'Verizon Center', '3', 'CAR', 'Carolina', 'Hurricanes', '1', '0', '0', '0', '0', '0', '1', '2', '32', '39', '45.1', '4', '1', '25.0', '3', '0', '100.0', '0', '0', '3', '2', '33', '7', '14', '28']"
"['', '26413', '2013-10-11', '23:00:00 GMT', '28', 'LAK', 'Los Angeles', 'Kings', '3', 'CAR', 'Carolina', 'Hurricanes', '21', 'RBC Center', '3', 'CAR', 'Carolina', 'Hurricanes', '0', '0', '0', '1', '0', '0', '0', '1', '22', '48', '31.4', '4', '1', '25.0', '3', '0', '100.0', '0', '1', '1', '1', '27', '3', '6', '18']"
"['', '26429', '2013-10-13', '17:00:00 GMT', '30', 'PHX', 'Phoenix', 'Coyotes', '3', 'CAR', 'Carolina', 'Hurricanes', '21', 'RBC Center', '3', 'CAR', 'Carolina', 'Hurricanes', '0', '1', '0', '0', '0', '0', '0', '0', '34', '39', '46.6', '7', '1', '14.3', '5', '2', '60.0', '0', '0', '3', '5', '31', '7', '14', '16']"
"['', '26440', '2013-10-15', '23:00:00 GMT', '20', 'CHI', 'Chicago', 'Blackhawks', '3', 'CAR', 'Carolina', 'Hurricanes', '21', 'RBC Center', '3', 'CAR', 'Carolina', 'Hurricanes', '0', '0', '0', '1', '0', '0', '0', '1', '44', '29', '60.3', '4', '0', '0.0', '2', '0', '100.0', '0', '0', '2', '2', '32', '3', '6', '31']"
"['', '26451', '2013-10-17', '23:00:00 GMT', '3', 'CAR', 'Carolina', 'Hurricanes', '12', 'TOR', 'Toronto', 'Maple Leafs', '1', 'Air Canada Center', '3', 'CAR', 'Carolina', 'Hurricanes', '1', '0', '0', '0', '0', '0', '1', '2', '37', '37', '50.0', '4', '1', '25.0', '3', '0', '100.0', '0', '0', '3', '2', '35', '4', '8', '25']"
"['', '26471', '2013-10-19', '23:00:00 GMT', '3', 'CAR', 'Carolina', 'Hurricanes', '8', 'NYI', 'New York', 'Islanders', '16', 'Nassau Veterans Memorial Coliseum', '3', 'CAR', 'Carolina', 'Hurricanes', '1', '0', '0', '0', '0', '0', '1', '2', '24', '29', '45.3', '3', '1', '33.3', '5', '2', '60.0', '0', '0', '4', '3', '19', '5', '10', '7']"
"['', '26499', '2013-10-24', '00:00:00 GMT', '3', 'CAR', 'Carolina', 'Hurricanes', '25', 'MIN', 'Minnesota', 'Wild', '30', 'Xcel Energy Center', '3', 'CAR', 'Carolina', 'Hurricanes', '0', '1', '0', '0', '0', '0', '0', '0', '23', '36', '39.0', '5', '1', '20.0', '5', '2', '60.0', '0', '0', '1', '3', '27', '5', '10', '24']"
"['', '26508', '2013-10-25', '01:00:00 GMT', '3', 'CAR', 'Carolina', 'Hurricanes', '22', 'COL', 'Colorado', 'Avalanche', '19', 'Pepsi Center', '3', 'CAR', 'Carolina', 'Hurricanes', '0', '1', '0', '0', '0', '0', '0', '0', '33', '33', '50.0', '3', '0', '0.0', '3', '1', '66.7', '0', '0', '2', '4', '28', '3', '6', '17']"
"['', '26526', '2013-10-28', '23:00:00 GMT', '10', 'PIT', 'Pittsburgh', 'Penguins', '3', 'CAR', 'Carolina', 'Hurricanes', '21', 'RBC Center', '3', 'CAR', 'Carolina', 'Hurricanes', '0', '1', '0', '0', '0', '0', '0', '0', '25', '32', '43.9', '5', '1', '20.0', '2', '0', '100.0', '0', '0', '1', '3', '20', '5', '13', '22']"
"['', '26547', '2013-11-01', '23:00:00 GMT', '1', 'TBL', 'Tampa Bay', 'Lightning', '3', 'CAR', 'Carolina', 'Hurricanes', '21', 'RBC Center', '3', 'CAR', 'Carolina', 'Hurricanes', '0', '1', '0', '0', '0', '0', '0', '0', '35', '21', '62.5', '4', '0', '0.0', '2', '0', '100.0', '0', '0', '0', '3', '31', '4', '8', '22']"
"['', '26558', '2013-11-02', '23:00:00 GMT', '3', 'CAR', 'Carolina', 'Hurricanes', '9', 'NYR', 'New York', 'Rangers', '12', 'Madison Square Garden', '3', 'CAR', 'Carolina', 'Hurricanes', '0', '1', '0', '0', '0', '0', '0', '0', '33', '28', '54.1', '3', '1', '33.3', '3', '1', '66.7', '0', '0', '1', '5', '27', '6', '12', '17']"
"['', '26576', '2013-11-05', '00:30:00 GMT', '6', 'PHI', 'Philadelphia', 'Flyers', '3', 'CAR', 'Carolina', 'Hurricanes', '21', 'RBC Center', '3', 'CAR', 'Carolina', 'Hurricanes', '1', '0', '0', '0', '0', '0', '1', '2', '42', '29', '59.2', '2', '0', '0.0', '3', '1', '66.7', '0', '0', '2', '1', '36', '5', '10', '35']"
"['', '26588', '2013-11-07', '00:00:00 GMT', '8', 'NYI', 'New York', 'Islanders', '3', 'CAR', 'Carolina', 'Hurricanes', '21', 'RBC Center', '3', 'CAR', 'Carolina', 'Hurricanes', '1', '0', '0', '0', '0', '0', '1', '2', '23', '14', '62.2', '2', '0', '0.0', '3', '0', '100.0', '0', '0', '1', '0', '23', '6', '15', '21']"
"['', '26603', '2013-11-09', '00:00:00 GMT', '25', 'MIN', 'Minnesota', 'Wild', '3', 'CAR', 'Carolina', 'Hurricanes', '21', 'RBC Center', '3', 'CAR', 'Carolina', 'Hurricanes', '0', '0', '0', '1', '0', '0', '0', '1', '36', '24', '60.0', '3', '0', '0.0', '4', '0', '100.0', '0', '0', '2', '2', '27', '4', '8', '24']"
"['', '26621', '2013-11-12', '00:00:00 GMT', '22', 'COL', 'Colorado', 'Avalanche', '3', 'CAR', 'Carolina', 'Hurricanes', '21', 'RBC Center', '3', 'CAR', 'Carolina', 'Hurricanes', '1', '0', '0', '0', '0', '0', '1', '2', '36', '26', '58.1', '1', '0', '0.0', '2', '1', '50.0', '0', '0', '2', '1', '26', '2', '4', '23']"
"['', '26641', '2013-11-15', '00:00:00 GMT', '29', 'ANA', 'Anaheim', 'Ducks', '3', 'CAR', 'Carolina', 'Hurricanes', '21', 'RBC Center', '3', 'CAR', 'Carolina', 'Hurricanes', '1', '0', '0', '0', '0', '0', '0', '2', '38', '30', '55.9', '3', '1', '33.3', '2', '1', '50.0', '0', '0', '2', '2', '21', '3', '6', '28']"
"['', '26652', '2013-11-16', '01:00:00 GMT', '3', 'CAR', 'Carolina', 'Hurricanes', '17', 'STL', 'St. Louis', 'Blues', '24', 'Scottrade Center', '3', 'CAR', 'Carolina', 'Hurricanes', '0', '1', '0', '0', '0', '0', '0', '0', '38', '35', '52.1', '4', '0', '0.0', '4', '1', '75.0', '2', '0', '2', '4', '18', '5', '10', '13']"
"['', '26663', '2013-11-18', '00:00:00 GMT', '11', 'BOS', 'Boston', 'Bruins', '3', 'CAR', 'Carolina', 'Hurricanes', '21', 'RBC Center', '3', 'CAR', 'Carolina', 'Hurricanes', '0', '1', '0', '0', '0', '0', '0', '0', '32', '23', '58.2', '4', '0', '0.0', '2', '1', '50.0', '0', '0', '1', '4', '23', '2', '4', '34']"
"['', '26683', '2013-11-21', '00:30:00 GMT', '3', 'CAR', 'Carolina', 'Hurricanes', '16', 'DET', 'Detroit', 'Red Wings', '11', 'Joe Louis Arena', '3', 'CAR', 'Carolina', 'Hurricanes', '0', '1', '0', '0', '0', '0', '0', '0', '29', '23', '55.8', '3', '0', '0.0', '3', '1', '66.7', '1', '0', '3', '4', '24', '4', '8', '19']"
"['', '26695', '2013-11-23', '18:00:00 GMT', '3', 'CAR', 'Carolina', 'Hurricanes', '11', 'BOS', 'Boston', 'Bruins', '27', 'TD Garden', '3', 'CAR', 'Carolina', 'Hurricanes', '0', '0', '0', '1', '0', '0', '0', '1', '24', '41', '36.9', '2', '1', '50.0', '5', '1', '80.0', '1', '0', '2', '3', '22', '5', '10', '35']"
"['', '26708', '2013-11-24', '22:00:00 GMT', '13', 'OTT', 'Ottawa', 'Senators', '3', 'CAR', 'Carolina', 'Hurricanes', '21', 'RBC Center', '3', 'CAR', 'Carolina', 'Hurricanes', '1', '0', '0', '0', '0', '0', '1', '2', '34', '34', '50.0', '3', '1', '33.3', '2', '0', '100.0', '0', '0', '4', '1', '33', '2', '4', '29']"
"['', '26720', '2013-11-27', '00:00:00 GMT', '3', 'CAR', 'Carolina', 'Hurricanes', '7', 'NJD', 'New Jersey', 'Devils', '37', 'Prudential Center', '3', 'CAR', 'Carolina', 'Hurricanes', '1', '0', '0', '0', '0', '0', '1', '2', '25', '27', '48.1', '1', '0', '0.0', '1', '0', '100.0', '1', '0', '4', '3', '18', '1', '2', '14']"
"['', '26742', '2013-11-29', '00:00:00 GMT', '7', 'NJD', 'New Jersey', 'Devils', '3', 'CAR', 'Carolina', 'Hurricanes', '21', 'RBC Center', '3', 'CAR', 'Carolina', 'Hurricanes', '0', '1', '0', '0', '0', '0', '0', '0', '27', '28', '49.1', '3', '0', '0.0', '3', '1', '66.7', '0', '0', '2', '5', '16', '4', '8', '33']"
"['', '26757', '2013-12-01', '18:00:00 GMT', '21', 'VAN', 'Vancouver', 'Canucks', '3', 'CAR', 'Carolina', 'Hurricanes', '21', 'RBC Center', '3', 'CAR', 'Carolina', 'Hurricanes', '0', '1', '0', '0', '0', '0', '0', '0', '36', '34', '51.4', '6', '0', '0.0', '3', '1', '66.7', '0', '0', '2', '3', '29', '5', '13', '35']"
"['', '26766', '2013-12-03', '00:00:00 GMT', '3', 'CAR', 'Carolina', 'Hurricanes', '5', 'WSH', 'Washington', 'Capitals', '13', 'Verizon Center', '3', 'CAR', 'Carolina', 'Hurricanes', '1', '0', '0', '0', '0', '0', '1', '2', '36', '30', '54.5', '3', '1', '33.3', '4', '1', '75.0', '0', '0', '4', '1', '28', '5', '10', '24']"
"['', '26783', '2013-12-05', '01:00:00 GMT', '3', 'CAR', 'Carolina', 'Hurricanes', '18', 'NSH', 'Nashville', 'Predators', '15', 'Bridgestone Arena', '3', 'CAR', 'Carolina', 'Hurricanes', '1', '0', '0', '0', '0', '0', '1', '2', '23', '27', '46.0', '5', '1', '20.0', '3', '0', '100.0', '0', '0', '5', '2', '18', '5', '10', '5']"
"['', '26787', '2013-12-06', '00:00:00 GMT', '26', 'SJS', 'San Jose', 'Sharks', '3', 'CAR', 'Carolina', 'Hurricanes', '21', 'RBC Center', '3', 'CAR', 'Carolina', 'Hurricanes', '1', '0', '0', '0', '0', '0', '1', '2', '34', '33', '50.7', '1', '0', '0.0', '2', '0', '100.0', '0', '0', '5', '3', '30', '2', '4', '22']"
"['', '26810', '2013-12-09', '03:00:00 GMT', '3', 'CAR', 'Carolina', 'Hurricanes', '21', 'VAN', 'Vancouver', 'Canucks', '7', 'Rogers Arena', '3', 'CAR', 'Carolina', 'Hurricanes', '0', '1', '0', '0', '0', '0', '0', '0', '27', '32', '45.8', '2', '0', '0.0', '4', '0', '100.0', '0', '0', '0', '2', '31', '4', '8', '20']"
"['', '26822', '2013-12-10', '02:30:00 GMT', '3', 'CAR', 'Carolina', 'Hurricanes', '24', 'EDM', 'Edmonton', 'Oilers', '22', 'Rogers Place', '3', 'CAR', 'Carolina', 'Hurricanes', '0', '0', '0', '1', '0', '0', '0', '1', '36', '34', '51.4', '1', '1', '100.0', '3', '1', '66.7', '1', '0', '4', '5', '24', '5', '21', '30']"
"['', '26834', '2013-12-12', '02:00:00 GMT', '3', 'CAR', 'Carolina', 'Hurricanes', '23', 'CGY', 'Calgary', 'Flames', '18', 'Scotiabank Saddledome', '3', 'CAR', 'Carolina', 'Hurricanes', '0', '0', '0', '1', '0', '0', '0', '1', '27', '29', '48.2', '2', '0', '0.0', '1', '0', '100.0', '0', '0', '1', '2', '28', '2', '4', '19']"
"['', '26850', '2013-12-14', '01:00:00 GMT', '3', 'CAR', 'Carolina', 'Hurricanes', '30', 'PHX', 'Phoenix', 'Coyotes', '6', 'Jobing.com Arena', '3', 'CAR', 'Carolina', 'Hurricanes', '1', '0', '0', '0', '0', '0', '1', '2', '31', '33', '48.4', '4', '0', '0.0', '2', '0', '100.0', '1', '0', '3', '1', '30', '5', '10', '27']"
"['', '26890', '2013-12-20', '00:00:00 GMT', '5', 'WSH', 'Washington', 'Capitals', '3', 'CAR', 'Carolina', 'Hurricanes', '21', 'RBC Center', '3', 'CAR', 'Carolina', 'Hurricanes', '0', '1', '0', '0', '0', '0', '0', '0', '35', '29', '54.7', '5', '1', '20.0', '4', '3', '25.0', '0', '0', '2', '4', '39', '5', '10', '34']"
"['', '26897', '2013-12-21', '00:00:00 GMT', '3', 'CAR', 'Carolina', 'Hurricanes', '1', 'TBL', 'Tampa Bay', 'Lightning', '26', 'Tampa Bay Times Forum', '3', 'CAR', 'Carolina', 'Hurricanes', '0', '0', '0', '1', '0', '0', '0', '1', '33', '29', '53.2', '1', '0', '0.0', '5', '1', '80.0', '1', '0', '2', '3', '25', '5', '10', '18']"
"['', '26910', '2013-12-23', '00:00:00 GMT', '19', 'CBJ', 'Columbus', 'Blue Jackets', '3', 'CAR', 'Carolina', 'Hurricanes', '21', 'RBC Center', '3', 'CAR', 'Carolina', 'Hurricanes', '0', '1', '0', '0', '0', '0', '0', '0', '30', '29', '50.8', '5', '2', '40.0', '5', '0', '100.0', '0', '0', '3', '4', '30', '5', '10', '31']"
"['', '26925', '2013-12-27', '00:00:00 GMT', '10', 'PIT', 'Pittsburgh', 'Penguins', '3', 'CAR', 'Carolina', 'Hurricanes', '21', 'RBC Center', '3', 'CAR', 'Carolina', 'Hurricanes', '0', '0', '0', '1', '0', '0', '0', '1', '36', '26', '58.1', '1', '0', '0.0', '1', '0', '100.0', '0', '0', '3', '4', '31', '1', '2', '33']"
"['', '26944', '2013-12-29', '00:00:00 GMT', '3', 'CAR', 'Carolina', 'Hurricanes', '12', 'TOR', 'Toronto', 'Maple Leafs', '1', 'Air Canada Center', '3', 'CAR', 'Carolina', 'Hurricanes', '0', '1', '0', '0', '0', '0', '0', '0', '29', '43', '40.3', '2', '1', '50.0', '2', '0', '100.0', '0', '0', '2', '5', '41', '3', '6', '24']"
"['', '26957', '2013-12-31', '00:00:00 GMT', '14', 'MTL', 'Montreal', 'Canadiens', '3', 'CAR', 'Carolina', 'Hurricanes', '21', 'RBC Center', '3', 'CAR', 'Carolina', 'Hurricanes', '1', '0', '0', '0', '0', '0', '1', '2', '58', '29', '66.7', '10', '2', '20.0', '3', '2', '33.3', '0', '0', '5', '4', '37', '7', '14', '21']"
"['', '26968', '2014-01-02', '00:00:00 GMT', '3', 'CAR', 'Carolina', 'Hurricanes', '5', 'WSH', 'Washington', 'Capitals', '13', 'Verizon Center', '3', 'CAR', 'Carolina', 'Hurricanes', '1', '0', '0', '0', '0', '0', '1', '2', '33', '41', '44.6', '4', '1', '25.0', '1', '0', '100.0', '0', '0', '4', '3', '29', '1', '2', '19']"
"['', '26986', '2014-01-04', '00:00:00 GMT', '3', 'CAR', 'Carolina', 'Hurricanes', '8', 'NYI', 'New York', 'Islanders', '16', 'Nassau Veterans Memorial Coliseum', '3', 'CAR', 'Carolina', 'Hurricanes', '1', '0', '0', '0', '0', '0', '1', '2', '33', '23', '58.9', '2', '0', '0.0', '2', '1', '50.0', '0', '0', '3', '2', '27', '2', '4', '22']"
"['', '26993', '2014-01-05', '00:00:00 GMT', '18', 'NSH', 'Nashville', 'Predators', '3', 'CAR', 'Carolina', 'Hurricanes', '21', 'RBC Center', '3', 'CAR', 'Carolina', 'Hurricanes', '1', '0', '0', '0', '0', '0', '1', '2', '28', '27', '50.9', '2', '0', '0.0', '0', '1', '0.0', '0', '0', '2', '1', '23', '2', '4', '14']"
"['', '27586', '2014-01-09', '03:17:00 GMT', '12', 'TOR', 'Toronto', 'Maple Leafs', '3', 'CAR', 'Carolina', 'Hurricanes', '21', 'RBC Center', '3', 'CAR', 'Carolina', 'Hurricanes', '1', '0', '0', '0', '0', '0', '1', '2', '36', '27', '57.1', '5', '2', '40.0', '2', '0', '100.0', '1', '0', '6', '1', '30', '3', '9', '13']"
"['', '27587', '2014-01-11', '12:00:00 GMT', '3', 'CAR', 'Carolina', 'Hurricanes', '19', 'CBJ', 'Columbus', 'Blue Jackets', '17', 'Nationwide Arena', '3', 'CAR', 'Carolina', 'Hurricanes', '0', '1', '0', '0', '0', '0', '0', '0', '29', '25', '53.7', '2', '0', '0.0', '2', '1', '50.0', '0', '0', '0', '3', '36', '3', '6', '17']"
"['', '27046', '2014-01-13', '00:00:00 GMT', '23', 'CGY', 'Calgary', 'Flames', '3', 'CAR', 'Carolina', 'Hurricanes', '21', 'RBC Center', '3', 'CAR', 'Carolina', 'Hurricanes', '0', '1', '0', '0', '0', '0', '0', '0', '28', '23', '54.9', '1', '0', '0.0', '3', '1', '66.7', '0', '0', '0', '2', '23', '4', '8', '25']"
"['', '27084', '2014-01-18', '00:00:00 GMT', '4', 'FLO', 'Florida', 'Panthers', '3', 'CAR', 'Carolina', 'Hurricanes', '21', 'RBC Center', '3', 'CAR', 'Carolina', 'Hurricanes', '1', '0', '0', '0', '0', '0', '1', '2', '44', '30', '59.5', '2', '0', '0.0', '5', '0', '100.0', '1', '0', '3', '2', '36', '5', '10', '23']"
"['', '27091', '2014-01-19', '22:00:00 GMT', '1', 'TBL', 'Tampa Bay', 'Lightning', '3', 'CAR', 'Carolina', 'Hurricanes', '21', 'RBC Center', '3', 'CAR', 'Carolina', 'Hurricanes', '0', '1', '0', '0', '0', '0', '0', '0', '42', '29', '59.2', '5', '1', '20.0', '2', '1', '50.0', '0', '0', '3', '5', '48', '2', '4', '30']"
"['', '27103', '2014-01-23', '11:00:00 GMT', '3', 'CAR', 'Carolina', 'Hurricanes', '6', 'PHI', 'Philadelphia', 'Flyers', '29', 'Wells Fargo Center', '3', 'CAR', 'Carolina', 'Hurricanes', '1', '0', '0', '0', '0', '0', '1', '2', '28', '22', '56.0', '2', '0', '0.0', '2', '1', '50.0', '0', '0', '3', '2', '29', '3', '6', '25']"
"['', '27113', '2014-01-23', '00:00:00 GMT', '3', 'CAR', 'Carolina', 'Hurricanes', '15', 'BUF', 'Buffalo', 'Sabres', '10', 'First Niagara Center', '3', 'CAR', 'Carolina', 'Hurricanes', '1', '0', '0', '0', '0', '0', '1', '2', '31', '32', '49.2', '3', '0', '0.0', '2', '0', '100.0', '0', '0', '5', '3', '28', '3', '6', '16']"
"['', '27124', '2014-01-26', '05:00:00 GMT', '13', 'OTT', 'Ottawa', 'Senators', '3', 'CAR', 'Carolina', 'Hurricanes', '21', 'RBC Center', '3', 'CAR', 'Carolina', 'Hurricanes', '1', '0', '0', '0', '0', '0', '1', '2', '36', '33', '52.2', '4', '1', '25.0', '2', '0', '100.0', '0', '1', '6', '3', '26', '3', '6', '17']"
"['', '27143', '2014-01-27', '00:00:00 GMT', '19', 'CBJ', 'Columbus', 'Blue Jackets', '3', 'CAR', 'Carolina', 'Hurricanes', '21', 'RBC Center', '3', 'CAR', 'Carolina', 'Hurricanes', '1', '0', '0', '0', '0', '0', '1', '2', '30', '26', '53.6', '2', '0', '0.0', '0', '0', '0.0', '0', '0', '3', '2', '32', '0', '0', '28']"
"['', '27153', '2014-01-28', '00:30:00 GMT', '3', 'CAR', 'Carolina', 'Hurricanes', '14', 'MTL', 'Montreal', 'Canadiens', '4', 'Bell Centre', '3', 'CAR', 'Carolina', 'Hurricanes', '0', '1', '0', '0', '0', '0', '0', '0', '27', '35', '43.5', '3', '0', '0.0', '2', '0', '100.0', '0', '0', '0', '3', '36', '2', '4', '14']"
"['', '27173', '2014-01-31', '00:00:00 GMT', '17', 'STL', 'St. Louis', 'Blues', '3', 'CAR', 'Carolina', 'Hurricanes', '21', 'RBC Center', '3', 'CAR', 'Carolina', 'Hurricanes', '1', '0', '0', '0', '0', '0', '1', '2', '32', '31', '50.8', '4', '1', '25.0', '4', '1', '75.0', '0', '0', '3', '1', '28', '4', '8', '24']"
"['', '27198', '2014-02-04', '00:00:00 GMT', '2', 'WPJ', 'Winnipeg', 'Jets', '3', 'CAR', 'Carolina', 'Hurricanes', '21', 'RBC Center', '3', 'CAR', 'Carolina', 'Hurricanes', '0', '1', '0', '0', '0', '0', '0', '0', '32', '18', '64.0', '3', '0', '0.0', '0', '0', '0.0', '0', '0', '1', '2', '28', '1', '2', '18']"
"['', '27221', '2014-02-07', '00:00:00 GMT', '4', 'FLO', 'Florida', 'Panthers', '3', 'CAR', 'Carolina', 'Hurricanes', '21', 'RBC Center', '3', 'CAR', 'Carolina', 'Hurricanes', '1', '0', '0', '0', '0', '0', '1', '2', '28', '21', '57.1', '2', '1', '50.0', '3', '0', '100.0', '0', '0', '5', '1', '27', '5', '13', '23']"
"['', '27228', '2014-02-08', '23:00:00 GMT', '14', 'MTL', 'Montreal', 'Canadiens', '3', 'CAR', 'Carolina', 'Hurricanes', '21', 'RBC Center', '3', 'CAR', 'Carolina', 'Hurricanes', '0', '1', '0', '0', '0', '0', '0', '0', '34', '27', '55.7', '2', '0', '0.0', '1', '0', '100.0', '0', '0', '1', '4', '31', '1', '2', '17']"
"['', '27589', '2014-02-25', '00:00:00 GMT', '3', 'CAR', 'Carolina', 'Hurricanes', '15', 'BUF', 'Buffalo', 'Sabres', '10', 'First Niagara Center', '3', 'CAR', 'Carolina', 'Hurricanes', '0', '1', '0', '0', '0', '0', '0', '0', '38', '29', '56.7', '4', '0', '0.0', '3', '1', '66.7', '0', '0', '2', '3', '36', '3', '6', '8']"
"['', '27247', '2014-02-27', '01:30:00 GMT', '3', 'CAR', 'Carolina', 'Hurricanes', '27', 'DAL', 'Dallas', 'Stars', '2', 'American Airlines Center', '3', 'CAR', 'Carolina', 'Hurricanes', '0', '1', '0', '0', '0', '0', '0', '0', '27', '28', '49.1', '4', '0', '0.0', '7', '0', '100.0', '0', '2', '1', '4', '29', '11', '33', '20']"
"['', '27260', '2014-03-01', '21:00:00 GMT', '3', 'CAR', 'Carolina', 'Hurricanes', '28', 'LAK', 'Los Angeles', 'Kings', '25', 'Staples Center', '3', 'CAR', 'Carolina', 'Hurricanes', '0', '1', '0', '0', '0', '0', '0', '0', '31', '28', '52.5', '2', '0', '0.0', '6', '1', '83.3', '0', '0', '1', '3', '24', '7', '14', '27']"
"['', '27270', '2014-03-02', '01:00:00 GMT', '3', 'CAR', 'Carolina', 'Hurricanes', '29', 'ANA', 'Anaheim', 'Ducks', '8', 'Honda Center', '3', 'CAR', 'Carolina', 'Hurricanes', '0', '1', '0', '0', '0', '0', '0', '0', '37', '31', '54.4', '6', '0', '0.0', '3', '0', '100.0', '0', '1', '3', '5', '49', '6', '15', '18']"
"['', '27284', '2014-03-04', '03:30:00 GMT', '3', 'CAR', 'Carolina', 'Hurricanes', '26', 'SJS', 'San Jose', 'Sharks', '9', 'SAP Center at San Jose', '3', 'CAR', 'Carolina', 'Hurricanes', '1', '0', '0', '0', '0', '0', '1', '2', '42', '30', '58.3', '2', '0', '0.0', '0', '0', '0.0', '0', '0', '3', '2', '32', '1', '2', '27']"
"['', '27299', '2014-03-07', '00:00:00 GMT', '9', 'NYR', 'New York', 'Rangers', '3', 'CAR', 'Carolina', 'Hurricanes', '21', 'RBC Center', '3', 'CAR', 'Carolina', 'Hurricanes', '0', '1', '0', '0', '0', '0', '0', '0', '32', '31', '50.8', '4', '0', '0.0', '4', '1', '75.0', '0', '1', '2', '4', '22', '5', '10', '14']"
"['', '27308', '2014-03-08', '00:00:00 GMT', '3', 'CAR', 'Carolina', 'Hurricanes', '7', 'NJD', 'New Jersey', 'Devils', '37', 'Prudential Center', '3', 'CAR', 'Carolina', 'Hurricanes', '0', '1', '0', '0', '0', '0', '0', '0', '33', '31', '51.6', '2', '1', '50.0', '2', '1', '50.0', '1', '1', '4', '5', '29', '2', '4', '16']"
"['', '27329', '2014-03-11', '23:00:00 GMT', '9', 'NYR', 'New York', 'Rangers', '3', 'CAR', 'Carolina', 'Hurricanes', '21', 'RBC Center', '3', 'CAR', 'Carolina', 'Hurricanes', '1', '0', '0', '0', '0', '0', '1', '2', '36', '24', '60.0', '4', '0', '0.0', '1', '0', '100.0', '0', '0', '3', '1', '32', '4', '8', '26']"
"['', '27341', '2014-03-13', '23:00:00 GMT', '15', 'BUF', 'Buffalo', 'Sabres', '3', 'CAR', 'Carolina', 'Hurricanes', '21', 'RBC Center', '3', 'CAR', 'Carolina', 'Hurricanes', '1', '0', '0', '0', '0', '0', '1', '2', '47', '17', '73.4', '5', '1', '20.0', '2', '0', '100.0', '0', '0', '4', '2', '51', '3', '14', '22']"
"['', '27355', '2014-03-15', '17:00:00 GMT', '3', 'CAR', 'Carolina', 'Hurricanes', '11', 'BOS', 'Boston', 'Bruins', '27', 'TD Garden', '3', 'CAR', 'Carolina', 'Hurricanes', '0', '1', '0', '0', '0', '0', '0', '0', '31', '36', '46.3', '2', '0', '0.0', '2', '0', '100.0', '0', '0', '1', '5', '29', '3', '6', '21']"
"['', '27366', '2014-03-16', '19:00:00 GMT', '24', 'EDM', 'Edmonton', 'Oilers', '3', 'CAR', 'Carolina', 'Hurricanes', '21', 'RBC Center', '3', 'CAR', 'Carolina', 'Hurricanes', '0', '1', '0', '0', '0', '0', '0', '0', '30', '28', '51.7', '3', '0', '0.0', '4', '1', '75.0', '0', '0', '1', '2', '29', '6', '12', '19']"
"['', '27380', '2014-03-18', '23:00:00 GMT', '3', 'CAR', 'Carolina', 'Hurricanes', '19', 'CBJ', 'Columbus', 'Blue Jackets', '17', 'Nationwide Arena', '3', 'CAR', 'Carolina', 'Hurricanes', '1', '0', '0', '0', '0', '0', '1', '2', '27', '37', '42.2', '4', '1', '25.0', '3', '0', '100.0', '0', '0', '3', '1', '17', '3', '6', '19']"
"['', '27403', '2014-03-21', '00:00:00 GMT', '3', 'CAR', 'Carolina', 'Hurricanes', '20', 'CHI', 'Chicago', 'Blackhawks', '28', 'United Center', '3', 'CAR', 'Carolina', 'Hurricanes', '0', '1', '0', '0', '0', '0', '0', '0', '26', '27', '49.1', '5', '1', '20.0', '4', '0', '100.0', '0', '1', '2', '3', '26', '5', '10', '17']"
"['', '27413', '2014-03-22', '23:00:00 GMT', '3', 'CAR', 'Carolina', 'Hurricanes', '2', 'WPJ', 'Winnipeg', 'Jets', '39', 'MTS Centre', '3', 'CAR', 'Carolina', 'Hurricanes', '1', '0', '0', '0', '0', '0', '1', '2', '30', '24', '55.6', '3', '1', '33.3', '2', '0', '100.0', '0', '0', '3', '2', '29', '2', '4', '7']"
"['', '27433', '2014-03-25', '23:00:00 GMT', '8', 'NYI', 'New York', 'Islanders', '3', 'CAR', 'Carolina', 'Hurricanes', '21', 'RBC Center', '3', 'CAR', 'Carolina', 'Hurricanes', '0', '1', '0', '0', '0', '0', '0', '0', '42', '32', '56.8', '4', '2', '50.0', '3', '0', '100.0', '0', '0', '4', '5', '24', '3', '6', '13']"
"['', '27448', '2014-03-27', '23:30:00 GMT', '3', 'CAR', 'Carolina', 'Hurricanes', '4', 'FLO', 'Florida', 'Panthers', '3', 'BB&T Center', '3', 'CAR', 'Carolina', 'Hurricanes', '1', '0', '0', '0', '0', '0', '1', '2', '28', '27', '50.9', '1', '0', '0.0', '2', '0', '100.0', '0', '0', '3', '0', '29', '4', '19', '19']"
"['', '27464', '2014-03-29', '23:00:00 GMT', '19', 'CBJ', 'Columbus', 'Blue Jackets', '3', 'CAR', 'Carolina', 'Hurricanes', '21', 'RBC Center', '3', 'CAR', 'Carolina', 'Hurricanes', '0', '0', '0', '1', '0', '0', '0', '1', '32', '32', '50.0', '3', '1', '33.3', '1', '1', '0.0', '0', '0', '2', '3', '25', '2', '4', '27']"
"['', '27475', '2014-03-31', '23:30:00 GMT', '3', 'CAR', 'Carolina', 'Hurricanes', '13', 'OTT', 'Ottawa', 'Senators', '23', 'Canadian Tire Centre', '3', 'CAR', 'Carolina', 'Hurricanes', '0', '0', '0', '1', '0', '0', '0', '1', '31', '31', '50.0', '3', '0', '0.0', '2', '0', '100.0', '0', '0', '1', '1', '30', '3', '6', '39']"
"['', '27482', '2014-04-01', '23:00:00 GMT', '3', 'CAR', 'Carolina', 'Hurricanes', '10', 'PIT', 'Pittsburgh', 'Penguins', '40', 'Consol Energy Center', '3', 'CAR', 'Carolina', 'Hurricanes', '1', '0', '0', '0', '0', '0', '1', '2', '25', '34', '42.4', '1', '1', '100.0', '1', '0', '100.0', '0', '0', '4', '1', '24', '4', '16', '18']"
"['', '27496', '2014-04-03', '23:00:00 GMT', '27', 'DAL', 'Dallas', 'Stars', '3', 'CAR', 'Carolina', 'Hurricanes', '21', 'RBC Center', '3', 'CAR', 'Carolina', 'Hurricanes', '1', '0', '0', '0', '0', '0', '1', '2', '32', '27', '54.2', '5', '2', '40.0', '3', '0', '100.0', '0', '0', '4', '1', '28', '3', '6', '18']"
"['', '27517', '2014-04-05', '23:00:00 GMT', '7', 'NJD', 'New Jersey', 'Devils', '3', 'CAR', 'Carolina', 'Hurricanes', '21', 'RBC Center', '3', 'CAR', 'Carolina', 'Hurricanes', '0', '1', '0', '0', '0', '0', '0', '0', '34', '22', '60.7', '4', '0', '0.0', '1', '0', '100.0', '0', '0', '1', '3', '26', '1', '2', '26']"
"['', '27532', '2014-04-08', '23:00:00 GMT', '3', 'CAR', 'Carolina', 'Hurricanes', '9', 'NYR', 'New York', 'Rangers', '12', 'Madison Square Garden', '3', 'CAR', 'Carolina', 'Hurricanes', '0', '1', '0', '0', '0', '0', '0', '0', '29', '18', '61.7', '0', '0', '0.0', '3', '2', '33.3', '0', '0', '1', '4', '27', '3', '6', '14']"
"['', '27545', '2014-04-10', '23:00:00 GMT', '5', 'WSH', 'Washington', 'Capitals', '3', 'CAR', 'Carolina', 'Hurricanes', '21', 'RBC Center', '3', 'CAR', 'Carolina', 'Hurricanes', '0', '1', '0', '0', '0', '0', '0', '0', '36', '17', '67.9', '1', '0', '0.0', '1', '0', '100.0', '1', '0', '2', '5', '36', '1', '2', '40']"
"['', '27556', '2014-04-11', '23:30:00 GMT', '3', 'CAR', 'Carolina', 'Hurricanes', '16', 'DET', 'Detroit', 'Red Wings', '11', 'Joe Louis Arena', '3', 'CAR', 'Carolina', 'Hurricanes', '1', '0', '0', '0', '0', '0', '1', '2', '27', '23', '54.0', '2', '1', '50.0', '2', '1', '50.0', '0', '0', '2', '1', '17', '3', '6', '25']"
"['', '27571', '2014-04-13', '19:00:00 GMT', '3', 'CAR', 'Carolina', 'Hurricanes', '6', 'PHI', 'Philadelphia', 'Flyers', '29', 'Wells Fargo Center', '3', 'CAR', 'Carolina', 'Hurricanes', '1', '0', '0', '0', '0', '0', '0', '2', '38', '23', '62.3', '2', '1', '50.0', '2', '1', '50.0', '0', '0', '5', '5', '33', '3', '6', '13']"
