"['#Date/Time of Update: 2018-12-10 19:03:20 GMT', '#Game ID', '#Game Date', '#Game Time', '#Away Team ID', '#Away Team Abbr.', '#Away Team City', '#Away Team Name', '#Home Team ID', '#Home Team Abbr.', '#Home Team City', '#Home Team Name', '#Venue ID', '#Venue Name', '#Team ID', '#Team Abbr.', '#Team City', '#Team Name', '#Wins', '#Losses', '#OvertimeWins', '#OvertimeLosses', '#Points', '#FaceoffWins', '#FaceoffLosses', '#FaceoffPercent', '#Powerplays', '#PowerplayGoals', '#PowerplayPercent', '#PenaltyKills', '#PenaltyKillGoalsAllowed', '#PenaltyKillPercent', '#ShorthandedGoalsFor', '#ShorthandedGoalsAgainst', '#GoalsFor', '#GoalsAgainst', '#Shots', '#Penalties', '#PenaltyMinutes', '#Hits']"
"['', '32632', '2016-10-12', '02:30:00 GMT', '28', 'LAK', 'Los Angeles', 'Kings', '26', 'SJS', 'San Jose', 'Sharks', '9', 'SAP Center at San Jose', '26', 'SJS', 'San Jose', 'Sharks', '1', '0', '0', '0', '2', '28', '28', '50.0', '3', '1', '33.3', '1', '1', '0.0', '0', '0', '2', '1', '31', '2', '4', '24']"
"['', '32651', '2016-10-15', '23:00:00 GMT', '26', 'SJS', 'San Jose', 'Sharks', '19', 'CBJ', 'Columbus', 'Blue Jackets', '17', 'Nationwide Arena', '26', 'SJS', 'San Jose', 'Sharks', '1', '0', '0', '0', '2', '25', '35', '41.7', '5', '1', '20.0', '2', '1', '50.0', '0', '0', '3', '2', '38', '2', '4', '11']"
"['', '32661', '2016-10-17', '23:00:00 GMT', '26', 'SJS', 'San Jose', 'Sharks', '9', 'NYR', 'New York', 'Rangers', '12', 'Madison Square Garden', '26', 'SJS', 'San Jose', 'Sharks', '0', '1', '0', '0', '0', '29', '39', '42.6', '4', '1', '25.0', '3', '1', '66.7', '0', '0', '4', '7', '31', '4', '8', '17']"
"['', '32665', '2016-10-18', '23:00:00 GMT', '26', 'SJS', 'San Jose', 'Sharks', '8', 'NYI', 'New York', 'Islanders', '35', 'Ericsson Globe', '26', 'SJS', 'San Jose', 'Sharks', '1', '0', '0', '0', '2', '25', '38', '39.7', '1', '0', '0.0', '2', '0', '100.0', '0', '0', '3', '2', '27', '2', '4', '13']"
"['', '32680', '2016-10-20', '23:00:00 GMT', '26', 'SJS', 'San Jose', 'Sharks', '10', 'PIT', 'Pittsburgh', 'Penguins', '40', 'PPG Paints Arena', '26', 'SJS', 'San Jose', 'Sharks', '0', '1', '0', '0', '0', '28', '31', '47.5', '3', '0', '0.0', '5', '1', '80.0', '0', '0', '2', '3', '34', '6', '20', '14']"
"['', '32694', '2016-10-22', '23:00:00 GMT', '26', 'SJS', 'San Jose', 'Sharks', '16', 'DET', 'Detroit', 'Red Wings', '11', 'Joe Louis Arena', '26', 'SJS', 'San Jose', 'Sharks', '0', '1', '0', '0', '0', '22', '38', '36.7', '5', '0', '0.0', '6', '0', '100.0', '0', '0', '0', '3', '30', '7', '16', '16']"
"['', '32720', '2016-10-25', '02:30:00 GMT', '29', 'ANA', 'Anaheim', 'Ducks', '26', 'SJS', 'San Jose', 'Sharks', '9', 'SAP Center at San Jose', '26', 'SJS', 'San Jose', 'Sharks', '1', '0', '0', '0', '2', '22', '35', '38.6', '5', '1', '20.0', '3', '0', '100.0', '0', '0', '2', '1', '36', '5', '21', '11']"
"['', '32733', '2016-10-27', '02:30:00 GMT', '19', 'CBJ', 'Columbus', 'Blue Jackets', '26', 'SJS', 'San Jose', 'Sharks', '9', 'SAP Center at San Jose', '26', 'SJS', 'San Jose', 'Sharks', '1', '0', '0', '0', '2', '26', '27', '49.1', '2', '2', '100.0', '3', '0', '100.0', '0', '0', '3', '1', '29', '3', '6', '19']"
"['', '32749', '2016-10-29', '02:30:00 GMT', '18', 'NSH', 'Nashville', 'Predators', '26', 'SJS', 'San Jose', 'Sharks', '9', 'SAP Center at San Jose', '26', 'SJS', 'San Jose', 'Sharks', '1', '0', '0', '0', '2', '35', '29', '54.7', '2', '1', '50.0', '1', '0', '100.0', '0', '0', '4', '1', '27', '1', '2', '27']"
"['', '32768', '2016-11-01', '02:00:00 GMT', '26', 'SJS', 'San Jose', 'Sharks', '30', 'ARI', 'Arizona', 'Coyotes', '6', 'Gila River Arena', '26', 'SJS', 'San Jose', 'Sharks', '0', '1', '0', '0', '0', '45', '31', '59.2', '2', '0', '0.0', '2', '0', '100.0', '0', '0', '2', '3', '41', '3', '9', '13']"
"['', '32784', '2016-11-03', '02:30:00 GMT', '23', 'CGY', 'Calgary', 'Flames', '26', 'SJS', 'San Jose', 'Sharks', '9', 'SAP Center at San Jose', '26', 'SJS', 'San Jose', 'Sharks', '0', '1', '0', '0', '0', '33', '23', '58.9', '5', '1', '20.0', '2', '0', '100.0', '0', '0', '2', '3', '28', '4', '8', '24']"
"['', '32800', '2016-11-05', '02:30:00 GMT', '10', 'PIT', 'Pittsburgh', 'Penguins', '26', 'SJS', 'San Jose', 'Sharks', '9', 'SAP Center at San Jose', '26', 'SJS', 'San Jose', 'Sharks', '0', '1', '0', '0', '0', '40', '27', '59.7', '5', '0', '0.0', '1', '0', '100.0', '0', '1', '0', '5', '32', '3', '9', '33']"
"['', '32814', '2016-11-08', '00:00:00 GMT', '26', 'SJS', 'San Jose', 'Sharks', '5', 'WSH', 'Washington', 'Capitals', '13', 'Verizon Center', '26', 'SJS', 'San Jose', 'Sharks', '1', '0', '0', '0', '2', '23', '28', '45.1', '2', '0', '0.0', '3', '0', '100.0', '0', '0', '3', '0', '23', '3', '6', '15']"
"['', '32828', '2016-11-10', '00:30:00 GMT', '26', 'SJS', 'San Jose', 'Sharks', '4', 'FLO', 'Florida', 'Panthers', '3', 'BB&T Center', '26', 'SJS', 'San Jose', 'Sharks', '1', '0', '0', '0', '2', '33', '25', '56.9', '2', '0', '0.0', '1', '0', '100.0', '0', '0', '4', '2', '29', '1', '2', '16']"
"['', '32839', '2016-11-12', '00:00:00 GMT', '26', 'SJS', 'San Jose', 'Sharks', '1', 'TBL', 'Tampa Bay', 'Lightning', '26', 'Amalie Arena', '26', 'SJS', 'San Jose', 'Sharks', '1', '0', '0', '0', '2', '30', '29', '50.8', '1', '1', '100.0', '2', '0', '100.0', '0', '0', '3', '1', '19', '2', '4', '23']"
"['', '32857', '2016-11-15', '00:00:00 GMT', '26', 'SJS', 'San Jose', 'Sharks', '3', 'CAR', 'Carolina', 'Hurricanes', '21', 'RBC Center', '26', 'SJS', 'San Jose', 'Sharks', '0', '1', '0', '0', '0', '15', '34', '30.6', '1', '0', '0.0', '1', '0', '100.0', '0', '0', '0', '1', '22', '1', '2', '21']"
"['', '32875', '2016-11-17', '01:00:00 GMT', '26', 'SJS', 'San Jose', 'Sharks', '17', 'STL', 'St. Louis', 'Blues', '24', 'Scottrade Center', '26', 'SJS', 'San Jose', 'Sharks', '0', '1', '0', '0', '0', '24', '38', '38.7', '6', '0', '0.0', '4', '1', '75.0', '0', '0', '2', '3', '31', '4', '8', '8']"
"['', '32895', '2016-11-19', '01:00:00 GMT', '26', 'SJS', 'San Jose', 'Sharks', '30', 'ARI', 'Arizona', 'Coyotes', '6', 'Gila River Arena', '26', 'SJS', 'San Jose', 'Sharks', '0', '0', '0', '1', '1', '35', '34', '50.7', '3', '0', '0.0', '4', '1', '75.0', '0', '0', '2', '3', '45', '5', '13', '15']"
"['', '37724', '2016-11-21', '03:30:00 GMT', '7', 'NJD', 'New Jersey', 'Devils', '26', 'SJS', 'San Jose', 'Sharks', '9', 'SAP Center at San Jose', '26', 'SJS', 'San Jose', 'Sharks', '1', '0', '0', '0', '2', '34', '37', '47.9', '5', '1', '20.0', '3', '0', '100.0', '1', '0', '4', '0', '42', '3', '6', '13']"
"['', '32925', '2016-11-23', '03:30:00 GMT', '20', 'CHI', 'Chicago', 'Blackhawks', '26', 'SJS', 'San Jose', 'Sharks', '9', 'SAP Center at San Jose', '26', 'SJS', 'San Jose', 'Sharks', '1', '0', '0', '0', '2', '30', '24', '55.6', '4', '1', '25.0', '2', '0', '100.0', '1', '0', '2', '1', '35', '3', '6', '34']"
"['', '32931', '2016-11-25', '21:00:00 GMT', '8', 'NYI', 'New York', 'Islanders', '26', 'SJS', 'San Jose', 'Sharks', '9', 'SAP Center at San Jose', '26', 'SJS', 'San Jose', 'Sharks', '1', '0', '0', '0', '2', '23', '25', '47.9', '1', '0', '0.0', '1', '1', '0.0', '0', '0', '3', '2', '28', '1', '2', '15']"
"['', '32947', '2016-11-26', '03:30:00 GMT', '29', 'ANA', 'Anaheim', 'Ducks', '26', 'SJS', 'San Jose', 'Sharks', '9', 'SAP Center at San Jose', '26', 'SJS', 'San Jose', 'Sharks', '0', '1', '0', '0', '0', '35', '34', '50.7', '3', '1', '33.3', '1', '1', '0.0', '0', '0', '2', '3', '23', '1', '2', '31']"
"['', '32967', '2016-11-29', '03:00:00 GMT', '30', 'ARI', 'Arizona', 'Coyotes', '26', 'SJS', 'San Jose', 'Sharks', '9', 'SAP Center at San Jose', '26', 'SJS', 'San Jose', 'Sharks', '1', '0', '0', '0', '2', '27', '19', '58.7', '3', '1', '33.3', '1', '0', '100.0', '0', '0', '2', '1', '42', '3', '6', '26']"
"['', '32970', '2016-11-30', '03:30:00 GMT', '26', 'SJS', 'San Jose', 'Sharks', '28', 'LAK', 'Los Angeles', 'Kings', '25', 'Staples Center', '26', 'SJS', 'San Jose', 'Sharks', '1', '0', '0', '0', '2', '22', '37', '37.3', '1', '0', '0.0', '2', '1', '50.0', '0', '0', '4', '1', '24', '2', '4', '28']"
"['', '32984', '2016-12-02', '03:30:00 GMT', '14', 'MTL', 'Montreal', 'Canadiens', '26', 'SJS', 'San Jose', 'Sharks', '9', 'SAP Center at San Jose', '26', 'SJS', 'San Jose', 'Sharks', '1', '0', '0', '0', '2', '39', '26', '60.0', '3', '1', '33.3', '4', '1', '75.0', '0', '0', '2', '1', '30', '3', '8', '27']"
"['', '33020', '2016-12-07', '03:30:00 GMT', '13', 'OTT', 'Ottawa', 'Senators', '26', 'SJS', 'San Jose', 'Sharks', '9', 'SAP Center at San Jose', '26', 'SJS', 'San Jose', 'Sharks', '0', '1', '0', '0', '0', '36', '29', '55.4', '6', '1', '16.7', '4', '1', '75.0', '0', '0', '2', '4', '37', '4', '8', '24']"
"['', '33036', '2016-12-09', '03:00:00 GMT', '26', 'SJS', 'San Jose', 'Sharks', '29', 'ANA', 'Anaheim', 'Ducks', '8', 'Honda Center', '26', 'SJS', 'San Jose', 'Sharks', '0', '1', '0', '0', '0', '23', '30', '43.4', '1', '0', '0.0', '3', '0', '100.0', '0', '0', '2', '3', '24', '4', '11', '24']"
"['', '33046', '2016-12-10', '03:30:00 GMT', '3', 'CAR', 'Carolina', 'Hurricanes', '26', 'SJS', 'San Jose', 'Sharks', '9', 'SAP Center at San Jose', '26', 'SJS', 'San Jose', 'Sharks', '1', '0', '0', '0', '2', '24', '32', '42.9', '1', '0', '0.0', '2', '2', '0.0', '0', '1', '4', '3', '20', '3', '6', '23']"
"['', '33061', '2016-12-13', '00:30:00 GMT', '26', 'SJS', 'San Jose', 'Sharks', '12', 'TOR', 'Toronto', 'Maple Leafs', '1', 'Air Canada Center', '26', 'SJS', 'San Jose', 'Sharks', '1', '0', '0', '0', '2', '26', '43', '37.7', '6', '1', '16.7', '3', '1', '66.7', '0', '0', '2', '2', '42', '4', '8', '23']"
"['', '33067', '2016-12-14', '00:00:00 GMT', '26', 'SJS', 'San Jose', 'Sharks', '13', 'OTT', 'Ottawa', 'Senators', '23', 'Canadian Tire Centre', '26', 'SJS', 'San Jose', 'Sharks', '1', '0', '0', '0', '2', '33', '35', '48.5', '8', '0', '0.0', '5', '1', '80.0', '0', '0', '3', '3', '27', '9', '29', '28']"
"['', '33081', '2016-12-16', '00:30:00 GMT', '26', 'SJS', 'San Jose', 'Sharks', '14', 'MTL', 'Montreal', 'Canadiens', '4', 'Bell Centre', '26', 'SJS', 'San Jose', 'Sharks', '1', '0', '0', '0', '2', '23', '34', '40.4', '5', '2', '40.0', '3', '0', '100.0', '0', '0', '4', '2', '23', '3', '6', '16']"
"['', '33100', '2016-12-18', '00:00:00 GMT', '26', 'SJS', 'San Jose', 'Sharks', '20', 'CHI', 'Chicago', 'Blackhawks', '28', 'United Center', '26', 'SJS', 'San Jose', 'Sharks', '0', '1', '0', '0', '0', '21', '21', '50.0', '2', '0', '0.0', '2', '0', '100.0', '0', '0', '1', '4', '34', '2', '4', '25']"
"['', '33118', '2016-12-20', '03:30:00 GMT', '23', 'CGY', 'Calgary', 'Flames', '26', 'SJS', 'San Jose', 'Sharks', '9', 'SAP Center at San Jose', '26', 'SJS', 'San Jose', 'Sharks', '1', '0', '0', '0', '2', '28', '26', '51.9', '5', '0', '0.0', '1', '0', '100.0', '0', '0', '4', '1', '34', '1', '2', '16']"
"['', '33142', '2016-12-23', '03:30:00 GMT', '24', 'EDM', 'Edmonton', 'Oilers', '26', 'SJS', 'San Jose', 'Sharks', '9', 'SAP Center at San Jose', '26', 'SJS', 'San Jose', 'Sharks', '1', '0', '0', '0', '2', '33', '35', '48.5', '3', '1', '33.3', '6', '0', '100.0', '0', '0', '3', '2', '31', '8', '22', '17']"
"['', '33152', '2016-12-27', '03:00:00 GMT', '26', 'SJS', 'San Jose', 'Sharks', '29', 'ANA', 'Anaheim', 'Ducks', '8', 'Honda Center', '26', 'SJS', 'San Jose', 'Sharks', '1', '0', '0', '0', '2', '21', '35', '37.5', '4', '0', '0.0', '1', '0', '100.0', '0', '0', '3', '2', '25', '2', '7', '17']"
"['', '33173', '2016-12-30', '03:00:00 GMT', '6', 'PHI', 'Philadelphia', 'Flyers', '26', 'SJS', 'San Jose', 'Sharks', '9', 'SAP Center at San Jose', '26', 'SJS', 'San Jose', 'Sharks', '1', '0', '0', '0', '2', '29', '29', '50.0', '3', '1', '33.3', '2', '0', '100.0', '0', '0', '2', '0', '34', '2', '4', '11']"
"['', '33184', '2016-12-31', '03:30:00 GMT', '26', 'SJS', 'San Jose', 'Sharks', '28', 'LAK', 'Los Angeles', 'Kings', '25', 'Staples Center', '26', 'SJS', 'San Jose', 'Sharks', '0', '1', '0', '0', '0', '26', '26', '50.0', '3', '1', '33.3', '5', '1', '80.0', '0', '0', '2', '3', '20', '6', '15', '27']"
"['', '33197', '2017-01-03', '03:00:00 GMT', '28', 'LAK', 'Los Angeles', 'Kings', '26', 'SJS', 'San Jose', 'Sharks', '9', 'SAP Center at San Jose', '26', 'SJS', 'San Jose', 'Sharks', '0', '0', '0', '1', '1', '33', '32', '50.8', '3', '0', '0.0', '3', '1', '66.7', '0', '0', '1', '2', '27', '3', '6', '28']"
"['', '33210', '2017-01-05', '03:30:00 GMT', '25', 'MIN', 'Minnesota', 'Wild', '26', 'SJS', 'San Jose', 'Sharks', '9', 'SAP Center at San Jose', '26', 'SJS', 'San Jose', 'Sharks', '0', '1', '0', '0', '0', '28', '26', '51.9', '1', '0', '0.0', '3', '1', '66.7', '0', '0', '4', '5', '34', '3', '6', '22']"
"['', '33228', '2017-01-07', '03:30:00 GMT', '16', 'DET', 'Detroit', 'Red Wings', '26', 'SJS', 'San Jose', 'Sharks', '9', 'SAP Center at San Jose', '26', 'SJS', 'San Jose', 'Sharks', '1', '0', '0', '0', '2', '24', '33', '42.1', '2', '0', '0.0', '1', '0', '100.0', '0', '0', '6', '3', '35', '1', '2', '20']"
"['', '33244', '2017-01-10', '02:00:00 GMT', '26', 'SJS', 'San Jose', 'Sharks', '24', 'EDM', 'Edmonton', 'Oilers', '22', 'Rogers Place', '26', 'SJS', 'San Jose', 'Sharks', '1', '0', '0', '0', '2', '35', '21', '62.5', '2', '0', '0.0', '2', '0', '100.0', '0', '0', '5', '3', '28', '2', '4', '7']"
"['', '33249', '2017-01-11', '02:30:00 GMT', '26', 'SJS', 'San Jose', 'Sharks', '23', 'CGY', 'Calgary', 'Flames', '18', 'Scotiabank Saddledome', '26', 'SJS', 'San Jose', 'Sharks', '0', '1', '0', '0', '0', '21', '31', '40.4', '2', '1', '50.0', '2', '1', '50.0', '0', '0', '2', '3', '26', '3', '6', '11']"
"['', '33277', '2017-01-14', '03:30:00 GMT', '17', 'STL', 'St. Louis', 'Blues', '26', 'SJS', 'San Jose', 'Sharks', '9', 'SAP Center at San Jose', '26', 'SJS', 'San Jose', 'Sharks', '0', '1', '0', '0', '0', '28', '30', '48.3', '3', '0', '0.0', '3', '1', '66.7', '0', '0', '0', '4', '23', '5', '21', '30']"
"['', '33286', '2017-01-16', '21:00:00 GMT', '2', 'WPJ', 'Winnipeg', 'Jets', '26', 'SJS', 'San Jose', 'Sharks', '9', 'SAP Center at San Jose', '26', 'SJS', 'San Jose', 'Sharks', '1', '0', '0', '0', '2', '30', '25', '54.5', '4', '1', '25.0', '2', '0', '100.0', '1', '0', '5', '2', '32', '3', '9', '17']"
"['', '33302', '2017-01-18', '03:30:00 GMT', '26', 'SJS', 'San Jose', 'Sharks', '28', 'LAK', 'Los Angeles', 'Kings', '25', 'Staples Center', '26', 'SJS', 'San Jose', 'Sharks', '1', '0', '0', '0', '2', '31', '34', '47.7', '4', '1', '25.0', '4', '0', '100.0', '0', '0', '3', '2', '27', '6', '12', '27']"
"['', '33310', '2017-01-19', '03:30:00 GMT', '1', 'TBL', 'Tampa Bay', 'Lightning', '26', 'SJS', 'San Jose', 'Sharks', '9', 'SAP Center at San Jose', '26', 'SJS', 'San Jose', 'Sharks', '1', '0', '0', '0', '2', '25', '23', '52.1', '1', '0', '0.0', '3', '1', '66.7', '0', '0', '2', '1', '24', '4', '8', '17']"
"['', '33327', '2017-01-21', '03:30:00 GMT', '22', 'COL', 'Colorado', 'Avalanche', '26', 'SJS', 'San Jose', 'Sharks', '9', 'SAP Center at San Jose', '26', 'SJS', 'San Jose', 'Sharks', '1', '0', '0', '0', '2', '33', '25', '56.9', '3', '1', '33.3', '0', '0', '0.0', '0', '0', '3', '2', '30', '1', '2', '13']"
"['', '33338', '2017-01-23', '02:00:00 GMT', '26', 'SJS', 'San Jose', 'Sharks', '22', 'COL', 'Colorado', 'Avalanche', '19', 'Pepsi Center', '26', 'SJS', 'San Jose', 'Sharks', '1', '0', '0', '0', '2', '19', '32', '37.3', '4', '0', '0.0', '3', '1', '66.7', '0', '0', '5', '2', '26', '3', '6', '10']"
"['', '33347', '2017-01-24', '01:00:00 GMT', '26', 'SJS', 'San Jose', 'Sharks', '2', 'WPJ', 'Winnipeg', 'Jets', '39', 'MTS Centre', '26', 'SJS', 'San Jose', 'Sharks', '1', '0', '0', '0', '2', '23', '36', '39.0', '2', '1', '50.0', '2', '0', '100.0', '0', '0', '4', '3', '26', '2', '4', '9']"
"['', '33366', '2017-01-26', '03:30:00 GMT', '24', 'EDM', 'Edmonton', 'Oilers', '26', 'SJS', 'San Jose', 'Sharks', '9', 'SAP Center at San Jose', '26', 'SJS', 'San Jose', 'Sharks', '0', '1', '0', '0', '0', '27', '26', '50.9', '4', '0', '0.0', '2', '1', '50.0', '0', '0', '1', '4', '33', '2', '4', '22']"
"['', '33380', '2017-01-31', '03:30:00 GMT', '20', 'CHI', 'Chicago', 'Blackhawks', '26', 'SJS', 'San Jose', 'Sharks', '9', 'SAP Center at San Jose', '26', 'SJS', 'San Jose', 'Sharks', '1', '0', '0', '0', '2', '19', '27', '41.3', '3', '1', '33.3', '3', '0', '100.0', '0', '0', '3', '1', '29', '3', '6', '25']"
"['', '40231', '2017-02-02', '03:00:00 GMT', '26', 'SJS', 'San Jose', 'Sharks', '21', 'VAN', 'Vancouver', 'Canucks', '7', 'Rogers Arena', '26', 'SJS', 'San Jose', 'Sharks', '1', '0', '0', '0', '2', '23', '40', '36.5', '3', '2', '66.7', '2', '0', '100.0', '0', '0', '4', '1', '32', '2', '4', '12']"
"['', '33409', '2017-02-04', '03:30:00 GMT', '30', 'ARI', 'Arizona', 'Coyotes', '26', 'SJS', 'San Jose', 'Sharks', '9', 'SAP Center at San Jose', '26', 'SJS', 'San Jose', 'Sharks', '0', '0', '0', '1', '1', '25', '33', '43.1', '3', '0', '0.0', '4', '1', '75.0', '0', '0', '2', '2', '40', '6', '15', '19']"
"['', '33416', '2017-02-07', '00:00:00 GMT', '26', 'SJS', 'San Jose', 'Sharks', '15', 'BUF', 'Buffalo', 'Sabres', '10', 'KeyBank Center', '26', 'SJS', 'San Jose', 'Sharks', '0', '0', '0', '1', '1', '33', '22', '60.0', '3', '1', '33.3', '3', '2', '33.3', '0', '0', '4', '5', '40', '4', '8', '11']"
"['', '33428', '2017-02-09', '00:00:00 GMT', '26', 'SJS', 'San Jose', 'Sharks', '11', 'BOS', 'Boston', 'Bruins', '27', 'TD Garden', '26', 'SJS', 'San Jose', 'Sharks', '0', '1', '0', '0', '0', '29', '37', '43.9', '2', '0', '0.0', '3', '2', '33.3', '0', '0', '3', '6', '26', '3', '6', '23']"
"['', '33443', '2017-02-11', '18:00:00 GMT', '26', 'SJS', 'San Jose', 'Sharks', '6', 'PHI', 'Philadelphia', 'Flyers', '29', 'Wells Fargo Center', '26', 'SJS', 'San Jose', 'Sharks', '0', '0', '0', '1', '1', '28', '28', '50.0', '3', '1', '33.3', '3', '0', '100.0', '0', '0', '1', '2', '24', '4', '8', '34']"
"['', '33454', '2017-02-12', '17:30:00 GMT', '26', 'SJS', 'San Jose', 'Sharks', '7', 'NJD', 'New Jersey', 'Devils', '37', 'Prudential Center', '26', 'SJS', 'San Jose', 'Sharks', '1', '0', '0', '0', '2', '25', '25', '50.0', '6', '0', '0.0', '2', '0', '100.0', '0', '0', '4', '1', '38', '3', '9', '14']"
"['', '33472', '2017-02-15', '03:30:00 GMT', '4', 'FLO', 'Florida', 'Panthers', '26', 'SJS', 'San Jose', 'Sharks', '9', 'SAP Center at San Jose', '26', 'SJS', 'San Jose', 'Sharks', '0', '0', '0', '1', '1', '35', '27', '56.5', '3', '0', '0.0', '2', '0', '100.0', '0', '0', '5', '6', '36', '2', '4', '10']"
"['', '33492', '2017-02-18', '01:00:00 GMT', '26', 'SJS', 'San Jose', 'Sharks', '30', 'ARI', 'Arizona', 'Coyotes', '6', 'Gila River Arena', '26', 'SJS', 'San Jose', 'Sharks', '1', '0', '0', '0', '2', '29', '36', '44.6', '2', '1', '50.0', '0', '0', '0.0', '0', '0', '4', '1', '33', '0', '0', '6']"
"['', '33503', '2017-02-19', '01:30:00 GMT', '11', 'BOS', 'Boston', 'Bruins', '26', 'SJS', 'San Jose', 'Sharks', '9', 'SAP Center at San Jose', '26', 'SJS', 'San Jose', 'Sharks', '0', '0', '0', '1', '1', '37', '35', '51.4', '1', '0', '0.0', '1', '0', '100.0', '0', '0', '1', '2', '30', '2', '4', '18']"
"['', '33537', '2017-02-25', '03:00:00 GMT', '26', 'SJS', 'San Jose', 'Sharks', '21', 'VAN', 'Vancouver', 'Canucks', '7', 'Rogers Arena', '26', 'SJS', 'San Jose', 'Sharks', '1', '0', '0', '0', '2', '31', '32', '49.2', '1', '1', '100.0', '2', '0', '100.0', '0', '0', '4', '1', '26', '3', '9', '7']"
"['', '33559', '2017-02-28', '03:30:00 GMT', '12', 'TOR', 'Toronto', 'Maple Leafs', '26', 'SJS', 'San Jose', 'Sharks', '9', 'SAP Center at San Jose', '26', 'SJS', 'San Jose', 'Sharks', '1', '0', '0', '0', '2', '31', '30', '50.8', '2', '0', '0.0', '3', '1', '66.7', '0', '0', '3', '1', '37', '3', '6', '27']"
"['', '33571', '2017-03-02', '03:30:00 GMT', '21', 'VAN', 'Vancouver', 'Canucks', '26', 'SJS', 'San Jose', 'Sharks', '9', 'SAP Center at San Jose', '26', 'SJS', 'San Jose', 'Sharks', '1', '0', '0', '0', '2', '24', '27', '47.1', '2', '0', '0.0', '3', '1', '66.7', '0', '0', '3', '1', '31', '4', '11', '12']"
"['', '33591', '2017-03-05', '23:00:00 GMT', '26', 'SJS', 'San Jose', 'Sharks', '25', 'MIN', 'Minnesota', 'Wild', '30', 'Xcel Energy Center', '26', 'SJS', 'San Jose', 'Sharks', '0', '1', '0', '0', '0', '27', '20', '57.4', '3', '0', '0.0', '4', '1', '75.0', '0', '0', '1', '3', '21', '3', '8', '7']"
"['', '33598', '2017-03-06', '01:00:00 GMT', '26', 'SJS', 'San Jose', 'Sharks', '2', 'WPJ', 'Winnipeg', 'Jets', '39', 'MTS Centre', '26', 'SJS', 'San Jose', 'Sharks', '1', '0', '0', '0', '2', '28', '30', '48.3', '3', '0', '0.0', '4', '1', '75.0', '1', '0', '3', '2', '30', '5', '13', '21']"
"['', '33620', '2017-03-09', '03:30:00 GMT', '5', 'WSH', 'Washington', 'Capitals', '26', 'SJS', 'San Jose', 'Sharks', '9', 'SAP Center at San Jose', '26', 'SJS', 'San Jose', 'Sharks', '1', '0', '0', '0', '2', '25', '32', '43.9', '5', '2', '40.0', '5', '0', '100.0', '0', '0', '4', '2', '24', '5', '10', '23']"
"['', '33627', '2017-03-11', '21:00:00 GMT', '18', 'NSH', 'Nashville', 'Predators', '26', 'SJS', 'San Jose', 'Sharks', '9', 'SAP Center at San Jose', '26', 'SJS', 'San Jose', 'Sharks', '0', '1', '0', '0', '0', '19', '34', '35.8', '4', '0', '0.0', '2', '0', '100.0', '0', '1', '1', '3', '26', '3', '9', '23']"
"['', '33641', '2017-03-12', '02:00:00 GMT', '27', 'DAL', 'Dallas', 'Stars', '26', 'SJS', 'San Jose', 'Sharks', '9', 'SAP Center at San Jose', '26', 'SJS', 'San Jose', 'Sharks', '1', '0', '0', '0', '2', '24', '29', '45.3', '5', '0', '0.0', '2', '0', '100.0', '1', '0', '5', '1', '26', '2', '4', '21']"
"['', '33658', '2017-03-14', '02:30:00 GMT', '15', 'BUF', 'Buffalo', 'Sabres', '26', 'SJS', 'San Jose', 'Sharks', '9', 'SAP Center at San Jose', '26', 'SJS', 'San Jose', 'Sharks', '1', '0', '0', '0', '2', '33', '24', '57.9', '3', '1', '33.3', '1', '0', '100.0', '0', '0', '4', '1', '42', '1', '2', '25']"
"['', '33674', '2017-03-16', '02:30:00 GMT', '17', 'STL', 'St. Louis', 'Blues', '26', 'SJS', 'San Jose', 'Sharks', '9', 'SAP Center at San Jose', '26', 'SJS', 'San Jose', 'Sharks', '0', '1', '0', '0', '0', '33', '37', '47.1', '2', '0', '0.0', '1', '1', '0.0', '0', '0', '1', '4', '20', '2', '7', '32']"
"['', '33688', '2017-03-18', '02:30:00 GMT', '29', 'ANA', 'Anaheim', 'Ducks', '26', 'SJS', 'San Jose', 'Sharks', '9', 'SAP Center at San Jose', '26', 'SJS', 'San Jose', 'Sharks', '0', '1', '0', '0', '0', '21', '23', '47.7', '3', '1', '33.3', '2', '0', '100.0', '0', '0', '1', '2', '34', '4', '8', '26']"
"['', '33699', '2017-03-20', '00:30:00 GMT', '26', 'SJS', 'San Jose', 'Sharks', '27', 'DAL', 'Dallas', 'Stars', '2', 'American Airlines Center', '26', 'SJS', 'San Jose', 'Sharks', '0', '1', '0', '0', '0', '26', '28', '48.1', '2', '0', '0.0', '2', '0', '100.0', '0', '0', '0', '1', '30', '2', '4', '9']"
"['', '33708', '2017-03-21', '00:30:00 GMT', '26', 'SJS', 'San Jose', 'Sharks', '25', 'MIN', 'Minnesota', 'Wild', '30', 'Xcel Energy Center', '26', 'SJS', 'San Jose', 'Sharks', '0', '1', '0', '0', '0', '23', '28', '45.1', '1', '0', '0.0', '3', '1', '66.7', '0', '0', '2', '3', '23', '4', '11', '13']"
"['', '33729', '2017-03-24', '00:30:00 GMT', '26', 'SJS', 'San Jose', 'Sharks', '27', 'DAL', 'Dallas', 'Stars', '2', 'American Airlines Center', '26', 'SJS', 'San Jose', 'Sharks', '0', '1', '0', '0', '0', '30', '33', '47.6', '3', '1', '33.3', '2', '0', '100.0', '0', '1', '1', '6', '21', '2', '4', '24']"
"['', '33740', '2017-03-25', '00:00:00 GMT', '26', 'SJS', 'San Jose', 'Sharks', '18', 'NSH', 'Nashville', 'Predators', '15', 'Bridgestone Arena', '26', 'SJS', 'San Jose', 'Sharks', '0', '1', '0', '0', '0', '30', '42', '41.7', '4', '1', '25.0', '3', '2', '33.3', '0', '1', '2', '7', '28', '7', '28', '16']"
"['', '33762', '2017-03-28', '02:30:00 GMT', '9', 'NYR', 'New York', 'Rangers', '26', 'SJS', 'San Jose', 'Sharks', '9', 'SAP Center at San Jose', '26', 'SJS', 'San Jose', 'Sharks', '1', '0', '0', '0', '2', '33', '24', '57.9', '2', '1', '50.0', '3', '2', '33.3', '1', '0', '5', '4', '35', '4', '8', '21']"
"['', '33775', '2017-03-30', '01:00:00 GMT', '26', 'SJS', 'San Jose', 'Sharks', '24', 'EDM', 'Edmonton', 'Oilers', '22', 'Rogers Place', '26', 'SJS', 'San Jose', 'Sharks', '0', '1', '0', '0', '0', '25', '34', '42.4', '2', '0', '0.0', '3', '0', '100.0', '0', '1', '2', '3', '40', '5', '13', '21']"
"['', '33780', '2017-03-31', '01:00:00 GMT', '26', 'SJS', 'San Jose', 'Sharks', '23', 'CGY', 'Calgary', 'Flames', '18', 'Scotiabank Saddledome', '26', 'SJS', 'San Jose', 'Sharks', '0', '1', '0', '0', '0', '33', '33', '50.0', '4', '0', '0.0', '2', '1', '50.0', '0', '0', '2', '5', '38', '4', '11', '6']"
"['', '33798', '2017-04-02', '23:00:00 GMT', '26', 'SJS', 'San Jose', 'Sharks', '21', 'VAN', 'Vancouver', 'Canucks', '7', 'Rogers Arena', '26', 'SJS', 'San Jose', 'Sharks', '1', '0', '0', '0', '2', '20', '24', '45.5', '1', '0', '0.0', '1', '0', '100.0', '0', '0', '3', '1', '25', '1', '2', '6']"
"['', '33817', '2017-04-04', '02:30:00 GMT', '21', 'VAN', 'Vancouver', 'Canucks', '26', 'SJS', 'San Jose', 'Sharks', '9', 'SAP Center at San Jose', '26', 'SJS', 'San Jose', 'Sharks', '1', '0', '0', '0', '2', '33', '33', '50.0', '1', '0', '0.0', '3', '0', '100.0', '0', '0', '3', '1', '25', '3', '6', '14']"
"['', '33831', '2017-04-06', '02:30:00 GMT', '24', 'EDM', 'Edmonton', 'Oilers', '26', 'SJS', 'San Jose', 'Sharks', '9', 'SAP Center at San Jose', '26', 'SJS', 'San Jose', 'Sharks', '0', '1', '0', '0', '0', '35', '25', '58.3', '6', '0', '0.0', '4', '2', '50.0', '0', '0', '2', '4', '14', '6', '15', '20']"
"['', '33845', '2017-04-08', '02:00:00 GMT', '23', 'CGY', 'Calgary', 'Flames', '26', 'SJS', 'San Jose', 'Sharks', '9', 'SAP Center at San Jose', '26', 'SJS', 'San Jose', 'Sharks', '1', '0', '0', '0', '2', '24', '24', '50.0', '2', '1', '50.0', '3', '0', '100.0', '0', '0', '3', '1', '27', '3', '6', '15']"
