"['#Date/Time of Update: 2018-12-10 19:03:14 GMT', '#Game ID', '#Game Date', '#Game Time', '#Away Team ID', '#Away Team Abbr.', '#Away Team City', '#Away Team Name', '#Home Team ID', '#Home Team Abbr.', '#Home Team City', '#Home Team Name', '#Venue ID', '#Venue Name', '#Team ID', '#Team Abbr.', '#Team City', '#Team Name', '#Wins', '#Losses', '#OvertimeWins', '#OvertimeLosses', '#ShootoutWins', '#ShootoutLosses', '#Rows', '#Points', '#FaceoffWins', '#FaceoffLosses', '#FaceoffPercent', '#Powerplays', '#PowerplayGoals', '#PowerplayPercent', '#PenaltyKills', '#PenaltyKillGoalsAllowed', '#PenaltyKillPercent', '#ShorthandedGoalsFor', '#ShorthandedGoalsAgainst', '#GoalsFor', '#GoalsAgainst', '#Shots', '#Penalties', '#PenaltyMinutes', '#Hits']"
"['', '27702', '2014-10-09', '23:00:00 GMT', '29', 'ANA', 'Anaheim', 'Ducks', '10', 'PIT', 'Pittsburgh', 'Penguins', '40', 'Consol Energy Center', '29', 'ANA', 'Anaheim', 'Ducks', '0', '1', '0', '0', '0', '0', '0', '0', '34', '38', '47.2', '6', '3', '50.0', '4', '1', '75.0', '0', '1', '4', '6', '24', '5', '13', '33']"
"['', '27716', '2014-10-11', '23:00:00 GMT', '29', 'ANA', 'Anaheim', 'Ducks', '16', 'DET', 'Detroit', 'Red Wings', '11', 'Joe Louis Arena', '29', 'ANA', 'Anaheim', 'Ducks', '1', '0', '0', '0', '0', '0', '1', '2', '28', '23', '54.9', '3', '0', '0.0', '2', '0', '100.0', '0', '0', '3', '2', '23', '3', '6', '19']"
"['', '27730', '2014-10-13', '19:00:00 GMT', '29', 'ANA', 'Anaheim', 'Ducks', '15', 'BUF', 'Buffalo', 'Sabres', '10', 'First Niagara Center', '29', 'ANA', 'Anaheim', 'Ducks', '1', '0', '0', '0', '0', '0', '1', '2', '45', '21', '68.2', '6', '1', '16.7', '2', '0', '100.0', '0', '0', '5', '1', '39', '5', '13', '21']"
"['', '27734', '2014-10-14', '23:00:00 GMT', '29', 'ANA', 'Anaheim', 'Ducks', '6', 'PHI', 'Philadelphia', 'Flyers', '29', 'Wells Fargo Center', '29', 'ANA', 'Anaheim', 'Ducks', '1', '0', '0', '0', '0', '0', '0', '2', '30', '30', '50.0', '1', '0', '0.0', '4', '2', '50.0', '0', '0', '3', '3', '25', '4', '8', '43']"
"['', '27756', '2014-10-17', '02:00:00 GMT', '25', 'MIN', 'Minnesota', 'Wild', '29', 'ANA', 'Anaheim', 'Ducks', '8', 'Honda Center', '29', 'ANA', 'Anaheim', 'Ducks', '1', '0', '0', '0', '0', '0', '1', '2', '28', '36', '43.8', '4', '0', '0.0', '2', '0', '100.0', '1', '0', '2', '1', '24', '5', '13', '25']"
"['', '27771', '2014-10-19', '00:00:00 GMT', '17', 'STL', 'St. Louis', 'Blues', '29', 'ANA', 'Anaheim', 'Ducks', '8', 'Honda Center', '29', 'ANA', 'Anaheim', 'Ducks', '1', '0', '0', '0', '0', '0', '1', '2', '38', '23', '62.3', '3', '2', '66.7', '2', '0', '100.0', '0', '0', '3', '0', '22', '2', '4', '27']"
"['', '27786', '2014-10-22', '02:30:00 GMT', '15', 'BUF', 'Buffalo', 'Sabres', '29', 'ANA', 'Anaheim', 'Ducks', '8', 'Honda Center', '29', 'ANA', 'Anaheim', 'Ducks', '1', '0', '0', '0', '0', '0', '1', '2', '36', '21', '63.2', '4', '0', '0.0', '2', '0', '100.0', '0', '0', '4', '1', '30', '3', '9', '22']"
"['', '27799', '2014-10-24', '02:00:00 GMT', '19', 'CBJ', 'Columbus', 'Blue Jackets', '29', 'ANA', 'Anaheim', 'Ducks', '8', 'Honda Center', '29', 'ANA', 'Anaheim', 'Ducks', '1', '0', '0', '0', '0', '0', '1', '2', '41', '26', '61.2', '4', '2', '50.0', '3', '1', '66.7', '0', '0', '4', '1', '30', '5', '13', '32']"
"['', '27814', '2014-10-26', '00:00:00 GMT', '26', 'SJS', 'San Jose', 'Sharks', '29', 'ANA', 'Anaheim', 'Ducks', '8', 'Honda Center', '29', 'ANA', 'Anaheim', 'Ducks', '0', '1', '0', '0', '0', '0', '0', '0', '40', '33', '54.8', '5', '1', '20.0', '4', '2', '50.0', '0', '0', '1', '4', '33', '20', '92', '37']"
"['', '27825', '2014-10-28', '00:30:00 GMT', '29', 'ANA', 'Anaheim', 'Ducks', '20', 'CHI', 'Chicago', 'Blackhawks', '28', 'United Center', '29', 'ANA', 'Anaheim', 'Ducks', '1', '0', '0', '0', '0', '0', '1', '2', '22', '34', '39.3', '1', '0', '0.0', '3', '0', '100.0', '1', '0', '1', '0', '24', '4', '8', '37']"
"['', '27838', '2014-10-30', '00:00:00 GMT', '29', 'ANA', 'Anaheim', 'Ducks', '17', 'STL', 'St. Louis', 'Blues', '24', 'Scottrade Center', '29', 'ANA', 'Anaheim', 'Ducks', '0', '1', '0', '0', '0', '0', '0', '0', '22', '32', '40.7', '4', '0', '0.0', '2', '0', '100.0', '0', '0', '0', '2', '24', '3', '6', '19']"
"['', '27844', '2014-10-31', '00:30:00 GMT', '29', 'ANA', 'Anaheim', 'Ducks', '27', 'DAL', 'Dallas', 'Stars', '2', 'American Airlines Center', '29', 'ANA', 'Anaheim', 'Ducks', '1', '0', '0', '0', '0', '0', '1', '2', '40', '31', '56.3', '4', '0', '0.0', '4', '0', '100.0', '0', '0', '2', '1', '22', '7', '14', '22']"
"['', '27862', '2014-11-02', '01:00:00 GMT', '29', 'ANA', 'Anaheim', 'Ducks', '22', 'COL', 'Colorado', 'Avalanche', '19', 'Pepsi Center', '29', 'ANA', 'Anaheim', 'Ducks', '1', '0', '0', '0', '0', '0', '1', '2', '26', '31', '45.6', '5', '0', '0.0', '2', '0', '100.0', '0', '0', '3', '2', '30', '3', '6', '23']"
"['', '27880', '2014-11-05', '03:30:00 GMT', '8', 'NYI', 'New York', 'Islanders', '29', 'ANA', 'Anaheim', 'Ducks', '8', 'Honda Center', '29', 'ANA', 'Anaheim', 'Ducks', '0', '0', '0', '1', '0', '0', '0', '1', '40', '33', '54.8', '1', '1', '100.0', '3', '2', '33.3', '0', '0', '2', '3', '32', '3', '6', '31']"
"['', '27895', '2014-11-07', '03:00:00 GMT', '30', 'ARI', 'Arizona', 'Coyotes', '29', 'ANA', 'Anaheim', 'Ducks', '8', 'Honda Center', '29', 'ANA', 'Anaheim', 'Ducks', '0', '0', '0', '1', '0', '0', '0', '1', '29', '34', '46.0', '0', '1', '0.0', '0', '0', '0.0', '0', '0', '2', '2', '37', '3', '6', '42']"
"['', '27911', '2014-11-09', '01:00:00 GMT', '21', 'VAN', 'Vancouver', 'Canucks', '29', 'ANA', 'Anaheim', 'Ducks', '8', 'Honda Center', '29', 'ANA', 'Anaheim', 'Ducks', '0', '0', '0', '1', '0', '0', '0', '1', '35', '34', '50.7', '1', '1', '100.0', '2', '0', '100.0', '0', '0', '1', '1', '28', '6', '18', '29']"
"['', '27926', '2014-11-12', '03:30:00 GMT', '28', 'LAK', 'Los Angeles', 'Kings', '29', 'ANA', 'Anaheim', 'Ducks', '8', 'Honda Center', '29', 'ANA', 'Anaheim', 'Ducks', '1', '0', '0', '0', '0', '0', '0', '2', '35', '30', '53.8', '0', '0', '0.0', '0', '0', '0.0', '0', '0', '5', '5', '44', '3', '14', '44']"
"['', '27944', '2014-11-15', '21:00:00 GMT', '29', 'ANA', 'Anaheim', 'Ducks', '28', 'LAK', 'Los Angeles', 'Kings', '25', 'Staples Center', '29', 'ANA', 'Anaheim', 'Ducks', '0', '0', '0', '1', '0', '0', '0', '1', '33', '35', '48.5', '3', '0', '0.0', '3', '2', '33.3', '0', '1', '2', '3', '27', '4', '11', '32']"
"['', '27958', '2014-11-16', '01:00:00 GMT', '4', 'FLO', 'Florida', 'Panthers', '29', 'ANA', 'Anaheim', 'Ducks', '8', 'Honda Center', '29', 'ANA', 'Anaheim', 'Ducks', '0', '1', '0', '0', '0', '0', '0', '0', '35', '25', '58.3', '2', '0', '0.0', '1', '1', '0.0', '0', '0', '2', '6', '33', '1', '2', '21']"
"['', '27970', '2014-11-18', '02:00:00 GMT', '29', 'ANA', 'Anaheim', 'Ducks', '23', 'CGY', 'Calgary', 'Flames', '18', 'Scotiabank Saddledome', '29', 'ANA', 'Anaheim', 'Ducks', '0', '0', '0', '1', '0', '0', '0', '1', '39', '30', '56.5', '3', '2', '66.7', '4', '0', '100.0', '0', '0', '3', '3', '24', '6', '15', '24']"
"['', '27982', '2014-11-20', '03:00:00 GMT', '29', 'ANA', 'Anaheim', 'Ducks', '21', 'VAN', 'Vancouver', 'Canucks', '7', 'Rogers Arena', '29', 'ANA', 'Anaheim', 'Ducks', '1', '0', '0', '0', '0', '0', '0', '2', '31', '36', '46.3', '3', '0', '0.0', '1', '0', '100.0', '0', '0', '3', '3', '23', '1', '2', '20']"
"['', '28004', '2014-11-23', '01:00:00 GMT', '30', 'ARI', 'Arizona', 'Coyotes', '29', 'ANA', 'Anaheim', 'Ducks', '8', 'Honda Center', '29', 'ANA', 'Anaheim', 'Ducks', '1', '0', '0', '0', '0', '0', '1', '2', '24', '35', '40.7', '2', '0', '0.0', '3', '0', '100.0', '0', '0', '2', '1', '28', '3', '6', '32']"
"['', '28016', '2014-11-25', '03:00:00 GMT', '23', 'CGY', 'Calgary', 'Flames', '29', 'ANA', 'Anaheim', 'Ducks', '8', 'Honda Center', '29', 'ANA', 'Anaheim', 'Ducks', '1', '0', '0', '0', '0', '0', '1', '2', '37', '29', '56.1', '0', '0', '0.0', '4', '0', '100.0', '0', '0', '3', '2', '26', '7', '17', '30']"
"['', '28028', '2014-11-28', '21:00:00 GMT', '20', 'CHI', 'Chicago', 'Blackhawks', '29', 'ANA', 'Anaheim', 'Ducks', '8', 'Honda Center', '29', 'ANA', 'Anaheim', 'Ducks', '0', '1', '0', '0', '0', '0', '0', '0', '27', '23', '54.0', '1', '0', '0.0', '4', '0', '100.0', '0', '0', '1', '4', '23', '7', '23', '31']"
"['', '28049', '2014-11-29', '03:30:00 GMT', '29', 'ANA', 'Anaheim', 'Ducks', '26', 'SJS', 'San Jose', 'Sharks', '9', 'SAP Center at San Jose', '29', 'ANA', 'Anaheim', 'Ducks', '0', '1', '0', '0', '0', '0', '0', '0', '33', '44', '42.9', '4', '0', '0.0', '4', '2', '50.0', '0', '1', '4', '6', '30', '9', '18', '32']"
"['', '28055', '2014-12-01', '03:00:00 GMT', '11', 'BOS', 'Boston', 'Bruins', '29', 'ANA', 'Anaheim', 'Ducks', '8', 'Honda Center', '29', 'ANA', 'Anaheim', 'Ducks', '1', '0', '0', '0', '0', '0', '1', '2', '27', '30', '47.4', '3', '0', '0.0', '3', '0', '100.0', '0', '0', '3', '2', '25', '3', '6', '24']"
"['', '28069', '2014-12-03', '03:30:00 GMT', '6', 'PHI', 'Philadelphia', 'Flyers', '29', 'ANA', 'Anaheim', 'Ducks', '8', 'Honda Center', '29', 'ANA', 'Anaheim', 'Ducks', '1', '0', '0', '0', '0', '0', '0', '2', '36', '30', '54.5', '5', '1', '20.0', '2', '1', '50.0', '0', '0', '4', '4', '29', '3', '6', '30']"
"['', '28081', '2014-12-05', '01:00:00 GMT', '29', 'ANA', 'Anaheim', 'Ducks', '25', 'MIN', 'Minnesota', 'Wild', '30', 'Xcel Energy Center', '29', 'ANA', 'Anaheim', 'Ducks', '1', '0', '0', '0', '0', '0', '1', '2', '26', '38', '40.6', '3', '0', '0.0', '4', '2', '50.0', '0', '0', '5', '4', '16', '5', '13', '24']"
"['', '28096', '2014-12-07', '20:00:00 GMT', '29', 'ANA', 'Anaheim', 'Ducks', '2', 'WPJ', 'Winnipeg', 'Jets', '39', 'MTS Centre', '29', 'ANA', 'Anaheim', 'Ducks', '1', '0', '0', '0', '0', '0', '1', '2', '31', '30', '50.8', '6', '2', '33.3', '5', '2', '60.0', '0', '0', '4', '3', '21', '7', '14', '20']"
"['', '28114', '2014-12-10', '03:00:00 GMT', '24', 'EDM', 'Edmonton', 'Oilers', '29', 'ANA', 'Anaheim', 'Ducks', '8', 'Honda Center', '29', 'ANA', 'Anaheim', 'Ducks', '1', '0', '0', '0', '0', '0', '1', '2', '43', '21', '67.2', '4', '1', '25.0', '2', '0', '100.0', '0', '0', '2', '1', '32', '2', '4', '33']"
"['', '28128', '2014-12-12', '02:30:00 GMT', '29', 'ANA', 'Anaheim', 'Ducks', '24', 'EDM', 'Edmonton', 'Oilers', '22', 'Rogers Place', '29', 'ANA', 'Anaheim', 'Ducks', '1', '0', '0', '0', '0', '0', '1', '2', '34', '33', '50.7', '2', '1', '50.0', '4', '1', '75.0', '0', '0', '4', '2', '16', '4', '8', '23']"
"['', '28136', '2014-12-13', '00:00:00 GMT', '29', 'ANA', 'Anaheim', 'Ducks', '2', 'WPJ', 'Winnipeg', 'Jets', '39', 'MTS Centre', '29', 'ANA', 'Anaheim', 'Ducks', '1', '0', '0', '0', '0', '0', '1', '2', '33', '27', '55.0', '5', '1', '20.0', '4', '1', '75.0', '2', '0', '4', '1', '27', '4', '8', '30']"
"['', '28148', '2014-12-16', '00:30:00 GMT', '29', 'ANA', 'Anaheim', 'Ducks', '12', 'TOR', 'Toronto', 'Maple Leafs', '1', 'Air Canada Center', '29', 'ANA', 'Anaheim', 'Ducks', '0', '1', '0', '0', '0', '0', '0', '0', '32', '36', '47.1', '2', '0', '0.0', '3', '1', '66.7', '1', '0', '2', '6', '40', '7', '22', '39']"
"['', '28165', '2014-12-18', '00:30:00 GMT', '29', 'ANA', 'Anaheim', 'Ducks', '14', 'MTL', 'Montreal', 'Canadiens', '4', 'Bell Centre', '29', 'ANA', 'Anaheim', 'Ducks', '1', '0', '0', '0', '0', '0', '1', '2', '35', '41', '46.1', '2', '0', '0.0', '2', '1', '50.0', '0', '0', '2', '1', '21', '5', '13', '23']"
"['', '28169', '2014-12-19', '00:30:00 GMT', '29', 'ANA', 'Anaheim', 'Ducks', '13', 'OTT', 'Ottawa', 'Senators', '23', 'Canadian Tire Centre', '29', 'ANA', 'Anaheim', 'Ducks', '0', '1', '0', '0', '0', '0', '0', '0', '36', '31', '53.7', '2', '0', '0.0', '2', '1', '50.0', '0', '1', '2', '6', '32', '2', '4', '34']"
"['', '28195', '2014-12-22', '03:00:00 GMT', '26', 'SJS', 'San Jose', 'Sharks', '29', 'ANA', 'Anaheim', 'Ducks', '8', 'Honda Center', '29', 'ANA', 'Anaheim', 'Ducks', '1', '0', '0', '0', '0', '0', '1', '2', '30', '30', '50.0', '3', '0', '0.0', '2', '1', '50.0', '0', '0', '3', '2', '29', '3', '9', '21']"
"['', '28217', '2014-12-27', '01:00:00 GMT', '29', 'ANA', 'Anaheim', 'Ducks', '30', 'ARI', 'Arizona', 'Coyotes', '6', 'Gila River Arena', '29', 'ANA', 'Anaheim', 'Ducks', '0', '0', '0', '1', '0', '0', '0', '1', '23', '38', '37.7', '1', '0', '0.0', '1', '0', '100.0', '0', '0', '1', '1', '35', '1', '2', '40']"
"['', '28222', '2014-12-28', '01:00:00 GMT', '21', 'VAN', 'Vancouver', 'Canucks', '29', 'ANA', 'Anaheim', 'Ducks', '8', 'Honda Center', '29', 'ANA', 'Anaheim', 'Ducks', '1', '0', '0', '0', '0', '0', '1', '2', '31', '23', '57.4', '4', '0', '0.0', '0', '0', '0.0', '0', '0', '2', '1', '29', '2', '7', '24']"
"['', '28246', '2014-12-31', '01:00:00 GMT', '26', 'SJS', 'San Jose', 'Sharks', '29', 'ANA', 'Anaheim', 'Ducks', '8', 'Honda Center', '29', 'ANA', 'Anaheim', 'Ducks', '0', '1', '0', '0', '0', '0', '0', '0', '38', '21', '64.4', '3', '0', '0.0', '5', '1', '80.0', '0', '0', '0', '3', '28', '10', '23', '22']"
"['', '28259', '2015-01-02', '03:00:00 GMT', '17', 'STL', 'St. Louis', 'Blues', '29', 'ANA', 'Anaheim', 'Ducks', '8', 'Honda Center', '29', 'ANA', 'Anaheim', 'Ducks', '1', '0', '0', '0', '0', '0', '1', '2', '23', '40', '36.5', '5', '1', '20.0', '5', '1', '80.0', '0', '0', '4', '3', '29', '6', '15', '24']"
"['', '28275', '2015-01-04', '01:00:00 GMT', '18', 'NSH', 'Nashville', 'Predators', '29', 'ANA', 'Anaheim', 'Ducks', '8', 'Honda Center', '29', 'ANA', 'Anaheim', 'Ducks', '1', '0', '0', '0', '0', '0', '0', '2', '37', '29', '56.1', '3', '0', '0.0', '4', '2', '50.0', '0', '0', '3', '3', '30', '4', '8', '32']"
"['', '28291', '2015-01-07', '03:30:00 GMT', '9', 'NYR', 'New York', 'Rangers', '29', 'ANA', 'Anaheim', 'Ducks', '8', 'Honda Center', '29', 'ANA', 'Anaheim', 'Ducks', '0', '1', '0', '0', '0', '0', '0', '0', '36', '25', '59.0', '3', '1', '33.3', '0', '0', '0.0', '0', '0', '1', '4', '24', '1', '2', '26']"
"['', '28320', '2015-01-11', '02:00:00 GMT', '2', 'WPJ', 'Winnipeg', 'Jets', '29', 'ANA', 'Anaheim', 'Ducks', '8', 'Honda Center', '29', 'ANA', 'Anaheim', 'Ducks', '1', '0', '0', '0', '0', '0', '0', '2', '47', '35', '57.3', '5', '2', '40.0', '6', '0', '100.0', '0', '0', '4', '4', '39', '8', '19', '35']"
"['', '28336', '2015-01-14', '03:00:00 GMT', '12', 'TOR', 'Toronto', 'Maple Leafs', '29', 'ANA', 'Anaheim', 'Ducks', '8', 'Honda Center', '29', 'ANA', 'Anaheim', 'Ducks', '1', '0', '0', '0', '0', '0', '1', '2', '24', '32', '42.9', '1', '1', '100.0', '3', '0', '100.0', '0', '0', '4', '0', '21', '3', '6', '31']"
"['', '28353', '2015-01-16', '03:00:00 GMT', '7', 'NJD', 'New Jersey', 'Devils', '29', 'ANA', 'Anaheim', 'Ducks', '8', 'Honda Center', '29', 'ANA', 'Anaheim', 'Ducks', '1', '0', '0', '0', '0', '0', '1', '2', '35', '28', '55.6', '3', '1', '33.3', '2', '1', '50.0', '0', '0', '5', '1', '35', '3', '9', '25']"
"['', '28365', '2015-01-17', '03:00:00 GMT', '29', 'ANA', 'Anaheim', 'Ducks', '28', 'LAK', 'Los Angeles', 'Kings', '25', 'Staples Center', '29', 'ANA', 'Anaheim', 'Ducks', '1', '0', '0', '0', '0', '0', '0', '2', '39', '37', '51.3', '2', '1', '50.0', '3', '1', '66.7', '0', '0', '2', '2', '29', '3', '11', '32']"
"['', '28389', '2015-01-21', '03:00:00 GMT', '23', 'CGY', 'Calgary', 'Flames', '29', 'ANA', 'Anaheim', 'Ducks', '8', 'Honda Center', '29', 'ANA', 'Anaheim', 'Ducks', '1', '0', '0', '0', '0', '0', '1', '2', '27', '33', '45.0', '2', '0', '0.0', '3', '0', '100.0', '0', '0', '6', '3', '21', '3', '6', '23']"
"['', '28401', '2015-01-27', '03:00:00 GMT', '29', 'ANA', 'Anaheim', 'Ducks', '21', 'VAN', 'Vancouver', 'Canucks', '7', 'Rogers Arena', '29', 'ANA', 'Anaheim', 'Ducks', '1', '0', '0', '0', '0', '0', '1', '2', '30', '29', '50.8', '3', '1', '33.3', '3', '0', '100.0', '0', '0', '4', '0', '20', '3', '6', '18']"
"['', '28415', '2015-01-29', '03:30:00 GMT', '29', 'ANA', 'Anaheim', 'Ducks', '26', 'SJS', 'San Jose', 'Sharks', '9', 'SAP Center at San Jose', '29', 'ANA', 'Anaheim', 'Ducks', '0', '1', '0', '0', '0', '0', '0', '0', '22', '28', '44.0', '2', '0', '0.0', '5', '1', '80.0', '0', '1', '3', '6', '25', '6', '15', '39']"
"['', '28420', '2015-01-30', '03:00:00 GMT', '20', 'CHI', 'Chicago', 'Blackhawks', '29', 'ANA', 'Anaheim', 'Ducks', '8', 'Honda Center', '29', 'ANA', 'Anaheim', 'Ducks', '0', '1', '0', '0', '0', '0', '0', '0', '28', '24', '53.8', '3', '1', '33.3', '3', '0', '100.0', '0', '0', '1', '4', '21', '3', '6', '31']"
"['', '28448', '2015-02-03', '03:00:00 GMT', '3', 'CAR', 'Carolina', 'Hurricanes', '29', 'ANA', 'Anaheim', 'Ducks', '8', 'Honda Center', '29', 'ANA', 'Anaheim', 'Ducks', '1', '0', '0', '0', '0', '0', '1', '2', '28', '24', '53.8', '3', '1', '33.3', '4', '0', '100.0', '0', '0', '5', '4', '26', '5', '18', '25']"
"['', '28457', '2015-02-05', '01:00:00 GMT', '29', 'ANA', 'Anaheim', 'Ducks', '18', 'NSH', 'Nashville', 'Predators', '15', 'Bridgestone Arena', '29', 'ANA', 'Anaheim', 'Ducks', '1', '0', '0', '0', '0', '0', '1', '2', '33', '37', '47.1', '3', '0', '0.0', '4', '1', '75.0', '1', '0', '5', '2', '21', '4', '8', '11']"
"['', '28463', '2015-02-06', '00:00:00 GMT', '29', 'ANA', 'Anaheim', 'Ducks', '5', 'WSH', 'Washington', 'Capitals', '13', 'Verizon Center', '29', 'ANA', 'Anaheim', 'Ducks', '0', '0', '0', '1', '0', '0', '0', '1', '30', '34', '46.9', '2', '1', '50.0', '1', '0', '100.0', '0', '0', '2', '2', '23', '1', '2', '28']"
"['', '28482', '2015-02-08', '22:00:00 GMT', '29', 'ANA', 'Anaheim', 'Ducks', '1', 'TBL', 'Tampa Bay', 'Lightning', '26', 'Amalie Arena', '29', 'ANA', 'Anaheim', 'Ducks', '0', '1', '0', '0', '0', '0', '0', '0', '31', '32', '49.2', '4', '1', '25.0', '5', '0', '100.0', '0', '0', '3', '5', '25', '7', '17', '14']"
"['', '28496', '2015-02-10', '00:30:00 GMT', '29', 'ANA', 'Anaheim', 'Ducks', '4', 'FLO', 'Florida', 'Panthers', '3', 'BB&T Center', '29', 'ANA', 'Anaheim', 'Ducks', '0', '1', '0', '0', '0', '0', '0', '0', '39', '24', '61.9', '2', '1', '50.0', '8', '3', '62.5', '0', '0', '2', '6', '31', '9', '31', '39']"
"['', '28504', '2015-02-12', '00:00:00 GMT', '29', 'ANA', 'Anaheim', 'Ducks', '3', 'CAR', 'Carolina', 'Hurricanes', '21', 'RBC Center', '29', 'ANA', 'Anaheim', 'Ducks', '1', '0', '0', '0', '0', '0', '1', '2', '23', '31', '42.6', '1', '0', '0.0', '3', '1', '66.7', '0', '0', '2', '1', '15', '4', '11', '42']"
"['', '28531', '2015-02-15', '01:00:00 GMT', '5', 'WSH', 'Washington', 'Capitals', '29', 'ANA', 'Anaheim', 'Ducks', '8', 'Honda Center', '29', 'ANA', 'Anaheim', 'Ducks', '0', '1', '0', '0', '0', '0', '0', '0', '25', '31', '44.6', '3', '0', '0.0', '4', '1', '75.0', '0', '0', '3', '5', '30', '5', '10', '20']"
"['', '28551', '2015-02-18', '03:00:00 GMT', '1', 'TBL', 'Tampa Bay', 'Lightning', '29', 'ANA', 'Anaheim', 'Ducks', '8', 'Honda Center', '29', 'ANA', 'Anaheim', 'Ducks', '0', '1', '0', '0', '0', '0', '0', '0', '33', '30', '52.4', '1', '0', '0.0', '3', '0', '100.0', '0', '0', '1', '4', '24', '3', '6', '26']"
"['', '28566', '2015-02-20', '02:00:00 GMT', '29', 'ANA', 'Anaheim', 'Ducks', '23', 'CGY', 'Calgary', 'Flames', '18', 'Scotiabank Saddledome', '29', 'ANA', 'Anaheim', 'Ducks', '1', '0', '0', '0', '0', '0', '1', '2', '30', '33', '47.6', '1', '0', '0.0', '5', '1', '80.0', '0', '0', '6', '3', '32', '5', '10', '14']"
"['', '28573', '2015-02-21', '00:00:00 GMT', '29', 'ANA', 'Anaheim', 'Ducks', '24', 'EDM', 'Edmonton', 'Oilers', '22', 'Rogers Place', '29', 'ANA', 'Anaheim', 'Ducks', '1', '0', '0', '0', '0', '0', '1', '2', '22', '26', '45.8', '1', '1', '100.0', '2', '0', '100.0', '0', '0', '2', '1', '19', '2', '4', '30']"
"['', '28587', '2015-02-23', '03:00:00 GMT', '16', 'DET', 'Detroit', 'Red Wings', '29', 'ANA', 'Anaheim', 'Ducks', '8', 'Honda Center', '29', 'ANA', 'Anaheim', 'Ducks', '1', '0', '0', '0', '0', '0', '0', '2', '35', '38', '47.9', '4', '0', '0.0', '5', '1', '80.0', '0', '0', '3', '3', '22', '5', '10', '37']"
"['', '28601', '2015-02-25', '03:00:00 GMT', '13', 'OTT', 'Ottawa', 'Senators', '29', 'ANA', 'Anaheim', 'Ducks', '8', 'Honda Center', '29', 'ANA', 'Anaheim', 'Ducks', '0', '1', '0', '0', '0', '0', '0', '0', '39', '21', '65.0', '2', '0', '0.0', '4', '0', '100.0', '0', '0', '0', '3', '25', '5', '13', '33']"
"['', '28616', '2015-02-27', '03:00:00 GMT', '28', 'LAK', 'Los Angeles', 'Kings', '29', 'ANA', 'Anaheim', 'Ducks', '8', 'Honda Center', '29', 'ANA', 'Anaheim', 'Ducks', '1', '0', '0', '0', '0', '0', '1', '2', '37', '27', '57.8', '1', '0', '0.0', '1', '0', '100.0', '0', '0', '4', '2', '28', '1', '2', '52']"
"['', '28631', '2015-03-01', '01:00:00 GMT', '29', 'ANA', 'Anaheim', 'Ducks', '27', 'DAL', 'Dallas', 'Stars', '2', 'American Airlines Center', '29', 'ANA', 'Anaheim', 'Ducks', '1', '0', '0', '0', '0', '0', '1', '2', '34', '32', '51.5', '1', '0', '0.0', '3', '1', '66.7', '0', '0', '3', '1', '19', '4', '11', '20']"
"['', '28643', '2015-03-03', '02:00:00 GMT', '29', 'ANA', 'Anaheim', 'Ducks', '30', 'ARI', 'Arizona', 'Coyotes', '6', 'Gila River Arena', '29', 'ANA', 'Anaheim', 'Ducks', '1', '0', '0', '0', '0', '0', '1', '2', '27', '32', '45.8', '0', '0', '0.0', '2', '0', '100.0', '2', '0', '4', '1', '31', '4', '11', '19']"
"['', '28648', '2015-03-04', '03:00:00 GMT', '14', 'MTL', 'Montreal', 'Canadiens', '29', 'ANA', 'Anaheim', 'Ducks', '8', 'Honda Center', '29', 'ANA', 'Anaheim', 'Ducks', '1', '0', '0', '0', '0', '0', '1', '2', '41', '35', '53.9', '1', '0', '0.0', '3', '1', '66.7', '1', '0', '3', '1', '30', '4', '11', '27']"
"['', '28663', '2015-03-06', '03:00:00 GMT', '10', 'PIT', 'Pittsburgh', 'Penguins', '29', 'ANA', 'Anaheim', 'Ducks', '8', 'Honda Center', '29', 'ANA', 'Anaheim', 'Ducks', '0', '1', '0', '0', '0', '0', '0', '0', '37', '31', '54.4', '3', '0', '0.0', '4', '0', '100.0', '0', '0', '2', '5', '27', '5', '10', '35']"
"['', '28683', '2015-03-09', '02:00:00 GMT', '29', 'ANA', 'Anaheim', 'Ducks', '21', 'VAN', 'Vancouver', 'Canucks', '7', 'Rogers Arena', '29', 'ANA', 'Anaheim', 'Ducks', '0', '1', '0', '0', '0', '0', '0', '0', '29', '21', '58.0', '3', '0', '0.0', '1', '0', '100.0', '0', '0', '1', '2', '29', '3', '6', '25']"
"['', '28695', '2015-03-11', '01:30:00 GMT', '29', 'ANA', 'Anaheim', 'Ducks', '23', 'CGY', 'Calgary', 'Flames', '18', 'Scotiabank Saddledome', '29', 'ANA', 'Anaheim', 'Ducks', '0', '1', '0', '0', '0', '0', '0', '0', '31', '32', '49.2', '3', '1', '33.3', '5', '2', '60.0', '0', '0', '3', '6', '29', '7', '17', '10']"
"['', '28711', '2015-03-13', '00:00:00 GMT', '29', 'ANA', 'Anaheim', 'Ducks', '25', 'MIN', 'Minnesota', 'Wild', '30', 'Xcel Energy Center', '29', 'ANA', 'Anaheim', 'Ducks', '1', '0', '0', '0', '0', '0', '1', '2', '23', '34', '40.4', '2', '0', '0.0', '4', '1', '75.0', '0', '0', '2', '1', '22', '7', '17', '22']"
"['', '28730', '2015-03-15', '00:00:00 GMT', '18', 'NSH', 'Nashville', 'Predators', '29', 'ANA', 'Anaheim', 'Ducks', '8', 'Honda Center', '29', 'ANA', 'Anaheim', 'Ducks', '1', '0', '0', '0', '0', '0', '1', '2', '41', '33', '55.4', '3', '1', '33.3', '3', '1', '66.7', '0', '0', '4', '2', '24', '4', '11', '30']"
"['', '28746', '2015-03-18', '02:30:00 GMT', '28', 'LAK', 'Los Angeles', 'Kings', '29', 'ANA', 'Anaheim', 'Ducks', '8', 'Honda Center', '29', 'ANA', 'Anaheim', 'Ducks', '1', '0', '0', '0', '0', '0', '1', '2', '36', '22', '62.1', '3', '0', '0.0', '3', '1', '66.7', '0', '0', '3', '2', '23', '4', '8', '35']"
"['', '28759', '2015-03-20', '02:00:00 GMT', '22', 'COL', 'Colorado', 'Avalanche', '29', 'ANA', 'Anaheim', 'Ducks', '8', 'Honda Center', '29', 'ANA', 'Anaheim', 'Ducks', '1', '0', '0', '0', '0', '0', '1', '2', '23', '26', '46.9', '3', '0', '0.0', '1', '0', '100.0', '0', '1', '3', '2', '37', '1', '2', '25']"
"['', '28775', '2015-03-22', '23:30:00 GMT', '29', 'ANA', 'Anaheim', 'Ducks', '9', 'NYR', 'New York', 'Rangers', '12', 'Madison Square Garden', '29', 'ANA', 'Anaheim', 'Ducks', '0', '1', '0', '0', '0', '0', '0', '0', '37', '26', '58.7', '0', '0', '0.0', '2', '1', '50.0', '0', '0', '2', '7', '36', '3', '6', '25']"
"['', '28787', '2015-03-24', '23:00:00 GMT', '29', 'ANA', 'Anaheim', 'Ducks', '19', 'CBJ', 'Columbus', 'Blue Jackets', '17', 'Nationwide Arena', '29', 'ANA', 'Anaheim', 'Ducks', '0', '1', '0', '0', '0', '0', '0', '0', '35', '38', '47.9', '5', '1', '20.0', '2', '1', '50.0', '0', '0', '3', '5', '37', '6', '18', '20']"
"['', '28795', '2015-03-26', '23:00:00 GMT', '29', 'ANA', 'Anaheim', 'Ducks', '11', 'BOS', 'Boston', 'Bruins', '27', 'TD Garden', '29', 'ANA', 'Anaheim', 'Ducks', '1', '0', '0', '0', '0', '0', '1', '2', '41', '34', '54.7', '2', '0', '0.0', '4', '2', '50.0', '0', '0', '3', '2', '29', '6', '12', '44']"
"['', '28811', '2015-03-28', '17:00:00 GMT', '29', 'ANA', 'Anaheim', 'Ducks', '8', 'NYI', 'New York', 'Islanders', '16', 'Nassau Veterans Memorial Coliseum', '29', 'ANA', 'Anaheim', 'Ducks', '1', '0', '0', '0', '0', '0', '1', '2', '30', '14', '68.2', '0', '0', '0.0', '4', '0', '100.0', '0', '0', '3', '2', '21', '4', '8', '28']"
"['', '28827', '2015-03-29', '23:00:00 GMT', '29', 'ANA', 'Anaheim', 'Ducks', '7', 'NJD', 'New Jersey', 'Devils', '37', 'Prudential Center', '29', 'ANA', 'Anaheim', 'Ducks', '1', '0', '0', '0', '0', '0', '1', '2', '34', '25', '57.6', '1', '0', '0.0', '2', '0', '100.0', '0', '0', '2', '1', '23', '2', '4', '18']"
"['', '28845', '2015-04-01', '02:00:00 GMT', '24', 'EDM', 'Edmonton', 'Oilers', '29', 'ANA', 'Anaheim', 'Ducks', '8', 'Honda Center', '29', 'ANA', 'Anaheim', 'Ducks', '1', '0', '0', '0', '0', '0', '1', '2', '28', '26', '51.9', '1', '0', '0.0', '3', '0', '100.0', '0', '0', '5', '1', '22', '4', '8', '26']"
"['', '28859', '2015-04-03', '02:00:00 GMT', '22', 'COL', 'Colorado', 'Avalanche', '29', 'ANA', 'Anaheim', 'Ducks', '8', 'Honda Center', '29', 'ANA', 'Anaheim', 'Ducks', '0', '1', '0', '0', '0', '0', '0', '0', '27', '29', '48.2', '3', '0', '0.0', '4', '1', '75.0', '0', '0', '2', '4', '35', '5', '10', '21']"
"['', '28896', '2015-04-08', '02:30:00 GMT', '27', 'DAL', 'Dallas', 'Stars', '29', 'ANA', 'Anaheim', 'Ducks', '8', 'Honda Center', '29', 'ANA', 'Anaheim', 'Ducks', '0', '1', '0', '0', '0', '0', '0', '0', '30', '35', '46.2', '1', '0', '0.0', '3', '1', '66.7', '0', '0', '0', '4', '19', '3', '6', '28']"
"['', '28923', '2015-04-11', '01:00:00 GMT', '29', 'ANA', 'Anaheim', 'Ducks', '30', 'ARI', 'Arizona', 'Coyotes', '6', 'Gila River Arena', '29', 'ANA', 'Anaheim', 'Ducks', '1', '0', '0', '0', '0', '0', '1', '2', '32', '34', '48.5', '3', '0', '0.0', '3', '0', '100.0', '0', '0', '2', '1', '36', '4', '8', '41']"
