"['#Date/Time of Update: 2018-12-10 19:03:07 GMT', '#Game ID', '#Game Date', '#Game Time', '#Away Team ID', '#Away Team Abbr.', '#Away Team City', '#Away Team Name', '#Home Team ID', '#Home Team Abbr.', '#Home Team City', '#Home Team Name', '#Venue ID', '#Venue Name', '#Team ID', '#Team Abbr.', '#Team City', '#Team Name', '#Wins', '#Losses', '#OvertimeWins', '#OvertimeLosses', '#ShootoutWins', '#ShootoutLosses', '#Rows', '#Points', '#FaceoffWins', '#FaceoffLosses', '#FaceoffPercent', '#Powerplays', '#PowerplayGoals', '#PowerplayPercent', '#PenaltyKills', '#PenaltyKillGoalsAllowed', '#PenaltyKillPercent', '#ShorthandedGoalsFor', '#ShorthandedGoalsAgainst', '#GoalsFor', '#GoalsAgainst', '#Shots', '#Penalties', '#PenaltyMinutes', '#Hits']"
"['', '19725', '2013-01-19', '00:00:00 GMT', '9', 'NYR', 'New York', 'Rangers', '11', 'BOS', 'Boston', 'Bruins', '27', 'TD Garden', '11', 'BOS', 'Boston', 'Bruins', '1', '0', '0', '0', '0', '0', '1', '2', '0', '0', '0.0', '0', '0', '0.0', '0', '0', '0.0', '0', '0', '3', '1', '0', '0', '0', '0']"
"['', '19741', '2013-01-21', '18:00:00 GMT', '2', 'WPJ', 'Winnipeg', 'Jets', '11', 'BOS', 'Boston', 'Bruins', '27', 'TD Garden', '11', 'BOS', 'Boston', 'Bruins', '1', '0', '0', '0', '0', '0', '0', '2', '37', '30', '55.2', '2', '0', '0.0', '4', '0', '100.0', '0', '0', '1', '1', '26', '4', '8', '48']"
"['', '19758', '2013-01-23', '00:30:00 GMT', '11', 'BOS', 'Boston', 'Bruins', '9', 'NYR', 'New York', 'Rangers', '12', 'Madison Square Garden', '11', 'BOS', 'Boston', 'Bruins', '0', '0', '0', '1', '0', '0', '0', '1', '36', '17', '67.9', '5', '1', '20.0', '5', '0', '100.0', '0', '0', '3', '4', '26', '7', '17', '20']"
"['', '19771', '2013-01-25', '00:00:00 GMT', '8', 'NYI', 'New York', 'Islanders', '11', 'BOS', 'Boston', 'Bruins', '27', 'TD Garden', '11', 'BOS', 'Boston', 'Bruins', '1', '0', '0', '0', '0', '0', '1', '2', '36', '23', '61.0', '3', '0', '0.0', '3', '0', '100.0', '0', '0', '4', '2', '23', '6', '23', '35']"
"['', '19794', '2013-01-28', '00:00:00 GMT', '11', 'BOS', 'Boston', 'Bruins', '3', 'CAR', 'Carolina', 'Hurricanes', '21', 'RBC Center', '11', 'BOS', 'Boston', 'Bruins', '1', '0', '0', '0', '0', '0', '1', '2', '38', '26', '59.4', '4', '2', '50.0', '5', '0', '100.0', '1', '0', '5', '3', '33', '8', '19', '25']"
"['', '19799', '2013-01-29', '00:00:00 GMT', '7', 'NJD', 'New Jersey', 'Devils', '11', 'BOS', 'Boston', 'Bruins', '27', 'TD Garden', '11', 'BOS', 'Boston', 'Bruins', '1', '0', '0', '0', '0', '0', '0', '2', '37', '23', '61.7', '2', '0', '0.0', '5', '1', '80.0', '0', '0', '1', '1', '27', '6', '15', '33']"
"['', '19813', '2013-01-31', '00:00:00 GMT', '15', 'BUF', 'Buffalo', 'Sabres', '11', 'BOS', 'Boston', 'Bruins', '27', 'TD Garden', '11', 'BOS', 'Boston', 'Bruins', '0', '1', '0', '0', '0', '0', '0', '0', '36', '27', '57.1', '3', '0', '0.0', '2', '1', '50.0', '0', '0', '4', '7', '38', '5', '13', '17']"
"['', '19832', '2013-02-02', '00:00:00 GMT', '11', 'BOS', 'Boston', 'Bruins', '12', 'TOR', 'Toronto', 'Maple Leafs', '1', 'Air Canada Center', '11', 'BOS', 'Boston', 'Bruins', '1', '0', '0', '0', '0', '0', '1', '2', '35', '29', '54.7', '1', '0', '0.0', '3', '0', '100.0', '0', '0', '1', '0', '33', '6', '18', '29']"
"['', '19859', '2013-02-06', '00:00:00 GMT', '11', 'BOS', 'Boston', 'Bruins', '14', 'MTL', 'Montreal', 'Canadiens', '4', 'Bell Centre', '11', 'BOS', 'Boston', 'Bruins', '1', '0', '0', '0', '0', '0', '1', '2', '38', '26', '59.4', '4', '0', '0.0', '4', '1', '75.0', '0', '0', '2', '1', '21', '7', '14', '26']"
"['', '19889', '2013-02-10', '00:00:00 GMT', '11', 'BOS', 'Boston', 'Bruins', '15', 'BUF', 'Buffalo', 'Sabres', '10', 'First Niagara Center', '11', 'BOS', 'Boston', 'Bruins', '1', '0', '0', '0', '0', '0', '1', '2', '30', '33', '47.6', '5', '1', '20.0', '3', '0', '100.0', '0', '0', '3', '1', '36', '5', '21', '15']"
"['', '19900', '2013-02-12', '00:30:00 GMT', '9', 'NYR', 'New York', 'Rangers', '11', 'BOS', 'Boston', 'Bruins', '27', 'TD Garden', '11', 'BOS', 'Boston', 'Bruins', '0', '0', '0', '1', '0', '0', '0', '1', '37', '27', '57.8', '4', '0', '0.0', '3', '0', '100.0', '0', '0', '3', '3', '37', '4', '8', '32']"
"['', '19918', '2013-02-15', '00:00:00 GMT', '11', 'BOS', 'Boston', 'Bruins', '15', 'BUF', 'Buffalo', 'Sabres', '10', 'First Niagara Center', '11', 'BOS', 'Boston', 'Bruins', '0', '1', '0', '0', '0', '0', '0', '0', '31', '22', '58.5', '1', '1', '100.0', '3', '0', '100.0', '0', '0', '2', '4', '30', '3', '6', '14']"
"['', '19935', '2013-02-17', '20:00:00 GMT', '11', 'BOS', 'Boston', 'Bruins', '2', 'WPJ', 'Winnipeg', 'Jets', '39', 'MTS Centre', '11', 'BOS', 'Boston', 'Bruins', '1', '0', '0', '0', '0', '0', '1', '2', '24', '28', '46.2', '1', '1', '100.0', '2', '0', '100.0', '0', '0', '3', '2', '23', '2', '4', '21']"
"['', '19964', '2013-02-21', '00:30:00 GMT', '11', 'BOS', 'Boston', 'Bruins', '1', 'TBL', 'Tampa Bay', 'Lightning', '26', 'Tampa Bay Times Forum', '11', 'BOS', 'Boston', 'Bruins', '1', '0', '0', '0', '0', '0', '1', '2', '27', '23', '54.0', '1', '0', '0.0', '3', '0', '100.0', '0', '0', '4', '2', '22', '3', '6', '22']"
"['', '19983', '2013-02-24', '20:00:00 GMT', '11', 'BOS', 'Boston', 'Bruins', '4', 'FLO', 'Florida', 'Panthers', '3', 'BB&T Center', '11', 'BOS', 'Boston', 'Bruins', '1', '0', '0', '0', '0', '0', '1', '2', '30', '26', '53.6', '1', '1', '100.0', '3', '0', '100.0', '1', '0', '4', '1', '28', '5', '18', '26']"
"['', '19999', '2013-02-26', '00:30:00 GMT', '11', 'BOS', 'Boston', 'Bruins', '8', 'NYI', 'New York', 'Islanders', '16', 'Nassau Veterans Memorial Coliseum', '11', 'BOS', 'Boston', 'Bruins', '1', '0', '0', '0', '0', '0', '1', '2', '36', '27', '57.1', '4', '0', '0.0', '3', '0', '100.0', '0', '0', '4', '1', '30', '3', '6', '16']"
"['', '20009', '2013-02-28', '00:00:00 GMT', '13', 'OTT', 'Ottawa', 'Senators', '11', 'BOS', 'Boston', 'Bruins', '27', 'TD Garden', '11', 'BOS', 'Boston', 'Bruins', '1', '0', '0', '0', '0', '0', '1', '2', '37', '20', '64.9', '3', '0', '0.0', '4', '1', '75.0', '0', '0', '2', '1', '44', '5', '10', '30']"
"['', '20024', '2013-03-02', '18:00:00 GMT', '1', 'TBL', 'Tampa Bay', 'Lightning', '11', 'BOS', 'Boston', 'Bruins', '27', 'TD Garden', '11', 'BOS', 'Boston', 'Bruins', '1', '0', '0', '0', '0', '0', '1', '2', '37', '20', '64.9', '5', '2', '40.0', '9', '2', '77.8', '0', '0', '3', '2', '24', '11', '28', '13']"
"['', '20037', '2013-03-03', '00:30:00 GMT', '14', 'MTL', 'Montreal', 'Canadiens', '11', 'BOS', 'Boston', 'Bruins', '27', 'TD Garden', '11', 'BOS', 'Boston', 'Bruins', '0', '1', '0', '0', '0', '0', '0', '0', '32', '19', '62.7', '2', '0', '0.0', '4', '1', '75.0', '0', '0', '3', '4', '31', '9', '32', '30']"
"['', '20047', '2013-03-05', '00:00:00 GMT', '11', 'BOS', 'Boston', 'Bruins', '5', 'WSH', 'Washington', 'Capitals', '13', 'Verizon Center', '11', 'BOS', 'Boston', 'Bruins', '0', '0', '0', '1', '0', '0', '0', '1', '36', '32', '52.9', '2', '1', '50.0', '4', '0', '100.0', '0', '0', '3', '4', '30', '5', '13', '22']"
"['', '20060', '2013-03-07', '00:00:00 GMT', '12', 'TOR', 'Toronto', 'Maple Leafs', '11', 'BOS', 'Boston', 'Bruins', '27', 'TD Garden', '11', 'BOS', 'Boston', 'Bruins', '1', '0', '0', '0', '0', '0', '1', '2', '37', '23', '61.7', '3', '0', '0.0', '3', '0', '100.0', '0', '0', '4', '2', '21', '5', '13', '26']"
"['', '20076', '2013-03-09', '18:00:00 GMT', '6', 'PHI', 'Philadelphia', 'Flyers', '11', 'BOS', 'Boston', 'Bruins', '27', 'TD Garden', '11', 'BOS', 'Boston', 'Bruins', '1', '0', '0', '0', '0', '0', '1', '2', '29', '31', '48.3', '2', '1', '50.0', '3', '0', '100.0', '0', '0', '3', '0', '25', '4', '11', '31']"
"['', '20096', '2013-03-11', '23:30:00 GMT', '11', 'BOS', 'Boston', 'Bruins', '13', 'OTT', 'Ottawa', 'Senators', '23', 'Canadian Tire Centre', '11', 'BOS', 'Boston', 'Bruins', '1', '0', '0', '0', '0', '0', '0', '2', '31', '32', '49.2', '3', '0', '0.0', '2', '0', '100.0', '0', '0', '2', '2', '33', '4', '11', '25']"
"['', '20101', '2013-03-12', '23:30:00 GMT', '11', 'BOS', 'Boston', 'Bruins', '10', 'PIT', 'Pittsburgh', 'Penguins', '14', 'Civic Arena', '11', 'BOS', 'Boston', 'Bruins', '0', '1', '0', '0', '0', '0', '0', '0', '33', '28', '54.1', '1', '1', '100.0', '4', '0', '100.0', '0', '0', '2', '3', '14', '4', '8', '20']"
"['', '20112', '2013-03-14', '23:00:00 GMT', '4', 'FLO', 'Florida', 'Panthers', '11', 'BOS', 'Boston', 'Bruins', '27', 'TD Garden', '11', 'BOS', 'Boston', 'Bruins', '1', '0', '0', '0', '0', '0', '1', '2', '35', '17', '67.3', '2', '0', '0.0', '2', '0', '100.0', '0', '1', '4', '1', '28', '2', '4', '30']"
"['', '20126', '2013-03-16', '17:00:00 GMT', '5', 'WSH', 'Washington', 'Capitals', '11', 'BOS', 'Boston', 'Bruins', '27', 'TD Garden', '11', 'BOS', 'Boston', 'Bruins', '1', '0', '0', '0', '0', '0', '1', '2', '40', '25', '61.5', '1', '1', '100.0', '3', '0', '100.0', '0', '0', '4', '1', '34', '7', '23', '36']"
"['', '20139', '2013-03-17', '16:30:00 GMT', '11', 'BOS', 'Boston', 'Bruins', '10', 'PIT', 'Pittsburgh', 'Penguins', '14', 'Civic Arena', '11', 'BOS', 'Boston', 'Bruins', '0', '1', '0', '0', '0', '0', '0', '0', '26', '23', '53.1', '2', '0', '0.0', '1', '0', '100.0', '0', '0', '1', '2', '31', '1', '2', '26']"
"['', '20156', '2013-03-19', '00:00:00 GMT', '11', 'BOS', 'Boston', 'Bruins', '2', 'WPJ', 'Winnipeg', 'Jets', '39', 'MTS Centre', '11', 'BOS', 'Boston', 'Bruins', '0', '1', '0', '0', '0', '0', '0', '0', '27', '24', '52.9', '4', '0', '0.0', '2', '1', '50.0', '0', '0', '1', '3', '27', '2', '4', '17']"
"['', '20168', '2013-03-21', '23:30:00 GMT', '11', 'BOS', 'Boston', 'Bruins', '13', 'OTT', 'Ottawa', 'Senators', '23', 'Canadian Tire Centre', '11', 'BOS', 'Boston', 'Bruins', '1', '0', '0', '0', '0', '0', '1', '2', '34', '27', '55.7', '2', '0', '0.0', '0', '0', '0.0', '0', '0', '2', '1', '27', '1', '2', '33']"
"['', '20180', '2013-03-23', '23:00:00 GMT', '11', 'BOS', 'Boston', 'Bruins', '12', 'TOR', 'Toronto', 'Maple Leafs', '1', 'Air Canada Center', '11', 'BOS', 'Boston', 'Bruins', '0', '1', '0', '0', '0', '0', '0', '0', '30', '25', '54.5', '1', '0', '0.0', '2', '0', '100.0', '0', '0', '2', '3', '31', '3', '9', '31']"
"['', '20193', '2013-03-25', '23:00:00 GMT', '12', 'TOR', 'Toronto', 'Maple Leafs', '11', 'BOS', 'Boston', 'Bruins', '27', 'TD Garden', '11', 'BOS', 'Boston', 'Bruins', '1', '0', '0', '0', '0', '0', '0', '2', '44', '26', '62.9', '1', '0', '0.0', '3', '1', '66.7', '0', '0', '2', '2', '27', '4', '8', '25']"
"['', '20209', '2013-03-27', '23:00:00 GMT', '14', 'MTL', 'Montreal', 'Canadiens', '11', 'BOS', 'Boston', 'Bruins', '27', 'TD Garden', '11', 'BOS', 'Boston', 'Bruins', '0', '0', '0', '1', '0', '0', '0', '1', '44', '26', '62.9', '4', '1', '25.0', '5', '1', '80.0', '0', '0', '5', '5', '36', '8', '19', '33']"
"['', '20227', '2013-03-30', '17:00:00 GMT', '11', 'BOS', 'Boston', 'Bruins', '6', 'PHI', 'Philadelphia', 'Flyers', '29', 'Wells Fargo Center', '11', 'BOS', 'Boston', 'Bruins', '0', '1', '0', '0', '0', '0', '0', '0', '22', '28', '44.0', '2', '0', '0.0', '1', '1', '0.0', '0', '0', '1', '3', '33', '3', '6', '24']"
"['', '20241', '2013-03-31', '23:00:00 GMT', '11', 'BOS', 'Boston', 'Bruins', '15', 'BUF', 'Buffalo', 'Sabres', '10', 'First Niagara Center', '11', 'BOS', 'Boston', 'Bruins', '1', '0', '0', '0', '0', '0', '1', '2', '37', '30', '55.2', '0', '0', '0.0', '4', '0', '100.0', '0', '0', '2', '0', '29', '6', '12', '14']"
"['', '20252', '2013-04-02', '23:00:00 GMT', '13', 'OTT', 'Ottawa', 'Senators', '11', 'BOS', 'Boston', 'Bruins', '27', 'TD Garden', '11', 'BOS', 'Boston', 'Bruins', '1', '0', '0', '0', '0', '0', '1', '2', '28', '26', '51.9', '3', '0', '0.0', '3', '0', '100.0', '0', '0', '3', '2', '47', '3', '6', '33']"
"['', '20264', '2013-04-04', '23:00:00 GMT', '7', 'NJD', 'New Jersey', 'Devils', '11', 'BOS', 'Boston', 'Bruins', '27', 'TD Garden', '11', 'BOS', 'Boston', 'Bruins', '1', '0', '0', '0', '0', '0', '1', '2', '23', '28', '45.1', '1', '0', '0.0', '1', '0', '100.0', '0', '0', '1', '0', '25', '1', '2', '25']"
"['', '20283', '2013-04-06', '23:00:00 GMT', '11', 'BOS', 'Boston', 'Bruins', '14', 'MTL', 'Montreal', 'Canadiens', '4', 'Bell Centre', '11', 'BOS', 'Boston', 'Bruins', '0', '1', '0', '0', '0', '0', '0', '0', '33', '35', '48.5', '1', '0', '0.0', '1', '1', '0.0', '0', '0', '1', '2', '26', '2', '4', '23']"
"['', '20298', '2013-04-08', '23:00:00 GMT', '3', 'CAR', 'Carolina', 'Hurricanes', '11', 'BOS', 'Boston', 'Bruins', '27', 'TD Garden', '11', 'BOS', 'Boston', 'Bruins', '1', '0', '0', '0', '0', '0', '1', '2', '35', '39', '47.3', '2', '0', '0.0', '1', '0', '100.0', '0', '0', '6', '2', '30', '1', '2', '15']"
"['', '20312', '2013-04-10', '23:30:00 GMT', '11', 'BOS', 'Boston', 'Bruins', '7', 'NJD', 'New Jersey', 'Devils', '5', 'Izod Center', '11', 'BOS', 'Boston', 'Bruins', '1', '0', '0', '0', '0', '0', '1', '2', '36', '25', '59.0', '3', '1', '33.3', '7', '0', '100.0', '2', '1', '5', '4', '12', '8', '16', '11']"
"['', '20317', '2013-04-11', '23:00:00 GMT', '8', 'NYI', 'New York', 'Islanders', '11', 'BOS', 'Boston', 'Bruins', '27', 'TD Garden', '11', 'BOS', 'Boston', 'Bruins', '0', '1', '0', '0', '0', '0', '0', '0', '22', '19', '53.7', '1', '1', '100.0', '1', '0', '100.0', '0', '0', '1', '2', '30', '1', '2', '19']"
"['', '20336', '2013-04-13', '23:00:00 GMT', '11', 'BOS', 'Boston', 'Bruins', '3', 'CAR', 'Carolina', 'Hurricanes', '21', 'RBC Center', '11', 'BOS', 'Boston', 'Bruins', '0', '1', '0', '0', '0', '0', '0', '0', '37', '29', '56.1', '3', '0', '0.0', '4', '2', '50.0', '0', '0', '2', '4', '28', '6', '21', '16']"
"['', '20362', '2013-04-17', '23:30:00 GMT', '15', 'BUF', 'Buffalo', 'Sabres', '11', 'BOS', 'Boston', 'Bruins', '27', 'TD Garden', '11', 'BOS', 'Boston', 'Bruins', '0', '0', '0', '1', '0', '0', '0', '1', '36', '20', '64.3', '2', '0', '0.0', '6', '2', '66.7', '0', '0', '2', '2', '41', '6', '12', '20']"
"['', '20444', '2013-04-20', '16:30:00 GMT', '10', 'PIT', 'Pittsburgh', 'Penguins', '11', 'BOS', 'Boston', 'Bruins', '27', 'TD Garden', '11', 'BOS', 'Boston', 'Bruins', '0', '1', '0', '0', '0', '0', '0', '0', '43', '29', '59.7', '2', '1', '50.0', '6', '2', '66.7', '0', '0', '2', '3', '38', '9', '24', '35']"
"['', '20389', '2013-04-21', '19:00:00 GMT', '4', 'FLO', 'Florida', 'Panthers', '11', 'BOS', 'Boston', 'Bruins', '27', 'TD Garden', '11', 'BOS', 'Boston', 'Bruins', '1', '0', '0', '0', '0', '0', '1', '2', '27', '21', '56.2', '2', '0', '0.0', '2', '0', '100.0', '0', '0', '3', '0', '36', '2', '4', '33']"
"['', '20404', '2013-04-23', '23:30:00 GMT', '11', 'BOS', 'Boston', 'Bruins', '6', 'PHI', 'Philadelphia', 'Flyers', '29', 'Wells Fargo Center', '11', 'BOS', 'Boston', 'Bruins', '0', '1', '0', '0', '0', '0', '0', '0', '34', '30', '53.1', '2', '0', '0.0', '3', '0', '100.0', '0', '0', '2', '5', '39', '4', '11', '30']"
"['', '20447', '2013-04-25', '23:30:00 GMT', '1', 'TBL', 'Tampa Bay', 'Lightning', '11', 'BOS', 'Boston', 'Bruins', '27', 'TD Garden', '11', 'BOS', 'Boston', 'Bruins', '1', '0', '0', '0', '0', '0', '1', '2', '36', '20', '64.3', '1', '0', '0.0', '3', '0', '100.0', '0', '0', '2', '0', '22', '5', '16', '18']"
"['', '20431', '2013-04-27', '23:00:00 GMT', '11', 'BOS', 'Boston', 'Bruins', '5', 'WSH', 'Washington', 'Capitals', '13', 'Verizon Center', '11', 'BOS', 'Boston', 'Bruins', '0', '0', '0', '1', '0', '0', '0', '1', '25', '33', '43.1', '2', '0', '0.0', '5', '3', '40.0', '0', '0', '2', '3', '32', '6', '12', '26']"
"['', '20448', '2013-04-28', '23:00:00 GMT', '13', 'OTT', 'Ottawa', 'Senators', '11', 'BOS', 'Boston', 'Bruins', '27', 'TD Garden', '11', 'BOS', 'Boston', 'Bruins', '0', '1', '0', '0', '0', '0', '0', '0', '36', '21', '63.2', '2', '1', '50.0', '2', '0', '100.0', '0', '0', '2', '4', '34', '4', '11', '24']"
