"['#Date/Time of Update: 2018-12-10 19:03:17 GMT', '#Game ID', '#Game Date', '#Game Time', '#Away Team ID', '#Away Team Abbr.', '#Away Team City', '#Away Team Name', '#Home Team ID', '#Home Team Abbr.', '#Home Team City', '#Home Team Name', '#Venue ID', '#Venue Name', '#Team ID', '#Team Abbr.', '#Team City', '#Team Name', '#Wins', '#Losses', '#OvertimeWins', '#OvertimeLosses', '#ShootoutWins', '#ShootoutLosses', '#Rows', '#Points', '#FaceoffWins', '#FaceoffLosses', '#FaceoffPercent', '#Powerplays', '#PowerplayGoals', '#PowerplayPercent', '#PenaltyKills', '#PenaltyKillGoalsAllowed', '#PenaltyKillPercent', '#ShorthandedGoalsFor', '#ShorthandedGoalsAgainst', '#GoalsFor', '#GoalsAgainst', '#Shots', '#Penalties', '#PenaltyMinutes', '#Hits']"
"['', '29025', '2015-10-08', '23:30:00 GMT', '6', 'PHI', 'Philadelphia', 'Flyers', '1', 'TBL', 'Tampa Bay', 'Lightning', '26', 'Amalie Arena', '1', 'TBL', 'Tampa Bay', 'Lightning', '1', '0', '0', '0', '0', '0', '1', '2', '30', '31', '49.2', '3', '1', '33.3', '3', '1', '66.7', '0', '0', '3', '2', '32', '3', '6', '25']"
"['', '29035', '2015-10-10', '17:00:00 GMT', '1', 'TBL', 'Tampa Bay', 'Lightning', '15', 'BUF', 'Buffalo', 'Sabres', '10', 'First Niagara Center', '1', 'TBL', 'Tampa Bay', 'Lightning', '1', '0', '0', '0', '0', '0', '1', '2', '24', '35', '40.7', '3', '0', '0.0', '2', '0', '100.0', '0', '0', '4', '1', '31', '2', '4', '13']"
"['', '29050', '2015-10-12', '17:00:00 GMT', '1', 'TBL', 'Tampa Bay', 'Lightning', '11', 'BOS', 'Boston', 'Bruins', '27', 'TD Garden', '1', 'TBL', 'Tampa Bay', 'Lightning', '1', '0', '0', '0', '0', '0', '1', '2', '29', '30', '49.2', '4', '2', '50.0', '4', '3', '25.0', '0', '0', '6', '3', '23', '4', '8', '9']"
"['', '29060', '2015-10-13', '23:30:00 GMT', '1', 'TBL', 'Tampa Bay', 'Lightning', '16', 'DET', 'Detroit', 'Red Wings', '11', 'Joe Louis Arena', '1', 'TBL', 'Tampa Bay', 'Lightning', '0', '1', '0', '0', '0', '0', '0', '0', '31', '26', '54.4', '3', '0', '0.0', '3', '1', '66.7', '0', '0', '1', '3', '21', '3', '6', '11']"
"['', '29072', '2015-10-15', '23:30:00 GMT', '27', 'DAL', 'Dallas', 'Stars', '1', 'TBL', 'Tampa Bay', 'Lightning', '26', 'Amalie Arena', '1', 'TBL', 'Tampa Bay', 'Lightning', '0', '1', '0', '0', '0', '0', '0', '0', '37', '19', '66.1', '2', '0', '0.0', '2', '2', '0.0', '0', '0', '3', '5', '33', '4', '19', '24']"
"['', '29085', '2015-10-17', '23:00:00 GMT', '15', 'BUF', 'Buffalo', 'Sabres', '1', 'TBL', 'Tampa Bay', 'Lightning', '26', 'Amalie Arena', '1', 'TBL', 'Tampa Bay', 'Lightning', '1', '0', '0', '0', '0', '0', '1', '2', '25', '26', '49.0', '4', '1', '25.0', '2', '0', '100.0', '0', '0', '2', '1', '22', '3', '6', '29']"
"['', '29104', '2015-10-20', '00:00:00 GMT', '1', 'TBL', 'Tampa Bay', 'Lightning', '18', 'NSH', 'Nashville', 'Predators', '15', 'Bridgestone Arena', '1', 'TBL', 'Tampa Bay', 'Lightning', '0', '0', '0', '1', '0', '0', '0', '1', '34', '33', '50.7', '2', '1', '50.0', '3', '0', '100.0', '0', '0', '4', '4', '29', '3', '6', '10']"
"['', '29120', '2015-10-23', '00:00:00 GMT', '1', 'TBL', 'Tampa Bay', 'Lightning', '2', 'WPJ', 'Winnipeg', 'Jets', '39', 'MTS Centre', '1', 'TBL', 'Tampa Bay', 'Lightning', '1', '0', '0', '0', '0', '0', '1', '2', '34', '30', '53.1', '2', '0', '0.0', '1', '0', '100.0', '0', '1', '4', '3', '31', '3', '6', '14']"
"['', '29132', '2015-10-24', '00:30:00 GMT', '1', 'TBL', 'Tampa Bay', 'Lightning', '20', 'CHI', 'Chicago', 'Blackhawks', '28', 'United Center', '1', 'TBL', 'Tampa Bay', 'Lightning', '0', '0', '0', '1', '0', '0', '0', '1', '24', '30', '44.4', '4', '0', '0.0', '3', '0', '100.0', '0', '0', '0', '1', '21', '3', '6', '28']"
"['', '29147', '2015-10-27', '00:00:00 GMT', '1', 'TBL', 'Tampa Bay', 'Lightning', '17', 'STL', 'St. Louis', 'Blues', '24', 'Scottrade Center', '1', 'TBL', 'Tampa Bay', 'Lightning', '0', '1', '0', '0', '0', '0', '0', '0', '32', '26', '55.2', '0', '0', '0.0', '3', '0', '100.0', '0', '0', '0', '2', '26', '3', '6', '13']"
"['', '29158', '2015-10-29', '23:30:00 GMT', '22', 'COL', 'Colorado', 'Avalanche', '1', 'TBL', 'Tampa Bay', 'Lightning', '26', 'Amalie Arena', '1', 'TBL', 'Tampa Bay', 'Lightning', '0', '1', '0', '0', '0', '0', '0', '0', '31', '25', '55.4', '4', '1', '25.0', '6', '0', '100.0', '0', '0', '1', '2', '35', '7', '14', '23']"
"['', '29177', '2015-10-31', '23:00:00 GMT', '11', 'BOS', 'Boston', 'Bruins', '1', 'TBL', 'Tampa Bay', 'Lightning', '26', 'Amalie Arena', '1', 'TBL', 'Tampa Bay', 'Lightning', '0', '1', '0', '0', '0', '0', '0', '0', '32', '26', '55.2', '5', '1', '20.0', '3', '1', '66.7', '0', '0', '1', '3', '22', '3', '6', '21']"
"['', '29183', '2015-11-01', '22:00:00 GMT', '1', 'TBL', 'Tampa Bay', 'Lightning', '3', 'CAR', 'Carolina', 'Hurricanes', '21', 'RBC Center', '1', 'TBL', 'Tampa Bay', 'Lightning', '1', '0', '0', '0', '0', '0', '1', '2', '28', '21', '57.1', '4', '1', '25.0', '2', '1', '50.0', '0', '0', '4', '3', '31', '2', '4', '10']"
"['', '29194', '2015-11-03', '00:30:00 GMT', '1', 'TBL', 'Tampa Bay', 'Lightning', '16', 'DET', 'Detroit', 'Red Wings', '11', 'Joe Louis Arena', '1', 'TBL', 'Tampa Bay', 'Lightning', '0', '1', '0', '0', '0', '0', '0', '0', '36', '28', '56.2', '4', '1', '25.0', '2', '0', '100.0', '0', '0', '1', '2', '30', '4', '8', '14']"
"['', '29203', '2015-11-05', '00:00:00 GMT', '1', 'TBL', 'Tampa Bay', 'Lightning', '15', 'BUF', 'Buffalo', 'Sabres', '10', 'First Niagara Center', '1', 'TBL', 'Tampa Bay', 'Lightning', '1', '0', '0', '0', '0', '0', '1', '2', '23', '23', '50.0', '3', '0', '0.0', '2', '0', '100.0', '0', '0', '4', '1', '22', '2', '4', '13']"
"['', '29225', '2015-11-07', '01:00:00 GMT', '1', 'TBL', 'Tampa Bay', 'Lightning', '25', 'MIN', 'Minnesota', 'Wild', '30', 'Xcel Energy Center', '1', 'TBL', 'Tampa Bay', 'Lightning', '0', '1', '0', '0', '0', '0', '0', '0', '21', '23', '47.7', '2', '0', '0.0', '3', '0', '100.0', '0', '0', '0', '1', '31', '3', '6', '17']"
"['', '29239', '2015-11-10', '00:30:00 GMT', '15', 'BUF', 'Buffalo', 'Sabres', '1', 'TBL', 'Tampa Bay', 'Lightning', '26', 'Amalie Arena', '1', 'TBL', 'Tampa Bay', 'Lightning', '0', '1', '0', '0', '0', '0', '0', '0', '27', '27', '50.0', '5', '1', '20.0', '2', '1', '50.0', '0', '0', '1', '4', '31', '3', '6', '21']"
"['', '29253', '2015-11-12', '00:30:00 GMT', '23', 'CGY', 'Calgary', 'Flames', '1', 'TBL', 'Tampa Bay', 'Lightning', '26', 'Amalie Arena', '1', 'TBL', 'Tampa Bay', 'Lightning', '1', '0', '0', '0', '0', '0', '1', '2', '34', '44', '43.6', '2', '1', '50.0', '4', '1', '75.0', '0', '0', '3', '1', '29', '4', '8', '14']"
"['', '29269', '2015-11-14', '00:00:00 GMT', '4', 'FLO', 'Florida', 'Panthers', '1', 'TBL', 'Tampa Bay', 'Lightning', '26', 'Amalie Arena', '1', 'TBL', 'Tampa Bay', 'Lightning', '0', '0', '0', '1', '0', '0', '0', '1', '36', '40', '47.4', '1', '0', '0.0', '4', '1', '75.0', '0', '0', '4', '4', '27', '7', '22', '23']"
"['', '29283', '2015-11-16', '00:30:00 GMT', '1', 'TBL', 'Tampa Bay', 'Lightning', '4', 'FLO', 'Florida', 'Panthers', '3', 'BB&T Center', '1', 'TBL', 'Tampa Bay', 'Lightning', '0', '1', '0', '0', '0', '0', '0', '0', '31', '26', '54.4', '2', '0', '0.0', '3', '0', '100.0', '0', '0', '0', '1', '39', '4', '8', '27']"
"['', '29302', '2015-11-19', '00:30:00 GMT', '9', 'NYR', 'New York', 'Rangers', '1', 'TBL', 'Tampa Bay', 'Lightning', '26', 'Amalie Arena', '1', 'TBL', 'Tampa Bay', 'Lightning', '1', '0', '0', '0', '0', '0', '1', '2', '29', '35', '45.3', '2', '0', '0.0', '2', '0', '100.0', '1', '0', '2', '1', '28', '5', '10', '21']"
"['', '29313', '2015-11-21', '00:00:00 GMT', '29', 'ANA', 'Anaheim', 'Ducks', '1', 'TBL', 'Tampa Bay', 'Lightning', '26', 'Amalie Arena', '1', 'TBL', 'Tampa Bay', 'Lightning', '1', '0', '0', '0', '0', '0', '1', '2', '25', '34', '42.4', '4', '2', '50.0', '1', '0', '100.0', '0', '0', '5', '0', '24', '4', '8', '21']"
"['', '29344', '2015-11-25', '00:30:00 GMT', '28', 'LAK', 'Los Angeles', 'Kings', '1', 'TBL', 'Tampa Bay', 'Lightning', '26', 'Amalie Arena', '1', 'TBL', 'Tampa Bay', 'Lightning', '1', '0', '0', '0', '0', '0', '0', '2', '34', '28', '54.8', '3', '0', '0.0', '0', '0', '0.0', '0', '0', '1', '1', '30', '0', '0', '19']"
"['', '29352', '2015-11-27', '22:00:00 GMT', '1', 'TBL', 'Tampa Bay', 'Lightning', '5', 'WSH', 'Washington', 'Capitals', '13', 'Verizon Center', '1', 'TBL', 'Tampa Bay', 'Lightning', '0', '1', '0', '0', '0', '0', '0', '0', '33', '41', '44.6', '2', '0', '0.0', '4', '3', '25.0', '0', '0', '2', '4', '34', '5', '10', '16']"
"['', '29363', '2015-11-28', '00:00:00 GMT', '8', 'NYI', 'New York', 'Islanders', '1', 'TBL', 'Tampa Bay', 'Lightning', '26', 'Amalie Arena', '1', 'TBL', 'Tampa Bay', 'Lightning', '0', '1', '0', '0', '0', '0', '0', '0', '31', '22', '58.5', '4', '0', '0.0', '5', '2', '60.0', '0', '0', '2', '3', '30', '5', '16', '24']"
"['', '29390', '2015-12-02', '03:30:00 GMT', '1', 'TBL', 'Tampa Bay', 'Lightning', '29', 'ANA', 'Anaheim', 'Ducks', '8', 'Honda Center', '1', 'TBL', 'Tampa Bay', 'Lightning', '1', '0', '0', '0', '0', '0', '1', '2', '30', '33', '47.6', '4', '1', '25.0', '4', '0', '100.0', '0', '0', '2', '1', '22', '4', '8', '24']"
"['', '29415', '2015-12-05', '03:30:00 GMT', '1', 'TBL', 'Tampa Bay', 'Lightning', '26', 'SJS', 'San Jose', 'Sharks', '9', 'SAP Center at San Jose', '1', 'TBL', 'Tampa Bay', 'Lightning', '1', '0', '0', '0', '0', '0', '1', '2', '23', '34', '40.4', '3', '1', '33.3', '8', '3', '62.5', '0', '0', '4', '3', '20', '8', '16', '18']"
"['', '29422', '2015-12-06', '03:00:00 GMT', '1', 'TBL', 'Tampa Bay', 'Lightning', '28', 'LAK', 'Los Angeles', 'Kings', '25', 'Staples Center', '1', 'TBL', 'Tampa Bay', 'Lightning', '0', '1', '0', '0', '0', '0', '0', '0', '31', '33', '48.4', '6', '0', '0.0', '3', '0', '100.0', '0', '0', '1', '3', '25', '5', '10', '28']"
"['', '29440', '2015-12-10', '00:30:00 GMT', '13', 'OTT', 'Ottawa', 'Senators', '1', 'TBL', 'Tampa Bay', 'Lightning', '26', 'Amalie Arena', '1', 'TBL', 'Tampa Bay', 'Lightning', '1', '0', '0', '0', '0', '0', '1', '2', '27', '30', '47.4', '2', '1', '50.0', '3', '0', '100.0', '0', '0', '4', '1', '30', '4', '8', '19']"
"['', '29456', '2015-12-12', '00:00:00 GMT', '5', 'WSH', 'Washington', 'Capitals', '1', 'TBL', 'Tampa Bay', 'Lightning', '26', 'Amalie Arena', '1', 'TBL', 'Tampa Bay', 'Lightning', '0', '1', '0', '0', '0', '0', '0', '0', '38', '32', '54.3', '4', '1', '25.0', '2', '0', '100.0', '0', '0', '1', '2', '36', '4', '14', '29']"
"['', '29468', '2015-12-14', '00:00:00 GMT', '1', 'TBL', 'Tampa Bay', 'Lightning', '19', 'CBJ', 'Columbus', 'Blue Jackets', '17', 'Nationwide Arena', '1', 'TBL', 'Tampa Bay', 'Lightning', '1', '0', '0', '0', '0', '0', '1', '2', '24', '33', '42.1', '2', '0', '0.0', '3', '0', '100.0', '1', '0', '2', '1', '29', '3', '9', '23']"
"['', '29475', '2015-12-15', '00:30:00 GMT', '1', 'TBL', 'Tampa Bay', 'Lightning', '12', 'TOR', 'Toronto', 'Maple Leafs', '1', 'Air Canada Center', '1', 'TBL', 'Tampa Bay', 'Lightning', '1', '0', '0', '0', '0', '0', '1', '2', '26', '44', '37.1', '3', '0', '0.0', '3', '1', '66.7', '0', '0', '5', '4', '27', '3', '6', '26']"
"['', '29496', '2015-12-18', '00:00:00 GMT', '1', 'TBL', 'Tampa Bay', 'Lightning', '5', 'WSH', 'Washington', 'Capitals', '13', 'Verizon Center', '1', 'TBL', 'Tampa Bay', 'Lightning', '0', '1', '0', '0', '0', '0', '0', '0', '24', '23', '51.1', '3', '0', '0.0', '4', '3', '25.0', '0', '0', '3', '5', '19', '5', '10', '24']"
"['', '29513', '2015-12-20', '22:00:00 GMT', '13', 'OTT', 'Ottawa', 'Senators', '1', 'TBL', 'Tampa Bay', 'Lightning', '26', 'Amalie Arena', '1', 'TBL', 'Tampa Bay', 'Lightning', '1', '0', '0', '0', '0', '0', '1', '2', '26', '31', '45.6', '1', '2', '1.0', '6', '0', '100.0', '0', '1', '5', '2', '34', '8', '27', '16']"
"['', '29528', '2015-12-22', '00:30:00 GMT', '21', 'VAN', 'Vancouver', 'Canucks', '1', 'TBL', 'Tampa Bay', 'Lightning', '26', 'Amalie Arena', '1', 'TBL', 'Tampa Bay', 'Lightning', '0', '1', '0', '0', '0', '0', '0', '0', '35', '17', '67.3', '11', '1', '9.1', '1', '0', '100.0', '0', '0', '1', '2', '27', '4', '11', '15']"
"['', '29536', '2015-12-26', '00:00:00 GMT', '19', 'CBJ', 'Columbus', 'Blue Jackets', '1', 'TBL', 'Tampa Bay', 'Lightning', '26', 'Amalie Arena', '1', 'TBL', 'Tampa Bay', 'Lightning', '1', '0', '0', '0', '0', '0', '1', '2', '26', '38', '40.6', '6', '3', '50.0', '3', '0', '100.0', '0', '0', '5', '2', '25', '5', '13', '17']"
"['', '29554', '2015-12-28', '00:30:00 GMT', '14', 'MTL', 'Montreal', 'Canadiens', '1', 'TBL', 'Tampa Bay', 'Lightning', '26', 'Amalie Arena', '1', 'TBL', 'Tampa Bay', 'Lightning', '0', '0', '0', '1', '0', '0', '0', '1', '38', '37', '50.7', '3', '1', '33.3', '1', '0', '100.0', '0', '0', '3', '3', '39', '1', '2', '30']"
"['', '29572', '2015-12-30', '01:00:00 GMT', '9', 'NYR', 'New York', 'Rangers', '1', 'TBL', 'Tampa Bay', 'Lightning', '26', 'Amalie Arena', '1', 'TBL', 'Tampa Bay', 'Lightning', '0', '1', '0', '0', '0', '0', '0', '0', '27', '28', '49.1', '5', '2', '40.0', '3', '0', '100.0', '0', '0', '2', '5', '22', '3', '6', '22']"
"['', '29589', '2016-01-02', '00:00:00 GMT', '25', 'MIN', 'Minnesota', 'Wild', '1', 'TBL', 'Tampa Bay', 'Lightning', '26', 'Amalie Arena', '1', 'TBL', 'Tampa Bay', 'Lightning', '1', '0', '0', '0', '0', '0', '0', '2', '34', '28', '54.8', '1', '0', '0.0', '4', '0', '100.0', '0', '0', '2', '2', '30', '4', '8', '28']"
"['', '29613', '2016-01-05', '02:00:00 GMT', '1', 'TBL', 'Tampa Bay', 'Lightning', '23', 'CGY', 'Calgary', 'Flames', '18', 'Scotiabank Saddledome', '1', 'TBL', 'Tampa Bay', 'Lightning', '0', '1', '0', '0', '0', '0', '0', '0', '28', '23', '54.9', '0', '0', '0.0', '1', '0', '100.0', '0', '0', '1', '3', '31', '1', '2', '19']"
"['', '29630', '2016-01-08', '02:00:00 GMT', '1', 'TBL', 'Tampa Bay', 'Lightning', '24', 'EDM', 'Edmonton', 'Oilers', '22', 'Rogers Place', '1', 'TBL', 'Tampa Bay', 'Lightning', '1', '0', '0', '0', '0', '0', '1', '2', '32', '32', '50.0', '3', '0', '0.0', '3', '1', '66.7', '0', '0', '3', '2', '26', '3', '6', '24']"
"['', '29640', '2016-01-09', '03:00:00 GMT', '1', 'TBL', 'Tampa Bay', 'Lightning', '21', 'VAN', 'Vancouver', 'Canucks', '7', 'Rogers Arena', '1', 'TBL', 'Tampa Bay', 'Lightning', '1', '0', '0', '0', '0', '0', '1', '2', '28', '28', '50.0', '4', '0', '0.0', '2', '1', '50.0', '0', '0', '3', '2', '35', '2', '4', '19']"
"['', '29658', '2016-01-12', '02:00:00 GMT', '1', 'TBL', 'Tampa Bay', 'Lightning', '22', 'COL', 'Colorado', 'Avalanche', '19', 'Pepsi Center', '1', 'TBL', 'Tampa Bay', 'Lightning', '1', '0', '0', '0', '0', '0', '1', '2', '28', '20', '58.3', '4', '0', '0.0', '2', '0', '100.0', '0', '0', '4', '0', '38', '2', '4', '15']"
"['', '29675', '2016-01-15', '00:30:00 GMT', '10', 'PIT', 'Pittsburgh', 'Penguins', '1', 'TBL', 'Tampa Bay', 'Lightning', '26', 'Amalie Arena', '1', 'TBL', 'Tampa Bay', 'Lightning', '1', '0', '0', '0', '0', '0', '1', '2', '31', '37', '45.6', '5', '2', '40.0', '4', '1', '75.0', '0', '0', '5', '4', '25', '4', '8', '21']"
"['', '29690', '2016-01-17', '22:00:00 GMT', '4', 'FLO', 'Florida', 'Panthers', '1', 'TBL', 'Tampa Bay', 'Lightning', '26', 'Amalie Arena', '1', 'TBL', 'Tampa Bay', 'Lightning', '1', '0', '0', '0', '0', '0', '1', '2', '28', '25', '52.8', '2', '0', '0.0', '5', '0', '100.0', '0', '0', '3', '1', '32', '6', '15', '19']"
"['', '29705', '2016-01-19', '00:30:00 GMT', '24', 'EDM', 'Edmonton', 'Oilers', '1', 'TBL', 'Tampa Bay', 'Lightning', '26', 'Amalie Arena', '1', 'TBL', 'Tampa Bay', 'Lightning', '1', '0', '0', '0', '0', '0', '1', '2', '25', '36', '41.0', '2', '0', '0.0', '4', '0', '100.0', '1', '1', '6', '4', '31', '5', '10', '21']"
"['', '29716', '2016-01-21', '00:30:00 GMT', '20', 'CHI', 'Chicago', 'Blackhawks', '1', 'TBL', 'Tampa Bay', 'Lightning', '26', 'Amalie Arena', '1', 'TBL', 'Tampa Bay', 'Lightning', '1', '0', '0', '0', '0', '0', '1', '2', '32', '16', '66.7', '4', '1', '25.0', '3', '0', '100.0', '0', '0', '2', '1', '33', '3', '6', '14']"
"['', '29732', '2016-01-23', '00:00:00 GMT', '1', 'TBL', 'Tampa Bay', 'Lightning', '4', 'FLO', 'Florida', 'Panthers', '3', 'BB&T Center', '1', 'TBL', 'Tampa Bay', 'Lightning', '0', '1', '0', '0', '0', '0', '0', '0', '32', '35', '47.8', '5', '1', '20.0', '4', '1', '75.0', '0', '0', '2', '5', '40', '4', '8', '20']"
"['', '29758', '2016-01-27', '00:00:00 GMT', '12', 'TOR', 'Toronto', 'Maple Leafs', '1', 'TBL', 'Tampa Bay', 'Lightning', '26', 'Amalie Arena', '1', 'TBL', 'Tampa Bay', 'Lightning', '1', '0', '0', '0', '0', '0', '1', '2', '31', '28', '52.5', '6', '1', '16.7', '3', '0', '100.0', '0', '0', '1', '0', '29', '4', '8', '21']"
"['', '29775', '2016-02-03', '01:00:00 GMT', '16', 'DET', 'Detroit', 'Red Wings', '1', 'TBL', 'Tampa Bay', 'Lightning', '26', 'Amalie Arena', '1', 'TBL', 'Tampa Bay', 'Lightning', '1', '0', '0', '0', '0', '0', '1', '2', '23', '28', '45.1', '3', '2', '66.7', '2', '0', '100.0', '0', '0', '3', '1', '23', '4', '8', '20']"
"['', '29789', '2016-02-05', '00:30:00 GMT', '10', 'PIT', 'Pittsburgh', 'Penguins', '1', 'TBL', 'Tampa Bay', 'Lightning', '26', 'Amalie Arena', '1', 'TBL', 'Tampa Bay', 'Lightning', '1', '0', '0', '0', '0', '0', '1', '2', '33', '29', '53.2', '2', '1', '50.0', '3', '0', '100.0', '1', '0', '6', '3', '29', '3', '6', '27']"
"['', '29810', '2016-02-08', '00:30:00 GMT', '1', 'TBL', 'Tampa Bay', 'Lightning', '13', 'OTT', 'Ottawa', 'Senators', '23', 'Canadian Tire Centre', '1', 'TBL', 'Tampa Bay', 'Lightning', '0', '1', '0', '0', '0', '0', '0', '0', '29', '26', '52.7', '3', '0', '0.0', '6', '1', '83.3', '0', '0', '1', '5', '32', '8', '19', '23']"
"['', '29817', '2016-02-09', '00:30:00 GMT', '1', 'TBL', 'Tampa Bay', 'Lightning', '14', 'MTL', 'Montreal', 'Canadiens', '4', 'Bell Centre', '1', 'TBL', 'Tampa Bay', 'Lightning', '0', '1', '0', '0', '0', '0', '0', '0', '32', '31', '50.8', '3', '0', '0.0', '2', '0', '100.0', '0', '0', '2', '4', '39', '3', '9', '26']"
"['', '29840', '2016-02-12', '00:30:00 GMT', '18', 'NSH', 'Nashville', 'Predators', '1', 'TBL', 'Tampa Bay', 'Lightning', '26', 'Amalie Arena', '1', 'TBL', 'Tampa Bay', 'Lightning', '1', '0', '0', '0', '0', '0', '1', '2', '29', '27', '51.8', '3', '1', '33.3', '2', '0', '100.0', '0', '0', '4', '3', '28', '2', '4', '16']"
"['', '29856', '2016-02-14', '23:00:00 GMT', '17', 'STL', 'St. Louis', 'Blues', '1', 'TBL', 'Tampa Bay', 'Lightning', '26', 'Amalie Arena', '1', 'TBL', 'Tampa Bay', 'Lightning', '0', '1', '0', '0', '0', '0', '0', '0', '23', '37', '38.3', '3', '0', '0.0', '3', '0', '100.0', '0', '0', '1', '2', '38', '4', '11', '18']"
"['', '29870', '2016-02-16', '00:30:00 GMT', '26', 'SJS', 'San Jose', 'Sharks', '1', 'TBL', 'Tampa Bay', 'Lightning', '26', 'Amalie Arena', '1', 'TBL', 'Tampa Bay', 'Lightning', '0', '1', '0', '0', '0', '0', '0', '0', '21', '32', '39.6', '1', '0', '0.0', '5', '0', '100.0', '0', '0', '2', '4', '30', '4', '16', '23']"
"['', '29880', '2016-02-18', '00:30:00 GMT', '2', 'WPJ', 'Winnipeg', 'Jets', '1', 'TBL', 'Tampa Bay', 'Lightning', '26', 'Amalie Arena', '1', 'TBL', 'Tampa Bay', 'Lightning', '1', '0', '0', '0', '0', '0', '0', '2', '29', '24', '54.7', '5', '0', '0.0', '4', '2', '50.0', '0', '1', '5', '5', '26', '7', '17', '19']"
"['', '30254', '2016-02-20', '18:30:00 GMT', '1', 'TBL', 'Tampa Bay', 'Lightning', '10', 'PIT', 'Pittsburgh', 'Penguins', '40', 'Consol Energy Center', '1', 'TBL', 'Tampa Bay', 'Lightning', '1', '0', '0', '0', '0', '0', '1', '2', '22', '40', '35.5', '4', '0', '0.0', '4', '0', '100.0', '0', '1', '4', '2', '20', '7', '14', '34']"
"['', '29904', '2016-02-21', '00:00:00 GMT', '1', 'TBL', 'Tampa Bay', 'Lightning', '3', 'CAR', 'Carolina', 'Hurricanes', '21', 'RBC Center', '1', 'TBL', 'Tampa Bay', 'Lightning', '1', '0', '0', '0', '0', '0', '1', '2', '25', '27', '48.1', '4', '1', '25.0', '2', '0', '100.0', '0', '1', '4', '2', '18', '3', '6', '29']"
"['', '29915', '2016-02-23', '00:30:00 GMT', '30', 'ARI', 'Arizona', 'Coyotes', '1', 'TBL', 'Tampa Bay', 'Lightning', '26', 'Amalie Arena', '1', 'TBL', 'Tampa Bay', 'Lightning', '1', '0', '0', '0', '0', '0', '1', '2', '32', '40', '44.4', '2', '0', '0.0', '1', '0', '100.0', '0', '0', '2', '1', '36', '3', '6', '19']"
"['', '29934', '2016-02-26', '00:00:00 GMT', '1', 'TBL', 'Tampa Bay', 'Lightning', '7', 'NJD', 'New Jersey', 'Devils', '37', 'Prudential Center', '1', 'TBL', 'Tampa Bay', 'Lightning', '1', '0', '0', '0', '0', '0', '1', '2', '40', '30', '57.1', '7', '0', '0.0', '1', '0', '100.0', '0', '0', '4', '0', '36', '2', '4', '8']"
"['', '29951', '2016-02-28', '23:30:00 GMT', '1', 'TBL', 'Tampa Bay', 'Lightning', '11', 'BOS', 'Boston', 'Bruins', '27', 'TD Garden', '1', 'TBL', 'Tampa Bay', 'Lightning', '1', '0', '0', '0', '0', '0', '1', '2', '34', '31', '52.3', '3', '2', '66.7', '6', '0', '100.0', '0', '0', '4', '1', '29', '7', '14', '18']"
"['', '29958', '2016-02-29', '00:30:00 GMT', '1', 'TBL', 'Tampa Bay', 'Lightning', '12', 'TOR', 'Toronto', 'Maple Leafs', '1', 'Air Canada Center', '1', 'TBL', 'Tampa Bay', 'Lightning', '1', '0', '0', '0', '0', '0', '1', '2', '19', '31', '38.0', '1', '0', '0.0', '2', '0', '100.0', '0', '0', '2', '1', '28', '4', '11', '24']"
"['', '29977', '2016-03-03', '00:30:00 GMT', '1', 'TBL', 'Tampa Bay', 'Lightning', '13', 'OTT', 'Ottawa', 'Senators', '23', 'Canadian Tire Centre', '1', 'TBL', 'Tampa Bay', 'Lightning', '1', '0', '0', '0', '0', '0', '1', '2', '21', '29', '42.0', '1', '0', '0.0', '4', '0', '100.0', '0', '0', '4', '1', '29', '5', '10', '25']"
"['', '29993', '2016-03-05', '00:00:00 GMT', '3', 'CAR', 'Carolina', 'Hurricanes', '1', 'TBL', 'Tampa Bay', 'Lightning', '26', 'Amalie Arena', '1', 'TBL', 'Tampa Bay', 'Lightning', '1', '0', '0', '0', '0', '0', '1', '2', '26', '24', '52.0', '3', '0', '0.0', '3', '1', '66.7', '0', '0', '4', '3', '30', '3', '6', '19']"
"['', '30004', '2016-03-07', '00:00:00 GMT', '1', 'TBL', 'Tampa Bay', 'Lightning', '6', 'PHI', 'Philadelphia', 'Flyers', '29', 'Wells Fargo Center', '1', 'TBL', 'Tampa Bay', 'Lightning', '0', '1', '0', '0', '0', '0', '0', '0', '26', '31', '45.6', '2', '0', '0.0', '5', '1', '80.0', '0', '0', '2', '4', '18', '5', '10', '26']"
"['', '30016', '2016-03-08', '00:30:00 GMT', '11', 'BOS', 'Boston', 'Bruins', '1', 'TBL', 'Tampa Bay', 'Lightning', '26', 'Amalie Arena', '1', 'TBL', 'Tampa Bay', 'Lightning', '0', '0', '0', '1', '0', '0', '0', '1', '24', '27', '47.1', '4', '0', '0.0', '0', '0', '0.0', '0', '0', '0', '1', '42', '1', '2', '18']"
"['', '30032', '2016-03-11', '00:30:00 GMT', '6', 'PHI', 'Philadelphia', 'Flyers', '1', 'TBL', 'Tampa Bay', 'Lightning', '26', 'Amalie Arena', '1', 'TBL', 'Tampa Bay', 'Lightning', '0', '1', '0', '0', '0', '0', '0', '0', '21', '22', '48.8', '1', '0', '0.0', '2', '2', '0.0', '0', '0', '1', '3', '19', '4', '8', '25']"
"['', '30049', '2016-03-13', '19:00:00 GMT', '1', 'TBL', 'Tampa Bay', 'Lightning', '19', 'CBJ', 'Columbus', 'Blue Jackets', '17', 'Nationwide Arena', '1', 'TBL', 'Tampa Bay', 'Lightning', '1', '0', '0', '0', '0', '0', '1', '2', '29', '28', '50.9', '4', '0', '0.0', '4', '0', '100.0', '2', '0', '4', '0', '37', '6', '14', '6']"
"['', '30060', '2016-03-15', '23:30:00 GMT', '1', 'TBL', 'Tampa Bay', 'Lightning', '12', 'TOR', 'Toronto', 'Maple Leafs', '1', 'Air Canada Center', '1', 'TBL', 'Tampa Bay', 'Lightning', '0', '1', '0', '0', '0', '0', '0', '0', '33', '20', '62.3', '3', '0', '0.0', '3', '0', '100.0', '0', '0', '1', '4', '27', '5', '10', '22']"
"['', '30076', '2016-03-17', '00:30:00 GMT', '1', 'TBL', 'Tampa Bay', 'Lightning', '27', 'DAL', 'Dallas', 'Stars', '2', 'American Airlines Center', '1', 'TBL', 'Tampa Bay', 'Lightning', '0', '1', '0', '0', '0', '0', '0', '0', '27', '30', '47.4', '1', '1', '100.0', '1', '0', '100.0', '0', '0', '3', '4', '20', '2', '7', '28']"
"['', '30094', '2016-03-19', '02:00:00 GMT', '1', 'TBL', 'Tampa Bay', 'Lightning', '30', 'ARI', 'Arizona', 'Coyotes', '6', 'Gila River Arena', '1', 'TBL', 'Tampa Bay', 'Lightning', '1', '0', '0', '0', '0', '0', '1', '2', '30', '31', '49.2', '4', '0', '0.0', '6', '0', '100.0', '0', '0', '2', '0', '36', '8', '19', '17']"
"['', '30111', '2016-03-22', '23:30:00 GMT', '16', 'DET', 'Detroit', 'Red Wings', '1', 'TBL', 'Tampa Bay', 'Lightning', '26', 'Amalie Arena', '1', 'TBL', 'Tampa Bay', 'Lightning', '1', '0', '0', '0', '0', '0', '1', '2', '24', '32', '42.9', '4', '1', '25.0', '1', '1', '0.0', '0', '0', '6', '2', '34', '4', '11', '14']"
"['', '30131', '2016-03-25', '23:30:00 GMT', '8', 'NYI', 'New York', 'Islanders', '1', 'TBL', 'Tampa Bay', 'Lightning', '26', 'Amalie Arena', '1', 'TBL', 'Tampa Bay', 'Lightning', '1', '0', '0', '0', '0', '0', '1', '2', '40', '34', '54.1', '3', '0', '0.0', '3', '0', '100.0', '0', '0', '7', '4', '42', '4', '16', '20']"
"['', '30140', '2016-03-26', '23:00:00 GMT', '4', 'FLO', 'Florida', 'Panthers', '1', 'TBL', 'Tampa Bay', 'Lightning', '26', 'Amalie Arena', '1', 'TBL', 'Tampa Bay', 'Lightning', '0', '1', '0', '0', '0', '0', '0', '0', '27', '30', '47.4', '5', '2', '40.0', '4', '1', '75.0', '0', '1', '2', '5', '35', '5', '10', '22']"
"['', '30153', '2016-03-28', '23:30:00 GMT', '12', 'TOR', 'Toronto', 'Maple Leafs', '1', 'TBL', 'Tampa Bay', 'Lightning', '26', 'Amalie Arena', '1', 'TBL', 'Tampa Bay', 'Lightning', '1', '0', '0', '0', '0', '0', '1', '2', '25', '27', '48.1', '3', '0', '0.0', '8', '0', '100.0', '0', '0', '3', '0', '18', '11', '30', '31']"
"['', '30174', '2016-03-31', '23:30:00 GMT', '14', 'MTL', 'Montreal', 'Canadiens', '1', 'TBL', 'Tampa Bay', 'Lightning', '26', 'Amalie Arena', '1', 'TBL', 'Tampa Bay', 'Lightning', '0', '1', '0', '0', '0', '0', '0', '0', '36', '28', '56.2', '3', '0', '0.0', '1', '0', '100.0', '0', '0', '0', '3', '25', '2', '7', '25']"
"['', '30189', '2016-04-02', '23:00:00 GMT', '7', 'NJD', 'New Jersey', 'Devils', '1', 'TBL', 'Tampa Bay', 'Lightning', '26', 'Amalie Arena', '1', 'TBL', 'Tampa Bay', 'Lightning', '1', '0', '0', '0', '0', '0', '1', '2', '28', '36', '43.8', '7', '1', '14.3', '6', '1', '83.3', '0', '0', '3', '1', '36', '7', '14', '24']"
"['', '30201', '2016-04-04', '23:00:00 GMT', '1', 'TBL', 'Tampa Bay', 'Lightning', '8', 'NYI', 'New York', 'Islanders', '16', 'Nassau Veterans Memorial Coliseum', '1', 'TBL', 'Tampa Bay', 'Lightning', '0', '1', '0', '0', '0', '0', '0', '0', '25', '22', '53.2', '4', '0', '0.0', '2', '1', '50.0', '0', '0', '2', '5', '34', '4', '11', '24']"
"['', '30208', '2016-04-05', '23:00:00 GMT', '1', 'TBL', 'Tampa Bay', 'Lightning', '9', 'NYR', 'New York', 'Rangers', '12', 'Madison Square Garden', '1', 'TBL', 'Tampa Bay', 'Lightning', '0', '1', '0', '0', '0', '0', '0', '0', '26', '29', '47.3', '6', '1', '16.7', '6', '1', '83.3', '0', '0', '2', '3', '41', '8', '27', '15']"
"['', '30221', '2016-04-07', '23:00:00 GMT', '1', 'TBL', 'Tampa Bay', 'Lightning', '7', 'NJD', 'New Jersey', 'Devils', '37', 'Prudential Center', '1', 'TBL', 'Tampa Bay', 'Lightning', '1', '0', '0', '0', '0', '0', '1', '2', '25', '30', '45.5', '2', '0', '0.0', '1', '0', '100.0', '0', '0', '4', '2', '22', '4', '11', '11']"
"['', '30238', '2016-04-09', '23:00:00 GMT', '1', 'TBL', 'Tampa Bay', 'Lightning', '14', 'MTL', 'Montreal', 'Canadiens', '4', 'Bell Centre', '1', 'TBL', 'Tampa Bay', 'Lightning', '0', '1', '0', '0', '0', '0', '0', '0', '33', '28', '54.1', '3', '0', '0.0', '6', '1', '83.3', '0', '0', '2', '5', '23', '8', '19', '34']"
