"['#Date/Time of Update: 2018-12-10 19:02:57 GMT', '#Game ID', '#Game Date', '#Game Time', '#Away Team ID', '#Away Team Abbr.', '#Away Team City', '#Away Team Name', '#Home Team ID', '#Home Team Abbr.', '#Home Team City', '#Home Team Name', '#Venue ID', '#Venue Name', '#Team ID', '#Team Abbr.', '#Team City', '#Team Name', '#Wins', '#Losses', '#OvertimeWins', '#OvertimeLosses', '#ShootoutWins', '#ShootoutLosses', '#Points', '#FaceoffWins', '#FaceoffLosses', '#FaceoffPercent', '#Powerplays', '#PowerplayGoals', '#PowerplayPercent', '#PenaltyKills', '#PenaltyKillGoalsAllowed', '#PenaltyKillPercent', '#ShorthandedGoalsFor', '#ShorthandedGoalsAgainst', '#GoalsFor', '#GoalsAgainst', '#Shots', '#Penalties', '#PenaltyMinutes', '#Hits']"
"['', '8702', '2009-10-03', '23:00:00 GMT', '25', 'MIN', 'Minnesota', 'Wild', '19', 'CBJ', 'Columbus', 'Blue Jackets', '17', 'Nationwide Arena', '19', 'CBJ', 'Columbus', 'Blue Jackets', '1', '0', '0', '0', '0', '0', '2', '32', '27', '54.2', '3', '0', '0.0', '4', '1', '75.0', '1', '0', '2', '1', '37', '4', '8', '24']"
"['', '8708', '2009-10-05', '02:00:00 GMT', '19', 'CBJ', 'Columbus', 'Blue Jackets', '21', 'VAN', 'Vancouver', 'Canucks', '7', 'General Motors Place', '19', 'CBJ', 'Columbus', 'Blue Jackets', '1', '0', '0', '0', '0', '0', '2', '27', '38', '41.5', '3', '1', '33.3', '3', '0', '100.0', '0', '0', '5', '3', '19', '4', '8', '11']"
"['', '8729', '2009-10-08', '02:30:00 GMT', '19', 'CBJ', 'Columbus', 'Blue Jackets', '26', 'SJS', 'San Jose', 'Sharks', '9', 'HP Pavilion at San Jose', '19', 'CBJ', 'Columbus', 'Blue Jackets', '0', '1', '0', '0', '0', '0', '0', '29', '33', '46.8', '2', '1', '50.0', '4', '0', '100.0', '0', '0', '3', '6', '24', '8', '22', '25']"
"['', '9918', '2009-10-10', '01:00:00 GMT', '19', 'CBJ', 'Columbus', 'Blue Jackets', '30', 'PHX', 'Phoenix', 'Coyotes', '6', 'Jobing.com Arena', '19', 'CBJ', 'Columbus', 'Blue Jackets', '1', '0', '0', '0', '0', '0', '2', '22', '25', '46.8', '2', '0', '0.0', '6', '0', '100.0', '0', '0', '2', '0', '17', '8', '16', '21']"
"['', '8757', '2009-10-13', '23:00:00 GMT', '23', 'CGY', 'Calgary', 'Flames', '19', 'CBJ', 'Columbus', 'Blue Jackets', '17', 'Nationwide Arena', '19', 'CBJ', 'Columbus', 'Blue Jackets', '1', '0', '0', '0', '0', '0', '2', '28', '33', '45.9', '4', '1', '25.0', '0', '0', '0.0', '0', '0', '2', '1', '31', '4', '11', '40']"
"['', '8783', '2009-10-17', '23:00:00 GMT', '28', 'LAK', 'Los Angeles', 'Kings', '19', 'CBJ', 'Columbus', 'Blue Jackets', '17', 'Nationwide Arena', '19', 'CBJ', 'Columbus', 'Blue Jackets', '1', '0', '0', '0', '0', '0', '2', '29', '19', '60.4', '5', '2', '40.0', '5', '0', '100.0', '1', '0', '4', '1', '20', '6', '12', '20']"
"['', '8794', '2009-10-20', '01:30:00 GMT', '19', 'CBJ', 'Columbus', 'Blue Jackets', '23', 'CGY', 'Calgary', 'Flames', '18', 'Pengrowth Saddledome', '19', 'CBJ', 'Columbus', 'Blue Jackets', '0', '1', '0', '0', '0', '0', '0', '31', '25', '55.4', '7', '2', '28.6', '5', '0', '100.0', '1', '0', '3', '6', '27', '7', '17', '8']"
"['', '8807', '2009-10-22', '01:30:00 GMT', '19', 'CBJ', 'Columbus', 'Blue Jackets', '24', 'EDM', 'Edmonton', 'Oilers', '22', 'Rogers Place', '19', 'CBJ', 'Columbus', 'Blue Jackets', '0', '1', '0', '0', '0', '0', '0', '31', '27', '53.4', '3', '1', '33.3', '7', '3', '57.1', '0', '0', '4', '6', '28', '8', '16', '17']"
"['', '8827', '2009-10-24', '02:00:00 GMT', '19', 'CBJ', 'Columbus', 'Blue Jackets', '29', 'ANA', 'Anaheim', 'Ducks', '8', 'Honda Center', '19', 'CBJ', 'Columbus', 'Blue Jackets', '1', '0', '0', '0', '0', '0', '2', '36', '28', '56.2', '2', '0', '0.0', '2', '2', '0.0', '0', '0', '6', '4', '31', '3', '6', '22']"
"['', '8829', '2009-10-25', '01:00:00 GMT', '19', 'CBJ', 'Columbus', 'Blue Jackets', '28', 'LAK', 'Los Angeles', 'Kings', '25', 'Staples Center', '19', 'CBJ', 'Columbus', 'Blue Jackets', '0', '1', '0', '0', '0', '0', '0', '21', '30', '41.2', '4', '1', '25.0', '4', '2', '50.0', '0', '0', '2', '6', '24', '6', '28', '25']"
"['', '8841', '2009-10-28', '23:00:00 GMT', '30', 'PHX', 'Phoenix', 'Coyotes', '19', 'CBJ', 'Columbus', 'Blue Jackets', '17', 'Nationwide Arena', '19', 'CBJ', 'Columbus', 'Blue Jackets', '0', '1', '0', '0', '0', '0', '0', '35', '23', '60.3', '5', '1', '20.0', '4', '3', '25.0', '0', '0', '1', '4', '31', '9', '24', '20']"
"['', '8856', '2009-10-30', '23:00:00 GMT', '10', 'PIT', 'Pittsburgh', 'Penguins', '19', 'CBJ', 'Columbus', 'Blue Jackets', '17', 'Nationwide Arena', '19', 'CBJ', 'Columbus', 'Blue Jackets', '0', '0', '0', '1', '0', '0', '1', '34', '29', '54.0', '6', '1', '16.7', '3', '0', '100.0', '0', '1', '3', '3', '29', '6', '12', '15']"
"['', '8876', '2009-11-01', '22:00:00 GMT', '19', 'CBJ', 'Columbus', 'Blue Jackets', '5', 'WSH', 'Washington', 'Capitals', '13', 'Verizon Center', '19', 'CBJ', 'Columbus', 'Blue Jackets', '1', '0', '0', '0', '0', '0', '2', '32', '36', '47.1', '5', '2', '40.0', '4', '1', '75.0', '0', '0', '5', '4', '27', '7', '22', '24']"
"['', '8888', '2009-11-04', '00:00:00 GMT', '26', 'SJS', 'San Jose', 'Sharks', '19', 'CBJ', 'Columbus', 'Blue Jackets', '17', 'Nationwide Arena', '19', 'CBJ', 'Columbus', 'Blue Jackets', '0', '0', '0', '1', '0', '0', '1', '26', '30', '46.4', '1', '1', '100.0', '2', '1', '50.0', '0', '0', '2', '2', '26', '4', '14', '35']"
"['', '8893', '2009-11-05', '00:00:00 GMT', '19', 'CBJ', 'Columbus', 'Blue Jackets', '2', 'ATL', 'Atlanta', 'Thrashers', '20', 'Philips Arena', '19', 'CBJ', 'Columbus', 'Blue Jackets', '1', '0', '0', '0', '0', '0', '2', '28', '29', '49.1', '2', '0', '0.0', '7', '2', '71.4', '0', '0', '4', '3', '17', '8', '16', '10']"
"['', '8916', '2009-11-07', '00:00:00 GMT', '3', 'CAR', 'Carolina', 'Hurricanes', '19', 'CBJ', 'Columbus', 'Blue Jackets', '17', 'Nationwide Arena', '19', 'CBJ', 'Columbus', 'Blue Jackets', '1', '0', '0', '0', '0', '0', '2', '29', '32', '47.5', '3', '0', '0.0', '5', '0', '100.0', '0', '0', '3', '2', '23', '5', '10', '19']"
"['', '8934', '2009-11-11', '00:00:00 GMT', '16', 'DET', 'Detroit', 'Red Wings', '19', 'CBJ', 'Columbus', 'Blue Jackets', '17', 'Nationwide Arena', '19', 'CBJ', 'Columbus', 'Blue Jackets', '0', '1', '0', '0', '0', '0', '0', '26', '27', '49.1', '1', '0', '0.0', '4', '2', '50.0', '0', '0', '1', '9', '25', '5', '13', '31']"
"['', '8947', '2009-11-13', '00:00:00 GMT', '29', 'ANA', 'Anaheim', 'Ducks', '19', 'CBJ', 'Columbus', 'Blue Jackets', '17', 'Nationwide Arena', '19', 'CBJ', 'Columbus', 'Blue Jackets', '1', '0', '0', '0', '0', '0', '2', '26', '28', '48.1', '3', '1', '33.3', '4', '0', '100.0', '0', '0', '2', '2', '27', '6', '12', '30']"
"['', '8968', '2009-11-16', '00:00:00 GMT', '24', 'EDM', 'Edmonton', 'Oilers', '19', 'CBJ', 'Columbus', 'Blue Jackets', '17', 'Nationwide Arena', '19', 'CBJ', 'Columbus', 'Blue Jackets', '1', '0', '0', '0', '0', '0', '2', '27', '24', '52.9', '4', '2', '50.0', '5', '2', '60.0', '0', '0', '2', '2', '30', '9', '24', '22']"
"['', '8987', '2009-11-19', '01:30:00 GMT', '19', 'CBJ', 'Columbus', 'Blue Jackets', '27', 'DAL', 'Dallas', 'Stars', '2', 'American Airlines Center', '19', 'CBJ', 'Columbus', 'Blue Jackets', '1', '0', '0', '0', '0', '0', '2', '25', '30', '45.5', '4', '3', '75.0', '5', '0', '100.0', '1', '0', '4', '1', '24', '10', '29', '23']"
"['', '9006', '2009-11-21', '01:00:00 GMT', '19', 'CBJ', 'Columbus', 'Blue Jackets', '18', 'NSH', 'Nashville', 'Predators', '15', 'Sommet Center', '19', 'CBJ', 'Columbus', 'Blue Jackets', '0', '0', '0', '1', '0', '0', '1', '35', '38', '47.9', '3', '1', '33.3', '8', '2', '75.0', '0', '1', '3', '3', '26', '8', '16', '16']"
"['', '9011', '2009-11-23', '00:00:00 GMT', '19', 'CBJ', 'Columbus', 'Blue Jackets', '9', 'NYR', 'New York', 'Rangers', '12', 'Madison Square Garden', '19', 'CBJ', 'Columbus', 'Blue Jackets', '0', '1', '0', '0', '0', '0', '0', '29', '26', '52.7', '1', '0', '0.0', '4', '1', '75.0', '0', '0', '4', '7', '26', '6', '18', '37']"
"['', '9021', '2009-11-24', '00:30:00 GMT', '19', 'CBJ', 'Columbus', 'Blue Jackets', '14', 'MTL', 'Montreal', 'Canadiens', '4', 'Bell Centre', '19', 'CBJ', 'Columbus', 'Blue Jackets', '0', '1', '0', '0', '0', '0', '0', '24', '28', '46.2', '4', '2', '50.0', '2', '0', '100.0', '0', '0', '3', '5', '33', '3', '6', '17']"
"['', '9036', '2009-11-26', '00:30:00 GMT', '19', 'CBJ', 'Columbus', 'Blue Jackets', '13', 'OTT', 'Ottawa', 'Senators', '23', 'Scotiabank Place', '19', 'CBJ', 'Columbus', 'Blue Jackets', '0', '1', '0', '0', '0', '0', '0', '23', '27', '46.0', '6', '1', '16.7', '4', '1', '75.0', '0', '0', '1', '2', '32', '4', '8', '22']"
"['', '9055', '2009-11-28', '00:00:00 GMT', '23', 'CGY', 'Calgary', 'Flames', '19', 'CBJ', 'Columbus', 'Blue Jackets', '17', 'Nationwide Arena', '19', 'CBJ', 'Columbus', 'Blue Jackets', '0', '0', '0', '1', '0', '0', '1', '35', '27', '56.5', '1', '1', '100.0', '3', '1', '66.7', '0', '0', '3', '3', '29', '3', '6', '41']"
"['', '9069', '2009-11-30', '00:00:00 GMT', '17', 'STL', 'St. Louis', 'Blues', '19', 'CBJ', 'Columbus', 'Blue Jackets', '17', 'Nationwide Arena', '19', 'CBJ', 'Columbus', 'Blue Jackets', '1', '0', '0', '0', '0', '0', '2', '37', '24', '60.7', '4', '0', '0.0', '3', '1', '66.7', '0', '0', '5', '2', '22', '4', '8', '24']"
"['', '9074', '2009-12-01', '01:00:00 GMT', '19', 'CBJ', 'Columbus', 'Blue Jackets', '20', 'CHI', 'Chicago', 'Blackhawks', '28', 'United Center', '19', 'CBJ', 'Columbus', 'Blue Jackets', '0', '0', '0', '1', '0', '0', '1', '20', '34', '37.0', '3', '0', '0.0', '4', '2', '50.0', '0', '1', '3', '3', '20', '4', '8', '20']"
"['', '9085', '2009-12-03', '00:00:00 GMT', '12', 'TOR', 'Toronto', 'Maple Leafs', '19', 'CBJ', 'Columbus', 'Blue Jackets', '17', 'Nationwide Arena', '19', 'CBJ', 'Columbus', 'Blue Jackets', '0', '1', '0', '0', '0', '0', '0', '31', '26', '54.4', '4', '2', '50.0', '3', '0', '100.0', '0', '1', '3', '6', '33', '5', '13', '26']"
"['', '9104', '2009-12-05', '00:00:00 GMT', '22', 'COL', 'Colorado', 'Avalanche', '19', 'CBJ', 'Columbus', 'Blue Jackets', '17', 'Nationwide Arena', '19', 'CBJ', 'Columbus', 'Blue Jackets', '0', '1', '0', '0', '0', '0', '0', '39', '15', '72.2', '4', '0', '0.0', '3', '0', '100.0', '0', '0', '2', '3', '29', '4', '11', '14']"
"['', '9128', '2009-12-09', '00:00:00 GMT', '4', 'FLO', 'Florida', 'Panthers', '19', 'CBJ', 'Columbus', 'Blue Jackets', '17', 'Nationwide Arena', '19', 'CBJ', 'Columbus', 'Blue Jackets', '1', '0', '0', '0', '0', '0', '2', '26', '25', '51.0', '2', '0', '0.0', '3', '0', '100.0', '0', '0', '3', '0', '29', '3', '6', '26']"
"['', '9138', '2009-12-10', '01:00:00 GMT', '19', 'CBJ', 'Columbus', 'Blue Jackets', '18', 'NSH', 'Nashville', 'Predators', '15', 'Sommet Center', '19', 'CBJ', 'Columbus', 'Blue Jackets', '0', '0', '0', '1', '0', '0', '1', '33', '25', '56.9', '2', '1', '50.0', '3', '0', '100.0', '0', '0', '3', '3', '28', '3', '6', '15']"
"['', '9155', '2009-12-12', '00:00:00 GMT', '29', 'ANA', 'Anaheim', 'Ducks', '19', 'CBJ', 'Columbus', 'Blue Jackets', '17', 'Nationwide Arena', '19', 'CBJ', 'Columbus', 'Blue Jackets', '0', '1', '0', '0', '0', '0', '0', '31', '24', '56.4', '4', '0', '0.0', '2', '1', '50.0', '0', '0', '1', '3', '35', '5', '16', '27']"
"['', '9167', '2009-12-14', '00:00:00 GMT', '18', 'NSH', 'Nashville', 'Predators', '19', 'CBJ', 'Columbus', 'Blue Jackets', '17', 'Nationwide Arena', '19', 'CBJ', 'Columbus', 'Blue Jackets', '0', '1', '0', '0', '0', '0', '0', '37', '22', '62.7', '8', '2', '25.0', '2', '0', '100.0', '0', '0', '3', '5', '28', '4', '8', '9']"
"['', '9174', '2009-12-15', '01:00:00 GMT', '19', 'CBJ', 'Columbus', 'Blue Jackets', '25', 'MIN', 'Minnesota', 'Wild', '30', 'Xcel Energy Center', '19', 'CBJ', 'Columbus', 'Blue Jackets', '0', '1', '0', '0', '0', '0', '0', '18', '22', '45.0', '0', '0', '0.0', '1', '0', '100.0', '0', '0', '1', '2', '21', '1', '2', '19']"
"['', '9189', '2009-12-17', '00:00:00 GMT', '30', 'PHX', 'Phoenix', 'Coyotes', '19', 'CBJ', 'Columbus', 'Blue Jackets', '17', 'Nationwide Arena', '19', 'CBJ', 'Columbus', 'Blue Jackets', '0', '0', '0', '1', '0', '0', '1', '27', '37', '42.2', '6', '1', '16.7', '1', '0', '100.0', '0', '0', '1', '1', '38', '4', '19', '20']"
"['', '9210', '2009-12-19', '02:00:00 GMT', '19', 'CBJ', 'Columbus', 'Blue Jackets', '22', 'COL', 'Colorado', 'Avalanche', '19', 'Pepsi Center', '19', 'CBJ', 'Columbus', 'Blue Jackets', '0', '1', '0', '0', '0', '0', '0', '22', '27', '44.9', '3', '2', '66.7', '4', '2', '50.0', '0', '0', '2', '5', '28', '5', '10', '24']"
"['', '9224', '2009-12-21', '02:00:00 GMT', '19', 'CBJ', 'Columbus', 'Blue Jackets', '30', 'PHX', 'Phoenix', 'Coyotes', '6', 'Jobing.com Arena', '19', 'CBJ', 'Columbus', 'Blue Jackets', '0', '1', '0', '0', '0', '0', '0', '25', '29', '46.3', '2', '0', '0.0', '7', '1', '85.7', '0', '0', '2', '5', '25', '11', '36', '19']"
"['', '9237', '2009-12-23', '01:30:00 GMT', '19', 'CBJ', 'Columbus', 'Blue Jackets', '27', 'DAL', 'Dallas', 'Stars', '2', 'American Airlines Center', '19', 'CBJ', 'Columbus', 'Blue Jackets', '0', '1', '0', '0', '0', '0', '0', '37', '29', '56.1', '4', '0', '0.0', '4', '0', '100.0', '0', '0', '1', '3', '33', '7', '17', '30']"
"['', '9241', '2009-12-26', '00:00:00 GMT', '19', 'CBJ', 'Columbus', 'Blue Jackets', '16', 'DET', 'Detroit', 'Red Wings', '11', 'Joe Louis Arena', '19', 'CBJ', 'Columbus', 'Blue Jackets', '0', '1', '0', '0', '0', '0', '0', '20', '24', '45.5', '4', '0', '0.0', '4', '1', '75.0', '0', '0', '1', '2', '28', '6', '12', '25']"
"['', '9261', '2009-12-28', '00:00:00 GMT', '16', 'DET', 'Detroit', 'Red Wings', '19', 'CBJ', 'Columbus', 'Blue Jackets', '17', 'Nationwide Arena', '19', 'CBJ', 'Columbus', 'Blue Jackets', '1', '0', '0', '0', '0', '0', '2', '32', '32', '50.0', '3', '0', '0.0', '4', '0', '100.0', '0', '0', '1', '0', '39', '7', '20', '39']"
"['', '9268', '2009-12-29', '00:00:00 GMT', '19', 'CBJ', 'Columbus', 'Blue Jackets', '8', 'NYI', 'New York', 'Islanders', '16', 'Nassau Veterans Memorial Coliseum', '19', 'CBJ', 'Columbus', 'Blue Jackets', '0', '0', '0', '1', '0', '0', '1', '26', '23', '53.1', '2', '0', '0.0', '4', '0', '100.0', '0', '0', '1', '1', '41', '4', '8', '24']"
"['', '9285', '2009-12-31', '00:00:00 GMT', '18', 'NSH', 'Nashville', 'Predators', '19', 'CBJ', 'Columbus', 'Blue Jackets', '17', 'Nationwide Arena', '19', 'CBJ', 'Columbus', 'Blue Jackets', '0', '0', '0', '1', '0', '0', '1', '25', '21', '54.3', '1', '0', '0.0', '2', '0', '100.0', '0', '0', '1', '2', '31', '2', '4', '22']"
"['', '9300', '2010-01-02', '00:00:00 GMT', '22', 'COL', 'Colorado', 'Avalanche', '19', 'CBJ', 'Columbus', 'Blue Jackets', '17', 'Nationwide Arena', '19', 'CBJ', 'Columbus', 'Blue Jackets', '0', '1', '0', '0', '0', '0', '0', '25', '30', '45.5', '3', '1', '33.3', '5', '1', '80.0', '0', '0', '2', '3', '26', '7', '17', '27']"
"['', '9320', '2010-01-05', '03:00:00 GMT', '19', 'CBJ', 'Columbus', 'Blue Jackets', '21', 'VAN', 'Vancouver', 'Canucks', '7', 'General Motors Place', '19', 'CBJ', 'Columbus', 'Blue Jackets', '0', '1', '0', '0', '0', '0', '0', '29', '28', '50.9', '5', '0', '0.0', '2', '1', '50.0', '0', '1', '3', '7', '29', '3', '6', '17']"
"['', '9334', '2010-01-07', '02:00:00 GMT', '19', 'CBJ', 'Columbus', 'Blue Jackets', '24', 'EDM', 'Edmonton', 'Oilers', '22', 'Rogers Place', '19', 'CBJ', 'Columbus', 'Blue Jackets', '1', '0', '0', '0', '0', '0', '2', '34', '33', '50.7', '3', '1', '33.3', '4', '0', '100.0', '0', '0', '4', '2', '25', '4', '8', '16']"
"['', '9342', '2010-01-08', '02:00:00 GMT', '19', 'CBJ', 'Columbus', 'Blue Jackets', '23', 'CGY', 'Calgary', 'Flames', '18', 'Pengrowth Saddledome', '19', 'CBJ', 'Columbus', 'Blue Jackets', '1', '0', '0', '0', '0', '0', '2', '25', '28', '47.2', '2', '0', '0.0', '3', '0', '100.0', '0', '0', '3', '2', '19', '3', '6', '13']"
"['', '9358', '2010-01-10', '00:00:00 GMT', '27', 'DAL', 'Dallas', 'Stars', '19', 'CBJ', 'Columbus', 'Blue Jackets', '17', 'Nationwide Arena', '19', 'CBJ', 'Columbus', 'Blue Jackets', '1', '0', '0', '0', '0', '0', '2', '32', '25', '56.1', '3', '1', '33.3', '3', '0', '100.0', '0', '0', '2', '0', '39', '5', '10', '31']"
"['', '9369', '2010-01-12', '01:00:00 GMT', '19', 'CBJ', 'Columbus', 'Blue Jackets', '17', 'STL', 'St. Louis', 'Blues', '24', 'Scottrade Center', '19', 'CBJ', 'Columbus', 'Blue Jackets', '0', '1', '0', '0', '0', '0', '0', '35', '27', '56.5', '4', '1', '25.0', '4', '1', '75.0', '0', '0', '1', '4', '26', '9', '38', '35']"
"['', '9383', '2010-01-14', '01:30:00 GMT', '19', 'CBJ', 'Columbus', 'Blue Jackets', '20', 'CHI', 'Chicago', 'Blackhawks', '28', 'United Center', '19', 'CBJ', 'Columbus', 'Blue Jackets', '0', '1', '0', '0', '0', '0', '0', '20', '22', '47.6', '2', '0', '0.0', '2', '0', '100.0', '0', '0', '0', '3', '24', '2', '4', '22']"
"['', '9391', '2010-01-16', '19:00:00 GMT', '20', 'CHI', 'Chicago', 'Blackhawks', '19', 'CBJ', 'Columbus', 'Blue Jackets', '17', 'Nationwide Arena', '19', 'CBJ', 'Columbus', 'Blue Jackets', '0', '1', '0', '0', '0', '0', '0', '31', '26', '54.4', '4', '0', '0.0', '3', '2', '33.3', '0', '0', '5', '6', '21', '3', '6', '27']"
"['', '9410', '2010-01-18', '00:00:00 GMT', '17', 'STL', 'St. Louis', 'Blues', '19', 'CBJ', 'Columbus', 'Blue Jackets', '17', 'Nationwide Arena', '19', 'CBJ', 'Columbus', 'Blue Jackets', '1', '0', '0', '0', '0', '0', '2', '40', '20', '66.7', '4', '1', '25.0', '4', '1', '75.0', '0', '0', '4', '2', '26', '4', '8', '36']"
"['', '9417', '2010-01-19', '00:00:00 GMT', '19', 'CBJ', 'Columbus', 'Blue Jackets', '6', 'PHI', 'Philadelphia', 'Flyers', '29', 'Wachovia Center', '19', 'CBJ', 'Columbus', 'Blue Jackets', '0', '1', '0', '0', '0', '0', '0', '25', '35', '41.7', '2', '2', '100.0', '5', '1', '80.0', '0', '0', '3', '5', '25', '6', '15', '21']"
"['', '9427', '2010-01-21', '00:00:00 GMT', '19', 'CBJ', 'Columbus', 'Blue Jackets', '11', 'BOS', 'Boston', 'Bruins', '27', 'TD Garden', '19', 'CBJ', 'Columbus', 'Blue Jackets', '1', '0', '0', '0', '0', '0', '2', '29', '25', '53.7', '5', '1', '20.0', '2', '0', '100.0', '0', '0', '3', '2', '22', '4', '11', '20']"
"['', '9452', '2010-01-23', '01:00:00 GMT', '19', 'CBJ', 'Columbus', 'Blue Jackets', '25', 'MIN', 'Minnesota', 'Wild', '30', 'Xcel Energy Center', '19', 'CBJ', 'Columbus', 'Blue Jackets', '0', '1', '0', '0', '0', '0', '0', '32', '26', '55.2', '2', '0', '0.0', '4', '0', '100.0', '0', '0', '2', '4', '22', '8', '22', '29']"
"['', '9465', '2010-01-26', '00:00:00 GMT', '18', 'NSH', 'Nashville', 'Predators', '19', 'CBJ', 'Columbus', 'Blue Jackets', '17', 'Nationwide Arena', '19', 'CBJ', 'Columbus', 'Blue Jackets', '1', '0', '0', '0', '0', '0', '2', '30', '22', '57.7', '4', '1', '25.0', '4', '0', '100.0', '0', '0', '3', '2', '14', '4', '8', '16']"
"['', '9479', '2010-01-28', '00:00:00 GMT', '28', 'LAK', 'Los Angeles', 'Kings', '19', 'CBJ', 'Columbus', 'Blue Jackets', '17', 'Nationwide Arena', '19', 'CBJ', 'Columbus', 'Blue Jackets', '0', '1', '0', '0', '0', '0', '0', '26', '25', '51.0', '3', '0', '0.0', '3', '1', '66.7', '0', '0', '1', '4', '29', '3', '6', '34']"
"['', '9495', '2010-01-30', '01:00:00 GMT', '19', 'CBJ', 'Columbus', 'Blue Jackets', '17', 'STL', 'St. Louis', 'Blues', '24', 'Scottrade Center', '19', 'CBJ', 'Columbus', 'Blue Jackets', '1', '0', '0', '0', '0', '0', '2', '30', '23', '56.6', '5', '1', '20.0', '4', '2', '50.0', '0', '0', '3', '2', '16', '6', '15', '24']"
"['', '9516', '2010-02-02', '02:00:00 GMT', '19', 'CBJ', 'Columbus', 'Blue Jackets', '22', 'COL', 'Colorado', 'Avalanche', '19', 'Pepsi Center', '19', 'CBJ', 'Columbus', 'Blue Jackets', '0', '1', '0', '0', '0', '0', '0', '25', '25', '50.0', '4', '0', '0.0', '1', '0', '100.0', '1', '2', '1', '5', '20', '3', '6', '15']"
"['', '9526', '2010-02-04', '00:00:00 GMT', '27', 'DAL', 'Dallas', 'Stars', '19', 'CBJ', 'Columbus', 'Blue Jackets', '17', 'Nationwide Arena', '19', 'CBJ', 'Columbus', 'Blue Jackets', '1', '0', '0', '0', '0', '0', '2', '21', '14', '60.0', '0', '0', '0.0', '3', '0', '100.0', '0', '0', '2', '1', '24', '3', '6', '36']"
"['', '9547', '2010-02-06', '00:00:00 GMT', '15', 'BUF', 'Buffalo', 'Sabres', '19', 'CBJ', 'Columbus', 'Blue Jackets', '17', 'Nationwide Arena', '19', 'CBJ', 'Columbus', 'Blue Jackets', '1', '0', '0', '0', '0', '0', '2', '33', '35', '48.5', '5', '1', '20.0', '5', '0', '100.0', '0', '0', '4', '0', '21', '7', '20', '32']"
"['', '9568', '2010-02-10', '00:00:00 GMT', '26', 'SJS', 'San Jose', 'Sharks', '19', 'CBJ', 'Columbus', 'Blue Jackets', '17', 'Nationwide Arena', '19', 'CBJ', 'Columbus', 'Blue Jackets', '1', '0', '0', '0', '0', '0', '2', '29', '29', '50.0', '4', '0', '0.0', '3', '0', '100.0', '0', '0', '3', '0', '18', '3', '6', '36']"
"['', '9583', '2010-02-12', '00:00:00 GMT', '21', 'VAN', 'Vancouver', 'Canucks', '19', 'CBJ', 'Columbus', 'Blue Jackets', '17', 'Nationwide Arena', '19', 'CBJ', 'Columbus', 'Blue Jackets', '0', '1', '0', '0', '0', '0', '0', '27', '30', '47.4', '2', '0', '0.0', '5', '1', '80.0', '0', '0', '3', '4', '32', '5', '10', '34']"
"['', '9603', '2010-02-14', '22:00:00 GMT', '20', 'CHI', 'Chicago', 'Blackhawks', '19', 'CBJ', 'Columbus', 'Blue Jackets', '17', 'Nationwide Arena', '19', 'CBJ', 'Columbus', 'Blue Jackets', '0', '0', '0', '1', '0', '0', '1', '27', '25', '51.9', '5', '1', '20.0', '4', '1', '75.0', '0', '0', '4', '4', '22', '6', '15', '26']"
"['', '9609', '2010-03-02', '00:00:00 GMT', '21', 'VAN', 'Vancouver', 'Canucks', '19', 'CBJ', 'Columbus', 'Blue Jackets', '17', 'Nationwide Arena', '19', 'CBJ', 'Columbus', 'Blue Jackets', '0', '0', '0', '1', '0', '0', '1', '26', '41', '38.8', '5', '0', '0.0', '3', '1', '66.7', '0', '0', '3', '4', '27', '6', '12', '41']"
"['', '9646', '2010-03-06', '03:30:00 GMT', '19', 'CBJ', 'Columbus', 'Blue Jackets', '26', 'SJS', 'San Jose', 'Sharks', '9', 'HP Pavilion at San Jose', '19', 'CBJ', 'Columbus', 'Blue Jackets', '0', '1', '0', '0', '0', '0', '0', '28', '25', '52.8', '1', '0', '0.0', '8', '1', '87.5', '0', '0', '1', '2', '21', '9', '21', '32']"
"['', '9657', '2010-03-08', '03:30:00 GMT', '19', 'CBJ', 'Columbus', 'Blue Jackets', '28', 'LAK', 'Los Angeles', 'Kings', '25', 'Staples Center', '19', 'CBJ', 'Columbus', 'Blue Jackets', '0', '1', '0', '0', '0', '0', '0', '19', '34', '35.8', '4', '0', '0.0', '6', '3', '50.0', '0', '0', '0', '6', '11', '8', '27', '28']"
"['', '9666', '2010-03-09', '03:00:00 GMT', '19', 'CBJ', 'Columbus', 'Blue Jackets', '29', 'ANA', 'Anaheim', 'Ducks', '8', 'Honda Center', '19', 'CBJ', 'Columbus', 'Blue Jackets', '1', '0', '0', '0', '0', '0', '2', '28', '33', '45.9', '6', '3', '50.0', '5', '0', '100.0', '0', '0', '5', '2', '24', '12', '33', '31']"
"['', '9676', '2010-03-11', '00:00:00 GMT', '2', 'ATL', 'Atlanta', 'Thrashers', '19', 'CBJ', 'Columbus', 'Blue Jackets', '17', 'Nationwide Arena', '19', 'CBJ', 'Columbus', 'Blue Jackets', '1', '0', '0', '0', '0', '0', '2', '25', '20', '55.6', '4', '1', '25.0', '2', '0', '100.0', '0', '0', '2', '1', '19', '3', '6', '30']"
"['', '9695', '2010-03-13', '00:00:00 GMT', '17', 'STL', 'St. Louis', 'Blues', '19', 'CBJ', 'Columbus', 'Blue Jackets', '17', 'Nationwide Arena', '19', 'CBJ', 'Columbus', 'Blue Jackets', '0', '1', '0', '0', '0', '0', '0', '35', '32', '52.2', '6', '0', '0.0', '3', '2', '33.3', '0', '1', '1', '5', '24', '6', '12', '41']"
"['', '9708', '2010-03-15', '23:00:00 GMT', '24', 'EDM', 'Edmonton', 'Oilers', '19', 'CBJ', 'Columbus', 'Blue Jackets', '17', 'Nationwide Arena', '19', 'CBJ', 'Columbus', 'Blue Jackets', '1', '0', '0', '0', '0', '0', '2', '32', '30', '51.6', '2', '0', '0.0', '4', '0', '100.0', '0', '0', '5', '3', '24', '5', '13', '22']"
"['', '9735', '2010-03-19', '23:00:00 GMT', '25', 'MIN', 'Minnesota', 'Wild', '19', 'CBJ', 'Columbus', 'Blue Jackets', '17', 'Nationwide Arena', '19', 'CBJ', 'Columbus', 'Blue Jackets', '1', '0', '0', '0', '0', '0', '2', '32', '15', '68.1', '3', '0', '0.0', '3', '0', '100.0', '0', '0', '4', '2', '28', '3', '6', '31']"
"['', '9746', '2010-03-20', '00:00:00 GMT', '19', 'CBJ', 'Columbus', 'Blue Jackets', '18', 'NSH', 'Nashville', 'Predators', '15', 'Sommet Center', '19', 'CBJ', 'Columbus', 'Blue Jackets', '0', '0', '0', '1', '0', '0', '1', '27', '27', '50.0', '3', '0', '0.0', '2', '0', '100.0', '0', '0', '0', '1', '33', '3', '6', '19']"
"['', '9762', '2010-03-23', '23:00:00 GMT', '19', 'CBJ', 'Columbus', 'Blue Jackets', '7', 'NJD', 'New Jersey', 'Devils', '5', 'Izod Center', '19', 'CBJ', 'Columbus', 'Blue Jackets', '0', '1', '0', '0', '0', '0', '0', '32', '26', '55.2', '3', '0', '0.0', '6', '3', '50.0', '0', '0', '3', '6', '19', '8', '19', '33']"
"['', '9784', '2010-03-25', '23:00:00 GMT', '20', 'CHI', 'Chicago', 'Blackhawks', '19', 'CBJ', 'Columbus', 'Blue Jackets', '17', 'Nationwide Arena', '19', 'CBJ', 'Columbus', 'Blue Jackets', '1', '0', '0', '0', '0', '0', '2', '29', '27', '51.8', '1', '1', '100.0', '5', '1', '80.0', '0', '0', '8', '3', '24', '6', '15', '33']"
"['', '9799', '2010-03-27', '23:00:00 GMT', '8', 'NYI', 'New York', 'Islanders', '19', 'CBJ', 'Columbus', 'Blue Jackets', '17', 'Nationwide Arena', '19', 'CBJ', 'Columbus', 'Blue Jackets', '0', '0', '0', '1', '0', '0', '1', '23', '33', '41.1', '4', '1', '25.0', '0', '0', '0.0', '0', '0', '3', '4', '34', '0', '0', '40']"
"['', '9807', '2010-03-28', '23:00:00 GMT', '19', 'CBJ', 'Columbus', 'Blue Jackets', '20', 'CHI', 'Chicago', 'Blackhawks', '28', 'United Center', '19', 'CBJ', 'Columbus', 'Blue Jackets', '1', '0', '0', '0', '0', '0', '2', '22', '29', '43.1', '4', '0', '0.0', '4', '0', '100.0', '0', '1', '4', '2', '16', '4', '8', '16']"
"['', '9819', '2010-03-30', '23:00:00 GMT', '1', 'TBL', 'Tampa Bay', 'Lightning', '19', 'CBJ', 'Columbus', 'Blue Jackets', '17', 'Nationwide Arena', '19', 'CBJ', 'Columbus', 'Blue Jackets', '1', '0', '0', '0', '0', '0', '2', '23', '21', '52.3', '6', '1', '16.7', '4', '1', '75.0', '0', '0', '3', '2', '22', '6', '18', '34']"
"['', '9835', '2010-04-01', '23:30:00 GMT', '19', 'CBJ', 'Columbus', 'Blue Jackets', '16', 'DET', 'Detroit', 'Red Wings', '11', 'Joe Louis Arena', '19', 'CBJ', 'Columbus', 'Blue Jackets', '0', '1', '0', '0', '0', '0', '0', '26', '27', '49.1', '2', '1', '50.0', '3', '1', '66.7', '0', '0', '2', '3', '20', '3', '6', '29']"
"['', '9853', '2010-04-03', '23:00:00 GMT', '5', 'WSH', 'Washington', 'Capitals', '19', 'CBJ', 'Columbus', 'Blue Jackets', '17', 'Nationwide Arena', '19', 'CBJ', 'Columbus', 'Blue Jackets', '0', '1', '0', '0', '0', '0', '0', '21', '30', '41.2', '3', '0', '0.0', '6', '1', '83.3', '1', '0', '2', '3', '34', '6', '12', '21']"
"['', '9862', '2010-04-05', '00:00:00 GMT', '19', 'CBJ', 'Columbus', 'Blue Jackets', '17', 'STL', 'St. Louis', 'Blues', '24', 'Scottrade Center', '19', 'CBJ', 'Columbus', 'Blue Jackets', '0', '0', '0', '1', '0', '0', '1', '26', '28', '48.1', '5', '1', '20.0', '6', '1', '83.3', '0', '0', '1', '2', '27', '7', '14', '19']"
"['', '9876', '2010-04-07', '23:30:00 GMT', '19', 'CBJ', 'Columbus', 'Blue Jackets', '16', 'DET', 'Detroit', 'Red Wings', '11', 'Joe Louis Arena', '19', 'CBJ', 'Columbus', 'Blue Jackets', '0', '1', '0', '0', '0', '0', '0', '22', '25', '46.8', '1', '0', '0.0', '5', '2', '60.0', '0', '0', '3', '4', '21', '8', '27', '36']"
"['', '9891', '2010-04-09', '23:00:00 GMT', '16', 'DET', 'Detroit', 'Red Wings', '19', 'CBJ', 'Columbus', 'Blue Jackets', '17', 'Nationwide Arena', '19', 'CBJ', 'Columbus', 'Blue Jackets', '0', '0', '0', '1', '0', '0', '1', '36', '21', '63.2', '3', '0', '0.0', '4', '0', '100.0', '0', '0', '0', '0', '22', '6', '20', '32']"
