"['#Date/Time of Update: 2018-12-07 01:49:59 GMT', '#Game ID', '#Game Date', '#Game Time', '#Away Team ID', '#Away Team Abbr.', '#Away Team City', '#Away Team Name', '#Home Team ID', '#Home Team Abbr.', '#Home Team City', '#Home Team Name', '#Venue ID', '#Venue Name', '#Team ID', '#Team Abbr.', '#Team City', '#Team Name', '#Wins', '#Ties', '#Losses', '#OvertimeWins', '#OvertimeLosses', '#Points', '#FaceoffWins', '#FaceoffLosses', '#FaceoffPercent', '#Powerplays', '#PowerplayGoals', '#PowerplayPercent', '#PenaltyKills', '#PenaltyKillGoalsAllowed', '#PenaltyKillPercent', '#ShorthandedGoalsFor', '#ShorthandedGoalsAgainst', '#GoalsFor', '#GoalsAgainst', '#Shots', '#BlockedShots', '#Penalties', '#PenaltyMinutes', '#Hits']"
"['', '45861', '2018-04-12', '23:00:00 GMT', '12', 'TOR', 'Toronto', 'Maple Leafs', '11', 'BOS', 'Boston', 'Bruins', '27', 'TD Garden', '12', 'TOR', 'Toronto', 'Maple Leafs', '0', '0', '1', '0', '0', '0', '32', '32', '50.0', '3', '0', '0.0', '5', '3', '40.0', '0', '0', '1', '5', '27', '15', '6', '23', '42']"
"['', '45874', '2018-04-14', '00:00:00 GMT', '12', 'TOR', 'Toronto', 'Maple Leafs', '11', 'BOS', 'Boston', 'Bruins', '27', 'TD Garden', '12', 'TOR', 'Toronto', 'Maple Leafs', '0', '0', '1', '0', '0', '0', '39', '25', '60.9', '4', '1', '25.0', '4', '2', '50.0', '0', '0', '3', '7', '33', '4', '5', '10', '28']"
"['', '45868', '2018-04-16', '23:00:00 GMT', '11', 'BOS', 'Boston', 'Bruins', '12', 'TOR', 'Toronto', 'Maple Leafs', '1', 'Air Canada Center', '12', 'TOR', 'Toronto', 'Maple Leafs', '1', '0', '0', '0', '0', '2', '36', '34', '51.4', '1', '1', '100.0', '1', '0', '100.0', '0', '0', '4', '2', '30', '19', '3', '6', '38']"
"['', '45871', '2018-04-19', '23:00:00 GMT', '11', 'BOS', 'Boston', 'Bruins', '12', 'TOR', 'Toronto', 'Maple Leafs', '1', 'Air Canada Center', '12', 'TOR', 'Toronto', 'Maple Leafs', '0', '0', '1', '0', '0', '0', '41', '24', '63.1', '1', '0', '0.0', '0', '0', '0.0', '0', '0', '1', '3', '32', '9', '0', '0', '26']"
"['', '45927', '2018-04-21', '00:00:00 GMT', '12', 'TOR', 'Toronto', 'Maple Leafs', '11', 'BOS', 'Boston', 'Bruins', '27', 'TD Garden', '12', 'TOR', 'Toronto', 'Maple Leafs', '1', '0', '0', '0', '0', '2', '31', '35', '47.0', '1', '1', '100.0', '6', '1', '83.3', '0', '0', '4', '3', '21', '22', '9', '18', '28']"
"['', '45937', '2018-04-23', '23:00:00 GMT', '11', 'BOS', 'Boston', 'Bruins', '12', 'TOR', 'Toronto', 'Maple Leafs', '1', 'Air Canada Center', '12', 'TOR', 'Toronto', 'Maple Leafs', '1', '0', '0', '0', '0', '2', '25', '43', '36.8', '3', '0', '0.0', '2', '0', '100.0', '0', '0', '3', '1', '30', '23', '3', '6', '23']"
"['', '45939', '2018-04-25', '23:30:00 GMT', '12', 'TOR', 'Toronto', 'Maple Leafs', '11', 'BOS', 'Boston', 'Bruins', '27', 'TD Garden', '12', 'TOR', 'Toronto', 'Maple Leafs', '0', '0', '1', '0', '0', '0', '29', '38', '43.3', '2', '1', '50.0', '2', '1', '50.0', '1', '0', '4', '7', '24', '10', '4', '8', '31']"
